{
  "jsonrpc": "2.0",
  "id": "",
  "result": {
    "SignedHeader": {
      "header": {
        "chain_id": "gaia-7004",
        "height": "1053",
        "time": "2018-07-30T06:01:42.676098139Z",
        "num_txs": "0",
        "last_block_id": {
          "hash": "A682AF0CFBCA1681AB84BF17B454FC56B6B2701E",
          "parts": {
            "total": "1",
            "hash": "22D1449147CC1A98B5FDA8F90BDFE959EECECD51"
          }
        },
        "total_txs": "24",
        "last_commit_hash": "3011BC0BC73FCCAA45E70ABBF238443AF4C7DABF",
        "data_hash": "",
        "validators_hash": "4DD367D82775F39E6A02E05BA5EC2FF8822FA3A8",
        "consensus_hash": "D6B74BB35BDFFD8392340F2A379173548AE188FE",
        "app_hash": "16C930E8502BFBCA7D9BD18E0260A6825C1EFFC0",
        "last_results_hash": "",
        "evidence_hash": ""
      },
      "commit": {
        "block_id": {
          "hash": "07AEA0C3C2B5173E49FD3BC173F4ABAE60D3C778",
          "parts": {
            "total": "1",
            "hash": "EE619B9526044125A1109B5A075CB7FA05D838F5"
          }
        },
        "precommits": [
          {
            "validator_address": "029359C0C768096273A68ABC902A6B17AC8D1D70",
            "validator_index": "0",
            "height": "1053",
            "round": "1",
            "timestamp": "2018-07-30T06:01:43.657797952Z",
            "type": 2,
            "block_id": {
              "hash": "07AEA0C3C2B5173E49FD3BC173F4ABAE60D3C778",
              "parts": {
                "total": "1",
                "hash": "EE619B9526044125A1109B5A075CB7FA05D838F5"
              }
            },
            "signature": {
              "type": "tendermint/SignatureEd25519",
              "value": "npTzsQpObfT2PqpuFLlSt8ZL9CYQqgxgqLfcCg2M8MLG3xXYidItoh7sDBwrfjlKLqGE0wjWr1ir7qbCE/sFBg=="
            }
          },
          {
            "validator_address": "02FE4B97A8387F39D1AC19E0C1702B3CC614812F",
            "validator_index": "1",
            "height": "1053",
            "round": "1",
            "timestamp": "2018-07-30T06:01:43.691194221Z",
            "type": 2,
            "block_id": {
              "hash": "07AEA0C3C2B5173E49FD3BC173F4ABAE60D3C778",
              "parts": {
                "total": "1",
                "hash": "EE619B9526044125A1109B5A075CB7FA05D838F5"
              }
            },
            "signature": {
              "type": "tendermint/SignatureEd25519",
              "value": "a/h8W8RRVGfHQCZSp9CjFI07qqsaDtx0LhtyaTiomvgGHnH98QOsLqoKlBH8AvE1MzBRDlCgXPhTgIJ5CyCgDw=="
            }
          },
          {
            "validator_address": "0548261C50222FD710EB5EBDF03A0E6567B21D20",
            "validator_index": "2",
            "height": "1053",
            "round": "1",
            "timestamp": "2018-07-30T06:01:43.70140455Z",
            "type": 2,
            "block_id": {
              "hash": "07AEA0C3C2B5173E49FD3BC173F4ABAE60D3C778",
              "parts": {
                "total": "1",
                "hash": "EE619B9526044125A1109B5A075CB7FA05D838F5"
              }
            },
            "signature": {
              "type": "tendermint/SignatureEd25519",
              "value": "Bf0oWWnbaaEuWHsn9qHnJDg8dRFTbmsjaBE2laFMXcw57WiK0IZmPPKPgr4fU+ir/Ej2iKRPL4pS/JCMLpIRAQ=="
            }
          },
          null,
          null,
          {
            "validator_address": "0989D0355A104B67AE0AE028C68FB610690E174B",
            "validator_index": "5",
            "height": "1053",
            "round": "1",
            "timestamp": "2018-07-30T06:01:43.653036891Z",
            "type": 2,
            "block_id": {
              "hash": "07AEA0C3C2B5173E49FD3BC173F4ABAE60D3C778",
              "parts": {
                "total": "1",
                "hash": "EE619B9526044125A1109B5A075CB7FA05D838F5"
              }
            },
            "signature": {
              "type": "tendermint/SignatureEd25519",
              "value": "2NT2sKb2+oAOcDaX/Xmf4MRaqNqz9VgIjgjZMYsAVGOn/IF8LdX4vLn2UacUSP6DUtRZIgLtfz42YBQTYaoNDg=="
            }
          },
          {
            "validator_address": "0A692DBFFE9E5DD28E7DECC33CED1AEB4C0D014E",
            "validator_index": "6",
            "height": "1053",
            "round": "1",
            "timestamp": "2018-07-30T06:01:43.777206194Z",
            "type": 2,
            "block_id": {
              "hash": "07AEA0C3C2B5173E49FD3BC173F4ABAE60D3C778",
              "parts": {
                "total": "1",
                "hash": "EE619B9526044125A1109B5A075CB7FA05D838F5"
              }
            },
            "signature": {
              "type": "tendermint/SignatureEd25519",
              "value": "TbaD4WnN8hUGMiMtWr+f8JZirHK5rbxghYvcAiz1iS92tkyKFollt2gohsIG1yuQs0OfTCrtgNpWQwQSVpLOAA=="
            }
          },
          {
            "validator_address": "0DDF97111D73DB825138EC15EC27DE5FE8536901",
            "validator_index": "7",
            "height": "1053",
            "round": "1",
            "timestamp": "2018-07-30T06:01:43.691510974Z",
            "type": 2,
            "block_id": {
              "hash": "07AEA0C3C2B5173E49FD3BC173F4ABAE60D3C778",
              "parts": {
                "total": "1",
                "hash": "EE619B9526044125A1109B5A075CB7FA05D838F5"
              }
            },
            "signature": {
              "type": "tendermint/SignatureEd25519",
              "value": "M5Z+RzcPnyt524rmfaxBg5TD4YgOgyRYupILwWh7Ny7VaoV6h0vCgAPknPQjOuZ5bKKNCNi0yyG+rCkglOdrCw=="
            }
          },
          {
            "validator_address": "0F3FB8F818BE494E8F5597D9A8ACA57C8C5E72B7",
            "validator_index": "8",
            "height": "1053",
            "round": "1",
            "timestamp": "2018-07-30T06:01:43.848289687Z",
            "type": 2,
            "block_id": {
              "hash": "07AEA0C3C2B5173E49FD3BC173F4ABAE60D3C778",
              "parts": {
                "total": "1",
                "hash": "EE619B9526044125A1109B5A075CB7FA05D838F5"
              }
            },
            "signature": {
              "type": "tendermint/SignatureEd25519",
              "value": "Ty1vLW+S55wpyXm+A3e8CWnr+Maa+9NfIEZH5tQuH2uZeO1x0uXpjeCVPKp307GAw4gTduNUksYFzWihhf2sDw=="
            }
          },
          {
            "validator_address": "1751786EFC085D5331C61168FFFC8202EA151B4E",
            "validator_index": "9",
            "height": "1053",
            "round": "1",
            "timestamp": "2018-07-30T06:01:43.301651292Z",
            "type": 2,
            "block_id": {
              "hash": "07AEA0C3C2B5173E49FD3BC173F4ABAE60D3C778",
              "parts": {
                "total": "1",
                "hash": "EE619B9526044125A1109B5A075CB7FA05D838F5"
              }
            },
            "signature": {
              "type": "tendermint/SignatureEd25519",
              "value": "+TqgCuHq+6Lyg2gZa4+nN48usWANrKUnws0Oh050e8HkvM3yYRX0fu79Sdb/WMo/rM+tINwq/d8A5zZPRMM3AQ=="
            }
          },
          {
            "validator_address": "17BB5CD01E8940FAFB948A04D5FA5A0645E5822E",
            "validator_index": "10",
            "height": "1053",
            "round": "1",
            "timestamp": "2018-07-30T06:01:43.650863907Z",
            "type": 2,
            "block_id": {
              "hash": "07AEA0C3C2B5173E49FD3BC173F4ABAE60D3C778",
              "parts": {
                "total": "1",
                "hash": "EE619B9526044125A1109B5A075CB7FA05D838F5"
              }
            },
            "signature": {
              "type": "tendermint/SignatureEd25519",
              "value": "KSBz/2Fh0o9fJrISqdVbITVOrCR860u0BIBav3C7Kggb6J6wixTaOMBhFlT3Wx6zXiHKIwfnM8CqQGeo4fBOCw=="
            }
          },
          null,
          {
            "validator_address": "1E9CE94FD0BA5CFEB901F90BC658D64D85B134D2",
            "validator_index": "12",
            "height": "1053",
            "round": "1",
            "timestamp": "2018-07-30T06:01:43.655645804Z",
            "type": 2,
            "block_id": {
              "hash": "07AEA0C3C2B5173E49FD3BC173F4ABAE60D3C778",
              "parts": {
                "total": "1",
                "hash": "EE619B9526044125A1109B5A075CB7FA05D838F5"
              }
            },
            "signature": {
              "type": "tendermint/SignatureEd25519",
              "value": "bG6HNBcz9aAYW0QQoYrpVjTmz2W76LDK0wM1AtKwntJyY8U5WHrsuJ6hgQn+Den6XV7kG9ul9Fr1q9byRbz2CA=="
            }
          },
          {
            "validator_address": "1ECD8C5FE1341D74CDC633A245DD56858DE2F9A2",
            "validator_index": "13",
            "height": "1053",
            "round": "1",
            "timestamp": "2018-07-30T06:01:43.874849285Z",
            "type": 2,
            "block_id": {
              "hash": "07AEA0C3C2B5173E49FD3BC173F4ABAE60D3C778",
              "parts": {
                "total": "1",
                "hash": "EE619B9526044125A1109B5A075CB7FA05D838F5"
              }
            },
            "signature": {
              "type": "tendermint/SignatureEd25519",
              "value": "AjwWdGCYuREeg7eoTG7q4YsXXXYCnTUEOT6bD/buLd1iS0UKaRinBrvVms8PfMbhIGF5YYAlj+wUqVY8Ck6yAQ=="
            }
          },
          null,
          null,
          {
            "validator_address": "23897586D68E2AC1C78E0EF5BB5DF5C8EAB18F50",
            "validator_index": "16",
            "height": "1053",
            "round": "1",
            "timestamp": "2018-07-30T06:01:43.778741604Z",
            "type": 2,
            "block_id": {
              "hash": "07AEA0C3C2B5173E49FD3BC173F4ABAE60D3C778",
              "parts": {
                "total": "1",
                "hash": "EE619B9526044125A1109B5A075CB7FA05D838F5"
              }
            },
            "signature": {
              "type": "tendermint/SignatureEd25519",
              "value": "Fvq610rnBk1zxqeH8wUjJeVUbAwKv7fKUN3XIp7oaJ0uHWxBeznKnA1fXASbIX+WwIRtl728CMKbbBRCy/41Dw=="
            }
          },
          {
            "validator_address": "28770D17E8530825E7310A0659308654B7EC9682",
            "validator_index": "17",
            "height": "1053",
            "round": "1",
            "timestamp": "2018-07-30T06:01:43.641449509Z",
            "type": 2,
            "block_id": {
              "hash": "07AEA0C3C2B5173E49FD3BC173F4ABAE60D3C778",
              "parts": {
                "total": "1",
                "hash": "EE619B9526044125A1109B5A075CB7FA05D838F5"
              }
            },
            "signature": {
              "type": "tendermint/SignatureEd25519",
              "value": "cK6se9+4WD5XAjKHiJxxHtWjzjuwUpehpv+yPNgJL2sH8GAcmz9IXrmCnbIBqqaAkhonHO4lW3lQJB6GDTf7Dg=="
            }
          },
          null,
          {
            "validator_address": "2A92EC3C642140202298D0E245095E0ECFC25228",
            "validator_index": "19",
            "height": "1053",
            "round": "1",
            "timestamp": "2018-07-30T06:01:43.804290969Z",
            "type": 2,
            "block_id": {
              "hash": "07AEA0C3C2B5173E49FD3BC173F4ABAE60D3C778",
              "parts": {
                "total": "1",
                "hash": "EE619B9526044125A1109B5A075CB7FA05D838F5"
              }
            },
            "signature": {
              "type": "tendermint/SignatureEd25519",
              "value": "EYd71TB8ivhEhZXnjE35jomq9sE5xDvMl/cCcCVWaS15ENj9yMRrK0QuRKw6N5eJjCesTSchwa9rIq/pTctdCg=="
            }
          },
          null,
          null,
          {
            "validator_address": "33412C9A69C60CB0FAA24A5C5B3A906DE24B47C2",
            "validator_index": "22",
            "height": "1053",
            "round": "1",
            "timestamp": "2018-07-30T06:01:43.641565522Z",
            "type": 2,
            "block_id": {
              "hash": "07AEA0C3C2B5173E49FD3BC173F4ABAE60D3C778",
              "parts": {
                "total": "1",
                "hash": "EE619B9526044125A1109B5A075CB7FA05D838F5"
              }
            },
            "signature": {
              "type": "tendermint/SignatureEd25519",
              "value": "8giVQEaBAW/VJFNH5D4kpBH+G/p+UDxRuIHrc43Wv3scQ3rvlvHWFky2cwgks8DS0m8AO35fq5pQijPM0sYmAw=="
            }
          },
          null,
          {
            "validator_address": "36E9B7FAEC964F97D84C028ED62493E373AD0B38",
            "validator_index": "24",
            "height": "1053",
            "round": "1",
            "timestamp": "2018-07-30T06:01:43.702604896Z",
            "type": 2,
            "block_id": {
              "hash": "07AEA0C3C2B5173E49FD3BC173F4ABAE60D3C778",
              "parts": {
                "total": "1",
                "hash": "EE619B9526044125A1109B5A075CB7FA05D838F5"
              }
            },
            "signature": {
              "type": "tendermint/SignatureEd25519",
              "value": "l6QAOU6PlZUg9ubz2vYgfL70TxhhhTiV4+sZ7Uv18Weqo/W0iqwHzYyiWPXDOjc9GkGqdP9PRZGcdilw6e1vDw=="
            }
          },
          {
            "validator_address": "38A8D85D36BEA2E5FCF8A1E778F53628E450EF13",
            "validator_index": "25",
            "height": "1053",
            "round": "1",
            "timestamp": "2018-07-30T06:01:43.785267953Z",
            "type": 2,
            "block_id": {
              "hash": "07AEA0C3C2B5173E49FD3BC173F4ABAE60D3C778",
              "parts": {
                "total": "1",
                "hash": "EE619B9526044125A1109B5A075CB7FA05D838F5"
              }
            },
            "signature": {
              "type": "tendermint/SignatureEd25519",
              "value": "2qdSXI12kPBzK6vqSV4yq8Fmm07WJkWs5DLgq0rOj0M1X0SToOW/RaXnseMTwaSYc42lhJztaNlVNZO54VlPCA=="
            }
          },
          null,
          {
            "validator_address": "3AC99B708404452366E0953A4BE849226DC86CBC",
            "validator_index": "27",
            "height": "1053",
            "round": "1",
            "timestamp": "2018-07-30T06:01:43.796060632Z",
            "type": 2,
            "block_id": {
              "hash": "07AEA0C3C2B5173E49FD3BC173F4ABAE60D3C778",
              "parts": {
                "total": "1",
                "hash": "EE619B9526044125A1109B5A075CB7FA05D838F5"
              }
            },
            "signature": {
              "type": "tendermint/SignatureEd25519",
              "value": "7cFX61rRUzAiyjSz8pt2czrsZ5l3cHaLFBQaC5EHLrELk6bDK7t2FX/qoBThAQ2b7XQlNKQUTdXfuY2+gpIaBw=="
            }
          },
          {
            "validator_address": "3DCB822A10ED319EC7C4393D8E3FD4A41B15AAF2",
            "validator_index": "28",
            "height": "1053",
            "round": "1",
            "timestamp": "2018-07-30T06:01:43.641339045Z",
            "type": 2,
            "block_id": {
              "hash": "07AEA0C3C2B5173E49FD3BC173F4ABAE60D3C778",
              "parts": {
                "total": "1",
                "hash": "EE619B9526044125A1109B5A075CB7FA05D838F5"
              }
            },
            "signature": {
              "type": "tendermint/SignatureEd25519",
              "value": "PoJ75jTXNC9w+BqVwlBdQCW8ZOmgSCPh+6ihL+d+08yWeMNBCAMBCg+GDO0+AWtCy1+vbeojEwKwtEWP5ghHAA=="
            }
          },
          {
            "validator_address": "3E899BA36A93C7370347BD5FE85909F2ECD93F8C",
            "validator_index": "29",
            "height": "1053",
            "round": "1",
            "timestamp": "2018-07-30T06:01:43.681228965Z",
            "type": 2,
            "block_id": {
              "hash": "07AEA0C3C2B5173E49FD3BC173F4ABAE60D3C778",
              "parts": {
                "total": "1",
                "hash": "EE619B9526044125A1109B5A075CB7FA05D838F5"
              }
            },
            "signature": {
              "type": "tendermint/SignatureEd25519",
              "value": "FFn48iTYQB4KiA83Y3FfR7qf/WEmh49jeghO1QjIex0EpBmwONEf6TR7R5qEwtHdEonHXYqgjbc91QYinZoLBQ=="
            }
          },
          null,
          {
            "validator_address": "462B656869DB02A8FD1077E255F8CC7401DC37C6",
            "validator_index": "31",
            "height": "1053",
            "round": "1",
            "timestamp": "2018-07-30T06:01:43.748679264Z",
            "type": 2,
            "block_id": {
              "hash": "07AEA0C3C2B5173E49FD3BC173F4ABAE60D3C778",
              "parts": {
                "total": "1",
                "hash": "EE619B9526044125A1109B5A075CB7FA05D838F5"
              }
            },
            "signature": {
              "type": "tendermint/SignatureEd25519",
              "value": "5PaLBBFFO8RaEbpNqPrDqPX9p+Gi8TXlnFLGPoI0pZ+Vi0dPUb4W1BARd/2/S3bd1qIYHbfDdxdSbmgrVUZADQ=="
            }
          },
          {
            "validator_address": "48E5118163E5442068A1B5A42D2EEDBB75724935",
            "validator_index": "32",
            "height": "1053",
            "round": "1",
            "timestamp": "2018-07-30T06:01:43.820791639Z",
            "type": 2,
            "block_id": {
              "hash": "07AEA0C3C2B5173E49FD3BC173F4ABAE60D3C778",
              "parts": {
                "total": "1",
                "hash": "EE619B9526044125A1109B5A075CB7FA05D838F5"
              }
            },
            "signature": {
              "type": "tendermint/SignatureEd25519",
              "value": "InX8b8ZuR7VbPk+4BI9/dQmq0/jPgqQ0+ZSgxtspekjMUF5ndPsYRLXgWfC2aLNZ6s/t+bwwVUDBVWZtsp9YAQ=="
            }
          },
          null,
          {
            "validator_address": "4944F8BBBB5303E17BC0607DF332320EDBC750EA",
            "validator_index": "34",
            "height": "1053",
            "round": "1",
            "timestamp": "2018-07-30T06:01:43.640550716Z",
            "type": 2,
            "block_id": {
              "hash": "07AEA0C3C2B5173E49FD3BC173F4ABAE60D3C778",
              "parts": {
                "total": "1",
                "hash": "EE619B9526044125A1109B5A075CB7FA05D838F5"
              }
            },
            "signature": {
              "type": "tendermint/SignatureEd25519",
              "value": "2I/vNa/jN+J1TnhLBeJ7P7hKjJ3CeZXp3xp/O+zvT/5g9VXTBSKEipQ67PiKFFWWHlhOXcQK/3ltQyVMFjS1CQ=="
            }
          },
          {
            "validator_address": "49841599DE675157CBE1E7D6B35BF8FFC23BD5CB",
            "validator_index": "35",
            "height": "1053",
            "round": "1",
            "timestamp": "2018-07-30T06:01:43.632760249Z",
            "type": 2,
            "block_id": {
              "hash": "07AEA0C3C2B5173E49FD3BC173F4ABAE60D3C778",
              "parts": {
                "total": "1",
                "hash": "EE619B9526044125A1109B5A075CB7FA05D838F5"
              }
            },
            "signature": {
              "type": "tendermint/SignatureEd25519",
              "value": "RufmWg6Mp6cQJ9mDmXxeTtcS7DpkixybTiKUh/ptWoBbGiq72s3tlvU3OTekThgiceej/ylaSrlLg0ZKrCZzCw=="
            }
          },
          {
            "validator_address": "543564ECA3AFEFADC73EE8591AAC3A96F079BC8A",
            "validator_index": "36",
            "height": "1053",
            "round": "1",
            "timestamp": "2018-07-30T06:01:43.645220837Z",
            "type": 2,
            "block_id": {
              "hash": "07AEA0C3C2B5173E49FD3BC173F4ABAE60D3C778",
              "parts": {
                "total": "1",
                "hash": "EE619B9526044125A1109B5A075CB7FA05D838F5"
              }
            },
            "signature": {
              "type": "tendermint/SignatureEd25519",
              "value": "s8q12gFP818/48yR76z7jl9jbNnzZ+lrV5ktz7i0J8Zza+M505z2y4XgE045RS9DA7jqp8hxgNagtSeRtomgDg=="
            }
          },
          {
            "validator_address": "55D67B1A6DC13E96F8754A5A42EABC20F7F86664",
            "validator_index": "37",
            "height": "1053",
            "round": "1",
            "timestamp": "2018-07-30T06:01:43.679338056Z",
            "type": 2,
            "block_id": {
              "hash": "07AEA0C3C2B5173E49FD3BC173F4ABAE60D3C778",
              "parts": {
                "total": "1",
                "hash": "EE619B9526044125A1109B5A075CB7FA05D838F5"
              }
            },
            "signature": {
              "type": "tendermint/SignatureEd25519",
              "value": "UQfRxp+KrdduulUf75QsA4qmpKtQJWtn3MuBFUlP1AdV2lfDLz9ECFuW/xEVUFZHjAUPqtUuWwD+eX/EIqJqBA=="
            }
          },
          {
            "validator_address": "570B6A755ED339EAC56BB3390A48069F6AC9449B",
            "validator_index": "38",
            "height": "1053",
            "round": "1",
            "timestamp": "2018-07-30T06:01:45.727318453Z",
            "type": 2,
            "block_id": {
              "hash": "07AEA0C3C2B5173E49FD3BC173F4ABAE60D3C778",
              "parts": {
                "total": "1",
                "hash": "EE619B9526044125A1109B5A075CB7FA05D838F5"
              }
            },
            "signature": {
              "type": "tendermint/SignatureEd25519",
              "value": "inRtpMwIWGNWiKjFoyY2dWo+Zm1e8fPL1cDreDlij37b1Z/wJ2L6eG20SPCs7pRUtrnn7WG9OZjqkLXQsFR2AA=="
            }
          },
          {
            "validator_address": "5BDF8EA41B1835FBAD865B181A2A4B23F511B5E4",
            "validator_index": "39",
            "height": "1053",
            "round": "1",
            "timestamp": "2018-07-30T06:01:43.618724738Z",
            "type": 2,
            "block_id": {
              "hash": "07AEA0C3C2B5173E49FD3BC173F4ABAE60D3C778",
              "parts": {
                "total": "1",
                "hash": "EE619B9526044125A1109B5A075CB7FA05D838F5"
              }
            },
            "signature": {
              "type": "tendermint/SignatureEd25519",
              "value": "0zNXCoknPbgKcxr3+IlLkYWvAa++dOltrGe0ZD3D5gP3fqBWxgErY1EeyvYGhjI8Zqg6mGk03Q7MyIbeRtehDA=="
            }
          },
          null,
          null,
          {
            "validator_address": "60229E2E273297FE00219E46DFFB8F76844CDEF9",
            "validator_index": "42",
            "height": "1053",
            "round": "1",
            "timestamp": "2018-07-30T06:01:43.342343669Z",
            "type": 2,
            "block_id": {
              "hash": "07AEA0C3C2B5173E49FD3BC173F4ABAE60D3C778",
              "parts": {
                "total": "1",
                "hash": "EE619B9526044125A1109B5A075CB7FA05D838F5"
              }
            },
            "signature": {
              "type": "tendermint/SignatureEd25519",
              "value": "9IypzMxdOxlvr6yI0Uu/aTDyPuVQonGJTAuDsA8cXHUW0rcxmR0md+mTF4hIuWdlqkjegyqFwca04JJ8mlYSCQ=="
            }
          },
          {
            "validator_address": "62410D6D1CD98278136E4D0738AA0EA273CDFC54",
            "validator_index": "43",
            "height": "1053",
            "round": "1",
            "timestamp": "2018-07-30T06:01:43.646044265Z",
            "type": 2,
            "block_id": {
              "hash": "07AEA0C3C2B5173E49FD3BC173F4ABAE60D3C778",
              "parts": {
                "total": "1",
                "hash": "EE619B9526044125A1109B5A075CB7FA05D838F5"
              }
            },
            "signature": {
              "type": "tendermint/SignatureEd25519",
              "value": "0vhKgyQpYPmkQEkXjzYixfo/ZO5MFtseDyYMWbyzBUgiXBqD0w4vNwyXL6N+ArHxlEDzijfQzTLk4Y372QKlCg=="
            }
          },
          {
            "validator_address": "632F5C139A5A9DFBFE5111DEE29FCFB6157207DC",
            "validator_index": "44",
            "height": "1053",
            "round": "1",
            "timestamp": "2018-07-30T06:01:43.621772988Z",
            "type": 2,
            "block_id": {
              "hash": "07AEA0C3C2B5173E49FD3BC173F4ABAE60D3C778",
              "parts": {
                "total": "1",
                "hash": "EE619B9526044125A1109B5A075CB7FA05D838F5"
              }
            },
            "signature": {
              "type": "tendermint/SignatureEd25519",
              "value": "t+gkoxxWXKFjN/zscGDVVOe2GgxkT3zBqLwEKJBrhzK6fKbB6+D5je+749/M7MOURo2DF32oQfL+n/WGQoa1CQ=="
            }
          },
          {
            "validator_address": "64F57F8E796A9B7B590C1EFA4123988C86631D39",
            "validator_index": "45",
            "height": "1053",
            "round": "1",
            "timestamp": "2018-07-30T06:01:43.701753206Z",
            "type": 2,
            "block_id": {
              "hash": "07AEA0C3C2B5173E49FD3BC173F4ABAE60D3C778",
              "parts": {
                "total": "1",
                "hash": "EE619B9526044125A1109B5A075CB7FA05D838F5"
              }
            },
            "signature": {
              "type": "tendermint/SignatureEd25519",
              "value": "513btNPL+yhAlsqGuwaot1zom93Zpw+CKB1sF5GI7LRSBnXvp3MIp9ePWj80BD3rqidXkYvL/ToNZZztflYWBw=="
            }
          },
          {
            "validator_address": "69D99B2C66043ACBEAA8447525C356AFC6408E0C",
            "validator_index": "46",
            "height": "1053",
            "round": "1",
            "timestamp": "2018-07-30T06:01:43.784332235Z",
            "type": 2,
            "block_id": {
              "hash": "07AEA0C3C2B5173E49FD3BC173F4ABAE60D3C778",
              "parts": {
                "total": "1",
                "hash": "EE619B9526044125A1109B5A075CB7FA05D838F5"
              }
            },
            "signature": {
              "type": "tendermint/SignatureEd25519",
              "value": "nWD6AGLE+nHOZG4bDsIRbfGibm5Q/Dok26l+CuuAk6NWBOYI3t0YB/tBnCBLeIEK9NWvXIaTeaaWsXFo1ofqBg=="
            }
          },
          {
            "validator_address": "6D3AD380E398D8592B03AA124BAFED5F125DF863",
            "validator_index": "47",
            "height": "1053",
            "round": "1",
            "timestamp": "2018-07-30T06:00:42.284622764Z",
            "type": 2,
            "block_id": {
              "hash": "07AEA0C3C2B5173E49FD3BC173F4ABAE60D3C778",
              "parts": {
                "total": "1",
                "hash": "EE619B9526044125A1109B5A075CB7FA05D838F5"
              }
            },
            "signature": {
              "type": "tendermint/SignatureEd25519",
              "value": "P8ULI72EsabyFufCKZtAWVOmdQ8gxDiuG82unFD90LrcmPTZJh2fu6Ie/VkC7yRrqr7uP5N3KsEMf01QMdDZDA=="
            }
          },
          {
            "validator_address": "6F6C93B8BF3495063FEC9B5C771158607F4AE9D6",
            "validator_index": "48",
            "height": "1053",
            "round": "1",
            "timestamp": "2018-07-30T06:01:43.852555947Z",
            "type": 2,
            "block_id": {
              "hash": "07AEA0C3C2B5173E49FD3BC173F4ABAE60D3C778",
              "parts": {
                "total": "1",
                "hash": "EE619B9526044125A1109B5A075CB7FA05D838F5"
              }
            },
            "signature": {
              "type": "tendermint/SignatureEd25519",
              "value": "oeY0pSMolOEOZ1PwszZkC6m5eedL1af3Y1r1ZjKJI7bfokZY6tKjKm79dQeTxVaaIRqqqBkAmkcDFcCDiPXgAg=="
            }
          },
          {
            "validator_address": "732CEEF54C374DDC6ADECBFD707AEFD07FEDC143",
            "validator_index": "49",
            "height": "1053",
            "round": "1",
            "timestamp": "2018-07-30T06:01:43.767599232Z",
            "type": 2,
            "block_id": {
              "hash": "07AEA0C3C2B5173E49FD3BC173F4ABAE60D3C778",
              "parts": {
                "total": "1",
                "hash": "EE619B9526044125A1109B5A075CB7FA05D838F5"
              }
            },
            "signature": {
              "type": "tendermint/SignatureEd25519",
              "value": "lHy0OJtQLZSzWBbP/Z04ZllJJNCJXoLE+Z2eGOcYuIOWOsizuF0dzCbopAVkjgSDqnJxs3ne3pn2AgyPOAhIBw=="
            }
          },
          {
            "validator_address": "7393D691BFAE9661918C09932D4D9060AB40939B",
            "validator_index": "50",
            "height": "1053",
            "round": "1",
            "timestamp": "2018-07-30T06:01:43.78943078Z",
            "type": 2,
            "block_id": {
              "hash": "07AEA0C3C2B5173E49FD3BC173F4ABAE60D3C778",
              "parts": {
                "total": "1",
                "hash": "EE619B9526044125A1109B5A075CB7FA05D838F5"
              }
            },
            "signature": {
              "type": "tendermint/SignatureEd25519",
              "value": "HOftJie1tcAD9x/PqHse0tpdYoPOwpEU5aK7BfFgXI4RtYL2y8FoDxnyBDgMdMqgr/1cSbZRUPEKGCAkibpSAA=="
            }
          },
          {
            "validator_address": "751E43437224E8BB6D1569B3E2B2616B6E7F4397",
            "validator_index": "51",
            "height": "1053",
            "round": "1",
            "timestamp": "2018-07-30T06:01:43.722759092Z",
            "type": 2,
            "block_id": {
              "hash": "07AEA0C3C2B5173E49FD3BC173F4ABAE60D3C778",
              "parts": {
                "total": "1",
                "hash": "EE619B9526044125A1109B5A075CB7FA05D838F5"
              }
            },
            "signature": {
              "type": "tendermint/SignatureEd25519",
              "value": "IVLiYY7eZz2OSQasGxDNOz7EKuVg4KEyZr/C8AprL0E8wrZjjKXXVTobVT/CzY/0tWJWAostvZ3JTWpSp291Dw=="
            }
          },
          {
            "validator_address": "7EB7593F519F1180C7E872D0494611464EDF03AE",
            "validator_index": "52",
            "height": "1053",
            "round": "1",
            "timestamp": "2018-07-30T06:01:43.816298108Z",
            "type": 2,
            "block_id": {
              "hash": "07AEA0C3C2B5173E49FD3BC173F4ABAE60D3C778",
              "parts": {
                "total": "1",
                "hash": "EE619B9526044125A1109B5A075CB7FA05D838F5"
              }
            },
            "signature": {
              "type": "tendermint/SignatureEd25519",
              "value": "hDNXV7+uTv4ZVBU/1l/AAr7beb+Y0SVfi9KZ31xwpWmWF5IparjlvoBOcETEwc1U9jUREoWSNu1aY2xcDzSEDw=="
            }
          },
          {
            "validator_address": "807CF675BA8479FC4FEC1047215DF07970040F1F",
            "validator_index": "53",
            "height": "1053",
            "round": "1",
            "timestamp": "2018-07-30T06:01:43.945593745Z",
            "type": 2,
            "block_id": {
              "hash": "07AEA0C3C2B5173E49FD3BC173F4ABAE60D3C778",
              "parts": {
                "total": "1",
                "hash": "EE619B9526044125A1109B5A075CB7FA05D838F5"
              }
            },
            "signature": {
              "type": "tendermint/SignatureEd25519",
              "value": "Imm2YIrLfQlP8ZN/ynFHs0SdCluKGKAPvSt+lhapsuNJrauQSRiPr/C53ydyCFdWnYEpQFFGExEL89T4PDu1Bw=="
            }
          },
          null,
          null,
          {
            "validator_address": "83AB321E012C57746689FED3A6064DF331F81007",
            "validator_index": "56",
            "height": "1053",
            "round": "1",
            "timestamp": "2018-07-30T06:01:43.683439532Z",
            "type": 2,
            "block_id": {
              "hash": "07AEA0C3C2B5173E49FD3BC173F4ABAE60D3C778",
              "parts": {
                "total": "1",
                "hash": "EE619B9526044125A1109B5A075CB7FA05D838F5"
              }
            },
            "signature": {
              "type": "tendermint/SignatureEd25519",
              "value": "yuMZ3Eck5PPhIOUG5zQFHcGtoSvmVN7vZ6OKJm+sWNWNDnCyKhSwASSFgll3kfw+2DNiRJjfncevUNGXbFiiBQ=="
            }
          },
          {
            "validator_address": "83BB1B88D3DBB20AD845FECA07749EBD87D3754D",
            "validator_index": "57",
            "height": "1053",
            "round": "1",
            "timestamp": "2018-07-30T06:01:43.891149738Z",
            "type": 2,
            "block_id": {
              "hash": "07AEA0C3C2B5173E49FD3BC173F4ABAE60D3C778",
              "parts": {
                "total": "1",
                "hash": "EE619B9526044125A1109B5A075CB7FA05D838F5"
              }
            },
            "signature": {
              "type": "tendermint/SignatureEd25519",
              "value": "RGt03aJcQX/vx5j76t2I+Gt0IcsXeuRtWJFM6a9niv61WMgh5Y1oQgLzr1iwvfRcc3wf9gdPE9N8xutToKkCBQ=="
            }
          },
          null,
          null,
          {
            "validator_address": "8F45617BF45B10A3F8283DEBDB35E38C7CA43237",
            "validator_index": "60",
            "height": "1053",
            "round": "1",
            "timestamp": "2018-07-30T06:01:43.695414791Z",
            "type": 2,
            "block_id": {
              "hash": "07AEA0C3C2B5173E49FD3BC173F4ABAE60D3C778",
              "parts": {
                "total": "1",
                "hash": "EE619B9526044125A1109B5A075CB7FA05D838F5"
              }
            },
            "signature": {
              "type": "tendermint/SignatureEd25519",
              "value": "9Fsr1m/eUgv3KR4+JS9nLIWXXCpoEa1oqxxWSTV9gtJ/6XHuE182B1jYLJJIY6SvOmKNXR7smW626YFVx//AAg=="
            }
          },
          null,
          null,
          {
            "validator_address": "95FAFBC1E0579C83D290A063020CE87C5334BD9B",
            "validator_index": "63",
            "height": "1053",
            "round": "1",
            "timestamp": "2018-07-30T06:01:43.667497597Z",
            "type": 2,
            "block_id": {
              "hash": "07AEA0C3C2B5173E49FD3BC173F4ABAE60D3C778",
              "parts": {
                "total": "1",
                "hash": "EE619B9526044125A1109B5A075CB7FA05D838F5"
              }
            },
            "signature": {
              "type": "tendermint/SignatureEd25519",
              "value": "02nNkNh3MQGrLbNgPa7Ok7OkDfivmAqjg/iaSU/RhznwuPaz96KkylBnFa50c/HqkPUfBE6gW+SkhxDHqG7FCg=="
            }
          },
          {
            "validator_address": "96BDE45EC52606CF5CB59853097871AD60680549",
            "validator_index": "64",
            "height": "1053",
            "round": "1",
            "timestamp": "2018-07-30T06:01:43.704975208Z",
            "type": 2,
            "block_id": {
              "hash": "07AEA0C3C2B5173E49FD3BC173F4ABAE60D3C778",
              "parts": {
                "total": "1",
                "hash": "EE619B9526044125A1109B5A075CB7FA05D838F5"
              }
            },
            "signature": {
              "type": "tendermint/SignatureEd25519",
              "value": "ZmJ/dQRqKtBZuZ8RqqUibxAckzKiD7oDVeK06YKJGBoZVxpJhkMfbH/XlvQ0a02nK1dPdsyirXWyjNVhJJfWBg=="
            }
          },
          null,
          {
            "validator_address": "9C29C9B76D27586E4D9AD2AED0E943162645E55C",
            "validator_index": "66",
            "height": "1053",
            "round": "1",
            "timestamp": "2018-07-30T06:01:43.609970182Z",
            "type": 2,
            "block_id": {
              "hash": "07AEA0C3C2B5173E49FD3BC173F4ABAE60D3C778",
              "parts": {
                "total": "1",
                "hash": "EE619B9526044125A1109B5A075CB7FA05D838F5"
              }
            },
            "signature": {
              "type": "tendermint/SignatureEd25519",
              "value": "WPfxEbrfYT7HdrOzYuIEkpZwZxLcWEQ3ZEBdisF9ZaFuVAv24LT5wi4s8w/kKRI3nZ2TJ8dho4sBnOKTrULOBw=="
            }
          },
          {
            "validator_address": "9D93AD02FE1BD7E76B9E58D7EB461088EAD011E5",
            "validator_index": "67",
            "height": "1053",
            "round": "1",
            "timestamp": "2018-07-30T06:01:43.690295673Z",
            "type": 2,
            "block_id": {
              "hash": "07AEA0C3C2B5173E49FD3BC173F4ABAE60D3C778",
              "parts": {
                "total": "1",
                "hash": "EE619B9526044125A1109B5A075CB7FA05D838F5"
              }
            },
            "signature": {
              "type": "tendermint/SignatureEd25519",
              "value": "3Z//RgJHDqbyh0V4l7cT5ViBZunZoq56xBVE1laLN/wY3vFJDedvRCzMaFXP9Lh7VaviGeTM91XDJ8q0WkgBAA=="
            }
          },
          null,
          {
            "validator_address": "A0A6466F4ABEA09C3B55E3709AFDE217A103209F",
            "validator_index": "69",
            "height": "1053",
            "round": "1",
            "timestamp": "2018-07-30T06:01:43.65063199Z",
            "type": 2,
            "block_id": {
              "hash": "07AEA0C3C2B5173E49FD3BC173F4ABAE60D3C778",
              "parts": {
                "total": "1",
                "hash": "EE619B9526044125A1109B5A075CB7FA05D838F5"
              }
            },
            "signature": {
              "type": "tendermint/SignatureEd25519",
              "value": "ixTUXqjQSVS5J7avEKvA1dvW6hvCmpyni8DGQ/EBumalnHYk+26xsAvT08Faeashf+ryoc9dRD3A+HNpK5RYCQ=="
            }
          },
          {
            "validator_address": "A5868971300F155020634D7BB49C7634F7AACCD3",
            "validator_index": "70",
            "height": "1053",
            "round": "1",
            "timestamp": "2018-07-30T06:01:43.64365429Z",
            "type": 2,
            "block_id": {
              "hash": "07AEA0C3C2B5173E49FD3BC173F4ABAE60D3C778",
              "parts": {
                "total": "1",
                "hash": "EE619B9526044125A1109B5A075CB7FA05D838F5"
              }
            },
            "signature": {
              "type": "tendermint/SignatureEd25519",
              "value": "A1rDdvLfpJlmqMVQ0JJlRQElkyoT2HAK6ebtNMPxDLqPv+9uF/zCjEdkdWl65fIU0FlmJBL+sosq04Rc/mn/Bw=="
            }
          },
          {
            "validator_address": "A6B3A5B5D982CFD7B5FDFA15CF5A720E7AE25E7F",
            "validator_index": "71",
            "height": "1053",
            "round": "1",
            "timestamp": "2018-07-30T06:01:43.621731127Z",
            "type": 2,
            "block_id": {
              "hash": "07AEA0C3C2B5173E49FD3BC173F4ABAE60D3C778",
              "parts": {
                "total": "1",
                "hash": "EE619B9526044125A1109B5A075CB7FA05D838F5"
              }
            },
            "signature": {
              "type": "tendermint/SignatureEd25519",
              "value": "tV0va/4vAM94bPDsUXHUqp0ThEs6lWGwfTe58DoOSRAQ/s9QgLGs5/jwMgTDJkN9hnBDYGKcVJnz/BX61oC8AQ=="
            }
          },
          {
            "validator_address": "AC96444A9083890B7C7B430DB17BF1D3EA5EED04",
            "validator_index": "72",
            "height": "1053",
            "round": "1",
            "timestamp": "2018-07-30T06:01:43.776859409Z",
            "type": 2,
            "block_id": {
              "hash": "07AEA0C3C2B5173E49FD3BC173F4ABAE60D3C778",
              "parts": {
                "total": "1",
                "hash": "EE619B9526044125A1109B5A075CB7FA05D838F5"
              }
            },
            "signature": {
              "type": "tendermint/SignatureEd25519",
              "value": "B4ycw56wGgXm7jwjbkyyJWumJ9pLJ2N+NSjaT1tWo6nHujDuev+aPVqf9pZS+ri6erNXDeibhoCObpuAgNgvDA=="
            }
          },
          {
            "validator_address": "ACB97FDA2D940AF0709B73537C458EB988AD2893",
            "validator_index": "73",
            "height": "1053",
            "round": "1",
            "timestamp": "2018-07-30T06:01:43.681659384Z",
            "type": 2,
            "block_id": {
              "hash": "07AEA0C3C2B5173E49FD3BC173F4ABAE60D3C778",
              "parts": {
                "total": "1",
                "hash": "EE619B9526044125A1109B5A075CB7FA05D838F5"
              }
            },
            "signature": {
              "type": "tendermint/SignatureEd25519",
              "value": "puCZEvG0Vk2EGAe+fVS8KtDfABV167ows7MVRkvfEtB6iZPkNSKXTND7PucQGtb4stZL/x0IknslIAjkmBzRCQ=="
            }
          },
          {
            "validator_address": "B197425B3210375F211661DE02EF2AE36580EB0F",
            "validator_index": "74",
            "height": "1053",
            "round": "1",
            "timestamp": "2018-07-30T06:01:43.713537571Z",
            "type": 2,
            "block_id": {
              "hash": "07AEA0C3C2B5173E49FD3BC173F4ABAE60D3C778",
              "parts": {
                "total": "1",
                "hash": "EE619B9526044125A1109B5A075CB7FA05D838F5"
              }
            },
            "signature": {
              "type": "tendermint/SignatureEd25519",
              "value": "osL5hXAg8wLz1111BmLHIISUMxYW61Ci1WBhhYWPLjkPMAMro5EX9MjNot9fUI1AqTD9K2NAr+qT9KKR/HM5Bg=="
            }
          },
          {
            "validator_address": "B45E54D2D1CB5A4CCD1D49016608C18E7C56B270",
            "validator_index": "75",
            "height": "1053",
            "round": "1",
            "timestamp": "2018-07-30T06:01:43.883845676Z",
            "type": 2,
            "block_id": {
              "hash": "07AEA0C3C2B5173E49FD3BC173F4ABAE60D3C778",
              "parts": {
                "total": "1",
                "hash": "EE619B9526044125A1109B5A075CB7FA05D838F5"
              }
            },
            "signature": {
              "type": "tendermint/SignatureEd25519",
              "value": "5vYIv2FekUyxuByQHvUooS8tioT4g+xjbp+oIcInjBLyra6gmywktbmKP37SyfVS7N6rqykh4hKXqOCHBY7JBg=="
            }
          },
          {
            "validator_address": "B59A34C0BE4EC73AF6A67D274F1695C9259C237C",
            "validator_index": "76",
            "height": "1053",
            "round": "1",
            "timestamp": "2018-07-30T06:01:43.748433526Z",
            "type": 2,
            "block_id": {
              "hash": "07AEA0C3C2B5173E49FD3BC173F4ABAE60D3C778",
              "parts": {
                "total": "1",
                "hash": "EE619B9526044125A1109B5A075CB7FA05D838F5"
              }
            },
            "signature": {
              "type": "tendermint/SignatureEd25519",
              "value": "Oqjdtm+npZ8saACjS4R4NMBjct5fq0MG1cX9Wo+nXZmVIiL09iG2RIq3nqcmOAxBz3DIN2+xFD0KAaoSgj9OBw=="
            }
          },
          {
            "validator_address": "BC36FEDD6EF6071118A3E51859DF3831A2EC4782",
            "validator_index": "77",
            "height": "1053",
            "round": "1",
            "timestamp": "2018-07-30T06:01:43.713393554Z",
            "type": 2,
            "block_id": {
              "hash": "07AEA0C3C2B5173E49FD3BC173F4ABAE60D3C778",
              "parts": {
                "total": "1",
                "hash": "EE619B9526044125A1109B5A075CB7FA05D838F5"
              }
            },
            "signature": {
              "type": "tendermint/SignatureEd25519",
              "value": "kkFS83UQBNMy2lnYGy87bz0HI7eb6nyvnmmSTfBB7YiMJlgslAAOM/smIx0AlnTpy/d1d3xKB3/IKkEKN/dABw=="
            }
          },
          null,
          null,
          {
            "validator_address": "C39A8A2B85198DCB8F23AD1F6C198E2BA7AB5D60",
            "validator_index": "80",
            "height": "1053",
            "round": "1",
            "timestamp": "2018-07-30T06:01:43.684699008Z",
            "type": 2,
            "block_id": {
              "hash": "07AEA0C3C2B5173E49FD3BC173F4ABAE60D3C778",
              "parts": {
                "total": "1",
                "hash": "EE619B9526044125A1109B5A075CB7FA05D838F5"
              }
            },
            "signature": {
              "type": "tendermint/SignatureEd25519",
              "value": "GUAd4U2JzzRFJ2NPg2t6Ehx25/yf1ZOONi4K5iBfxdBsFhBlqa9rL6ArAGg4Rn+iCawjl8Lan/CHFpIDwXHJCw=="
            }
          },
          null,
          null,
          null,
          null,
          {
            "validator_address": "D6285C3422C8886445D53757CBE12D2B91B5A9D0",
            "validator_index": "85",
            "height": "1053",
            "round": "1",
            "timestamp": "2018-07-30T06:01:25.789273402Z",
            "type": 2,
            "block_id": {
              "hash": "07AEA0C3C2B5173E49FD3BC173F4ABAE60D3C778",
              "parts": {
                "total": "1",
                "hash": "EE619B9526044125A1109B5A075CB7FA05D838F5"
              }
            },
            "signature": {
              "type": "tendermint/SignatureEd25519",
              "value": "UB02Q0mWTyqePkCd3LRpk0VQJTqJIXdzCRzPzkcmBKXO5CgigZ1YsDqo0PeKweuQNb74X/b9yjerNNwMqGb2DA=="
            }
          },
          null,
          null,
          {
            "validator_address": "DB7E6732471D3EA5C90C17A9974D9F88AB45F2FB",
            "validator_index": "88",
            "height": "1053",
            "round": "1",
            "timestamp": "2018-07-30T06:01:43.72798354Z",
            "type": 2,
            "block_id": {
              "hash": "07AEA0C3C2B5173E49FD3BC173F4ABAE60D3C778",
              "parts": {
                "total": "1",
                "hash": "EE619B9526044125A1109B5A075CB7FA05D838F5"
              }
            },
            "signature": {
              "type": "tendermint/SignatureEd25519",
              "value": "MVM4idfBmGdF7CcqndnzT55HkPS7YTny6YBSXv0O2deXRdjMwSCtqDr5pDz3wFIqNXyhw5zqA4vX8eXVWZjEDw=="
            }
          },
          {
            "validator_address": "DF54B862410BCD9B5C516FBB6C56BDC826ED6FA7",
            "validator_index": "89",
            "height": "1053",
            "round": "1",
            "timestamp": "2018-07-30T06:01:43.751403804Z",
            "type": 2,
            "block_id": {
              "hash": "07AEA0C3C2B5173E49FD3BC173F4ABAE60D3C778",
              "parts": {
                "total": "1",
                "hash": "EE619B9526044125A1109B5A075CB7FA05D838F5"
              }
            },
            "signature": {
              "type": "tendermint/SignatureEd25519",
              "value": "pcCGXO5ocg3QExre6fdKK4FQF7MT9dH+ILXVq5tm38Wg6kpKx+zR+WBuEe8tIXjACJYLyXuloVXYcu2gDjZ5CA=="
            }
          },
          {
            "validator_address": "DFAF0C8B1B78D6D552B0189DE3ACA351439A1319",
            "validator_index": "90",
            "height": "1053",
            "round": "1",
            "timestamp": "2018-07-30T06:01:43.66788804Z",
            "type": 2,
            "block_id": {
              "hash": "07AEA0C3C2B5173E49FD3BC173F4ABAE60D3C778",
              "parts": {
                "total": "1",
                "hash": "EE619B9526044125A1109B5A075CB7FA05D838F5"
              }
            },
            "signature": {
              "type": "tendermint/SignatureEd25519",
              "value": "h2kW+baxIuSS6UlZgIARPuQT/eLlq3oXWyFlhljN23ciCVZ583aq49j46odQuZOUTudJEUzVQATAH0JwDF2tAQ=="
            }
          },
          {
            "validator_address": "E1DBC77881161A5A3A8536A57536EAE546A75D69",
            "validator_index": "91",
            "height": "1053",
            "round": "1",
            "timestamp": "2018-07-30T06:01:43.620458593Z",
            "type": 2,
            "block_id": {
              "hash": "07AEA0C3C2B5173E49FD3BC173F4ABAE60D3C778",
              "parts": {
                "total": "1",
                "hash": "EE619B9526044125A1109B5A075CB7FA05D838F5"
              }
            },
            "signature": {
              "type": "tendermint/SignatureEd25519",
              "value": "zAch4EyP4MyJ6u0FnhJWtrbJQwdFg1LKiF5xqdJNcYtCF4JByIE5xcYr+4/LLcd8pWPYXGdRSFj2tlAiSBstDw=="
            }
          },
          {
            "validator_address": "E300E9D484374C1D3E97C1D93CAC3B160A056298",
            "validator_index": "92",
            "height": "1053",
            "round": "1",
            "timestamp": "2018-07-30T06:01:43.905922252Z",
            "type": 2,
            "block_id": {
              "hash": "07AEA0C3C2B5173E49FD3BC173F4ABAE60D3C778",
              "parts": {
                "total": "1",
                "hash": "EE619B9526044125A1109B5A075CB7FA05D838F5"
              }
            },
            "signature": {
              "type": "tendermint/SignatureEd25519",
              "value": "HvFTI9QdU8Ei4dWTCVbXPZqqSR5IskJsf/rO00SeDkS+XOK9pqMSPWcfWjLRPKQyIzPU7yRxmvVLsXYiD12iBg=="
            }
          },
          {
            "validator_address": "E39B5778E0D4297A46F45CF6940B0A163A430FF8",
            "validator_index": "93",
            "height": "1053",
            "round": "1",
            "timestamp": "2018-07-30T06:01:43.691679004Z",
            "type": 2,
            "block_id": {
              "hash": "07AEA0C3C2B5173E49FD3BC173F4ABAE60D3C778",
              "parts": {
                "total": "1",
                "hash": "EE619B9526044125A1109B5A075CB7FA05D838F5"
              }
            },
            "signature": {
              "type": "tendermint/SignatureEd25519",
              "value": "STWIbonfPR9FKjMHb0AOuBVBWFFNpG1VNKt6uNyntwdwhFtun2d66BNvkYWVr5BnXrW177ZF7ff6TKNuDPWRAQ=="
            }
          },
          null,
          null,
          {
            "validator_address": "E4E6C2E81269DFFA196C17F98240E491479A6008",
            "validator_index": "96",
            "height": "1053",
            "round": "1",
            "timestamp": "2018-07-30T06:01:43.80287595Z",
            "type": 2,
            "block_id": {
              "hash": "07AEA0C3C2B5173E49FD3BC173F4ABAE60D3C778",
              "parts": {
                "total": "1",
                "hash": "EE619B9526044125A1109B5A075CB7FA05D838F5"
              }
            },
            "signature": {
              "type": "tendermint/SignatureEd25519",
              "value": "8icLDQmCpVNfWhoxIGbbgAiAx4T6jg4vqliwfeBRmXTVTL2LyRgM59cR441FYBxwaci+HPZZdDA0nK+L5899Bg=="
            }
          },
          null,
          {
            "validator_address": "E6A7079D584B163750BE0831227F6B685DEAF3C1",
            "validator_index": "98",
            "height": "1053",
            "round": "1",
            "timestamp": "2018-07-30T06:01:43.730532065Z",
            "type": 2,
            "block_id": {
              "hash": "07AEA0C3C2B5173E49FD3BC173F4ABAE60D3C778",
              "parts": {
                "total": "1",
                "hash": "EE619B9526044125A1109B5A075CB7FA05D838F5"
              }
            },
            "signature": {
              "type": "tendermint/SignatureEd25519",
              "value": "EK4c+TqzeERUVmw9mUtzNuOGopBCQ8g03/qU6ulsoZR4uf2aDrwgansr5uh6AWXtpTf/2z4j5PMYi0XhO2k1CA=="
            }
          },
          {
            "validator_address": "E7A30077D5D11867D3EAF99ED45BFDC1EB834509",
            "validator_index": "99",
            "height": "1053",
            "round": "1",
            "timestamp": "2018-07-30T06:01:43.688694012Z",
            "type": 2,
            "block_id": {
              "hash": "07AEA0C3C2B5173E49FD3BC173F4ABAE60D3C778",
              "parts": {
                "total": "1",
                "hash": "EE619B9526044125A1109B5A075CB7FA05D838F5"
              }
            },
            "signature": {
              "type": "tendermint/SignatureEd25519",
              "value": "5Us0jJhBgcmqRBsjy0EOttP32SaGYFQLA3pO0UsEucScJgDhtCnB/SiHH1wuef/nF8WroCdSCzsf6NxzKAJwAg=="
            }
          },
          {
            "validator_address": "EBC613967F66F4EC306852CDF58B4F151CF16738",
            "validator_index": "100",
            "height": "1053",
            "round": "1",
            "timestamp": "2018-07-30T06:01:43.737516529Z",
            "type": 2,
            "block_id": {
              "hash": "07AEA0C3C2B5173E49FD3BC173F4ABAE60D3C778",
              "parts": {
                "total": "1",
                "hash": "EE619B9526044125A1109B5A075CB7FA05D838F5"
              }
            },
            "signature": {
              "type": "tendermint/SignatureEd25519",
              "value": "5y7IyYmPW0uCDYKIG8YjEcaZYfLzroihU+CW/ZLiOZRy0LiKtcExdlsFbCSp8dRlJWOgEs/wbRwxTW+gsojgCQ=="
            }
          },
          null,
          {
            "validator_address": "EC95B111D032181E1EC3B5E8875C5BB8E4AE7140",
            "validator_index": "102",
            "height": "1053",
            "round": "1",
            "timestamp": "2018-07-30T06:01:43.685986001Z",
            "type": 2,
            "block_id": {
              "hash": "07AEA0C3C2B5173E49FD3BC173F4ABAE60D3C778",
              "parts": {
                "total": "1",
                "hash": "EE619B9526044125A1109B5A075CB7FA05D838F5"
              }
            },
            "signature": {
              "type": "tendermint/SignatureEd25519",
              "value": "s2gS1qzNBsqJBvXidQZU7EAv0AMJ1FdEKxipg603DuSmXiHHreHJcsy23GiY8+gIf22Ju8b9wN1PsY8KFxD8CA=="
            }
          },
          {
            "validator_address": "F13C1805E8131C9B47E2A46818F57D8A2841E578",
            "validator_index": "103",
            "height": "1053",
            "round": "1",
            "timestamp": "2018-07-30T06:01:43.754222232Z",
            "type": 2,
            "block_id": {
              "hash": "07AEA0C3C2B5173E49FD3BC173F4ABAE60D3C778",
              "parts": {
                "total": "1",
                "hash": "EE619B9526044125A1109B5A075CB7FA05D838F5"
              }
            },
            "signature": {
              "type": "tendermint/SignatureEd25519",
              "value": "CygkjOBCGcl70zWamDVM6DbfxxeuJeIg25ISR/vBhXv08UFUUczMkjf+UEcr6NEf2A+XGXJ26y64rsFTwJ0dDw=="
            }
          },
          {
            "validator_address": "F23FF36BD5B90C33CE3A03ED72DBDCF5EC07D6AF",
            "validator_index": "104",
            "height": "1053",
            "round": "1",
            "timestamp": "2018-07-30T06:01:43.684659206Z",
            "type": 2,
            "block_id": {
              "hash": "07AEA0C3C2B5173E49FD3BC173F4ABAE60D3C778",
              "parts": {
                "total": "1",
                "hash": "EE619B9526044125A1109B5A075CB7FA05D838F5"
              }
            },
            "signature": {
              "type": "tendermint/SignatureEd25519",
              "value": "Sqz59siA4ILK8AlQF9pevQoOmZLN5FieiuAiS1WACUN8k0hhzkxCkQDAn7AKUUEioyzY84ULdfqWW6MHaBBeAg=="
            }
          },
          {
            "validator_address": "F4268597DE93E3E2CED38845010F8AA34E2A879E",
            "validator_index": "105",
            "height": "1053",
            "round": "1",
            "timestamp": "2018-07-30T06:01:43.720611875Z",
            "type": 2,
            "block_id": {
              "hash": "07AEA0C3C2B5173E49FD3BC173F4ABAE60D3C778",
              "parts": {
                "total": "1",
                "hash": "EE619B9526044125A1109B5A075CB7FA05D838F5"
              }
            },
            "signature": {
              "type": "tendermint/SignatureEd25519",
              "value": "cqBLKyjHy8gLyViJModcBm+iSaOPXygeEz6PUz3KAA05SwTenXmqiM1uluju8xTgEfXwLpw8XqzlW/EjJ1cnBA=="
            }
          },
          {
            "validator_address": "F4DEB417999B04BE2EFF9FFE03FA373D86011CC0",
            "validator_index": "106",
            "height": "1053",
            "round": "1",
            "timestamp": "2018-07-30T06:01:43.688132224Z",
            "type": 2,
            "block_id": {
              "hash": "07AEA0C3C2B5173E49FD3BC173F4ABAE60D3C778",
              "parts": {
                "total": "1",
                "hash": "EE619B9526044125A1109B5A075CB7FA05D838F5"
              }
            },
            "signature": {
              "type": "tendermint/SignatureEd25519",
              "value": "+RMq5ASTgsL5Hoi6bG5DgOcobs5Oyqc2ZndF/Wtmhj39phusicMTAdbT1oH5tpMfZUHc1RBFBzYsMwg+zzb2CQ=="
            }
          },
          null,
          {
            "validator_address": "FB6AC8B89A1C585F26410FF259952A432A7A3FDB",
            "validator_index": "108",
            "height": "1053",
            "round": "1",
            "timestamp": "2018-07-30T06:01:43.715335505Z",
            "type": 2,
            "block_id": {
              "hash": "07AEA0C3C2B5173E49FD3BC173F4ABAE60D3C778",
              "parts": {
                "total": "1",
                "hash": "EE619B9526044125A1109B5A075CB7FA05D838F5"
              }
            },
            "signature": {
              "type": "tendermint/SignatureEd25519",
              "value": "YCzWosPennnKF9fukpxo0dmQrvJcrK258EIRZ9sWXvtHxfngK/89VTExQRmbCIH9EdnSoKYCxp2CrpaYjMkDCw=="
            }
          },
          null,
          {
            "validator_address": "FF3F3FCBCE7E62D7AD5506FF846EC4518D980515",
            "validator_index": "110",
            "height": "1053",
            "round": "1",
            "timestamp": "2018-07-30T06:01:43.60814438Z",
            "type": 2,
            "block_id": {
              "hash": "07AEA0C3C2B5173E49FD3BC173F4ABAE60D3C778",
              "parts": {
                "total": "1",
                "hash": "EE619B9526044125A1109B5A075CB7FA05D838F5"
              }
            },
            "signature": {
              "type": "tendermint/SignatureEd25519",
              "value": "cZgszDSBW5NAQNmzDo8eR+Sl0k4Bs3sT8tkhlJX9mPJ64Vkz8pGcGe8E9bwo1B2y/7I00DsW8BK/dEe1FOM5Bg=="
            }
          }
        ]
      }
    },
    "canonical": true
  }
}