{
  "jsonrpc": "2.0",
  "id": "",
  "result": {
    "SignedHeader": {
      "header": {
        "chain_id": "gaia-7004",
        "height": "10548",
        "time": "2018-07-30T23:28:56.721172929Z",
        "num_txs": "0",
        "last_block_id": {
          "hash": "C24F81EB94FDF063EBDA93AD4993A2DEA2301A40",
          "parts": {
            "total": "1",
            "hash": "CC83DC0F78925831C80CF269FE723C76B457F5DB"
          }
        },
        "total_txs": "442",
        "last_commit_hash": "0A5DEA459A7A048AD2976B5CA74A0A77F62CA7E1",
        "data_hash": "",
        "validators_hash": "640FF9338B28CCA884E894CB9B2E8D505FD00F3B",
        "consensus_hash": "D6B74BB35BDFFD8392340F2A379173548AE188FE",
        "app_hash": "54C1E29A5676996630BE3D743942ED352304D784",
        "last_results_hash": "",
        "evidence_hash": ""
      },
      "commit": {
        "block_id": {
          "hash": "8EF3A9E19B50F6EE45C85C41A4D538CB4CC50FBC",
          "parts": {
            "total": "1",
            "hash": "FED5626F8860DCC7E9FB243843E82F5339E58BBB"
          }
        },
        "precommits": [
          {
            "validator_address": "029359C0C768096273A68ABC902A6B17AC8D1D70",
            "validator_index": "0",
            "height": "10548",
            "round": "0",
            "timestamp": "2018-07-30T23:28:57.732644813Z",
            "type": 2,
            "block_id": {
              "hash": "8EF3A9E19B50F6EE45C85C41A4D538CB4CC50FBC",
              "parts": {
                "total": "1",
                "hash": "FED5626F8860DCC7E9FB243843E82F5339E58BBB"
              }
            },
            "signature": {
              "type": "tendermint/SignatureEd25519",
              "value": "dvamAYLHgxLerB2w2FpRAF9AZ5xQFzS/qT2ICkGIQ901VisCNdKHx/AmQcKvUKf6/V/VitQPCvO1545YPP7wCg=="
            }
          },
          {
            "validator_address": "02FE4B97A8387F39D1AC19E0C1702B3CC614812F",
            "validator_index": "1",
            "height": "10548",
            "round": "0",
            "timestamp": "2018-07-30T23:28:57.751369693Z",
            "type": 2,
            "block_id": {
              "hash": "8EF3A9E19B50F6EE45C85C41A4D538CB4CC50FBC",
              "parts": {
                "total": "1",
                "hash": "FED5626F8860DCC7E9FB243843E82F5339E58BBB"
              }
            },
            "signature": {
              "type": "tendermint/SignatureEd25519",
              "value": "nOoQszPuWvEC3z/+76SjppowBWwr50gPr3GdacJV4ax/dFqn5Fb31qlRoY9r82RPpP1hZ1nQC/p8Zlx1lCKtBw=="
            }
          },
          {
            "validator_address": "0548261C50222FD710EB5EBDF03A0E6567B21D20",
            "validator_index": "2",
            "height": "10548",
            "round": "0",
            "timestamp": "2018-07-30T23:28:57.767301694Z",
            "type": 2,
            "block_id": {
              "hash": "8EF3A9E19B50F6EE45C85C41A4D538CB4CC50FBC",
              "parts": {
                "total": "1",
                "hash": "FED5626F8860DCC7E9FB243843E82F5339E58BBB"
              }
            },
            "signature": {
              "type": "tendermint/SignatureEd25519",
              "value": "KdA7GrvAmDkwat0pgB+3CQD+ly9llrgCnW8aA6d4UeIz6jI2k7jNc2kffs9wXldfVpfLf7smZeCQ7LxPhN8FDg=="
            }
          },
          {
            "validator_address": "09145E611CC27EEB944FC5A956DDF710F943B9EF",
            "validator_index": "3",
            "height": "10548",
            "round": "0",
            "timestamp": "2018-07-30T23:28:57.755243545Z",
            "type": 2,
            "block_id": {
              "hash": "8EF3A9E19B50F6EE45C85C41A4D538CB4CC50FBC",
              "parts": {
                "total": "1",
                "hash": "FED5626F8860DCC7E9FB243843E82F5339E58BBB"
              }
            },
            "signature": {
              "type": "tendermint/SignatureEd25519",
              "value": "lZcCFvJvMslC1p+Q+3QVG8cbdeXGaOQon9BMw+qgACYbI9UXFuTxAshRN1c7hjAf8mSY4YAuUtfUtlygaiKqDA=="
            }
          },
          {
            "validator_address": "0989D0355A104B67AE0AE028C68FB610690E174B",
            "validator_index": "4",
            "height": "10548",
            "round": "0",
            "timestamp": "2018-07-30T23:28:57.765992233Z",
            "type": 2,
            "block_id": {
              "hash": "8EF3A9E19B50F6EE45C85C41A4D538CB4CC50FBC",
              "parts": {
                "total": "1",
                "hash": "FED5626F8860DCC7E9FB243843E82F5339E58BBB"
              }
            },
            "signature": {
              "type": "tendermint/SignatureEd25519",
              "value": "k+cm6ghUTkIljgQdgIjyOqkLljS212of1p8943A3DN3wKv/50p+n6PQ5Oo6W1M7zFt+cXGJ021Oa714yRMZRAA=="
            }
          },
          {
            "validator_address": "0A692DBFFE9E5DD28E7DECC33CED1AEB4C0D014E",
            "validator_index": "5",
            "height": "10548",
            "round": "0",
            "timestamp": "2018-07-30T23:28:57.936224886Z",
            "type": 2,
            "block_id": {
              "hash": "8EF3A9E19B50F6EE45C85C41A4D538CB4CC50FBC",
              "parts": {
                "total": "1",
                "hash": "FED5626F8860DCC7E9FB243843E82F5339E58BBB"
              }
            },
            "signature": {
              "type": "tendermint/SignatureEd25519",
              "value": "5veDlgAGeqxHtP1qTmIP9Nbc6HfZLIc5WUQmWG8qfRnZxm/PAAzwnfLaiXDW71VrCBAnxca7bH6C+QGWPoIoAw=="
            }
          },
          {
            "validator_address": "0DDF97111D73DB825138EC15EC27DE5FE8536901",
            "validator_index": "6",
            "height": "10548",
            "round": "0",
            "timestamp": "2018-07-30T23:28:57.806227621Z",
            "type": 2,
            "block_id": {
              "hash": "8EF3A9E19B50F6EE45C85C41A4D538CB4CC50FBC",
              "parts": {
                "total": "1",
                "hash": "FED5626F8860DCC7E9FB243843E82F5339E58BBB"
              }
            },
            "signature": {
              "type": "tendermint/SignatureEd25519",
              "value": "a1RJatTEaK/Yw6kc894dEDgSAcdVZG05ib/5SuP1fa0JdDlnQJZSsFDY3fzAK5u3pZKRAkG5mUIU2QcTp9ytAQ=="
            }
          },
          null,
          {
            "validator_address": "1751786EFC085D5331C61168FFFC8202EA151B4E",
            "validator_index": "8",
            "height": "10548",
            "round": "0",
            "timestamp": "2018-07-30T23:28:57.058498862Z",
            "type": 2,
            "block_id": {
              "hash": "8EF3A9E19B50F6EE45C85C41A4D538CB4CC50FBC",
              "parts": {
                "total": "1",
                "hash": "FED5626F8860DCC7E9FB243843E82F5339E58BBB"
              }
            },
            "signature": {
              "type": "tendermint/SignatureEd25519",
              "value": "brMCk7b4B+5vKgK4q6av+A6KR2PAsuHIdzrC2Fw5Y8q8bF9yd4MIXlbuiTBbiKFRBnNZLKFJCIywfROF5y7jCA=="
            }
          },
          {
            "validator_address": "17BB5CD01E8940FAFB948A04D5FA5A0645E5822E",
            "validator_index": "9",
            "height": "10548",
            "round": "0",
            "timestamp": "2018-07-30T23:28:57.721454225Z",
            "type": 2,
            "block_id": {
              "hash": "8EF3A9E19B50F6EE45C85C41A4D538CB4CC50FBC",
              "parts": {
                "total": "1",
                "hash": "FED5626F8860DCC7E9FB243843E82F5339E58BBB"
              }
            },
            "signature": {
              "type": "tendermint/SignatureEd25519",
              "value": "kPvma+2oCepPCJ3GHfcG8rquL7MysyLm9YQnGNTv3juqQCfC5LZvdfOIOCqJBm/B0RqPSBKdnkuLRk/8buinAQ=="
            }
          },
          {
            "validator_address": "1C683A87904BC38F05004FE83301A3A3E35447EB",
            "validator_index": "10",
            "height": "10548",
            "round": "0",
            "timestamp": "2018-07-30T23:28:57.708504737Z",
            "type": 2,
            "block_id": {
              "hash": "8EF3A9E19B50F6EE45C85C41A4D538CB4CC50FBC",
              "parts": {
                "total": "1",
                "hash": "FED5626F8860DCC7E9FB243843E82F5339E58BBB"
              }
            },
            "signature": {
              "type": "tendermint/SignatureEd25519",
              "value": "e6Ves+vTPTaro4MIAx9N8L45RbBNLV+Vy4ponbrsOeRSsUhUtbMGDkS4lTs59s6itNl8vIW9JTJEVpBFbAy+Aw=="
            }
          },
          {
            "validator_address": "1E9CE94FD0BA5CFEB901F90BC658D64D85B134D2",
            "validator_index": "11",
            "height": "10548",
            "round": "0",
            "timestamp": "2018-07-30T23:28:57.728589514Z",
            "type": 2,
            "block_id": {
              "hash": "8EF3A9E19B50F6EE45C85C41A4D538CB4CC50FBC",
              "parts": {
                "total": "1",
                "hash": "FED5626F8860DCC7E9FB243843E82F5339E58BBB"
              }
            },
            "signature": {
              "type": "tendermint/SignatureEd25519",
              "value": "73YBhV+RUCDS/wj3MZmk8OqZK036LqYpx0WheTn+b7jW5Q7pkbEWAr65mclfUJe4ROwKrAP8ZDNtW0uneUR3DA=="
            }
          },
          {
            "validator_address": "1ECD8C5FE1341D74CDC633A245DD56858DE2F9A2",
            "validator_index": "12",
            "height": "10548",
            "round": "0",
            "timestamp": "2018-07-30T23:28:57.905851559Z",
            "type": 2,
            "block_id": {
              "hash": "8EF3A9E19B50F6EE45C85C41A4D538CB4CC50FBC",
              "parts": {
                "total": "1",
                "hash": "FED5626F8860DCC7E9FB243843E82F5339E58BBB"
              }
            },
            "signature": {
              "type": "tendermint/SignatureEd25519",
              "value": "7jZbxGlzipvH19KXxlxmDB37w0enFzaS6bFPeteTrsn6XiOS2lOXRPMC7p8dGXjctXWBZh6I1/i6Pi/bGc4NAw=="
            }
          },
          {
            "validator_address": "1F3A68CAAD483768AA2BF667DEF10F7104C89928",
            "validator_index": "13",
            "height": "10548",
            "round": "0",
            "timestamp": "2018-07-30T23:28:57.795063551Z",
            "type": 2,
            "block_id": {
              "hash": "8EF3A9E19B50F6EE45C85C41A4D538CB4CC50FBC",
              "parts": {
                "total": "1",
                "hash": "FED5626F8860DCC7E9FB243843E82F5339E58BBB"
              }
            },
            "signature": {
              "type": "tendermint/SignatureEd25519",
              "value": "xkUjulsDTwkuqW9epzoaJRyd7yTkhJEPbgmb2QWgckLkn/sj9z78I4Uf4jRkpdrXeQ2hRj7b+c6/0dxP/wQTCQ=="
            }
          },
          {
            "validator_address": "23897586D68E2AC1C78E0EF5BB5DF5C8EAB18F50",
            "validator_index": "14",
            "height": "10548",
            "round": "0",
            "timestamp": "2018-07-30T23:28:57.798771001Z",
            "type": 2,
            "block_id": {
              "hash": "8EF3A9E19B50F6EE45C85C41A4D538CB4CC50FBC",
              "parts": {
                "total": "1",
                "hash": "FED5626F8860DCC7E9FB243843E82F5339E58BBB"
              }
            },
            "signature": {
              "type": "tendermint/SignatureEd25519",
              "value": "tngiwxoEv3uIpvEGRKINkfR0fo7UJmAmbkmaZK95xOoYoqgGwMHBiSmV7GL+51flLVMOMBCB4DonAnqrfKvQAQ=="
            }
          },
          {
            "validator_address": "28770D17E8530825E7310A0659308654B7EC9682",
            "validator_index": "15",
            "height": "10548",
            "round": "0",
            "timestamp": "2018-07-30T23:28:57.696130862Z",
            "type": 2,
            "block_id": {
              "hash": "8EF3A9E19B50F6EE45C85C41A4D538CB4CC50FBC",
              "parts": {
                "total": "1",
                "hash": "FED5626F8860DCC7E9FB243843E82F5339E58BBB"
              }
            },
            "signature": {
              "type": "tendermint/SignatureEd25519",
              "value": "SXaNeAm1LmleOGbDs7I6v6gpyRlKIO7z3Q9rvguGRAi9T2b2GcLvt1AJDMHPrlAU+yHcBhiSf1MqdEEE7tMSBQ=="
            }
          },
          {
            "validator_address": "2A92EC3C642140202298D0E245095E0ECFC25228",
            "validator_index": "16",
            "height": "10548",
            "round": "0",
            "timestamp": "2018-07-30T23:28:57.801342877Z",
            "type": 2,
            "block_id": {
              "hash": "8EF3A9E19B50F6EE45C85C41A4D538CB4CC50FBC",
              "parts": {
                "total": "1",
                "hash": "FED5626F8860DCC7E9FB243843E82F5339E58BBB"
              }
            },
            "signature": {
              "type": "tendermint/SignatureEd25519",
              "value": "2Fq5kTVeH8xR4xN1Qt1FxgaY201RB1hFfGu55RONMGNdUoxwRTqMKoGBiHMWE6UcYVXZbZQ4iNL8tDDmqVA/BQ=="
            }
          },
          {
            "validator_address": "33412C9A69C60CB0FAA24A5C5B3A906DE24B47C2",
            "validator_index": "17",
            "height": "10548",
            "round": "0",
            "timestamp": "2018-07-30T23:28:57.697226204Z",
            "type": 2,
            "block_id": {
              "hash": "8EF3A9E19B50F6EE45C85C41A4D538CB4CC50FBC",
              "parts": {
                "total": "1",
                "hash": "FED5626F8860DCC7E9FB243843E82F5339E58BBB"
              }
            },
            "signature": {
              "type": "tendermint/SignatureEd25519",
              "value": "9xpj4aE8tCtEqthE59qgbNlv5EGawSwf2Uf7G7iYOHKAlJt0qg8mJAUMZnPUk/3MJo6HQiSeGYmrqosCUFhJDg=="
            }
          },
          {
            "validator_address": "3383EF2A13B160C41947AC30434B274B2FAF0617",
            "validator_index": "18",
            "height": "10548",
            "round": "0",
            "timestamp": "2018-07-30T23:28:57.781107211Z",
            "type": 2,
            "block_id": {
              "hash": "8EF3A9E19B50F6EE45C85C41A4D538CB4CC50FBC",
              "parts": {
                "total": "1",
                "hash": "FED5626F8860DCC7E9FB243843E82F5339E58BBB"
              }
            },
            "signature": {
              "type": "tendermint/SignatureEd25519",
              "value": "Kfoyl9y6L63UhhINuB5wc0uVTzHEdCB8zqxgtMSW7Gb7EM/VHD48SMB8f2m+M1A6U+DnvF1Co11os049gMpWCA=="
            }
          },
          {
            "validator_address": "36E9B7FAEC964F97D84C028ED62493E373AD0B38",
            "validator_index": "19",
            "height": "10548",
            "round": "0",
            "timestamp": "2018-07-30T23:28:57.842939684Z",
            "type": 2,
            "block_id": {
              "hash": "8EF3A9E19B50F6EE45C85C41A4D538CB4CC50FBC",
              "parts": {
                "total": "1",
                "hash": "FED5626F8860DCC7E9FB243843E82F5339E58BBB"
              }
            },
            "signature": {
              "type": "tendermint/SignatureEd25519",
              "value": "WdBxCrlsXoHa8JSDy9iBb19RJwnM6/kAgslbnhun0RDE548weLRz5soVOguzTFQZzWDwCIeSRngv0YuGpyYaBg=="
            }
          },
          {
            "validator_address": "38A8D85D36BEA2E5FCF8A1E778F53628E450EF13",
            "validator_index": "20",
            "height": "10548",
            "round": "0",
            "timestamp": "2018-07-30T23:28:57.93087983Z",
            "type": 2,
            "block_id": {
              "hash": "8EF3A9E19B50F6EE45C85C41A4D538CB4CC50FBC",
              "parts": {
                "total": "1",
                "hash": "FED5626F8860DCC7E9FB243843E82F5339E58BBB"
              }
            },
            "signature": {
              "type": "tendermint/SignatureEd25519",
              "value": "bkeAdyVCCTy602scU8eU0LDU+ufYUX0XvWsBpWuVehOr5P/E+oUcOhZT+68yev8O4lBUjwGkGl8Enwyy2m78DQ=="
            }
          },
          {
            "validator_address": "39DFDA0C5DB84B269642188B23253508537798E6",
            "validator_index": "21",
            "height": "10548",
            "round": "0",
            "timestamp": "2018-07-30T23:28:57.737769349Z",
            "type": 2,
            "block_id": {
              "hash": "8EF3A9E19B50F6EE45C85C41A4D538CB4CC50FBC",
              "parts": {
                "total": "1",
                "hash": "FED5626F8860DCC7E9FB243843E82F5339E58BBB"
              }
            },
            "signature": {
              "type": "tendermint/SignatureEd25519",
              "value": "j+jwxQgj/viRtFVPssxhHZ5gxMh0FZLh8KC0inp18CjFom5r6KyRKJUC5kBS6xRoKb7vwZ0wJsjinFKR4NBfDQ=="
            }
          },
          {
            "validator_address": "3AC99B708404452366E0953A4BE849226DC86CBC",
            "validator_index": "22",
            "height": "10548",
            "round": "0",
            "timestamp": "2018-07-30T23:28:57.891111343Z",
            "type": 2,
            "block_id": {
              "hash": "8EF3A9E19B50F6EE45C85C41A4D538CB4CC50FBC",
              "parts": {
                "total": "1",
                "hash": "FED5626F8860DCC7E9FB243843E82F5339E58BBB"
              }
            },
            "signature": {
              "type": "tendermint/SignatureEd25519",
              "value": "JiB7CMh22twZDuV0rhrEnvAsIYMWUFdbnFWWpxagbBg53qCPlm1IfM3XbPYkVFJcsF7UDTDHvfekx8Q78LRaAQ=="
            }
          },
          {
            "validator_address": "3DCB822A10ED319EC7C4393D8E3FD4A41B15AAF2",
            "validator_index": "23",
            "height": "10548",
            "round": "0",
            "timestamp": "2018-07-30T23:28:57.71086423Z",
            "type": 2,
            "block_id": {
              "hash": "8EF3A9E19B50F6EE45C85C41A4D538CB4CC50FBC",
              "parts": {
                "total": "1",
                "hash": "FED5626F8860DCC7E9FB243843E82F5339E58BBB"
              }
            },
            "signature": {
              "type": "tendermint/SignatureEd25519",
              "value": "e6P8x8H3tLGAwJFQc723saEwBXDdNLdWZqax5cDN3qLcJ4zzph5ismXCV2Llf4NsWGPX3ejqZspyAiCAf6L4CA=="
            }
          },
          {
            "validator_address": "3E899BA36A93C7370347BD5FE85909F2ECD93F8C",
            "validator_index": "24",
            "height": "10548",
            "round": "0",
            "timestamp": "2018-07-30T23:28:57.746247584Z",
            "type": 2,
            "block_id": {
              "hash": "8EF3A9E19B50F6EE45C85C41A4D538CB4CC50FBC",
              "parts": {
                "total": "1",
                "hash": "FED5626F8860DCC7E9FB243843E82F5339E58BBB"
              }
            },
            "signature": {
              "type": "tendermint/SignatureEd25519",
              "value": "w6rM3lkv2CDOxE9vMgj3bwy+zhCdKBbx1SOD2z5O2R540geQwVHEVTS1niNbWcljsIhzKwW6YKq4ny0y/06ECw=="
            }
          },
          {
            "validator_address": "41CAB2E29E7D0F2282E3275938F188FF9386B84C",
            "validator_index": "25",
            "height": "10548",
            "round": "0",
            "timestamp": "2018-07-30T23:28:57.799952816Z",
            "type": 2,
            "block_id": {
              "hash": "8EF3A9E19B50F6EE45C85C41A4D538CB4CC50FBC",
              "parts": {
                "total": "1",
                "hash": "FED5626F8860DCC7E9FB243843E82F5339E58BBB"
              }
            },
            "signature": {
              "type": "tendermint/SignatureEd25519",
              "value": "a8tUdX3/6uzSkuohsq8lJhZN0NDZf6c0AS5qUKZuZWs8yBD5QT6CMBAukJebJ/M1qwqOCCfFeQnjCt6uNMf9BA=="
            }
          },
          {
            "validator_address": "462B656869DB02A8FD1077E255F8CC7401DC37C6",
            "validator_index": "26",
            "height": "10548",
            "round": "0",
            "timestamp": "2018-07-30T23:28:57.784291731Z",
            "type": 2,
            "block_id": {
              "hash": "8EF3A9E19B50F6EE45C85C41A4D538CB4CC50FBC",
              "parts": {
                "total": "1",
                "hash": "FED5626F8860DCC7E9FB243843E82F5339E58BBB"
              }
            },
            "signature": {
              "type": "tendermint/SignatureEd25519",
              "value": "+TmMX9JFNkFdEe6P0WySjQW8rJzHr/tO29bCQGRyzSGxDZf9I96EqfrE2s0eR6gedZ2hGa2JLd0gg54YZc/tAw=="
            }
          },
          {
            "validator_address": "48E5118163E5442068A1B5A42D2EEDBB75724935",
            "validator_index": "27",
            "height": "10548",
            "round": "0",
            "timestamp": "2018-07-30T23:28:57.917964535Z",
            "type": 2,
            "block_id": {
              "hash": "8EF3A9E19B50F6EE45C85C41A4D538CB4CC50FBC",
              "parts": {
                "total": "1",
                "hash": "FED5626F8860DCC7E9FB243843E82F5339E58BBB"
              }
            },
            "signature": {
              "type": "tendermint/SignatureEd25519",
              "value": "o2XlALNge4FUbWtYf1n2OVIztrSFlOzk9vve60GCwuDR6NpHVmJnko9IDxADJ9mLbf6hC0Ek54hZoSHZBj30Ag=="
            }
          },
          {
            "validator_address": "4944F8BBBB5303E17BC0607DF332320EDBC750EA",
            "validator_index": "28",
            "height": "10548",
            "round": "0",
            "timestamp": "2018-07-30T23:28:57.678854537Z",
            "type": 2,
            "block_id": {
              "hash": "8EF3A9E19B50F6EE45C85C41A4D538CB4CC50FBC",
              "parts": {
                "total": "1",
                "hash": "FED5626F8860DCC7E9FB243843E82F5339E58BBB"
              }
            },
            "signature": {
              "type": "tendermint/SignatureEd25519",
              "value": "qLP1+/UATy9DkLQL6vTfPZVwKUwlyXWwJ0fvBjtjcF0vv8zp09tntDTGawVg8X+t1cRDctbEeyGlH/LpVI0sCQ=="
            }
          },
          {
            "validator_address": "49841599DE675157CBE1E7D6B35BF8FFC23BD5CB",
            "validator_index": "29",
            "height": "10548",
            "round": "0",
            "timestamp": "2018-07-30T23:28:57.719474881Z",
            "type": 2,
            "block_id": {
              "hash": "8EF3A9E19B50F6EE45C85C41A4D538CB4CC50FBC",
              "parts": {
                "total": "1",
                "hash": "FED5626F8860DCC7E9FB243843E82F5339E58BBB"
              }
            },
            "signature": {
              "type": "tendermint/SignatureEd25519",
              "value": "egUrR2KfKGOzOChfdBX15Kl9snm4YyfFRf6g9e3akwCviIAv/0qf04JV0rpo4l1oyra7uxjbJZ5qP/PspfGLBA=="
            }
          },
          {
            "validator_address": "5104F488EA6B1E2C33CBDA3C18389C88104DBC72",
            "validator_index": "30",
            "height": "10548",
            "round": "0",
            "timestamp": "2018-07-30T23:28:57.75296239Z",
            "type": 2,
            "block_id": {
              "hash": "8EF3A9E19B50F6EE45C85C41A4D538CB4CC50FBC",
              "parts": {
                "total": "1",
                "hash": "FED5626F8860DCC7E9FB243843E82F5339E58BBB"
              }
            },
            "signature": {
              "type": "tendermint/SignatureEd25519",
              "value": "qr3pmDY/Qjbmyq1I9yoxHlJAQMWxcFE8i53fEvFcVv8at6piqUjlYh6XhHuQmBKIsViVoFXLPnbQSLJaSBVLCg=="
            }
          },
          {
            "validator_address": "51386C2CF9556821D114D7E4945806802BADB28D",
            "validator_index": "31",
            "height": "10548",
            "round": "0",
            "timestamp": "2018-07-30T23:28:57.813466481Z",
            "type": 2,
            "block_id": {
              "hash": "8EF3A9E19B50F6EE45C85C41A4D538CB4CC50FBC",
              "parts": {
                "total": "1",
                "hash": "FED5626F8860DCC7E9FB243843E82F5339E58BBB"
              }
            },
            "signature": {
              "type": "tendermint/SignatureEd25519",
              "value": "OG2FXwvYsRooPOAvcB7QsEWr+OZOj4O4OziuzEn1piTDbZtf2OttgxThzKRN0CZqppoT5FbbD/T16FFi93igAA=="
            }
          },
          {
            "validator_address": "543564ECA3AFEFADC73EE8591AAC3A96F079BC8A",
            "validator_index": "32",
            "height": "10548",
            "round": "0",
            "timestamp": "2018-07-30T23:28:57.717967533Z",
            "type": 2,
            "block_id": {
              "hash": "8EF3A9E19B50F6EE45C85C41A4D538CB4CC50FBC",
              "parts": {
                "total": "1",
                "hash": "FED5626F8860DCC7E9FB243843E82F5339E58BBB"
              }
            },
            "signature": {
              "type": "tendermint/SignatureEd25519",
              "value": "6qCZcHBfS1SnzpXD9s01ZsyAFoTBA6BX5T1SEXQba61VauQhwhuc6xDM+HE8IQc6jYZP6IJ8LJ25JUAUqosyDQ=="
            }
          },
          {
            "validator_address": "55D67B1A6DC13E96F8754A5A42EABC20F7F86664",
            "validator_index": "33",
            "height": "10548",
            "round": "0",
            "timestamp": "2018-07-30T23:28:57.720055192Z",
            "type": 2,
            "block_id": {
              "hash": "8EF3A9E19B50F6EE45C85C41A4D538CB4CC50FBC",
              "parts": {
                "total": "1",
                "hash": "FED5626F8860DCC7E9FB243843E82F5339E58BBB"
              }
            },
            "signature": {
              "type": "tendermint/SignatureEd25519",
              "value": "XUPnKXbbCNfZeKnXKTerQsCUsk0TX/mG9TE5mpGgO9Vdpo+4YTU/cbRxVWkRgJfR9h3Kl0YI+GB6IdvpVem3CA=="
            }
          },
          {
            "validator_address": "570B6A755ED339EAC56BB3390A48069F6AC9449B",
            "validator_index": "34",
            "height": "10548",
            "round": "0",
            "timestamp": "2018-07-30T23:28:59.392206341Z",
            "type": 2,
            "block_id": {
              "hash": "8EF3A9E19B50F6EE45C85C41A4D538CB4CC50FBC",
              "parts": {
                "total": "1",
                "hash": "FED5626F8860DCC7E9FB243843E82F5339E58BBB"
              }
            },
            "signature": {
              "type": "tendermint/SignatureEd25519",
              "value": "OokeSPHfykfYnwogghSc/amLoJj59AXWgdzlG6k2AuKylXUpLf+C78AYv10WUmKYqBGjjDJVLa1xqzcNwv7BBA=="
            }
          },
          {
            "validator_address": "5BDF8EA41B1835FBAD865B181A2A4B23F511B5E4",
            "validator_index": "35",
            "height": "10548",
            "round": "0",
            "timestamp": "2018-07-30T23:28:57.707508702Z",
            "type": 2,
            "block_id": {
              "hash": "8EF3A9E19B50F6EE45C85C41A4D538CB4CC50FBC",
              "parts": {
                "total": "1",
                "hash": "FED5626F8860DCC7E9FB243843E82F5339E58BBB"
              }
            },
            "signature": {
              "type": "tendermint/SignatureEd25519",
              "value": "oYl+ZIltThmNYMlbq2fxPLL5dSPcqpP2nxWEZspRQf1eN/bAWUhaApZhM/FZJ7UYw900noNCU2bMp4jEL/xxAQ=="
            }
          },
          {
            "validator_address": "60229E2E273297FE00219E46DFFB8F76844CDEF9",
            "validator_index": "36",
            "height": "10548",
            "round": "0",
            "timestamp": "2018-07-30T23:28:56.908867005Z",
            "type": 2,
            "block_id": {
              "hash": "8EF3A9E19B50F6EE45C85C41A4D538CB4CC50FBC",
              "parts": {
                "total": "1",
                "hash": "FED5626F8860DCC7E9FB243843E82F5339E58BBB"
              }
            },
            "signature": {
              "type": "tendermint/SignatureEd25519",
              "value": "nUSrHkDpyp/fJ3bk+ZHo/6X0Wy+fJWyMJKf5VUhHT5CoDuCYMXy8sHyBFcB9Iia9IS5NyGm3N+5sMX9YK334DQ=="
            }
          },
          {
            "validator_address": "62410D6D1CD98278136E4D0738AA0EA273CDFC54",
            "validator_index": "37",
            "height": "10548",
            "round": "0",
            "timestamp": "2018-07-30T23:28:57.709542573Z",
            "type": 2,
            "block_id": {
              "hash": "8EF3A9E19B50F6EE45C85C41A4D538CB4CC50FBC",
              "parts": {
                "total": "1",
                "hash": "FED5626F8860DCC7E9FB243843E82F5339E58BBB"
              }
            },
            "signature": {
              "type": "tendermint/SignatureEd25519",
              "value": "0UNI5fIsHxGJc4Nss/HinfxcvOqwGsKUXzZYvRVeWNmsxa9tGDVqLPi3+t3LLzohuL3lpoxp5R/Nn49neMCvDw=="
            }
          },
          {
            "validator_address": "632F5C139A5A9DFBFE5111DEE29FCFB6157207DC",
            "validator_index": "38",
            "height": "10548",
            "round": "0",
            "timestamp": "2018-07-30T23:28:57.792294901Z",
            "type": 2,
            "block_id": {
              "hash": "8EF3A9E19B50F6EE45C85C41A4D538CB4CC50FBC",
              "parts": {
                "total": "1",
                "hash": "FED5626F8860DCC7E9FB243843E82F5339E58BBB"
              }
            },
            "signature": {
              "type": "tendermint/SignatureEd25519",
              "value": "mSNCYTOFNTTMMnY9H7rMVC8rJe+MKBE9NM991XKQepcNp+bKhFzVq2ycvIlBZ7iOb5RPybKTBpOEeIvNC8caBg=="
            }
          },
          {
            "validator_address": "64F57F8E796A9B7B590C1EFA4123988C86631D39",
            "validator_index": "39",
            "height": "10548",
            "round": "0",
            "timestamp": "2018-07-30T23:28:57.72129318Z",
            "type": 2,
            "block_id": {
              "hash": "8EF3A9E19B50F6EE45C85C41A4D538CB4CC50FBC",
              "parts": {
                "total": "1",
                "hash": "FED5626F8860DCC7E9FB243843E82F5339E58BBB"
              }
            },
            "signature": {
              "type": "tendermint/SignatureEd25519",
              "value": "8+5ipaySftAAKyGMjD9acionQc7Lfl8PNoojvM6skB9i1RUF7vmEm3QpUpzVjDki2r0IGb/IrgnbIoK4k5TFAQ=="
            }
          },
          {
            "validator_address": "69D99B2C66043ACBEAA8447525C356AFC6408E0C",
            "validator_index": "40",
            "height": "10548",
            "round": "0",
            "timestamp": "2018-07-30T23:28:57.887317216Z",
            "type": 2,
            "block_id": {
              "hash": "8EF3A9E19B50F6EE45C85C41A4D538CB4CC50FBC",
              "parts": {
                "total": "1",
                "hash": "FED5626F8860DCC7E9FB243843E82F5339E58BBB"
              }
            },
            "signature": {
              "type": "tendermint/SignatureEd25519",
              "value": "ERTPbvG0nuCgTRNBdLmDubKciD61C6XIEayTWXe+N9PHvXr3UoVAzlZbJbAlNuJ2/cs08x/XrHxbYyQpmwv0AA=="
            }
          },
          {
            "validator_address": "69EDADFA4A803E9DBF548C900D4A465E7D154262",
            "validator_index": "41",
            "height": "10548",
            "round": "0",
            "timestamp": "2018-07-30T23:28:57.835108013Z",
            "type": 2,
            "block_id": {
              "hash": "8EF3A9E19B50F6EE45C85C41A4D538CB4CC50FBC",
              "parts": {
                "total": "1",
                "hash": "FED5626F8860DCC7E9FB243843E82F5339E58BBB"
              }
            },
            "signature": {
              "type": "tendermint/SignatureEd25519",
              "value": "dxBB1kHRLBG0QWejmuLE79fmSgz3HiNsvElvUl7UjfChx7J7jYqXRALZzmER3uFN/F3Ivan1dWfKm8BY4u1CBA=="
            }
          },
          {
            "validator_address": "6D3AD380E398D8592B03AA124BAFED5F125DF863",
            "validator_index": "42",
            "height": "10548",
            "round": "0",
            "timestamp": "2018-07-30T23:27:56.153681196Z",
            "type": 2,
            "block_id": {
              "hash": "8EF3A9E19B50F6EE45C85C41A4D538CB4CC50FBC",
              "parts": {
                "total": "1",
                "hash": "FED5626F8860DCC7E9FB243843E82F5339E58BBB"
              }
            },
            "signature": {
              "type": "tendermint/SignatureEd25519",
              "value": "aZZxlKa/D7sq/W/WRFYrSKAJdL+1+iWrMAOwVPEn7+wK/qnB93lZu9asYHNtyVj1wxx9rmigCw/4R0tpXP/sDQ=="
            }
          },
          {
            "validator_address": "6F6C93B8BF3495063FEC9B5C771158607F4AE9D6",
            "validator_index": "43",
            "height": "10548",
            "round": "0",
            "timestamp": "2018-07-30T23:28:57.77978469Z",
            "type": 2,
            "block_id": {
              "hash": "8EF3A9E19B50F6EE45C85C41A4D538CB4CC50FBC",
              "parts": {
                "total": "1",
                "hash": "FED5626F8860DCC7E9FB243843E82F5339E58BBB"
              }
            },
            "signature": {
              "type": "tendermint/SignatureEd25519",
              "value": "9HBPtkc5eS2bWXCKfEIyw9PnqDr3orFIjB94+1bPicGVZD82/Unj+EL/PPKFGbTmueJr4Lif6aHGJaiQVJp4BQ=="
            }
          },
          {
            "validator_address": "732CEEF54C374DDC6ADECBFD707AEFD07FEDC143",
            "validator_index": "44",
            "height": "10548",
            "round": "0",
            "timestamp": "2018-07-30T23:28:57.866308243Z",
            "type": 2,
            "block_id": {
              "hash": "8EF3A9E19B50F6EE45C85C41A4D538CB4CC50FBC",
              "parts": {
                "total": "1",
                "hash": "FED5626F8860DCC7E9FB243843E82F5339E58BBB"
              }
            },
            "signature": {
              "type": "tendermint/SignatureEd25519",
              "value": "Vv3nAKsu7cDk5xM8Ted2Ud3ydXQXJ84zVXjozl6djTc/MlZMH+duimuW1haxI7RfCm+nqAeDM+GsHQU9L7toCQ=="
            }
          },
          {
            "validator_address": "7393D691BFAE9661918C09932D4D9060AB40939B",
            "validator_index": "45",
            "height": "10548",
            "round": "0",
            "timestamp": "2018-07-30T23:28:57.949657288Z",
            "type": 2,
            "block_id": {
              "hash": "8EF3A9E19B50F6EE45C85C41A4D538CB4CC50FBC",
              "parts": {
                "total": "1",
                "hash": "FED5626F8860DCC7E9FB243843E82F5339E58BBB"
              }
            },
            "signature": {
              "type": "tendermint/SignatureEd25519",
              "value": "GFqhWSFEeNVOX6uyom/eGVwcwwVVQTdZqrjJSJFQ7lhTj6qbAzv1DdaQ0SyGN+VXQP3wBBgZPweGv/i5Kn89Bg=="
            }
          },
          {
            "validator_address": "751E43437224E8BB6D1569B3E2B2616B6E7F4397",
            "validator_index": "46",
            "height": "10548",
            "round": "0",
            "timestamp": "2018-07-30T23:28:57.785729574Z",
            "type": 2,
            "block_id": {
              "hash": "8EF3A9E19B50F6EE45C85C41A4D538CB4CC50FBC",
              "parts": {
                "total": "1",
                "hash": "FED5626F8860DCC7E9FB243843E82F5339E58BBB"
              }
            },
            "signature": {
              "type": "tendermint/SignatureEd25519",
              "value": "7VSUhpHZNYB0IS4UWLPJKElsyiNbM/ZxtUCtBDQjGQhqlAgDWGWFq5ovfef0wIJ8k4nKecIbkPAm7wXMsveJCA=="
            }
          },
          {
            "validator_address": "7EB7593F519F1180C7E872D0494611464EDF03AE",
            "validator_index": "47",
            "height": "10548",
            "round": "0",
            "timestamp": "2018-07-30T23:28:57.781900626Z",
            "type": 2,
            "block_id": {
              "hash": "8EF3A9E19B50F6EE45C85C41A4D538CB4CC50FBC",
              "parts": {
                "total": "1",
                "hash": "FED5626F8860DCC7E9FB243843E82F5339E58BBB"
              }
            },
            "signature": {
              "type": "tendermint/SignatureEd25519",
              "value": "J96UUV5J3ahK3ijrkOcnQ3y1+4wp9TI1ayH49LTM/iPXJQlHY3CkWRdd8OnaOGymFbv+KfffI4WTXOudX9mADg=="
            }
          },
          {
            "validator_address": "807CF675BA8479FC4FEC1047215DF07970040F1F",
            "validator_index": "48",
            "height": "10548",
            "round": "0",
            "timestamp": "2018-07-30T23:28:57.964815028Z",
            "type": 2,
            "block_id": {
              "hash": "8EF3A9E19B50F6EE45C85C41A4D538CB4CC50FBC",
              "parts": {
                "total": "1",
                "hash": "FED5626F8860DCC7E9FB243843E82F5339E58BBB"
              }
            },
            "signature": {
              "type": "tendermint/SignatureEd25519",
              "value": "HDcSOQTwE2Ja8S/0DZNIddonpml9wAt0iozkDVSYnxmjUg6uhJNy+IZ5I+Yy8yS20BdzYxkYQl7m4q01kiWhCQ=="
            }
          },
          {
            "validator_address": "8126192EA66E8ADE6B36924534721366B987A4C1",
            "validator_index": "49",
            "height": "10548",
            "round": "0",
            "timestamp": "2018-07-30T23:28:57.788685543Z",
            "type": 2,
            "block_id": {
              "hash": "8EF3A9E19B50F6EE45C85C41A4D538CB4CC50FBC",
              "parts": {
                "total": "1",
                "hash": "FED5626F8860DCC7E9FB243843E82F5339E58BBB"
              }
            },
            "signature": {
              "type": "tendermint/SignatureEd25519",
              "value": "tUnf+nkhRt6kHN7upodtskeHoJxq4tU0viLEVHVJmqbwgP2vvA7uxXzuztoQ2UJ65sWLLCn/w3/zmi7Bc8JAAw=="
            }
          },
          {
            "validator_address": "83AB321E012C57746689FED3A6064DF331F81007",
            "validator_index": "50",
            "height": "10548",
            "round": "0",
            "timestamp": "2018-07-30T23:28:57.788828666Z",
            "type": 2,
            "block_id": {
              "hash": "8EF3A9E19B50F6EE45C85C41A4D538CB4CC50FBC",
              "parts": {
                "total": "1",
                "hash": "FED5626F8860DCC7E9FB243843E82F5339E58BBB"
              }
            },
            "signature": {
              "type": "tendermint/SignatureEd25519",
              "value": "hfots1BXXUjrXRNWSuqyJSp2cE3teImsfb9MKTbuSJ+hxN1WfqQtXS/r5CJmLfgpXrVcrSiP6oW28sR6JNcXDw=="
            }
          },
          {
            "validator_address": "83BB1B88D3DBB20AD845FECA07749EBD87D3754D",
            "validator_index": "51",
            "height": "10548",
            "round": "0",
            "timestamp": "2018-07-30T23:28:58.033446262Z",
            "type": 2,
            "block_id": {
              "hash": "8EF3A9E19B50F6EE45C85C41A4D538CB4CC50FBC",
              "parts": {
                "total": "1",
                "hash": "FED5626F8860DCC7E9FB243843E82F5339E58BBB"
              }
            },
            "signature": {
              "type": "tendermint/SignatureEd25519",
              "value": "Y4MT6meiTwAVP6lCFw5mzstrDXuYlqKAByXGNsz0MbRHIMNCHyzyVzEcf+QQ5FoWxKwL8oxY5JhSE7MA/gtwAg=="
            }
          },
          {
            "validator_address": "8F06FE1FD042683C426137FBC4BBAA4288924217",
            "validator_index": "52",
            "height": "10548",
            "round": "0",
            "timestamp": "2018-07-30T23:28:57.7890768Z",
            "type": 2,
            "block_id": {
              "hash": "8EF3A9E19B50F6EE45C85C41A4D538CB4CC50FBC",
              "parts": {
                "total": "1",
                "hash": "FED5626F8860DCC7E9FB243843E82F5339E58BBB"
              }
            },
            "signature": {
              "type": "tendermint/SignatureEd25519",
              "value": "PxDGPxNZUYrp+fX3EkYArmgm35LxseozLPMz+oQ0x3ZGPphtOY2u2gZCCyaKcktdkMb582VTkk9uoKMLGuDoBQ=="
            }
          },
          {
            "validator_address": "8F45617BF45B10A3F8283DEBDB35E38C7CA43237",
            "validator_index": "53",
            "height": "10548",
            "round": "0",
            "timestamp": "2018-07-30T23:28:57.725741166Z",
            "type": 2,
            "block_id": {
              "hash": "8EF3A9E19B50F6EE45C85C41A4D538CB4CC50FBC",
              "parts": {
                "total": "1",
                "hash": "FED5626F8860DCC7E9FB243843E82F5339E58BBB"
              }
            },
            "signature": {
              "type": "tendermint/SignatureEd25519",
              "value": "PoM98IL44vOUuycZlzC4drP5eBe5JdkQmiaKMuBamqF1fFWz8aA5TDtIonX0pVU+79d0NQA34PBIuqf70SyiDw=="
            }
          },
          {
            "validator_address": "95980831E186F2540F6E9FB6C8E74DE2401405AC",
            "validator_index": "54",
            "height": "10548",
            "round": "0",
            "timestamp": "2018-07-30T23:28:57.74103453Z",
            "type": 2,
            "block_id": {
              "hash": "8EF3A9E19B50F6EE45C85C41A4D538CB4CC50FBC",
              "parts": {
                "total": "1",
                "hash": "FED5626F8860DCC7E9FB243843E82F5339E58BBB"
              }
            },
            "signature": {
              "type": "tendermint/SignatureEd25519",
              "value": "nPZCYhsIo16TPploHbYypsY37Yf7QCJilDPrVPPyfAAyEnROuTiOjARB36CFqW3LCTxD5nlTlzf07HMY9iMpCw=="
            }
          },
          {
            "validator_address": "95FAFBC1E0579C83D290A063020CE87C5334BD9B",
            "validator_index": "55",
            "height": "10548",
            "round": "0",
            "timestamp": "2018-07-30T23:28:57.742521807Z",
            "type": 2,
            "block_id": {
              "hash": "8EF3A9E19B50F6EE45C85C41A4D538CB4CC50FBC",
              "parts": {
                "total": "1",
                "hash": "FED5626F8860DCC7E9FB243843E82F5339E58BBB"
              }
            },
            "signature": {
              "type": "tendermint/SignatureEd25519",
              "value": "QuOcozwIYkUmjsJcP/FZkkep9xpdLmakbOkbt7/fQcDaAWwqefVwLEO0PJD760CtBIbvX0KNwAqVkSKZTwcYDA=="
            }
          },
          {
            "validator_address": "96BDE45EC52606CF5CB59853097871AD60680549",
            "validator_index": "56",
            "height": "10548",
            "round": "0",
            "timestamp": "2018-07-30T23:28:57.765873256Z",
            "type": 2,
            "block_id": {
              "hash": "8EF3A9E19B50F6EE45C85C41A4D538CB4CC50FBC",
              "parts": {
                "total": "1",
                "hash": "FED5626F8860DCC7E9FB243843E82F5339E58BBB"
              }
            },
            "signature": {
              "type": "tendermint/SignatureEd25519",
              "value": "tlNzFELLKQqsSlMS9z9eWPglAnjuhlMOBTHPmowoa+0QcTiQdCq84549A3qmrxTbWSuabs81RZPDm2CFtwGCDA=="
            }
          },
          {
            "validator_address": "970CD321881185BF83DB2923C321B0E75FDBB2B8",
            "validator_index": "57",
            "height": "10548",
            "round": "0",
            "timestamp": "2018-07-30T23:28:57.873916049Z",
            "type": 2,
            "block_id": {
              "hash": "8EF3A9E19B50F6EE45C85C41A4D538CB4CC50FBC",
              "parts": {
                "total": "1",
                "hash": "FED5626F8860DCC7E9FB243843E82F5339E58BBB"
              }
            },
            "signature": {
              "type": "tendermint/SignatureEd25519",
              "value": "J9Ih+EL4sUDCNpm4q3L8vg4NHgb7GKq51vtE3Dox7TJaoOtyZ/mtLTSi1jEFZoVca9IyKfOY0R5lmWrcVEB3AQ=="
            }
          },
          {
            "validator_address": "9C29C9B76D27586E4D9AD2AED0E943162645E55C",
            "validator_index": "58",
            "height": "10548",
            "round": "0",
            "timestamp": "2018-07-30T23:28:57.713065792Z",
            "type": 2,
            "block_id": {
              "hash": "8EF3A9E19B50F6EE45C85C41A4D538CB4CC50FBC",
              "parts": {
                "total": "1",
                "hash": "FED5626F8860DCC7E9FB243843E82F5339E58BBB"
              }
            },
            "signature": {
              "type": "tendermint/SignatureEd25519",
              "value": "eoHPO/vV1pQrJmd5Iel6mqGnA8kY+O6ndjPpl6EpeAwm3ovb98kLGvnf29dvHuPb5T/ahCtEL4hIeRHJHvCSBg=="
            }
          },
          {
            "validator_address": "9D93AD02FE1BD7E76B9E58D7EB461088EAD011E5",
            "validator_index": "59",
            "height": "10548",
            "round": "0",
            "timestamp": "2018-07-30T23:28:57.710391052Z",
            "type": 2,
            "block_id": {
              "hash": "8EF3A9E19B50F6EE45C85C41A4D538CB4CC50FBC",
              "parts": {
                "total": "1",
                "hash": "FED5626F8860DCC7E9FB243843E82F5339E58BBB"
              }
            },
            "signature": {
              "type": "tendermint/SignatureEd25519",
              "value": "yVChivtk9ogOS99vn0LBVfst4S1tfiPH0M3kkc89lb0Dva2jAr4k+saxCF29wTWGdjf4bX+Byjf+gqGMXSO3CA=="
            }
          },
          {
            "validator_address": "A0A6466F4ABEA09C3B55E3709AFDE217A103209F",
            "validator_index": "60",
            "height": "10548",
            "round": "0",
            "timestamp": "2018-07-30T23:28:57.729812709Z",
            "type": 2,
            "block_id": {
              "hash": "8EF3A9E19B50F6EE45C85C41A4D538CB4CC50FBC",
              "parts": {
                "total": "1",
                "hash": "FED5626F8860DCC7E9FB243843E82F5339E58BBB"
              }
            },
            "signature": {
              "type": "tendermint/SignatureEd25519",
              "value": "7qkwyc4MxV+nCx8KDz06RYFDQcMe4hm4ujwq2hXu5WjiUoqpsl17vUFPv02jcimf/tD9dj2gqNteMQB1L2tOBg=="
            }
          },
          {
            "validator_address": "A5868971300F155020634D7BB49C7634F7AACCD3",
            "validator_index": "61",
            "height": "10548",
            "round": "0",
            "timestamp": "2018-07-30T23:28:57.741036068Z",
            "type": 2,
            "block_id": {
              "hash": "8EF3A9E19B50F6EE45C85C41A4D538CB4CC50FBC",
              "parts": {
                "total": "1",
                "hash": "FED5626F8860DCC7E9FB243843E82F5339E58BBB"
              }
            },
            "signature": {
              "type": "tendermint/SignatureEd25519",
              "value": "A3TPvUnSHDIO8+n9XKvjxMSxHyBPnv6yV6WnEDFZ1BSc1Yjj/gLCGOuO/rFcEQEmr/5jyGJcYT/Nd5a19rO/Bg=="
            }
          },
          {
            "validator_address": "A6B3A5B5D982CFD7B5FDFA15CF5A720E7AE25E7F",
            "validator_index": "62",
            "height": "10548",
            "round": "0",
            "timestamp": "2018-07-30T23:28:57.700937369Z",
            "type": 2,
            "block_id": {
              "hash": "8EF3A9E19B50F6EE45C85C41A4D538CB4CC50FBC",
              "parts": {
                "total": "1",
                "hash": "FED5626F8860DCC7E9FB243843E82F5339E58BBB"
              }
            },
            "signature": {
              "type": "tendermint/SignatureEd25519",
              "value": "W/2Ghm1Tc7Qf88WAnEWDK01GQh9RFAYWgBJQrAXpbsTA++MU3vUtbhPkiZmQ+LeBk5YIS0uAFHJQGVB2q1NRAQ=="
            }
          },
          {
            "validator_address": "AC96444A9083890B7C7B430DB17BF1D3EA5EED04",
            "validator_index": "63",
            "height": "10548",
            "round": "0",
            "timestamp": "2018-07-30T23:28:57.856135288Z",
            "type": 2,
            "block_id": {
              "hash": "8EF3A9E19B50F6EE45C85C41A4D538CB4CC50FBC",
              "parts": {
                "total": "1",
                "hash": "FED5626F8860DCC7E9FB243843E82F5339E58BBB"
              }
            },
            "signature": {
              "type": "tendermint/SignatureEd25519",
              "value": "4hztUASdUiUBdTboJODZTkMBYBaFnsiTBYRTtQHe2aW/IW+pTsIsbfSQesBfZZvBTRivFbIVUKLd78mpm4jtBA=="
            }
          },
          {
            "validator_address": "ACB97FDA2D940AF0709B73537C458EB988AD2893",
            "validator_index": "64",
            "height": "10548",
            "round": "0",
            "timestamp": "2018-07-30T23:28:57.722766582Z",
            "type": 2,
            "block_id": {
              "hash": "8EF3A9E19B50F6EE45C85C41A4D538CB4CC50FBC",
              "parts": {
                "total": "1",
                "hash": "FED5626F8860DCC7E9FB243843E82F5339E58BBB"
              }
            },
            "signature": {
              "type": "tendermint/SignatureEd25519",
              "value": "8Ynl1f7lRUpAqANjYO2mIjuEuwWJzPqH7K3Dq9dTy2nVCF0vjulFjnT+Wxy9orqZOx4YfuqXyeC7F9FiEhz3CQ=="
            }
          },
          {
            "validator_address": "B197425B3210375F211661DE02EF2AE36580EB0F",
            "validator_index": "65",
            "height": "10548",
            "round": "0",
            "timestamp": "2018-07-30T23:28:57.767573336Z",
            "type": 2,
            "block_id": {
              "hash": "8EF3A9E19B50F6EE45C85C41A4D538CB4CC50FBC",
              "parts": {
                "total": "1",
                "hash": "FED5626F8860DCC7E9FB243843E82F5339E58BBB"
              }
            },
            "signature": {
              "type": "tendermint/SignatureEd25519",
              "value": "1Q7rZJWSh6h5OLwQjaK59k2PETbDUNFVRdpG79gRdXD8MGCpvDJtgwYjeIR+WjSBa5HPPQd7yrfRlQRkU74rCg=="
            }
          },
          {
            "validator_address": "B45E54D2D1CB5A4CCD1D49016608C18E7C56B270",
            "validator_index": "66",
            "height": "10548",
            "round": "0",
            "timestamp": "2018-07-30T23:28:57.845509104Z",
            "type": 2,
            "block_id": {
              "hash": "8EF3A9E19B50F6EE45C85C41A4D538CB4CC50FBC",
              "parts": {
                "total": "1",
                "hash": "FED5626F8860DCC7E9FB243843E82F5339E58BBB"
              }
            },
            "signature": {
              "type": "tendermint/SignatureEd25519",
              "value": "fjoHBXOhjJvoR1Z9U5fVomtwfpdMZ98chUTttBRle9YoMTHFF6cojZDpuKR1O20yXfrYHFF72mATlGERTGwLCQ=="
            }
          },
          {
            "validator_address": "B59A34C0BE4EC73AF6A67D274F1695C9259C237C",
            "validator_index": "67",
            "height": "10548",
            "round": "0",
            "timestamp": "2018-07-30T23:28:57.948467928Z",
            "type": 2,
            "block_id": {
              "hash": "8EF3A9E19B50F6EE45C85C41A4D538CB4CC50FBC",
              "parts": {
                "total": "1",
                "hash": "FED5626F8860DCC7E9FB243843E82F5339E58BBB"
              }
            },
            "signature": {
              "type": "tendermint/SignatureEd25519",
              "value": "MIJUTq0VssNuWtr4p43RoVPO8IOVRB0YVl7/X9eUExPqv+dUujyd446pwIf+4AHPJ3ekwOLmAahVKNkAZy7aAQ=="
            }
          },
          {
            "validator_address": "BC36FEDD6EF6071118A3E51859DF3831A2EC4782",
            "validator_index": "68",
            "height": "10548",
            "round": "0",
            "timestamp": "2018-07-30T23:28:57.782308504Z",
            "type": 2,
            "block_id": {
              "hash": "8EF3A9E19B50F6EE45C85C41A4D538CB4CC50FBC",
              "parts": {
                "total": "1",
                "hash": "FED5626F8860DCC7E9FB243843E82F5339E58BBB"
              }
            },
            "signature": {
              "type": "tendermint/SignatureEd25519",
              "value": "Cc50dGNT4L+foNn5YGj0KWyv1a54eul8hf6SABtFP/PQR9HD/4cH4h03nyx4PavP9lkwMs3eO2nBsWJY5uvBCQ=="
            }
          },
          {
            "validator_address": "BD9D0DA513BF099DB4BB6E725A4E19832789882F",
            "validator_index": "69",
            "height": "10548",
            "round": "0",
            "timestamp": "2018-07-30T23:28:57.705050107Z",
            "type": 2,
            "block_id": {
              "hash": "8EF3A9E19B50F6EE45C85C41A4D538CB4CC50FBC",
              "parts": {
                "total": "1",
                "hash": "FED5626F8860DCC7E9FB243843E82F5339E58BBB"
              }
            },
            "signature": {
              "type": "tendermint/SignatureEd25519",
              "value": "xg3NIvnYs8BrYIlCF9mYWJT2omQNQKY25MCj9wtujojX4c3Xp/s2Snx83q5J9FwGNmdbjxSa4hno9SvecmugDw=="
            }
          },
          {
            "validator_address": "C1134A2FF8F7338E7CDB3FE57DDD2A655DEB1E22",
            "validator_index": "70",
            "height": "10548",
            "round": "0",
            "timestamp": "2018-07-30T23:28:56.993573158Z",
            "type": 2,
            "block_id": {
              "hash": "8EF3A9E19B50F6EE45C85C41A4D538CB4CC50FBC",
              "parts": {
                "total": "1",
                "hash": "FED5626F8860DCC7E9FB243843E82F5339E58BBB"
              }
            },
            "signature": {
              "type": "tendermint/SignatureEd25519",
              "value": "cWs0dAI8e3gVZ/XUBLs3gZjV4GXfCaI/Mj4eCcO0+jPu+ktM2bdRXGffHyhEsSycRo6Fi5SQf4HySiz7b2meBw=="
            }
          },
          {
            "validator_address": "C39A8A2B85198DCB8F23AD1F6C198E2BA7AB5D60",
            "validator_index": "71",
            "height": "10548",
            "round": "0",
            "timestamp": "2018-07-30T23:28:57.717930719Z",
            "type": 2,
            "block_id": {
              "hash": "8EF3A9E19B50F6EE45C85C41A4D538CB4CC50FBC",
              "parts": {
                "total": "1",
                "hash": "FED5626F8860DCC7E9FB243843E82F5339E58BBB"
              }
            },
            "signature": {
              "type": "tendermint/SignatureEd25519",
              "value": "lBaIMxnudDqtHMMbmPy3mZCS6hUoVFaeZQZ9bCCNF6D5QdpGJGw3NumMwGlKbC2XKmvb4e4VV4I+462/A9jsAA=="
            }
          },
          {
            "validator_address": "C4335190C3B5BD4BA5568BC0F99C34162D940D08",
            "validator_index": "72",
            "height": "10548",
            "round": "0",
            "timestamp": "2018-07-30T23:28:57.81123295Z",
            "type": 2,
            "block_id": {
              "hash": "8EF3A9E19B50F6EE45C85C41A4D538CB4CC50FBC",
              "parts": {
                "total": "1",
                "hash": "FED5626F8860DCC7E9FB243843E82F5339E58BBB"
              }
            },
            "signature": {
              "type": "tendermint/SignatureEd25519",
              "value": "YIjs8EvDqO2Yv9t4DQiDZrA1ZwSXFa7qr1QgkAIp+uQ7eAfXfl76mkkz0qR78ol3acUPXikvR4uDiRW57ZqqBQ=="
            }
          },
          {
            "validator_address": "C561CFA081677046376396922E7576E5F7B316AD",
            "validator_index": "73",
            "height": "10548",
            "round": "0",
            "timestamp": "2018-07-30T23:28:57.934437297Z",
            "type": 2,
            "block_id": {
              "hash": "8EF3A9E19B50F6EE45C85C41A4D538CB4CC50FBC",
              "parts": {
                "total": "1",
                "hash": "FED5626F8860DCC7E9FB243843E82F5339E58BBB"
              }
            },
            "signature": {
              "type": "tendermint/SignatureEd25519",
              "value": "A4XQSt2CYrY1ZvclF5oU8Fvo28zcXf+riWmVXYChhkWsbxoZYx7bYpjUrkwQAOs/EURxk89wHa6yUWaEEvETAg=="
            }
          },
          {
            "validator_address": "CE589EA77B056D268D30D1DC1D68A70E0F885E95",
            "validator_index": "74",
            "height": "10548",
            "round": "0",
            "timestamp": "2018-07-30T23:28:57.749541384Z",
            "type": 2,
            "block_id": {
              "hash": "8EF3A9E19B50F6EE45C85C41A4D538CB4CC50FBC",
              "parts": {
                "total": "1",
                "hash": "FED5626F8860DCC7E9FB243843E82F5339E58BBB"
              }
            },
            "signature": {
              "type": "tendermint/SignatureEd25519",
              "value": "aYqj3co56EZDnlo6fjgvXYu/ekEVVxpQ1hiPXx9bWgHiDL3/cPorRPPW+m3JRdXGGSgQBm1IbWK3wTOMvHCoCQ=="
            }
          },
          {
            "validator_address": "CEB97DB5CB18270247ABDE6CF2F84F9AEE8A2904",
            "validator_index": "75",
            "height": "10548",
            "round": "0",
            "timestamp": "2018-07-30T23:28:57.648413389Z",
            "type": 2,
            "block_id": {
              "hash": "8EF3A9E19B50F6EE45C85C41A4D538CB4CC50FBC",
              "parts": {
                "total": "1",
                "hash": "FED5626F8860DCC7E9FB243843E82F5339E58BBB"
              }
            },
            "signature": {
              "type": "tendermint/SignatureEd25519",
              "value": "1+SS739ilpuIPuvd7MsNa/b7Rv0/BLT2gO5ITbr2Lbj0sBkBD7loBxljdKQMlEObQn2kmO0u17X5tvK2rV1CBQ=="
            }
          },
          {
            "validator_address": "CF205769734F5758CC39F907EFB73D6BAF915FB1",
            "validator_index": "76",
            "height": "10548",
            "round": "0",
            "timestamp": "2018-07-30T23:28:57.98978666Z",
            "type": 2,
            "block_id": {
              "hash": "8EF3A9E19B50F6EE45C85C41A4D538CB4CC50FBC",
              "parts": {
                "total": "1",
                "hash": "FED5626F8860DCC7E9FB243843E82F5339E58BBB"
              }
            },
            "signature": {
              "type": "tendermint/SignatureEd25519",
              "value": "Q1NGtQ6LVNll7W03wxNsT4lphnKuMZXtvCPIOUPSEWxQ9YVyir1zOyqwhYOyOYFesVfO0rTUg094xVVxAOXNAA=="
            }
          },
          {
            "validator_address": "D2134B826A1E25A955905CB79A4D8731CAFA0CCE",
            "validator_index": "77",
            "height": "10548",
            "round": "0",
            "timestamp": "2018-07-30T23:28:57.855075666Z",
            "type": 2,
            "block_id": {
              "hash": "8EF3A9E19B50F6EE45C85C41A4D538CB4CC50FBC",
              "parts": {
                "total": "1",
                "hash": "FED5626F8860DCC7E9FB243843E82F5339E58BBB"
              }
            },
            "signature": {
              "type": "tendermint/SignatureEd25519",
              "value": "87gh5dMVt+BrimIMR9c/zhohWXZbeXFoistmNmd7W1rXUMBECaNlH/Sf9YH4cIC2O8cfBrEYpg3jz9156cTYCA=="
            }
          },
          {
            "validator_address": "D6285C3422C8886445D53757CBE12D2B91B5A9D0",
            "validator_index": "78",
            "height": "10548",
            "round": "0",
            "timestamp": "2018-07-30T23:28:40.131667228Z",
            "type": 2,
            "block_id": {
              "hash": "8EF3A9E19B50F6EE45C85C41A4D538CB4CC50FBC",
              "parts": {
                "total": "1",
                "hash": "FED5626F8860DCC7E9FB243843E82F5339E58BBB"
              }
            },
            "signature": {
              "type": "tendermint/SignatureEd25519",
              "value": "axAvH9We5Kw2whVLFULgz/jrhqLy53GHvTYPJjXP8l9IcE3Mv0EXlRDK6FHuqiciVfG4VvP4fS+FLJBSxMqdAQ=="
            }
          },
          {
            "validator_address": "DB7E6732471D3EA5C90C17A9974D9F88AB45F2FB",
            "validator_index": "79",
            "height": "10548",
            "round": "0",
            "timestamp": "2018-07-30T23:28:57.853574008Z",
            "type": 2,
            "block_id": {
              "hash": "8EF3A9E19B50F6EE45C85C41A4D538CB4CC50FBC",
              "parts": {
                "total": "1",
                "hash": "FED5626F8860DCC7E9FB243843E82F5339E58BBB"
              }
            },
            "signature": {
              "type": "tendermint/SignatureEd25519",
              "value": "n4/55axQiFQYjfzj1EliYRLZAkNro42YwhMjNQxaulFMmqv2IagnjOZUqxYi9juR/IXjLmwRNRuBjgoXuEYcDw=="
            }
          },
          {
            "validator_address": "DF54B862410BCD9B5C516FBB6C56BDC826ED6FA7",
            "validator_index": "80",
            "height": "10548",
            "round": "0",
            "timestamp": "2018-07-30T23:28:57.959102209Z",
            "type": 2,
            "block_id": {
              "hash": "8EF3A9E19B50F6EE45C85C41A4D538CB4CC50FBC",
              "parts": {
                "total": "1",
                "hash": "FED5626F8860DCC7E9FB243843E82F5339E58BBB"
              }
            },
            "signature": {
              "type": "tendermint/SignatureEd25519",
              "value": "5+462+li1INKpXfpafr7ITVjZ70izhFVn0P378/vZjHnhPFejizqAhw0vgHEJD780Fk/UnVaCIR/yALqiatsAg=="
            }
          },
          {
            "validator_address": "DFAF0C8B1B78D6D552B0189DE3ACA351439A1319",
            "validator_index": "81",
            "height": "10548",
            "round": "0",
            "timestamp": "2018-07-30T23:28:57.771743112Z",
            "type": 2,
            "block_id": {
              "hash": "8EF3A9E19B50F6EE45C85C41A4D538CB4CC50FBC",
              "parts": {
                "total": "1",
                "hash": "FED5626F8860DCC7E9FB243843E82F5339E58BBB"
              }
            },
            "signature": {
              "type": "tendermint/SignatureEd25519",
              "value": "39nuX/aZtsDWpDRqyj3szafb8HnzJm2PHxVA9wzSTolciL5l1BFOuZJQwED2sqH5emM8pnEt9Yq3d77utCgqCg=="
            }
          },
          {
            "validator_address": "E1DBC77881161A5A3A8536A57536EAE546A75D69",
            "validator_index": "82",
            "height": "10548",
            "round": "0",
            "timestamp": "2018-07-30T23:28:57.685019232Z",
            "type": 2,
            "block_id": {
              "hash": "8EF3A9E19B50F6EE45C85C41A4D538CB4CC50FBC",
              "parts": {
                "total": "1",
                "hash": "FED5626F8860DCC7E9FB243843E82F5339E58BBB"
              }
            },
            "signature": {
              "type": "tendermint/SignatureEd25519",
              "value": "Tx0hTwBurAiuKhDa9j5NXiYYy99KHw/Xb6IliKQZhScvDt4icdaEV0thuQwM4tOzjbXUWBlRewZOHeVBdz27Cw=="
            }
          },
          {
            "validator_address": "E300E9D484374C1D3E97C1D93CAC3B160A056298",
            "validator_index": "83",
            "height": "10548",
            "round": "0",
            "timestamp": "2018-07-30T23:28:57.89578821Z",
            "type": 2,
            "block_id": {
              "hash": "8EF3A9E19B50F6EE45C85C41A4D538CB4CC50FBC",
              "parts": {
                "total": "1",
                "hash": "FED5626F8860DCC7E9FB243843E82F5339E58BBB"
              }
            },
            "signature": {
              "type": "tendermint/SignatureEd25519",
              "value": "+4AGajJs1JLBE0pZ9MqdmymclYIhM/ZT4y2oR2s5U3g5ZvD4moNVthzLOS/2IgOv31qSFStumAcV38FXVL89Cw=="
            }
          },
          {
            "validator_address": "E39B5778E0D4297A46F45CF6940B0A163A430FF8",
            "validator_index": "84",
            "height": "10548",
            "round": "0",
            "timestamp": "2018-07-30T23:28:57.770160221Z",
            "type": 2,
            "block_id": {
              "hash": "8EF3A9E19B50F6EE45C85C41A4D538CB4CC50FBC",
              "parts": {
                "total": "1",
                "hash": "FED5626F8860DCC7E9FB243843E82F5339E58BBB"
              }
            },
            "signature": {
              "type": "tendermint/SignatureEd25519",
              "value": "0HpxhSiZshszmP9SYPimOHjU5Rp4aru7w2GdJpvvEqHGtTTK3sPDJqDih7/fnQ0BKkKkZlBSyd8eKOdQuw9kAA=="
            }
          },
          {
            "validator_address": "E42F8AEABB685219F7027F54D2B0DBC7846F633A",
            "validator_index": "85",
            "height": "10548",
            "round": "0",
            "timestamp": "2018-07-30T23:28:57.122122086Z",
            "type": 2,
            "block_id": {
              "hash": "8EF3A9E19B50F6EE45C85C41A4D538CB4CC50FBC",
              "parts": {
                "total": "1",
                "hash": "FED5626F8860DCC7E9FB243843E82F5339E58BBB"
              }
            },
            "signature": {
              "type": "tendermint/SignatureEd25519",
              "value": "q8IdVfdJ1B0j1JApkuynGm3MEYvXmsGXQmZUOp2sgkVcX6IhYRfVI1MqMr+BvGdaJ74MWxavaRK5kSnKbfRhBw=="
            }
          },
          {
            "validator_address": "E4E6C2E81269DFFA196C17F98240E491479A6008",
            "validator_index": "86",
            "height": "10548",
            "round": "0",
            "timestamp": "2018-07-30T23:28:57.856577809Z",
            "type": 2,
            "block_id": {
              "hash": "8EF3A9E19B50F6EE45C85C41A4D538CB4CC50FBC",
              "parts": {
                "total": "1",
                "hash": "FED5626F8860DCC7E9FB243843E82F5339E58BBB"
              }
            },
            "signature": {
              "type": "tendermint/SignatureEd25519",
              "value": "/8nVWUQ796epMBjRQOdqBEu+VUpwts3AwFtNPkioHNieb3VvMIjspHL1XdK0JwZ5ckQ91VqA0JwhXtbIipAQAA=="
            }
          },
          null,
          {
            "validator_address": "E7A30077D5D11867D3EAF99ED45BFDC1EB834509",
            "validator_index": "88",
            "height": "10548",
            "round": "0",
            "timestamp": "2018-07-30T23:28:57.729760264Z",
            "type": 2,
            "block_id": {
              "hash": "8EF3A9E19B50F6EE45C85C41A4D538CB4CC50FBC",
              "parts": {
                "total": "1",
                "hash": "FED5626F8860DCC7E9FB243843E82F5339E58BBB"
              }
            },
            "signature": {
              "type": "tendermint/SignatureEd25519",
              "value": "j+dQcSgeSQ0EZ1T+I2oSRJKrzKLjRWVCx6yurly01NAcQsGhAnJkbn4UvJWU6A/xoLoAm/+uZWjEQhZQ46gZDg=="
            }
          },
          {
            "validator_address": "EBC613967F66F4EC306852CDF58B4F151CF16738",
            "validator_index": "89",
            "height": "10548",
            "round": "0",
            "timestamp": "2018-07-30T23:28:57.790355601Z",
            "type": 2,
            "block_id": {
              "hash": "8EF3A9E19B50F6EE45C85C41A4D538CB4CC50FBC",
              "parts": {
                "total": "1",
                "hash": "FED5626F8860DCC7E9FB243843E82F5339E58BBB"
              }
            },
            "signature": {
              "type": "tendermint/SignatureEd25519",
              "value": "nxh9TrwltBLdOuwoh+K45B9/i9c/bCCcCDvvKoRG+CduG9/CFRJ+kRQWqS4XV/pYf17W/RSqA9JQFTvWFwZlCA=="
            }
          },
          {
            "validator_address": "EC3401441726C40ECC7E51F744483B05BC6DE9BD",
            "validator_index": "90",
            "height": "10548",
            "round": "0",
            "timestamp": "2018-07-30T23:28:57.764228736Z",
            "type": 2,
            "block_id": {
              "hash": "8EF3A9E19B50F6EE45C85C41A4D538CB4CC50FBC",
              "parts": {
                "total": "1",
                "hash": "FED5626F8860DCC7E9FB243843E82F5339E58BBB"
              }
            },
            "signature": {
              "type": "tendermint/SignatureEd25519",
              "value": "zyn5tuyD0LqMr8s7rSE+EIbDfwBPw9PV+EMxGeON5Yy5QUuPXHYpmMKvCL/imwEFB2avYKhfQRnDnKMxmT8RCw=="
            }
          },
          {
            "validator_address": "EC95B111D032181E1EC3B5E8875C5BB8E4AE7140",
            "validator_index": "91",
            "height": "10548",
            "round": "0",
            "timestamp": "2018-07-30T23:28:57.689243076Z",
            "type": 2,
            "block_id": {
              "hash": "8EF3A9E19B50F6EE45C85C41A4D538CB4CC50FBC",
              "parts": {
                "total": "1",
                "hash": "FED5626F8860DCC7E9FB243843E82F5339E58BBB"
              }
            },
            "signature": {
              "type": "tendermint/SignatureEd25519",
              "value": "G1y1P0PvY9QcB6gFo03yQxz8XC3Fa2PyZxnSfjA9dG7jwqvSM1T1L9rjpSj1b4KDdX2cOqsimNEZWjYbKuUfAw=="
            }
          },
          {
            "validator_address": "F13C1805E8131C9B47E2A46818F57D8A2841E578",
            "validator_index": "92",
            "height": "10548",
            "round": "0",
            "timestamp": "2018-07-30T23:28:57.786473392Z",
            "type": 2,
            "block_id": {
              "hash": "8EF3A9E19B50F6EE45C85C41A4D538CB4CC50FBC",
              "parts": {
                "total": "1",
                "hash": "FED5626F8860DCC7E9FB243843E82F5339E58BBB"
              }
            },
            "signature": {
              "type": "tendermint/SignatureEd25519",
              "value": "GfVVZluPyM2cPcO5l8aH/V8JGUtL0KuRhmZDlTkVjHGTltpGthOtEyyACiSVVqkLVZGtv5U2npKathugFWCnBA=="
            }
          },
          {
            "validator_address": "F23FF36BD5B90C33CE3A03ED72DBDCF5EC07D6AF",
            "validator_index": "93",
            "height": "10548",
            "round": "0",
            "timestamp": "2018-07-30T23:28:57.782893466Z",
            "type": 2,
            "block_id": {
              "hash": "8EF3A9E19B50F6EE45C85C41A4D538CB4CC50FBC",
              "parts": {
                "total": "1",
                "hash": "FED5626F8860DCC7E9FB243843E82F5339E58BBB"
              }
            },
            "signature": {
              "type": "tendermint/SignatureEd25519",
              "value": "mF+8NQ/doWSZhuRSfutqVnGj/nXwkODaMuGtH03HQNOU6bpBSz+893mIVt5d9RtA8lG2GGXoPWqkrgbuijWHBQ=="
            }
          },
          {
            "validator_address": "F4268597DE93E3E2CED38845010F8AA34E2A879E",
            "validator_index": "94",
            "height": "10548",
            "round": "0",
            "timestamp": "2018-07-30T23:28:57.807243772Z",
            "type": 2,
            "block_id": {
              "hash": "8EF3A9E19B50F6EE45C85C41A4D538CB4CC50FBC",
              "parts": {
                "total": "1",
                "hash": "FED5626F8860DCC7E9FB243843E82F5339E58BBB"
              }
            },
            "signature": {
              "type": "tendermint/SignatureEd25519",
              "value": "txTTBsDwjxJkOfL1e0ffR8LZgBnyn23RtbotxwK9SvCLHwuBqmcgf3X7J79GVmF2Qf5caWW60zA0HIOkZAIbAQ=="
            }
          },
          {
            "validator_address": "F4DEB417999B04BE2EFF9FFE03FA373D86011CC0",
            "validator_index": "95",
            "height": "10548",
            "round": "0",
            "timestamp": "2018-07-30T23:28:57.80868595Z",
            "type": 2,
            "block_id": {
              "hash": "8EF3A9E19B50F6EE45C85C41A4D538CB4CC50FBC",
              "parts": {
                "total": "1",
                "hash": "FED5626F8860DCC7E9FB243843E82F5339E58BBB"
              }
            },
            "signature": {
              "type": "tendermint/SignatureEd25519",
              "value": "DHGkG8vTSZE+nJpKaPz1s6M7O3LIJl6a/WgCjcCR2gpLJcoHnLM7vk6DvkPVr2X2kAI7Yir1AhbScA4Ng3cFBQ=="
            }
          },
          {
            "validator_address": "FF3F3FCBCE7E62D7AD5506FF846EC4518D980515",
            "validator_index": "96",
            "height": "10548",
            "round": "0",
            "timestamp": "2018-07-30T23:28:57.72753884Z",
            "type": 2,
            "block_id": {
              "hash": "8EF3A9E19B50F6EE45C85C41A4D538CB4CC50FBC",
              "parts": {
                "total": "1",
                "hash": "FED5626F8860DCC7E9FB243843E82F5339E58BBB"
              }
            },
            "signature": {
              "type": "tendermint/SignatureEd25519",
              "value": "NZUK0gT+YcwZK7AKjfHZmGRDqn1Bb9r7TRcM1L5LErqebI9Boo0rUp36fXAZYfT04da0sv9PAfcDK0c63OGyDQ=="
            }
          }
        ]
      }
    },
    "canonical": true
  }
}