{
  "jsonrpc": "2.0",
  "id": "",
  "result": {
    "SignedHeader": {
      "header": {
        "chain_id": "gaia-7004",
        "height": "11536",
        "time": "2018-07-31T01:05:04.776785736Z",
        "num_txs": "0",
        "last_block_id": {
          "hash": "94F74B8DF6908D6F3084BF34307E58CC08992A86",
          "parts": {
            "total": "1",
            "hash": "79B74C979CE736C432CAA619B23577B6224AA4CC"
          }
        },
        "total_txs": "508",
        "last_commit_hash": "6DE91C0BBBB8082B9687C6EBBEAEB41E19B49AF9",
        "data_hash": "",
        "validators_hash": "549FBBF24CEE366D955A53F3BB649D0FA6D3F5CB",
        "consensus_hash": "D6B74BB35BDFFD8392340F2A379173548AE188FE",
        "app_hash": "636401C2BD269D1A0F7C9223DFEB35DC359B5292",
        "last_results_hash": "",
        "evidence_hash": ""
      },
      "commit": {
        "block_id": {
          "hash": "420A34AEADB7E6454424D4CC7272F76F680D19F0",
          "parts": {
            "total": "1",
            "hash": "B959BE738CA1FA785F23710253383F7E181C2224"
          }
        },
        "precommits": [
          {
            "validator_address": "029359C0C768096273A68ABC902A6B17AC8D1D70",
            "validator_index": "0",
            "height": "11536",
            "round": "1",
            "timestamp": "2018-07-31T01:05:05.551722512Z",
            "type": 2,
            "block_id": {
              "hash": "420A34AEADB7E6454424D4CC7272F76F680D19F0",
              "parts": {
                "total": "1",
                "hash": "B959BE738CA1FA785F23710253383F7E181C2224"
              }
            },
            "signature": {
              "type": "tendermint/SignatureEd25519",
              "value": "2oaiBcfWcrw/ZX/rDtDmkNQSG3ANUwlMy+r0oJsxiwlF93Fd6VN5rOt/2D0BOvfWvmHJLSLILx6vwUA0mR/uBg=="
            }
          },
          {
            "validator_address": "02FE4B97A8387F39D1AC19E0C1702B3CC614812F",
            "validator_index": "1",
            "height": "11536",
            "round": "1",
            "timestamp": "2018-07-31T01:05:05.569416901Z",
            "type": 2,
            "block_id": {
              "hash": "420A34AEADB7E6454424D4CC7272F76F680D19F0",
              "parts": {
                "total": "1",
                "hash": "B959BE738CA1FA785F23710253383F7E181C2224"
              }
            },
            "signature": {
              "type": "tendermint/SignatureEd25519",
              "value": "YKinFIOylSTaLs2ZkNXhRZQtCBs+PYDQjcl3nzpevdaX/8xlAqgnntU1Smn4e0ajtkKMxstKVQWUAIou2qjIAg=="
            }
          },
          {
            "validator_address": "0548261C50222FD710EB5EBDF03A0E6567B21D20",
            "validator_index": "2",
            "height": "11536",
            "round": "1",
            "timestamp": "2018-07-31T01:05:05.645972697Z",
            "type": 2,
            "block_id": {
              "hash": "420A34AEADB7E6454424D4CC7272F76F680D19F0",
              "parts": {
                "total": "1",
                "hash": "B959BE738CA1FA785F23710253383F7E181C2224"
              }
            },
            "signature": {
              "type": "tendermint/SignatureEd25519",
              "value": "ilr09O4All0pprV0w8Rna1A4x4u65LOxSB7MuSf2NCU2zmG2naikVmHHreBjgb0EoUJT43wISz2n3Ap3aBmZDQ=="
            }
          },
          {
            "validator_address": "09145E611CC27EEB944FC5A956DDF710F943B9EF",
            "validator_index": "3",
            "height": "11536",
            "round": "1",
            "timestamp": "2018-07-31T01:05:05.613883475Z",
            "type": 2,
            "block_id": {
              "hash": "420A34AEADB7E6454424D4CC7272F76F680D19F0",
              "parts": {
                "total": "1",
                "hash": "B959BE738CA1FA785F23710253383F7E181C2224"
              }
            },
            "signature": {
              "type": "tendermint/SignatureEd25519",
              "value": "6VAeL+N5lYjINjY3RO0zvurkjK1nuAVBD/1IwiyYBarpmz/dYnb4nkikrBaNJu5I+rwCImvD19qmVPJc+2hoBA=="
            }
          },
          {
            "validator_address": "0989D0355A104B67AE0AE028C68FB610690E174B",
            "validator_index": "4",
            "height": "11536",
            "round": "1",
            "timestamp": "2018-07-31T01:05:05.524630364Z",
            "type": 2,
            "block_id": {
              "hash": "420A34AEADB7E6454424D4CC7272F76F680D19F0",
              "parts": {
                "total": "1",
                "hash": "B959BE738CA1FA785F23710253383F7E181C2224"
              }
            },
            "signature": {
              "type": "tendermint/SignatureEd25519",
              "value": "PUPu0OekJ7mL7vlctthBE5wYyb6ZAbm5Ok4x1Z878N7KN79J1np4XxmQ7fEwknB4eeB5Z6qqI9Q4lbOfTt+4DA=="
            }
          },
          {
            "validator_address": "0A692DBFFE9E5DD28E7DECC33CED1AEB4C0D014E",
            "validator_index": "5",
            "height": "11536",
            "round": "1",
            "timestamp": "2018-07-31T01:05:05.680404052Z",
            "type": 2,
            "block_id": {
              "hash": "420A34AEADB7E6454424D4CC7272F76F680D19F0",
              "parts": {
                "total": "1",
                "hash": "B959BE738CA1FA785F23710253383F7E181C2224"
              }
            },
            "signature": {
              "type": "tendermint/SignatureEd25519",
              "value": "ODc2FAi+R/IPVA0fmB1WeYz+zxGy9PGwNZ1/kwvwVU0hLaF6od4jUow13QB9t0IyFoSEACtoTK3sTYB8LkOcCg=="
            }
          },
          {
            "validator_address": "0DDF97111D73DB825138EC15EC27DE5FE8536901",
            "validator_index": "6",
            "height": "11536",
            "round": "1",
            "timestamp": "2018-07-31T01:05:05.615338662Z",
            "type": 2,
            "block_id": {
              "hash": "420A34AEADB7E6454424D4CC7272F76F680D19F0",
              "parts": {
                "total": "1",
                "hash": "B959BE738CA1FA785F23710253383F7E181C2224"
              }
            },
            "signature": {
              "type": "tendermint/SignatureEd25519",
              "value": "btTtaVpjhwtV92lJLYdNfz4+S+BWG9Z0bgD9fpkYLQj1ka2yU+/FcDkrTs2XxzVMy8AA/2eo1i5W9HqyuuicAg=="
            }
          },
          null,
          null,
          {
            "validator_address": "17BB5CD01E8940FAFB948A04D5FA5A0645E5822E",
            "validator_index": "9",
            "height": "11536",
            "round": "1",
            "timestamp": "2018-07-31T01:05:05.544756511Z",
            "type": 2,
            "block_id": {
              "hash": "420A34AEADB7E6454424D4CC7272F76F680D19F0",
              "parts": {
                "total": "1",
                "hash": "B959BE738CA1FA785F23710253383F7E181C2224"
              }
            },
            "signature": {
              "type": "tendermint/SignatureEd25519",
              "value": "UR8TaTNho2CeLdj/z+C+CfNsgFn4KWWbpv5V34EhZKYAQ1svsYtT2IV90+i4JlcJZkJ3eEUOV8ZCnZknibPwCw=="
            }
          },
          {
            "validator_address": "1C683A87904BC38F05004FE83301A3A3E35447EB",
            "validator_index": "10",
            "height": "11536",
            "round": "1",
            "timestamp": "2018-07-31T01:05:05.538229247Z",
            "type": 2,
            "block_id": {
              "hash": "420A34AEADB7E6454424D4CC7272F76F680D19F0",
              "parts": {
                "total": "1",
                "hash": "B959BE738CA1FA785F23710253383F7E181C2224"
              }
            },
            "signature": {
              "type": "tendermint/SignatureEd25519",
              "value": "Pui8LTmrDd5F7J+uIf/V6r7ujeNyaaAQhBtAyDZx5O1hJRvNrq56V5Spe4mzPc507LjLlbezd4ee8PXk1e+tBg=="
            }
          },
          {
            "validator_address": "1E9CE94FD0BA5CFEB901F90BC658D64D85B134D2",
            "validator_index": "11",
            "height": "11536",
            "round": "1",
            "timestamp": "2018-07-31T01:05:05.637543687Z",
            "type": 2,
            "block_id": {
              "hash": "420A34AEADB7E6454424D4CC7272F76F680D19F0",
              "parts": {
                "total": "1",
                "hash": "B959BE738CA1FA785F23710253383F7E181C2224"
              }
            },
            "signature": {
              "type": "tendermint/SignatureEd25519",
              "value": "TsT5FRqnnWA9MNeajPgmzq6bA4mmygVQ6xdQ961gE6syEK1mM6dqvjsZRE3Jkcdtxz5at5vyqUuIsVpTDptxAw=="
            }
          },
          {
            "validator_address": "1ECD8C5FE1341D74CDC633A245DD56858DE2F9A2",
            "validator_index": "12",
            "height": "11536",
            "round": "1",
            "timestamp": "2018-07-31T01:05:05.66178072Z",
            "type": 2,
            "block_id": {
              "hash": "420A34AEADB7E6454424D4CC7272F76F680D19F0",
              "parts": {
                "total": "1",
                "hash": "B959BE738CA1FA785F23710253383F7E181C2224"
              }
            },
            "signature": {
              "type": "tendermint/SignatureEd25519",
              "value": "GgOsAnY2QqWO+H4Jiqxq492u0exP7c4MC1Bs00NpRfpl/p+sDdNmCE1mKDv1EvCQ+qht1dbLFFTL3GwRb7TJDA=="
            }
          },
          {
            "validator_address": "1F3A68CAAD483768AA2BF667DEF10F7104C89928",
            "validator_index": "13",
            "height": "11536",
            "round": "1",
            "timestamp": "2018-07-31T01:05:05.571309737Z",
            "type": 2,
            "block_id": {
              "hash": "420A34AEADB7E6454424D4CC7272F76F680D19F0",
              "parts": {
                "total": "1",
                "hash": "B959BE738CA1FA785F23710253383F7E181C2224"
              }
            },
            "signature": {
              "type": "tendermint/SignatureEd25519",
              "value": "NX3XWeX2VPdBY4Y4P9JmYqUKp59nP81lFhIwfQVtbEqXKTBP05MRV0JbzkIYYnE7dJFP9r2ofo8H0DTu9p3LCQ=="
            }
          },
          {
            "validator_address": "23897586D68E2AC1C78E0EF5BB5DF5C8EAB18F50",
            "validator_index": "14",
            "height": "11536",
            "round": "1",
            "timestamp": "2018-07-31T01:05:05.607475837Z",
            "type": 2,
            "block_id": {
              "hash": "420A34AEADB7E6454424D4CC7272F76F680D19F0",
              "parts": {
                "total": "1",
                "hash": "B959BE738CA1FA785F23710253383F7E181C2224"
              }
            },
            "signature": {
              "type": "tendermint/SignatureEd25519",
              "value": "S+Q6BPfC8bFHJ9MgsGVwmyj1gZWC2/a+BcYgYkLFISBheclGEfHfuxL1WVlxAWq9T+7DTesuiv07WS5SmnhRCg=="
            }
          },
          {
            "validator_address": "28770D17E8530825E7310A0659308654B7EC9682",
            "validator_index": "15",
            "height": "11536",
            "round": "1",
            "timestamp": "2018-07-31T01:05:05.534442688Z",
            "type": 2,
            "block_id": {
              "hash": "420A34AEADB7E6454424D4CC7272F76F680D19F0",
              "parts": {
                "total": "1",
                "hash": "B959BE738CA1FA785F23710253383F7E181C2224"
              }
            },
            "signature": {
              "type": "tendermint/SignatureEd25519",
              "value": "6VRJ/+pu8YDthVVXFv2q1bBzP9Yim8r5+iiZTnmPlJnIzeoBF0ZiZ+esHs5//+hNp6ZhGLg09/msj24rSF1EBQ=="
            }
          },
          {
            "validator_address": "2A92EC3C642140202298D0E245095E0ECFC25228",
            "validator_index": "16",
            "height": "11536",
            "round": "1",
            "timestamp": "2018-07-31T01:05:05.605424675Z",
            "type": 2,
            "block_id": {
              "hash": "420A34AEADB7E6454424D4CC7272F76F680D19F0",
              "parts": {
                "total": "1",
                "hash": "B959BE738CA1FA785F23710253383F7E181C2224"
              }
            },
            "signature": {
              "type": "tendermint/SignatureEd25519",
              "value": "PG9n2L+wVPu36ZyIcfZpi/Uovama5GK0Y7CcKkNagc/INGKto6LD7q/8napR0IZh1B/TuhyHOLcNwA8Jw9alCw=="
            }
          },
          {
            "validator_address": "33412C9A69C60CB0FAA24A5C5B3A906DE24B47C2",
            "validator_index": "17",
            "height": "11536",
            "round": "1",
            "timestamp": "2018-07-31T01:05:05.511097979Z",
            "type": 2,
            "block_id": {
              "hash": "420A34AEADB7E6454424D4CC7272F76F680D19F0",
              "parts": {
                "total": "1",
                "hash": "B959BE738CA1FA785F23710253383F7E181C2224"
              }
            },
            "signature": {
              "type": "tendermint/SignatureEd25519",
              "value": "GftwXonOwINnEOQy7Et8+WiFXWV8q7ai7X5kQOaR7vsmUuD5QpXddao4aN8ozNd+q1Kvhtt2MU1rv/LXVeE0Bg=="
            }
          },
          {
            "validator_address": "3383EF2A13B160C41947AC30434B274B2FAF0617",
            "validator_index": "18",
            "height": "11536",
            "round": "1",
            "timestamp": "2018-07-31T01:05:05.541415753Z",
            "type": 2,
            "block_id": {
              "hash": "420A34AEADB7E6454424D4CC7272F76F680D19F0",
              "parts": {
                "total": "1",
                "hash": "B959BE738CA1FA785F23710253383F7E181C2224"
              }
            },
            "signature": {
              "type": "tendermint/SignatureEd25519",
              "value": "IP1pGivImaecZkzaik4MUHRheQobMnsmetwYVZ5rL/q3pKYUu43SN+gkzpyBXymBxr/Tgo63zep2m16s04OVBg=="
            }
          },
          {
            "validator_address": "36E9B7FAEC964F97D84C028ED62493E373AD0B38",
            "validator_index": "19",
            "height": "11536",
            "round": "1",
            "timestamp": "2018-07-31T01:05:05.6492036Z",
            "type": 2,
            "block_id": {
              "hash": "420A34AEADB7E6454424D4CC7272F76F680D19F0",
              "parts": {
                "total": "1",
                "hash": "B959BE738CA1FA785F23710253383F7E181C2224"
              }
            },
            "signature": {
              "type": "tendermint/SignatureEd25519",
              "value": "X2FbwEamXg/4as3NNdVGuGOcBxdVzM9q0qBVQmg5zSD64RTJwrTjG3DWde2v32ZDSP+Hl6WPpIuyWUnw+s1bCg=="
            }
          },
          {
            "validator_address": "38A8D85D36BEA2E5FCF8A1E778F53628E450EF13",
            "validator_index": "20",
            "height": "11536",
            "round": "1",
            "timestamp": "2018-07-31T01:05:05.755698817Z",
            "type": 2,
            "block_id": {
              "hash": "420A34AEADB7E6454424D4CC7272F76F680D19F0",
              "parts": {
                "total": "1",
                "hash": "B959BE738CA1FA785F23710253383F7E181C2224"
              }
            },
            "signature": {
              "type": "tendermint/SignatureEd25519",
              "value": "E5f6aQrATZVAN5F7BkaCbkwnhNGm6yvzNhEIdyLLyu+/1J1i5QRKfdZ3cQc/joNmsXekirnhXdbrlNURlKQODw=="
            }
          },
          {
            "validator_address": "39DFDA0C5DB84B269642188B23253508537798E6",
            "validator_index": "21",
            "height": "11536",
            "round": "1",
            "timestamp": "2018-07-31T01:05:05.643841407Z",
            "type": 2,
            "block_id": {
              "hash": "420A34AEADB7E6454424D4CC7272F76F680D19F0",
              "parts": {
                "total": "1",
                "hash": "B959BE738CA1FA785F23710253383F7E181C2224"
              }
            },
            "signature": {
              "type": "tendermint/SignatureEd25519",
              "value": "Z4rML+DcYWPpja+jXA252G8NBKkppiM3UBeNB6+BRggRPHew/SDihHQ1Az2MhH1nPWvAQREYzhPlpMg5C7KsBg=="
            }
          },
          {
            "validator_address": "3AC99B708404452366E0953A4BE849226DC86CBC",
            "validator_index": "22",
            "height": "11536",
            "round": "1",
            "timestamp": "2018-07-31T01:05:05.606497832Z",
            "type": 2,
            "block_id": {
              "hash": "420A34AEADB7E6454424D4CC7272F76F680D19F0",
              "parts": {
                "total": "1",
                "hash": "B959BE738CA1FA785F23710253383F7E181C2224"
              }
            },
            "signature": {
              "type": "tendermint/SignatureEd25519",
              "value": "kRZj9HJYBJ6NSV3sB3/qFoQsWIjwnmfQvLsSO9dmk3WHUOvlhSfjUkV6fON7s/+WurDknFmlooT4Gu4ID1hxDA=="
            }
          },
          {
            "validator_address": "3DCB822A10ED319EC7C4393D8E3FD4A41B15AAF2",
            "validator_index": "23",
            "height": "11536",
            "round": "1",
            "timestamp": "2018-07-31T01:05:05.834227813Z",
            "type": 2,
            "block_id": {
              "hash": "420A34AEADB7E6454424D4CC7272F76F680D19F0",
              "parts": {
                "total": "1",
                "hash": "B959BE738CA1FA785F23710253383F7E181C2224"
              }
            },
            "signature": {
              "type": "tendermint/SignatureEd25519",
              "value": "c3YENuOacXnHgVR7MBZXB1evO5zIzehvRhh2A6AS9nVDkjBDnqdSSMCrw07Jub88wDv08MDcXZ2TFrZIqnuHBA=="
            }
          },
          {
            "validator_address": "3E899BA36A93C7370347BD5FE85909F2ECD93F8C",
            "validator_index": "24",
            "height": "11536",
            "round": "1",
            "timestamp": "2018-07-31T01:05:05.564132892Z",
            "type": 2,
            "block_id": {
              "hash": "420A34AEADB7E6454424D4CC7272F76F680D19F0",
              "parts": {
                "total": "1",
                "hash": "B959BE738CA1FA785F23710253383F7E181C2224"
              }
            },
            "signature": {
              "type": "tendermint/SignatureEd25519",
              "value": "eD1nviDfTUE3f/CSiuz5tFiO8VZyNO+bujJy4ZB7Et0HgTbiO38TNG5ylYOGN1BKDqVrxyc4J/K3phUXaquWDQ=="
            }
          },
          {
            "validator_address": "41CAB2E29E7D0F2282E3275938F188FF9386B84C",
            "validator_index": "25",
            "height": "11536",
            "round": "1",
            "timestamp": "2018-07-31T01:05:05.605194935Z",
            "type": 2,
            "block_id": {
              "hash": "420A34AEADB7E6454424D4CC7272F76F680D19F0",
              "parts": {
                "total": "1",
                "hash": "B959BE738CA1FA785F23710253383F7E181C2224"
              }
            },
            "signature": {
              "type": "tendermint/SignatureEd25519",
              "value": "7U5Lha0DKdK7ritHeT+fIDl15xkhLr0uaBjj3+xcl4A/66fwnTfZ1CG/ow/phg4S2GePs1IgEZK+/B7zyI5TCg=="
            }
          },
          {
            "validator_address": "462B656869DB02A8FD1077E255F8CC7401DC37C6",
            "validator_index": "26",
            "height": "11536",
            "round": "1",
            "timestamp": "2018-07-31T01:05:05.540378425Z",
            "type": 2,
            "block_id": {
              "hash": "420A34AEADB7E6454424D4CC7272F76F680D19F0",
              "parts": {
                "total": "1",
                "hash": "B959BE738CA1FA785F23710253383F7E181C2224"
              }
            },
            "signature": {
              "type": "tendermint/SignatureEd25519",
              "value": "F1p1jONlFxFQ2AhNATxWtKtYB5ykRlWX4HOJ94PzETcLkYGnktdRrNoOE6XqelvTEJGgtUtAh5darH+D1T2DAA=="
            }
          },
          {
            "validator_address": "48E5118163E5442068A1B5A42D2EEDBB75724935",
            "validator_index": "27",
            "height": "11536",
            "round": "1",
            "timestamp": "2018-07-31T01:05:05.760967175Z",
            "type": 2,
            "block_id": {
              "hash": "420A34AEADB7E6454424D4CC7272F76F680D19F0",
              "parts": {
                "total": "1",
                "hash": "B959BE738CA1FA785F23710253383F7E181C2224"
              }
            },
            "signature": {
              "type": "tendermint/SignatureEd25519",
              "value": "LqjcMazAQj4HLCRYDn+pj5yvDP4OfSP9JR7NFcSiSC1U0Vc41tLJtruZoxXyJ0aXgaDKGTpSUdSSiJOBBLXoBg=="
            }
          },
          {
            "validator_address": "4944F8BBBB5303E17BC0607DF332320EDBC750EA",
            "validator_index": "28",
            "height": "11536",
            "round": "1",
            "timestamp": "2018-07-31T01:05:05.582757195Z",
            "type": 2,
            "block_id": {
              "hash": "420A34AEADB7E6454424D4CC7272F76F680D19F0",
              "parts": {
                "total": "1",
                "hash": "B959BE738CA1FA785F23710253383F7E181C2224"
              }
            },
            "signature": {
              "type": "tendermint/SignatureEd25519",
              "value": "fReZQmFKch1wQvUnT3CqXIv9R2rkNsm4iIitQ9w2aa9Atey7c/m9OQWF2roWF/PaV8VW7OKnPS0ytc/yJljKAA=="
            }
          },
          {
            "validator_address": "49841599DE675157CBE1E7D6B35BF8FFC23BD5CB",
            "validator_index": "29",
            "height": "11536",
            "round": "1",
            "timestamp": "2018-07-31T01:05:05.515086996Z",
            "type": 2,
            "block_id": {
              "hash": "420A34AEADB7E6454424D4CC7272F76F680D19F0",
              "parts": {
                "total": "1",
                "hash": "B959BE738CA1FA785F23710253383F7E181C2224"
              }
            },
            "signature": {
              "type": "tendermint/SignatureEd25519",
              "value": "f2MfYbY4nVU3CSBYTtUsKbOIbxrJDcIsacSzjQHe/SS+QYWoIVX/HxrMMnyRUVW6iQn0ZX1dt95pP7FEeBeBBQ=="
            }
          },
          {
            "validator_address": "5104F488EA6B1E2C33CBDA3C18389C88104DBC72",
            "validator_index": "30",
            "height": "11536",
            "round": "1",
            "timestamp": "2018-07-31T01:05:05.590281483Z",
            "type": 2,
            "block_id": {
              "hash": "420A34AEADB7E6454424D4CC7272F76F680D19F0",
              "parts": {
                "total": "1",
                "hash": "B959BE738CA1FA785F23710253383F7E181C2224"
              }
            },
            "signature": {
              "type": "tendermint/SignatureEd25519",
              "value": "QbMLteKItaTkIbFVRmfkMlUjb8jSakFQPqVrPA6HYq/LUIW6swPjpIFewpTnp3aURL2VdmIzwocLzZNcQpFVBg=="
            }
          },
          {
            "validator_address": "51386C2CF9556821D114D7E4945806802BADB28D",
            "validator_index": "31",
            "height": "11536",
            "round": "1",
            "timestamp": "2018-07-31T01:05:05.606464847Z",
            "type": 2,
            "block_id": {
              "hash": "420A34AEADB7E6454424D4CC7272F76F680D19F0",
              "parts": {
                "total": "1",
                "hash": "B959BE738CA1FA785F23710253383F7E181C2224"
              }
            },
            "signature": {
              "type": "tendermint/SignatureEd25519",
              "value": "gE3AX/BoRXJYbGJzIUs0qm6kRigRpUCyZRekgJJG43u+TnD9pqnGMtdl0UMmbQ7wjVz17sDZkCzpXX53i7rJDw=="
            }
          },
          {
            "validator_address": "543564ECA3AFEFADC73EE8591AAC3A96F079BC8A",
            "validator_index": "32",
            "height": "11536",
            "round": "1",
            "timestamp": "2018-07-31T01:05:05.536665141Z",
            "type": 2,
            "block_id": {
              "hash": "420A34AEADB7E6454424D4CC7272F76F680D19F0",
              "parts": {
                "total": "1",
                "hash": "B959BE738CA1FA785F23710253383F7E181C2224"
              }
            },
            "signature": {
              "type": "tendermint/SignatureEd25519",
              "value": "oRQc26ZXn08tF7yqA49iIsx3LQvOQPHHPLrCA/ZKBS5QehU0ZJ5vt/8EIcebwtVhCFHeuKfiVfrnJV3XLdW6Cw=="
            }
          },
          {
            "validator_address": "55D67B1A6DC13E96F8754A5A42EABC20F7F86664",
            "validator_index": "33",
            "height": "11536",
            "round": "1",
            "timestamp": "2018-07-31T01:05:05.516857136Z",
            "type": 2,
            "block_id": {
              "hash": "420A34AEADB7E6454424D4CC7272F76F680D19F0",
              "parts": {
                "total": "1",
                "hash": "B959BE738CA1FA785F23710253383F7E181C2224"
              }
            },
            "signature": {
              "type": "tendermint/SignatureEd25519",
              "value": "izAL961JKXjoS2fmOgjMFRAru3XriM567llvjanWMJabF4qDO7c6k1bYoI9x35EvaA2BaNdjkpcs2VIhO4VjDA=="
            }
          },
          {
            "validator_address": "570B6A755ED339EAC56BB3390A48069F6AC9449B",
            "validator_index": "34",
            "height": "11536",
            "round": "1",
            "timestamp": "2018-07-31T01:05:07.416152224Z",
            "type": 2,
            "block_id": {
              "hash": "420A34AEADB7E6454424D4CC7272F76F680D19F0",
              "parts": {
                "total": "1",
                "hash": "B959BE738CA1FA785F23710253383F7E181C2224"
              }
            },
            "signature": {
              "type": "tendermint/SignatureEd25519",
              "value": "kZhoCOwcHGRFQnzkTPTsgFQj0OS7fZXedesfpXFFZOawb/k5qU5+ooeW+/b+9oMHkCD4RMOaIcn39hMY66wtAg=="
            }
          },
          {
            "validator_address": "5BDF8EA41B1835FBAD865B181A2A4B23F511B5E4",
            "validator_index": "35",
            "height": "11536",
            "round": "1",
            "timestamp": "2018-07-31T01:05:05.509053587Z",
            "type": 2,
            "block_id": {
              "hash": "420A34AEADB7E6454424D4CC7272F76F680D19F0",
              "parts": {
                "total": "1",
                "hash": "B959BE738CA1FA785F23710253383F7E181C2224"
              }
            },
            "signature": {
              "type": "tendermint/SignatureEd25519",
              "value": "LGZ5oZVOZ8MGmsmYhmIzkglKxty9Z9PgqNaw2RAUcGHvRoSfEjPftZFYB4ZMzNnyA+4r2FBnTolovJIHZ0ZvAw=="
            }
          },
          {
            "validator_address": "60229E2E273297FE00219E46DFFB8F76844CDEF9",
            "validator_index": "36",
            "height": "11536",
            "round": "1",
            "timestamp": "2018-07-31T01:05:04.692899804Z",
            "type": 2,
            "block_id": {
              "hash": "420A34AEADB7E6454424D4CC7272F76F680D19F0",
              "parts": {
                "total": "1",
                "hash": "B959BE738CA1FA785F23710253383F7E181C2224"
              }
            },
            "signature": {
              "type": "tendermint/SignatureEd25519",
              "value": "RxWiBUzj98bHqwrpg6wzK0VmcwaRyGEYFFzLkrSG0aXFKE3SZaXysJNSxCGwigie/zLFTzm+2VpikgxavZCkBg=="
            }
          },
          {
            "validator_address": "62410D6D1CD98278136E4D0738AA0EA273CDFC54",
            "validator_index": "37",
            "height": "11536",
            "round": "1",
            "timestamp": "2018-07-31T01:05:05.527670019Z",
            "type": 2,
            "block_id": {
              "hash": "420A34AEADB7E6454424D4CC7272F76F680D19F0",
              "parts": {
                "total": "1",
                "hash": "B959BE738CA1FA785F23710253383F7E181C2224"
              }
            },
            "signature": {
              "type": "tendermint/SignatureEd25519",
              "value": "/4nM7AH1VmrpCjMW0n4B8QTAvp0zF31dYkHOasadOXg5npxidn5XBS3zXIxTo3QUs6eLvZZgmZZjpbLMiyqjBA=="
            }
          },
          {
            "validator_address": "632F5C139A5A9DFBFE5111DEE29FCFB6157207DC",
            "validator_index": "38",
            "height": "11536",
            "round": "1",
            "timestamp": "2018-07-31T01:05:05.567669076Z",
            "type": 2,
            "block_id": {
              "hash": "420A34AEADB7E6454424D4CC7272F76F680D19F0",
              "parts": {
                "total": "1",
                "hash": "B959BE738CA1FA785F23710253383F7E181C2224"
              }
            },
            "signature": {
              "type": "tendermint/SignatureEd25519",
              "value": "9CqCaq+/nx5IMDIp9pKkpMQrEoG11r+UoAt9X/j7MgKPZDkTyH+dgE2Dfbr0e+w8CDLJQT7c0CPdpMRsgxH/Cg=="
            }
          },
          {
            "validator_address": "64F57F8E796A9B7B590C1EFA4123988C86631D39",
            "validator_index": "39",
            "height": "11536",
            "round": "1",
            "timestamp": "2018-07-31T01:05:05.559138514Z",
            "type": 2,
            "block_id": {
              "hash": "420A34AEADB7E6454424D4CC7272F76F680D19F0",
              "parts": {
                "total": "1",
                "hash": "B959BE738CA1FA785F23710253383F7E181C2224"
              }
            },
            "signature": {
              "type": "tendermint/SignatureEd25519",
              "value": "136qVm3UqAYKo2bAB++K2jwUShxsfglkoZCEov40g1aC8tO3U4NQj4l55p6uxKw1yS0dLpCXJpwgOdPH3XB1CQ=="
            }
          },
          {
            "validator_address": "69D99B2C66043ACBEAA8447525C356AFC6408E0C",
            "validator_index": "40",
            "height": "11536",
            "round": "1",
            "timestamp": "2018-07-31T01:05:05.74598211Z",
            "type": 2,
            "block_id": {
              "hash": "420A34AEADB7E6454424D4CC7272F76F680D19F0",
              "parts": {
                "total": "1",
                "hash": "B959BE738CA1FA785F23710253383F7E181C2224"
              }
            },
            "signature": {
              "type": "tendermint/SignatureEd25519",
              "value": "AQol+OlzjBHuTBnDrkmYw2/FwPVbOy0TMQ/9r5fha26SKf9B3jJi96ndV/mURQBYKqjcmIFRooYtp1ElqbbWAg=="
            }
          },
          {
            "validator_address": "69EDADFA4A803E9DBF548C900D4A465E7D154262",
            "validator_index": "41",
            "height": "11536",
            "round": "1",
            "timestamp": "2018-07-31T01:05:05.573531331Z",
            "type": 2,
            "block_id": {
              "hash": "420A34AEADB7E6454424D4CC7272F76F680D19F0",
              "parts": {
                "total": "1",
                "hash": "B959BE738CA1FA785F23710253383F7E181C2224"
              }
            },
            "signature": {
              "type": "tendermint/SignatureEd25519",
              "value": "pi6DqU2SQkz4PazZt09JJrZRtf/sUpzyjVJvmLqswa6Uc0sSefiDxhlGoioguJ/nzWcfEdR0/RrxA8WOIs/0AA=="
            }
          },
          {
            "validator_address": "6D3AD380E398D8592B03AA124BAFED5F125DF863",
            "validator_index": "42",
            "height": "11536",
            "round": "1",
            "timestamp": "2018-07-31T01:04:03.891794Z",
            "type": 2,
            "block_id": {
              "hash": "420A34AEADB7E6454424D4CC7272F76F680D19F0",
              "parts": {
                "total": "1",
                "hash": "B959BE738CA1FA785F23710253383F7E181C2224"
              }
            },
            "signature": {
              "type": "tendermint/SignatureEd25519",
              "value": "K1QMiFgyqdHQUxkp6+PBtuVZ6eUaUdwLeIqcghxGJJEFGlJAtwC4zs3o7MWQ/ewV1fIg1F7YFJVJZ8V/uRVwBA=="
            }
          },
          {
            "validator_address": "6F6C93B8BF3495063FEC9B5C771158607F4AE9D6",
            "validator_index": "43",
            "height": "11536",
            "round": "1",
            "timestamp": "2018-07-31T01:05:05.668753403Z",
            "type": 2,
            "block_id": {
              "hash": "420A34AEADB7E6454424D4CC7272F76F680D19F0",
              "parts": {
                "total": "1",
                "hash": "B959BE738CA1FA785F23710253383F7E181C2224"
              }
            },
            "signature": {
              "type": "tendermint/SignatureEd25519",
              "value": "Hn50wzpLYbhevuqNGZcsKiBrsBlm+m2PNxGC9qfP4Mhk1W0nlFAHOijvcbKRzLI3eFS7aBWsjJhhUyMH5aLKCg=="
            }
          },
          {
            "validator_address": "732CEEF54C374DDC6ADECBFD707AEFD07FEDC143",
            "validator_index": "44",
            "height": "11536",
            "round": "1",
            "timestamp": "2018-07-31T01:05:05.630224193Z",
            "type": 2,
            "block_id": {
              "hash": "420A34AEADB7E6454424D4CC7272F76F680D19F0",
              "parts": {
                "total": "1",
                "hash": "B959BE738CA1FA785F23710253383F7E181C2224"
              }
            },
            "signature": {
              "type": "tendermint/SignatureEd25519",
              "value": "fyDQi18Jb1TwZoE6c0evFsw9vv+A3v+3yuTOvf8Lpa6e6IeFkvTLGNUWBB7zYjKg9M4XsERuqx3ucrp1pltCAg=="
            }
          },
          {
            "validator_address": "7393D691BFAE9661918C09932D4D9060AB40939B",
            "validator_index": "45",
            "height": "11536",
            "round": "1",
            "timestamp": "2018-07-31T01:05:05.772723121Z",
            "type": 2,
            "block_id": {
              "hash": "420A34AEADB7E6454424D4CC7272F76F680D19F0",
              "parts": {
                "total": "1",
                "hash": "B959BE738CA1FA785F23710253383F7E181C2224"
              }
            },
            "signature": {
              "type": "tendermint/SignatureEd25519",
              "value": "Zm83bqgvt7eGRgWSqCD1g6wnJF5+ebj7dJeXbiCh8MeBi9RK91DLpNe53oR1jglgmQWDvyrrEoAc8GIaEdHjBA=="
            }
          },
          {
            "validator_address": "751E43437224E8BB6D1569B3E2B2616B6E7F4397",
            "validator_index": "46",
            "height": "11536",
            "round": "1",
            "timestamp": "2018-07-31T01:05:05.661603914Z",
            "type": 2,
            "block_id": {
              "hash": "420A34AEADB7E6454424D4CC7272F76F680D19F0",
              "parts": {
                "total": "1",
                "hash": "B959BE738CA1FA785F23710253383F7E181C2224"
              }
            },
            "signature": {
              "type": "tendermint/SignatureEd25519",
              "value": "jH4emr3oGTzOF/LikfnAWuZ9y366zpquMMFK0N9L7eVvF4E0nZeq4GY9oLW2lePIznE2aDA0UGsUcsf/kBDYDQ=="
            }
          },
          {
            "validator_address": "7EB7593F519F1180C7E872D0494611464EDF03AE",
            "validator_index": "47",
            "height": "11536",
            "round": "1",
            "timestamp": "2018-07-31T01:05:05.618738643Z",
            "type": 2,
            "block_id": {
              "hash": "420A34AEADB7E6454424D4CC7272F76F680D19F0",
              "parts": {
                "total": "1",
                "hash": "B959BE738CA1FA785F23710253383F7E181C2224"
              }
            },
            "signature": {
              "type": "tendermint/SignatureEd25519",
              "value": "hM1C+fM9DA8IPYTf8duuEjtVCFxWLczf3m5Wa42Adkn/JSDT/RhqqrLlm/2yKmyTn5nmj/Ln3Ed9NUsxet5DCA=="
            }
          },
          {
            "validator_address": "807CF675BA8479FC4FEC1047215DF07970040F1F",
            "validator_index": "48",
            "height": "11536",
            "round": "1",
            "timestamp": "2018-07-31T01:05:05.819287812Z",
            "type": 2,
            "block_id": {
              "hash": "420A34AEADB7E6454424D4CC7272F76F680D19F0",
              "parts": {
                "total": "1",
                "hash": "B959BE738CA1FA785F23710253383F7E181C2224"
              }
            },
            "signature": {
              "type": "tendermint/SignatureEd25519",
              "value": "+Tu1GslYCxQ3biuun82xnAF0GIpGqC/O0Tk0VqutB5BYKe+yaHlDWv34nb5WckEejzXdIofKaGGzZpyMQC1oCw=="
            }
          },
          {
            "validator_address": "8126192EA66E8ADE6B36924534721366B987A4C1",
            "validator_index": "49",
            "height": "11536",
            "round": "1",
            "timestamp": "2018-07-31T01:05:05.638947349Z",
            "type": 2,
            "block_id": {
              "hash": "420A34AEADB7E6454424D4CC7272F76F680D19F0",
              "parts": {
                "total": "1",
                "hash": "B959BE738CA1FA785F23710253383F7E181C2224"
              }
            },
            "signature": {
              "type": "tendermint/SignatureEd25519",
              "value": "uGkj2Jw/EUXAneuqR77Jfg1cvAvjNSeWaeFtGc1COZNJ2PGQBIPrIUly7kJBCt/oaXwHFoQUx/W9uleZSk4RBw=="
            }
          },
          {
            "validator_address": "83AB321E012C57746689FED3A6064DF331F81007",
            "validator_index": "50",
            "height": "11536",
            "round": "1",
            "timestamp": "2018-07-31T01:05:05.567284672Z",
            "type": 2,
            "block_id": {
              "hash": "420A34AEADB7E6454424D4CC7272F76F680D19F0",
              "parts": {
                "total": "1",
                "hash": "B959BE738CA1FA785F23710253383F7E181C2224"
              }
            },
            "signature": {
              "type": "tendermint/SignatureEd25519",
              "value": "qYX4ie5klpjl+Z06Ecd4kM3qMRnmgTZJbxvCAJUEApSMf/TxxPo+2X+GZeDvHTgIGP7ZZ8mlByZPyu+J4ZEPDg=="
            }
          },
          {
            "validator_address": "83BB1B88D3DBB20AD845FECA07749EBD87D3754D",
            "validator_index": "51",
            "height": "11536",
            "round": "1",
            "timestamp": "2018-07-31T01:05:05.83835203Z",
            "type": 2,
            "block_id": {
              "hash": "420A34AEADB7E6454424D4CC7272F76F680D19F0",
              "parts": {
                "total": "1",
                "hash": "B959BE738CA1FA785F23710253383F7E181C2224"
              }
            },
            "signature": {
              "type": "tendermint/SignatureEd25519",
              "value": "EKxcBwqwm6ZqxVqV3f12sMV4TwM4RmrGsTooxlQ2yMu7mnSxpybmd27juqQvbxtnwiZIWQF0x46YXbYOrihyBg=="
            }
          },
          {
            "validator_address": "8F06FE1FD042683C426137FBC4BBAA4288924217",
            "validator_index": "52",
            "height": "11536",
            "round": "1",
            "timestamp": "2018-07-31T01:05:05.609052877Z",
            "type": 2,
            "block_id": {
              "hash": "420A34AEADB7E6454424D4CC7272F76F680D19F0",
              "parts": {
                "total": "1",
                "hash": "B959BE738CA1FA785F23710253383F7E181C2224"
              }
            },
            "signature": {
              "type": "tendermint/SignatureEd25519",
              "value": "JNn4MZve22ALnbafEGu4eRL+ML+2pxcbcQjgqrKazHUEpKs1juEUvXQH1L/daEWMhUC0Z4UL1U/4Y/8UGMrTAA=="
            }
          },
          {
            "validator_address": "8F45617BF45B10A3F8283DEBDB35E38C7CA43237",
            "validator_index": "53",
            "height": "11536",
            "round": "1",
            "timestamp": "2018-07-31T01:05:05.633251005Z",
            "type": 2,
            "block_id": {
              "hash": "420A34AEADB7E6454424D4CC7272F76F680D19F0",
              "parts": {
                "total": "1",
                "hash": "B959BE738CA1FA785F23710253383F7E181C2224"
              }
            },
            "signature": {
              "type": "tendermint/SignatureEd25519",
              "value": "+dH+MxSEziHf34NHD2G63hQIy8SON/g4TO4mlOInUj6SgSWKsHJP6Ca0vEWHt46ghzO98Nh///aQk/292JZyCw=="
            }
          },
          {
            "validator_address": "95980831E186F2540F6E9FB6C8E74DE2401405AC",
            "validator_index": "54",
            "height": "11536",
            "round": "1",
            "timestamp": "2018-07-31T01:05:05.69990369Z",
            "type": 2,
            "block_id": {
              "hash": "420A34AEADB7E6454424D4CC7272F76F680D19F0",
              "parts": {
                "total": "1",
                "hash": "B959BE738CA1FA785F23710253383F7E181C2224"
              }
            },
            "signature": {
              "type": "tendermint/SignatureEd25519",
              "value": "9T4+Z1RJv8idmVrB1aKROCpcCEOU+xVgkgYiJVDS5tJWTUBRtOigMOO6/IYwkK8M/jxknncX02SwxHk8Yo/zAw=="
            }
          },
          {
            "validator_address": "95FAFBC1E0579C83D290A063020CE87C5334BD9B",
            "validator_index": "55",
            "height": "11536",
            "round": "1",
            "timestamp": "2018-07-31T01:05:05.609934627Z",
            "type": 2,
            "block_id": {
              "hash": "420A34AEADB7E6454424D4CC7272F76F680D19F0",
              "parts": {
                "total": "1",
                "hash": "B959BE738CA1FA785F23710253383F7E181C2224"
              }
            },
            "signature": {
              "type": "tendermint/SignatureEd25519",
              "value": "cgBMAl9zHnCup3/RwWxIavCpAM5wGb1p7EaEWm5xILQh+tUvLyTcc4IrySMQ7rQE5o3u7hQ+PMv53KEbohlxAg=="
            }
          },
          {
            "validator_address": "96BDE45EC52606CF5CB59853097871AD60680549",
            "validator_index": "56",
            "height": "11536",
            "round": "1",
            "timestamp": "2018-07-31T01:05:05.563558152Z",
            "type": 2,
            "block_id": {
              "hash": "420A34AEADB7E6454424D4CC7272F76F680D19F0",
              "parts": {
                "total": "1",
                "hash": "B959BE738CA1FA785F23710253383F7E181C2224"
              }
            },
            "signature": {
              "type": "tendermint/SignatureEd25519",
              "value": "FxnZPclnlEXhvkFPgmLJWsRN60kitituoD6i5QYBjLf8lv5hai437cQIjYKUFl0ZjaBO78PUei5plloRigV3Cw=="
            }
          },
          {
            "validator_address": "970CD321881185BF83DB2923C321B0E75FDBB2B8",
            "validator_index": "57",
            "height": "11536",
            "round": "1",
            "timestamp": "2018-07-31T01:05:05.629808137Z",
            "type": 2,
            "block_id": {
              "hash": "420A34AEADB7E6454424D4CC7272F76F680D19F0",
              "parts": {
                "total": "1",
                "hash": "B959BE738CA1FA785F23710253383F7E181C2224"
              }
            },
            "signature": {
              "type": "tendermint/SignatureEd25519",
              "value": "oG9vsVpL1W9tRhsquhIm9JMLsR0TDeVP/XB+MVhASEmAoDjNHfHTt+juF4svhDIiPOfAKv8hWIgxsKmZZ3cVDg=="
            }
          },
          {
            "validator_address": "9C29C9B76D27586E4D9AD2AED0E943162645E55C",
            "validator_index": "58",
            "height": "11536",
            "round": "1",
            "timestamp": "2018-07-31T01:05:05.508143098Z",
            "type": 2,
            "block_id": {
              "hash": "420A34AEADB7E6454424D4CC7272F76F680D19F0",
              "parts": {
                "total": "1",
                "hash": "B959BE738CA1FA785F23710253383F7E181C2224"
              }
            },
            "signature": {
              "type": "tendermint/SignatureEd25519",
              "value": "Nw4yg8Z/1Y1y+3KkxoHbLtNAzer5RGqvzJ4I/r6iO7Nrg4MEGM9jb4J+QibHD0yDuQeKSYyedfcaR1d59hHuBw=="
            }
          },
          {
            "validator_address": "9D93AD02FE1BD7E76B9E58D7EB461088EAD011E5",
            "validator_index": "59",
            "height": "11536",
            "round": "1",
            "timestamp": "2018-07-31T01:05:05.541033483Z",
            "type": 2,
            "block_id": {
              "hash": "420A34AEADB7E6454424D4CC7272F76F680D19F0",
              "parts": {
                "total": "1",
                "hash": "B959BE738CA1FA785F23710253383F7E181C2224"
              }
            },
            "signature": {
              "type": "tendermint/SignatureEd25519",
              "value": "PgRPkISHebfP+VA3eLivPxiXlFv4MBUIHKJXtfJuIhZQNudQU9CGQv1ZPVdSQHfQeQB/i5Fo/5Hb39TjpTWyDA=="
            }
          },
          {
            "validator_address": "A0A6466F4ABEA09C3B55E3709AFDE217A103209F",
            "validator_index": "60",
            "height": "11536",
            "round": "1",
            "timestamp": "2018-07-31T01:05:05.529674346Z",
            "type": 2,
            "block_id": {
              "hash": "420A34AEADB7E6454424D4CC7272F76F680D19F0",
              "parts": {
                "total": "1",
                "hash": "B959BE738CA1FA785F23710253383F7E181C2224"
              }
            },
            "signature": {
              "type": "tendermint/SignatureEd25519",
              "value": "cjbRxgf9W1n1p5erQkToc6GfD0f7g3AvanFIFDh2REm8a6dWOU3mGIbcSx6SsLE1oAN6jjJeXTa5o7fJGeoPDw=="
            }
          },
          {
            "validator_address": "A5868971300F155020634D7BB49C7634F7AACCD3",
            "validator_index": "61",
            "height": "11536",
            "round": "1",
            "timestamp": "2018-07-31T01:05:05.564933906Z",
            "type": 2,
            "block_id": {
              "hash": "420A34AEADB7E6454424D4CC7272F76F680D19F0",
              "parts": {
                "total": "1",
                "hash": "B959BE738CA1FA785F23710253383F7E181C2224"
              }
            },
            "signature": {
              "type": "tendermint/SignatureEd25519",
              "value": "1l0NpJuI4/clvpmobX1xmMkem4hgO+U9YrPJRIm308B8brCKQf4mkXfYA+Dp56Unct9zKKhz7Y0dftHJof/ODw=="
            }
          },
          {
            "validator_address": "A6B3A5B5D982CFD7B5FDFA15CF5A720E7AE25E7F",
            "validator_index": "62",
            "height": "11536",
            "round": "1",
            "timestamp": "2018-07-31T01:05:05.621043912Z",
            "type": 2,
            "block_id": {
              "hash": "420A34AEADB7E6454424D4CC7272F76F680D19F0",
              "parts": {
                "total": "1",
                "hash": "B959BE738CA1FA785F23710253383F7E181C2224"
              }
            },
            "signature": {
              "type": "tendermint/SignatureEd25519",
              "value": "MTa+vLRkWzYhuPzBxesg4pKeJ7yYG2FGecuhPiVgwiLaaChPiCqaz6PGjQt6SSqrdyVPDj7nUl0j9y2MxT1aAA=="
            }
          },
          {
            "validator_address": "AC96444A9083890B7C7B430DB17BF1D3EA5EED04",
            "validator_index": "63",
            "height": "11536",
            "round": "1",
            "timestamp": "2018-07-31T01:05:05.602588722Z",
            "type": 2,
            "block_id": {
              "hash": "420A34AEADB7E6454424D4CC7272F76F680D19F0",
              "parts": {
                "total": "1",
                "hash": "B959BE738CA1FA785F23710253383F7E181C2224"
              }
            },
            "signature": {
              "type": "tendermint/SignatureEd25519",
              "value": "xMmYcvFL0U3F3jWnyErzGo76kspVcutZaKm09Sop1TRrkrL0EdjxmE7gMCJ7xC72kdqYIR28ph5LCUvyG/lsBw=="
            }
          },
          {
            "validator_address": "ACB97FDA2D940AF0709B73537C458EB988AD2893",
            "validator_index": "64",
            "height": "11536",
            "round": "1",
            "timestamp": "2018-07-31T01:05:05.498052488Z",
            "type": 2,
            "block_id": {
              "hash": "420A34AEADB7E6454424D4CC7272F76F680D19F0",
              "parts": {
                "total": "1",
                "hash": "B959BE738CA1FA785F23710253383F7E181C2224"
              }
            },
            "signature": {
              "type": "tendermint/SignatureEd25519",
              "value": "pcFl1o5L6oy8S9seuAPhJgTOqRELNjO1NwxN9ZDWKtIIJN8uIR1QqXbhRTm9qlx8bDb7xcUhQT/Zx4DziCEbAw=="
            }
          },
          {
            "validator_address": "B197425B3210375F211661DE02EF2AE36580EB0F",
            "validator_index": "65",
            "height": "11536",
            "round": "1",
            "timestamp": "2018-07-31T01:05:05.601343483Z",
            "type": 2,
            "block_id": {
              "hash": "420A34AEADB7E6454424D4CC7272F76F680D19F0",
              "parts": {
                "total": "1",
                "hash": "B959BE738CA1FA785F23710253383F7E181C2224"
              }
            },
            "signature": {
              "type": "tendermint/SignatureEd25519",
              "value": "ZpFKYuESOW57xk5B9qJrlTMUZTlw3XInP7/hu79JyT07F13y3kPFl47mCxUVmNv1nafwAG0B7vRVPm6TcTv5CQ=="
            }
          },
          {
            "validator_address": "B45E54D2D1CB5A4CCD1D49016608C18E7C56B270",
            "validator_index": "66",
            "height": "11536",
            "round": "1",
            "timestamp": "2018-07-31T01:05:05.722308945Z",
            "type": 2,
            "block_id": {
              "hash": "420A34AEADB7E6454424D4CC7272F76F680D19F0",
              "parts": {
                "total": "1",
                "hash": "B959BE738CA1FA785F23710253383F7E181C2224"
              }
            },
            "signature": {
              "type": "tendermint/SignatureEd25519",
              "value": "Tn5rEPJyIYpJK1BjILNPbZwPLerbGsnjjM/krrBWoL3mV4aS4H3p+jM5UKm4K1L0t1QGzz7jfeGAMgGwdDwiAg=="
            }
          },
          {
            "validator_address": "B59A34C0BE4EC73AF6A67D274F1695C9259C237C",
            "validator_index": "67",
            "height": "11536",
            "round": "1",
            "timestamp": "2018-07-31T01:05:05.729467659Z",
            "type": 2,
            "block_id": {
              "hash": "420A34AEADB7E6454424D4CC7272F76F680D19F0",
              "parts": {
                "total": "1",
                "hash": "B959BE738CA1FA785F23710253383F7E181C2224"
              }
            },
            "signature": {
              "type": "tendermint/SignatureEd25519",
              "value": "7ln/GHDxsmZp5EKBKuAXZWVkcpXhuL65WyvP5K4CjsZZwMPiZp9ufM6JBXkSji5TcKBnEr2Z5wflqtn1MOibAQ=="
            }
          },
          {
            "validator_address": "BC36FEDD6EF6071118A3E51859DF3831A2EC4782",
            "validator_index": "68",
            "height": "11536",
            "round": "1",
            "timestamp": "2018-07-31T01:05:05.567468193Z",
            "type": 2,
            "block_id": {
              "hash": "420A34AEADB7E6454424D4CC7272F76F680D19F0",
              "parts": {
                "total": "1",
                "hash": "B959BE738CA1FA785F23710253383F7E181C2224"
              }
            },
            "signature": {
              "type": "tendermint/SignatureEd25519",
              "value": "amQj84hlqHJYu/LT6u5z3K7pWeCB4kpbc0SYOH3f/LR/q5g2X6SV3g8NYginu5GY0aJOHkSKK8NKuYpEabORDA=="
            }
          },
          {
            "validator_address": "BD9D0DA513BF099DB4BB6E725A4E19832789882F",
            "validator_index": "69",
            "height": "11536",
            "round": "1",
            "timestamp": "2018-07-31T01:05:05.51591204Z",
            "type": 2,
            "block_id": {
              "hash": "420A34AEADB7E6454424D4CC7272F76F680D19F0",
              "parts": {
                "total": "1",
                "hash": "B959BE738CA1FA785F23710253383F7E181C2224"
              }
            },
            "signature": {
              "type": "tendermint/SignatureEd25519",
              "value": "O58OI8jdo/cbhTC4ACGuKqvd5UtjJdPchep3cJtEEA8E7LzVcX7QwITB2PulYB9bAb2IG44+iDR7TnmZfTsHBw=="
            }
          },
          {
            "validator_address": "C1134A2FF8F7338E7CDB3FE57DDD2A655DEB1E22",
            "validator_index": "70",
            "height": "11536",
            "round": "1",
            "timestamp": "2018-07-31T01:05:05.528384427Z",
            "type": 2,
            "block_id": {
              "hash": "420A34AEADB7E6454424D4CC7272F76F680D19F0",
              "parts": {
                "total": "1",
                "hash": "B959BE738CA1FA785F23710253383F7E181C2224"
              }
            },
            "signature": {
              "type": "tendermint/SignatureEd25519",
              "value": "ODvd3O3aQBRjjVscCKxG5pHm1kbFBBGYx6l789+UfweschaC0LmehWSe2SL3a42yAYas3KVUuCaTN0+iyNPIBw=="
            }
          },
          {
            "validator_address": "C39A8A2B85198DCB8F23AD1F6C198E2BA7AB5D60",
            "validator_index": "71",
            "height": "11536",
            "round": "1",
            "timestamp": "2018-07-31T01:05:05.61100739Z",
            "type": 2,
            "block_id": {
              "hash": "420A34AEADB7E6454424D4CC7272F76F680D19F0",
              "parts": {
                "total": "1",
                "hash": "B959BE738CA1FA785F23710253383F7E181C2224"
              }
            },
            "signature": {
              "type": "tendermint/SignatureEd25519",
              "value": "qhV+m3A1+bd0vcYyvZonzNnfSMq0eyQsUPGcacJ87ORvdRhjnvlXqo68P87HKPpyJz5A+QvhUjNE2HN11a1aBg=="
            }
          },
          {
            "validator_address": "C4335190C3B5BD4BA5568BC0F99C34162D940D08",
            "validator_index": "72",
            "height": "11536",
            "round": "1",
            "timestamp": "2018-07-31T01:05:05.682103682Z",
            "type": 2,
            "block_id": {
              "hash": "420A34AEADB7E6454424D4CC7272F76F680D19F0",
              "parts": {
                "total": "1",
                "hash": "B959BE738CA1FA785F23710253383F7E181C2224"
              }
            },
            "signature": {
              "type": "tendermint/SignatureEd25519",
              "value": "4qWkaY8Cg7rdFmWD+anYXOold1PRSgUQrs5w70MoJ5bqmDAnXO8aY/gu5p+Bihs+BJhehqF9N4+I6VWNLTX+DA=="
            }
          },
          {
            "validator_address": "C561CFA081677046376396922E7576E5F7B316AD",
            "validator_index": "73",
            "height": "11536",
            "round": "1",
            "timestamp": "2018-07-31T01:05:05.660075958Z",
            "type": 2,
            "block_id": {
              "hash": "420A34AEADB7E6454424D4CC7272F76F680D19F0",
              "parts": {
                "total": "1",
                "hash": "B959BE738CA1FA785F23710253383F7E181C2224"
              }
            },
            "signature": {
              "type": "tendermint/SignatureEd25519",
              "value": "tuLC6xS22MkYdZDfBCJeHUrkd7UQylpcZbjMwpM6dZvPbYxYI/sWl9ihiX/jivrBGyxxGTL1E73hYBBR2xNyBg=="
            }
          },
          {
            "validator_address": "CE589EA77B056D268D30D1DC1D68A70E0F885E95",
            "validator_index": "74",
            "height": "11536",
            "round": "1",
            "timestamp": "2018-07-31T01:05:05.571950468Z",
            "type": 2,
            "block_id": {
              "hash": "420A34AEADB7E6454424D4CC7272F76F680D19F0",
              "parts": {
                "total": "1",
                "hash": "B959BE738CA1FA785F23710253383F7E181C2224"
              }
            },
            "signature": {
              "type": "tendermint/SignatureEd25519",
              "value": "iHoUVAQQgleGvdLT5YfZm4cS4eH63xp8WwLa6SYveytQ+q7e2KSWeCIBvalA6AMjMX+DeUgpyJ8DspDXKF7+Cw=="
            }
          },
          {
            "validator_address": "CEB97DB5CB18270247ABDE6CF2F84F9AEE8A2904",
            "validator_index": "75",
            "height": "11536",
            "round": "1",
            "timestamp": "2018-07-31T01:05:05.507461602Z",
            "type": 2,
            "block_id": {
              "hash": "420A34AEADB7E6454424D4CC7272F76F680D19F0",
              "parts": {
                "total": "1",
                "hash": "B959BE738CA1FA785F23710253383F7E181C2224"
              }
            },
            "signature": {
              "type": "tendermint/SignatureEd25519",
              "value": "8KbvQ7xUFjyKNTfdFmR6Z5n6BK3u7ePYQzeQNqeRUEKCe3Qucb7k16oWfQ36IhWsQGC1Vtns6JSdLuV8UzbWBQ=="
            }
          },
          {
            "validator_address": "CF205769734F5758CC39F907EFB73D6BAF915FB1",
            "validator_index": "76",
            "height": "11536",
            "round": "1",
            "timestamp": "2018-07-31T01:05:05.665807128Z",
            "type": 2,
            "block_id": {
              "hash": "420A34AEADB7E6454424D4CC7272F76F680D19F0",
              "parts": {
                "total": "1",
                "hash": "B959BE738CA1FA785F23710253383F7E181C2224"
              }
            },
            "signature": {
              "type": "tendermint/SignatureEd25519",
              "value": "bXF9Jt/XtWmN/CSk32UlN5mMSE4eYS4eS++8nAwxKfA1xVaous/SrCueJYv7cRJ+uZUGjxW/I2WsO25Nv9zsAQ=="
            }
          },
          {
            "validator_address": "D2134B826A1E25A955905CB79A4D8731CAFA0CCE",
            "validator_index": "77",
            "height": "11536",
            "round": "1",
            "timestamp": "2018-07-31T01:05:05.71714682Z",
            "type": 2,
            "block_id": {
              "hash": "420A34AEADB7E6454424D4CC7272F76F680D19F0",
              "parts": {
                "total": "1",
                "hash": "B959BE738CA1FA785F23710253383F7E181C2224"
              }
            },
            "signature": {
              "type": "tendermint/SignatureEd25519",
              "value": "Q0MI9/jsPzLd32DQQULb8IgKfDps/0TzXiCXrSCtxK25MwKdLKO+CiPFJo2scGG3UNCHurNkNagtD6mWy7fyAA=="
            }
          },
          {
            "validator_address": "D6285C3422C8886445D53757CBE12D2B91B5A9D0",
            "validator_index": "78",
            "height": "11536",
            "round": "1",
            "timestamp": "2018-07-31T01:04:47.972232685Z",
            "type": 2,
            "block_id": {
              "hash": "420A34AEADB7E6454424D4CC7272F76F680D19F0",
              "parts": {
                "total": "1",
                "hash": "B959BE738CA1FA785F23710253383F7E181C2224"
              }
            },
            "signature": {
              "type": "tendermint/SignatureEd25519",
              "value": "ATMg82uNuHBp7717Bcq02c2Ptc20TFHuruisLqkEnF7x2+lYzXDBvaA7Tcul425R6/7D4NmDJRNOba9AEdRCAw=="
            }
          },
          {
            "validator_address": "DB7E6732471D3EA5C90C17A9974D9F88AB45F2FB",
            "validator_index": "79",
            "height": "11536",
            "round": "1",
            "timestamp": "2018-07-31T01:05:05.617045775Z",
            "type": 2,
            "block_id": {
              "hash": "420A34AEADB7E6454424D4CC7272F76F680D19F0",
              "parts": {
                "total": "1",
                "hash": "B959BE738CA1FA785F23710253383F7E181C2224"
              }
            },
            "signature": {
              "type": "tendermint/SignatureEd25519",
              "value": "3M8yhL55c8LeGB4KlWWEHn8lrEOuFoK3LLSZ9gezh9rt2wpXDm1QFO6Igc1Lfx26SBjqOBhKQ0qvAXVn0iTNDg=="
            }
          },
          {
            "validator_address": "DF54B862410BCD9B5C516FBB6C56BDC826ED6FA7",
            "validator_index": "80",
            "height": "11536",
            "round": "1",
            "timestamp": "2018-07-31T01:05:05.689018475Z",
            "type": 2,
            "block_id": {
              "hash": "420A34AEADB7E6454424D4CC7272F76F680D19F0",
              "parts": {
                "total": "1",
                "hash": "B959BE738CA1FA785F23710253383F7E181C2224"
              }
            },
            "signature": {
              "type": "tendermint/SignatureEd25519",
              "value": "u6d/Y+I5ZmLD/tg8c3XYQXF1e63VOItKgXAwIwMbba3ZnYxcA1d3BiLblEZ363LGYMseRHl8utmwxWOAwF3gAA=="
            }
          },
          {
            "validator_address": "DFAF0C8B1B78D6D552B0189DE3ACA351439A1319",
            "validator_index": "81",
            "height": "11536",
            "round": "1",
            "timestamp": "2018-07-31T01:05:05.538902261Z",
            "type": 2,
            "block_id": {
              "hash": "420A34AEADB7E6454424D4CC7272F76F680D19F0",
              "parts": {
                "total": "1",
                "hash": "B959BE738CA1FA785F23710253383F7E181C2224"
              }
            },
            "signature": {
              "type": "tendermint/SignatureEd25519",
              "value": "f7Od2qsRTXP6iibR/doLI2uY1cMFoap/dgJpNLVltviuzAMRhO2Q0vPsrBR+o/qKXn1sX2cWyYkROaqkapysDA=="
            }
          },
          {
            "validator_address": "E1DBC77881161A5A3A8536A57536EAE546A75D69",
            "validator_index": "82",
            "height": "11536",
            "round": "1",
            "timestamp": "2018-07-31T01:05:05.540389239Z",
            "type": 2,
            "block_id": {
              "hash": "420A34AEADB7E6454424D4CC7272F76F680D19F0",
              "parts": {
                "total": "1",
                "hash": "B959BE738CA1FA785F23710253383F7E181C2224"
              }
            },
            "signature": {
              "type": "tendermint/SignatureEd25519",
              "value": "8r1Y/q2y2PB7toH5bvzP6KfGwkdyAEkVZ/Xd3+npDoJnn89qnG7sK3SlKJNQvcpJkY48XMuTtxeeMg3LS3gDDg=="
            }
          },
          {
            "validator_address": "E300E9D484374C1D3E97C1D93CAC3B160A056298",
            "validator_index": "83",
            "height": "11536",
            "round": "1",
            "timestamp": "2018-07-31T01:05:05.842207403Z",
            "type": 2,
            "block_id": {
              "hash": "420A34AEADB7E6454424D4CC7272F76F680D19F0",
              "parts": {
                "total": "1",
                "hash": "B959BE738CA1FA785F23710253383F7E181C2224"
              }
            },
            "signature": {
              "type": "tendermint/SignatureEd25519",
              "value": "OJKipWxx0VMWdnUHNFh5c9/5jccuOE0o94JzZuCs73T42o94S/07k7EyGqCFmlsJbfUilKu48oXZgYdDvWs/Cg=="
            }
          },
          {
            "validator_address": "E39B5778E0D4297A46F45CF6940B0A163A430FF8",
            "validator_index": "84",
            "height": "11536",
            "round": "1",
            "timestamp": "2018-07-31T01:05:05.565795249Z",
            "type": 2,
            "block_id": {
              "hash": "420A34AEADB7E6454424D4CC7272F76F680D19F0",
              "parts": {
                "total": "1",
                "hash": "B959BE738CA1FA785F23710253383F7E181C2224"
              }
            },
            "signature": {
              "type": "tendermint/SignatureEd25519",
              "value": "cOmpOJKfwYjwlSmoVw+5+FLPsPZVo8TxYvFWViTFv/9uqwvc2CXiP84PED8szlYhQiCmRg2IYR3Sjz9gEPvIBA=="
            }
          },
          {
            "validator_address": "E42F8AEABB685219F7027F54D2B0DBC7846F633A",
            "validator_index": "85",
            "height": "11536",
            "round": "1",
            "timestamp": "2018-07-31T01:05:04.844572458Z",
            "type": 2,
            "block_id": {
              "hash": "420A34AEADB7E6454424D4CC7272F76F680D19F0",
              "parts": {
                "total": "1",
                "hash": "B959BE738CA1FA785F23710253383F7E181C2224"
              }
            },
            "signature": {
              "type": "tendermint/SignatureEd25519",
              "value": "gSgE1Qens2mXLekCD08xO6YJ/SpeHkXEZDE9OywPkCgFaUXa3CyvhbAL4E8xh0QX75+2NiY2O5PcrQ9VK/7qBg=="
            }
          },
          {
            "validator_address": "E4E6C2E81269DFFA196C17F98240E491479A6008",
            "validator_index": "86",
            "height": "11536",
            "round": "1",
            "timestamp": "2018-07-31T01:05:05.637514617Z",
            "type": 2,
            "block_id": {
              "hash": "420A34AEADB7E6454424D4CC7272F76F680D19F0",
              "parts": {
                "total": "1",
                "hash": "B959BE738CA1FA785F23710253383F7E181C2224"
              }
            },
            "signature": {
              "type": "tendermint/SignatureEd25519",
              "value": "eutUQ/unAAXFYy6MCiX//ng4MkOWLUBAc2Jr6LDnjNv5IeWFDe/K8pSw/CqH6tZgFlMv2EQa3TIYytofarGLAQ=="
            }
          },
          {
            "validator_address": "E7A30077D5D11867D3EAF99ED45BFDC1EB834509",
            "validator_index": "87",
            "height": "11536",
            "round": "1",
            "timestamp": "2018-07-31T01:05:05.59851048Z",
            "type": 2,
            "block_id": {
              "hash": "420A34AEADB7E6454424D4CC7272F76F680D19F0",
              "parts": {
                "total": "1",
                "hash": "B959BE738CA1FA785F23710253383F7E181C2224"
              }
            },
            "signature": {
              "type": "tendermint/SignatureEd25519",
              "value": "X6hYr1pB/Uf6bo+QHbuqZG6WsOWqS5U4R7Ko4bPcAnTzZDQXP5KHoURH2O7gqLVtcKg/zARcQ6w+FEwdaug3Bw=="
            }
          },
          {
            "validator_address": "EBC613967F66F4EC306852CDF58B4F151CF16738",
            "validator_index": "88",
            "height": "11536",
            "round": "1",
            "timestamp": "2018-07-31T01:05:05.711906008Z",
            "type": 2,
            "block_id": {
              "hash": "420A34AEADB7E6454424D4CC7272F76F680D19F0",
              "parts": {
                "total": "1",
                "hash": "B959BE738CA1FA785F23710253383F7E181C2224"
              }
            },
            "signature": {
              "type": "tendermint/SignatureEd25519",
              "value": "OLWtHC+eXHcrcowezj/oV4Tpj1Ls8Bjc7Z5TZvBo63cOT/fUwvouuH9H/+2cfaMUoi9r4xxqMHtYkTusfDGZBw=="
            }
          },
          {
            "validator_address": "EC3401441726C40ECC7E51F744483B05BC6DE9BD",
            "validator_index": "89",
            "height": "11536",
            "round": "1",
            "timestamp": "2018-07-31T01:05:05.594822719Z",
            "type": 2,
            "block_id": {
              "hash": "420A34AEADB7E6454424D4CC7272F76F680D19F0",
              "parts": {
                "total": "1",
                "hash": "B959BE738CA1FA785F23710253383F7E181C2224"
              }
            },
            "signature": {
              "type": "tendermint/SignatureEd25519",
              "value": "lesyQfn6mbt/z4/BIv8g1SklCyCBDH77jVuvW/mL2IjLE4Hx8f3+P/bdf6bZbEtO1k3LkXnaxMeGXAR1mNJ7CA=="
            }
          },
          {
            "validator_address": "EC95B111D032181E1EC3B5E8875C5BB8E4AE7140",
            "validator_index": "90",
            "height": "11536",
            "round": "1",
            "timestamp": "2018-07-31T01:05:05.577679435Z",
            "type": 2,
            "block_id": {
              "hash": "420A34AEADB7E6454424D4CC7272F76F680D19F0",
              "parts": {
                "total": "1",
                "hash": "B959BE738CA1FA785F23710253383F7E181C2224"
              }
            },
            "signature": {
              "type": "tendermint/SignatureEd25519",
              "value": "+csILYUfdYVYvnQMpIe+r69FVbWHXnFkvotv4Zc1yn1F9ITNYPWI+eFGgxe1bQDgG9r1jKWR2VlakWhWNax3DA=="
            }
          },
          {
            "validator_address": "F13C1805E8131C9B47E2A46818F57D8A2841E578",
            "validator_index": "91",
            "height": "11536",
            "round": "1",
            "timestamp": "2018-07-31T01:05:05.59502173Z",
            "type": 2,
            "block_id": {
              "hash": "420A34AEADB7E6454424D4CC7272F76F680D19F0",
              "parts": {
                "total": "1",
                "hash": "B959BE738CA1FA785F23710253383F7E181C2224"
              }
            },
            "signature": {
              "type": "tendermint/SignatureEd25519",
              "value": "Fo5pp5JVL9jzIZJhM7oIrJPMjzkpASJ/GzyC4tHoxRvuH1/hOdOR/d5SwV5UDwHWN07Vd78SZJ6pEHnM5CvDCw=="
            }
          },
          {
            "validator_address": "F23FF36BD5B90C33CE3A03ED72DBDCF5EC07D6AF",
            "validator_index": "92",
            "height": "11536",
            "round": "1",
            "timestamp": "2018-07-31T01:05:05.631711068Z",
            "type": 2,
            "block_id": {
              "hash": "420A34AEADB7E6454424D4CC7272F76F680D19F0",
              "parts": {
                "total": "1",
                "hash": "B959BE738CA1FA785F23710253383F7E181C2224"
              }
            },
            "signature": {
              "type": "tendermint/SignatureEd25519",
              "value": "IjPOqEqt7AFin/r9rsYCDTxCHaySwWlDSNKMFRPOZazX0B7CRTSsaLm1B5ekjmMo/kf1Aij34CnN0tSsrv19BQ=="
            }
          },
          {
            "validator_address": "F4268597DE93E3E2CED38845010F8AA34E2A879E",
            "validator_index": "93",
            "height": "11536",
            "round": "1",
            "timestamp": "2018-07-31T01:05:05.542815999Z",
            "type": 2,
            "block_id": {
              "hash": "420A34AEADB7E6454424D4CC7272F76F680D19F0",
              "parts": {
                "total": "1",
                "hash": "B959BE738CA1FA785F23710253383F7E181C2224"
              }
            },
            "signature": {
              "type": "tendermint/SignatureEd25519",
              "value": "DqD2+HSKMbuoAPEEq/kQPY6UOlvncqTz/N+dwrh7e2GDQ7Y7ffpD6L3547E90VUuIH/w/8eBRr1F2tbR7KloCw=="
            }
          },
          {
            "validator_address": "F4DEB417999B04BE2EFF9FFE03FA373D86011CC0",
            "validator_index": "94",
            "height": "11536",
            "round": "1",
            "timestamp": "2018-07-31T01:05:05.682322931Z",
            "type": 2,
            "block_id": {
              "hash": "420A34AEADB7E6454424D4CC7272F76F680D19F0",
              "parts": {
                "total": "1",
                "hash": "B959BE738CA1FA785F23710253383F7E181C2224"
              }
            },
            "signature": {
              "type": "tendermint/SignatureEd25519",
              "value": "e6vdZ54uffN3CksRRgVffqXu1+Qrb/xSSMynQAsqKW93G43SDiZ5O9dKWMmqOBMfOfxr3muG5rftAFn7kKOfCg=="
            }
          },
          {
            "validator_address": "FF3F3FCBCE7E62D7AD5506FF846EC4518D980515",
            "validator_index": "95",
            "height": "11536",
            "round": "1",
            "timestamp": "2018-07-31T01:05:05.513384728Z",
            "type": 2,
            "block_id": {
              "hash": "420A34AEADB7E6454424D4CC7272F76F680D19F0",
              "parts": {
                "total": "1",
                "hash": "B959BE738CA1FA785F23710253383F7E181C2224"
              }
            },
            "signature": {
              "type": "tendermint/SignatureEd25519",
              "value": "QZCeCyy3dd+Olli/FojnmhWo2sxtp1/YS8oFg022Web364mmRO5z+TQzeAY/dCYBf/YBCT3UzGmsky2jQpi4Aw=="
            }
          }
        ]
      }
    },
    "canonical": true
  }
}