{
  "jsonrpc": "2.0",
  "id": "",
  "result": {
    "SignedHeader": {
      "header": {
        "chain_id": "gaia-7004",
        "height": "12995",
        "time": "2018-07-31T03:28:51.817045324Z",
        "num_txs": "0",
        "last_block_id": {
          "hash": "A92D3AB481FFD00437DDD525CE1CE2D7A4A80807",
          "parts": {
            "total": "1",
            "hash": "27C4B88432CFCCE896D64D853C03403C316CD641"
          }
        },
        "total_txs": "567",
        "last_commit_hash": "67505D2E4920FF5BC53F8AC1FF86F2DB0BC6AFB3",
        "data_hash": "",
        "validators_hash": "D65BDB8EDA0D5719CDD1EC9382E9D76F7C54E60B",
        "consensus_hash": "D6B74BB35BDFFD8392340F2A379173548AE188FE",
        "app_hash": "71EE70767F5850DB1CB348D6E35296244D75BB1C",
        "last_results_hash": "",
        "evidence_hash": ""
      },
      "commit": {
        "block_id": {
          "hash": "8CAE024290C596583D8DE10C32F62E67E3CB8C8D",
          "parts": {
            "total": "1",
            "hash": "8BB299081522A76034E3C068F7519B722E5F6888"
          }
        },
        "precommits": [
          {
            "validator_address": "029359C0C768096273A68ABC902A6B17AC8D1D70",
            "validator_index": "0",
            "height": "12995",
            "round": "1",
            "timestamp": "2018-07-31T03:28:52.764960457Z",
            "type": 2,
            "block_id": {
              "hash": "8CAE024290C596583D8DE10C32F62E67E3CB8C8D",
              "parts": {
                "total": "1",
                "hash": "8BB299081522A76034E3C068F7519B722E5F6888"
              }
            },
            "signature": {
              "type": "tendermint/SignatureEd25519",
              "value": "PHWDcUefTL0S1mY/WRPHpbuNoTfdSdy43KNImJiBF8i9N8gd7Ukqt4vNVV9FlrWkcdfFh4/+G8VGup+PbMC8CA=="
            }
          },
          {
            "validator_address": "02FE4B97A8387F39D1AC19E0C1702B3CC614812F",
            "validator_index": "1",
            "height": "12995",
            "round": "1",
            "timestamp": "2018-07-31T03:28:52.74038915Z",
            "type": 2,
            "block_id": {
              "hash": "8CAE024290C596583D8DE10C32F62E67E3CB8C8D",
              "parts": {
                "total": "1",
                "hash": "8BB299081522A76034E3C068F7519B722E5F6888"
              }
            },
            "signature": {
              "type": "tendermint/SignatureEd25519",
              "value": "+5R9JnDtHFe2NnMTgG4w/a/1MwLp5bVD40XPqrDyPXwr9sRrMBrKLoMG0xnVTzjuUb1F+nSvnb7BCrNY26S7Bw=="
            }
          },
          null,
          {
            "validator_address": "09145E611CC27EEB944FC5A956DDF710F943B9EF",
            "validator_index": "3",
            "height": "12995",
            "round": "1",
            "timestamp": "2018-07-31T03:28:52.760644139Z",
            "type": 2,
            "block_id": {
              "hash": "8CAE024290C596583D8DE10C32F62E67E3CB8C8D",
              "parts": {
                "total": "1",
                "hash": "8BB299081522A76034E3C068F7519B722E5F6888"
              }
            },
            "signature": {
              "type": "tendermint/SignatureEd25519",
              "value": "Cs+QdOjQ5qe9E8j43CvSwyPiDjz8eZOkVHinpygc0pNIHGwipbuWa9x6hukFKaOde91ZG8iAu1R5LeLIQByiAA=="
            }
          },
          {
            "validator_address": "0989D0355A104B67AE0AE028C68FB610690E174B",
            "validator_index": "4",
            "height": "12995",
            "round": "1",
            "timestamp": "2018-07-31T03:28:52.760041944Z",
            "type": 2,
            "block_id": {
              "hash": "8CAE024290C596583D8DE10C32F62E67E3CB8C8D",
              "parts": {
                "total": "1",
                "hash": "8BB299081522A76034E3C068F7519B722E5F6888"
              }
            },
            "signature": {
              "type": "tendermint/SignatureEd25519",
              "value": "snTmNudT/jUw9ARt/w0KEHO5W2Wb8zS0ecDDgv8kw/HDfT0J6BSfb8m+iUbfHUxvFJvhAkwES1n/jSPhVaelDg=="
            }
          },
          {
            "validator_address": "0A692DBFFE9E5DD28E7DECC33CED1AEB4C0D014E",
            "validator_index": "5",
            "height": "12995",
            "round": "1",
            "timestamp": "2018-07-31T03:28:52.878321816Z",
            "type": 2,
            "block_id": {
              "hash": "8CAE024290C596583D8DE10C32F62E67E3CB8C8D",
              "parts": {
                "total": "1",
                "hash": "8BB299081522A76034E3C068F7519B722E5F6888"
              }
            },
            "signature": {
              "type": "tendermint/SignatureEd25519",
              "value": "L97i7Us5IkQgJdH7n5WWPCquhUlA+ZqRNiXyheR+C9jSMXRL1TDwjtICS4LTyfOp1Nzd8cypOSZWxLlu7MgkCw=="
            }
          },
          {
            "validator_address": "0DDF97111D73DB825138EC15EC27DE5FE8536901",
            "validator_index": "6",
            "height": "12995",
            "round": "1",
            "timestamp": "2018-07-31T03:28:52.80832323Z",
            "type": 2,
            "block_id": {
              "hash": "8CAE024290C596583D8DE10C32F62E67E3CB8C8D",
              "parts": {
                "total": "1",
                "hash": "8BB299081522A76034E3C068F7519B722E5F6888"
              }
            },
            "signature": {
              "type": "tendermint/SignatureEd25519",
              "value": "z+u4bjuTNsp5u90s7NYroe2zeLIdLdG8fm1Vd9tjLAET6JoLSxliQdOOeuVdp8DtMtefMr/cofUpO3zHV4tZCA=="
            }
          },
          {
            "validator_address": "1751786EFC085D5331C61168FFFC8202EA151B4E",
            "validator_index": "7",
            "height": "12995",
            "round": "1",
            "timestamp": "2018-07-31T03:28:52.620881525Z",
            "type": 2,
            "block_id": {
              "hash": "8CAE024290C596583D8DE10C32F62E67E3CB8C8D",
              "parts": {
                "total": "1",
                "hash": "8BB299081522A76034E3C068F7519B722E5F6888"
              }
            },
            "signature": {
              "type": "tendermint/SignatureEd25519",
              "value": "dPpo/phCD3pUQtM+gDOAo5HrxUxz752WWtzTYqs/ELglwDbL4YWPcjOxjWHRUEK7O2cE7FDFHhPxqUuxPt37AQ=="
            }
          },
          {
            "validator_address": "17BB5CD01E8940FAFB948A04D5FA5A0645E5822E",
            "validator_index": "8",
            "height": "12995",
            "round": "1",
            "timestamp": "2018-07-31T03:28:52.739669337Z",
            "type": 2,
            "block_id": {
              "hash": "8CAE024290C596583D8DE10C32F62E67E3CB8C8D",
              "parts": {
                "total": "1",
                "hash": "8BB299081522A76034E3C068F7519B722E5F6888"
              }
            },
            "signature": {
              "type": "tendermint/SignatureEd25519",
              "value": "YL6x0+6KJ5Lr68Q6YhdjjFmXuAeIggTMv7T6nXKDU7I4aUmsHdzzasoTVfiDjJnhy5fwy+eDrnO6+jr6pXg4Bw=="
            }
          },
          {
            "validator_address": "1C683A87904BC38F05004FE83301A3A3E35447EB",
            "validator_index": "9",
            "height": "12995",
            "round": "1",
            "timestamp": "2018-07-31T03:28:52.729979771Z",
            "type": 2,
            "block_id": {
              "hash": "8CAE024290C596583D8DE10C32F62E67E3CB8C8D",
              "parts": {
                "total": "1",
                "hash": "8BB299081522A76034E3C068F7519B722E5F6888"
              }
            },
            "signature": {
              "type": "tendermint/SignatureEd25519",
              "value": "d2ykaQeNUYN8GJcCeJdBkRuU11X0cMyRKdR6NyM7sIiV99t23/Y0gxgwLlozB1plvn8/gZe2S0u1zJuYbxhlCg=="
            }
          },
          {
            "validator_address": "1E9CE94FD0BA5CFEB901F90BC658D64D85B134D2",
            "validator_index": "10",
            "height": "12995",
            "round": "1",
            "timestamp": "2018-07-31T03:28:52.719626721Z",
            "type": 2,
            "block_id": {
              "hash": "8CAE024290C596583D8DE10C32F62E67E3CB8C8D",
              "parts": {
                "total": "1",
                "hash": "8BB299081522A76034E3C068F7519B722E5F6888"
              }
            },
            "signature": {
              "type": "tendermint/SignatureEd25519",
              "value": "nuSPiZN+OHFtX6lPa1wkPs2aA8c0NE2KY4ckM34nSLKj8RllHipdnqOUXb3I5W7vmLcraQnuFeFiE7ZEW4W3Ag=="
            }
          },
          {
            "validator_address": "1ECD8C5FE1341D74CDC633A245DD56858DE2F9A2",
            "validator_index": "11",
            "height": "12995",
            "round": "1",
            "timestamp": "2018-07-31T03:28:52.937060874Z",
            "type": 2,
            "block_id": {
              "hash": "8CAE024290C596583D8DE10C32F62E67E3CB8C8D",
              "parts": {
                "total": "1",
                "hash": "8BB299081522A76034E3C068F7519B722E5F6888"
              }
            },
            "signature": {
              "type": "tendermint/SignatureEd25519",
              "value": "94zfL4pSE6BQ5vF1HtzE3rNi9LZXrRStp1eM4WqOWeP+M8tbC1eE/TxVml/8cW44LcIFcwThqHH/zsYkF+6XDA=="
            }
          },
          {
            "validator_address": "1F3A68CAAD483768AA2BF667DEF10F7104C89928",
            "validator_index": "12",
            "height": "12995",
            "round": "1",
            "timestamp": "2018-07-31T03:28:52.764588555Z",
            "type": 2,
            "block_id": {
              "hash": "8CAE024290C596583D8DE10C32F62E67E3CB8C8D",
              "parts": {
                "total": "1",
                "hash": "8BB299081522A76034E3C068F7519B722E5F6888"
              }
            },
            "signature": {
              "type": "tendermint/SignatureEd25519",
              "value": "a9kWJ2IwF/CAd/jAG8E2uOXk9Oa3+bhIoga3PRMncjkUnGtsxQ+hJjoF5ouAD6Z6Lsaro34kYv2z/nQPtAyoDw=="
            }
          },
          {
            "validator_address": "23897586D68E2AC1C78E0EF5BB5DF5C8EAB18F50",
            "validator_index": "13",
            "height": "12995",
            "round": "1",
            "timestamp": "2018-07-31T03:28:52.76637875Z",
            "type": 2,
            "block_id": {
              "hash": "8CAE024290C596583D8DE10C32F62E67E3CB8C8D",
              "parts": {
                "total": "1",
                "hash": "8BB299081522A76034E3C068F7519B722E5F6888"
              }
            },
            "signature": {
              "type": "tendermint/SignatureEd25519",
              "value": "8FZClPvabllNcz3D/+DV6Npk2wtfQVHQjXDFkw4/8D9ikNCCJfOuymJP4i/+PIwPpD6DmxCWDNH9cDT3kjI5CQ=="
            }
          },
          {
            "validator_address": "28770D17E8530825E7310A0659308654B7EC9682",
            "validator_index": "14",
            "height": "12995",
            "round": "1",
            "timestamp": "2018-07-31T03:28:52.739097003Z",
            "type": 2,
            "block_id": {
              "hash": "8CAE024290C596583D8DE10C32F62E67E3CB8C8D",
              "parts": {
                "total": "1",
                "hash": "8BB299081522A76034E3C068F7519B722E5F6888"
              }
            },
            "signature": {
              "type": "tendermint/SignatureEd25519",
              "value": "hb6odVKcGUTvKHk+TMsnURkAmk3onZANEQKrHzcfO7Y6+LcULsiKu51RbePhIQszjA8ZTtch9S5JCocKnMe7DQ=="
            }
          },
          {
            "validator_address": "2A92EC3C642140202298D0E245095E0ECFC25228",
            "validator_index": "15",
            "height": "12995",
            "round": "1",
            "timestamp": "2018-07-31T03:28:52.837505939Z",
            "type": 2,
            "block_id": {
              "hash": "8CAE024290C596583D8DE10C32F62E67E3CB8C8D",
              "parts": {
                "total": "1",
                "hash": "8BB299081522A76034E3C068F7519B722E5F6888"
              }
            },
            "signature": {
              "type": "tendermint/SignatureEd25519",
              "value": "PCeoRS+JyRu36ol5xnTADKpykyKWugBPKqg/lvtOa9GBQdfTL1cipbgGF6tjFS65fajhLZYxc9rt7ipBptyrDA=="
            }
          },
          {
            "validator_address": "33412C9A69C60CB0FAA24A5C5B3A906DE24B47C2",
            "validator_index": "16",
            "height": "12995",
            "round": "1",
            "timestamp": "2018-07-31T03:28:52.824477828Z",
            "type": 2,
            "block_id": {
              "hash": "8CAE024290C596583D8DE10C32F62E67E3CB8C8D",
              "parts": {
                "total": "1",
                "hash": "8BB299081522A76034E3C068F7519B722E5F6888"
              }
            },
            "signature": {
              "type": "tendermint/SignatureEd25519",
              "value": "XWqlDcUoPTKXMS7S11GsHpBeZEX3A5hj6aepLXjKkf8kPEi3IubSJmY+gREzLKSA/IuudLgkTjwganMG3JV4CA=="
            }
          },
          {
            "validator_address": "3383EF2A13B160C41947AC30434B274B2FAF0617",
            "validator_index": "17",
            "height": "12995",
            "round": "1",
            "timestamp": "2018-07-31T03:28:52.790926407Z",
            "type": 2,
            "block_id": {
              "hash": "8CAE024290C596583D8DE10C32F62E67E3CB8C8D",
              "parts": {
                "total": "1",
                "hash": "8BB299081522A76034E3C068F7519B722E5F6888"
              }
            },
            "signature": {
              "type": "tendermint/SignatureEd25519",
              "value": "80bk3kRx9uhnQpdk6YaJqFE3RwRX54GbGKaJ/0RFgnXdi90iunMC+xO4tTvy0k5fIize0g3TDZbAKtbtYKbiAw=="
            }
          },
          {
            "validator_address": "36E9B7FAEC964F97D84C028ED62493E373AD0B38",
            "validator_index": "18",
            "height": "12995",
            "round": "1",
            "timestamp": "2018-07-31T03:28:52.881597004Z",
            "type": 2,
            "block_id": {
              "hash": "8CAE024290C596583D8DE10C32F62E67E3CB8C8D",
              "parts": {
                "total": "1",
                "hash": "8BB299081522A76034E3C068F7519B722E5F6888"
              }
            },
            "signature": {
              "type": "tendermint/SignatureEd25519",
              "value": "8J5raCYp0jC9drX7CJYPS+LE02+i3+/9ow4k7yJ1duBCViV7l9juUyVbyu7e4AFfg2sl12DdFv0hGb0bx1dqBw=="
            }
          },
          {
            "validator_address": "38A8D85D36BEA2E5FCF8A1E778F53628E450EF13",
            "validator_index": "19",
            "height": "12995",
            "round": "1",
            "timestamp": "2018-07-31T03:28:52.94087521Z",
            "type": 2,
            "block_id": {
              "hash": "8CAE024290C596583D8DE10C32F62E67E3CB8C8D",
              "parts": {
                "total": "1",
                "hash": "8BB299081522A76034E3C068F7519B722E5F6888"
              }
            },
            "signature": {
              "type": "tendermint/SignatureEd25519",
              "value": "jchc1N/JIKjJIQF7GfzwXM7ZEj8RD6vpT8mXXuWO3/ZbpReRfEH0dvrdtgdysigO5suUc3m0swF6p9KVw8F8Bw=="
            }
          },
          {
            "validator_address": "39DFDA0C5DB84B269642188B23253508537798E6",
            "validator_index": "20",
            "height": "12995",
            "round": "1",
            "timestamp": "2018-07-31T03:28:52.776913521Z",
            "type": 2,
            "block_id": {
              "hash": "8CAE024290C596583D8DE10C32F62E67E3CB8C8D",
              "parts": {
                "total": "1",
                "hash": "8BB299081522A76034E3C068F7519B722E5F6888"
              }
            },
            "signature": {
              "type": "tendermint/SignatureEd25519",
              "value": "B0Fo/VEZtm03mn1GMmyBrOtz0lp1hqm9etzx98eVxvIlxGaYmUu2JuRGqsUWiWVk2SDCQ9SL6hPSffUYL2oaCQ=="
            }
          },
          {
            "validator_address": "3AC99B708404452366E0953A4BE849226DC86CBC",
            "validator_index": "21",
            "height": "12995",
            "round": "1",
            "timestamp": "2018-07-31T03:28:52.810737012Z",
            "type": 2,
            "block_id": {
              "hash": "8CAE024290C596583D8DE10C32F62E67E3CB8C8D",
              "parts": {
                "total": "1",
                "hash": "8BB299081522A76034E3C068F7519B722E5F6888"
              }
            },
            "signature": {
              "type": "tendermint/SignatureEd25519",
              "value": "LdkMzro9QYj0UoUh55zAFoPZv5Y12MW+rdjlwscja7/CorNBdGjmXMPMhGLq1n+ulyXs3uWR5r89uycGEg67Dg=="
            }
          },
          {
            "validator_address": "3DCB822A10ED319EC7C4393D8E3FD4A41B15AAF2",
            "validator_index": "22",
            "height": "12995",
            "round": "1",
            "timestamp": "2018-07-31T03:28:52.69638726Z",
            "type": 2,
            "block_id": {
              "hash": "8CAE024290C596583D8DE10C32F62E67E3CB8C8D",
              "parts": {
                "total": "1",
                "hash": "8BB299081522A76034E3C068F7519B722E5F6888"
              }
            },
            "signature": {
              "type": "tendermint/SignatureEd25519",
              "value": "5l25qlsnZMAqSfHGNhpza6IYOYRonHJarv+b4JlYRKoUr3URCE9NCml4lL3TCL0t06mGPJAdJb10zP5baJ+WAQ=="
            }
          },
          {
            "validator_address": "3E899BA36A93C7370347BD5FE85909F2ECD93F8C",
            "validator_index": "23",
            "height": "12995",
            "round": "1",
            "timestamp": "2018-07-31T03:28:52.746985081Z",
            "type": 2,
            "block_id": {
              "hash": "8CAE024290C596583D8DE10C32F62E67E3CB8C8D",
              "parts": {
                "total": "1",
                "hash": "8BB299081522A76034E3C068F7519B722E5F6888"
              }
            },
            "signature": {
              "type": "tendermint/SignatureEd25519",
              "value": "fJepw97Ku3ocdnvBH22qcpvQa0zXNUsKeZek+QNqqb21G0O3Vw2ySvPWqIZ+MI20Q/VW38sY8L5tAqDEAXwvBA=="
            }
          },
          {
            "validator_address": "41CAB2E29E7D0F2282E3275938F188FF9386B84C",
            "validator_index": "24",
            "height": "12995",
            "round": "1",
            "timestamp": "2018-07-31T03:28:52.746386517Z",
            "type": 2,
            "block_id": {
              "hash": "8CAE024290C596583D8DE10C32F62E67E3CB8C8D",
              "parts": {
                "total": "1",
                "hash": "8BB299081522A76034E3C068F7519B722E5F6888"
              }
            },
            "signature": {
              "type": "tendermint/SignatureEd25519",
              "value": "iw7s2OwJia6/K8e1Ad5LBIEtV9FPfu2xAdzexg18nfRwe3LcMfA/BenVzk0csiUqP8lu1hfSYaTvwWOHQ3FDCA=="
            }
          },
          {
            "validator_address": "462B656869DB02A8FD1077E255F8CC7401DC37C6",
            "validator_index": "25",
            "height": "12995",
            "round": "1",
            "timestamp": "2018-07-31T03:28:52.753254487Z",
            "type": 2,
            "block_id": {
              "hash": "8CAE024290C596583D8DE10C32F62E67E3CB8C8D",
              "parts": {
                "total": "1",
                "hash": "8BB299081522A76034E3C068F7519B722E5F6888"
              }
            },
            "signature": {
              "type": "tendermint/SignatureEd25519",
              "value": "+m0SGWU2yElOlxibMzagG6ufdgNbYILplHhotC7LRtP/ofCdMJrZYk6PwoHeRIPqe9qmSakPuKtsTbd8V9tjAQ=="
            }
          },
          {
            "validator_address": "48E5118163E5442068A1B5A42D2EEDBB75724935",
            "validator_index": "26",
            "height": "12995",
            "round": "1",
            "timestamp": "2018-07-31T03:28:52.952049904Z",
            "type": 2,
            "block_id": {
              "hash": "8CAE024290C596583D8DE10C32F62E67E3CB8C8D",
              "parts": {
                "total": "1",
                "hash": "8BB299081522A76034E3C068F7519B722E5F6888"
              }
            },
            "signature": {
              "type": "tendermint/SignatureEd25519",
              "value": "qlwGpAVLS6/ax57VkAxwFqxrTJTtSTkp2ivOrojgOZ0lLqWWa9MKPtqnFfHiBTtLwRMk2eQS2ChYH58oLGuaAQ=="
            }
          },
          {
            "validator_address": "4944F8BBBB5303E17BC0607DF332320EDBC750EA",
            "validator_index": "27",
            "height": "12995",
            "round": "1",
            "timestamp": "2018-07-31T03:28:52.720496536Z",
            "type": 2,
            "block_id": {
              "hash": "8CAE024290C596583D8DE10C32F62E67E3CB8C8D",
              "parts": {
                "total": "1",
                "hash": "8BB299081522A76034E3C068F7519B722E5F6888"
              }
            },
            "signature": {
              "type": "tendermint/SignatureEd25519",
              "value": "kJMmJUsXv2QFElO1Rhmx1OmUai0oBIHlPrMu+QUf1JFasxojXabRgT3kKuD2/XqsFKLUWM0EOLMmBgx8/1KGAg=="
            }
          },
          {
            "validator_address": "49841599DE675157CBE1E7D6B35BF8FFC23BD5CB",
            "validator_index": "28",
            "height": "12995",
            "round": "1",
            "timestamp": "2018-07-31T03:28:52.694460446Z",
            "type": 2,
            "block_id": {
              "hash": "8CAE024290C596583D8DE10C32F62E67E3CB8C8D",
              "parts": {
                "total": "1",
                "hash": "8BB299081522A76034E3C068F7519B722E5F6888"
              }
            },
            "signature": {
              "type": "tendermint/SignatureEd25519",
              "value": "2Xq6PRpOR+4nD5qRk+I2le76lo9aUJvO58iFuXs03HfnrQTlrHK/i9YfHwCjL+01TDYMEaf+QKoDitnnrefTDA=="
            }
          },
          {
            "validator_address": "5104F488EA6B1E2C33CBDA3C18389C88104DBC72",
            "validator_index": "29",
            "height": "12995",
            "round": "1",
            "timestamp": "2018-07-31T03:28:52.784472758Z",
            "type": 2,
            "block_id": {
              "hash": "8CAE024290C596583D8DE10C32F62E67E3CB8C8D",
              "parts": {
                "total": "1",
                "hash": "8BB299081522A76034E3C068F7519B722E5F6888"
              }
            },
            "signature": {
              "type": "tendermint/SignatureEd25519",
              "value": "m95Hfy1jXLocZ4p0ZyCcNAkiuBZUXWnvkq4JpQ25ggJduXhWYBjFdDX6lWlYWUqECSwiczGWbNBuSOPt0OtNAw=="
            }
          },
          {
            "validator_address": "51386C2CF9556821D114D7E4945806802BADB28D",
            "validator_index": "30",
            "height": "12995",
            "round": "1",
            "timestamp": "2018-07-31T03:28:52.830611019Z",
            "type": 2,
            "block_id": {
              "hash": "8CAE024290C596583D8DE10C32F62E67E3CB8C8D",
              "parts": {
                "total": "1",
                "hash": "8BB299081522A76034E3C068F7519B722E5F6888"
              }
            },
            "signature": {
              "type": "tendermint/SignatureEd25519",
              "value": "nnsW73DwbqJ9HHaARCBnyggBLvdssENFit4Jocz9oBCkgf7RonCCyALsSIOf5m+Rxh2Xn+lLOz8lCsfq5nKLCQ=="
            }
          },
          {
            "validator_address": "543564ECA3AFEFADC73EE8591AAC3A96F079BC8A",
            "validator_index": "31",
            "height": "12995",
            "round": "1",
            "timestamp": "2018-07-31T03:28:52.723285924Z",
            "type": 2,
            "block_id": {
              "hash": "8CAE024290C596583D8DE10C32F62E67E3CB8C8D",
              "parts": {
                "total": "1",
                "hash": "8BB299081522A76034E3C068F7519B722E5F6888"
              }
            },
            "signature": {
              "type": "tendermint/SignatureEd25519",
              "value": "4pd/RHGD5KJds2y/WPR4yJX4X8DGh8Ftw/M7eOjD7zqoUUpeKGvfTVENwtFuXKUsM4sFY/lJ/s2PExFi1NKpCQ=="
            }
          },
          {
            "validator_address": "55D67B1A6DC13E96F8754A5A42EABC20F7F86664",
            "validator_index": "32",
            "height": "12995",
            "round": "1",
            "timestamp": "2018-07-31T03:28:52.730854382Z",
            "type": 2,
            "block_id": {
              "hash": "8CAE024290C596583D8DE10C32F62E67E3CB8C8D",
              "parts": {
                "total": "1",
                "hash": "8BB299081522A76034E3C068F7519B722E5F6888"
              }
            },
            "signature": {
              "type": "tendermint/SignatureEd25519",
              "value": "czdqhkUkf1I9Kl8L7maeYG0OPwr1TLAgAHOJITxtFUiukq+QhD5e1YO/D5D7lj0yvQKY5YiXXymIwN405E/eBQ=="
            }
          },
          {
            "validator_address": "570B6A755ED339EAC56BB3390A48069F6AC9449B",
            "validator_index": "33",
            "height": "12995",
            "round": "1",
            "timestamp": "2018-07-31T03:28:54.937604142Z",
            "type": 2,
            "block_id": {
              "hash": "8CAE024290C596583D8DE10C32F62E67E3CB8C8D",
              "parts": {
                "total": "1",
                "hash": "8BB299081522A76034E3C068F7519B722E5F6888"
              }
            },
            "signature": {
              "type": "tendermint/SignatureEd25519",
              "value": "7f2wW6TLWeKr/NgD2z4fxTvSxRAyvpNGHhAfzlo5UbcTBSEhllvcLSzh8/X1i3OJMHi7w35qWehGCtLixQvCDg=="
            }
          },
          {
            "validator_address": "5BDF8EA41B1835FBAD865B181A2A4B23F511B5E4",
            "validator_index": "34",
            "height": "12995",
            "round": "1",
            "timestamp": "2018-07-31T03:28:52.725312972Z",
            "type": 2,
            "block_id": {
              "hash": "8CAE024290C596583D8DE10C32F62E67E3CB8C8D",
              "parts": {
                "total": "1",
                "hash": "8BB299081522A76034E3C068F7519B722E5F6888"
              }
            },
            "signature": {
              "type": "tendermint/SignatureEd25519",
              "value": "Shw6iNMJ/tsAEnIkopi/To6MX3G+HJn0qoSVyxyVDdckHo17Ielo4C478S1eW9SGqMSqBtTdJXnMtRTB8MiBDA=="
            }
          },
          null,
          {
            "validator_address": "60229E2E273297FE00219E46DFFB8F76844CDEF9",
            "validator_index": "36",
            "height": "12995",
            "round": "1",
            "timestamp": "2018-07-31T03:28:51.766041303Z",
            "type": 2,
            "block_id": {
              "hash": "8CAE024290C596583D8DE10C32F62E67E3CB8C8D",
              "parts": {
                "total": "1",
                "hash": "8BB299081522A76034E3C068F7519B722E5F6888"
              }
            },
            "signature": {
              "type": "tendermint/SignatureEd25519",
              "value": "X28H3AZun57Ox6dvoSiuZtbWKbGhfYRoVnIvSsEyFcK/wmdl2JPgAOnRk3/Q5eVHUmmXYjiSonJSozxt2CXiBA=="
            }
          },
          {
            "validator_address": "62410D6D1CD98278136E4D0738AA0EA273CDFC54",
            "validator_index": "37",
            "height": "12995",
            "round": "1",
            "timestamp": "2018-07-31T03:28:52.692106752Z",
            "type": 2,
            "block_id": {
              "hash": "8CAE024290C596583D8DE10C32F62E67E3CB8C8D",
              "parts": {
                "total": "1",
                "hash": "8BB299081522A76034E3C068F7519B722E5F6888"
              }
            },
            "signature": {
              "type": "tendermint/SignatureEd25519",
              "value": "0yicLNLTUMpMpAA2kXnoJUOlg593vZnp1NTDbrS0wcBpvw2HLfS+PzFWH8Qq64rL1U8XWceR4i6UCt7AK4tvBg=="
            }
          },
          {
            "validator_address": "632F5C139A5A9DFBFE5111DEE29FCFB6157207DC",
            "validator_index": "38",
            "height": "12995",
            "round": "1",
            "timestamp": "2018-07-31T03:28:52.822639895Z",
            "type": 2,
            "block_id": {
              "hash": "8CAE024290C596583D8DE10C32F62E67E3CB8C8D",
              "parts": {
                "total": "1",
                "hash": "8BB299081522A76034E3C068F7519B722E5F6888"
              }
            },
            "signature": {
              "type": "tendermint/SignatureEd25519",
              "value": "CWXhvL/cCaBdfuYVGI/1LcgAS8vR9qFgX72pTl+n7H1YWpYkEnkp1crV9Bnagllzs8mrn4aUEIgku+iSQ5j2DA=="
            }
          },
          {
            "validator_address": "64F57F8E796A9B7B590C1EFA4123988C86631D39",
            "validator_index": "39",
            "height": "12995",
            "round": "1",
            "timestamp": "2018-07-31T03:28:52.732193575Z",
            "type": 2,
            "block_id": {
              "hash": "8CAE024290C596583D8DE10C32F62E67E3CB8C8D",
              "parts": {
                "total": "1",
                "hash": "8BB299081522A76034E3C068F7519B722E5F6888"
              }
            },
            "signature": {
              "type": "tendermint/SignatureEd25519",
              "value": "6HQWTgNQ1iho+TXZ9FtR5GGj7YWZ/vZZe4/Lr4gN1ynzW8pZaIqTlBTcpxU8FDjbPX8Dc7WiXC9tb346uBJIAQ=="
            }
          },
          {
            "validator_address": "69D99B2C66043ACBEAA8447525C356AFC6408E0C",
            "validator_index": "40",
            "height": "12995",
            "round": "1",
            "timestamp": "2018-07-31T03:28:52.785525793Z",
            "type": 2,
            "block_id": {
              "hash": "8CAE024290C596583D8DE10C32F62E67E3CB8C8D",
              "parts": {
                "total": "1",
                "hash": "8BB299081522A76034E3C068F7519B722E5F6888"
              }
            },
            "signature": {
              "type": "tendermint/SignatureEd25519",
              "value": "LmvBCPe+J7VXtc6sEtRpJPU+ytVYnZuYzBr0AZrHhQIpKPRN/MtXB4ffnqzNK8i8BEtqgXfO7jaZImgKZ7hEDQ=="
            }
          },
          {
            "validator_address": "69EDADFA4A803E9DBF548C900D4A465E7D154262",
            "validator_index": "41",
            "height": "12995",
            "round": "1",
            "timestamp": "2018-07-31T03:28:52.883947372Z",
            "type": 2,
            "block_id": {
              "hash": "8CAE024290C596583D8DE10C32F62E67E3CB8C8D",
              "parts": {
                "total": "1",
                "hash": "8BB299081522A76034E3C068F7519B722E5F6888"
              }
            },
            "signature": {
              "type": "tendermint/SignatureEd25519",
              "value": "oB/M7rO3MTOU+rCQU5Mrmu97R0kSkn20DobIcavpQ2mbIHKjl25+AFfB1DknPrZHK/FlMIe8WoUwza/V0mTdAg=="
            }
          },
          {
            "validator_address": "6D3AD380E398D8592B03AA124BAFED5F125DF863",
            "validator_index": "42",
            "height": "12995",
            "round": "1",
            "timestamp": "2018-07-31T03:27:51.074397261Z",
            "type": 2,
            "block_id": {
              "hash": "8CAE024290C596583D8DE10C32F62E67E3CB8C8D",
              "parts": {
                "total": "1",
                "hash": "8BB299081522A76034E3C068F7519B722E5F6888"
              }
            },
            "signature": {
              "type": "tendermint/SignatureEd25519",
              "value": "qWd6pmaN5YI8qHGs2rFc7I3gScYlW9s3YaltF5MnmxMrXrqe4jDQ5pQZu7qh2MDKo6Nlvdf3wqlkgMO4ldXQDQ=="
            }
          },
          {
            "validator_address": "6F6C93B8BF3495063FEC9B5C771158607F4AE9D6",
            "validator_index": "43",
            "height": "12995",
            "round": "1",
            "timestamp": "2018-07-31T03:28:52.857233904Z",
            "type": 2,
            "block_id": {
              "hash": "8CAE024290C596583D8DE10C32F62E67E3CB8C8D",
              "parts": {
                "total": "1",
                "hash": "8BB299081522A76034E3C068F7519B722E5F6888"
              }
            },
            "signature": {
              "type": "tendermint/SignatureEd25519",
              "value": "ud7MJG86T5bQaAQ/xFU65fk/lyC/aQPvkB7zV8WTZMf1wUx2+1EHF06x4R8bI6P9dyjDRi262CP2M1aMw8DTBg=="
            }
          },
          {
            "validator_address": "732CEEF54C374DDC6ADECBFD707AEFD07FEDC143",
            "validator_index": "44",
            "height": "12995",
            "round": "1",
            "timestamp": "2018-07-31T03:28:52.823129658Z",
            "type": 2,
            "block_id": {
              "hash": "8CAE024290C596583D8DE10C32F62E67E3CB8C8D",
              "parts": {
                "total": "1",
                "hash": "8BB299081522A76034E3C068F7519B722E5F6888"
              }
            },
            "signature": {
              "type": "tendermint/SignatureEd25519",
              "value": "sgSQxCXD/IeLPt0yCffvxcPA9pL4uGmv9pz54Zpe/vfovuxjVUc928C7smD++0hYl/V3SxOjb7XbuKX/zpoyCg=="
            }
          },
          {
            "validator_address": "7393D691BFAE9661918C09932D4D9060AB40939B",
            "validator_index": "45",
            "height": "12995",
            "round": "1",
            "timestamp": "2018-07-31T03:28:53.005480823Z",
            "type": 2,
            "block_id": {
              "hash": "8CAE024290C596583D8DE10C32F62E67E3CB8C8D",
              "parts": {
                "total": "1",
                "hash": "8BB299081522A76034E3C068F7519B722E5F6888"
              }
            },
            "signature": {
              "type": "tendermint/SignatureEd25519",
              "value": "kVoDnlVjolureLoM9DvKflnUg7dG1/lWQnPVlp5WB4ezZyXlqJz7lTj0tsy9HPbZScwW5cxGBCSHsm2QMWA1AQ=="
            }
          },
          {
            "validator_address": "751E43437224E8BB6D1569B3E2B2616B6E7F4397",
            "validator_index": "46",
            "height": "12995",
            "round": "1",
            "timestamp": "2018-07-31T03:28:52.772359106Z",
            "type": 2,
            "block_id": {
              "hash": "8CAE024290C596583D8DE10C32F62E67E3CB8C8D",
              "parts": {
                "total": "1",
                "hash": "8BB299081522A76034E3C068F7519B722E5F6888"
              }
            },
            "signature": {
              "type": "tendermint/SignatureEd25519",
              "value": "LERz8inFE3tZs3/g7oK3MkMtePX6CAz6BbEh9U05GL/B0yWkZf/Gm0RiNQg2lr64VAYv7N5UthRv1F+qT/0hAA=="
            }
          },
          {
            "validator_address": "7EB7593F519F1180C7E872D0494611464EDF03AE",
            "validator_index": "47",
            "height": "12995",
            "round": "1",
            "timestamp": "2018-07-31T03:28:52.771550225Z",
            "type": 2,
            "block_id": {
              "hash": "8CAE024290C596583D8DE10C32F62E67E3CB8C8D",
              "parts": {
                "total": "1",
                "hash": "8BB299081522A76034E3C068F7519B722E5F6888"
              }
            },
            "signature": {
              "type": "tendermint/SignatureEd25519",
              "value": "kkjeEEfA3UkQ4CP4m7laoIpsHLH5bYtR8tOchosRVtOMo8gdAU4OxUIwEJzhmcLNZ6UCC5+AFpuPh/iF3OCEAg=="
            }
          },
          {
            "validator_address": "807CF675BA8479FC4FEC1047215DF07970040F1F",
            "validator_index": "48",
            "height": "12995",
            "round": "1",
            "timestamp": "2018-07-31T03:28:52.899498259Z",
            "type": 2,
            "block_id": {
              "hash": "8CAE024290C596583D8DE10C32F62E67E3CB8C8D",
              "parts": {
                "total": "1",
                "hash": "8BB299081522A76034E3C068F7519B722E5F6888"
              }
            },
            "signature": {
              "type": "tendermint/SignatureEd25519",
              "value": "S6yQYYN0BVg5hhu/2MDXxNJ9gFM5K9eZU7uKUKa2nZjghrLPa1KPC1EMkTMPMl/tzUa23q0Y6nCpPPWTYXg+Cw=="
            }
          },
          {
            "validator_address": "8126192EA66E8ADE6B36924534721366B987A4C1",
            "validator_index": "49",
            "height": "12995",
            "round": "1",
            "timestamp": "2018-07-31T03:28:52.804904996Z",
            "type": 2,
            "block_id": {
              "hash": "8CAE024290C596583D8DE10C32F62E67E3CB8C8D",
              "parts": {
                "total": "1",
                "hash": "8BB299081522A76034E3C068F7519B722E5F6888"
              }
            },
            "signature": {
              "type": "tendermint/SignatureEd25519",
              "value": "fu9sRUrL3nWBGa+Y+DNluqmzq9XkNb+VBfbl7PxraPDQl8hZDRJs60bSXsoybluHbis3/co/5pz1Ad/OXsPaAw=="
            }
          },
          {
            "validator_address": "83AB321E012C57746689FED3A6064DF331F81007",
            "validator_index": "50",
            "height": "12995",
            "round": "1",
            "timestamp": "2018-07-31T03:28:52.795382794Z",
            "type": 2,
            "block_id": {
              "hash": "8CAE024290C596583D8DE10C32F62E67E3CB8C8D",
              "parts": {
                "total": "1",
                "hash": "8BB299081522A76034E3C068F7519B722E5F6888"
              }
            },
            "signature": {
              "type": "tendermint/SignatureEd25519",
              "value": "ITFJaD/9fItmqT1B7/LlkmkVxp09E0yxmvzMEisnK6TBpe4ek3R9CKJ1svMkepCDqLyqhGrNt1DZU4FT9Yg6AA=="
            }
          },
          {
            "validator_address": "83BB1B88D3DBB20AD845FECA07749EBD87D3754D",
            "validator_index": "51",
            "height": "12995",
            "round": "1",
            "timestamp": "2018-07-31T03:28:52.985704207Z",
            "type": 2,
            "block_id": {
              "hash": "8CAE024290C596583D8DE10C32F62E67E3CB8C8D",
              "parts": {
                "total": "1",
                "hash": "8BB299081522A76034E3C068F7519B722E5F6888"
              }
            },
            "signature": {
              "type": "tendermint/SignatureEd25519",
              "value": "HPq31lJ3OLiSqPbs8xQFnonKZoCxqscYtyJtDevipURbtk1LwyZhwM+rXE75hvB0va0qIzdEohQ1MupR9+XFAQ=="
            }
          },
          {
            "validator_address": "8F06FE1FD042683C426137FBC4BBAA4288924217",
            "validator_index": "52",
            "height": "12995",
            "round": "1",
            "timestamp": "2018-07-31T03:28:52.818919704Z",
            "type": 2,
            "block_id": {
              "hash": "8CAE024290C596583D8DE10C32F62E67E3CB8C8D",
              "parts": {
                "total": "1",
                "hash": "8BB299081522A76034E3C068F7519B722E5F6888"
              }
            },
            "signature": {
              "type": "tendermint/SignatureEd25519",
              "value": "1XOSBbJyQJeeqMz9DTYWKHAOlsXtc9tmN8Z+R+ceTmYobVaotX+mSkpElGeOj2NqY/YrYHQfrqV2iGmRQhdlCw=="
            }
          },
          {
            "validator_address": "8F45617BF45B10A3F8283DEBDB35E38C7CA43237",
            "validator_index": "53",
            "height": "12995",
            "round": "1",
            "timestamp": "2018-07-31T03:28:52.757415019Z",
            "type": 2,
            "block_id": {
              "hash": "8CAE024290C596583D8DE10C32F62E67E3CB8C8D",
              "parts": {
                "total": "1",
                "hash": "8BB299081522A76034E3C068F7519B722E5F6888"
              }
            },
            "signature": {
              "type": "tendermint/SignatureEd25519",
              "value": "cFjtu0i1s5WVhm1UsaknD0fwm2bMn7r15Z1FrcmDuw+bPM1MD7CHpv1fd0bBrTECRWWp6HmD29CSxFpTh/oLDQ=="
            }
          },
          {
            "validator_address": "95980831E186F2540F6E9FB6C8E74DE2401405AC",
            "validator_index": "54",
            "height": "12995",
            "round": "1",
            "timestamp": "2018-07-31T03:28:52.73031713Z",
            "type": 2,
            "block_id": {
              "hash": "8CAE024290C596583D8DE10C32F62E67E3CB8C8D",
              "parts": {
                "total": "1",
                "hash": "8BB299081522A76034E3C068F7519B722E5F6888"
              }
            },
            "signature": {
              "type": "tendermint/SignatureEd25519",
              "value": "HHZdRwX/aWBP2SLl2dUn3XwOlKCAwfByZ8+gumCczjbrngRX8OCMWfv3HLdwSAZv/HSf/+UmGxMPYh6OQEhUCg=="
            }
          },
          {
            "validator_address": "95FAFBC1E0579C83D290A063020CE87C5334BD9B",
            "validator_index": "55",
            "height": "12995",
            "round": "1",
            "timestamp": "2018-07-31T03:28:52.764993638Z",
            "type": 2,
            "block_id": {
              "hash": "8CAE024290C596583D8DE10C32F62E67E3CB8C8D",
              "parts": {
                "total": "1",
                "hash": "8BB299081522A76034E3C068F7519B722E5F6888"
              }
            },
            "signature": {
              "type": "tendermint/SignatureEd25519",
              "value": "587HX2rpyIyrZuO4DSlgUbVPyQoicBo+ZvNGgaZvKmA5xns1r67D0M+wii5VRhc0i10eMmWnDhDYl5URnhJ6BA=="
            }
          },
          {
            "validator_address": "96BDE45EC52606CF5CB59853097871AD60680549",
            "validator_index": "56",
            "height": "12995",
            "round": "1",
            "timestamp": "2018-07-31T03:28:52.732378004Z",
            "type": 2,
            "block_id": {
              "hash": "8CAE024290C596583D8DE10C32F62E67E3CB8C8D",
              "parts": {
                "total": "1",
                "hash": "8BB299081522A76034E3C068F7519B722E5F6888"
              }
            },
            "signature": {
              "type": "tendermint/SignatureEd25519",
              "value": "I722CV2BvTp0gEBrqpUhLqo8w7nXXvc3f/AAL4SSfQDo4hcNnCbYHMa8BsofFVE+e/GKAgfiOeO4jKLf6RyyAA=="
            }
          },
          {
            "validator_address": "970CD321881185BF83DB2923C321B0E75FDBB2B8",
            "validator_index": "57",
            "height": "12995",
            "round": "1",
            "timestamp": "2018-07-31T03:28:52.835632497Z",
            "type": 2,
            "block_id": {
              "hash": "8CAE024290C596583D8DE10C32F62E67E3CB8C8D",
              "parts": {
                "total": "1",
                "hash": "8BB299081522A76034E3C068F7519B722E5F6888"
              }
            },
            "signature": {
              "type": "tendermint/SignatureEd25519",
              "value": "fRHrRGvmcHgJbpMhLHN13lYJIrokk5GeR35mApjM31xPJFS0EBNm37/+3eN4Kpbtha89izMajb0/SqroJPwxAg=="
            }
          },
          {
            "validator_address": "97DBB3D4B3D6C29287244864448F651DD5B07390",
            "validator_index": "58",
            "height": "12995",
            "round": "1",
            "timestamp": "2018-07-31T03:28:52.975958058Z",
            "type": 2,
            "block_id": {
              "hash": "8CAE024290C596583D8DE10C32F62E67E3CB8C8D",
              "parts": {
                "total": "1",
                "hash": "8BB299081522A76034E3C068F7519B722E5F6888"
              }
            },
            "signature": {
              "type": "tendermint/SignatureEd25519",
              "value": "A5Tn5LYSPyLbdqEgznqJBOJL0qQiU1Hhmw3XpI1s4EWqccD/CpfiUZ666iNnK5gsSi/JOz5Wo4IxJHsqcRmoDg=="
            }
          },
          {
            "validator_address": "9C29C9B76D27586E4D9AD2AED0E943162645E55C",
            "validator_index": "59",
            "height": "12995",
            "round": "1",
            "timestamp": "2018-07-31T03:28:52.70292366Z",
            "type": 2,
            "block_id": {
              "hash": "8CAE024290C596583D8DE10C32F62E67E3CB8C8D",
              "parts": {
                "total": "1",
                "hash": "8BB299081522A76034E3C068F7519B722E5F6888"
              }
            },
            "signature": {
              "type": "tendermint/SignatureEd25519",
              "value": "Fz6s5sQaq2YkRxTxqi+aA2epGvCAUh37kxdHhWOhecMl9PHadfB6m2X6yltUxIDepetwee3SLD9fbI1R+QKhCg=="
            }
          },
          {
            "validator_address": "9D93AD02FE1BD7E76B9E58D7EB461088EAD011E5",
            "validator_index": "60",
            "height": "12995",
            "round": "1",
            "timestamp": "2018-07-31T03:28:52.731824874Z",
            "type": 2,
            "block_id": {
              "hash": "8CAE024290C596583D8DE10C32F62E67E3CB8C8D",
              "parts": {
                "total": "1",
                "hash": "8BB299081522A76034E3C068F7519B722E5F6888"
              }
            },
            "signature": {
              "type": "tendermint/SignatureEd25519",
              "value": "p5I+AQ5JIscdn5c1S0XGupM8CZZxJG2vVzL6NjhVWTnt3AUnc5Wx0CbCc4dB1RlvmigOVNoHeVWWBftiQKaBBw=="
            }
          },
          {
            "validator_address": "A0A6466F4ABEA09C3B55E3709AFDE217A103209F",
            "validator_index": "61",
            "height": "12995",
            "round": "1",
            "timestamp": "2018-07-31T03:28:52.73021409Z",
            "type": 2,
            "block_id": {
              "hash": "8CAE024290C596583D8DE10C32F62E67E3CB8C8D",
              "parts": {
                "total": "1",
                "hash": "8BB299081522A76034E3C068F7519B722E5F6888"
              }
            },
            "signature": {
              "type": "tendermint/SignatureEd25519",
              "value": "EfJ8sUBh37oL7/ppTu1WfRw/oZnfQWXwVx+EzW6zB3K7Oy0MZS3m1iPcZRsDLURz2E9VBSbK98DqaYyiu9ReAQ=="
            }
          },
          {
            "validator_address": "A5868971300F155020634D7BB49C7634F7AACCD3",
            "validator_index": "62",
            "height": "12995",
            "round": "1",
            "timestamp": "2018-07-31T03:28:52.765145897Z",
            "type": 2,
            "block_id": {
              "hash": "8CAE024290C596583D8DE10C32F62E67E3CB8C8D",
              "parts": {
                "total": "1",
                "hash": "8BB299081522A76034E3C068F7519B722E5F6888"
              }
            },
            "signature": {
              "type": "tendermint/SignatureEd25519",
              "value": "a9dF2ck0CgyF35szoburatuLxWCRCkkaM9uoyoPLDwJ0e302TBuibLyKO0TcEo50VpiDhQa0Y4Pi22vUkO2FCQ=="
            }
          },
          {
            "validator_address": "A6B3A5B5D982CFD7B5FDFA15CF5A720E7AE25E7F",
            "validator_index": "63",
            "height": "12995",
            "round": "1",
            "timestamp": "2018-07-31T03:28:52.716090976Z",
            "type": 2,
            "block_id": {
              "hash": "8CAE024290C596583D8DE10C32F62E67E3CB8C8D",
              "parts": {
                "total": "1",
                "hash": "8BB299081522A76034E3C068F7519B722E5F6888"
              }
            },
            "signature": {
              "type": "tendermint/SignatureEd25519",
              "value": "EvWwZIUpAHj7P52tIIgq3RGyi7Q2E5/T9CaRn+rKcTwD8HLXeKNhEHErTQ14KA5wtQKKURCCibZjAq2LB8MSDQ=="
            }
          },
          {
            "validator_address": "AC96444A9083890B7C7B430DB17BF1D3EA5EED04",
            "validator_index": "64",
            "height": "12995",
            "round": "1",
            "timestamp": "2018-07-31T03:28:52.867997094Z",
            "type": 2,
            "block_id": {
              "hash": "8CAE024290C596583D8DE10C32F62E67E3CB8C8D",
              "parts": {
                "total": "1",
                "hash": "8BB299081522A76034E3C068F7519B722E5F6888"
              }
            },
            "signature": {
              "type": "tendermint/SignatureEd25519",
              "value": "+SBJ+gv0s80XQbQa8j/TFhMe7tv1/eehHVnA+zUikWxtjfKeUEw24si5V07LHe5Bsxrb+oHnontE4TnOlWy0BA=="
            }
          },
          {
            "validator_address": "ACB97FDA2D940AF0709B73537C458EB988AD2893",
            "validator_index": "65",
            "height": "12995",
            "round": "1",
            "timestamp": "2018-07-31T03:28:52.687906236Z",
            "type": 2,
            "block_id": {
              "hash": "8CAE024290C596583D8DE10C32F62E67E3CB8C8D",
              "parts": {
                "total": "1",
                "hash": "8BB299081522A76034E3C068F7519B722E5F6888"
              }
            },
            "signature": {
              "type": "tendermint/SignatureEd25519",
              "value": "B7bt8YZWE8GeDjPqwBlYA4/IbnfVRdH4p3a4YHH2ZvXA2d+Ops7RjulmBiEAuwQ0R4xCnXa22I2mF9ZSshTRAg=="
            }
          },
          {
            "validator_address": "B197425B3210375F211661DE02EF2AE36580EB0F",
            "validator_index": "66",
            "height": "12995",
            "round": "1",
            "timestamp": "2018-07-31T03:28:52.712433175Z",
            "type": 2,
            "block_id": {
              "hash": "8CAE024290C596583D8DE10C32F62E67E3CB8C8D",
              "parts": {
                "total": "1",
                "hash": "8BB299081522A76034E3C068F7519B722E5F6888"
              }
            },
            "signature": {
              "type": "tendermint/SignatureEd25519",
              "value": "RrzACjTOlqheNj5GE6B/B5XU1UhViYDsx8o3QUJAma1NK1gIdw9xKUKUNFtrND3J2GXdEaZNfLY7y8erSEIiAw=="
            }
          },
          {
            "validator_address": "B45E54D2D1CB5A4CCD1D49016608C18E7C56B270",
            "validator_index": "67",
            "height": "12995",
            "round": "1",
            "timestamp": "2018-07-31T03:28:52.91307249Z",
            "type": 2,
            "block_id": {
              "hash": "8CAE024290C596583D8DE10C32F62E67E3CB8C8D",
              "parts": {
                "total": "1",
                "hash": "8BB299081522A76034E3C068F7519B722E5F6888"
              }
            },
            "signature": {
              "type": "tendermint/SignatureEd25519",
              "value": "5GCooTc9kRT1o5VMsPziOK4svEAN10XIXK6CNWpguWyvR0mW+AdTW69MNAWxf+5OY3WYrqHfiPqHUWUc9/TDBw=="
            }
          },
          {
            "validator_address": "B59A34C0BE4EC73AF6A67D274F1695C9259C237C",
            "validator_index": "68",
            "height": "12995",
            "round": "1",
            "timestamp": "2018-07-31T03:28:52.932391024Z",
            "type": 2,
            "block_id": {
              "hash": "8CAE024290C596583D8DE10C32F62E67E3CB8C8D",
              "parts": {
                "total": "1",
                "hash": "8BB299081522A76034E3C068F7519B722E5F6888"
              }
            },
            "signature": {
              "type": "tendermint/SignatureEd25519",
              "value": "oizRBuQrEhqgi0t6oe7oOtg0vvOwgeiy46nopN2PLUjQFRVm7966+zo7M20kvMvVu9tJ5YSlfYeqNTp0onJxAg=="
            }
          },
          {
            "validator_address": "BB1276BE89834835428664408917649FEEF5D90C",
            "validator_index": "69",
            "height": "12995",
            "round": "1",
            "timestamp": "2018-07-31T03:28:52.847131058Z",
            "type": 2,
            "block_id": {
              "hash": "8CAE024290C596583D8DE10C32F62E67E3CB8C8D",
              "parts": {
                "total": "1",
                "hash": "8BB299081522A76034E3C068F7519B722E5F6888"
              }
            },
            "signature": {
              "type": "tendermint/SignatureEd25519",
              "value": "3Vqlo50AzPNsFbNjHQwVFIWxuLxHHDoZEtWj90h1FLCwbQ8vZtCyApdQIdFZYhy45wADEhWLU7wqW5l9Qi3VDw=="
            }
          },
          {
            "validator_address": "BC36FEDD6EF6071118A3E51859DF3831A2EC4782",
            "validator_index": "70",
            "height": "12995",
            "round": "1",
            "timestamp": "2018-07-31T03:28:52.738447441Z",
            "type": 2,
            "block_id": {
              "hash": "8CAE024290C596583D8DE10C32F62E67E3CB8C8D",
              "parts": {
                "total": "1",
                "hash": "8BB299081522A76034E3C068F7519B722E5F6888"
              }
            },
            "signature": {
              "type": "tendermint/SignatureEd25519",
              "value": "po6rdo3gitYNuMSdzraxsF1eGHMJwJxKQt/XDoTaWjY+GsG4WsNG4tC7UdFw89pvoeCc3TlOBFIeq/EYeXarDQ=="
            }
          },
          {
            "validator_address": "BD9D0DA513BF099DB4BB6E725A4E19832789882F",
            "validator_index": "71",
            "height": "12995",
            "round": "1",
            "timestamp": "2018-07-31T03:28:52.735921155Z",
            "type": 2,
            "block_id": {
              "hash": "8CAE024290C596583D8DE10C32F62E67E3CB8C8D",
              "parts": {
                "total": "1",
                "hash": "8BB299081522A76034E3C068F7519B722E5F6888"
              }
            },
            "signature": {
              "type": "tendermint/SignatureEd25519",
              "value": "pTbZ39dQSJwfDfpyBWCUGvmLGZsB5zTHt2DoMuwiKkcf1cJCixr9lX+rYm5GltrmPb6shTAZUkxPqEg6p53NAA=="
            }
          },
          {
            "validator_address": "C1134A2FF8F7338E7CDB3FE57DDD2A655DEB1E22",
            "validator_index": "72",
            "height": "12995",
            "round": "1",
            "timestamp": "2018-07-31T03:28:52.912932433Z",
            "type": 2,
            "block_id": {
              "hash": "8CAE024290C596583D8DE10C32F62E67E3CB8C8D",
              "parts": {
                "total": "1",
                "hash": "8BB299081522A76034E3C068F7519B722E5F6888"
              }
            },
            "signature": {
              "type": "tendermint/SignatureEd25519",
              "value": "CTmaRH4EPrft/wfyjRX5mtkGbxECKlXSsoGHtg8IdiIkZENt3v76ymELMCk4zBwQagAO3ASbN7giCzfZMrfZBA=="
            }
          },
          {
            "validator_address": "C39A8A2B85198DCB8F23AD1F6C198E2BA7AB5D60",
            "validator_index": "73",
            "height": "12995",
            "round": "1",
            "timestamp": "2018-07-31T03:28:52.762113904Z",
            "type": 2,
            "block_id": {
              "hash": "8CAE024290C596583D8DE10C32F62E67E3CB8C8D",
              "parts": {
                "total": "1",
                "hash": "8BB299081522A76034E3C068F7519B722E5F6888"
              }
            },
            "signature": {
              "type": "tendermint/SignatureEd25519",
              "value": "GREmkzpuenOzjmCzWTe0o9Lo2QZZTYTX5RtCsPkN/gC/6LuAdtjXoTT7tn/6JANQhYXfYs7v2boT6APotZExAA=="
            }
          },
          {
            "validator_address": "C4335190C3B5BD4BA5568BC0F99C34162D940D08",
            "validator_index": "74",
            "height": "12995",
            "round": "1",
            "timestamp": "2018-07-31T03:28:52.80712768Z",
            "type": 2,
            "block_id": {
              "hash": "8CAE024290C596583D8DE10C32F62E67E3CB8C8D",
              "parts": {
                "total": "1",
                "hash": "8BB299081522A76034E3C068F7519B722E5F6888"
              }
            },
            "signature": {
              "type": "tendermint/SignatureEd25519",
              "value": "fyaZPp9xMo/4M5xJBnu6ZsNQLkmiOogOYkS4TjH5s2dC20oZGfruxysZZ/4p6rdBjo+TH89u0bCCZkig47sXBA=="
            }
          },
          {
            "validator_address": "C561CFA081677046376396922E7576E5F7B316AD",
            "validator_index": "75",
            "height": "12995",
            "round": "1",
            "timestamp": "2018-07-31T03:28:52.874003528Z",
            "type": 2,
            "block_id": {
              "hash": "8CAE024290C596583D8DE10C32F62E67E3CB8C8D",
              "parts": {
                "total": "1",
                "hash": "8BB299081522A76034E3C068F7519B722E5F6888"
              }
            },
            "signature": {
              "type": "tendermint/SignatureEd25519",
              "value": "RRYek8zbcIo/rxnk+xCtWj+o7tK5GnTxQSCWFXCjmGGz/oGcjpOBvi24Wgh9abqzTKLokjhQP0HV3WDOQnmmCg=="
            }
          },
          {
            "validator_address": "CE589EA77B056D268D30D1DC1D68A70E0F885E95",
            "validator_index": "76",
            "height": "12995",
            "round": "1",
            "timestamp": "2018-07-31T03:28:52.848680242Z",
            "type": 2,
            "block_id": {
              "hash": "8CAE024290C596583D8DE10C32F62E67E3CB8C8D",
              "parts": {
                "total": "1",
                "hash": "8BB299081522A76034E3C068F7519B722E5F6888"
              }
            },
            "signature": {
              "type": "tendermint/SignatureEd25519",
              "value": "243ZbegD56jqEThCuh8CzvxAbEeNdm58qFTauqylinh7wYGNhdhzzBjh5dKTPi5jPOAHJp4dhxfVo4mJISBbDQ=="
            }
          },
          {
            "validator_address": "CEB97DB5CB18270247ABDE6CF2F84F9AEE8A2904",
            "validator_index": "77",
            "height": "12995",
            "round": "1",
            "timestamp": "2018-07-31T03:28:52.76477649Z",
            "type": 2,
            "block_id": {
              "hash": "8CAE024290C596583D8DE10C32F62E67E3CB8C8D",
              "parts": {
                "total": "1",
                "hash": "8BB299081522A76034E3C068F7519B722E5F6888"
              }
            },
            "signature": {
              "type": "tendermint/SignatureEd25519",
              "value": "eBfYe4JcqE2Dx2Uf3kFmrMmtPBScySZS3eqw/YTA0vKGk2PkqD8XLZMyQLZIlVny+8dondkHQL+23tig2lGOBA=="
            }
          },
          {
            "validator_address": "CF205769734F5758CC39F907EFB73D6BAF915FB1",
            "validator_index": "78",
            "height": "12995",
            "round": "1",
            "timestamp": "2018-07-31T03:28:52.897655894Z",
            "type": 2,
            "block_id": {
              "hash": "8CAE024290C596583D8DE10C32F62E67E3CB8C8D",
              "parts": {
                "total": "1",
                "hash": "8BB299081522A76034E3C068F7519B722E5F6888"
              }
            },
            "signature": {
              "type": "tendermint/SignatureEd25519",
              "value": "d4jYjD8tGLv/MiUAeYVQC8UqzM83epDPDvdyY/ds9Md1QosOSqhR7IFW0/PY7HQGyRcvs/WlR4DNXIWQQSFKBg=="
            }
          },
          {
            "validator_address": "D2134B826A1E25A955905CB79A4D8731CAFA0CCE",
            "validator_index": "79",
            "height": "12995",
            "round": "1",
            "timestamp": "2018-07-31T03:28:52.840741942Z",
            "type": 2,
            "block_id": {
              "hash": "8CAE024290C596583D8DE10C32F62E67E3CB8C8D",
              "parts": {
                "total": "1",
                "hash": "8BB299081522A76034E3C068F7519B722E5F6888"
              }
            },
            "signature": {
              "type": "tendermint/SignatureEd25519",
              "value": "U68pmWdUveYpZd1ahRdO00UwWSoCvGD8/mL3+H97nQ7KNFmgRLQHUNChYYbWEH0PkR/9pd54HS+6xJyi9aTNDg=="
            }
          },
          {
            "validator_address": "D6285C3422C8886445D53757CBE12D2B91B5A9D0",
            "validator_index": "80",
            "height": "12995",
            "round": "1",
            "timestamp": "2018-07-31T03:28:35.211859655Z",
            "type": 2,
            "block_id": {
              "hash": "8CAE024290C596583D8DE10C32F62E67E3CB8C8D",
              "parts": {
                "total": "1",
                "hash": "8BB299081522A76034E3C068F7519B722E5F6888"
              }
            },
            "signature": {
              "type": "tendermint/SignatureEd25519",
              "value": "/ppfoZytZudqzgNuUTCM9OFFUqx6BrZ2f2cG8foasrzosP4KvAOaPxhejnsXbw9REahaiBEeHw4vF7hv9I63Cw=="
            }
          },
          {
            "validator_address": "DB7E6732471D3EA5C90C17A9974D9F88AB45F2FB",
            "validator_index": "81",
            "height": "12995",
            "round": "1",
            "timestamp": "2018-07-31T03:28:52.823344765Z",
            "type": 2,
            "block_id": {
              "hash": "8CAE024290C596583D8DE10C32F62E67E3CB8C8D",
              "parts": {
                "total": "1",
                "hash": "8BB299081522A76034E3C068F7519B722E5F6888"
              }
            },
            "signature": {
              "type": "tendermint/SignatureEd25519",
              "value": "nIH/thOudA4fb1YLbr3Zx0UIq5aF2cntS+oq2Hdb5XNaLl2cfjctw0qXxp7oGuMfZSZoKhLK8DJs4NTNpnggAA=="
            }
          },
          {
            "validator_address": "DF54B862410BCD9B5C516FBB6C56BDC826ED6FA7",
            "validator_index": "82",
            "height": "12995",
            "round": "1",
            "timestamp": "2018-07-31T03:28:52.872611564Z",
            "type": 2,
            "block_id": {
              "hash": "8CAE024290C596583D8DE10C32F62E67E3CB8C8D",
              "parts": {
                "total": "1",
                "hash": "8BB299081522A76034E3C068F7519B722E5F6888"
              }
            },
            "signature": {
              "type": "tendermint/SignatureEd25519",
              "value": "NLNWH9lVVRrthR8ReQouMumJHN89zKP3nfNfK4+GiSJSegpAfIkbJPLBKwaR6O6VFDG0I6sVxwDmQUcj58DQCQ=="
            }
          },
          {
            "validator_address": "DFAF0C8B1B78D6D552B0189DE3ACA351439A1319",
            "validator_index": "83",
            "height": "12995",
            "round": "1",
            "timestamp": "2018-07-31T03:28:52.761601793Z",
            "type": 2,
            "block_id": {
              "hash": "8CAE024290C596583D8DE10C32F62E67E3CB8C8D",
              "parts": {
                "total": "1",
                "hash": "8BB299081522A76034E3C068F7519B722E5F6888"
              }
            },
            "signature": {
              "type": "tendermint/SignatureEd25519",
              "value": "xfaniDS0DUHGZrseXNQKcSStRZXDjhenC2dj0Eu0kOS4sZ6rRCyMpcsNuMCGYfSSRSy1zr7rr9frgqy70ptIDQ=="
            }
          },
          {
            "validator_address": "E1DBC77881161A5A3A8536A57536EAE546A75D69",
            "validator_index": "84",
            "height": "12995",
            "round": "1",
            "timestamp": "2018-07-31T03:28:52.70920097Z",
            "type": 2,
            "block_id": {
              "hash": "8CAE024290C596583D8DE10C32F62E67E3CB8C8D",
              "parts": {
                "total": "1",
                "hash": "8BB299081522A76034E3C068F7519B722E5F6888"
              }
            },
            "signature": {
              "type": "tendermint/SignatureEd25519",
              "value": "U+P2gBTLTbmPiaknXhXI/+ne2BEwO2wVnuCeiblX4YYQKMIftbuv7KG+KrprQZvr5ET/BuZsYSpvN7pmuQHdBg=="
            }
          },
          {
            "validator_address": "E300E9D484374C1D3E97C1D93CAC3B160A056298",
            "validator_index": "85",
            "height": "12995",
            "round": "1",
            "timestamp": "2018-07-31T03:28:53.108954373Z",
            "type": 2,
            "block_id": {
              "hash": "8CAE024290C596583D8DE10C32F62E67E3CB8C8D",
              "parts": {
                "total": "1",
                "hash": "8BB299081522A76034E3C068F7519B722E5F6888"
              }
            },
            "signature": {
              "type": "tendermint/SignatureEd25519",
              "value": "4UuNIPAeCTdEeq8XxRqC/OnGc1sp6M8DBC7SIYcfdiuDV7pST2doEfuCEt4vCm2Ja5wPOighOrNXJaT42DjrDA=="
            }
          },
          {
            "validator_address": "E39B5778E0D4297A46F45CF6940B0A163A430FF8",
            "validator_index": "86",
            "height": "12995",
            "round": "1",
            "timestamp": "2018-07-31T03:28:52.77493833Z",
            "type": 2,
            "block_id": {
              "hash": "8CAE024290C596583D8DE10C32F62E67E3CB8C8D",
              "parts": {
                "total": "1",
                "hash": "8BB299081522A76034E3C068F7519B722E5F6888"
              }
            },
            "signature": {
              "type": "tendermint/SignatureEd25519",
              "value": "SWxVvBHNIJUOPARYmHnl5z9H0WCsKreEzXYPeAbO6BNJjlfhAUX/FqPUzj0OyLAQGHFSdIwNnOFLYwOJTuImBg=="
            }
          },
          {
            "validator_address": "E3B19738F7132F950668504D326C7660F159D170",
            "validator_index": "87",
            "height": "12995",
            "round": "1",
            "timestamp": "2018-07-31T03:28:52.774334424Z",
            "type": 2,
            "block_id": {
              "hash": "8CAE024290C596583D8DE10C32F62E67E3CB8C8D",
              "parts": {
                "total": "1",
                "hash": "8BB299081522A76034E3C068F7519B722E5F6888"
              }
            },
            "signature": {
              "type": "tendermint/SignatureEd25519",
              "value": "8IAewSGpEpOtk5Nz4Da/61fLkGLM6xaKOjqzYruDW5jV6SUCgqAGZ9yaAoEUeteIhI8P3CC4D5DefaLpbAH8Bw=="
            }
          },
          {
            "validator_address": "E42F8AEABB685219F7027F54D2B0DBC7846F633A",
            "validator_index": "88",
            "height": "12995",
            "round": "1",
            "timestamp": "2018-07-31T03:28:52.00032571Z",
            "type": 2,
            "block_id": {
              "hash": "8CAE024290C596583D8DE10C32F62E67E3CB8C8D",
              "parts": {
                "total": "1",
                "hash": "8BB299081522A76034E3C068F7519B722E5F6888"
              }
            },
            "signature": {
              "type": "tendermint/SignatureEd25519",
              "value": "3XF4aqFfORkUZ3OwCHEbhQ/UUooXYWSoc4tT0CoXX1TP7hHeXGzsAgn/KCMcv+U64qeJb3pzkeCUMj91Nk6TBw=="
            }
          },
          {
            "validator_address": "E4E6C2E81269DFFA196C17F98240E491479A6008",
            "validator_index": "89",
            "height": "12995",
            "round": "1",
            "timestamp": "2018-07-31T03:28:52.860966725Z",
            "type": 2,
            "block_id": {
              "hash": "8CAE024290C596583D8DE10C32F62E67E3CB8C8D",
              "parts": {
                "total": "1",
                "hash": "8BB299081522A76034E3C068F7519B722E5F6888"
              }
            },
            "signature": {
              "type": "tendermint/SignatureEd25519",
              "value": "4MXkchi61p/xQejqahLsSgyMhD/ssVOdAbc8vjn0yxyw0Saqp+2Q3YqzvLYm98xj7UjABXoBNvVeY6/Pm6pqDg=="
            }
          },
          {
            "validator_address": "E7A30077D5D11867D3EAF99ED45BFDC1EB834509",
            "validator_index": "90",
            "height": "12995",
            "round": "1",
            "timestamp": "2018-07-31T03:28:52.758092576Z",
            "type": 2,
            "block_id": {
              "hash": "8CAE024290C596583D8DE10C32F62E67E3CB8C8D",
              "parts": {
                "total": "1",
                "hash": "8BB299081522A76034E3C068F7519B722E5F6888"
              }
            },
            "signature": {
              "type": "tendermint/SignatureEd25519",
              "value": "fQ1nybfyH4Q4HlSMXyV3Aq0hJHss81PoEeEbFuLXDqVFzW4k8G2cGf60uuesGsxDlprxKWImgV3qR5JYEjFnDQ=="
            }
          },
          {
            "validator_address": "EBC613967F66F4EC306852CDF58B4F151CF16738",
            "validator_index": "91",
            "height": "12995",
            "round": "1",
            "timestamp": "2018-07-31T03:28:52.988207145Z",
            "type": 2,
            "block_id": {
              "hash": "8CAE024290C596583D8DE10C32F62E67E3CB8C8D",
              "parts": {
                "total": "1",
                "hash": "8BB299081522A76034E3C068F7519B722E5F6888"
              }
            },
            "signature": {
              "type": "tendermint/SignatureEd25519",
              "value": "mWDUckaFleZiVGHFAtxao6ucYewkVQeoqVVZPlkArkeqZ7Y+6RL/9zjKU2S9pgvZELXc7OfVF2K5taKJL1bCDQ=="
            }
          },
          {
            "validator_address": "EC3401441726C40ECC7E51F744483B05BC6DE9BD",
            "validator_index": "92",
            "height": "12995",
            "round": "1",
            "timestamp": "2018-07-31T03:28:52.765365396Z",
            "type": 2,
            "block_id": {
              "hash": "8CAE024290C596583D8DE10C32F62E67E3CB8C8D",
              "parts": {
                "total": "1",
                "hash": "8BB299081522A76034E3C068F7519B722E5F6888"
              }
            },
            "signature": {
              "type": "tendermint/SignatureEd25519",
              "value": "2eXeyhp0Wp0bBr9O7icYzUkSBRF88vifGdXQtE2gwDKhKif7M/Sjw+YWrkC0BwuoIo2HSfOFQKS5behn/zIlAA=="
            }
          },
          {
            "validator_address": "EC95B111D032181E1EC3B5E8875C5BB8E4AE7140",
            "validator_index": "93",
            "height": "12995",
            "round": "1",
            "timestamp": "2018-07-31T03:28:52.770369502Z",
            "type": 2,
            "block_id": {
              "hash": "8CAE024290C596583D8DE10C32F62E67E3CB8C8D",
              "parts": {
                "total": "1",
                "hash": "8BB299081522A76034E3C068F7519B722E5F6888"
              }
            },
            "signature": {
              "type": "tendermint/SignatureEd25519",
              "value": "aOVgAQgc1roR5TnIOMIoRFoT/G0U/vnzDnLve7xvi11A90R0nmkWaxBdIL3f+i4vPb0xM9TlsMs+HuH9KgE9Bg=="
            }
          },
          {
            "validator_address": "F13C1805E8131C9B47E2A46818F57D8A2841E578",
            "validator_index": "94",
            "height": "12995",
            "round": "1",
            "timestamp": "2018-07-31T03:28:52.789123208Z",
            "type": 2,
            "block_id": {
              "hash": "8CAE024290C596583D8DE10C32F62E67E3CB8C8D",
              "parts": {
                "total": "1",
                "hash": "8BB299081522A76034E3C068F7519B722E5F6888"
              }
            },
            "signature": {
              "type": "tendermint/SignatureEd25519",
              "value": "xEyVFYH0x78N920w+HAX+qNomcAJpeajKGeldMbB2Wtyg51WXWk/J/xFPrAKUvjbs3MDV5JUC2sf2iEJ5qh2CQ=="
            }
          },
          {
            "validator_address": "F23FF36BD5B90C33CE3A03ED72DBDCF5EC07D6AF",
            "validator_index": "95",
            "height": "12995",
            "round": "1",
            "timestamp": "2018-07-31T03:28:52.804826564Z",
            "type": 2,
            "block_id": {
              "hash": "8CAE024290C596583D8DE10C32F62E67E3CB8C8D",
              "parts": {
                "total": "1",
                "hash": "8BB299081522A76034E3C068F7519B722E5F6888"
              }
            },
            "signature": {
              "type": "tendermint/SignatureEd25519",
              "value": "ioptJNnUUfkEuxIf4MBOtOExFzWDvCLzh0vSQKP7t3so3QXw9W6vnjO62HuyduhNEa4+WRGlx54UfVfo8X+ADQ=="
            }
          },
          {
            "validator_address": "F4268597DE93E3E2CED38845010F8AA34E2A879E",
            "validator_index": "96",
            "height": "12995",
            "round": "1",
            "timestamp": "2018-07-31T03:28:52.728161222Z",
            "type": 2,
            "block_id": {
              "hash": "8CAE024290C596583D8DE10C32F62E67E3CB8C8D",
              "parts": {
                "total": "1",
                "hash": "8BB299081522A76034E3C068F7519B722E5F6888"
              }
            },
            "signature": {
              "type": "tendermint/SignatureEd25519",
              "value": "PPbpo/C0jY5Y2LUiuWykvO7/dnqyQaHp0Jn6HzWVIhrLCLj4DTSuoi/MpTSMzxN76Dd/fmHNeGKmPtrms1wkCw=="
            }
          },
          {
            "validator_address": "F4DEB417999B04BE2EFF9FFE03FA373D86011CC0",
            "validator_index": "97",
            "height": "12995",
            "round": "1",
            "timestamp": "2018-07-31T03:28:52.790218383Z",
            "type": 2,
            "block_id": {
              "hash": "8CAE024290C596583D8DE10C32F62E67E3CB8C8D",
              "parts": {
                "total": "1",
                "hash": "8BB299081522A76034E3C068F7519B722E5F6888"
              }
            },
            "signature": {
              "type": "tendermint/SignatureEd25519",
              "value": "aZENXMzogSqLKLvXsxRo0qUJB8sHtqvlK1MYsDxeeJpBfeOack/bIMid9MbXO5CxjBuOLBM+FRrHVZXJgRaYCQ=="
            }
          },
          null,
          {
            "validator_address": "FF3F3FCBCE7E62D7AD5506FF846EC4518D980515",
            "validator_index": "99",
            "height": "12995",
            "round": "1",
            "timestamp": "2018-07-31T03:28:52.743914579Z",
            "type": 2,
            "block_id": {
              "hash": "8CAE024290C596583D8DE10C32F62E67E3CB8C8D",
              "parts": {
                "total": "1",
                "hash": "8BB299081522A76034E3C068F7519B722E5F6888"
              }
            },
            "signature": {
              "type": "tendermint/SignatureEd25519",
              "value": "SDHjOjSmf6cPoQF2j2FWDc+nQse/ziUB5YKdM6Kgwx61yiAh4vMjEa5dN6z2v+nNriymj9PE0d+viwYg6SpyDg=="
            }
          }
        ]
      }
    },
    "canonical": true
  }
}