{
  "jsonrpc": "2.0",
  "id": "",
  "result": {
    "SignedHeader": {
      "header": {
        "chain_id": "gaia-7004",
        "height": "13036",
        "time": "2018-07-31T03:32:54.408156095Z",
        "num_txs": "0",
        "last_block_id": {
          "hash": "00B05D23E7B4E76FB9DD465B1963D0838A3934F2",
          "parts": {
            "total": "1",
            "hash": "16FB8B8B57D509C8421CF07AF4A42290458D1837"
          }
        },
        "total_txs": "567",
        "last_commit_hash": "D8CBF63E972CAD9F1DED0D61C8F2BB4E953C1735",
        "data_hash": "",
        "validators_hash": "D65BDB8EDA0D5719CDD1EC9382E9D76F7C54E60B",
        "consensus_hash": "D6B74BB35BDFFD8392340F2A379173548AE188FE",
        "app_hash": "CBEBB34B75F40BB5F4667476C6C8F4F7461FCD45",
        "last_results_hash": "",
        "evidence_hash": ""
      },
      "commit": {
        "block_id": {
          "hash": "05E01C8DC07832AEC6FAAEB842EAB8A0BB58C8DF",
          "parts": {
            "total": "1",
            "hash": "5C9CC3EB692267E2CAB3E7F07BC2246246D0BD51"
          }
        },
        "precommits": [
          {
            "validator_address": "029359C0C768096273A68ABC902A6B17AC8D1D70",
            "validator_index": "0",
            "height": "13036",
            "round": "1",
            "timestamp": "2018-07-31T03:32:55.263596048Z",
            "type": 2,
            "block_id": {
              "hash": "05E01C8DC07832AEC6FAAEB842EAB8A0BB58C8DF",
              "parts": {
                "total": "1",
                "hash": "5C9CC3EB692267E2CAB3E7F07BC2246246D0BD51"
              }
            },
            "signature": {
              "type": "tendermint/SignatureEd25519",
              "value": "NMW55nd3P1TDzfqEBiF66S1jyw2FivD37jMmWv0Y3XV3xRShkeTfqQYR66o94pPCkOjWrd1y/FguTsYqagNODA=="
            }
          },
          {
            "validator_address": "02FE4B97A8387F39D1AC19E0C1702B3CC614812F",
            "validator_index": "1",
            "height": "13036",
            "round": "1",
            "timestamp": "2018-07-31T03:32:55.216382542Z",
            "type": 2,
            "block_id": {
              "hash": "05E01C8DC07832AEC6FAAEB842EAB8A0BB58C8DF",
              "parts": {
                "total": "1",
                "hash": "5C9CC3EB692267E2CAB3E7F07BC2246246D0BD51"
              }
            },
            "signature": {
              "type": "tendermint/SignatureEd25519",
              "value": "YXcul5BQphd8sdjPWK8kW52BFSfi7fiNL7bIw7wEowdT9Xjps4O12xmgC86JQDSfyYhSVhaIuoJcAelIrGdmBQ=="
            }
          },
          null,
          {
            "validator_address": "09145E611CC27EEB944FC5A956DDF710F943B9EF",
            "validator_index": "3",
            "height": "13036",
            "round": "1",
            "timestamp": "2018-07-31T03:32:55.268129943Z",
            "type": 2,
            "block_id": {
              "hash": "05E01C8DC07832AEC6FAAEB842EAB8A0BB58C8DF",
              "parts": {
                "total": "1",
                "hash": "5C9CC3EB692267E2CAB3E7F07BC2246246D0BD51"
              }
            },
            "signature": {
              "type": "tendermint/SignatureEd25519",
              "value": "bGf0Les6EH1HOAvxZK3EtzeASOCs/w1B5TurlEsKujIVCltM/BJGq+nHIgcXMJkk2js7h/KeEo5tdvCEgC7pCQ=="
            }
          },
          {
            "validator_address": "0989D0355A104B67AE0AE028C68FB610690E174B",
            "validator_index": "4",
            "height": "13036",
            "round": "1",
            "timestamp": "2018-07-31T03:32:55.254880783Z",
            "type": 2,
            "block_id": {
              "hash": "05E01C8DC07832AEC6FAAEB842EAB8A0BB58C8DF",
              "parts": {
                "total": "1",
                "hash": "5C9CC3EB692267E2CAB3E7F07BC2246246D0BD51"
              }
            },
            "signature": {
              "type": "tendermint/SignatureEd25519",
              "value": "zafees7rcwMZF4iMRMEFZBacqG3zCVNFINzqBJLc5uhTUNryHFL2iJh6aaUXoz8kE3U4ppGyDfXf8ZPhaGHYBw=="
            }
          },
          {
            "validator_address": "0A692DBFFE9E5DD28E7DECC33CED1AEB4C0D014E",
            "validator_index": "5",
            "height": "13036",
            "round": "1",
            "timestamp": "2018-07-31T03:32:55.304665161Z",
            "type": 2,
            "block_id": {
              "hash": "05E01C8DC07832AEC6FAAEB842EAB8A0BB58C8DF",
              "parts": {
                "total": "1",
                "hash": "5C9CC3EB692267E2CAB3E7F07BC2246246D0BD51"
              }
            },
            "signature": {
              "type": "tendermint/SignatureEd25519",
              "value": "vBmn/2mIAwztNwMexkcrBwvdxOI93Ti0XzmD+8RWX/87Vrr+77L0wCmIulG120CuFGSe8q7U2EAlSxSGDnZUCw=="
            }
          },
          {
            "validator_address": "0DDF97111D73DB825138EC15EC27DE5FE8536901",
            "validator_index": "6",
            "height": "13036",
            "round": "1",
            "timestamp": "2018-07-31T03:32:55.226458706Z",
            "type": 2,
            "block_id": {
              "hash": "05E01C8DC07832AEC6FAAEB842EAB8A0BB58C8DF",
              "parts": {
                "total": "1",
                "hash": "5C9CC3EB692267E2CAB3E7F07BC2246246D0BD51"
              }
            },
            "signature": {
              "type": "tendermint/SignatureEd25519",
              "value": "cxCecTrTVdYz4eiJOrawdgunq5nnBzQtJQNzcJDVLRzXtEz6GT+sR4sKtZx5qO4G8p3Pwt8IAcz5CEjqOUH/Ag=="
            }
          },
          null,
          {
            "validator_address": "17BB5CD01E8940FAFB948A04D5FA5A0645E5822E",
            "validator_index": "8",
            "height": "13036",
            "round": "1",
            "timestamp": "2018-07-31T03:32:55.203609263Z",
            "type": 2,
            "block_id": {
              "hash": "05E01C8DC07832AEC6FAAEB842EAB8A0BB58C8DF",
              "parts": {
                "total": "1",
                "hash": "5C9CC3EB692267E2CAB3E7F07BC2246246D0BD51"
              }
            },
            "signature": {
              "type": "tendermint/SignatureEd25519",
              "value": "XIMGFrZEUPalvl4aRGKfClQVVER55MZF+6lfkLTSsPeSuf4um5ZothGDRsAbghXl/NsVUG8SgGJFj4lP632BCw=="
            }
          },
          {
            "validator_address": "1C683A87904BC38F05004FE83301A3A3E35447EB",
            "validator_index": "9",
            "height": "13036",
            "round": "1",
            "timestamp": "2018-07-31T03:32:55.216977235Z",
            "type": 2,
            "block_id": {
              "hash": "05E01C8DC07832AEC6FAAEB842EAB8A0BB58C8DF",
              "parts": {
                "total": "1",
                "hash": "5C9CC3EB692267E2CAB3E7F07BC2246246D0BD51"
              }
            },
            "signature": {
              "type": "tendermint/SignatureEd25519",
              "value": "iug6GB94+zCv4NSfW26JFuKq9yCt35Vx1CeRpjRyHRvXajdGb6Z9GIwoAHDz77roWVQbuyaNYhtFc9k2q4utCw=="
            }
          },
          {
            "validator_address": "1E9CE94FD0BA5CFEB901F90BC658D64D85B134D2",
            "validator_index": "10",
            "height": "13036",
            "round": "1",
            "timestamp": "2018-07-31T03:32:55.213204198Z",
            "type": 2,
            "block_id": {
              "hash": "05E01C8DC07832AEC6FAAEB842EAB8A0BB58C8DF",
              "parts": {
                "total": "1",
                "hash": "5C9CC3EB692267E2CAB3E7F07BC2246246D0BD51"
              }
            },
            "signature": {
              "type": "tendermint/SignatureEd25519",
              "value": "YUhXoIjNcp27RSMbh2QpI4WWStFDvrjlbWtROPXyaiwcMQXoATU1IuDN+O6YjfswQ40aqs9uW/cmXMfpPzZHAA=="
            }
          },
          {
            "validator_address": "1ECD8C5FE1341D74CDC633A245DD56858DE2F9A2",
            "validator_index": "11",
            "height": "13036",
            "round": "1",
            "timestamp": "2018-07-31T03:32:55.360541941Z",
            "type": 2,
            "block_id": {
              "hash": "05E01C8DC07832AEC6FAAEB842EAB8A0BB58C8DF",
              "parts": {
                "total": "1",
                "hash": "5C9CC3EB692267E2CAB3E7F07BC2246246D0BD51"
              }
            },
            "signature": {
              "type": "tendermint/SignatureEd25519",
              "value": "Cgwrxt4xF+pYT4KcmvaEgamcKW64nHkksvGQ8d3ALH28/kv1n02d5QfWO1d4RRH11RWzMy/8IgSAmV8IwWPhBQ=="
            }
          },
          {
            "validator_address": "1F3A68CAAD483768AA2BF667DEF10F7104C89928",
            "validator_index": "12",
            "height": "13036",
            "round": "1",
            "timestamp": "2018-07-31T03:32:55.260522645Z",
            "type": 2,
            "block_id": {
              "hash": "05E01C8DC07832AEC6FAAEB842EAB8A0BB58C8DF",
              "parts": {
                "total": "1",
                "hash": "5C9CC3EB692267E2CAB3E7F07BC2246246D0BD51"
              }
            },
            "signature": {
              "type": "tendermint/SignatureEd25519",
              "value": "JQjQ3b4IJJ03yLATXRlMCjGaEtlrnftw3zW+N2giM2sheXfSecsmr/Q8VAMaRqPk7FoIorG5+JyDQbfieNQRCQ=="
            }
          },
          {
            "validator_address": "23897586D68E2AC1C78E0EF5BB5DF5C8EAB18F50",
            "validator_index": "13",
            "height": "13036",
            "round": "1",
            "timestamp": "2018-07-31T03:32:55.29892177Z",
            "type": 2,
            "block_id": {
              "hash": "05E01C8DC07832AEC6FAAEB842EAB8A0BB58C8DF",
              "parts": {
                "total": "1",
                "hash": "5C9CC3EB692267E2CAB3E7F07BC2246246D0BD51"
              }
            },
            "signature": {
              "type": "tendermint/SignatureEd25519",
              "value": "FwjEGUVg1g9Ia42Tx4wdFI77udeFI7sJ25Vq8T2mvnySKMTeaJCjH8PsZJS8ZKUOR9J39Dg0v4Tyvss30/ngDA=="
            }
          },
          {
            "validator_address": "28770D17E8530825E7310A0659308654B7EC9682",
            "validator_index": "14",
            "height": "13036",
            "round": "1",
            "timestamp": "2018-07-31T03:32:55.242750123Z",
            "type": 2,
            "block_id": {
              "hash": "05E01C8DC07832AEC6FAAEB842EAB8A0BB58C8DF",
              "parts": {
                "total": "1",
                "hash": "5C9CC3EB692267E2CAB3E7F07BC2246246D0BD51"
              }
            },
            "signature": {
              "type": "tendermint/SignatureEd25519",
              "value": "fqF99GPhe+B3gIPJKlaI3v+23kiTMkluIDyemUjPBecdJgBBuXwQwv9sJIJLjXxZDzFlqubVqvReeQvuT8YDCw=="
            }
          },
          {
            "validator_address": "2A92EC3C642140202298D0E245095E0ECFC25228",
            "validator_index": "15",
            "height": "13036",
            "round": "1",
            "timestamp": "2018-07-31T03:32:55.286787296Z",
            "type": 2,
            "block_id": {
              "hash": "05E01C8DC07832AEC6FAAEB842EAB8A0BB58C8DF",
              "parts": {
                "total": "1",
                "hash": "5C9CC3EB692267E2CAB3E7F07BC2246246D0BD51"
              }
            },
            "signature": {
              "type": "tendermint/SignatureEd25519",
              "value": "kaW+CQmMMiLmEyqeHFAJuxsp5Gy7U32kZKF5oVV3qsLTRcOgHdNBuSyEzCTuA0SgRqYUAeJ9p6rJRHyp0EuZDA=="
            }
          },
          {
            "validator_address": "33412C9A69C60CB0FAA24A5C5B3A906DE24B47C2",
            "validator_index": "16",
            "height": "13036",
            "round": "1",
            "timestamp": "2018-07-31T03:32:55.189848637Z",
            "type": 2,
            "block_id": {
              "hash": "05E01C8DC07832AEC6FAAEB842EAB8A0BB58C8DF",
              "parts": {
                "total": "1",
                "hash": "5C9CC3EB692267E2CAB3E7F07BC2246246D0BD51"
              }
            },
            "signature": {
              "type": "tendermint/SignatureEd25519",
              "value": "OoKkvxJj32x4aUG7efI/u5Tc4TmMbpq1LiiIuWiCSqDnKPbj9DimtWanCweHFYl88zbl0mqgnY3WPXTxAW/DBA=="
            }
          },
          {
            "validator_address": "3383EF2A13B160C41947AC30434B274B2FAF0617",
            "validator_index": "17",
            "height": "13036",
            "round": "1",
            "timestamp": "2018-07-31T03:32:55.279305662Z",
            "type": 2,
            "block_id": {
              "hash": "05E01C8DC07832AEC6FAAEB842EAB8A0BB58C8DF",
              "parts": {
                "total": "1",
                "hash": "5C9CC3EB692267E2CAB3E7F07BC2246246D0BD51"
              }
            },
            "signature": {
              "type": "tendermint/SignatureEd25519",
              "value": "isLQ+Gk2p3w1KBLvgJU5U+ljuDjKqcyPZhnNrfaO7sjMS3dC6XukZEXoUXwrgBDEDMid45hcFYGNHwBpjPepBw=="
            }
          },
          {
            "validator_address": "36E9B7FAEC964F97D84C028ED62493E373AD0B38",
            "validator_index": "18",
            "height": "13036",
            "round": "1",
            "timestamp": "2018-07-31T03:32:55.38013053Z",
            "type": 2,
            "block_id": {
              "hash": "05E01C8DC07832AEC6FAAEB842EAB8A0BB58C8DF",
              "parts": {
                "total": "1",
                "hash": "5C9CC3EB692267E2CAB3E7F07BC2246246D0BD51"
              }
            },
            "signature": {
              "type": "tendermint/SignatureEd25519",
              "value": "+LzxlLSzJ1LVZpMf2CAsudfCnMXmLxjkBRA4944BDC4mnJQZLfHPJHOtxRheENX3OfLmja87SHgHWDhlWbVrAQ=="
            }
          },
          {
            "validator_address": "38A8D85D36BEA2E5FCF8A1E778F53628E450EF13",
            "validator_index": "19",
            "height": "13036",
            "round": "1",
            "timestamp": "2018-07-31T03:32:55.317872064Z",
            "type": 2,
            "block_id": {
              "hash": "05E01C8DC07832AEC6FAAEB842EAB8A0BB58C8DF",
              "parts": {
                "total": "1",
                "hash": "5C9CC3EB692267E2CAB3E7F07BC2246246D0BD51"
              }
            },
            "signature": {
              "type": "tendermint/SignatureEd25519",
              "value": "cOffnB2lQh/BoRchTHIRZnEcu7sjxK+2ufuXDsakVlmwBfKiC4+e9KJX4LA2WGkWE3/rqm9rVhz6X24C6VmmBQ=="
            }
          },
          {
            "validator_address": "39DFDA0C5DB84B269642188B23253508537798E6",
            "validator_index": "20",
            "height": "13036",
            "round": "1",
            "timestamp": "2018-07-31T03:32:55.264503754Z",
            "type": 2,
            "block_id": {
              "hash": "05E01C8DC07832AEC6FAAEB842EAB8A0BB58C8DF",
              "parts": {
                "total": "1",
                "hash": "5C9CC3EB692267E2CAB3E7F07BC2246246D0BD51"
              }
            },
            "signature": {
              "type": "tendermint/SignatureEd25519",
              "value": "W6x8CJyhWlGB/jpEG3MIxUeEZYX7EKLq23b3i+HUCq1XcdCFfc38NJ7GHuV1kY2RfyPPBc7AmnTlc0HXj5itCA=="
            }
          },
          {
            "validator_address": "3AC99B708404452366E0953A4BE849226DC86CBC",
            "validator_index": "21",
            "height": "13036",
            "round": "1",
            "timestamp": "2018-07-31T03:32:55.315833779Z",
            "type": 2,
            "block_id": {
              "hash": "05E01C8DC07832AEC6FAAEB842EAB8A0BB58C8DF",
              "parts": {
                "total": "1",
                "hash": "5C9CC3EB692267E2CAB3E7F07BC2246246D0BD51"
              }
            },
            "signature": {
              "type": "tendermint/SignatureEd25519",
              "value": "92oECwDxDgRbobI42UPWoQ0mNDfvmILEKCFoV1F+nR7lMz/qxFxVjf1TCbK7rlqpnCzfcoiutxB5vQ4CBoD9DA=="
            }
          },
          {
            "validator_address": "3DCB822A10ED319EC7C4393D8E3FD4A41B15AAF2",
            "validator_index": "22",
            "height": "13036",
            "round": "1",
            "timestamp": "2018-07-31T03:32:55.20060821Z",
            "type": 2,
            "block_id": {
              "hash": "05E01C8DC07832AEC6FAAEB842EAB8A0BB58C8DF",
              "parts": {
                "total": "1",
                "hash": "5C9CC3EB692267E2CAB3E7F07BC2246246D0BD51"
              }
            },
            "signature": {
              "type": "tendermint/SignatureEd25519",
              "value": "EQemdJFZGxnGDjYjB1uAhwdfG7Mvpc9/u2vSYZ/RNBhSbdFXnbgHimU3w5GvjXl5rFfjywdvTuHICnwq5tyuBg=="
            }
          },
          {
            "validator_address": "3E899BA36A93C7370347BD5FE85909F2ECD93F8C",
            "validator_index": "23",
            "height": "13036",
            "round": "1",
            "timestamp": "2018-07-31T03:32:55.297613661Z",
            "type": 2,
            "block_id": {
              "hash": "05E01C8DC07832AEC6FAAEB842EAB8A0BB58C8DF",
              "parts": {
                "total": "1",
                "hash": "5C9CC3EB692267E2CAB3E7F07BC2246246D0BD51"
              }
            },
            "signature": {
              "type": "tendermint/SignatureEd25519",
              "value": "S6UfLUkBYaDU0f3+daQ+nMJELhzgfQHw8zlfvoh0wLBAkd86QWdRPzfSKcxf99sEGo48kADMcjFYSmTk+SpCCA=="
            }
          },
          {
            "validator_address": "41CAB2E29E7D0F2282E3275938F188FF9386B84C",
            "validator_index": "24",
            "height": "13036",
            "round": "1",
            "timestamp": "2018-07-31T03:32:55.452145369Z",
            "type": 2,
            "block_id": {
              "hash": "05E01C8DC07832AEC6FAAEB842EAB8A0BB58C8DF",
              "parts": {
                "total": "1",
                "hash": "5C9CC3EB692267E2CAB3E7F07BC2246246D0BD51"
              }
            },
            "signature": {
              "type": "tendermint/SignatureEd25519",
              "value": "nm19wfPj5FMULo0qdhmAIqEgZ5kmUmVqpTtuk1W5A3Vw1MJ1TulmlN1xP7m/lq12l5R4Fa/BFhsk6Oa8MbY2DA=="
            }
          },
          {
            "validator_address": "462B656869DB02A8FD1077E255F8CC7401DC37C6",
            "validator_index": "25",
            "height": "13036",
            "round": "1",
            "timestamp": "2018-07-31T03:32:55.255545516Z",
            "type": 2,
            "block_id": {
              "hash": "05E01C8DC07832AEC6FAAEB842EAB8A0BB58C8DF",
              "parts": {
                "total": "1",
                "hash": "5C9CC3EB692267E2CAB3E7F07BC2246246D0BD51"
              }
            },
            "signature": {
              "type": "tendermint/SignatureEd25519",
              "value": "59+qzUAbAvWaTHFQozqC/QyN5q2K8orwy9PgdgQuIj3PbU1zfq0ZytbKPIwmqGbQDSwkbisyB12/ajLrDEj9Bg=="
            }
          },
          {
            "validator_address": "48E5118163E5442068A1B5A42D2EEDBB75724935",
            "validator_index": "26",
            "height": "13036",
            "round": "1",
            "timestamp": "2018-07-31T03:32:55.382054761Z",
            "type": 2,
            "block_id": {
              "hash": "05E01C8DC07832AEC6FAAEB842EAB8A0BB58C8DF",
              "parts": {
                "total": "1",
                "hash": "5C9CC3EB692267E2CAB3E7F07BC2246246D0BD51"
              }
            },
            "signature": {
              "type": "tendermint/SignatureEd25519",
              "value": "KXmBVRnUNHHqzMF5DvqOdD/xNMLebthqxe/udQe3ag1u06giacv5+MgelHcrdzjODy312ZjcR7+T1El0dd3LBA=="
            }
          },
          {
            "validator_address": "4944F8BBBB5303E17BC0607DF332320EDBC750EA",
            "validator_index": "27",
            "height": "13036",
            "round": "1",
            "timestamp": "2018-07-31T03:32:55.211297334Z",
            "type": 2,
            "block_id": {
              "hash": "05E01C8DC07832AEC6FAAEB842EAB8A0BB58C8DF",
              "parts": {
                "total": "1",
                "hash": "5C9CC3EB692267E2CAB3E7F07BC2246246D0BD51"
              }
            },
            "signature": {
              "type": "tendermint/SignatureEd25519",
              "value": "4GYkGzfPi3Qk+HWLeAj5AqQfoYaIEQHRsl3p5nhYemjdmQLoD7J3bPuUaPIWHO6z5QxWckhoTx3IduAAIJH+CQ=="
            }
          },
          {
            "validator_address": "49841599DE675157CBE1E7D6B35BF8FFC23BD5CB",
            "validator_index": "28",
            "height": "13036",
            "round": "1",
            "timestamp": "2018-07-31T03:32:55.20034253Z",
            "type": 2,
            "block_id": {
              "hash": "05E01C8DC07832AEC6FAAEB842EAB8A0BB58C8DF",
              "parts": {
                "total": "1",
                "hash": "5C9CC3EB692267E2CAB3E7F07BC2246246D0BD51"
              }
            },
            "signature": {
              "type": "tendermint/SignatureEd25519",
              "value": "QMWLd0jscYPeviVt06nMtR9+KUB+bXeGAAe5Tx9FddalBaMjrzT8mE6w6aAlSO/bv1i3Ghzl23uWMzP2nj3fCQ=="
            }
          },
          {
            "validator_address": "5104F488EA6B1E2C33CBDA3C18389C88104DBC72",
            "validator_index": "29",
            "height": "13036",
            "round": "1",
            "timestamp": "2018-07-31T03:32:55.252060558Z",
            "type": 2,
            "block_id": {
              "hash": "05E01C8DC07832AEC6FAAEB842EAB8A0BB58C8DF",
              "parts": {
                "total": "1",
                "hash": "5C9CC3EB692267E2CAB3E7F07BC2246246D0BD51"
              }
            },
            "signature": {
              "type": "tendermint/SignatureEd25519",
              "value": "X3eMzdlvN3qorzUkwMdF+cZZ++g475AsxFqMNRWXLSkIkLozdWhaap/6GwAyx2NHBpKgfF0uP8M6UDxfEddHAw=="
            }
          },
          {
            "validator_address": "51386C2CF9556821D114D7E4945806802BADB28D",
            "validator_index": "30",
            "height": "13036",
            "round": "1",
            "timestamp": "2018-07-31T03:32:55.24793562Z",
            "type": 2,
            "block_id": {
              "hash": "05E01C8DC07832AEC6FAAEB842EAB8A0BB58C8DF",
              "parts": {
                "total": "1",
                "hash": "5C9CC3EB692267E2CAB3E7F07BC2246246D0BD51"
              }
            },
            "signature": {
              "type": "tendermint/SignatureEd25519",
              "value": "3TOD+wcYZYDFL917QNqvqpEeiVyh093KvV6tBHe2p7AYuVZksbOvDbzVxBg4a5UdkL53isPyW6jYA3frovZVAQ=="
            }
          },
          {
            "validator_address": "543564ECA3AFEFADC73EE8591AAC3A96F079BC8A",
            "validator_index": "31",
            "height": "13036",
            "round": "1",
            "timestamp": "2018-07-31T03:32:55.227437542Z",
            "type": 2,
            "block_id": {
              "hash": "05E01C8DC07832AEC6FAAEB842EAB8A0BB58C8DF",
              "parts": {
                "total": "1",
                "hash": "5C9CC3EB692267E2CAB3E7F07BC2246246D0BD51"
              }
            },
            "signature": {
              "type": "tendermint/SignatureEd25519",
              "value": "BYRdr5NhMu+Gg9AqeqXUSzDM7cVwABVrlAsLzO21YBFRo7as5glVIpSdTxofbgcbhmJ39hRIVzMuEXB2hYGPAQ=="
            }
          },
          {
            "validator_address": "55D67B1A6DC13E96F8754A5A42EABC20F7F86664",
            "validator_index": "32",
            "height": "13036",
            "round": "1",
            "timestamp": "2018-07-31T03:32:55.252722653Z",
            "type": 2,
            "block_id": {
              "hash": "05E01C8DC07832AEC6FAAEB842EAB8A0BB58C8DF",
              "parts": {
                "total": "1",
                "hash": "5C9CC3EB692267E2CAB3E7F07BC2246246D0BD51"
              }
            },
            "signature": {
              "type": "tendermint/SignatureEd25519",
              "value": "v2dHqOab9Wr41Bn4lyPazp8JBdJXrdEfSYgsvlSgHHqexJb9npj40TmvWuPB0Z5xU/E4XF4wzAinJUhNx1w0BA=="
            }
          },
          {
            "validator_address": "570B6A755ED339EAC56BB3390A48069F6AC9449B",
            "validator_index": "33",
            "height": "13036",
            "round": "1",
            "timestamp": "2018-07-31T03:32:57.346710052Z",
            "type": 2,
            "block_id": {
              "hash": "05E01C8DC07832AEC6FAAEB842EAB8A0BB58C8DF",
              "parts": {
                "total": "1",
                "hash": "5C9CC3EB692267E2CAB3E7F07BC2246246D0BD51"
              }
            },
            "signature": {
              "type": "tendermint/SignatureEd25519",
              "value": "4FkK43knKzsGPFTFG1hMGQVYrfOXUidmE34JMfJejoPnhNHbgysVn82L6WYUnH9UUDotaX/f3WLUnG0zU/DtDg=="
            }
          },
          {
            "validator_address": "5BDF8EA41B1835FBAD865B181A2A4B23F511B5E4",
            "validator_index": "34",
            "height": "13036",
            "round": "1",
            "timestamp": "2018-07-31T03:32:55.196698988Z",
            "type": 2,
            "block_id": {
              "hash": "05E01C8DC07832AEC6FAAEB842EAB8A0BB58C8DF",
              "parts": {
                "total": "1",
                "hash": "5C9CC3EB692267E2CAB3E7F07BC2246246D0BD51"
              }
            },
            "signature": {
              "type": "tendermint/SignatureEd25519",
              "value": "Wm0Ge86oWqD7cXRfWjUZE94rf1KhaNx9y115utQB/ILPfOw4pkz42KpcrDLh0n0ZEVloxpZv+VyTjivBzybmDg=="
            }
          },
          null,
          {
            "validator_address": "60229E2E273297FE00219E46DFFB8F76844CDEF9",
            "validator_index": "36",
            "height": "13036",
            "round": "1",
            "timestamp": "2018-07-31T03:32:54.340598313Z",
            "type": 2,
            "block_id": {
              "hash": "05E01C8DC07832AEC6FAAEB842EAB8A0BB58C8DF",
              "parts": {
                "total": "1",
                "hash": "5C9CC3EB692267E2CAB3E7F07BC2246246D0BD51"
              }
            },
            "signature": {
              "type": "tendermint/SignatureEd25519",
              "value": "bOl6Pyt5aRfpu0+yyCsDI2143YPXZoCLqFCE9ldcnnk5iiTpG+cOTOraPJTRVKkKsPTNT/kS2wsMbWsbye9/Dw=="
            }
          },
          {
            "validator_address": "62410D6D1CD98278136E4D0738AA0EA273CDFC54",
            "validator_index": "37",
            "height": "13036",
            "round": "1",
            "timestamp": "2018-07-31T03:32:55.198843295Z",
            "type": 2,
            "block_id": {
              "hash": "05E01C8DC07832AEC6FAAEB842EAB8A0BB58C8DF",
              "parts": {
                "total": "1",
                "hash": "5C9CC3EB692267E2CAB3E7F07BC2246246D0BD51"
              }
            },
            "signature": {
              "type": "tendermint/SignatureEd25519",
              "value": "wa/v0bZc1ZMxGtOpuXff2p29XhTEioTgfOOfJVnty6ILkeXSYBxcz2jujBAL27j0BYFAs/fC+F6A9xzoIc1tAg=="
            }
          },
          {
            "validator_address": "632F5C139A5A9DFBFE5111DEE29FCFB6157207DC",
            "validator_index": "38",
            "height": "13036",
            "round": "1",
            "timestamp": "2018-07-31T03:32:55.228066878Z",
            "type": 2,
            "block_id": {
              "hash": "05E01C8DC07832AEC6FAAEB842EAB8A0BB58C8DF",
              "parts": {
                "total": "1",
                "hash": "5C9CC3EB692267E2CAB3E7F07BC2246246D0BD51"
              }
            },
            "signature": {
              "type": "tendermint/SignatureEd25519",
              "value": "nLOKDkAzu7SRIHathlOZHN9jxSbFPMixv9sirDchpKMuc9Ty1ju84vanpw1HqyGgl/7gK1Sr3xL1qMLO5SiTCQ=="
            }
          },
          {
            "validator_address": "64F57F8E796A9B7B590C1EFA4123988C86631D39",
            "validator_index": "39",
            "height": "13036",
            "round": "1",
            "timestamp": "2018-07-31T03:32:55.212526472Z",
            "type": 2,
            "block_id": {
              "hash": "05E01C8DC07832AEC6FAAEB842EAB8A0BB58C8DF",
              "parts": {
                "total": "1",
                "hash": "5C9CC3EB692267E2CAB3E7F07BC2246246D0BD51"
              }
            },
            "signature": {
              "type": "tendermint/SignatureEd25519",
              "value": "y09b+Cq0BTY+l2DvQrKpfI3Im/nAcWy+FiFFqlnWXIQsSenTGVJZI69k7LIYMcuTg1xVVK5DuHERl9OcOTxZAA=="
            }
          },
          {
            "validator_address": "69D99B2C66043ACBEAA8447525C356AFC6408E0C",
            "validator_index": "40",
            "height": "13036",
            "round": "1",
            "timestamp": "2018-07-31T03:32:55.35453757Z",
            "type": 2,
            "block_id": {
              "hash": "05E01C8DC07832AEC6FAAEB842EAB8A0BB58C8DF",
              "parts": {
                "total": "1",
                "hash": "5C9CC3EB692267E2CAB3E7F07BC2246246D0BD51"
              }
            },
            "signature": {
              "type": "tendermint/SignatureEd25519",
              "value": "3Jeq7hjLhhWDWgJNfQ+N+QOoVtOlmpBmaSlBSEU4fzZHFbaqPV3/LXw4xqZ7p6rriJppJbdn/mlfGnU/B7s0Bw=="
            }
          },
          {
            "validator_address": "69EDADFA4A803E9DBF548C900D4A465E7D154262",
            "validator_index": "41",
            "height": "13036",
            "round": "1",
            "timestamp": "2018-07-31T03:32:55.4527574Z",
            "type": 2,
            "block_id": {
              "hash": "05E01C8DC07832AEC6FAAEB842EAB8A0BB58C8DF",
              "parts": {
                "total": "1",
                "hash": "5C9CC3EB692267E2CAB3E7F07BC2246246D0BD51"
              }
            },
            "signature": {
              "type": "tendermint/SignatureEd25519",
              "value": "E05bgRJviBDAVG3qbULnw4+Rc81hNmUJCatWnLcuPZzm3PWg1WG+2oG1cctuWvwcL0mNxrEIc1QG2XxxtHqZCQ=="
            }
          },
          {
            "validator_address": "6D3AD380E398D8592B03AA124BAFED5F125DF863",
            "validator_index": "42",
            "height": "13036",
            "round": "1",
            "timestamp": "2018-07-31T03:31:53.513929198Z",
            "type": 2,
            "block_id": {
              "hash": "05E01C8DC07832AEC6FAAEB842EAB8A0BB58C8DF",
              "parts": {
                "total": "1",
                "hash": "5C9CC3EB692267E2CAB3E7F07BC2246246D0BD51"
              }
            },
            "signature": {
              "type": "tendermint/SignatureEd25519",
              "value": "SVu37D8O5PihtFBr47HoyxW05v7BKFXnEZy3+RvlZFaUn1uTtZY1/ClWsW43JtIVDGCAPeu/IbMSWoZiH5VJAg=="
            }
          },
          {
            "validator_address": "6F6C93B8BF3495063FEC9B5C771158607F4AE9D6",
            "validator_index": "43",
            "height": "13036",
            "round": "1",
            "timestamp": "2018-07-31T03:32:55.299226964Z",
            "type": 2,
            "block_id": {
              "hash": "05E01C8DC07832AEC6FAAEB842EAB8A0BB58C8DF",
              "parts": {
                "total": "1",
                "hash": "5C9CC3EB692267E2CAB3E7F07BC2246246D0BD51"
              }
            },
            "signature": {
              "type": "tendermint/SignatureEd25519",
              "value": "QpOyWRkVVylBH13FxKdwSM1/VnxItDEHq3+YoA9CtAxEe4j1wjm3ouL7uN1XDzx3ZwlVycdCM53Mn2IZvzAUBw=="
            }
          },
          {
            "validator_address": "732CEEF54C374DDC6ADECBFD707AEFD07FEDC143",
            "validator_index": "44",
            "height": "13036",
            "round": "1",
            "timestamp": "2018-07-31T03:32:55.435172678Z",
            "type": 2,
            "block_id": {
              "hash": "05E01C8DC07832AEC6FAAEB842EAB8A0BB58C8DF",
              "parts": {
                "total": "1",
                "hash": "5C9CC3EB692267E2CAB3E7F07BC2246246D0BD51"
              }
            },
            "signature": {
              "type": "tendermint/SignatureEd25519",
              "value": "TJUJiuv9dFuiW0KHz3OoRcmYEz6/Z/Z+4qdUWdt47w3/B5EZAlTuJs1qq1bT0PKBpdP6E2tKtf9gDAXxnfRMBw=="
            }
          },
          {
            "validator_address": "7393D691BFAE9661918C09932D4D9060AB40939B",
            "validator_index": "45",
            "height": "13036",
            "round": "1",
            "timestamp": "2018-07-31T03:32:55.313403528Z",
            "type": 2,
            "block_id": {
              "hash": "05E01C8DC07832AEC6FAAEB842EAB8A0BB58C8DF",
              "parts": {
                "total": "1",
                "hash": "5C9CC3EB692267E2CAB3E7F07BC2246246D0BD51"
              }
            },
            "signature": {
              "type": "tendermint/SignatureEd25519",
              "value": "GO5P7vsMU2tUkRgH/sr0v65GP3RJLbZ7OL39U4O0wU5v0m49xupzGU7v9x/7ls26UEjUE7m4zc2BcJIDQZZ/Bg=="
            }
          },
          {
            "validator_address": "751E43437224E8BB6D1569B3E2B2616B6E7F4397",
            "validator_index": "46",
            "height": "13036",
            "round": "1",
            "timestamp": "2018-07-31T03:32:55.276921863Z",
            "type": 2,
            "block_id": {
              "hash": "05E01C8DC07832AEC6FAAEB842EAB8A0BB58C8DF",
              "parts": {
                "total": "1",
                "hash": "5C9CC3EB692267E2CAB3E7F07BC2246246D0BD51"
              }
            },
            "signature": {
              "type": "tendermint/SignatureEd25519",
              "value": "2ljtBRA55QP6YmOjZH1ozVzes5lYh43UedpHHe+qtLu72TWQP9c66/HSN4Xb4+n+wY5z5mFVW4UWUi26Qm6HCQ=="
            }
          },
          {
            "validator_address": "7EB7593F519F1180C7E872D0494611464EDF03AE",
            "validator_index": "47",
            "height": "13036",
            "round": "1",
            "timestamp": "2018-07-31T03:32:55.328181162Z",
            "type": 2,
            "block_id": {
              "hash": "05E01C8DC07832AEC6FAAEB842EAB8A0BB58C8DF",
              "parts": {
                "total": "1",
                "hash": "5C9CC3EB692267E2CAB3E7F07BC2246246D0BD51"
              }
            },
            "signature": {
              "type": "tendermint/SignatureEd25519",
              "value": "EUt3fkXQNTATyOMVEzutgFeksSmAo92EoXOvbY0nUIFHKh60kuKDMovb+aShFh3O3iwiSH447MUP4GheNT1nAg=="
            }
          },
          {
            "validator_address": "807CF675BA8479FC4FEC1047215DF07970040F1F",
            "validator_index": "48",
            "height": "13036",
            "round": "1",
            "timestamp": "2018-07-31T03:32:55.661562024Z",
            "type": 2,
            "block_id": {
              "hash": "05E01C8DC07832AEC6FAAEB842EAB8A0BB58C8DF",
              "parts": {
                "total": "1",
                "hash": "5C9CC3EB692267E2CAB3E7F07BC2246246D0BD51"
              }
            },
            "signature": {
              "type": "tendermint/SignatureEd25519",
              "value": "ABjmW70rE5nSONXYUvVp5xwZXxF6Xql9kebVa+JbA4NbVa9alrZyl2k7jje1pdNLiqlKqfs5c1X4SeLf1q4UDA=="
            }
          },
          {
            "validator_address": "8126192EA66E8ADE6B36924534721366B987A4C1",
            "validator_index": "49",
            "height": "13036",
            "round": "1",
            "timestamp": "2018-07-31T03:32:55.282341367Z",
            "type": 2,
            "block_id": {
              "hash": "05E01C8DC07832AEC6FAAEB842EAB8A0BB58C8DF",
              "parts": {
                "total": "1",
                "hash": "5C9CC3EB692267E2CAB3E7F07BC2246246D0BD51"
              }
            },
            "signature": {
              "type": "tendermint/SignatureEd25519",
              "value": "Vml7IkEd7Z8TBcsVgTb5MjkYRqsmD777J/9BAU95q7iWxJgG5WfbdWW8krVeuM+IeobuNgqvUtO/NJS4ZLM2CA=="
            }
          },
          {
            "validator_address": "83AB321E012C57746689FED3A6064DF331F81007",
            "validator_index": "50",
            "height": "13036",
            "round": "1",
            "timestamp": "2018-07-31T03:32:55.264247646Z",
            "type": 2,
            "block_id": {
              "hash": "05E01C8DC07832AEC6FAAEB842EAB8A0BB58C8DF",
              "parts": {
                "total": "1",
                "hash": "5C9CC3EB692267E2CAB3E7F07BC2246246D0BD51"
              }
            },
            "signature": {
              "type": "tendermint/SignatureEd25519",
              "value": "xZEKkdL1wJvrzmhe+dsCWt0EjTxLTAqNCIVAR9HunRrYnDQiM7y13z/pEmTgtBIuQWwQ576y/VS1AmGgp4ugBw=="
            }
          },
          {
            "validator_address": "83BB1B88D3DBB20AD845FECA07749EBD87D3754D",
            "validator_index": "51",
            "height": "13036",
            "round": "1",
            "timestamp": "2018-07-31T03:32:55.468361911Z",
            "type": 2,
            "block_id": {
              "hash": "05E01C8DC07832AEC6FAAEB842EAB8A0BB58C8DF",
              "parts": {
                "total": "1",
                "hash": "5C9CC3EB692267E2CAB3E7F07BC2246246D0BD51"
              }
            },
            "signature": {
              "type": "tendermint/SignatureEd25519",
              "value": "tlxMjRsY0moMqhU/rkCt7CsOJRdGtF97n8cksbzIZD1OYH9SzcjMPoVY0/fSwqTv+iot7MnjgQ7xPLare7R1Bw=="
            }
          },
          {
            "validator_address": "8F06FE1FD042683C426137FBC4BBAA4288924217",
            "validator_index": "52",
            "height": "13036",
            "round": "1",
            "timestamp": "2018-07-31T03:32:55.294347453Z",
            "type": 2,
            "block_id": {
              "hash": "05E01C8DC07832AEC6FAAEB842EAB8A0BB58C8DF",
              "parts": {
                "total": "1",
                "hash": "5C9CC3EB692267E2CAB3E7F07BC2246246D0BD51"
              }
            },
            "signature": {
              "type": "tendermint/SignatureEd25519",
              "value": "vsoUTKf+NeTGGM05NozymVuKJNT3amfD8sdZ74luZGZk5gXT1eZN8sl09O1ol1VeB39KuDXCgjDlRjNVH00tBw=="
            }
          },
          {
            "validator_address": "8F45617BF45B10A3F8283DEBDB35E38C7CA43237",
            "validator_index": "53",
            "height": "13036",
            "round": "1",
            "timestamp": "2018-07-31T03:32:55.234982026Z",
            "type": 2,
            "block_id": {
              "hash": "05E01C8DC07832AEC6FAAEB842EAB8A0BB58C8DF",
              "parts": {
                "total": "1",
                "hash": "5C9CC3EB692267E2CAB3E7F07BC2246246D0BD51"
              }
            },
            "signature": {
              "type": "tendermint/SignatureEd25519",
              "value": "3tiaOFfNipRvDyl2XCLuCZyG4DxG2rTzKfg8omxEvwIRwNe6yvJUsnbUnk6cagMwkMD18tQ2YLClwycByw63DQ=="
            }
          },
          {
            "validator_address": "95980831E186F2540F6E9FB6C8E74DE2401405AC",
            "validator_index": "54",
            "height": "13036",
            "round": "1",
            "timestamp": "2018-07-31T03:32:55.234215209Z",
            "type": 2,
            "block_id": {
              "hash": "05E01C8DC07832AEC6FAAEB842EAB8A0BB58C8DF",
              "parts": {
                "total": "1",
                "hash": "5C9CC3EB692267E2CAB3E7F07BC2246246D0BD51"
              }
            },
            "signature": {
              "type": "tendermint/SignatureEd25519",
              "value": "6Kkd5F6uO2BtVqaj8Wl3AAGeU0qhSsfydLA7G+44QQaCYF3EvEOF/hx+mHVwQWRUivpY+8/531jX/RW2ntDhCw=="
            }
          },
          {
            "validator_address": "95FAFBC1E0579C83D290A063020CE87C5334BD9B",
            "validator_index": "55",
            "height": "13036",
            "round": "1",
            "timestamp": "2018-07-31T03:32:55.272830425Z",
            "type": 2,
            "block_id": {
              "hash": "05E01C8DC07832AEC6FAAEB842EAB8A0BB58C8DF",
              "parts": {
                "total": "1",
                "hash": "5C9CC3EB692267E2CAB3E7F07BC2246246D0BD51"
              }
            },
            "signature": {
              "type": "tendermint/SignatureEd25519",
              "value": "TSDCd1PpLWpqOwE26fdHeskaGB7ZYea7ZFiPOkmFf+EAgnXrhItb/MfMhok6GXo9KivdNYr8UCOQ7Yo2DpRfDQ=="
            }
          },
          {
            "validator_address": "96BDE45EC52606CF5CB59853097871AD60680549",
            "validator_index": "56",
            "height": "13036",
            "round": "1",
            "timestamp": "2018-07-31T03:32:55.298478936Z",
            "type": 2,
            "block_id": {
              "hash": "05E01C8DC07832AEC6FAAEB842EAB8A0BB58C8DF",
              "parts": {
                "total": "1",
                "hash": "5C9CC3EB692267E2CAB3E7F07BC2246246D0BD51"
              }
            },
            "signature": {
              "type": "tendermint/SignatureEd25519",
              "value": "1lNCTQBLxug0cJ7ZXXDJbr7t7nq0K/o9jFs8Dxi0AuDfdLXiqFdtlTrr3v9DnIWwR0iVMdLSF4lk4s4wNenMAQ=="
            }
          },
          {
            "validator_address": "970CD321881185BF83DB2923C321B0E75FDBB2B8",
            "validator_index": "57",
            "height": "13036",
            "round": "1",
            "timestamp": "2018-07-31T03:32:55.308157889Z",
            "type": 2,
            "block_id": {
              "hash": "05E01C8DC07832AEC6FAAEB842EAB8A0BB58C8DF",
              "parts": {
                "total": "1",
                "hash": "5C9CC3EB692267E2CAB3E7F07BC2246246D0BD51"
              }
            },
            "signature": {
              "type": "tendermint/SignatureEd25519",
              "value": "4FpGG6M3RbglxTS43NkJdMZOInM7BN2lgHtkj2zJ3Nxg3axqoZ6ujMrYQJwYhk4ZDwYmhx5wrHuyCBZoQ6f/DA=="
            }
          },
          {
            "validator_address": "97DBB3D4B3D6C29287244864448F651DD5B07390",
            "validator_index": "58",
            "height": "13036",
            "round": "1",
            "timestamp": "2018-07-31T03:32:55.403638831Z",
            "type": 2,
            "block_id": {
              "hash": "05E01C8DC07832AEC6FAAEB842EAB8A0BB58C8DF",
              "parts": {
                "total": "1",
                "hash": "5C9CC3EB692267E2CAB3E7F07BC2246246D0BD51"
              }
            },
            "signature": {
              "type": "tendermint/SignatureEd25519",
              "value": "3jSipY5epyyLLoRfq5JNjSehICD+R0d5YptRv2s6U+C6mk81C1WVra8FLmA3MDy43HtW6OwwDdNu2TMLaBFqDA=="
            }
          },
          {
            "validator_address": "9C29C9B76D27586E4D9AD2AED0E943162645E55C",
            "validator_index": "59",
            "height": "13036",
            "round": "1",
            "timestamp": "2018-07-31T03:32:55.198378585Z",
            "type": 2,
            "block_id": {
              "hash": "05E01C8DC07832AEC6FAAEB842EAB8A0BB58C8DF",
              "parts": {
                "total": "1",
                "hash": "5C9CC3EB692267E2CAB3E7F07BC2246246D0BD51"
              }
            },
            "signature": {
              "type": "tendermint/SignatureEd25519",
              "value": "H1e4EGF+iVKNgaQdPPFHyGZMp+Bh44mG8qqHRj+yvHP/PfMLt/J7JQ4r72S2DQOtyNOvnSWasKF46g0Pr6jVCg=="
            }
          },
          {
            "validator_address": "9D93AD02FE1BD7E76B9E58D7EB461088EAD011E5",
            "validator_index": "60",
            "height": "13036",
            "round": "1",
            "timestamp": "2018-07-31T03:32:55.205801295Z",
            "type": 2,
            "block_id": {
              "hash": "05E01C8DC07832AEC6FAAEB842EAB8A0BB58C8DF",
              "parts": {
                "total": "1",
                "hash": "5C9CC3EB692267E2CAB3E7F07BC2246246D0BD51"
              }
            },
            "signature": {
              "type": "tendermint/SignatureEd25519",
              "value": "8lqV9DK4urHRbMAVKf8BWaz/E/Tgrdb6KiylpAAvAY2GGztlecKkf1NgaMBb2KNvDl2PujHGo2MgQ4VYKnq1Dg=="
            }
          },
          {
            "validator_address": "A0A6466F4ABEA09C3B55E3709AFDE217A103209F",
            "validator_index": "61",
            "height": "13036",
            "round": "1",
            "timestamp": "2018-07-31T03:32:55.250894838Z",
            "type": 2,
            "block_id": {
              "hash": "05E01C8DC07832AEC6FAAEB842EAB8A0BB58C8DF",
              "parts": {
                "total": "1",
                "hash": "5C9CC3EB692267E2CAB3E7F07BC2246246D0BD51"
              }
            },
            "signature": {
              "type": "tendermint/SignatureEd25519",
              "value": "bGcoJQoGhah8vn9MYJPTsP6tww55G3rUzGpIp3Lb2Ailm31BH62Bpa3V532FFFx9mqwhShk+97D/iWpdm+5GCw=="
            }
          },
          {
            "validator_address": "A5868971300F155020634D7BB49C7634F7AACCD3",
            "validator_index": "62",
            "height": "13036",
            "round": "1",
            "timestamp": "2018-07-31T03:32:55.254550281Z",
            "type": 2,
            "block_id": {
              "hash": "05E01C8DC07832AEC6FAAEB842EAB8A0BB58C8DF",
              "parts": {
                "total": "1",
                "hash": "5C9CC3EB692267E2CAB3E7F07BC2246246D0BD51"
              }
            },
            "signature": {
              "type": "tendermint/SignatureEd25519",
              "value": "DfV8y/WjtEeNTDvpRXW5ekh8zBYsWyX0NNzQAisGkYJ9sY3N39od2ha5tXYl9GIEhVfpuaiyaxZvkv7Fmv+GDw=="
            }
          },
          {
            "validator_address": "A6B3A5B5D982CFD7B5FDFA15CF5A720E7AE25E7F",
            "validator_index": "63",
            "height": "13036",
            "round": "1",
            "timestamp": "2018-07-31T03:32:55.211509814Z",
            "type": 2,
            "block_id": {
              "hash": "05E01C8DC07832AEC6FAAEB842EAB8A0BB58C8DF",
              "parts": {
                "total": "1",
                "hash": "5C9CC3EB692267E2CAB3E7F07BC2246246D0BD51"
              }
            },
            "signature": {
              "type": "tendermint/SignatureEd25519",
              "value": "/WyVINjqPZXXWE9yApf0xmXjubATAcQGtx2L3k+1qOmam3akAt3InUTkmboQMWjTN9qOpMTNip0i8I5/rORFAg=="
            }
          },
          {
            "validator_address": "AC96444A9083890B7C7B430DB17BF1D3EA5EED04",
            "validator_index": "64",
            "height": "13036",
            "round": "1",
            "timestamp": "2018-07-31T03:32:55.331979731Z",
            "type": 2,
            "block_id": {
              "hash": "05E01C8DC07832AEC6FAAEB842EAB8A0BB58C8DF",
              "parts": {
                "total": "1",
                "hash": "5C9CC3EB692267E2CAB3E7F07BC2246246D0BD51"
              }
            },
            "signature": {
              "type": "tendermint/SignatureEd25519",
              "value": "cF5e+YwXAEzreb1gpCegVVJYVMxu95ZAS1NAIYRIz+F6xekxONSf/lsjAVUXOVjkb+RZ8Bz7onRUUPlVhgpSAQ=="
            }
          },
          {
            "validator_address": "ACB97FDA2D940AF0709B73537C458EB988AD2893",
            "validator_index": "65",
            "height": "13036",
            "round": "1",
            "timestamp": "2018-07-31T03:32:55.236215656Z",
            "type": 2,
            "block_id": {
              "hash": "05E01C8DC07832AEC6FAAEB842EAB8A0BB58C8DF",
              "parts": {
                "total": "1",
                "hash": "5C9CC3EB692267E2CAB3E7F07BC2246246D0BD51"
              }
            },
            "signature": {
              "type": "tendermint/SignatureEd25519",
              "value": "YuGYpElm3t/xgbmMzsL3huy1xAMtNgKypMZVslAUNcBqQXO9W+C9Orat8aDJCMqpQFJTOINaKZ6ycKpAdWD1CA=="
            }
          },
          {
            "validator_address": "B197425B3210375F211661DE02EF2AE36580EB0F",
            "validator_index": "66",
            "height": "13036",
            "round": "1",
            "timestamp": "2018-07-31T03:32:55.221459053Z",
            "type": 2,
            "block_id": {
              "hash": "05E01C8DC07832AEC6FAAEB842EAB8A0BB58C8DF",
              "parts": {
                "total": "1",
                "hash": "5C9CC3EB692267E2CAB3E7F07BC2246246D0BD51"
              }
            },
            "signature": {
              "type": "tendermint/SignatureEd25519",
              "value": "ccurC++j/NtI5UVRS4teI1Cy60owEC17hWI/8Eg/NBjeQS+49E58fDUgvLWWzGY34m0dp5raOm9XVy7XGqIbBA=="
            }
          },
          {
            "validator_address": "B45E54D2D1CB5A4CCD1D49016608C18E7C56B270",
            "validator_index": "67",
            "height": "13036",
            "round": "1",
            "timestamp": "2018-07-31T03:32:55.380553214Z",
            "type": 2,
            "block_id": {
              "hash": "05E01C8DC07832AEC6FAAEB842EAB8A0BB58C8DF",
              "parts": {
                "total": "1",
                "hash": "5C9CC3EB692267E2CAB3E7F07BC2246246D0BD51"
              }
            },
            "signature": {
              "type": "tendermint/SignatureEd25519",
              "value": "JIzFTfaIe6Ue4YBuyQuXh/M5S26VT7bpB5hR9vKvAzEAWhpqt8RQ0hm/yq0Cw+O8AA3RwQMuJQtGndTm/D4oDQ=="
            }
          },
          {
            "validator_address": "B59A34C0BE4EC73AF6A67D274F1695C9259C237C",
            "validator_index": "68",
            "height": "13036",
            "round": "1",
            "timestamp": "2018-07-31T03:32:55.451747389Z",
            "type": 2,
            "block_id": {
              "hash": "05E01C8DC07832AEC6FAAEB842EAB8A0BB58C8DF",
              "parts": {
                "total": "1",
                "hash": "5C9CC3EB692267E2CAB3E7F07BC2246246D0BD51"
              }
            },
            "signature": {
              "type": "tendermint/SignatureEd25519",
              "value": "FKUDB5MSPAkPNkZrBj+diPSVOn9UYj/zHakWRy013R89P23MEIyVJOEMnV9oPfjMxnws8n8iL4yVt7eYt+7IAg=="
            }
          },
          {
            "validator_address": "BB1276BE89834835428664408917649FEEF5D90C",
            "validator_index": "69",
            "height": "13036",
            "round": "1",
            "timestamp": "2018-07-31T03:32:55.336140229Z",
            "type": 2,
            "block_id": {
              "hash": "05E01C8DC07832AEC6FAAEB842EAB8A0BB58C8DF",
              "parts": {
                "total": "1",
                "hash": "5C9CC3EB692267E2CAB3E7F07BC2246246D0BD51"
              }
            },
            "signature": {
              "type": "tendermint/SignatureEd25519",
              "value": "4m3Y2gMfCKrGzX2dR/tPGQvG0Q9PTVXtiiSSnD8aBjZrdd2IBn397OVpPm40u+N+8lOf9xB4cdHnNGiPA3IhAA=="
            }
          },
          {
            "validator_address": "BC36FEDD6EF6071118A3E51859DF3831A2EC4782",
            "validator_index": "70",
            "height": "13036",
            "round": "1",
            "timestamp": "2018-07-31T03:32:55.250486301Z",
            "type": 2,
            "block_id": {
              "hash": "05E01C8DC07832AEC6FAAEB842EAB8A0BB58C8DF",
              "parts": {
                "total": "1",
                "hash": "5C9CC3EB692267E2CAB3E7F07BC2246246D0BD51"
              }
            },
            "signature": {
              "type": "tendermint/SignatureEd25519",
              "value": "AIJ+GXjxw9zS87Wxhf0ua1Nq/GODdKn+nrYtyGWsiBqkHHzbKG4wwNw2K0c8MlK41lmGCv5Vhj3yxv9O1dM8AQ=="
            }
          },
          {
            "validator_address": "BD9D0DA513BF099DB4BB6E725A4E19832789882F",
            "validator_index": "71",
            "height": "13036",
            "round": "1",
            "timestamp": "2018-07-31T03:32:55.249110959Z",
            "type": 2,
            "block_id": {
              "hash": "05E01C8DC07832AEC6FAAEB842EAB8A0BB58C8DF",
              "parts": {
                "total": "1",
                "hash": "5C9CC3EB692267E2CAB3E7F07BC2246246D0BD51"
              }
            },
            "signature": {
              "type": "tendermint/SignatureEd25519",
              "value": "YC7W4Eiwvqt0s3T9UtJAdqvJNNMMNTexXU+Am7Ixi8E2al9RvlD9JITYwbOZE5YXKnPX9loKJjsPff3lAqJnDw=="
            }
          },
          {
            "validator_address": "C1134A2FF8F7338E7CDB3FE57DDD2A655DEB1E22",
            "validator_index": "72",
            "height": "13036",
            "round": "1",
            "timestamp": "2018-07-31T03:32:54.663512878Z",
            "type": 2,
            "block_id": {
              "hash": "05E01C8DC07832AEC6FAAEB842EAB8A0BB58C8DF",
              "parts": {
                "total": "1",
                "hash": "5C9CC3EB692267E2CAB3E7F07BC2246246D0BD51"
              }
            },
            "signature": {
              "type": "tendermint/SignatureEd25519",
              "value": "zOBSgPBt67iY9cSQB8uSgCzlhpGKahfUajVlusaSXYwVKO6gecQyPe6Vch5u0dMxZFeMEKGmv/mk4Qh1u1ZtBg=="
            }
          },
          {
            "validator_address": "C39A8A2B85198DCB8F23AD1F6C198E2BA7AB5D60",
            "validator_index": "73",
            "height": "13036",
            "round": "1",
            "timestamp": "2018-07-31T03:32:55.258166834Z",
            "type": 2,
            "block_id": {
              "hash": "05E01C8DC07832AEC6FAAEB842EAB8A0BB58C8DF",
              "parts": {
                "total": "1",
                "hash": "5C9CC3EB692267E2CAB3E7F07BC2246246D0BD51"
              }
            },
            "signature": {
              "type": "tendermint/SignatureEd25519",
              "value": "cskS6yYVLs2sHwCPbTer8zHdV8g5gEa+mmSDZ2xNWrNTNMo0oqmA68kXF/Y/K90yx2TGEIdl57BcLrVwk9ZdDA=="
            }
          },
          {
            "validator_address": "C4335190C3B5BD4BA5568BC0F99C34162D940D08",
            "validator_index": "74",
            "height": "13036",
            "round": "1",
            "timestamp": "2018-07-31T03:32:55.321296366Z",
            "type": 2,
            "block_id": {
              "hash": "05E01C8DC07832AEC6FAAEB842EAB8A0BB58C8DF",
              "parts": {
                "total": "1",
                "hash": "5C9CC3EB692267E2CAB3E7F07BC2246246D0BD51"
              }
            },
            "signature": {
              "type": "tendermint/SignatureEd25519",
              "value": "mXmKeYeIVmNj3O1Kb8hbbQ7Fsd1DQ713gg8WlD59HuF8G/f3DuHjcgVJivOLfoWdefMsolUmkzuP1BNkLyznAw=="
            }
          },
          {
            "validator_address": "C561CFA081677046376396922E7576E5F7B316AD",
            "validator_index": "75",
            "height": "13036",
            "round": "1",
            "timestamp": "2018-07-31T03:32:55.381728567Z",
            "type": 2,
            "block_id": {
              "hash": "05E01C8DC07832AEC6FAAEB842EAB8A0BB58C8DF",
              "parts": {
                "total": "1",
                "hash": "5C9CC3EB692267E2CAB3E7F07BC2246246D0BD51"
              }
            },
            "signature": {
              "type": "tendermint/SignatureEd25519",
              "value": "EESnUbhDAz8bx4M6FY2+KaZJG4zP34lucnI3snQ/uYg+WUH+Dw6N8UHBLp35gMDXGKHeEPfbWyttxDchT9sdCw=="
            }
          },
          {
            "validator_address": "CE589EA77B056D268D30D1DC1D68A70E0F885E95",
            "validator_index": "76",
            "height": "13036",
            "round": "1",
            "timestamp": "2018-07-31T03:32:55.26610428Z",
            "type": 2,
            "block_id": {
              "hash": "05E01C8DC07832AEC6FAAEB842EAB8A0BB58C8DF",
              "parts": {
                "total": "1",
                "hash": "5C9CC3EB692267E2CAB3E7F07BC2246246D0BD51"
              }
            },
            "signature": {
              "type": "tendermint/SignatureEd25519",
              "value": "46yFCQpzbLb8+antqD/2dsEkn3oqOC59CgdFQ0FetO3BPPJxKSu97OsUh4qDrdOk0lyUPpqvb+gptn1x6IMPAw=="
            }
          },
          {
            "validator_address": "CEB97DB5CB18270247ABDE6CF2F84F9AEE8A2904",
            "validator_index": "77",
            "height": "13036",
            "round": "1",
            "timestamp": "2018-07-31T03:32:55.297650514Z",
            "type": 2,
            "block_id": {
              "hash": "05E01C8DC07832AEC6FAAEB842EAB8A0BB58C8DF",
              "parts": {
                "total": "1",
                "hash": "5C9CC3EB692267E2CAB3E7F07BC2246246D0BD51"
              }
            },
            "signature": {
              "type": "tendermint/SignatureEd25519",
              "value": "iDFalaRZnn9oSLUC4yEZhAhb3vFIMkQnsfAPwBX7PpG6UdCmAvsw1+8fcYOjO5EfFphzf5ZoXze9cynZA01WAg=="
            }
          },
          {
            "validator_address": "CF205769734F5758CC39F907EFB73D6BAF915FB1",
            "validator_index": "78",
            "height": "13036",
            "round": "1",
            "timestamp": "2018-07-31T03:32:55.365251267Z",
            "type": 2,
            "block_id": {
              "hash": "05E01C8DC07832AEC6FAAEB842EAB8A0BB58C8DF",
              "parts": {
                "total": "1",
                "hash": "5C9CC3EB692267E2CAB3E7F07BC2246246D0BD51"
              }
            },
            "signature": {
              "type": "tendermint/SignatureEd25519",
              "value": "dDMSN8xyQQvABmODrT8h6ajzJSE1HYwji4Z9X4eVT7LW62cENgDWENm7jdlQlNwAmRuOh78iX6x7CexMQWuyDA=="
            }
          },
          {
            "validator_address": "D2134B826A1E25A955905CB79A4D8731CAFA0CCE",
            "validator_index": "79",
            "height": "13036",
            "round": "1",
            "timestamp": "2018-07-31T03:32:55.31853186Z",
            "type": 2,
            "block_id": {
              "hash": "05E01C8DC07832AEC6FAAEB842EAB8A0BB58C8DF",
              "parts": {
                "total": "1",
                "hash": "5C9CC3EB692267E2CAB3E7F07BC2246246D0BD51"
              }
            },
            "signature": {
              "type": "tendermint/SignatureEd25519",
              "value": "lsa22SNQOZSVHa/OhBn5X4P4vu1RGLjMsJY1myzMZweloEhV0lyW2J5PeEeGl/fVIoQYt4Vd6uBsckwG599OAA=="
            }
          },
          {
            "validator_address": "D6285C3422C8886445D53757CBE12D2B91B5A9D0",
            "validator_index": "80",
            "height": "13036",
            "round": "1",
            "timestamp": "2018-07-31T03:32:37.728635992Z",
            "type": 2,
            "block_id": {
              "hash": "05E01C8DC07832AEC6FAAEB842EAB8A0BB58C8DF",
              "parts": {
                "total": "1",
                "hash": "5C9CC3EB692267E2CAB3E7F07BC2246246D0BD51"
              }
            },
            "signature": {
              "type": "tendermint/SignatureEd25519",
              "value": "QtRGw7GtvZb7nWjH6mf1OINUR4k2jKgvj78Qo3AAV/8bBjPUs3rCTv9ZwWdjav/aO/lW3z9AtuDFlprz2tPUAQ=="
            }
          },
          {
            "validator_address": "DB7E6732471D3EA5C90C17A9974D9F88AB45F2FB",
            "validator_index": "81",
            "height": "13036",
            "round": "1",
            "timestamp": "2018-07-31T03:32:55.26716033Z",
            "type": 2,
            "block_id": {
              "hash": "05E01C8DC07832AEC6FAAEB842EAB8A0BB58C8DF",
              "parts": {
                "total": "1",
                "hash": "5C9CC3EB692267E2CAB3E7F07BC2246246D0BD51"
              }
            },
            "signature": {
              "type": "tendermint/SignatureEd25519",
              "value": "SsgqUlxqsCnq8urPKVvzr+EwyCQCJvpbzuZ85uQNn/dBIaMECXIJJ6NRh4DkIS/wGk36XBB1KtntWV+UdzZZAA=="
            }
          },
          {
            "validator_address": "DF54B862410BCD9B5C516FBB6C56BDC826ED6FA7",
            "validator_index": "82",
            "height": "13036",
            "round": "1",
            "timestamp": "2018-07-31T03:32:55.353329112Z",
            "type": 2,
            "block_id": {
              "hash": "05E01C8DC07832AEC6FAAEB842EAB8A0BB58C8DF",
              "parts": {
                "total": "1",
                "hash": "5C9CC3EB692267E2CAB3E7F07BC2246246D0BD51"
              }
            },
            "signature": {
              "type": "tendermint/SignatureEd25519",
              "value": "Z3m2v7s+QYeOJGHvZpUwt+A5l3sKKJlPGxMHYh757HewZPTLO5zBh6HjWpnhKm8THfnmKXe6aHGI1vqwKnSnCg=="
            }
          },
          {
            "validator_address": "DFAF0C8B1B78D6D552B0189DE3ACA351439A1319",
            "validator_index": "83",
            "height": "13036",
            "round": "1",
            "timestamp": "2018-07-31T03:32:55.211308083Z",
            "type": 2,
            "block_id": {
              "hash": "05E01C8DC07832AEC6FAAEB842EAB8A0BB58C8DF",
              "parts": {
                "total": "1",
                "hash": "5C9CC3EB692267E2CAB3E7F07BC2246246D0BD51"
              }
            },
            "signature": {
              "type": "tendermint/SignatureEd25519",
              "value": "MV+RYeWu1OI54WoQY/SzUWQBNB/6525czmY6vJhC1oSV1wF8/yMKpPgm8M7A9fm+J5n1iva86FOKYPie9s+JCg=="
            }
          },
          {
            "validator_address": "E1DBC77881161A5A3A8536A57536EAE546A75D69",
            "validator_index": "84",
            "height": "13036",
            "round": "1",
            "timestamp": "2018-07-31T03:32:55.207188613Z",
            "type": 2,
            "block_id": {
              "hash": "05E01C8DC07832AEC6FAAEB842EAB8A0BB58C8DF",
              "parts": {
                "total": "1",
                "hash": "5C9CC3EB692267E2CAB3E7F07BC2246246D0BD51"
              }
            },
            "signature": {
              "type": "tendermint/SignatureEd25519",
              "value": "e2ihoUPR9LzujA98P/vq1zDtqzROGt7P08dgoAPggiY9NLk4x6t9I3mC8cDZ3AKgB4yPZDpFpITq1E36WWeICg=="
            }
          },
          {
            "validator_address": "E300E9D484374C1D3E97C1D93CAC3B160A056298",
            "validator_index": "85",
            "height": "13036",
            "round": "1",
            "timestamp": "2018-07-31T03:32:55.476286649Z",
            "type": 2,
            "block_id": {
              "hash": "05E01C8DC07832AEC6FAAEB842EAB8A0BB58C8DF",
              "parts": {
                "total": "1",
                "hash": "5C9CC3EB692267E2CAB3E7F07BC2246246D0BD51"
              }
            },
            "signature": {
              "type": "tendermint/SignatureEd25519",
              "value": "B7StP+RzU+Bijovc4Cy1KkMVNeJtsjnIRQwkbETbpXg+GzmpbrwAueNVKVqp8Ri2GQf3IHHJwlhfZ0ptHm68BQ=="
            }
          },
          {
            "validator_address": "E39B5778E0D4297A46F45CF6940B0A163A430FF8",
            "validator_index": "86",
            "height": "13036",
            "round": "1",
            "timestamp": "2018-07-31T03:32:55.298897758Z",
            "type": 2,
            "block_id": {
              "hash": "05E01C8DC07832AEC6FAAEB842EAB8A0BB58C8DF",
              "parts": {
                "total": "1",
                "hash": "5C9CC3EB692267E2CAB3E7F07BC2246246D0BD51"
              }
            },
            "signature": {
              "type": "tendermint/SignatureEd25519",
              "value": "RTSzVQzxojqW41y+3/KQ4UcLGS0JOSyTJreeznlTwMWICJsMUNRNBcT1ZY6WoEWlMp3dG9lWZYAYbL4//NUlBQ=="
            }
          },
          {
            "validator_address": "E3B19738F7132F950668504D326C7660F159D170",
            "validator_index": "87",
            "height": "13036",
            "round": "1",
            "timestamp": "2018-07-31T03:32:55.228089321Z",
            "type": 2,
            "block_id": {
              "hash": "05E01C8DC07832AEC6FAAEB842EAB8A0BB58C8DF",
              "parts": {
                "total": "1",
                "hash": "5C9CC3EB692267E2CAB3E7F07BC2246246D0BD51"
              }
            },
            "signature": {
              "type": "tendermint/SignatureEd25519",
              "value": "MXYX3XX6vOwdW5txcZwVA39mGi0J84Hfx49+MO/65Q0daGr1wpDdNKSbHfkncvzouWm0uEz7yoUXbl4WezifBw=="
            }
          },
          {
            "validator_address": "E42F8AEABB685219F7027F54D2B0DBC7846F633A",
            "validator_index": "88",
            "height": "13036",
            "round": "1",
            "timestamp": "2018-07-31T03:32:54.562706782Z",
            "type": 2,
            "block_id": {
              "hash": "05E01C8DC07832AEC6FAAEB842EAB8A0BB58C8DF",
              "parts": {
                "total": "1",
                "hash": "5C9CC3EB692267E2CAB3E7F07BC2246246D0BD51"
              }
            },
            "signature": {
              "type": "tendermint/SignatureEd25519",
              "value": "+eKgA+uCiuq1rYH9KNwnBtXqg8LON0AmdTCVSZervJSMyld7awIfu7Hk59LmqCmQx01+cXjD+KbBuyb38gVlCg=="
            }
          },
          {
            "validator_address": "E4E6C2E81269DFFA196C17F98240E491479A6008",
            "validator_index": "89",
            "height": "13036",
            "round": "1",
            "timestamp": "2018-07-31T03:32:55.30987489Z",
            "type": 2,
            "block_id": {
              "hash": "05E01C8DC07832AEC6FAAEB842EAB8A0BB58C8DF",
              "parts": {
                "total": "1",
                "hash": "5C9CC3EB692267E2CAB3E7F07BC2246246D0BD51"
              }
            },
            "signature": {
              "type": "tendermint/SignatureEd25519",
              "value": "1KU+ezJPDXlhoCAqqKi3+Rg+q098U7cDQgIO2DmxbdtrL9/PdLZzsebHbep52grx+2Z+v/e3Km2w8MbAMCRoBg=="
            }
          },
          {
            "validator_address": "E7A30077D5D11867D3EAF99ED45BFDC1EB834509",
            "validator_index": "90",
            "height": "13036",
            "round": "1",
            "timestamp": "2018-07-31T03:32:55.251834484Z",
            "type": 2,
            "block_id": {
              "hash": "05E01C8DC07832AEC6FAAEB842EAB8A0BB58C8DF",
              "parts": {
                "total": "1",
                "hash": "5C9CC3EB692267E2CAB3E7F07BC2246246D0BD51"
              }
            },
            "signature": {
              "type": "tendermint/SignatureEd25519",
              "value": "c+VMMVJn9EJTzykHpEOtAePWceDjjjFVXzfVbz4QAWoyDQJCQIEU5OhyGozdBGHF1WJLjMlLyYm3CTrGxqB1CA=="
            }
          },
          {
            "validator_address": "EBC613967F66F4EC306852CDF58B4F151CF16738",
            "validator_index": "91",
            "height": "13036",
            "round": "1",
            "timestamp": "2018-07-31T03:32:55.433191746Z",
            "type": 2,
            "block_id": {
              "hash": "05E01C8DC07832AEC6FAAEB842EAB8A0BB58C8DF",
              "parts": {
                "total": "1",
                "hash": "5C9CC3EB692267E2CAB3E7F07BC2246246D0BD51"
              }
            },
            "signature": {
              "type": "tendermint/SignatureEd25519",
              "value": "eAERjBNDkeq8FLYk7FzML5Gn3uCEDv/h71icP1exFzB926E2uBGRZy1I4ihBsS7V0+dZ4pn5sTId71Zkx5J5DQ=="
            }
          },
          {
            "validator_address": "EC3401441726C40ECC7E51F744483B05BC6DE9BD",
            "validator_index": "92",
            "height": "13036",
            "round": "1",
            "timestamp": "2018-07-31T03:32:55.238947001Z",
            "type": 2,
            "block_id": {
              "hash": "05E01C8DC07832AEC6FAAEB842EAB8A0BB58C8DF",
              "parts": {
                "total": "1",
                "hash": "5C9CC3EB692267E2CAB3E7F07BC2246246D0BD51"
              }
            },
            "signature": {
              "type": "tendermint/SignatureEd25519",
              "value": "f2YCEFRbnGuOIwTIx6WvSrQPtZtF3pW6Y0s6J7/fj8T7TTJQ6d9/4z+7j05xO70jWxjWAfWBUbnSo7HOSlmdCA=="
            }
          },
          {
            "validator_address": "EC95B111D032181E1EC3B5E8875C5BB8E4AE7140",
            "validator_index": "93",
            "height": "13036",
            "round": "1",
            "timestamp": "2018-07-31T03:32:55.269981507Z",
            "type": 2,
            "block_id": {
              "hash": "05E01C8DC07832AEC6FAAEB842EAB8A0BB58C8DF",
              "parts": {
                "total": "1",
                "hash": "5C9CC3EB692267E2CAB3E7F07BC2246246D0BD51"
              }
            },
            "signature": {
              "type": "tendermint/SignatureEd25519",
              "value": "+B/z5QxKfh9pKJT7ZhOpA0FGqsdkPZ7vahPl6+3oyXU8ybK3c4Ktkg/5ilvekz0o9+eGGhh3nRE8NDEmagipAQ=="
            }
          },
          {
            "validator_address": "F13C1805E8131C9B47E2A46818F57D8A2841E578",
            "validator_index": "94",
            "height": "13036",
            "round": "1",
            "timestamp": "2018-07-31T03:32:55.213635485Z",
            "type": 2,
            "block_id": {
              "hash": "05E01C8DC07832AEC6FAAEB842EAB8A0BB58C8DF",
              "parts": {
                "total": "1",
                "hash": "5C9CC3EB692267E2CAB3E7F07BC2246246D0BD51"
              }
            },
            "signature": {
              "type": "tendermint/SignatureEd25519",
              "value": "OOrc5GA9j1SS0EtkIP++a1HGibSo1EOZ6qJZfb4RKoyWywEIIW6YYQVKdeDrXzpeaGw7qQQ681eC76SOFy6HDw=="
            }
          },
          {
            "validator_address": "F23FF36BD5B90C33CE3A03ED72DBDCF5EC07D6AF",
            "validator_index": "95",
            "height": "13036",
            "round": "1",
            "timestamp": "2018-07-31T03:32:55.315266552Z",
            "type": 2,
            "block_id": {
              "hash": "05E01C8DC07832AEC6FAAEB842EAB8A0BB58C8DF",
              "parts": {
                "total": "1",
                "hash": "5C9CC3EB692267E2CAB3E7F07BC2246246D0BD51"
              }
            },
            "signature": {
              "type": "tendermint/SignatureEd25519",
              "value": "lqMZicr6x/Wg9xr1KV1CXNOLzTOaKQuFmOLAA/PdsPdFbIDpJbkQ6D2FUoowjiyg0vSVIOrqwaQkOldpFxYWBw=="
            }
          },
          {
            "validator_address": "F4268597DE93E3E2CED38845010F8AA34E2A879E",
            "validator_index": "96",
            "height": "13036",
            "round": "1",
            "timestamp": "2018-07-31T03:32:55.288680725Z",
            "type": 2,
            "block_id": {
              "hash": "05E01C8DC07832AEC6FAAEB842EAB8A0BB58C8DF",
              "parts": {
                "total": "1",
                "hash": "5C9CC3EB692267E2CAB3E7F07BC2246246D0BD51"
              }
            },
            "signature": {
              "type": "tendermint/SignatureEd25519",
              "value": "JIPiCV+tdP6IfGAC2QMxN+ZsuEvISLMylBSja44Bdl8/VG6ph2tpLoAZzDlSZ93Scg6oIE/zBzURcb4QfpTrBQ=="
            }
          },
          {
            "validator_address": "F4DEB417999B04BE2EFF9FFE03FA373D86011CC0",
            "validator_index": "97",
            "height": "13036",
            "round": "1",
            "timestamp": "2018-07-31T03:32:55.306348244Z",
            "type": 2,
            "block_id": {
              "hash": "05E01C8DC07832AEC6FAAEB842EAB8A0BB58C8DF",
              "parts": {
                "total": "1",
                "hash": "5C9CC3EB692267E2CAB3E7F07BC2246246D0BD51"
              }
            },
            "signature": {
              "type": "tendermint/SignatureEd25519",
              "value": "bdpjj0PmrDBboNzSUMqBu9ndw2AvxrZ2ig5eKMr09FwXPRcKWaPKY/JX67i8YKZgvHBgrij3zUvxzYrYdvk8Aw=="
            }
          },
          null,
          {
            "validator_address": "FF3F3FCBCE7E62D7AD5506FF846EC4518D980515",
            "validator_index": "99",
            "height": "13036",
            "round": "1",
            "timestamp": "2018-07-31T03:32:55.221321471Z",
            "type": 2,
            "block_id": {
              "hash": "05E01C8DC07832AEC6FAAEB842EAB8A0BB58C8DF",
              "parts": {
                "total": "1",
                "hash": "5C9CC3EB692267E2CAB3E7F07BC2246246D0BD51"
              }
            },
            "signature": {
              "type": "tendermint/SignatureEd25519",
              "value": "/ROc8xRpB+zBa6VQoX/vDjRIXP5nlHnC7EFx9bukrvHspzthAWgJuKjjTD7OE+Ms+2LavwxZckMh7LevItXxAg=="
            }
          }
        ]
      }
    },
    "canonical": true
  }
}