{
  "jsonrpc": "2.0",
  "id": "",
  "result": {
    "SignedHeader": {
      "header": {
        "chain_id": "gaia-7004",
        "height": "15611",
        "time": "2018-07-31T07:48:58.363988625Z",
        "num_txs": "0",
        "last_block_id": {
          "hash": "57748D28D098D9444585B666BBD1F660F569D734",
          "parts": {
            "total": "1",
            "hash": "C558BC5770D64CAC2E440807A0D5EFC1E5DAE657"
          }
        },
        "total_txs": "586",
        "last_commit_hash": "B266C3D1E7B52B10D2A74BFE44B219291BDFD88B",
        "data_hash": "",
        "validators_hash": "AA99E41230D67FD108C437275A8EEECEF2C25DFE",
        "consensus_hash": "D6B74BB35BDFFD8392340F2A379173548AE188FE",
        "app_hash": "18742AFAA9F67CC8826DA7AA41973A8AB6A040DF",
        "last_results_hash": "",
        "evidence_hash": ""
      },
      "commit": {
        "block_id": {
          "hash": "5B6A987B44016173C179B6FF41A95330BD0A5A19",
          "parts": {
            "total": "1",
            "hash": "B9C39A7DDEDE874FD15EE524A0F66B1108FC1BFC"
          }
        },
        "precommits": [
          {
            "validator_address": "029359C0C768096273A68ABC902A6B17AC8D1D70",
            "validator_index": "0",
            "height": "15611",
            "round": "1",
            "timestamp": "2018-07-31T07:48:59.416333512Z",
            "type": 2,
            "block_id": {
              "hash": "5B6A987B44016173C179B6FF41A95330BD0A5A19",
              "parts": {
                "total": "1",
                "hash": "B9C39A7DDEDE874FD15EE524A0F66B1108FC1BFC"
              }
            },
            "signature": {
              "type": "tendermint/SignatureEd25519",
              "value": "n6k5u81n7x9amrNO3xk9ye0XeG+FXHBqddicY3dLCELfPf5IYwqo/FICeuMvGxHe5B75Bm1uoxFVy0cdUEm4Aw=="
            }
          },
          {
            "validator_address": "02FE4B97A8387F39D1AC19E0C1702B3CC614812F",
            "validator_index": "1",
            "height": "15611",
            "round": "1",
            "timestamp": "2018-07-31T07:48:59.399443144Z",
            "type": 2,
            "block_id": {
              "hash": "5B6A987B44016173C179B6FF41A95330BD0A5A19",
              "parts": {
                "total": "1",
                "hash": "B9C39A7DDEDE874FD15EE524A0F66B1108FC1BFC"
              }
            },
            "signature": {
              "type": "tendermint/SignatureEd25519",
              "value": "TVLlAuW+e5RRBeIqfB7W2I4ZjrYmd1wsvrhozT+rHZaw1Ebp40BG77dy3NhO/6LhMzqfvBCdogVAwVhoMGMFCg=="
            }
          },
          {
            "validator_address": "0548261C50222FD710EB5EBDF03A0E6567B21D20",
            "validator_index": "2",
            "height": "15611",
            "round": "1",
            "timestamp": "2018-07-31T07:48:59.465380452Z",
            "type": 2,
            "block_id": {
              "hash": "5B6A987B44016173C179B6FF41A95330BD0A5A19",
              "parts": {
                "total": "1",
                "hash": "B9C39A7DDEDE874FD15EE524A0F66B1108FC1BFC"
              }
            },
            "signature": {
              "type": "tendermint/SignatureEd25519",
              "value": "/oOKQ8GsZnrJsEQv56Ivhjtuy/E/MXflkApPuiwf0FiyKPjw09+MDu8vLSFPwFkK5W/9Md//N33bN7rhwvSBDw=="
            }
          },
          {
            "validator_address": "09145E611CC27EEB944FC5A956DDF710F943B9EF",
            "validator_index": "3",
            "height": "15611",
            "round": "1",
            "timestamp": "2018-07-31T07:48:59.441316123Z",
            "type": 2,
            "block_id": {
              "hash": "5B6A987B44016173C179B6FF41A95330BD0A5A19",
              "parts": {
                "total": "1",
                "hash": "B9C39A7DDEDE874FD15EE524A0F66B1108FC1BFC"
              }
            },
            "signature": {
              "type": "tendermint/SignatureEd25519",
              "value": "Xb2/plF0e5NjfN8wDeBmrofk1KcaFLpFqoGxI0aN+Tx2g5+CMz6qMF3S5upb2emhB/N15TAX8rqY1UXXBglpAg=="
            }
          },
          {
            "validator_address": "0989D0355A104B67AE0AE028C68FB610690E174B",
            "validator_index": "4",
            "height": "15611",
            "round": "1",
            "timestamp": "2018-07-31T07:48:59.443939929Z",
            "type": 2,
            "block_id": {
              "hash": "5B6A987B44016173C179B6FF41A95330BD0A5A19",
              "parts": {
                "total": "1",
                "hash": "B9C39A7DDEDE874FD15EE524A0F66B1108FC1BFC"
              }
            },
            "signature": {
              "type": "tendermint/SignatureEd25519",
              "value": "OuYNjiPUZ86xpqvbuaD64nT8P5r8elNwSwu4A4nuTf8LdhLx4OPsAKn2Z3kIw97AqEH6E0h/94lnM/3Af63CDg=="
            }
          },
          {
            "validator_address": "0A692DBFFE9E5DD28E7DECC33CED1AEB4C0D014E",
            "validator_index": "5",
            "height": "15611",
            "round": "1",
            "timestamp": "2018-07-31T07:48:59.61196261Z",
            "type": 2,
            "block_id": {
              "hash": "5B6A987B44016173C179B6FF41A95330BD0A5A19",
              "parts": {
                "total": "1",
                "hash": "B9C39A7DDEDE874FD15EE524A0F66B1108FC1BFC"
              }
            },
            "signature": {
              "type": "tendermint/SignatureEd25519",
              "value": "PqeBXvgzI2H+vo7ZZ3akW/bNpMTip7z9ESDcMzKT+oKCAT/Tfo3YBdIWAMoR/nSgvSWJ4N0GW4t9xSf3jHncDQ=="
            }
          },
          {
            "validator_address": "0DDF97111D73DB825138EC15EC27DE5FE8536901",
            "validator_index": "6",
            "height": "15611",
            "round": "1",
            "timestamp": "2018-07-31T07:48:59.463769045Z",
            "type": 2,
            "block_id": {
              "hash": "5B6A987B44016173C179B6FF41A95330BD0A5A19",
              "parts": {
                "total": "1",
                "hash": "B9C39A7DDEDE874FD15EE524A0F66B1108FC1BFC"
              }
            },
            "signature": {
              "type": "tendermint/SignatureEd25519",
              "value": "9g9vVOrL3Hwr+tFL7+CIUgo9qy7dr4cH/Wvjnr6VULgd/PWidZ7pX/CSk8SokFHr7Gc6iJxjR/iaVLX4mnhADw=="
            }
          },
          {
            "validator_address": "1751786EFC085D5331C61168FFFC8202EA151B4E",
            "validator_index": "7",
            "height": "15611",
            "round": "1",
            "timestamp": "2018-07-31T07:48:59.018129165Z",
            "type": 2,
            "block_id": {
              "hash": "5B6A987B44016173C179B6FF41A95330BD0A5A19",
              "parts": {
                "total": "1",
                "hash": "B9C39A7DDEDE874FD15EE524A0F66B1108FC1BFC"
              }
            },
            "signature": {
              "type": "tendermint/SignatureEd25519",
              "value": "ZodaynE6J6xzhgof/XLF8rypj4LboVtadQMLvxId05bj2nn2vlKYHUwSqd4Mf/ObwYCaZLHxGCovCU/CUOkaCg=="
            }
          },
          {
            "validator_address": "17BB5CD01E8940FAFB948A04D5FA5A0645E5822E",
            "validator_index": "8",
            "height": "15611",
            "round": "1",
            "timestamp": "2018-07-31T07:48:59.455330959Z",
            "type": 2,
            "block_id": {
              "hash": "5B6A987B44016173C179B6FF41A95330BD0A5A19",
              "parts": {
                "total": "1",
                "hash": "B9C39A7DDEDE874FD15EE524A0F66B1108FC1BFC"
              }
            },
            "signature": {
              "type": "tendermint/SignatureEd25519",
              "value": "/yUavy3X3KnZ9zzPaWtPE180M4BOiC7CTE/O6LN1ezmxtJhZEMN1+KmL2LmZefA2erhlucIXsj3FC3yQdT0KDA=="
            }
          },
          {
            "validator_address": "1C683A87904BC38F05004FE83301A3A3E35447EB",
            "validator_index": "9",
            "height": "15611",
            "round": "1",
            "timestamp": "2018-07-31T07:48:59.453522104Z",
            "type": 2,
            "block_id": {
              "hash": "5B6A987B44016173C179B6FF41A95330BD0A5A19",
              "parts": {
                "total": "1",
                "hash": "B9C39A7DDEDE874FD15EE524A0F66B1108FC1BFC"
              }
            },
            "signature": {
              "type": "tendermint/SignatureEd25519",
              "value": "N8Grtb0FNg6lroNiGRurOfOAXumtZT/ADsqaKnc2jNRhTnvKRPI7joSBINnhdlKSvcaURnnLC8OoHHtXackLAQ=="
            }
          },
          {
            "validator_address": "1E9CE94FD0BA5CFEB901F90BC658D64D85B134D2",
            "validator_index": "10",
            "height": "15611",
            "round": "1",
            "timestamp": "2018-07-31T07:48:59.412152112Z",
            "type": 2,
            "block_id": {
              "hash": "5B6A987B44016173C179B6FF41A95330BD0A5A19",
              "parts": {
                "total": "1",
                "hash": "B9C39A7DDEDE874FD15EE524A0F66B1108FC1BFC"
              }
            },
            "signature": {
              "type": "tendermint/SignatureEd25519",
              "value": "xh6BZ83A7n4057IgOiC8UkK2qLxbvrrsJmklL0Y0Z1gSxhmHX0ZYevUtqITnVyetTAajcoUxUthoq899yde3DA=="
            }
          },
          {
            "validator_address": "1ECD8C5FE1341D74CDC633A245DD56858DE2F9A2",
            "validator_index": "11",
            "height": "15611",
            "round": "1",
            "timestamp": "2018-07-31T07:48:59.499130381Z",
            "type": 2,
            "block_id": {
              "hash": "5B6A987B44016173C179B6FF41A95330BD0A5A19",
              "parts": {
                "total": "1",
                "hash": "B9C39A7DDEDE874FD15EE524A0F66B1108FC1BFC"
              }
            },
            "signature": {
              "type": "tendermint/SignatureEd25519",
              "value": "teLEeW53RB7RjQPw4Hc74xAULK/wuwXD8iGDQFFbT0cgdIe9qx8T+ZnNFFfIl/Xgv43BBqlVWvF5884vQBQjAQ=="
            }
          },
          {
            "validator_address": "1F3A68CAAD483768AA2BF667DEF10F7104C89928",
            "validator_index": "12",
            "height": "15611",
            "round": "1",
            "timestamp": "2018-07-31T07:48:59.404733074Z",
            "type": 2,
            "block_id": {
              "hash": "5B6A987B44016173C179B6FF41A95330BD0A5A19",
              "parts": {
                "total": "1",
                "hash": "B9C39A7DDEDE874FD15EE524A0F66B1108FC1BFC"
              }
            },
            "signature": {
              "type": "tendermint/SignatureEd25519",
              "value": "vHD5GdeO9Rnik+P68Jky9n8sDDbIZdJ9i8Z20MxuzsztrS6HhRBpz4py/wMEo8MnPscjaKnpZbMyEXp5KytyBQ=="
            }
          },
          {
            "validator_address": "23897586D68E2AC1C78E0EF5BB5DF5C8EAB18F50",
            "validator_index": "13",
            "height": "15611",
            "round": "1",
            "timestamp": "2018-07-31T07:48:59.449292833Z",
            "type": 2,
            "block_id": {
              "hash": "5B6A987B44016173C179B6FF41A95330BD0A5A19",
              "parts": {
                "total": "1",
                "hash": "B9C39A7DDEDE874FD15EE524A0F66B1108FC1BFC"
              }
            },
            "signature": {
              "type": "tendermint/SignatureEd25519",
              "value": "Vlctm70J3ScdyR0hZYMskp4dUnZpRTsyvI8oMrFDP/6FDiSvzpq6GNjyyo91dOs8iDLVZLn7Yj3in/jcK/jfCg=="
            }
          },
          {
            "validator_address": "28770D17E8530825E7310A0659308654B7EC9682",
            "validator_index": "14",
            "height": "15611",
            "round": "1",
            "timestamp": "2018-07-31T07:48:59.399759954Z",
            "type": 2,
            "block_id": {
              "hash": "5B6A987B44016173C179B6FF41A95330BD0A5A19",
              "parts": {
                "total": "1",
                "hash": "B9C39A7DDEDE874FD15EE524A0F66B1108FC1BFC"
              }
            },
            "signature": {
              "type": "tendermint/SignatureEd25519",
              "value": "vcQdklgL4eW5vbzejls4iLfDoHUCPiARBcnmz1dhLdk26CIxeuXdvAiUSaFwyUDV4kv8nt0G8ng7pwHfKJrYDA=="
            }
          },
          {
            "validator_address": "2A92EC3C642140202298D0E245095E0ECFC25228",
            "validator_index": "15",
            "height": "15611",
            "round": "1",
            "timestamp": "2018-07-31T07:48:59.473729312Z",
            "type": 2,
            "block_id": {
              "hash": "5B6A987B44016173C179B6FF41A95330BD0A5A19",
              "parts": {
                "total": "1",
                "hash": "B9C39A7DDEDE874FD15EE524A0F66B1108FC1BFC"
              }
            },
            "signature": {
              "type": "tendermint/SignatureEd25519",
              "value": "1BMow6RDrCbm+ictGBIYbVFKjUsomuTBmoJYTlfVSzBIyJ9jP4+Qr/DrgHnm+LupXV/VNHM12bFcXucASnFjCw=="
            }
          },
          {
            "validator_address": "33412C9A69C60CB0FAA24A5C5B3A906DE24B47C2",
            "validator_index": "16",
            "height": "15611",
            "round": "1",
            "timestamp": "2018-07-31T07:48:59.356655459Z",
            "type": 2,
            "block_id": {
              "hash": "5B6A987B44016173C179B6FF41A95330BD0A5A19",
              "parts": {
                "total": "1",
                "hash": "B9C39A7DDEDE874FD15EE524A0F66B1108FC1BFC"
              }
            },
            "signature": {
              "type": "tendermint/SignatureEd25519",
              "value": "ckijOCZIj3jKL0Y78u+kf+Pju3lyAoKONuFr4w/ckcE576QGcHCrEiJFgIlwMgIRS/9kUSUhq20qsI678kh2AA=="
            }
          },
          {
            "validator_address": "3383EF2A13B160C41947AC30434B274B2FAF0617",
            "validator_index": "17",
            "height": "15611",
            "round": "1",
            "timestamp": "2018-07-31T07:48:59.459152612Z",
            "type": 2,
            "block_id": {
              "hash": "5B6A987B44016173C179B6FF41A95330BD0A5A19",
              "parts": {
                "total": "1",
                "hash": "B9C39A7DDEDE874FD15EE524A0F66B1108FC1BFC"
              }
            },
            "signature": {
              "type": "tendermint/SignatureEd25519",
              "value": "hpvre/N7RR/VTp9dc7KmppbYoTheBe32P+josfveiqz7lyF6vBRQTBqCA7f2Ru9n48WcNilcEBz5yJR3juzgBw=="
            }
          },
          {
            "validator_address": "36E9B7FAEC964F97D84C028ED62493E373AD0B38",
            "validator_index": "18",
            "height": "15611",
            "round": "1",
            "timestamp": "2018-07-31T07:48:59.510217121Z",
            "type": 2,
            "block_id": {
              "hash": "5B6A987B44016173C179B6FF41A95330BD0A5A19",
              "parts": {
                "total": "1",
                "hash": "B9C39A7DDEDE874FD15EE524A0F66B1108FC1BFC"
              }
            },
            "signature": {
              "type": "tendermint/SignatureEd25519",
              "value": "huYYutib+5OLALVCFOccLSE6IPyskYqU03QgmsBSVv7+WtbWFEwrJ68WOz32AGRgRbEzG1QttEPoXD/QV6w4BA=="
            }
          },
          {
            "validator_address": "38A8D85D36BEA2E5FCF8A1E778F53628E450EF13",
            "validator_index": "19",
            "height": "15611",
            "round": "1",
            "timestamp": "2018-07-31T07:48:59.557557419Z",
            "type": 2,
            "block_id": {
              "hash": "5B6A987B44016173C179B6FF41A95330BD0A5A19",
              "parts": {
                "total": "1",
                "hash": "B9C39A7DDEDE874FD15EE524A0F66B1108FC1BFC"
              }
            },
            "signature": {
              "type": "tendermint/SignatureEd25519",
              "value": "ZHlRMHB+NRsrYvh9aoo6MXucBjt1JTSnu+PXOWllI6IOjfDI8e4m73JVXK3gDpV1rHZtJeHL7aktKRxFIf2qDw=="
            }
          },
          {
            "validator_address": "39DFDA0C5DB84B269642188B23253508537798E6",
            "validator_index": "20",
            "height": "15611",
            "round": "1",
            "timestamp": "2018-07-31T07:48:59.428941158Z",
            "type": 2,
            "block_id": {
              "hash": "5B6A987B44016173C179B6FF41A95330BD0A5A19",
              "parts": {
                "total": "1",
                "hash": "B9C39A7DDEDE874FD15EE524A0F66B1108FC1BFC"
              }
            },
            "signature": {
              "type": "tendermint/SignatureEd25519",
              "value": "iga1ZJ1NQFU1VS2bczjXjHboL4FkpW1TYXTsnG3OGHqVY8ucdpFZzmgLfA9vSuIqnQq3cnDCJ30fvysMGavCAg=="
            }
          },
          {
            "validator_address": "3AC99B708404452366E0953A4BE849226DC86CBC",
            "validator_index": "21",
            "height": "15611",
            "round": "1",
            "timestamp": "2018-07-31T07:48:59.483172013Z",
            "type": 2,
            "block_id": {
              "hash": "5B6A987B44016173C179B6FF41A95330BD0A5A19",
              "parts": {
                "total": "1",
                "hash": "B9C39A7DDEDE874FD15EE524A0F66B1108FC1BFC"
              }
            },
            "signature": {
              "type": "tendermint/SignatureEd25519",
              "value": "D7lww19eehkPKZJ/iT7wDrYCvHOu+WVpQ45+kChLdSCczhGPJB69fT4iaRRXOg0iN+XQcRTQ/De3E/rQwHT7AQ=="
            }
          },
          {
            "validator_address": "3DCB822A10ED319EC7C4393D8E3FD4A41B15AAF2",
            "validator_index": "22",
            "height": "15611",
            "round": "1",
            "timestamp": "2018-07-31T07:48:59.39363836Z",
            "type": 2,
            "block_id": {
              "hash": "5B6A987B44016173C179B6FF41A95330BD0A5A19",
              "parts": {
                "total": "1",
                "hash": "B9C39A7DDEDE874FD15EE524A0F66B1108FC1BFC"
              }
            },
            "signature": {
              "type": "tendermint/SignatureEd25519",
              "value": "QgoWjBXHfaoODCPo4sgnoQlgn4fK0pAN+tn1g7sLFCjNJG8nqhxMKQwWJXsN8HAieDgfVU/tepEihXW22Re0Cw=="
            }
          },
          {
            "validator_address": "3E899BA36A93C7370347BD5FE85909F2ECD93F8C",
            "validator_index": "23",
            "height": "15611",
            "round": "1",
            "timestamp": "2018-07-31T07:48:59.469700246Z",
            "type": 2,
            "block_id": {
              "hash": "5B6A987B44016173C179B6FF41A95330BD0A5A19",
              "parts": {
                "total": "1",
                "hash": "B9C39A7DDEDE874FD15EE524A0F66B1108FC1BFC"
              }
            },
            "signature": {
              "type": "tendermint/SignatureEd25519",
              "value": "hlh6cJBmscnViNdf5m923CDfW/0P8Eo2xMxTcpjqPYTp6iNxq2srB7I/W8IjdQt1roLswX62A7Bk8avfrC/dDA=="
            }
          },
          {
            "validator_address": "41CAB2E29E7D0F2282E3275938F188FF9386B84C",
            "validator_index": "24",
            "height": "15611",
            "round": "1",
            "timestamp": "2018-07-31T07:48:59.45269824Z",
            "type": 2,
            "block_id": {
              "hash": "5B6A987B44016173C179B6FF41A95330BD0A5A19",
              "parts": {
                "total": "1",
                "hash": "B9C39A7DDEDE874FD15EE524A0F66B1108FC1BFC"
              }
            },
            "signature": {
              "type": "tendermint/SignatureEd25519",
              "value": "ow0M20L5RyK9j+bn4z1SSvxSUM+IRgUJuLLb3I3SdZsRBWHHWmba4jK8t/U0SU6hOQ36AQvnogB1hPuVrzHdAw=="
            }
          },
          {
            "validator_address": "462B656869DB02A8FD1077E255F8CC7401DC37C6",
            "validator_index": "25",
            "height": "15611",
            "round": "1",
            "timestamp": "2018-07-31T07:48:59.404865936Z",
            "type": 2,
            "block_id": {
              "hash": "5B6A987B44016173C179B6FF41A95330BD0A5A19",
              "parts": {
                "total": "1",
                "hash": "B9C39A7DDEDE874FD15EE524A0F66B1108FC1BFC"
              }
            },
            "signature": {
              "type": "tendermint/SignatureEd25519",
              "value": "xDuq82zu+/CQUDF/VoYL/LGY9bQWEUs0t+9z5/Beqq6L8co5h5Dfs7nAhrTGrGx6BI8oBFhk1mg+6SYqPYEyBw=="
            }
          },
          {
            "validator_address": "48E5118163E5442068A1B5A42D2EEDBB75724935",
            "validator_index": "26",
            "height": "15611",
            "round": "1",
            "timestamp": "2018-07-31T07:48:59.616981246Z",
            "type": 2,
            "block_id": {
              "hash": "5B6A987B44016173C179B6FF41A95330BD0A5A19",
              "parts": {
                "total": "1",
                "hash": "B9C39A7DDEDE874FD15EE524A0F66B1108FC1BFC"
              }
            },
            "signature": {
              "type": "tendermint/SignatureEd25519",
              "value": "ioeaASGSEFmT8l27B5uBDiy3AVG7szRnOFdV2hevBmxmOytGw/CtnuuRtoa25vtU+38yGwkba7GSdtWz7id0DQ=="
            }
          },
          {
            "validator_address": "4944F8BBBB5303E17BC0607DF332320EDBC750EA",
            "validator_index": "27",
            "height": "15611",
            "round": "1",
            "timestamp": "2018-07-31T07:48:59.419497349Z",
            "type": 2,
            "block_id": {
              "hash": "5B6A987B44016173C179B6FF41A95330BD0A5A19",
              "parts": {
                "total": "1",
                "hash": "B9C39A7DDEDE874FD15EE524A0F66B1108FC1BFC"
              }
            },
            "signature": {
              "type": "tendermint/SignatureEd25519",
              "value": "X9Gr6cAogQIalbWZo/jL43nLFYj/Mp/yiFGzmr1tAjhOFnOG/ZaVEgVt7bxdB/EoolQw9hUkQ9dgalxCevFjDA=="
            }
          },
          {
            "validator_address": "49841599DE675157CBE1E7D6B35BF8FFC23BD5CB",
            "validator_index": "28",
            "height": "15611",
            "round": "1",
            "timestamp": "2018-07-31T07:48:59.397726307Z",
            "type": 2,
            "block_id": {
              "hash": "5B6A987B44016173C179B6FF41A95330BD0A5A19",
              "parts": {
                "total": "1",
                "hash": "B9C39A7DDEDE874FD15EE524A0F66B1108FC1BFC"
              }
            },
            "signature": {
              "type": "tendermint/SignatureEd25519",
              "value": "Xee+pFipVX0T8k/yvjSBqCW5D4vnITeHwPf0QWCLLyMyd2iPHjHm9z1EIC5khM1inm30SuNongNOPF4PXn5YDw=="
            }
          },
          {
            "validator_address": "5104F488EA6B1E2C33CBDA3C18389C88104DBC72",
            "validator_index": "29",
            "height": "15611",
            "round": "1",
            "timestamp": "2018-07-31T07:48:59.443349255Z",
            "type": 2,
            "block_id": {
              "hash": "5B6A987B44016173C179B6FF41A95330BD0A5A19",
              "parts": {
                "total": "1",
                "hash": "B9C39A7DDEDE874FD15EE524A0F66B1108FC1BFC"
              }
            },
            "signature": {
              "type": "tendermint/SignatureEd25519",
              "value": "pod0er8ezxNn2hAcAJ+uinET92HDkxWyaP0gvnNlxc3z/siPiiIKammoNpz6a+2emHAUUcRkmCAXbeU7QQEvDA=="
            }
          },
          {
            "validator_address": "51386C2CF9556821D114D7E4945806802BADB28D",
            "validator_index": "30",
            "height": "15611",
            "round": "1",
            "timestamp": "2018-07-31T07:48:59.408270875Z",
            "type": 2,
            "block_id": {
              "hash": "5B6A987B44016173C179B6FF41A95330BD0A5A19",
              "parts": {
                "total": "1",
                "hash": "B9C39A7DDEDE874FD15EE524A0F66B1108FC1BFC"
              }
            },
            "signature": {
              "type": "tendermint/SignatureEd25519",
              "value": "eTExNTGO67cHep45c5K5g5xa1X8A9l92Mj15OJxwMZepAKmCcU5yLhlZBcupkqJjMH7PtfFEfgXNy+BzfIuTDw=="
            }
          },
          {
            "validator_address": "543564ECA3AFEFADC73EE8591AAC3A96F079BC8A",
            "validator_index": "31",
            "height": "15611",
            "round": "1",
            "timestamp": "2018-07-31T07:48:59.336903398Z",
            "type": 2,
            "block_id": {
              "hash": "5B6A987B44016173C179B6FF41A95330BD0A5A19",
              "parts": {
                "total": "1",
                "hash": "B9C39A7DDEDE874FD15EE524A0F66B1108FC1BFC"
              }
            },
            "signature": {
              "type": "tendermint/SignatureEd25519",
              "value": "gbnhSo6fxT2tUSFxoKyHDOfK7xq6+Dxsw3+ceibjKxA4BK2USpuoDLPdmLMiQF7cW1n05Sl2XqPgzj5UG4PqBw=="
            }
          },
          {
            "validator_address": "55D67B1A6DC13E96F8754A5A42EABC20F7F86664",
            "validator_index": "32",
            "height": "15611",
            "round": "1",
            "timestamp": "2018-07-31T07:48:59.413664117Z",
            "type": 2,
            "block_id": {
              "hash": "5B6A987B44016173C179B6FF41A95330BD0A5A19",
              "parts": {
                "total": "1",
                "hash": "B9C39A7DDEDE874FD15EE524A0F66B1108FC1BFC"
              }
            },
            "signature": {
              "type": "tendermint/SignatureEd25519",
              "value": "S6/Zz8uJtTYuaIz8N4TABq52vrSFex2lPL5XtxiTPDmUs0ylx7Dt0riJ/iiIVsLNULBKZxp6gbMYcupPG4G7Dg=="
            }
          },
          {
            "validator_address": "570B6A755ED339EAC56BB3390A48069F6AC9449B",
            "validator_index": "33",
            "height": "15611",
            "round": "1",
            "timestamp": "2018-07-31T07:49:02.069863926Z",
            "type": 2,
            "block_id": {
              "hash": "5B6A987B44016173C179B6FF41A95330BD0A5A19",
              "parts": {
                "total": "1",
                "hash": "B9C39A7DDEDE874FD15EE524A0F66B1108FC1BFC"
              }
            },
            "signature": {
              "type": "tendermint/SignatureEd25519",
              "value": "85pbXu26VL0XPw9Ez/kuXjEdoBKJr54aUbRYl+2Dk9a2Lfbannf2DZKDaIBcmMYCUmODnu0xMpacHIjza4VJDQ=="
            }
          },
          {
            "validator_address": "5BDF8EA41B1835FBAD865B181A2A4B23F511B5E4",
            "validator_index": "34",
            "height": "15611",
            "round": "1",
            "timestamp": "2018-07-31T07:48:59.332919665Z",
            "type": 2,
            "block_id": {
              "hash": "5B6A987B44016173C179B6FF41A95330BD0A5A19",
              "parts": {
                "total": "1",
                "hash": "B9C39A7DDEDE874FD15EE524A0F66B1108FC1BFC"
              }
            },
            "signature": {
              "type": "tendermint/SignatureEd25519",
              "value": "HNNXbuDzDyfzGH7gqhS9KUB+fx8f23tQqL5YKuwp6zsV5/b2SK2HPQ1BjdBgC+5Z+E2grlJ4Q8JHdIul9lmcCQ=="
            }
          },
          null,
          {
            "validator_address": "60229E2E273297FE00219E46DFFB8F76844CDEF9",
            "validator_index": "36",
            "height": "15611",
            "round": "1",
            "timestamp": "2018-07-31T07:48:58.344219876Z",
            "type": 2,
            "block_id": {
              "hash": "5B6A987B44016173C179B6FF41A95330BD0A5A19",
              "parts": {
                "total": "1",
                "hash": "B9C39A7DDEDE874FD15EE524A0F66B1108FC1BFC"
              }
            },
            "signature": {
              "type": "tendermint/SignatureEd25519",
              "value": "8KU+ozMMj8ziDBrG6n87eZqn6H7RYxb9KVXMGVdo3Q3Plix3PddFOfoXZNI1iDh9YTrWjw9qq2AXKAnVqYcPDA=="
            }
          },
          {
            "validator_address": "62410D6D1CD98278136E4D0738AA0EA273CDFC54",
            "validator_index": "37",
            "height": "15611",
            "round": "1",
            "timestamp": "2018-07-31T07:48:59.335557901Z",
            "type": 2,
            "block_id": {
              "hash": "5B6A987B44016173C179B6FF41A95330BD0A5A19",
              "parts": {
                "total": "1",
                "hash": "B9C39A7DDEDE874FD15EE524A0F66B1108FC1BFC"
              }
            },
            "signature": {
              "type": "tendermint/SignatureEd25519",
              "value": "xJ9QKFCS95gT1We3xh1oDpmJ8ynp7xSx8UW9hn0KQi/is7r8Iu20p58nKocC7vxPe/bGOt52TyrZDet7HJKGDA=="
            }
          },
          {
            "validator_address": "632F5C139A5A9DFBFE5111DEE29FCFB6157207DC",
            "validator_index": "38",
            "height": "15611",
            "round": "1",
            "timestamp": "2018-07-31T07:48:59.462487478Z",
            "type": 2,
            "block_id": {
              "hash": "5B6A987B44016173C179B6FF41A95330BD0A5A19",
              "parts": {
                "total": "1",
                "hash": "B9C39A7DDEDE874FD15EE524A0F66B1108FC1BFC"
              }
            },
            "signature": {
              "type": "tendermint/SignatureEd25519",
              "value": "FK7y/SiOAYBF+TwpIKG96Qhbeb12hRiFBflqcOID2ADG+4RYDrrRsCVwB2Ii2xeJcYDQacPFb9rFoCoVMhdBBg=="
            }
          },
          {
            "validator_address": "64F57F8E796A9B7B590C1EFA4123988C86631D39",
            "validator_index": "39",
            "height": "15611",
            "round": "1",
            "timestamp": "2018-07-31T07:48:59.361662894Z",
            "type": 2,
            "block_id": {
              "hash": "5B6A987B44016173C179B6FF41A95330BD0A5A19",
              "parts": {
                "total": "1",
                "hash": "B9C39A7DDEDE874FD15EE524A0F66B1108FC1BFC"
              }
            },
            "signature": {
              "type": "tendermint/SignatureEd25519",
              "value": "7HImuav/nGAL9Quu4AdA+c2SsICvx1AaC53r+/fnUnSIfv83tXe2OV5fEwfCRmMWLqnyZyx9lsVvk6YA6k4pAw=="
            }
          },
          {
            "validator_address": "69D99B2C66043ACBEAA8447525C356AFC6408E0C",
            "validator_index": "40",
            "height": "15611",
            "round": "1",
            "timestamp": "2018-07-31T07:48:59.497345047Z",
            "type": 2,
            "block_id": {
              "hash": "5B6A987B44016173C179B6FF41A95330BD0A5A19",
              "parts": {
                "total": "1",
                "hash": "B9C39A7DDEDE874FD15EE524A0F66B1108FC1BFC"
              }
            },
            "signature": {
              "type": "tendermint/SignatureEd25519",
              "value": "3rY5YN4rOsfi69792Wi0xGXCGo4BeiRS7bp9KlxKJSuTRBalAB9XMCmkGKH0Y3g49vU6PE9B6O3xn8nYOGHJCA=="
            }
          },
          {
            "validator_address": "69EDADFA4A803E9DBF548C900D4A465E7D154262",
            "validator_index": "41",
            "height": "15611",
            "round": "1",
            "timestamp": "2018-07-31T07:48:59.597566633Z",
            "type": 2,
            "block_id": {
              "hash": "5B6A987B44016173C179B6FF41A95330BD0A5A19",
              "parts": {
                "total": "1",
                "hash": "B9C39A7DDEDE874FD15EE524A0F66B1108FC1BFC"
              }
            },
            "signature": {
              "type": "tendermint/SignatureEd25519",
              "value": "8g6TcfutPW7P0q5BPwVYvY5TftzDoduk4qLdahVTHDQgPfwEAIbnySbn1LUOsD7IE0UmWpsyTzEENryhRbCFDw=="
            }
          },
          {
            "validator_address": "6D3AD380E398D8592B03AA124BAFED5F125DF863",
            "validator_index": "42",
            "height": "15611",
            "round": "1",
            "timestamp": "2018-07-31T07:47:57.607411137Z",
            "type": 2,
            "block_id": {
              "hash": "5B6A987B44016173C179B6FF41A95330BD0A5A19",
              "parts": {
                "total": "1",
                "hash": "B9C39A7DDEDE874FD15EE524A0F66B1108FC1BFC"
              }
            },
            "signature": {
              "type": "tendermint/SignatureEd25519",
              "value": "Gbtq9tVmIi805KQ+IFweQ2fMKrygoA5NojwjaP5nU07DZX/FyORRr4BFSPcXLOLoPYb8CtYRC4J3sIEnm6pkAQ=="
            }
          },
          {
            "validator_address": "6F6C93B8BF3495063FEC9B5C771158607F4AE9D6",
            "validator_index": "43",
            "height": "15611",
            "round": "1",
            "timestamp": "2018-07-31T07:48:59.509077959Z",
            "type": 2,
            "block_id": {
              "hash": "5B6A987B44016173C179B6FF41A95330BD0A5A19",
              "parts": {
                "total": "1",
                "hash": "B9C39A7DDEDE874FD15EE524A0F66B1108FC1BFC"
              }
            },
            "signature": {
              "type": "tendermint/SignatureEd25519",
              "value": "fKPJyLHUo7KflcdqZ9i3/kwulVN3PyxSBhLVRrweDaJKTrC5CmLQdGbuYSz7rXdIYX22CoCpw+P8Kzfmw9xjCQ=="
            }
          },
          {
            "validator_address": "732CEEF54C374DDC6ADECBFD707AEFD07FEDC143",
            "validator_index": "44",
            "height": "15611",
            "round": "1",
            "timestamp": "2018-07-31T07:48:59.537413681Z",
            "type": 2,
            "block_id": {
              "hash": "5B6A987B44016173C179B6FF41A95330BD0A5A19",
              "parts": {
                "total": "1",
                "hash": "B9C39A7DDEDE874FD15EE524A0F66B1108FC1BFC"
              }
            },
            "signature": {
              "type": "tendermint/SignatureEd25519",
              "value": "o3G/XqZEjZk1eTmhQUhS7587LVEnLbdq3KFya8M2SoaJDSzIjSGmdGjr6CyRdIbFESwzMEje8By/oTWgc5OGDw=="
            }
          },
          {
            "validator_address": "7393D691BFAE9661918C09932D4D9060AB40939B",
            "validator_index": "45",
            "height": "15611",
            "round": "1",
            "timestamp": "2018-07-31T07:48:59.587231736Z",
            "type": 2,
            "block_id": {
              "hash": "5B6A987B44016173C179B6FF41A95330BD0A5A19",
              "parts": {
                "total": "1",
                "hash": "B9C39A7DDEDE874FD15EE524A0F66B1108FC1BFC"
              }
            },
            "signature": {
              "type": "tendermint/SignatureEd25519",
              "value": "XMwzA3PUudCNInGz+Q6y8rQc0hpJLpwrgMsaENvX5lmpaNWUGsp6arYN5Rn+8tYvP7wgzQ2B3lw10/ubWhRTDw=="
            }
          },
          {
            "validator_address": "751E43437224E8BB6D1569B3E2B2616B6E7F4397",
            "validator_index": "46",
            "height": "15611",
            "round": "1",
            "timestamp": "2018-07-31T07:48:59.421185495Z",
            "type": 2,
            "block_id": {
              "hash": "5B6A987B44016173C179B6FF41A95330BD0A5A19",
              "parts": {
                "total": "1",
                "hash": "B9C39A7DDEDE874FD15EE524A0F66B1108FC1BFC"
              }
            },
            "signature": {
              "type": "tendermint/SignatureEd25519",
              "value": "jUW6oZ/zSytsnWOADm1pJ74imtQdF6XTPxAnu1qEipjvBovxu8NHg2JRYVCRagjK0w28Ixt4vmdKlhqWWqnEBw=="
            }
          },
          {
            "validator_address": "7EB7593F519F1180C7E872D0494611464EDF03AE",
            "validator_index": "47",
            "height": "15611",
            "round": "1",
            "timestamp": "2018-07-31T07:48:59.468900649Z",
            "type": 2,
            "block_id": {
              "hash": "5B6A987B44016173C179B6FF41A95330BD0A5A19",
              "parts": {
                "total": "1",
                "hash": "B9C39A7DDEDE874FD15EE524A0F66B1108FC1BFC"
              }
            },
            "signature": {
              "type": "tendermint/SignatureEd25519",
              "value": "h1rNImAGwV1zG/6HtSHDZQeKXGuSvB71M9h4pfZxCUAc9TxoRM2LzOwQ0viZWCEpyOPjAJnglfmDkoI6LKCSBQ=="
            }
          },
          {
            "validator_address": "807CF675BA8479FC4FEC1047215DF07970040F1F",
            "validator_index": "48",
            "height": "15611",
            "round": "1",
            "timestamp": "2018-07-31T07:48:59.748294636Z",
            "type": 2,
            "block_id": {
              "hash": "5B6A987B44016173C179B6FF41A95330BD0A5A19",
              "parts": {
                "total": "1",
                "hash": "B9C39A7DDEDE874FD15EE524A0F66B1108FC1BFC"
              }
            },
            "signature": {
              "type": "tendermint/SignatureEd25519",
              "value": "gzwaVCRmUxoAwTxRawVORyTCx1JFhynQc2uHHndHE2Sfu+HrwIySIKfAtgG3pxgrWQ90O0cM02XM8lA32E17CA=="
            }
          },
          {
            "validator_address": "8126192EA66E8ADE6B36924534721366B987A4C1",
            "validator_index": "49",
            "height": "15611",
            "round": "1",
            "timestamp": "2018-07-31T07:48:59.429346593Z",
            "type": 2,
            "block_id": {
              "hash": "5B6A987B44016173C179B6FF41A95330BD0A5A19",
              "parts": {
                "total": "1",
                "hash": "B9C39A7DDEDE874FD15EE524A0F66B1108FC1BFC"
              }
            },
            "signature": {
              "type": "tendermint/SignatureEd25519",
              "value": "hxD1Ka9JVn1b7W014Ms98inoScP71u2xPE0zK9wtSx8A5IdNmyRO/HYo8DX+2Sp/MM9zGOehWfhwFrpqDEUzCw=="
            }
          },
          {
            "validator_address": "83AB321E012C57746689FED3A6064DF331F81007",
            "validator_index": "50",
            "height": "15611",
            "round": "1",
            "timestamp": "2018-07-31T07:48:59.449555744Z",
            "type": 2,
            "block_id": {
              "hash": "5B6A987B44016173C179B6FF41A95330BD0A5A19",
              "parts": {
                "total": "1",
                "hash": "B9C39A7DDEDE874FD15EE524A0F66B1108FC1BFC"
              }
            },
            "signature": {
              "type": "tendermint/SignatureEd25519",
              "value": "ulXj7YWdAycPg8oDmmLB6Z6/t1WLWTrB5y6gt4yalMyoHLdrungUstiAHxTlotj8S2IHfV4c9dQfxt9CGv6VDQ=="
            }
          },
          {
            "validator_address": "83BB1B88D3DBB20AD845FECA07749EBD87D3754D",
            "validator_index": "51",
            "height": "15611",
            "round": "1",
            "timestamp": "2018-07-31T07:48:59.591278399Z",
            "type": 2,
            "block_id": {
              "hash": "5B6A987B44016173C179B6FF41A95330BD0A5A19",
              "parts": {
                "total": "1",
                "hash": "B9C39A7DDEDE874FD15EE524A0F66B1108FC1BFC"
              }
            },
            "signature": {
              "type": "tendermint/SignatureEd25519",
              "value": "DN1f4p0NjpUdZLpRwIY9MEsFiEweSXra+/lXxydUY5z1gsSYX436YDjjSMFBXZS30cqzbaIHSVkzPsVQzFI5DA=="
            }
          },
          {
            "validator_address": "8F06FE1FD042683C426137FBC4BBAA4288924217",
            "validator_index": "52",
            "height": "15611",
            "round": "1",
            "timestamp": "2018-07-31T07:48:59.478632171Z",
            "type": 2,
            "block_id": {
              "hash": "5B6A987B44016173C179B6FF41A95330BD0A5A19",
              "parts": {
                "total": "1",
                "hash": "B9C39A7DDEDE874FD15EE524A0F66B1108FC1BFC"
              }
            },
            "signature": {
              "type": "tendermint/SignatureEd25519",
              "value": "U76luGTtSc3KqO5dXMfvKdVnAl4KxpaZMFS5MRhT8qfpSS25fQaWSd86TpvARWR7kywed+hXgDyCBPbz9pe0Cg=="
            }
          },
          {
            "validator_address": "8F45617BF45B10A3F8283DEBDB35E38C7CA43237",
            "validator_index": "53",
            "height": "15611",
            "round": "1",
            "timestamp": "2018-07-31T07:48:59.461850234Z",
            "type": 2,
            "block_id": {
              "hash": "5B6A987B44016173C179B6FF41A95330BD0A5A19",
              "parts": {
                "total": "1",
                "hash": "B9C39A7DDEDE874FD15EE524A0F66B1108FC1BFC"
              }
            },
            "signature": {
              "type": "tendermint/SignatureEd25519",
              "value": "5ylsVGtXuX5ZhnkZwv4vkyEwjvGtURi51h+cd9xVH20w+mHjzm1Glp/vsZX5dZLa/iZOK+MGFOKXq8zP/kgiCw=="
            }
          },
          {
            "validator_address": "95980831E186F2540F6E9FB6C8E74DE2401405AC",
            "validator_index": "54",
            "height": "15611",
            "round": "1",
            "timestamp": "2018-07-31T07:48:59.42515566Z",
            "type": 2,
            "block_id": {
              "hash": "5B6A987B44016173C179B6FF41A95330BD0A5A19",
              "parts": {
                "total": "1",
                "hash": "B9C39A7DDEDE874FD15EE524A0F66B1108FC1BFC"
              }
            },
            "signature": {
              "type": "tendermint/SignatureEd25519",
              "value": "LUQasz7mVgeBwLBmbr7QsYi/cO7ijSL6SLgp2f8iQa9vY32C0vUYYvJOjo6I6+vevRuuxI3KtCf+RgWHs2tJCQ=="
            }
          },
          {
            "validator_address": "95FAFBC1E0579C83D290A063020CE87C5334BD9B",
            "validator_index": "55",
            "height": "15611",
            "round": "1",
            "timestamp": "2018-07-31T07:48:59.39889791Z",
            "type": 2,
            "block_id": {
              "hash": "5B6A987B44016173C179B6FF41A95330BD0A5A19",
              "parts": {
                "total": "1",
                "hash": "B9C39A7DDEDE874FD15EE524A0F66B1108FC1BFC"
              }
            },
            "signature": {
              "type": "tendermint/SignatureEd25519",
              "value": "FRvngqkEg13TsmR/6h5lKzTC7NHVlVbQXA44gxf52RUZGZ/qArw0orWUN/Yriu9JQw+0HxAdwiIHvqfmV5GWCw=="
            }
          },
          {
            "validator_address": "96BDE45EC52606CF5CB59853097871AD60680549",
            "validator_index": "56",
            "height": "15611",
            "round": "1",
            "timestamp": "2018-07-31T07:48:59.409531826Z",
            "type": 2,
            "block_id": {
              "hash": "5B6A987B44016173C179B6FF41A95330BD0A5A19",
              "parts": {
                "total": "1",
                "hash": "B9C39A7DDEDE874FD15EE524A0F66B1108FC1BFC"
              }
            },
            "signature": {
              "type": "tendermint/SignatureEd25519",
              "value": "Um1oXUrVb8Czen2iarrxoaOsNK69YmNl3yW0+TUcSz5ttPOfjIJabCB65CYHP/2R7RdOgIT0CtieDNCRrKuiCQ=="
            }
          },
          {
            "validator_address": "970CD321881185BF83DB2923C321B0E75FDBB2B8",
            "validator_index": "57",
            "height": "15611",
            "round": "1",
            "timestamp": "2018-07-31T07:48:59.475220744Z",
            "type": 2,
            "block_id": {
              "hash": "5B6A987B44016173C179B6FF41A95330BD0A5A19",
              "parts": {
                "total": "1",
                "hash": "B9C39A7DDEDE874FD15EE524A0F66B1108FC1BFC"
              }
            },
            "signature": {
              "type": "tendermint/SignatureEd25519",
              "value": "CCFPgMkCb2xnIyBTSbrtSjxDErmIzmgMFwXYcpFqvDfBN1utBWjWJOIfOLeJ1QNiDwtRP4syxLSVt+yPVWY8Bw=="
            }
          },
          {
            "validator_address": "97DBB3D4B3D6C29287244864448F651DD5B07390",
            "validator_index": "58",
            "height": "15611",
            "round": "1",
            "timestamp": "2018-07-31T07:48:59.469356333Z",
            "type": 2,
            "block_id": {
              "hash": "5B6A987B44016173C179B6FF41A95330BD0A5A19",
              "parts": {
                "total": "1",
                "hash": "B9C39A7DDEDE874FD15EE524A0F66B1108FC1BFC"
              }
            },
            "signature": {
              "type": "tendermint/SignatureEd25519",
              "value": "jqCQ22Yyx96aPTWrlLGc2hQUVctC6NvWYxg6G6YZacAaa0oC8xe6iI1UtU6rlnrHf+E2PpP0q8caW/WsgJlRAw=="
            }
          },
          {
            "validator_address": "9C29C9B76D27586E4D9AD2AED0E943162645E55C",
            "validator_index": "59",
            "height": "15611",
            "round": "1",
            "timestamp": "2018-07-31T07:48:59.394199251Z",
            "type": 2,
            "block_id": {
              "hash": "5B6A987B44016173C179B6FF41A95330BD0A5A19",
              "parts": {
                "total": "1",
                "hash": "B9C39A7DDEDE874FD15EE524A0F66B1108FC1BFC"
              }
            },
            "signature": {
              "type": "tendermint/SignatureEd25519",
              "value": "l+eVychjsGENq4ovRrpuzIDXr35IgsyS8oObNuE9tID2oGKIxcpZX3wmEaYIpBrr+1wVtiBvGRJcMzdnr5dtCA=="
            }
          },
          {
            "validator_address": "9D93AD02FE1BD7E76B9E58D7EB461088EAD011E5",
            "validator_index": "60",
            "height": "15611",
            "round": "1",
            "timestamp": "2018-07-31T07:48:59.416938414Z",
            "type": 2,
            "block_id": {
              "hash": "5B6A987B44016173C179B6FF41A95330BD0A5A19",
              "parts": {
                "total": "1",
                "hash": "B9C39A7DDEDE874FD15EE524A0F66B1108FC1BFC"
              }
            },
            "signature": {
              "type": "tendermint/SignatureEd25519",
              "value": "yqPUzIlb0bVhJp3EyD7zE8WK25jbUgsvTYPHgIZE+pKrU7XsEeXUJeIiGpyhj5rK1oUtYPNgE4bpn4dHKM1lDQ=="
            }
          },
          {
            "validator_address": "A0A6466F4ABEA09C3B55E3709AFDE217A103209F",
            "validator_index": "61",
            "height": "15611",
            "round": "1",
            "timestamp": "2018-07-31T07:48:59.332304735Z",
            "type": 2,
            "block_id": {
              "hash": "5B6A987B44016173C179B6FF41A95330BD0A5A19",
              "parts": {
                "total": "1",
                "hash": "B9C39A7DDEDE874FD15EE524A0F66B1108FC1BFC"
              }
            },
            "signature": {
              "type": "tendermint/SignatureEd25519",
              "value": "XyTnic6MwbDDJ4ZTnXgmLCrFYAb/CihSsmbZxUTz7JZ95RTYgBdE72XFAJmttTiDZw8Zh/jkgxfvx9deEdB3AA=="
            }
          },
          {
            "validator_address": "A5868971300F155020634D7BB49C7634F7AACCD3",
            "validator_index": "62",
            "height": "15611",
            "round": "1",
            "timestamp": "2018-07-31T07:48:59.390278443Z",
            "type": 2,
            "block_id": {
              "hash": "5B6A987B44016173C179B6FF41A95330BD0A5A19",
              "parts": {
                "total": "1",
                "hash": "B9C39A7DDEDE874FD15EE524A0F66B1108FC1BFC"
              }
            },
            "signature": {
              "type": "tendermint/SignatureEd25519",
              "value": "kjhrBxm7rQv1Z+6cJRmyL/2T/c2k3VqHdh7nml5tsryu49+A12s6Grge1i7BOksRJc4kJzB/COsQ8J/+RwMnAg=="
            }
          },
          {
            "validator_address": "A6B3A5B5D982CFD7B5FDFA15CF5A720E7AE25E7F",
            "validator_index": "63",
            "height": "15611",
            "round": "1",
            "timestamp": "2018-07-31T07:48:59.402171916Z",
            "type": 2,
            "block_id": {
              "hash": "5B6A987B44016173C179B6FF41A95330BD0A5A19",
              "parts": {
                "total": "1",
                "hash": "B9C39A7DDEDE874FD15EE524A0F66B1108FC1BFC"
              }
            },
            "signature": {
              "type": "tendermint/SignatureEd25519",
              "value": "Q29w0gMO1TeeGZoCksrRFnaCzn7DOj317Q58eFofXl96CCjKRxF2gWOS81qF0S+mslWio7z0etNClVvRyR7DBQ=="
            }
          },
          {
            "validator_address": "AC96444A9083890B7C7B430DB17BF1D3EA5EED04",
            "validator_index": "64",
            "height": "15611",
            "round": "1",
            "timestamp": "2018-07-31T07:48:59.531273219Z",
            "type": 2,
            "block_id": {
              "hash": "5B6A987B44016173C179B6FF41A95330BD0A5A19",
              "parts": {
                "total": "1",
                "hash": "B9C39A7DDEDE874FD15EE524A0F66B1108FC1BFC"
              }
            },
            "signature": {
              "type": "tendermint/SignatureEd25519",
              "value": "7pR1kHetFR2ZuDKNgrtrNAZi7OerqVmXPDCSgs1e4PvuxLGkvlQHpgpJir0jYAyT8uLe+21pSasyXKwEZcfcBw=="
            }
          },
          {
            "validator_address": "ACB97FDA2D940AF0709B73537C458EB988AD2893",
            "validator_index": "65",
            "height": "15611",
            "round": "1",
            "timestamp": "2018-07-31T07:48:59.366461307Z",
            "type": 2,
            "block_id": {
              "hash": "5B6A987B44016173C179B6FF41A95330BD0A5A19",
              "parts": {
                "total": "1",
                "hash": "B9C39A7DDEDE874FD15EE524A0F66B1108FC1BFC"
              }
            },
            "signature": {
              "type": "tendermint/SignatureEd25519",
              "value": "7rI5lWoKDmPzF/u8FQ8SIlY5N0joagnrzcWkscGjQguAOjntKpKslVbDw6tYJRpbAaOkYlfGyPHrrJhfj2FhAA=="
            }
          },
          {
            "validator_address": "B197425B3210375F211661DE02EF2AE36580EB0F",
            "validator_index": "66",
            "height": "15611",
            "round": "1",
            "timestamp": "2018-07-31T07:48:59.407782617Z",
            "type": 2,
            "block_id": {
              "hash": "5B6A987B44016173C179B6FF41A95330BD0A5A19",
              "parts": {
                "total": "1",
                "hash": "B9C39A7DDEDE874FD15EE524A0F66B1108FC1BFC"
              }
            },
            "signature": {
              "type": "tendermint/SignatureEd25519",
              "value": "NeWGLaqAPlyeSIGjeHW/ZzkF0jJj1BZsclFnSuAFd23JJixM/+G3P1TP6k1Mgbb13+8kb4jZQCbrUFcvulKnCg=="
            }
          },
          {
            "validator_address": "B45E54D2D1CB5A4CCD1D49016608C18E7C56B270",
            "validator_index": "67",
            "height": "15611",
            "round": "1",
            "timestamp": "2018-07-31T07:48:59.567194848Z",
            "type": 2,
            "block_id": {
              "hash": "5B6A987B44016173C179B6FF41A95330BD0A5A19",
              "parts": {
                "total": "1",
                "hash": "B9C39A7DDEDE874FD15EE524A0F66B1108FC1BFC"
              }
            },
            "signature": {
              "type": "tendermint/SignatureEd25519",
              "value": "2wHAsjT2ZUlQvTEE/Z1n2Dm9AMBA/m5C6VQNlmLfIErXQTMYzKeh5BO2NUiK0WN+RCMk8za1E7nsT+avwAtUCg=="
            }
          },
          {
            "validator_address": "B59A34C0BE4EC73AF6A67D274F1695C9259C237C",
            "validator_index": "68",
            "height": "15611",
            "round": "1",
            "timestamp": "2018-07-31T07:48:59.557479494Z",
            "type": 2,
            "block_id": {
              "hash": "5B6A987B44016173C179B6FF41A95330BD0A5A19",
              "parts": {
                "total": "1",
                "hash": "B9C39A7DDEDE874FD15EE524A0F66B1108FC1BFC"
              }
            },
            "signature": {
              "type": "tendermint/SignatureEd25519",
              "value": "v6tdHd2bhOAXRf4+Sb+SzffJJoNzo+fQnNebt1Q7UxtjbBiZJcZLwJ/CcuYkyk8DM+VcVg59hYhoyjnMu5xJCQ=="
            }
          },
          {
            "validator_address": "BB1276BE89834835428664408917649FEEF5D90C",
            "validator_index": "69",
            "height": "15611",
            "round": "1",
            "timestamp": "2018-07-31T07:48:59.484674159Z",
            "type": 2,
            "block_id": {
              "hash": "5B6A987B44016173C179B6FF41A95330BD0A5A19",
              "parts": {
                "total": "1",
                "hash": "B9C39A7DDEDE874FD15EE524A0F66B1108FC1BFC"
              }
            },
            "signature": {
              "type": "tendermint/SignatureEd25519",
              "value": "ViVQRgGk/pbE9cxX4TfVhLw0ycBqLHNqdgCRI3jHnDTcm8Q88hQ1UOvKoWJSNr5DIygQphNYxs6hyrjXnvPADg=="
            }
          },
          {
            "validator_address": "BC36FEDD6EF6071118A3E51859DF3831A2EC4782",
            "validator_index": "70",
            "height": "15611",
            "round": "1",
            "timestamp": "2018-07-31T07:48:59.436923977Z",
            "type": 2,
            "block_id": {
              "hash": "5B6A987B44016173C179B6FF41A95330BD0A5A19",
              "parts": {
                "total": "1",
                "hash": "B9C39A7DDEDE874FD15EE524A0F66B1108FC1BFC"
              }
            },
            "signature": {
              "type": "tendermint/SignatureEd25519",
              "value": "NAi+2UZOan6a3bObF0IOgHn3O8ULsMpH6N/YUwqi9X6xGF/U5oze8QDVEPAOpi6ZvYQd4EXQmDJRlYlGIiVcCw=="
            }
          },
          {
            "validator_address": "BD9D0DA513BF099DB4BB6E725A4E19832789882F",
            "validator_index": "71",
            "height": "15611",
            "round": "1",
            "timestamp": "2018-07-31T07:48:59.408820474Z",
            "type": 2,
            "block_id": {
              "hash": "5B6A987B44016173C179B6FF41A95330BD0A5A19",
              "parts": {
                "total": "1",
                "hash": "B9C39A7DDEDE874FD15EE524A0F66B1108FC1BFC"
              }
            },
            "signature": {
              "type": "tendermint/SignatureEd25519",
              "value": "FrhYaxltH8yoWcxAcm9iY6zbAXtfP2mIIQ6+eG0agDK8k5cvPe6SE1Q7u5W9pcCmo5XlUQk3XkHEAYtRwdEEDg=="
            }
          },
          {
            "validator_address": "C1134A2FF8F7338E7CDB3FE57DDD2A655DEB1E22",
            "validator_index": "72",
            "height": "15611",
            "round": "1",
            "timestamp": "2018-07-31T07:48:59.300317358Z",
            "type": 2,
            "block_id": {
              "hash": "5B6A987B44016173C179B6FF41A95330BD0A5A19",
              "parts": {
                "total": "1",
                "hash": "B9C39A7DDEDE874FD15EE524A0F66B1108FC1BFC"
              }
            },
            "signature": {
              "type": "tendermint/SignatureEd25519",
              "value": "hyalrXclZPKW2vUtV2xCmLOIsKVQPU8iHA/lfum3RgWID77Yu7txSGW71XOm83pFRKpOmwx6+oDZcwTfasX+AA=="
            }
          },
          {
            "validator_address": "C39A8A2B85198DCB8F23AD1F6C198E2BA7AB5D60",
            "validator_index": "73",
            "height": "15611",
            "round": "1",
            "timestamp": "2018-07-31T07:48:59.387490216Z",
            "type": 2,
            "block_id": {
              "hash": "5B6A987B44016173C179B6FF41A95330BD0A5A19",
              "parts": {
                "total": "1",
                "hash": "B9C39A7DDEDE874FD15EE524A0F66B1108FC1BFC"
              }
            },
            "signature": {
              "type": "tendermint/SignatureEd25519",
              "value": "0+ahRhEMya8RQL/6dWXlxiw53wUC2urMf89BksjCsNRnh4HNOvqmjHlbhy9DBxqXX88+c2Q0VcDjCZkHKwNNAA=="
            }
          },
          {
            "validator_address": "C4335190C3B5BD4BA5568BC0F99C34162D940D08",
            "validator_index": "74",
            "height": "15611",
            "round": "1",
            "timestamp": "2018-07-31T07:48:59.479838929Z",
            "type": 2,
            "block_id": {
              "hash": "5B6A987B44016173C179B6FF41A95330BD0A5A19",
              "parts": {
                "total": "1",
                "hash": "B9C39A7DDEDE874FD15EE524A0F66B1108FC1BFC"
              }
            },
            "signature": {
              "type": "tendermint/SignatureEd25519",
              "value": "wDp6SzIki5TeNkOwx0QQ0BKjq9ZiRwj3uMj7EFRrenr+xiPxb96qHTS1/O+l3vRbvdDmeSN+yVZPE9c0LK9/AA=="
            }
          },
          {
            "validator_address": "C561CFA081677046376396922E7576E5F7B316AD",
            "validator_index": "75",
            "height": "15611",
            "round": "1",
            "timestamp": "2018-07-31T07:48:59.480950978Z",
            "type": 2,
            "block_id": {
              "hash": "5B6A987B44016173C179B6FF41A95330BD0A5A19",
              "parts": {
                "total": "1",
                "hash": "B9C39A7DDEDE874FD15EE524A0F66B1108FC1BFC"
              }
            },
            "signature": {
              "type": "tendermint/SignatureEd25519",
              "value": "vHmVhKmkuwQWibdUBF+pEurKkTbysngP8gFeRNlPA1jb6mjIK/noplOZfOYehbaODT6otWu/eAqSSVubrh2FCw=="
            }
          },
          {
            "validator_address": "CE589EA77B056D268D30D1DC1D68A70E0F885E95",
            "validator_index": "76",
            "height": "15611",
            "round": "1",
            "timestamp": "2018-07-31T07:48:59.400532128Z",
            "type": 2,
            "block_id": {
              "hash": "5B6A987B44016173C179B6FF41A95330BD0A5A19",
              "parts": {
                "total": "1",
                "hash": "B9C39A7DDEDE874FD15EE524A0F66B1108FC1BFC"
              }
            },
            "signature": {
              "type": "tendermint/SignatureEd25519",
              "value": "CyUJWVcetpSvZaU4oK7sKsWIpuGA9LAuk3rRp6r48YBMGtyngC4R335t+lo6iDk1RGM+RQV0QUgcuyrtbOmdBw=="
            }
          },
          {
            "validator_address": "CEB97DB5CB18270247ABDE6CF2F84F9AEE8A2904",
            "validator_index": "77",
            "height": "15611",
            "round": "1",
            "timestamp": "2018-07-31T07:48:59.507199793Z",
            "type": 2,
            "block_id": {
              "hash": "5B6A987B44016173C179B6FF41A95330BD0A5A19",
              "parts": {
                "total": "1",
                "hash": "B9C39A7DDEDE874FD15EE524A0F66B1108FC1BFC"
              }
            },
            "signature": {
              "type": "tendermint/SignatureEd25519",
              "value": "O8uY/ZOMG8hJl0issFwI7Ar5C4jZurcLndHD4VyDqTu792K0FHIHF3hX/cYZnXMYmeXn3G6lNZxMKadhP8KyCA=="
            }
          },
          {
            "validator_address": "CF205769734F5758CC39F907EFB73D6BAF915FB1",
            "validator_index": "78",
            "height": "15611",
            "round": "1",
            "timestamp": "2018-07-31T07:48:59.533009401Z",
            "type": 2,
            "block_id": {
              "hash": "5B6A987B44016173C179B6FF41A95330BD0A5A19",
              "parts": {
                "total": "1",
                "hash": "B9C39A7DDEDE874FD15EE524A0F66B1108FC1BFC"
              }
            },
            "signature": {
              "type": "tendermint/SignatureEd25519",
              "value": "Q8CpZoALEiY3O6OfRW52WJ5uhYGbPISpXQU93QvC72ZIBFpVFfwAjE6kBd3QUfELNZk5VT0RkazaGXNHBTbECQ=="
            }
          },
          {
            "validator_address": "D2134B826A1E25A955905CB79A4D8731CAFA0CCE",
            "validator_index": "79",
            "height": "15611",
            "round": "1",
            "timestamp": "2018-07-31T07:48:59.512563638Z",
            "type": 2,
            "block_id": {
              "hash": "5B6A987B44016173C179B6FF41A95330BD0A5A19",
              "parts": {
                "total": "1",
                "hash": "B9C39A7DDEDE874FD15EE524A0F66B1108FC1BFC"
              }
            },
            "signature": {
              "type": "tendermint/SignatureEd25519",
              "value": "N1mJXlVUn3iwNsEvtxc8XssxTevbWoATUyKGLktZTmOaB3FcxfLDfp5gyZoukP2YX2RIeC/PEFHS5Vyo8Ra0CA=="
            }
          },
          {
            "validator_address": "D6285C3422C8886445D53757CBE12D2B91B5A9D0",
            "validator_index": "80",
            "height": "15611",
            "round": "1",
            "timestamp": "2018-07-31T07:48:42.001621551Z",
            "type": 2,
            "block_id": {
              "hash": "5B6A987B44016173C179B6FF41A95330BD0A5A19",
              "parts": {
                "total": "1",
                "hash": "B9C39A7DDEDE874FD15EE524A0F66B1108FC1BFC"
              }
            },
            "signature": {
              "type": "tendermint/SignatureEd25519",
              "value": "exqkA99v0QZfpIUYKV1EadkBcQUbqOjTPZmc5cvacc4hrESa2LSXHtOUMziYyhz+v/V+uo1NZ5DHzHnWR0AqDw=="
            }
          },
          {
            "validator_address": "D77FB84A729972CD3E757C9BEB61561855832B92",
            "validator_index": "81",
            "height": "15611",
            "round": "1",
            "timestamp": "2018-07-31T07:48:59.518995758Z",
            "type": 2,
            "block_id": {
              "hash": "5B6A987B44016173C179B6FF41A95330BD0A5A19",
              "parts": {
                "total": "1",
                "hash": "B9C39A7DDEDE874FD15EE524A0F66B1108FC1BFC"
              }
            },
            "signature": {
              "type": "tendermint/SignatureEd25519",
              "value": "MSnmpsH8e8pMzRWY+nfghd1s8ktgkqnjTH4xXpe2hgIpmUxylGGNrLxMM2Tawpfg7wDNRLEaT8azePPeRuVpBA=="
            }
          },
          {
            "validator_address": "DB7E6732471D3EA5C90C17A9974D9F88AB45F2FB",
            "validator_index": "82",
            "height": "15611",
            "round": "1",
            "timestamp": "2018-07-31T07:48:59.473422352Z",
            "type": 2,
            "block_id": {
              "hash": "5B6A987B44016173C179B6FF41A95330BD0A5A19",
              "parts": {
                "total": "1",
                "hash": "B9C39A7DDEDE874FD15EE524A0F66B1108FC1BFC"
              }
            },
            "signature": {
              "type": "tendermint/SignatureEd25519",
              "value": "eeYlLmsS0HxhJPbIJvusD29gFNT5wgTfFAkm+EOn7C+Ys3OMlDUjXZQ8IH+c64M6na3ZF+pBh3EfNz+atdoyCQ=="
            }
          },
          {
            "validator_address": "DF54B862410BCD9B5C516FBB6C56BDC826ED6FA7",
            "validator_index": "83",
            "height": "15611",
            "round": "1",
            "timestamp": "2018-07-31T07:48:59.495488124Z",
            "type": 2,
            "block_id": {
              "hash": "5B6A987B44016173C179B6FF41A95330BD0A5A19",
              "parts": {
                "total": "1",
                "hash": "B9C39A7DDEDE874FD15EE524A0F66B1108FC1BFC"
              }
            },
            "signature": {
              "type": "tendermint/SignatureEd25519",
              "value": "VHJCud6TN9XwQAZ2PfG7du883KPmNVfXSZWW58YopbZGvcOOR2P263sdN5mOv6HkfBe0IMLeX/vJm/sJpnM7CA=="
            }
          },
          {
            "validator_address": "DFAF0C8B1B78D6D552B0189DE3ACA351439A1319",
            "validator_index": "84",
            "height": "15611",
            "round": "1",
            "timestamp": "2018-07-31T07:48:59.389010557Z",
            "type": 2,
            "block_id": {
              "hash": "5B6A987B44016173C179B6FF41A95330BD0A5A19",
              "parts": {
                "total": "1",
                "hash": "B9C39A7DDEDE874FD15EE524A0F66B1108FC1BFC"
              }
            },
            "signature": {
              "type": "tendermint/SignatureEd25519",
              "value": "OGQdQ2li5dPL0+7QkhWTgE53ARhXYfpFpP9yk66JIasbUXi84jEtnW8XpO2EimyMoPN+Vyz1CS/h5AIacp1VBg=="
            }
          },
          {
            "validator_address": "E1DBC77881161A5A3A8536A57536EAE546A75D69",
            "validator_index": "85",
            "height": "15611",
            "round": "1",
            "timestamp": "2018-07-31T07:48:59.372643833Z",
            "type": 2,
            "block_id": {
              "hash": "5B6A987B44016173C179B6FF41A95330BD0A5A19",
              "parts": {
                "total": "1",
                "hash": "B9C39A7DDEDE874FD15EE524A0F66B1108FC1BFC"
              }
            },
            "signature": {
              "type": "tendermint/SignatureEd25519",
              "value": "r58D4k1w3IDDbYV31CjWb2+O5Bz44t8F1r9PviEdtnw8bmR76fN4ut1b/F06SmDLHQ3PrRjflPWlxJsOIkloCA=="
            }
          },
          {
            "validator_address": "E300E9D484374C1D3E97C1D93CAC3B160A056298",
            "validator_index": "86",
            "height": "15611",
            "round": "1",
            "timestamp": "2018-07-31T07:48:59.653221931Z",
            "type": 2,
            "block_id": {
              "hash": "5B6A987B44016173C179B6FF41A95330BD0A5A19",
              "parts": {
                "total": "1",
                "hash": "B9C39A7DDEDE874FD15EE524A0F66B1108FC1BFC"
              }
            },
            "signature": {
              "type": "tendermint/SignatureEd25519",
              "value": "iR/8QHSB9VZQ43Ge+Aa+YpGbrrtZL8z3rGA52LInM79sPz3AKJDQfOWD7f+Nlj0217AMvyojYo0lt9kW60ppCA=="
            }
          },
          {
            "validator_address": "E39B5778E0D4297A46F45CF6940B0A163A430FF8",
            "validator_index": "87",
            "height": "15611",
            "round": "1",
            "timestamp": "2018-07-31T07:48:59.407668409Z",
            "type": 2,
            "block_id": {
              "hash": "5B6A987B44016173C179B6FF41A95330BD0A5A19",
              "parts": {
                "total": "1",
                "hash": "B9C39A7DDEDE874FD15EE524A0F66B1108FC1BFC"
              }
            },
            "signature": {
              "type": "tendermint/SignatureEd25519",
              "value": "8x1605RSJMAQYPKDBABczQth1qIIpGEBKWmVn0rpqK/pHSfkzGW96K3v+apGgNA4o4snVT2MyTAU1UGaOoe5BQ=="
            }
          },
          {
            "validator_address": "E3B19738F7132F950668504D326C7660F159D170",
            "validator_index": "88",
            "height": "15611",
            "round": "1",
            "timestamp": "2018-07-31T07:48:59.414945074Z",
            "type": 2,
            "block_id": {
              "hash": "5B6A987B44016173C179B6FF41A95330BD0A5A19",
              "parts": {
                "total": "1",
                "hash": "B9C39A7DDEDE874FD15EE524A0F66B1108FC1BFC"
              }
            },
            "signature": {
              "type": "tendermint/SignatureEd25519",
              "value": "yBZTeqQlQH7eoDlDJZB+uCxSvhdqXrqWo32L0ZOqYNVpfRAtva3qYlJuknHz8yqIGuutepTicUGcIxl9lp9RCw=="
            }
          },
          {
            "validator_address": "E42F8AEABB685219F7027F54D2B0DBC7846F633A",
            "validator_index": "89",
            "height": "15611",
            "round": "1",
            "timestamp": "2018-07-31T07:48:58.665232418Z",
            "type": 2,
            "block_id": {
              "hash": "5B6A987B44016173C179B6FF41A95330BD0A5A19",
              "parts": {
                "total": "1",
                "hash": "B9C39A7DDEDE874FD15EE524A0F66B1108FC1BFC"
              }
            },
            "signature": {
              "type": "tendermint/SignatureEd25519",
              "value": "g/7UQ8MUfDryJEN87asIao3tLLAg2LvxsjwoaLlOA/mEgsNc2o0Vak9PdEVuCwhLKaLfPQh8xj2vz0aVIBg0DA=="
            }
          },
          {
            "validator_address": "E4E6C2E81269DFFA196C17F98240E491479A6008",
            "validator_index": "90",
            "height": "15611",
            "round": "1",
            "timestamp": "2018-07-31T07:48:59.489796237Z",
            "type": 2,
            "block_id": {
              "hash": "5B6A987B44016173C179B6FF41A95330BD0A5A19",
              "parts": {
                "total": "1",
                "hash": "B9C39A7DDEDE874FD15EE524A0F66B1108FC1BFC"
              }
            },
            "signature": {
              "type": "tendermint/SignatureEd25519",
              "value": "mNP+BQTeDD44LwsgDN7gL+fFjMoS7BpVzgEmqduufBbZpJJuqdW4YLwD5tCcFEkiFN8sPJHy120cSLsCjONdBg=="
            }
          },
          {
            "validator_address": "E6A7079D584B163750BE0831227F6B685DEAF3C1",
            "validator_index": "91",
            "height": "15611",
            "round": "1",
            "timestamp": "2018-07-31T07:48:59.563308833Z",
            "type": 2,
            "block_id": {
              "hash": "5B6A987B44016173C179B6FF41A95330BD0A5A19",
              "parts": {
                "total": "1",
                "hash": "B9C39A7DDEDE874FD15EE524A0F66B1108FC1BFC"
              }
            },
            "signature": {
              "type": "tendermint/SignatureEd25519",
              "value": "5LlmX1ngbius/tgWfDBrk+LSqgPGzIchBRnrLmeHwhhGpBQSmlmg8ATznnsShk58FpMAQuxAtTof2mXiIKorCw=="
            }
          },
          {
            "validator_address": "E7A30077D5D11867D3EAF99ED45BFDC1EB834509",
            "validator_index": "92",
            "height": "15611",
            "round": "1",
            "timestamp": "2018-07-31T07:48:59.453811382Z",
            "type": 2,
            "block_id": {
              "hash": "5B6A987B44016173C179B6FF41A95330BD0A5A19",
              "parts": {
                "total": "1",
                "hash": "B9C39A7DDEDE874FD15EE524A0F66B1108FC1BFC"
              }
            },
            "signature": {
              "type": "tendermint/SignatureEd25519",
              "value": "XkBW3WxCzg14vjU24AfMAjtfJqllEyGWlD4Uo1GtstW8Rg1MXl5I9dNp50YZTbUc/EsqA98WZyqoKGLBaV0pCg=="
            }
          },
          {
            "validator_address": "EBC613967F66F4EC306852CDF58B4F151CF16738",
            "validator_index": "93",
            "height": "15611",
            "round": "1",
            "timestamp": "2018-07-31T07:48:59.543793028Z",
            "type": 2,
            "block_id": {
              "hash": "5B6A987B44016173C179B6FF41A95330BD0A5A19",
              "parts": {
                "total": "1",
                "hash": "B9C39A7DDEDE874FD15EE524A0F66B1108FC1BFC"
              }
            },
            "signature": {
              "type": "tendermint/SignatureEd25519",
              "value": "UqVpNU6i0XhpnqAc4yOEh2DwaGavzMonKGNOwCeDhVO0mez3sXhqdJveMc398CbXDhoLdLKfUSzwKF7RO7S5DA=="
            }
          },
          {
            "validator_address": "EC3401441726C40ECC7E51F744483B05BC6DE9BD",
            "validator_index": "94",
            "height": "15611",
            "round": "1",
            "timestamp": "2018-07-31T07:48:59.40721054Z",
            "type": 2,
            "block_id": {
              "hash": "5B6A987B44016173C179B6FF41A95330BD0A5A19",
              "parts": {
                "total": "1",
                "hash": "B9C39A7DDEDE874FD15EE524A0F66B1108FC1BFC"
              }
            },
            "signature": {
              "type": "tendermint/SignatureEd25519",
              "value": "KR98QutJLf+/xfF67IFJBmuvavXu7a+qWex0ZSm3OGwzwdagGgm/c3F6t0GhvW/EvFAc1Mdcu/+sNaM7hAa4Dg=="
            }
          },
          {
            "validator_address": "EC95B111D032181E1EC3B5E8875C5BB8E4AE7140",
            "validator_index": "95",
            "height": "15611",
            "round": "1",
            "timestamp": "2018-07-31T07:48:59.38510538Z",
            "type": 2,
            "block_id": {
              "hash": "5B6A987B44016173C179B6FF41A95330BD0A5A19",
              "parts": {
                "total": "1",
                "hash": "B9C39A7DDEDE874FD15EE524A0F66B1108FC1BFC"
              }
            },
            "signature": {
              "type": "tendermint/SignatureEd25519",
              "value": "wx6W4egUp7+9ffWqpgQndTApUZD9ekvEqbMu8boA8xqnLtoQ0GC4ChOWicf1DOZ50HP4QKSR3yM8kJw5le5oCQ=="
            }
          },
          {
            "validator_address": "F13C1805E8131C9B47E2A46818F57D8A2841E578",
            "validator_index": "96",
            "height": "15611",
            "round": "1",
            "timestamp": "2018-07-31T07:48:59.454612114Z",
            "type": 2,
            "block_id": {
              "hash": "5B6A987B44016173C179B6FF41A95330BD0A5A19",
              "parts": {
                "total": "1",
                "hash": "B9C39A7DDEDE874FD15EE524A0F66B1108FC1BFC"
              }
            },
            "signature": {
              "type": "tendermint/SignatureEd25519",
              "value": "0S1DEyMYG73JEvi5RR16EWeDTlSZdKhNK1JqJF1/tX6IHj2cWprCmYpfy0BycYRVczzrD1o1fSw6mrhxtte3BQ=="
            }
          },
          {
            "validator_address": "F23FF36BD5B90C33CE3A03ED72DBDCF5EC07D6AF",
            "validator_index": "97",
            "height": "15611",
            "round": "1",
            "timestamp": "2018-07-31T07:48:59.476480996Z",
            "type": 2,
            "block_id": {
              "hash": "5B6A987B44016173C179B6FF41A95330BD0A5A19",
              "parts": {
                "total": "1",
                "hash": "B9C39A7DDEDE874FD15EE524A0F66B1108FC1BFC"
              }
            },
            "signature": {
              "type": "tendermint/SignatureEd25519",
              "value": "lKJmduecRnoO9otndn150chrYqfEmM2yP3UxCkDm4ITgSarijGrfR82QSYEioWlkyjJ8pTs3q5g5gfYi1Xo0AA=="
            }
          },
          {
            "validator_address": "F4268597DE93E3E2CED38845010F8AA34E2A879E",
            "validator_index": "98",
            "height": "15611",
            "round": "1",
            "timestamp": "2018-07-31T07:48:59.462962363Z",
            "type": 2,
            "block_id": {
              "hash": "5B6A987B44016173C179B6FF41A95330BD0A5A19",
              "parts": {
                "total": "1",
                "hash": "B9C39A7DDEDE874FD15EE524A0F66B1108FC1BFC"
              }
            },
            "signature": {
              "type": "tendermint/SignatureEd25519",
              "value": "LA91XnNCQUjMnxU+G3A59SyQAhJ7DpHrApIQeDUw9DB5wGynCke9Gyih+wib5Zn5mAIrqcIPFnZVElan8tplAQ=="
            }
          },
          {
            "validator_address": "F4DEB417999B04BE2EFF9FFE03FA373D86011CC0",
            "validator_index": "99",
            "height": "15611",
            "round": "1",
            "timestamp": "2018-07-31T07:48:59.464707774Z",
            "type": 2,
            "block_id": {
              "hash": "5B6A987B44016173C179B6FF41A95330BD0A5A19",
              "parts": {
                "total": "1",
                "hash": "B9C39A7DDEDE874FD15EE524A0F66B1108FC1BFC"
              }
            },
            "signature": {
              "type": "tendermint/SignatureEd25519",
              "value": "p8bhNnqpi5Gy+AakbwSNF3HK7avtIrP4wfFB6mXC4uZFIg/tgARdjbaiihjRvbrOCrDrsBTWTF/XSRB8JIYnDQ=="
            }
          },
          null,
          {
            "validator_address": "FF3F3FCBCE7E62D7AD5506FF846EC4518D980515",
            "validator_index": "101",
            "height": "15611",
            "round": "1",
            "timestamp": "2018-07-31T07:48:59.37072742Z",
            "type": 2,
            "block_id": {
              "hash": "5B6A987B44016173C179B6FF41A95330BD0A5A19",
              "parts": {
                "total": "1",
                "hash": "B9C39A7DDEDE874FD15EE524A0F66B1108FC1BFC"
              }
            },
            "signature": {
              "type": "tendermint/SignatureEd25519",
              "value": "XU9jGIvGsl9PCN4lo7ijp/CjtSM9+CXxDIr9UQHMp369RxEV7CKiaZEhBExmEHH6KiX7CdhtXxpSzlBGJvfWDA=="
            }
          }
        ]
      }
    },
    "canonical": true
  }
}