{
  "jsonrpc": "2.0",
  "id": "",
  "result": {
    "SignedHeader": {
      "header": {
        "chain_id": "gaia-7004",
        "height": "15776",
        "time": "2018-07-31T08:04:45.635128391Z",
        "num_txs": "0",
        "last_block_id": {
          "hash": "60DF9C15FF696F2A0975F3EA3DC4FA559EB5A583",
          "parts": {
            "total": "1",
            "hash": "89258D7A01646D73A8C094F91ECF0050F875C6FC"
          }
        },
        "total_txs": "586",
        "last_commit_hash": "71073D180DD0633A182D291C734C05CD4B22147C",
        "data_hash": "",
        "validators_hash": "AA99E41230D67FD108C437275A8EEECEF2C25DFE",
        "consensus_hash": "D6B74BB35BDFFD8392340F2A379173548AE188FE",
        "app_hash": "D7E49634E4DD3FD04D373C981CA150BFBB6356E2",
        "last_results_hash": "",
        "evidence_hash": ""
      },
      "commit": {
        "block_id": {
          "hash": "CE3B05D365B964142F2821C0CC6F4F93A019ED72",
          "parts": {
            "total": "1",
            "hash": "8C13A2D2F7E8D89F9EEFFA2C97BFA7EFCD04FBD6"
          }
        },
        "precommits": [
          {
            "validator_address": "029359C0C768096273A68ABC902A6B17AC8D1D70",
            "validator_index": "0",
            "height": "15776",
            "round": "1",
            "timestamp": "2018-07-31T08:04:46.387613024Z",
            "type": 2,
            "block_id": {
              "hash": "CE3B05D365B964142F2821C0CC6F4F93A019ED72",
              "parts": {
                "total": "1",
                "hash": "8C13A2D2F7E8D89F9EEFFA2C97BFA7EFCD04FBD6"
              }
            },
            "signature": {
              "type": "tendermint/SignatureEd25519",
              "value": "R7qjLHZLRmAhzBvIHK4p4AB2bkzKPZcFkaTGyj6FsnBLQQjj7WFLDCYB15ZZQ5jl4/39PAobqBWlrVzkMLbcDg=="
            }
          },
          {
            "validator_address": "02FE4B97A8387F39D1AC19E0C1702B3CC614812F",
            "validator_index": "1",
            "height": "15776",
            "round": "1",
            "timestamp": "2018-07-31T08:04:46.374925735Z",
            "type": 2,
            "block_id": {
              "hash": "CE3B05D365B964142F2821C0CC6F4F93A019ED72",
              "parts": {
                "total": "1",
                "hash": "8C13A2D2F7E8D89F9EEFFA2C97BFA7EFCD04FBD6"
              }
            },
            "signature": {
              "type": "tendermint/SignatureEd25519",
              "value": "2LvmFdotK+frfxejHqRhKsizP/oXbltoVLQWaOKMl50Elusd1mBVwPs3PShIbtNQyhii6ADrK7WfyTIx9IctCQ=="
            }
          },
          {
            "validator_address": "0548261C50222FD710EB5EBDF03A0E6567B21D20",
            "validator_index": "2",
            "height": "15776",
            "round": "1",
            "timestamp": "2018-07-31T08:04:46.440263572Z",
            "type": 2,
            "block_id": {
              "hash": "CE3B05D365B964142F2821C0CC6F4F93A019ED72",
              "parts": {
                "total": "1",
                "hash": "8C13A2D2F7E8D89F9EEFFA2C97BFA7EFCD04FBD6"
              }
            },
            "signature": {
              "type": "tendermint/SignatureEd25519",
              "value": "ODZp4G2kHKrrTV06LkijYU+rTKwR46f9fNODKD+OW7hgsobM+cIOsuHmRFQSyeEFOnwcPLOF9Ai0yZ1GLGRfCA=="
            }
          },
          {
            "validator_address": "09145E611CC27EEB944FC5A956DDF710F943B9EF",
            "validator_index": "3",
            "height": "15776",
            "round": "1",
            "timestamp": "2018-07-31T08:04:46.422813442Z",
            "type": 2,
            "block_id": {
              "hash": "CE3B05D365B964142F2821C0CC6F4F93A019ED72",
              "parts": {
                "total": "1",
                "hash": "8C13A2D2F7E8D89F9EEFFA2C97BFA7EFCD04FBD6"
              }
            },
            "signature": {
              "type": "tendermint/SignatureEd25519",
              "value": "uomKlpEOaE3ypeI3AFe43kdDhqHJChNL+NTaMEfz8wKG7p6/BpF8gAaytM/PYph00Ie5egsqwi9Py3pEX1LWCg=="
            }
          },
          {
            "validator_address": "0989D0355A104B67AE0AE028C68FB610690E174B",
            "validator_index": "4",
            "height": "15776",
            "round": "1",
            "timestamp": "2018-07-31T08:04:46.385106251Z",
            "type": 2,
            "block_id": {
              "hash": "CE3B05D365B964142F2821C0CC6F4F93A019ED72",
              "parts": {
                "total": "1",
                "hash": "8C13A2D2F7E8D89F9EEFFA2C97BFA7EFCD04FBD6"
              }
            },
            "signature": {
              "type": "tendermint/SignatureEd25519",
              "value": "i0VK81fmC4RDsLD1QaJiGDXVhyR+okCayDJhbufyS/K8FNYy/Y3KD/Dp6qbh0w+7vJOk4Qv8ml76JIkCCKTZDg=="
            }
          },
          {
            "validator_address": "0A692DBFFE9E5DD28E7DECC33CED1AEB4C0D014E",
            "validator_index": "5",
            "height": "15776",
            "round": "1",
            "timestamp": "2018-07-31T08:04:46.549354731Z",
            "type": 2,
            "block_id": {
              "hash": "CE3B05D365B964142F2821C0CC6F4F93A019ED72",
              "parts": {
                "total": "1",
                "hash": "8C13A2D2F7E8D89F9EEFFA2C97BFA7EFCD04FBD6"
              }
            },
            "signature": {
              "type": "tendermint/SignatureEd25519",
              "value": "azb0bCRB7MkdHChpti7bDmVENFodmhz/BPGf3LVZ28xIi4KttKc9w9SJYHo5GQD7bKFGhMQFCE+oznHIfbNsCA=="
            }
          },
          {
            "validator_address": "0DDF97111D73DB825138EC15EC27DE5FE8536901",
            "validator_index": "6",
            "height": "15776",
            "round": "1",
            "timestamp": "2018-07-31T08:04:46.409965571Z",
            "type": 2,
            "block_id": {
              "hash": "CE3B05D365B964142F2821C0CC6F4F93A019ED72",
              "parts": {
                "total": "1",
                "hash": "8C13A2D2F7E8D89F9EEFFA2C97BFA7EFCD04FBD6"
              }
            },
            "signature": {
              "type": "tendermint/SignatureEd25519",
              "value": "zOi8/L0AMap57/kzFLp8JHMrQA+Fgf9eh0tCqVq48bbQA5F0ZxBXkh6T13yumbwAGJw6pxipWfkMUbrlmdzBDw=="
            }
          },
          {
            "validator_address": "1751786EFC085D5331C61168FFFC8202EA151B4E",
            "validator_index": "7",
            "height": "15776",
            "round": "1",
            "timestamp": "2018-07-31T08:04:46.033781818Z",
            "type": 2,
            "block_id": {
              "hash": "CE3B05D365B964142F2821C0CC6F4F93A019ED72",
              "parts": {
                "total": "1",
                "hash": "8C13A2D2F7E8D89F9EEFFA2C97BFA7EFCD04FBD6"
              }
            },
            "signature": {
              "type": "tendermint/SignatureEd25519",
              "value": "g1LsIVHg0xyNBnHbN4wubCXbHntPOMh0Zjs5ilkS5zynYQE1EJJxa5iqCC4jhTUk+oo5Ea9mIKR5qnb/4uTAAQ=="
            }
          },
          {
            "validator_address": "17BB5CD01E8940FAFB948A04D5FA5A0645E5822E",
            "validator_index": "8",
            "height": "15776",
            "round": "1",
            "timestamp": "2018-07-31T08:04:46.380999164Z",
            "type": 2,
            "block_id": {
              "hash": "CE3B05D365B964142F2821C0CC6F4F93A019ED72",
              "parts": {
                "total": "1",
                "hash": "8C13A2D2F7E8D89F9EEFFA2C97BFA7EFCD04FBD6"
              }
            },
            "signature": {
              "type": "tendermint/SignatureEd25519",
              "value": "aKK0t9eOBkEHITHFjmHfshyeS4RhAGOHs2wZ1xniOSiQteDCaRL9J072ryG++kpXmkyR8nM3fWMA4v+Ks2kXBQ=="
            }
          },
          {
            "validator_address": "1C683A87904BC38F05004FE83301A3A3E35447EB",
            "validator_index": "9",
            "height": "15776",
            "round": "1",
            "timestamp": "2018-07-31T08:04:46.346969463Z",
            "type": 2,
            "block_id": {
              "hash": "CE3B05D365B964142F2821C0CC6F4F93A019ED72",
              "parts": {
                "total": "1",
                "hash": "8C13A2D2F7E8D89F9EEFFA2C97BFA7EFCD04FBD6"
              }
            },
            "signature": {
              "type": "tendermint/SignatureEd25519",
              "value": "CuSfj45ZyEnt+8ftDhqyYJrqkZ/R4RxGh3+nYGisj4Ed7bD0cabLAu6KJD+IbcdImY8KEisxySujJ/WaSKC4BA=="
            }
          },
          {
            "validator_address": "1E9CE94FD0BA5CFEB901F90BC658D64D85B134D2",
            "validator_index": "10",
            "height": "15776",
            "round": "1",
            "timestamp": "2018-07-31T08:04:46.424347711Z",
            "type": 2,
            "block_id": {
              "hash": "CE3B05D365B964142F2821C0CC6F4F93A019ED72",
              "parts": {
                "total": "1",
                "hash": "8C13A2D2F7E8D89F9EEFFA2C97BFA7EFCD04FBD6"
              }
            },
            "signature": {
              "type": "tendermint/SignatureEd25519",
              "value": "t6aT70HL2T4q+bv++rDA88JutSpkkiOER5Dc0aL9UXzMzQa2rrPqqSuCuM0Y3qvB9NDDeu0zik2AHoDTg2qNDw=="
            }
          },
          {
            "validator_address": "1ECD8C5FE1341D74CDC633A245DD56858DE2F9A2",
            "validator_index": "11",
            "height": "15776",
            "round": "1",
            "timestamp": "2018-07-31T08:04:46.535345467Z",
            "type": 2,
            "block_id": {
              "hash": "CE3B05D365B964142F2821C0CC6F4F93A019ED72",
              "parts": {
                "total": "1",
                "hash": "8C13A2D2F7E8D89F9EEFFA2C97BFA7EFCD04FBD6"
              }
            },
            "signature": {
              "type": "tendermint/SignatureEd25519",
              "value": "bdGFLaoOjZBJnpjjMQcSZMZQkp7gs5MHbwIFwZgSGDUHfGuReaOrSoZRob0miq8X6ZSvrPA8MdALUUCRbH5DCQ=="
            }
          },
          {
            "validator_address": "1F3A68CAAD483768AA2BF667DEF10F7104C89928",
            "validator_index": "12",
            "height": "15776",
            "round": "1",
            "timestamp": "2018-07-31T08:04:46.420035919Z",
            "type": 2,
            "block_id": {
              "hash": "CE3B05D365B964142F2821C0CC6F4F93A019ED72",
              "parts": {
                "total": "1",
                "hash": "8C13A2D2F7E8D89F9EEFFA2C97BFA7EFCD04FBD6"
              }
            },
            "signature": {
              "type": "tendermint/SignatureEd25519",
              "value": "1SciU8F9UYJ1qkF5WKroW0Kr4qqX+W61P/ZGWkZSJMmbV9FZKuzD62rDI8LxxH7/ss9URtxz/ibOXnn/550kBQ=="
            }
          },
          {
            "validator_address": "23897586D68E2AC1C78E0EF5BB5DF5C8EAB18F50",
            "validator_index": "13",
            "height": "15776",
            "round": "1",
            "timestamp": "2018-07-31T08:04:46.428567393Z",
            "type": 2,
            "block_id": {
              "hash": "CE3B05D365B964142F2821C0CC6F4F93A019ED72",
              "parts": {
                "total": "1",
                "hash": "8C13A2D2F7E8D89F9EEFFA2C97BFA7EFCD04FBD6"
              }
            },
            "signature": {
              "type": "tendermint/SignatureEd25519",
              "value": "M2NqZwllu0d+NNpLSVHBpNdXVfvL7DgEZXhOGQMHGoKkfdSBBYTZEhIpdlRuMNtZ08V8B262pC+yWXMe12QeAw=="
            }
          },
          {
            "validator_address": "28770D17E8530825E7310A0659308654B7EC9682",
            "validator_index": "14",
            "height": "15776",
            "round": "1",
            "timestamp": "2018-07-31T08:04:46.377704017Z",
            "type": 2,
            "block_id": {
              "hash": "CE3B05D365B964142F2821C0CC6F4F93A019ED72",
              "parts": {
                "total": "1",
                "hash": "8C13A2D2F7E8D89F9EEFFA2C97BFA7EFCD04FBD6"
              }
            },
            "signature": {
              "type": "tendermint/SignatureEd25519",
              "value": "tvMyAsFWWTMmaEdjpR5MGLtlZIF+9foopMOrmCnDC77i5Uaqw7qIk6xVOt73l9xU5lFQ/fXpEFDB2wu2TTlwCw=="
            }
          },
          {
            "validator_address": "2A92EC3C642140202298D0E245095E0ECFC25228",
            "validator_index": "15",
            "height": "15776",
            "round": "1",
            "timestamp": "2018-07-31T08:04:46.456773051Z",
            "type": 2,
            "block_id": {
              "hash": "CE3B05D365B964142F2821C0CC6F4F93A019ED72",
              "parts": {
                "total": "1",
                "hash": "8C13A2D2F7E8D89F9EEFFA2C97BFA7EFCD04FBD6"
              }
            },
            "signature": {
              "type": "tendermint/SignatureEd25519",
              "value": "PZxPrQlV93SJsu9+vFS0JYe6O7bE/OT87qxmyy9HTcOuz9IFXTmxC0dPEAGCjg/n5OrkSMIHf/YSW7zSjMrlCA=="
            }
          },
          {
            "validator_address": "33412C9A69C60CB0FAA24A5C5B3A906DE24B47C2",
            "validator_index": "16",
            "height": "15776",
            "round": "1",
            "timestamp": "2018-07-31T08:04:46.34320953Z",
            "type": 2,
            "block_id": {
              "hash": "CE3B05D365B964142F2821C0CC6F4F93A019ED72",
              "parts": {
                "total": "1",
                "hash": "8C13A2D2F7E8D89F9EEFFA2C97BFA7EFCD04FBD6"
              }
            },
            "signature": {
              "type": "tendermint/SignatureEd25519",
              "value": "YIit52LR6sWxheMnuDFSOOpzkyFPoPcFN21a0NVYEfah5WPfX0zaMOJalvSQFhgeMHWtllTxJDS74A5ISIOHAw=="
            }
          },
          {
            "validator_address": "3383EF2A13B160C41947AC30434B274B2FAF0617",
            "validator_index": "17",
            "height": "15776",
            "round": "1",
            "timestamp": "2018-07-31T08:04:46.429063883Z",
            "type": 2,
            "block_id": {
              "hash": "CE3B05D365B964142F2821C0CC6F4F93A019ED72",
              "parts": {
                "total": "1",
                "hash": "8C13A2D2F7E8D89F9EEFFA2C97BFA7EFCD04FBD6"
              }
            },
            "signature": {
              "type": "tendermint/SignatureEd25519",
              "value": "CtLuU4Re8UR0IhQfh6Zkfkxxp0eJJQTsOCWpImDLhTi/TePbrhq6/ZTzCbATpWDl+blRrDzM/2bHSOoTRKy0BQ=="
            }
          },
          {
            "validator_address": "36E9B7FAEC964F97D84C028ED62493E373AD0B38",
            "validator_index": "18",
            "height": "15776",
            "round": "1",
            "timestamp": "2018-07-31T08:04:46.492207574Z",
            "type": 2,
            "block_id": {
              "hash": "CE3B05D365B964142F2821C0CC6F4F93A019ED72",
              "parts": {
                "total": "1",
                "hash": "8C13A2D2F7E8D89F9EEFFA2C97BFA7EFCD04FBD6"
              }
            },
            "signature": {
              "type": "tendermint/SignatureEd25519",
              "value": "7qSjjIs3wG6CYFgCuU8WyJAwp2z8j3S+HrSVQpK5j8GVEjxIlunqKtDtd/3YVZvr19r4JaNSadMjFhvd+/EVDQ=="
            }
          },
          {
            "validator_address": "38A8D85D36BEA2E5FCF8A1E778F53628E450EF13",
            "validator_index": "19",
            "height": "15776",
            "round": "1",
            "timestamp": "2018-07-31T08:04:46.557989225Z",
            "type": 2,
            "block_id": {
              "hash": "CE3B05D365B964142F2821C0CC6F4F93A019ED72",
              "parts": {
                "total": "1",
                "hash": "8C13A2D2F7E8D89F9EEFFA2C97BFA7EFCD04FBD6"
              }
            },
            "signature": {
              "type": "tendermint/SignatureEd25519",
              "value": "mBGYrO1kqa1Y0ZqfGWH7Od8u7S88p7Nhr3aJe+3wZBn0okxmO9scfxr4Uz0bG4/3mGx6uZfA2y6R7zECNPHWDA=="
            }
          },
          {
            "validator_address": "39DFDA0C5DB84B269642188B23253508537798E6",
            "validator_index": "20",
            "height": "15776",
            "round": "1",
            "timestamp": "2018-07-31T08:04:46.410134069Z",
            "type": 2,
            "block_id": {
              "hash": "CE3B05D365B964142F2821C0CC6F4F93A019ED72",
              "parts": {
                "total": "1",
                "hash": "8C13A2D2F7E8D89F9EEFFA2C97BFA7EFCD04FBD6"
              }
            },
            "signature": {
              "type": "tendermint/SignatureEd25519",
              "value": "JRENcIeJTPJTtrs1uNT/Rbg66lmN0ho6qc7RaLHP5cdCwSpenMnAQAZeUqsxmHFF+HX/Gz4B6xAOB0c4JfFLBA=="
            }
          },
          {
            "validator_address": "3AC99B708404452366E0953A4BE849226DC86CBC",
            "validator_index": "21",
            "height": "15776",
            "round": "1",
            "timestamp": "2018-07-31T08:04:46.500204976Z",
            "type": 2,
            "block_id": {
              "hash": "CE3B05D365B964142F2821C0CC6F4F93A019ED72",
              "parts": {
                "total": "1",
                "hash": "8C13A2D2F7E8D89F9EEFFA2C97BFA7EFCD04FBD6"
              }
            },
            "signature": {
              "type": "tendermint/SignatureEd25519",
              "value": "dIY7puayIQbOTn46waUR0QroX5v2xjrlyFMPdM+mqcUx88bjrbzT0aVpeXzITIPRfjaw0ubRT6k7d0QAboefAw=="
            }
          },
          {
            "validator_address": "3DCB822A10ED319EC7C4393D8E3FD4A41B15AAF2",
            "validator_index": "22",
            "height": "15776",
            "round": "1",
            "timestamp": "2018-07-31T08:04:46.369025198Z",
            "type": 2,
            "block_id": {
              "hash": "CE3B05D365B964142F2821C0CC6F4F93A019ED72",
              "parts": {
                "total": "1",
                "hash": "8C13A2D2F7E8D89F9EEFFA2C97BFA7EFCD04FBD6"
              }
            },
            "signature": {
              "type": "tendermint/SignatureEd25519",
              "value": "q9NvjS7Bjo3zX8rL3YJOot8YAxqyS9aLi6spH43ieo9vBrVyT3dKt/RM8boXU3oQy0PCgVR70WDYZWbASnZZDw=="
            }
          },
          {
            "validator_address": "3E899BA36A93C7370347BD5FE85909F2ECD93F8C",
            "validator_index": "23",
            "height": "15776",
            "round": "1",
            "timestamp": "2018-07-31T08:04:46.386965218Z",
            "type": 2,
            "block_id": {
              "hash": "CE3B05D365B964142F2821C0CC6F4F93A019ED72",
              "parts": {
                "total": "1",
                "hash": "8C13A2D2F7E8D89F9EEFFA2C97BFA7EFCD04FBD6"
              }
            },
            "signature": {
              "type": "tendermint/SignatureEd25519",
              "value": "ZkWi6v6UutFnvmGjsqCY4N0mCKbIm1MIuu/xhhfbkWzjFL1YqNa1EtlZQc7NvpxcdzpcMDorJmZQeIFHYAvdDg=="
            }
          },
          {
            "validator_address": "41CAB2E29E7D0F2282E3275938F188FF9386B84C",
            "validator_index": "24",
            "height": "15776",
            "round": "1",
            "timestamp": "2018-07-31T08:04:46.420124696Z",
            "type": 2,
            "block_id": {
              "hash": "CE3B05D365B964142F2821C0CC6F4F93A019ED72",
              "parts": {
                "total": "1",
                "hash": "8C13A2D2F7E8D89F9EEFFA2C97BFA7EFCD04FBD6"
              }
            },
            "signature": {
              "type": "tendermint/SignatureEd25519",
              "value": "VEFUljAjFmeAVc9zK8hRiMeA9+7S4Lp4pg3YhXHe9j1zikwKU3Lx7R9yJIVB+TBo6UslPxxlfCqTJWt9jERtCw=="
            }
          },
          {
            "validator_address": "462B656869DB02A8FD1077E255F8CC7401DC37C6",
            "validator_index": "25",
            "height": "15776",
            "round": "1",
            "timestamp": "2018-07-31T08:04:46.360492349Z",
            "type": 2,
            "block_id": {
              "hash": "CE3B05D365B964142F2821C0CC6F4F93A019ED72",
              "parts": {
                "total": "1",
                "hash": "8C13A2D2F7E8D89F9EEFFA2C97BFA7EFCD04FBD6"
              }
            },
            "signature": {
              "type": "tendermint/SignatureEd25519",
              "value": "cb+yXyYQTJ0zbpWEimJvCA/SLejKreormZUvlIdaDaF8mJp8dsdu+to7gD3804kX2b+iqhsuZPp3HuY+JpzSDA=="
            }
          },
          {
            "validator_address": "48E5118163E5442068A1B5A42D2EEDBB75724935",
            "validator_index": "26",
            "height": "15776",
            "round": "1",
            "timestamp": "2018-07-31T08:04:46.523364331Z",
            "type": 2,
            "block_id": {
              "hash": "CE3B05D365B964142F2821C0CC6F4F93A019ED72",
              "parts": {
                "total": "1",
                "hash": "8C13A2D2F7E8D89F9EEFFA2C97BFA7EFCD04FBD6"
              }
            },
            "signature": {
              "type": "tendermint/SignatureEd25519",
              "value": "+X4tZOhsTSKosoj1wJkJISSrYsC0J3x09mS+UkDfS0cPw+9he/wO2Wf3TUa2V5jAIXM+8o2ZWCXdKXGZuLwGCQ=="
            }
          },
          {
            "validator_address": "4944F8BBBB5303E17BC0607DF332320EDBC750EA",
            "validator_index": "27",
            "height": "15776",
            "round": "1",
            "timestamp": "2018-07-31T08:04:46.381750701Z",
            "type": 2,
            "block_id": {
              "hash": "CE3B05D365B964142F2821C0CC6F4F93A019ED72",
              "parts": {
                "total": "1",
                "hash": "8C13A2D2F7E8D89F9EEFFA2C97BFA7EFCD04FBD6"
              }
            },
            "signature": {
              "type": "tendermint/SignatureEd25519",
              "value": "z5txEwaHIww7aOAn7cWqZSiqudKiZ43Et4yTrrnYDv4cURTpshTvGrsbfGWqIMyUudR+ORcq9EGOcSF+U4URCw=="
            }
          },
          {
            "validator_address": "49841599DE675157CBE1E7D6B35BF8FFC23BD5CB",
            "validator_index": "28",
            "height": "15776",
            "round": "1",
            "timestamp": "2018-07-31T08:04:46.370892823Z",
            "type": 2,
            "block_id": {
              "hash": "CE3B05D365B964142F2821C0CC6F4F93A019ED72",
              "parts": {
                "total": "1",
                "hash": "8C13A2D2F7E8D89F9EEFFA2C97BFA7EFCD04FBD6"
              }
            },
            "signature": {
              "type": "tendermint/SignatureEd25519",
              "value": "4Vr5nmAsWObDN84E7v9Ga5dI8aaIToleeb9kdE5ZzFzoLWbgmB9K0FTbynTivvp8ccSzv7ycq4Z4cY4qCgNSDg=="
            }
          },
          {
            "validator_address": "5104F488EA6B1E2C33CBDA3C18389C88104DBC72",
            "validator_index": "29",
            "height": "15776",
            "round": "1",
            "timestamp": "2018-07-31T08:04:46.404956676Z",
            "type": 2,
            "block_id": {
              "hash": "CE3B05D365B964142F2821C0CC6F4F93A019ED72",
              "parts": {
                "total": "1",
                "hash": "8C13A2D2F7E8D89F9EEFFA2C97BFA7EFCD04FBD6"
              }
            },
            "signature": {
              "type": "tendermint/SignatureEd25519",
              "value": "/kr7WzvHCvhRycL/TeWpx02l8vbsJY7tN+QuKtvyTLs1KAwcuSAL5Fv4VApCrOKNqjjY5C8txngyU97QHHctAw=="
            }
          },
          {
            "validator_address": "51386C2CF9556821D114D7E4945806802BADB28D",
            "validator_index": "30",
            "height": "15776",
            "round": "1",
            "timestamp": "2018-07-31T08:04:46.429875614Z",
            "type": 2,
            "block_id": {
              "hash": "CE3B05D365B964142F2821C0CC6F4F93A019ED72",
              "parts": {
                "total": "1",
                "hash": "8C13A2D2F7E8D89F9EEFFA2C97BFA7EFCD04FBD6"
              }
            },
            "signature": {
              "type": "tendermint/SignatureEd25519",
              "value": "DejE8zjIWCVT8tFYTehOrCmeQJoD8uaV0gQZUdYRL/t5FqAwCyRewDL8AU2TNCKtsffJFIJzBbg6VbFKBZg7Bw=="
            }
          },
          {
            "validator_address": "543564ECA3AFEFADC73EE8591AAC3A96F079BC8A",
            "validator_index": "31",
            "height": "15776",
            "round": "1",
            "timestamp": "2018-07-31T08:04:46.373092775Z",
            "type": 2,
            "block_id": {
              "hash": "CE3B05D365B964142F2821C0CC6F4F93A019ED72",
              "parts": {
                "total": "1",
                "hash": "8C13A2D2F7E8D89F9EEFFA2C97BFA7EFCD04FBD6"
              }
            },
            "signature": {
              "type": "tendermint/SignatureEd25519",
              "value": "y9GVcj3JtitAn6m9dSXl6KEEMuF47CYUZcfCN0naWQ2gB3QuOjj8bpJDs9GYb3G3PFCX8Wz+SygJBIuynuK0AA=="
            }
          },
          {
            "validator_address": "55D67B1A6DC13E96F8754A5A42EABC20F7F86664",
            "validator_index": "32",
            "height": "15776",
            "round": "1",
            "timestamp": "2018-07-31T08:04:46.375828679Z",
            "type": 2,
            "block_id": {
              "hash": "CE3B05D365B964142F2821C0CC6F4F93A019ED72",
              "parts": {
                "total": "1",
                "hash": "8C13A2D2F7E8D89F9EEFFA2C97BFA7EFCD04FBD6"
              }
            },
            "signature": {
              "type": "tendermint/SignatureEd25519",
              "value": "quDmy/Vas93mA7Nh/OvsEuivFuA8KVXCuoD1dsy2dFNuk52uc513K49QbV//hgKr+cjvUJqOkZ12dA04hE7RAQ=="
            }
          },
          {
            "validator_address": "570B6A755ED339EAC56BB3390A48069F6AC9449B",
            "validator_index": "33",
            "height": "15776",
            "round": "1",
            "timestamp": "2018-07-31T08:04:49.086587845Z",
            "type": 2,
            "block_id": {
              "hash": "CE3B05D365B964142F2821C0CC6F4F93A019ED72",
              "parts": {
                "total": "1",
                "hash": "8C13A2D2F7E8D89F9EEFFA2C97BFA7EFCD04FBD6"
              }
            },
            "signature": {
              "type": "tendermint/SignatureEd25519",
              "value": "DDN239b9AvBfwiqsGk59wYRK5MeibwTghTDNTNltsiflFTFL371+gW+ackHwQRMyuHz5CNTz7NbjNdKKj7pVDg=="
            }
          },
          {
            "validator_address": "5BDF8EA41B1835FBAD865B181A2A4B23F511B5E4",
            "validator_index": "34",
            "height": "15776",
            "round": "1",
            "timestamp": "2018-07-31T08:04:46.365763356Z",
            "type": 2,
            "block_id": {
              "hash": "CE3B05D365B964142F2821C0CC6F4F93A019ED72",
              "parts": {
                "total": "1",
                "hash": "8C13A2D2F7E8D89F9EEFFA2C97BFA7EFCD04FBD6"
              }
            },
            "signature": {
              "type": "tendermint/SignatureEd25519",
              "value": "KcRoQ1IEghYLg9fYguEQ3rPlhcLJ1o62E8p100C6R7qqjo7OWYxL1urbGqqBer/i7cjIjf4atgLL+DDcfooqDA=="
            }
          },
          {
            "validator_address": "5E8673673E37450F01B64138FBF4B172BDB52D68",
            "validator_index": "35",
            "height": "15776",
            "round": "1",
            "timestamp": "2018-07-31T08:04:46.5221802Z",
            "type": 2,
            "block_id": {
              "hash": "CE3B05D365B964142F2821C0CC6F4F93A019ED72",
              "parts": {
                "total": "1",
                "hash": "8C13A2D2F7E8D89F9EEFFA2C97BFA7EFCD04FBD6"
              }
            },
            "signature": {
              "type": "tendermint/SignatureEd25519",
              "value": "H74eU6LWeETuyr77izgLI8/sD6uD7iFcQ1WhCjzK8i5MAIrK+MKsjFVrvffbMFgwUAKimfK65ZXfnHAaZEcmDQ=="
            }
          },
          {
            "validator_address": "60229E2E273297FE00219E46DFFB8F76844CDEF9",
            "validator_index": "36",
            "height": "15776",
            "round": "1",
            "timestamp": "2018-07-31T08:04:45.308943997Z",
            "type": 2,
            "block_id": {
              "hash": "CE3B05D365B964142F2821C0CC6F4F93A019ED72",
              "parts": {
                "total": "1",
                "hash": "8C13A2D2F7E8D89F9EEFFA2C97BFA7EFCD04FBD6"
              }
            },
            "signature": {
              "type": "tendermint/SignatureEd25519",
              "value": "JnrC8Xuy0xuQIJJkye1xBwYeM4JBydQ1SpIoCaR94pRebVuMtwUSc51bFrOTiovIKeWw68j5BBlKNUZtnAduDQ=="
            }
          },
          {
            "validator_address": "62410D6D1CD98278136E4D0738AA0EA273CDFC54",
            "validator_index": "37",
            "height": "15776",
            "round": "1",
            "timestamp": "2018-07-31T08:04:46.384113062Z",
            "type": 2,
            "block_id": {
              "hash": "CE3B05D365B964142F2821C0CC6F4F93A019ED72",
              "parts": {
                "total": "1",
                "hash": "8C13A2D2F7E8D89F9EEFFA2C97BFA7EFCD04FBD6"
              }
            },
            "signature": {
              "type": "tendermint/SignatureEd25519",
              "value": "z8DuxjF2cN3nXOrlrQ2zzzXWgfLT5cbIAZyqTsS56E05ruBplx1yZFetpk5nEur1p4y5GsHpfELShUYT28J6Ag=="
            }
          },
          {
            "validator_address": "632F5C139A5A9DFBFE5111DEE29FCFB6157207DC",
            "validator_index": "38",
            "height": "15776",
            "round": "1",
            "timestamp": "2018-07-31T08:04:46.407201903Z",
            "type": 2,
            "block_id": {
              "hash": "CE3B05D365B964142F2821C0CC6F4F93A019ED72",
              "parts": {
                "total": "1",
                "hash": "8C13A2D2F7E8D89F9EEFFA2C97BFA7EFCD04FBD6"
              }
            },
            "signature": {
              "type": "tendermint/SignatureEd25519",
              "value": "moO6Cfpps1A8ygXSGbtTisrPTzWMPK4z8HH6fstZ5bGBQ2Xy3Far9nDIbmojlPwnJa49Sbv8FyR3uG9TeZa0Aw=="
            }
          },
          {
            "validator_address": "64F57F8E796A9B7B590C1EFA4123988C86631D39",
            "validator_index": "39",
            "height": "15776",
            "round": "1",
            "timestamp": "2018-07-31T08:04:46.367594077Z",
            "type": 2,
            "block_id": {
              "hash": "CE3B05D365B964142F2821C0CC6F4F93A019ED72",
              "parts": {
                "total": "1",
                "hash": "8C13A2D2F7E8D89F9EEFFA2C97BFA7EFCD04FBD6"
              }
            },
            "signature": {
              "type": "tendermint/SignatureEd25519",
              "value": "Aeenm2J4jcple6L6pMkKeJGTGVxZ6n4ip32oZF1aagL1yNqk4vK+Fy+wqbkgt4P0e5aHG5eYsZTkv7GR6ufHCw=="
            }
          },
          {
            "validator_address": "69D99B2C66043ACBEAA8447525C356AFC6408E0C",
            "validator_index": "40",
            "height": "15776",
            "round": "1",
            "timestamp": "2018-07-31T08:04:46.551269117Z",
            "type": 2,
            "block_id": {
              "hash": "CE3B05D365B964142F2821C0CC6F4F93A019ED72",
              "parts": {
                "total": "1",
                "hash": "8C13A2D2F7E8D89F9EEFFA2C97BFA7EFCD04FBD6"
              }
            },
            "signature": {
              "type": "tendermint/SignatureEd25519",
              "value": "lJusb02eIUjzMdArbWHUSeSdtmPSaVoLnRkSz5WJsnu8ez0BnFiEKv0a2wT9qWVbuQsNpFNGoiHBY0LuSU0YCQ=="
            }
          },
          {
            "validator_address": "69EDADFA4A803E9DBF548C900D4A465E7D154262",
            "validator_index": "41",
            "height": "15776",
            "round": "1",
            "timestamp": "2018-07-31T08:04:46.608862749Z",
            "type": 2,
            "block_id": {
              "hash": "CE3B05D365B964142F2821C0CC6F4F93A019ED72",
              "parts": {
                "total": "1",
                "hash": "8C13A2D2F7E8D89F9EEFFA2C97BFA7EFCD04FBD6"
              }
            },
            "signature": {
              "type": "tendermint/SignatureEd25519",
              "value": "0vSccjwRaXhYRg2+OL4zckuawsCXocjwfZFdtrxwtFeE2jGuOiH9n2ErfcI1c5zLTkmmk4BHzDmhsmr2YH2NAA=="
            }
          },
          {
            "validator_address": "6D3AD380E398D8592B03AA124BAFED5F125DF863",
            "validator_index": "42",
            "height": "15776",
            "round": "1",
            "timestamp": "2018-07-31T08:03:44.588485282Z",
            "type": 2,
            "block_id": {
              "hash": "CE3B05D365B964142F2821C0CC6F4F93A019ED72",
              "parts": {
                "total": "1",
                "hash": "8C13A2D2F7E8D89F9EEFFA2C97BFA7EFCD04FBD6"
              }
            },
            "signature": {
              "type": "tendermint/SignatureEd25519",
              "value": "/V+2/l1Lw7XKVVoe4fL71NbhqT8dORZTwyNsP//VgWj3r8H0ing8fX1HEEpZ0FI5Tdzio3L1w/RqLQ5KuAjFCQ=="
            }
          },
          {
            "validator_address": "6F6C93B8BF3495063FEC9B5C771158607F4AE9D6",
            "validator_index": "43",
            "height": "15776",
            "round": "1",
            "timestamp": "2018-07-31T08:04:46.498297331Z",
            "type": 2,
            "block_id": {
              "hash": "CE3B05D365B964142F2821C0CC6F4F93A019ED72",
              "parts": {
                "total": "1",
                "hash": "8C13A2D2F7E8D89F9EEFFA2C97BFA7EFCD04FBD6"
              }
            },
            "signature": {
              "type": "tendermint/SignatureEd25519",
              "value": "dy2i9iaQxLPiqdeL7nzOnMxP/XuPtIXI8HpznCYmPo1YM/II/x7JyugXz53CMBSOBwZua6FCVcFFOVH5jXNjBQ=="
            }
          },
          {
            "validator_address": "732CEEF54C374DDC6ADECBFD707AEFD07FEDC143",
            "validator_index": "44",
            "height": "15776",
            "round": "1",
            "timestamp": "2018-07-31T08:04:46.484076516Z",
            "type": 2,
            "block_id": {
              "hash": "CE3B05D365B964142F2821C0CC6F4F93A019ED72",
              "parts": {
                "total": "1",
                "hash": "8C13A2D2F7E8D89F9EEFFA2C97BFA7EFCD04FBD6"
              }
            },
            "signature": {
              "type": "tendermint/SignatureEd25519",
              "value": "i6j5ILCTEp9muJ/+NjkD33E1fuLXOqtPOn2eBIcqOjxUwKtU22rimcmFgmGdI68oSiM2fQxs6auKhhwg8PHsDQ=="
            }
          },
          {
            "validator_address": "7393D691BFAE9661918C09932D4D9060AB40939B",
            "validator_index": "45",
            "height": "15776",
            "round": "1",
            "timestamp": "2018-07-31T08:04:46.462163885Z",
            "type": 2,
            "block_id": {
              "hash": "CE3B05D365B964142F2821C0CC6F4F93A019ED72",
              "parts": {
                "total": "1",
                "hash": "8C13A2D2F7E8D89F9EEFFA2C97BFA7EFCD04FBD6"
              }
            },
            "signature": {
              "type": "tendermint/SignatureEd25519",
              "value": "ahSB5BhShh624J5trUrHp7Pju8tTabjd125eXQUfZynFxwj0MQSPEhY8CPkj9cKtgANr2epf3GyFIKP7mDuECQ=="
            }
          },
          {
            "validator_address": "751E43437224E8BB6D1569B3E2B2616B6E7F4397",
            "validator_index": "46",
            "height": "15776",
            "round": "1",
            "timestamp": "2018-07-31T08:04:46.402115446Z",
            "type": 2,
            "block_id": {
              "hash": "CE3B05D365B964142F2821C0CC6F4F93A019ED72",
              "parts": {
                "total": "1",
                "hash": "8C13A2D2F7E8D89F9EEFFA2C97BFA7EFCD04FBD6"
              }
            },
            "signature": {
              "type": "tendermint/SignatureEd25519",
              "value": "5aCaeCkR0FQ/94/vn1oOdVAPuUJ8BgRF17BBcVITVL86mJe1I3/0pyYI17EbZ6DwPNJfaO/C8YKSwq3f81vCDA=="
            }
          },
          {
            "validator_address": "7EB7593F519F1180C7E872D0494611464EDF03AE",
            "validator_index": "47",
            "height": "15776",
            "round": "1",
            "timestamp": "2018-07-31T08:04:46.49817088Z",
            "type": 2,
            "block_id": {
              "hash": "CE3B05D365B964142F2821C0CC6F4F93A019ED72",
              "parts": {
                "total": "1",
                "hash": "8C13A2D2F7E8D89F9EEFFA2C97BFA7EFCD04FBD6"
              }
            },
            "signature": {
              "type": "tendermint/SignatureEd25519",
              "value": "qja6PsA+mhP4fD0KRMrvt/jKyyvZBAzRP1lyekVV51Vh7wgcFoWLW4z7YlQcvsH/ErmlM3Ow95bw4i1POyhbBw=="
            }
          },
          {
            "validator_address": "807CF675BA8479FC4FEC1047215DF07970040F1F",
            "validator_index": "48",
            "height": "15776",
            "round": "1",
            "timestamp": "2018-07-31T08:04:46.764186502Z",
            "type": 2,
            "block_id": {
              "hash": "CE3B05D365B964142F2821C0CC6F4F93A019ED72",
              "parts": {
                "total": "1",
                "hash": "8C13A2D2F7E8D89F9EEFFA2C97BFA7EFCD04FBD6"
              }
            },
            "signature": {
              "type": "tendermint/SignatureEd25519",
              "value": "ARMCvBJCm74FewQssP9qoJ3HeMkDFx4DaatkZwXE8zyUo6D4WiiLgU5tS7sAxmEEgtlnDJAtjKEDdRKv7rDzDg=="
            }
          },
          {
            "validator_address": "8126192EA66E8ADE6B36924534721366B987A4C1",
            "validator_index": "49",
            "height": "15776",
            "round": "1",
            "timestamp": "2018-07-31T08:04:46.402408846Z",
            "type": 2,
            "block_id": {
              "hash": "CE3B05D365B964142F2821C0CC6F4F93A019ED72",
              "parts": {
                "total": "1",
                "hash": "8C13A2D2F7E8D89F9EEFFA2C97BFA7EFCD04FBD6"
              }
            },
            "signature": {
              "type": "tendermint/SignatureEd25519",
              "value": "3mvH+kLtFIIPxThEpvCDCsXC9Ma5i0gd45KcRve3ItVifmvTq4mOs6xnsnX9RAoa9vkTDV3zxhvgRPwzpE+oAw=="
            }
          },
          {
            "validator_address": "83AB321E012C57746689FED3A6064DF331F81007",
            "validator_index": "50",
            "height": "15776",
            "round": "1",
            "timestamp": "2018-07-31T08:04:46.474619576Z",
            "type": 2,
            "block_id": {
              "hash": "CE3B05D365B964142F2821C0CC6F4F93A019ED72",
              "parts": {
                "total": "1",
                "hash": "8C13A2D2F7E8D89F9EEFFA2C97BFA7EFCD04FBD6"
              }
            },
            "signature": {
              "type": "tendermint/SignatureEd25519",
              "value": "G0njlOVFk70ReeCOpqErRg/8r+Q5QZht7dnEhWTJ9cZPP+nXmUEP+PYeUIiUv3obV15KLpIrL8uuqMfl/jLwBg=="
            }
          },
          {
            "validator_address": "83BB1B88D3DBB20AD845FECA07749EBD87D3754D",
            "validator_index": "51",
            "height": "15776",
            "round": "1",
            "timestamp": "2018-07-31T08:04:46.679644814Z",
            "type": 2,
            "block_id": {
              "hash": "CE3B05D365B964142F2821C0CC6F4F93A019ED72",
              "parts": {
                "total": "1",
                "hash": "8C13A2D2F7E8D89F9EEFFA2C97BFA7EFCD04FBD6"
              }
            },
            "signature": {
              "type": "tendermint/SignatureEd25519",
              "value": "XDPFTXdhEsF0betpjej+fVBoopoPGktDkGt9ks3mHr06+VtU3C8s2gh/Q2TXQpkzWDZdKTsv/ZOR3JjLgTnFBQ=="
            }
          },
          {
            "validator_address": "8F06FE1FD042683C426137FBC4BBAA4288924217",
            "validator_index": "52",
            "height": "15776",
            "round": "1",
            "timestamp": "2018-07-31T08:04:46.399077221Z",
            "type": 2,
            "block_id": {
              "hash": "CE3B05D365B964142F2821C0CC6F4F93A019ED72",
              "parts": {
                "total": "1",
                "hash": "8C13A2D2F7E8D89F9EEFFA2C97BFA7EFCD04FBD6"
              }
            },
            "signature": {
              "type": "tendermint/SignatureEd25519",
              "value": "FGA5zLDRb6NlO3mTARblgkFTa08IEWlg/acw6Zw5AUD6TQsk138qu4qkuyDInvRfZEXuNzM88mcxDVTDrxQoAQ=="
            }
          },
          {
            "validator_address": "8F45617BF45B10A3F8283DEBDB35E38C7CA43237",
            "validator_index": "53",
            "height": "15776",
            "round": "1",
            "timestamp": "2018-07-31T08:04:46.360026296Z",
            "type": 2,
            "block_id": {
              "hash": "CE3B05D365B964142F2821C0CC6F4F93A019ED72",
              "parts": {
                "total": "1",
                "hash": "8C13A2D2F7E8D89F9EEFFA2C97BFA7EFCD04FBD6"
              }
            },
            "signature": {
              "type": "tendermint/SignatureEd25519",
              "value": "/tS+2prBOi/F0KZvMpnX74e1GqnqJ1yaQPigSK9K5jfuRY64frB5ZiW/PkfiurynFVaaURWwZeAdxGW5oCqTCQ=="
            }
          },
          {
            "validator_address": "95980831E186F2540F6E9FB6C8E74DE2401405AC",
            "validator_index": "54",
            "height": "15776",
            "round": "1",
            "timestamp": "2018-07-31T08:04:46.436787648Z",
            "type": 2,
            "block_id": {
              "hash": "CE3B05D365B964142F2821C0CC6F4F93A019ED72",
              "parts": {
                "total": "1",
                "hash": "8C13A2D2F7E8D89F9EEFFA2C97BFA7EFCD04FBD6"
              }
            },
            "signature": {
              "type": "tendermint/SignatureEd25519",
              "value": "K/ZHsf8+wEZbvdshuvP1baIHEcBQ1aurGDG97pzhZnwylBTRRcX//g9UOGmFtaOqtvgZHu56ly9vhO3lC+g4DA=="
            }
          },
          {
            "validator_address": "95FAFBC1E0579C83D290A063020CE87C5334BD9B",
            "validator_index": "55",
            "height": "15776",
            "round": "1",
            "timestamp": "2018-07-31T08:04:46.409708425Z",
            "type": 2,
            "block_id": {
              "hash": "CE3B05D365B964142F2821C0CC6F4F93A019ED72",
              "parts": {
                "total": "1",
                "hash": "8C13A2D2F7E8D89F9EEFFA2C97BFA7EFCD04FBD6"
              }
            },
            "signature": {
              "type": "tendermint/SignatureEd25519",
              "value": "JLO7Hvio/y7J38UU8McTGi17q14eW14gyCafDHcDRVO4OAJgIhBpsumI92tO57jLbxEc6D8NWCFU1ltwW9BzAw=="
            }
          },
          {
            "validator_address": "96BDE45EC52606CF5CB59853097871AD60680549",
            "validator_index": "56",
            "height": "15776",
            "round": "1",
            "timestamp": "2018-07-31T08:04:46.442596142Z",
            "type": 2,
            "block_id": {
              "hash": "CE3B05D365B964142F2821C0CC6F4F93A019ED72",
              "parts": {
                "total": "1",
                "hash": "8C13A2D2F7E8D89F9EEFFA2C97BFA7EFCD04FBD6"
              }
            },
            "signature": {
              "type": "tendermint/SignatureEd25519",
              "value": "zNKvYJXUrQJm8h11bRbGlNrIQBYdSQzMvRfF5+FB6H3UGuB+0uPHt9Q9Qq9FPJcpcIqwrNN/okAe+pyFWeEiBg=="
            }
          },
          {
            "validator_address": "970CD321881185BF83DB2923C321B0E75FDBB2B8",
            "validator_index": "57",
            "height": "15776",
            "round": "1",
            "timestamp": "2018-07-31T08:04:46.488407335Z",
            "type": 2,
            "block_id": {
              "hash": "CE3B05D365B964142F2821C0CC6F4F93A019ED72",
              "parts": {
                "total": "1",
                "hash": "8C13A2D2F7E8D89F9EEFFA2C97BFA7EFCD04FBD6"
              }
            },
            "signature": {
              "type": "tendermint/SignatureEd25519",
              "value": "delfH3tmYMsSOQb/2xJgajY3mIFNrzLVhCSaiFprflZU4Y/2afEoj5ZP99X364WBkif7ly+GBPyFF2GdtarjBQ=="
            }
          },
          {
            "validator_address": "97DBB3D4B3D6C29287244864448F651DD5B07390",
            "validator_index": "58",
            "height": "15776",
            "round": "1",
            "timestamp": "2018-07-31T08:04:46.538190417Z",
            "type": 2,
            "block_id": {
              "hash": "CE3B05D365B964142F2821C0CC6F4F93A019ED72",
              "parts": {
                "total": "1",
                "hash": "8C13A2D2F7E8D89F9EEFFA2C97BFA7EFCD04FBD6"
              }
            },
            "signature": {
              "type": "tendermint/SignatureEd25519",
              "value": "FsJ1u+bHekMiSrlLVNKL9O5JprBqiNBFoloVEPh627En3080IaeTin4m5d5kkab0PJd1Z7wGZXOwOvgrfTpDBw=="
            }
          },
          {
            "validator_address": "9C29C9B76D27586E4D9AD2AED0E943162645E55C",
            "validator_index": "59",
            "height": "15776",
            "round": "1",
            "timestamp": "2018-07-31T08:04:46.387015547Z",
            "type": 2,
            "block_id": {
              "hash": "CE3B05D365B964142F2821C0CC6F4F93A019ED72",
              "parts": {
                "total": "1",
                "hash": "8C13A2D2F7E8D89F9EEFFA2C97BFA7EFCD04FBD6"
              }
            },
            "signature": {
              "type": "tendermint/SignatureEd25519",
              "value": "V4izF4CndP1UePZNNoYe9I8XsuM8O1umFm4zoJzPEUbhNErE1VVWgg9xDqfv7dymcHj3C4AgVQmj6hzuoShNCA=="
            }
          },
          {
            "validator_address": "9D93AD02FE1BD7E76B9E58D7EB461088EAD011E5",
            "validator_index": "60",
            "height": "15776",
            "round": "1",
            "timestamp": "2018-07-31T08:04:46.356566478Z",
            "type": 2,
            "block_id": {
              "hash": "CE3B05D365B964142F2821C0CC6F4F93A019ED72",
              "parts": {
                "total": "1",
                "hash": "8C13A2D2F7E8D89F9EEFFA2C97BFA7EFCD04FBD6"
              }
            },
            "signature": {
              "type": "tendermint/SignatureEd25519",
              "value": "UbcDiddYXiQfnJWGrmVWcGAlIxUV7HzikVtUuPZiWgS8Z/oiQ9/K76V4NGDtjU4J3o0YZqsJcG+aRZGzXizSAw=="
            }
          },
          {
            "validator_address": "A0A6466F4ABEA09C3B55E3709AFDE217A103209F",
            "validator_index": "61",
            "height": "15776",
            "round": "1",
            "timestamp": "2018-07-31T08:04:46.353923401Z",
            "type": 2,
            "block_id": {
              "hash": "CE3B05D365B964142F2821C0CC6F4F93A019ED72",
              "parts": {
                "total": "1",
                "hash": "8C13A2D2F7E8D89F9EEFFA2C97BFA7EFCD04FBD6"
              }
            },
            "signature": {
              "type": "tendermint/SignatureEd25519",
              "value": "CLHKtDf5m+UXmKASnU9m4HfFKfT6ILWIfXIcpUyZdNrL63oqZ7Z2fkG6BrNCf+Ejsm0gqqUEXNalaYWNiduVDw=="
            }
          },
          {
            "validator_address": "A5868971300F155020634D7BB49C7634F7AACCD3",
            "validator_index": "62",
            "height": "15776",
            "round": "1",
            "timestamp": "2018-07-31T08:04:46.421498562Z",
            "type": 2,
            "block_id": {
              "hash": "CE3B05D365B964142F2821C0CC6F4F93A019ED72",
              "parts": {
                "total": "1",
                "hash": "8C13A2D2F7E8D89F9EEFFA2C97BFA7EFCD04FBD6"
              }
            },
            "signature": {
              "type": "tendermint/SignatureEd25519",
              "value": "MPXY0ua7OiQdY8y+PF0CYlJGpquotIylMlALThJ0B8TR7f0YI8BJPq9HepmSiQ0ZN88KoFCAbpvFRRsXjcbMAg=="
            }
          },
          {
            "validator_address": "A6B3A5B5D982CFD7B5FDFA15CF5A720E7AE25E7F",
            "validator_index": "63",
            "height": "15776",
            "round": "1",
            "timestamp": "2018-07-31T08:04:46.378499267Z",
            "type": 2,
            "block_id": {
              "hash": "CE3B05D365B964142F2821C0CC6F4F93A019ED72",
              "parts": {
                "total": "1",
                "hash": "8C13A2D2F7E8D89F9EEFFA2C97BFA7EFCD04FBD6"
              }
            },
            "signature": {
              "type": "tendermint/SignatureEd25519",
              "value": "OQA5wghh6eyjqse9lRd7zU07qU/epnWtAtLp9oWlY+W0HIWa03hrx7SXRAEk69nI9Wdr5w9FPp27MtjyHTFTDA=="
            }
          },
          {
            "validator_address": "AC96444A9083890B7C7B430DB17BF1D3EA5EED04",
            "validator_index": "64",
            "height": "15776",
            "round": "1",
            "timestamp": "2018-07-31T08:04:46.497750603Z",
            "type": 2,
            "block_id": {
              "hash": "CE3B05D365B964142F2821C0CC6F4F93A019ED72",
              "parts": {
                "total": "1",
                "hash": "8C13A2D2F7E8D89F9EEFFA2C97BFA7EFCD04FBD6"
              }
            },
            "signature": {
              "type": "tendermint/SignatureEd25519",
              "value": "9Agjqu/sm+8fqU5lZdcTBk+VAaEsUPnd4VE3zmuA7AJ2bA8IDDmcBSXXQj3wH8yNAaXV1QursvV2Cwwxz5rvBQ=="
            }
          },
          {
            "validator_address": "ACB97FDA2D940AF0709B73537C458EB988AD2893",
            "validator_index": "65",
            "height": "15776",
            "round": "1",
            "timestamp": "2018-07-31T08:04:46.365519115Z",
            "type": 2,
            "block_id": {
              "hash": "CE3B05D365B964142F2821C0CC6F4F93A019ED72",
              "parts": {
                "total": "1",
                "hash": "8C13A2D2F7E8D89F9EEFFA2C97BFA7EFCD04FBD6"
              }
            },
            "signature": {
              "type": "tendermint/SignatureEd25519",
              "value": "bw/dD0YiL8rDEktpdHgvb3/7NxxRszxLFYGt666bZRKBFL7/DVps170e/5kggeKNoyO8NNqsB/ybTjiC9Tx+DA=="
            }
          },
          {
            "validator_address": "B197425B3210375F211661DE02EF2AE36580EB0F",
            "validator_index": "66",
            "height": "15776",
            "round": "1",
            "timestamp": "2018-07-31T08:04:46.360644876Z",
            "type": 2,
            "block_id": {
              "hash": "CE3B05D365B964142F2821C0CC6F4F93A019ED72",
              "parts": {
                "total": "1",
                "hash": "8C13A2D2F7E8D89F9EEFFA2C97BFA7EFCD04FBD6"
              }
            },
            "signature": {
              "type": "tendermint/SignatureEd25519",
              "value": "5G1bdq685IYaJqL8jKxT0Hr6hJ+IceNcTbDdnfrVUZP41m6JKliylbQTB6UH/gfGtZF+3iy1W8vCQ6CVpE1rCQ=="
            }
          },
          {
            "validator_address": "B45E54D2D1CB5A4CCD1D49016608C18E7C56B270",
            "validator_index": "67",
            "height": "15776",
            "round": "1",
            "timestamp": "2018-07-31T08:04:46.554945629Z",
            "type": 2,
            "block_id": {
              "hash": "CE3B05D365B964142F2821C0CC6F4F93A019ED72",
              "parts": {
                "total": "1",
                "hash": "8C13A2D2F7E8D89F9EEFFA2C97BFA7EFCD04FBD6"
              }
            },
            "signature": {
              "type": "tendermint/SignatureEd25519",
              "value": "RYXlgUPoktMGaejVZCTprOL9TwAc9muvGj/b+OSek3lvf0c3MRm5RatSgzGrqDV3l6Zk/9sWtDjXjOR7YKwLAQ=="
            }
          },
          {
            "validator_address": "B59A34C0BE4EC73AF6A67D274F1695C9259C237C",
            "validator_index": "68",
            "height": "15776",
            "round": "1",
            "timestamp": "2018-07-31T08:04:46.547450875Z",
            "type": 2,
            "block_id": {
              "hash": "CE3B05D365B964142F2821C0CC6F4F93A019ED72",
              "parts": {
                "total": "1",
                "hash": "8C13A2D2F7E8D89F9EEFFA2C97BFA7EFCD04FBD6"
              }
            },
            "signature": {
              "type": "tendermint/SignatureEd25519",
              "value": "GO97hFSGu/Qi+dc/jIZziIcgrKI8V1RwjaLSzhs3iOg4rhD4DkFdYEMcxnfISxYXEAqGMHUGDX4KpW/CaubkCw=="
            }
          },
          {
            "validator_address": "BB1276BE89834835428664408917649FEEF5D90C",
            "validator_index": "69",
            "height": "15776",
            "round": "1",
            "timestamp": "2018-07-31T08:04:46.486624035Z",
            "type": 2,
            "block_id": {
              "hash": "CE3B05D365B964142F2821C0CC6F4F93A019ED72",
              "parts": {
                "total": "1",
                "hash": "8C13A2D2F7E8D89F9EEFFA2C97BFA7EFCD04FBD6"
              }
            },
            "signature": {
              "type": "tendermint/SignatureEd25519",
              "value": "O4N4xbAOxHLlV87MaB0aDn+EuY1bAphtv6FQtafbXth+fojTIksaSQDa5YGCbOQ335H08BjCNF4SLTqSlVyVCw=="
            }
          },
          {
            "validator_address": "BC36FEDD6EF6071118A3E51859DF3831A2EC4782",
            "validator_index": "70",
            "height": "15776",
            "round": "1",
            "timestamp": "2018-07-31T08:04:46.40472612Z",
            "type": 2,
            "block_id": {
              "hash": "CE3B05D365B964142F2821C0CC6F4F93A019ED72",
              "parts": {
                "total": "1",
                "hash": "8C13A2D2F7E8D89F9EEFFA2C97BFA7EFCD04FBD6"
              }
            },
            "signature": {
              "type": "tendermint/SignatureEd25519",
              "value": "UzEX9K0ffU4yz45ieZ2nXhKSKnVDwpxXOQEBkF4+LwnGaUyJ2nMF6q/z9As9HsamYbZ7NrWVr0p5cLCswU8UDw=="
            }
          },
          {
            "validator_address": "BD9D0DA513BF099DB4BB6E725A4E19832789882F",
            "validator_index": "71",
            "height": "15776",
            "round": "1",
            "timestamp": "2018-07-31T08:04:46.401355778Z",
            "type": 2,
            "block_id": {
              "hash": "CE3B05D365B964142F2821C0CC6F4F93A019ED72",
              "parts": {
                "total": "1",
                "hash": "8C13A2D2F7E8D89F9EEFFA2C97BFA7EFCD04FBD6"
              }
            },
            "signature": {
              "type": "tendermint/SignatureEd25519",
              "value": "cXYuz55MKRnQXbqh7pcjuYIEXptVUjl4M3r7kpOQ7Ob/T1yomBZu8lyjbn6u0scAClSU41bbdOKppSU1uhpeCw=="
            }
          },
          {
            "validator_address": "C1134A2FF8F7338E7CDB3FE57DDD2A655DEB1E22",
            "validator_index": "72",
            "height": "15776",
            "round": "1",
            "timestamp": "2018-07-31T08:04:45.597450912Z",
            "type": 2,
            "block_id": {
              "hash": "CE3B05D365B964142F2821C0CC6F4F93A019ED72",
              "parts": {
                "total": "1",
                "hash": "8C13A2D2F7E8D89F9EEFFA2C97BFA7EFCD04FBD6"
              }
            },
            "signature": {
              "type": "tendermint/SignatureEd25519",
              "value": "tOiR9fCqlhfa6jSinT0Z2JvfoUZWbjn9WVymc5F85FtntSR0Q2h5KRwesRgcxM5m0xeE2SzYzl90FVf0IGA6AA=="
            }
          },
          {
            "validator_address": "C39A8A2B85198DCB8F23AD1F6C198E2BA7AB5D60",
            "validator_index": "73",
            "height": "15776",
            "round": "1",
            "timestamp": "2018-07-31T08:04:46.360218032Z",
            "type": 2,
            "block_id": {
              "hash": "CE3B05D365B964142F2821C0CC6F4F93A019ED72",
              "parts": {
                "total": "1",
                "hash": "8C13A2D2F7E8D89F9EEFFA2C97BFA7EFCD04FBD6"
              }
            },
            "signature": {
              "type": "tendermint/SignatureEd25519",
              "value": "cWUDXE3fz/NEpwfEINJoCvaGaZ4JnoIkJ/T9GLOoJOj0mu/uilVnsns3/g8yke5w4aHr/AQWsxy2iQxZyg8VDw=="
            }
          },
          {
            "validator_address": "C4335190C3B5BD4BA5568BC0F99C34162D940D08",
            "validator_index": "74",
            "height": "15776",
            "round": "1",
            "timestamp": "2018-07-31T08:04:46.443898287Z",
            "type": 2,
            "block_id": {
              "hash": "CE3B05D365B964142F2821C0CC6F4F93A019ED72",
              "parts": {
                "total": "1",
                "hash": "8C13A2D2F7E8D89F9EEFFA2C97BFA7EFCD04FBD6"
              }
            },
            "signature": {
              "type": "tendermint/SignatureEd25519",
              "value": "Wp6UKgb/AmY64kUQUTi9m580XPuDEDoGzh16PvtucKbAOIc1fmhvflWN6TuMAXVJ9uvM2DEar5orW0a5QNsgAQ=="
            }
          },
          {
            "validator_address": "C561CFA081677046376396922E7576E5F7B316AD",
            "validator_index": "75",
            "height": "15776",
            "round": "1",
            "timestamp": "2018-07-31T08:04:46.525197178Z",
            "type": 2,
            "block_id": {
              "hash": "CE3B05D365B964142F2821C0CC6F4F93A019ED72",
              "parts": {
                "total": "1",
                "hash": "8C13A2D2F7E8D89F9EEFFA2C97BFA7EFCD04FBD6"
              }
            },
            "signature": {
              "type": "tendermint/SignatureEd25519",
              "value": "i1RT/hZU7dffRF+t7nRF1Me+biPerNTlzvQwBX89z83b+hF92Sdc+IYbNqWGD1V1OTNW+W7xr1+uoaF22qWDCA=="
            }
          },
          {
            "validator_address": "CE589EA77B056D268D30D1DC1D68A70E0F885E95",
            "validator_index": "76",
            "height": "15776",
            "round": "1",
            "timestamp": "2018-07-31T08:04:46.422891413Z",
            "type": 2,
            "block_id": {
              "hash": "CE3B05D365B964142F2821C0CC6F4F93A019ED72",
              "parts": {
                "total": "1",
                "hash": "8C13A2D2F7E8D89F9EEFFA2C97BFA7EFCD04FBD6"
              }
            },
            "signature": {
              "type": "tendermint/SignatureEd25519",
              "value": "KW0dWoEh/momaDW6Ng7dcrDdkd/Js+1fsG+3vADTlVKk8tWy7wXQPmYznbjLIjRKUNBS22m0A3l2mHFFdneoDw=="
            }
          },
          {
            "validator_address": "CEB97DB5CB18270247ABDE6CF2F84F9AEE8A2904",
            "validator_index": "77",
            "height": "15776",
            "round": "1",
            "timestamp": "2018-07-31T08:04:46.433707751Z",
            "type": 2,
            "block_id": {
              "hash": "CE3B05D365B964142F2821C0CC6F4F93A019ED72",
              "parts": {
                "total": "1",
                "hash": "8C13A2D2F7E8D89F9EEFFA2C97BFA7EFCD04FBD6"
              }
            },
            "signature": {
              "type": "tendermint/SignatureEd25519",
              "value": "5AdNKmwii7TAZrU5hYcz1x2MJydUELgptxRFgzneuIOMPVNKgh30aYoF+OEiGmjwO5WiT39NPM2CYAtTQ7GNDg=="
            }
          },
          {
            "validator_address": "CF205769734F5758CC39F907EFB73D6BAF915FB1",
            "validator_index": "78",
            "height": "15776",
            "round": "1",
            "timestamp": "2018-07-31T08:04:46.546742424Z",
            "type": 2,
            "block_id": {
              "hash": "CE3B05D365B964142F2821C0CC6F4F93A019ED72",
              "parts": {
                "total": "1",
                "hash": "8C13A2D2F7E8D89F9EEFFA2C97BFA7EFCD04FBD6"
              }
            },
            "signature": {
              "type": "tendermint/SignatureEd25519",
              "value": "wEqrPiU7QMIxkPwV27DLJWEPOYOBelUqZQB4HunMEKz9oEXRBpnlhMGp885aDyja95ovyl0pFNlV1uukMNthCg=="
            }
          },
          {
            "validator_address": "D2134B826A1E25A955905CB79A4D8731CAFA0CCE",
            "validator_index": "79",
            "height": "15776",
            "round": "1",
            "timestamp": "2018-07-31T08:04:46.531035624Z",
            "type": 2,
            "block_id": {
              "hash": "CE3B05D365B964142F2821C0CC6F4F93A019ED72",
              "parts": {
                "total": "1",
                "hash": "8C13A2D2F7E8D89F9EEFFA2C97BFA7EFCD04FBD6"
              }
            },
            "signature": {
              "type": "tendermint/SignatureEd25519",
              "value": "47aRgWaJzL5ex6TChlcnxWwI22mC4NrooRwFgD7DwMQlCA78/O06GYten/uVBsov4wkZQti9kc6QJS3XHJ4oBA=="
            }
          },
          {
            "validator_address": "D6285C3422C8886445D53757CBE12D2B91B5A9D0",
            "validator_index": "80",
            "height": "15776",
            "round": "1",
            "timestamp": "2018-07-31T08:04:28.953796644Z",
            "type": 2,
            "block_id": {
              "hash": "CE3B05D365B964142F2821C0CC6F4F93A019ED72",
              "parts": {
                "total": "1",
                "hash": "8C13A2D2F7E8D89F9EEFFA2C97BFA7EFCD04FBD6"
              }
            },
            "signature": {
              "type": "tendermint/SignatureEd25519",
              "value": "1XUxj5zQD7C0UxSPhQBEgLKC5oLxhZdCEI8LXienTbyFPRENXjDAGEvjzgE1v8cGPeeGEExjXYTnjvQMdAMNCA=="
            }
          },
          {
            "validator_address": "D77FB84A729972CD3E757C9BEB61561855832B92",
            "validator_index": "81",
            "height": "15776",
            "round": "1",
            "timestamp": "2018-07-31T08:04:46.487908373Z",
            "type": 2,
            "block_id": {
              "hash": "CE3B05D365B964142F2821C0CC6F4F93A019ED72",
              "parts": {
                "total": "1",
                "hash": "8C13A2D2F7E8D89F9EEFFA2C97BFA7EFCD04FBD6"
              }
            },
            "signature": {
              "type": "tendermint/SignatureEd25519",
              "value": "56Denp1MdhfgrGUISneYYSnvb6yFQNvIfChJfZ45ZxUIPFJ4HwkYBzvJLgQc+wrAsdtW+WMYaicJs/B6XgOoBQ=="
            }
          },
          {
            "validator_address": "DB7E6732471D3EA5C90C17A9974D9F88AB45F2FB",
            "validator_index": "82",
            "height": "15776",
            "round": "1",
            "timestamp": "2018-07-31T08:04:46.423813679Z",
            "type": 2,
            "block_id": {
              "hash": "CE3B05D365B964142F2821C0CC6F4F93A019ED72",
              "parts": {
                "total": "1",
                "hash": "8C13A2D2F7E8D89F9EEFFA2C97BFA7EFCD04FBD6"
              }
            },
            "signature": {
              "type": "tendermint/SignatureEd25519",
              "value": "6r/BSLdA0aNv1eDbeezvgPmgSJ1cdCqIahJAgYoFy/Jt2ygdJyHY0PjYvZeY+XAGxsE6fmKH+7p26TJwcA1vCA=="
            }
          },
          {
            "validator_address": "DF54B862410BCD9B5C516FBB6C56BDC826ED6FA7",
            "validator_index": "83",
            "height": "15776",
            "round": "1",
            "timestamp": "2018-07-31T08:04:46.524209001Z",
            "type": 2,
            "block_id": {
              "hash": "CE3B05D365B964142F2821C0CC6F4F93A019ED72",
              "parts": {
                "total": "1",
                "hash": "8C13A2D2F7E8D89F9EEFFA2C97BFA7EFCD04FBD6"
              }
            },
            "signature": {
              "type": "tendermint/SignatureEd25519",
              "value": "dTaa0gmKDfiw9g8MnXrz3/wN6VF0HyVj+pZ3+YQzfYldK1y8GgP1YhVvgsXR6w5V39bXAyk0/tsGDSixYI/rCw=="
            }
          },
          {
            "validator_address": "DFAF0C8B1B78D6D552B0189DE3ACA351439A1319",
            "validator_index": "84",
            "height": "15776",
            "round": "1",
            "timestamp": "2018-07-31T08:04:46.360609944Z",
            "type": 2,
            "block_id": {
              "hash": "CE3B05D365B964142F2821C0CC6F4F93A019ED72",
              "parts": {
                "total": "1",
                "hash": "8C13A2D2F7E8D89F9EEFFA2C97BFA7EFCD04FBD6"
              }
            },
            "signature": {
              "type": "tendermint/SignatureEd25519",
              "value": "YMqKtoTWC+JpDFoGhTWipFzLGRaLJJ3ghfZYeK78h325diy+4DSPYs8n4yBWJB6tR3luZ7NFNCgRRItihKP1Dw=="
            }
          },
          {
            "validator_address": "E1DBC77881161A5A3A8536A57536EAE546A75D69",
            "validator_index": "85",
            "height": "15776",
            "round": "1",
            "timestamp": "2018-07-31T08:04:46.346888954Z",
            "type": 2,
            "block_id": {
              "hash": "CE3B05D365B964142F2821C0CC6F4F93A019ED72",
              "parts": {
                "total": "1",
                "hash": "8C13A2D2F7E8D89F9EEFFA2C97BFA7EFCD04FBD6"
              }
            },
            "signature": {
              "type": "tendermint/SignatureEd25519",
              "value": "KyTdK1e72yaCRg8XSkUKjCkD/dZfH7jD7SZK5bkr8ugdpp6LFt/hE+CJbfEZhHJ3SLeMibG7uGOCefnx9zmcAA=="
            }
          },
          {
            "validator_address": "E300E9D484374C1D3E97C1D93CAC3B160A056298",
            "validator_index": "86",
            "height": "15776",
            "round": "1",
            "timestamp": "2018-07-31T08:04:46.700905921Z",
            "type": 2,
            "block_id": {
              "hash": "CE3B05D365B964142F2821C0CC6F4F93A019ED72",
              "parts": {
                "total": "1",
                "hash": "8C13A2D2F7E8D89F9EEFFA2C97BFA7EFCD04FBD6"
              }
            },
            "signature": {
              "type": "tendermint/SignatureEd25519",
              "value": "Wm0chm1ix1F6T7S4SUhR5JFpmJFAcJXrbu68moNHyr0EmcwUO5Dgi5CF+HWwMsW7OwS/qbZXWT2f51sJsUAACw=="
            }
          },
          {
            "validator_address": "E39B5778E0D4297A46F45CF6940B0A163A430FF8",
            "validator_index": "87",
            "height": "15776",
            "round": "1",
            "timestamp": "2018-07-31T08:04:46.422967112Z",
            "type": 2,
            "block_id": {
              "hash": "CE3B05D365B964142F2821C0CC6F4F93A019ED72",
              "parts": {
                "total": "1",
                "hash": "8C13A2D2F7E8D89F9EEFFA2C97BFA7EFCD04FBD6"
              }
            },
            "signature": {
              "type": "tendermint/SignatureEd25519",
              "value": "ErhItXTWXHJcVq3Yxcy+gxEXBmrxK5upXyR6lB1OzWTXl2DmoFbsDLiJy9d1TCt6vwgAAFY5B6HUTgx0Z5iUDw=="
            }
          },
          {
            "validator_address": "E3B19738F7132F950668504D326C7660F159D170",
            "validator_index": "88",
            "height": "15776",
            "round": "1",
            "timestamp": "2018-07-31T08:04:46.364654253Z",
            "type": 2,
            "block_id": {
              "hash": "CE3B05D365B964142F2821C0CC6F4F93A019ED72",
              "parts": {
                "total": "1",
                "hash": "8C13A2D2F7E8D89F9EEFFA2C97BFA7EFCD04FBD6"
              }
            },
            "signature": {
              "type": "tendermint/SignatureEd25519",
              "value": "VE+KBEHAT3Zl6ownHEumD10IoTKEAvwip+/F22zfaFWAExSeTN0SmTaapD/hS7p3d3aAeibV3ULdmfGLoqObBA=="
            }
          },
          {
            "validator_address": "E42F8AEABB685219F7027F54D2B0DBC7846F633A",
            "validator_index": "89",
            "height": "15776",
            "round": "1",
            "timestamp": "2018-07-31T08:04:45.64760987Z",
            "type": 2,
            "block_id": {
              "hash": "CE3B05D365B964142F2821C0CC6F4F93A019ED72",
              "parts": {
                "total": "1",
                "hash": "8C13A2D2F7E8D89F9EEFFA2C97BFA7EFCD04FBD6"
              }
            },
            "signature": {
              "type": "tendermint/SignatureEd25519",
              "value": "C0Vg9FET5Msv5iFgAcY2Rq+15lb4iutJ1to9hT/xpNQqg0wOWGbsgHjjKpBj4MqyBQJX0+xNewezS3NYy5NBBw=="
            }
          },
          {
            "validator_address": "E4E6C2E81269DFFA196C17F98240E491479A6008",
            "validator_index": "90",
            "height": "15776",
            "round": "1",
            "timestamp": "2018-07-31T08:04:46.496344204Z",
            "type": 2,
            "block_id": {
              "hash": "CE3B05D365B964142F2821C0CC6F4F93A019ED72",
              "parts": {
                "total": "1",
                "hash": "8C13A2D2F7E8D89F9EEFFA2C97BFA7EFCD04FBD6"
              }
            },
            "signature": {
              "type": "tendermint/SignatureEd25519",
              "value": "Yiyn4ZyqxX8mDnEmFmBk2sAxW4BXbxEINQgXcEgpKCG+Q2sxFAEwKBcYEuAB6iuF1vgnmpD3GSt+MtvZxP/uDg=="
            }
          },
          {
            "validator_address": "E6A7079D584B163750BE0831227F6B685DEAF3C1",
            "validator_index": "91",
            "height": "15776",
            "round": "1",
            "timestamp": "2018-07-31T08:04:46.532711123Z",
            "type": 2,
            "block_id": {
              "hash": "CE3B05D365B964142F2821C0CC6F4F93A019ED72",
              "parts": {
                "total": "1",
                "hash": "8C13A2D2F7E8D89F9EEFFA2C97BFA7EFCD04FBD6"
              }
            },
            "signature": {
              "type": "tendermint/SignatureEd25519",
              "value": "wNNarwDW32bsK+UYJZvYM/Zw1aqj1qLxCGXSOrUZ8GLjFFtVdAwPlPd9u634V/ouRX9OTFwJgKz7ULFMZ3cpBA=="
            }
          },
          {
            "validator_address": "E7A30077D5D11867D3EAF99ED45BFDC1EB834509",
            "validator_index": "92",
            "height": "15776",
            "round": "1",
            "timestamp": "2018-07-31T08:04:46.387234457Z",
            "type": 2,
            "block_id": {
              "hash": "CE3B05D365B964142F2821C0CC6F4F93A019ED72",
              "parts": {
                "total": "1",
                "hash": "8C13A2D2F7E8D89F9EEFFA2C97BFA7EFCD04FBD6"
              }
            },
            "signature": {
              "type": "tendermint/SignatureEd25519",
              "value": "V0bTrNxJauBdOmzgX45yFYujlEAWv1EjQOmlcoGg0VGYePh5C5K4fk3TVScINYOW12mcbswa57kDfJy+xiy5DA=="
            }
          },
          {
            "validator_address": "EBC613967F66F4EC306852CDF58B4F151CF16738",
            "validator_index": "93",
            "height": "15776",
            "round": "1",
            "timestamp": "2018-07-31T08:04:46.499948631Z",
            "type": 2,
            "block_id": {
              "hash": "CE3B05D365B964142F2821C0CC6F4F93A019ED72",
              "parts": {
                "total": "1",
                "hash": "8C13A2D2F7E8D89F9EEFFA2C97BFA7EFCD04FBD6"
              }
            },
            "signature": {
              "type": "tendermint/SignatureEd25519",
              "value": "MdrqfYPVjPnRSsodRDP7OVFZLceZ5TWP7z2iiklSvZss+q5RKw15nCppqmkyzVCK/BRAdaVYYTBArHpfLwnkBg=="
            }
          },
          {
            "validator_address": "EC3401441726C40ECC7E51F744483B05BC6DE9BD",
            "validator_index": "94",
            "height": "15776",
            "round": "1",
            "timestamp": "2018-07-31T08:04:46.420938803Z",
            "type": 2,
            "block_id": {
              "hash": "CE3B05D365B964142F2821C0CC6F4F93A019ED72",
              "parts": {
                "total": "1",
                "hash": "8C13A2D2F7E8D89F9EEFFA2C97BFA7EFCD04FBD6"
              }
            },
            "signature": {
              "type": "tendermint/SignatureEd25519",
              "value": "7MtsSvNBi34lML6TjGP9PFDGx4oPRjVC1kzPS7hQAr5gNX4jgCniQHAr7YrI8qa7v/yLOMjTbtLWOztSiSE8AQ=="
            }
          },
          {
            "validator_address": "EC95B111D032181E1EC3B5E8875C5BB8E4AE7140",
            "validator_index": "95",
            "height": "15776",
            "round": "1",
            "timestamp": "2018-07-31T08:04:46.338467934Z",
            "type": 2,
            "block_id": {
              "hash": "CE3B05D365B964142F2821C0CC6F4F93A019ED72",
              "parts": {
                "total": "1",
                "hash": "8C13A2D2F7E8D89F9EEFFA2C97BFA7EFCD04FBD6"
              }
            },
            "signature": {
              "type": "tendermint/SignatureEd25519",
              "value": "wGcowvy6JkdImVhN0Hxjf3d8zmcNn5glRm9z5IEIPpCmozGvx+HDRuKqnVi6CLDKIOcRTaXfk1CIugIAZVigDA=="
            }
          },
          {
            "validator_address": "F13C1805E8131C9B47E2A46818F57D8A2841E578",
            "validator_index": "96",
            "height": "15776",
            "round": "1",
            "timestamp": "2018-07-31T08:04:46.413596541Z",
            "type": 2,
            "block_id": {
              "hash": "CE3B05D365B964142F2821C0CC6F4F93A019ED72",
              "parts": {
                "total": "1",
                "hash": "8C13A2D2F7E8D89F9EEFFA2C97BFA7EFCD04FBD6"
              }
            },
            "signature": {
              "type": "tendermint/SignatureEd25519",
              "value": "xZVXxqYHuJQt4wM9hiIoUzTn3amPAFcKu21BV3BtT9x40Pu+cqKfy8lbvHqUF49ZABlFWH6KL573/76J+phiCg=="
            }
          },
          {
            "validator_address": "F23FF36BD5B90C33CE3A03ED72DBDCF5EC07D6AF",
            "validator_index": "97",
            "height": "15776",
            "round": "1",
            "timestamp": "2018-07-31T08:04:46.443929618Z",
            "type": 2,
            "block_id": {
              "hash": "CE3B05D365B964142F2821C0CC6F4F93A019ED72",
              "parts": {
                "total": "1",
                "hash": "8C13A2D2F7E8D89F9EEFFA2C97BFA7EFCD04FBD6"
              }
            },
            "signature": {
              "type": "tendermint/SignatureEd25519",
              "value": "7Ur7PJwJWCOlU4+XX9R4e0BkcyzcVYMEh4nKRaF4H5f4sxXvT55v/bDMTXX+UKbpXchjWpr+HFbn/Xe32D8eBA=="
            }
          },
          {
            "validator_address": "F4268597DE93E3E2CED38845010F8AA34E2A879E",
            "validator_index": "98",
            "height": "15776",
            "round": "1",
            "timestamp": "2018-07-31T08:04:46.401178252Z",
            "type": 2,
            "block_id": {
              "hash": "CE3B05D365B964142F2821C0CC6F4F93A019ED72",
              "parts": {
                "total": "1",
                "hash": "8C13A2D2F7E8D89F9EEFFA2C97BFA7EFCD04FBD6"
              }
            },
            "signature": {
              "type": "tendermint/SignatureEd25519",
              "value": "kZtez42LUel2X4ARwkk7L5K+MrBRgrLjn5L4dGWlJUoKibG+dl9H4z0bK8wYYYNIoN/m1xM9nji8A8WR/s5sCQ=="
            }
          },
          {
            "validator_address": "F4DEB417999B04BE2EFF9FFE03FA373D86011CC0",
            "validator_index": "99",
            "height": "15776",
            "round": "1",
            "timestamp": "2018-07-31T08:04:46.414882574Z",
            "type": 2,
            "block_id": {
              "hash": "CE3B05D365B964142F2821C0CC6F4F93A019ED72",
              "parts": {
                "total": "1",
                "hash": "8C13A2D2F7E8D89F9EEFFA2C97BFA7EFCD04FBD6"
              }
            },
            "signature": {
              "type": "tendermint/SignatureEd25519",
              "value": "pGlWxixUQIqaiQv3xLfg7Ft6KLwsmBHbRkJXQmYoVbkoBNCOCEoSdliucsqSovR/9KdDfx+85XlX14PggTb7Aw=="
            }
          },
          null,
          {
            "validator_address": "FF3F3FCBCE7E62D7AD5506FF846EC4518D980515",
            "validator_index": "101",
            "height": "15776",
            "round": "1",
            "timestamp": "2018-07-31T08:04:46.358696254Z",
            "type": 2,
            "block_id": {
              "hash": "CE3B05D365B964142F2821C0CC6F4F93A019ED72",
              "parts": {
                "total": "1",
                "hash": "8C13A2D2F7E8D89F9EEFFA2C97BFA7EFCD04FBD6"
              }
            },
            "signature": {
              "type": "tendermint/SignatureEd25519",
              "value": "yFwfnRHdILz41vpyl52t0ZdU8Y7JSadRJQP3VuE2pICnWhWP8YZgGhzm+tzRy55yhbPoeEpRgRMHRmHqRKqADw=="
            }
          }
        ]
      }
    },
    "canonical": true
  }
}