{
  "jsonrpc": "2.0",
  "id": "",
  "result": {
    "SignedHeader": {
      "header": {
        "chain_id": "gaia-7004",
        "height": "18918",
        "time": "2018-07-31T13:13:46.097078178Z",
        "num_txs": "0",
        "last_block_id": {
          "hash": "5A8C1CABDA01A3D52678362E681ADFB23F66D8EC",
          "parts": {
            "total": "1",
            "hash": "421F634E6DD1F6349FD670C19446215A8486857B"
          }
        },
        "total_txs": "591",
        "last_commit_hash": "538677638663CD4BEF1EA3808BDDE5C490C0DD6A",
        "data_hash": "",
        "validators_hash": "17811E775026D9E0F0335040020E6527325C73FC",
        "consensus_hash": "D6B74BB35BDFFD8392340F2A379173548AE188FE",
        "app_hash": "553864C2E84A0DADDB5CA7CD707EDE1ED44E342C",
        "last_results_hash": "",
        "evidence_hash": ""
      },
      "commit": {
        "block_id": {
          "hash": "7D05741B45DADD44B26DA45C3C2D10DED6F389BE",
          "parts": {
            "total": "1",
            "hash": "A1591A68308C696BFF845D9738BC9F9EADADFA57"
          }
        },
        "precommits": [
          {
            "validator_address": "029359C0C768096273A68ABC902A6B17AC8D1D70",
            "validator_index": "0",
            "height": "18918",
            "round": "0",
            "timestamp": "2018-07-31T13:13:46.884722337Z",
            "type": 2,
            "block_id": {
              "hash": "7D05741B45DADD44B26DA45C3C2D10DED6F389BE",
              "parts": {
                "total": "1",
                "hash": "A1591A68308C696BFF845D9738BC9F9EADADFA57"
              }
            },
            "signature": {
              "type": "tendermint/SignatureEd25519",
              "value": "yDDVDNIPSq+FfO0/KR8cyjGdbUNMgifVoNdXjysPz0irfMDQk9U3PEmlkNSfdjo634pmVzc8syE1AjiFIPOgDg=="
            }
          },
          {
            "validator_address": "02FE4B97A8387F39D1AC19E0C1702B3CC614812F",
            "validator_index": "1",
            "height": "18918",
            "round": "0",
            "timestamp": "2018-07-31T13:13:46.842295249Z",
            "type": 2,
            "block_id": {
              "hash": "7D05741B45DADD44B26DA45C3C2D10DED6F389BE",
              "parts": {
                "total": "1",
                "hash": "A1591A68308C696BFF845D9738BC9F9EADADFA57"
              }
            },
            "signature": {
              "type": "tendermint/SignatureEd25519",
              "value": "FuVeumLilIrdfMg+N14hADduE0GY7MjX0jXfk0fr1pwYqfutjYiK3PuKBBD6rwPlHDS3yBj3Mzj7sRzC7pusCQ=="
            }
          },
          {
            "validator_address": "0548261C50222FD710EB5EBDF03A0E6567B21D20",
            "validator_index": "2",
            "height": "18918",
            "round": "0",
            "timestamp": "2018-07-31T13:13:46.918257217Z",
            "type": 2,
            "block_id": {
              "hash": "7D05741B45DADD44B26DA45C3C2D10DED6F389BE",
              "parts": {
                "total": "1",
                "hash": "A1591A68308C696BFF845D9738BC9F9EADADFA57"
              }
            },
            "signature": {
              "type": "tendermint/SignatureEd25519",
              "value": "bYtVCcnHHpr4/3Izous/V0xPJfZXdJYY4fwdIVz6VrCcnU02+6Kxc9szqxCnt2mSOHo8bzGYr5bFY4mj6i7aAA=="
            }
          },
          {
            "validator_address": "09145E611CC27EEB944FC5A956DDF710F943B9EF",
            "validator_index": "3",
            "height": "18918",
            "round": "0",
            "timestamp": "2018-07-31T13:13:46.883906332Z",
            "type": 2,
            "block_id": {
              "hash": "7D05741B45DADD44B26DA45C3C2D10DED6F389BE",
              "parts": {
                "total": "1",
                "hash": "A1591A68308C696BFF845D9738BC9F9EADADFA57"
              }
            },
            "signature": {
              "type": "tendermint/SignatureEd25519",
              "value": "DtlNto2Gs1YtM87KQHsgOzIORIjx+Wn4HcwFIDsFPgH7nuAaq51J5esozzbbDMlj3rYwHECZaE48/o1v7e6KDw=="
            }
          },
          {
            "validator_address": "0989D0355A104B67AE0AE028C68FB610690E174B",
            "validator_index": "4",
            "height": "18918",
            "round": "0",
            "timestamp": "2018-07-31T13:13:46.882915016Z",
            "type": 2,
            "block_id": {
              "hash": "7D05741B45DADD44B26DA45C3C2D10DED6F389BE",
              "parts": {
                "total": "1",
                "hash": "A1591A68308C696BFF845D9738BC9F9EADADFA57"
              }
            },
            "signature": {
              "type": "tendermint/SignatureEd25519",
              "value": "ucHZwRKwm48kHDSqo8E5Vpm24S793A5AgK5BpA64w9MxrKXF7w6kbYFGcrXC1i5cF/ST8BU2z3FGLKZVH7yLAw=="
            }
          },
          {
            "validator_address": "0A692DBFFE9E5DD28E7DECC33CED1AEB4C0D014E",
            "validator_index": "5",
            "height": "18918",
            "round": "0",
            "timestamp": "2018-07-31T13:13:46.951790944Z",
            "type": 2,
            "block_id": {
              "hash": "7D05741B45DADD44B26DA45C3C2D10DED6F389BE",
              "parts": {
                "total": "1",
                "hash": "A1591A68308C696BFF845D9738BC9F9EADADFA57"
              }
            },
            "signature": {
              "type": "tendermint/SignatureEd25519",
              "value": "YoBwrek25xPLOkZ/9KPbpfF7MZmvVCH1Ib4iRpZW+jwuSmDvu3XrLHC/DQs/QygYa4gXAO6sWhpMj2wnynh7Bg=="
            }
          },
          {
            "validator_address": "0DDF97111D73DB825138EC15EC27DE5FE8536901",
            "validator_index": "6",
            "height": "18918",
            "round": "0",
            "timestamp": "2018-07-31T13:13:46.867088683Z",
            "type": 2,
            "block_id": {
              "hash": "7D05741B45DADD44B26DA45C3C2D10DED6F389BE",
              "parts": {
                "total": "1",
                "hash": "A1591A68308C696BFF845D9738BC9F9EADADFA57"
              }
            },
            "signature": {
              "type": "tendermint/SignatureEd25519",
              "value": "peEgUIqi0L5Z0EDn1TubRvi/njVkq7ttYy/yiSYNuLdxgOWZZZxSKs++5zyGWEVov910iIv5xZDsns0ve1PQDA=="
            }
          },
          {
            "validator_address": "1751786EFC085D5331C61168FFFC8202EA151B4E",
            "validator_index": "7",
            "height": "18918",
            "round": "0",
            "timestamp": "2018-07-31T13:13:46.522971033Z",
            "type": 2,
            "block_id": {
              "hash": "7D05741B45DADD44B26DA45C3C2D10DED6F389BE",
              "parts": {
                "total": "1",
                "hash": "A1591A68308C696BFF845D9738BC9F9EADADFA57"
              }
            },
            "signature": {
              "type": "tendermint/SignatureEd25519",
              "value": "XkFjATdxUxJTPulf9zLUxAqu2nceSN3mWqbeceq0SVn+jrMlrjE1ZMb51afoe1FK+YH2N7zbF/2k6y6NW9AWDg=="
            }
          },
          {
            "validator_address": "17BB5CD01E8940FAFB948A04D5FA5A0645E5822E",
            "validator_index": "8",
            "height": "18918",
            "round": "0",
            "timestamp": "2018-07-31T13:13:46.873159141Z",
            "type": 2,
            "block_id": {
              "hash": "7D05741B45DADD44B26DA45C3C2D10DED6F389BE",
              "parts": {
                "total": "1",
                "hash": "A1591A68308C696BFF845D9738BC9F9EADADFA57"
              }
            },
            "signature": {
              "type": "tendermint/SignatureEd25519",
              "value": "+bxnNKWum83BlmfYArsAdtibMJT5ka75hKGF3v7lWvXV5kJe5TIC9tnrljMg+yAiXxJx9vC/SKbFDOgwDYEMDQ=="
            }
          },
          {
            "validator_address": "1C683A87904BC38F05004FE83301A3A3E35447EB",
            "validator_index": "9",
            "height": "18918",
            "round": "0",
            "timestamp": "2018-07-31T13:13:46.822530027Z",
            "type": 2,
            "block_id": {
              "hash": "7D05741B45DADD44B26DA45C3C2D10DED6F389BE",
              "parts": {
                "total": "1",
                "hash": "A1591A68308C696BFF845D9738BC9F9EADADFA57"
              }
            },
            "signature": {
              "type": "tendermint/SignatureEd25519",
              "value": "jjtPvuPEjhNF6X9cmcmALXE0ugGwp9F1IT26gy9bgAaqh5WShw7Al/DSSpHL+uoaTE6B1+6eYD497ydv2YhoCQ=="
            }
          },
          {
            "validator_address": "1E9CE94FD0BA5CFEB901F90BC658D64D85B134D2",
            "validator_index": "10",
            "height": "18918",
            "round": "0",
            "timestamp": "2018-07-31T13:13:46.897925504Z",
            "type": 2,
            "block_id": {
              "hash": "7D05741B45DADD44B26DA45C3C2D10DED6F389BE",
              "parts": {
                "total": "1",
                "hash": "A1591A68308C696BFF845D9738BC9F9EADADFA57"
              }
            },
            "signature": {
              "type": "tendermint/SignatureEd25519",
              "value": "ZtS4viAtjlpz3ZQ6LC411ph7JcSi3YD9Vh1H98+DBNtp2+teNF6u/lv8N2xnx2zKF3zknaSMyOgpCIMsE/sSDA=="
            }
          },
          {
            "validator_address": "1ECD8C5FE1341D74CDC633A245DD56858DE2F9A2",
            "validator_index": "11",
            "height": "18918",
            "round": "0",
            "timestamp": "2018-07-31T13:13:46.93525645Z",
            "type": 2,
            "block_id": {
              "hash": "7D05741B45DADD44B26DA45C3C2D10DED6F389BE",
              "parts": {
                "total": "1",
                "hash": "A1591A68308C696BFF845D9738BC9F9EADADFA57"
              }
            },
            "signature": {
              "type": "tendermint/SignatureEd25519",
              "value": "5BE5vT6bot5ZfFaW0bEezCmvBWdvR5sn0MKuWa8vQqIf51zkb1TmzVXevHkhUGCDxcTJ3zn/KlRYYM4H0WVbDA=="
            }
          },
          {
            "validator_address": "1F3A68CAAD483768AA2BF667DEF10F7104C89928",
            "validator_index": "12",
            "height": "18918",
            "round": "0",
            "timestamp": "2018-07-31T13:13:46.88489925Z",
            "type": 2,
            "block_id": {
              "hash": "7D05741B45DADD44B26DA45C3C2D10DED6F389BE",
              "parts": {
                "total": "1",
                "hash": "A1591A68308C696BFF845D9738BC9F9EADADFA57"
              }
            },
            "signature": {
              "type": "tendermint/SignatureEd25519",
              "value": "OXzYFXQEYRuvHLKp2NLvG+mFmx0WmmRIIus6ZJdKbtZMgmwcnDb/LCcv5qH+Fugs9F68IBtnhowAY1qzOzkjDA=="
            }
          },
          {
            "validator_address": "23897586D68E2AC1C78E0EF5BB5DF5C8EAB18F50",
            "validator_index": "13",
            "height": "18918",
            "round": "0",
            "timestamp": "2018-07-31T13:13:46.89295858Z",
            "type": 2,
            "block_id": {
              "hash": "7D05741B45DADD44B26DA45C3C2D10DED6F389BE",
              "parts": {
                "total": "1",
                "hash": "A1591A68308C696BFF845D9738BC9F9EADADFA57"
              }
            },
            "signature": {
              "type": "tendermint/SignatureEd25519",
              "value": "eQKrFGsR8QntKIk/WUESXJ+2egNg4FUl+rdkGH0rCedoUwjrgj2vNSoqbMwt+QENFvpTyjl3O3jIbtYx2rc2Bw=="
            }
          },
          {
            "validator_address": "28770D17E8530825E7310A0659308654B7EC9682",
            "validator_index": "14",
            "height": "18918",
            "round": "0",
            "timestamp": "2018-07-31T13:13:46.86104911Z",
            "type": 2,
            "block_id": {
              "hash": "7D05741B45DADD44B26DA45C3C2D10DED6F389BE",
              "parts": {
                "total": "1",
                "hash": "A1591A68308C696BFF845D9738BC9F9EADADFA57"
              }
            },
            "signature": {
              "type": "tendermint/SignatureEd25519",
              "value": "oNmYgFyJ8AsWkMf8lgWES2K0fQ/+TSY0tDVAa4FoRWz0vnGWbhX7wGNR/UiRPudyLCXOSaMwWeA9TWA0uDDKCQ=="
            }
          },
          {
            "validator_address": "2A92EC3C642140202298D0E245095E0ECFC25228",
            "validator_index": "15",
            "height": "18918",
            "round": "0",
            "timestamp": "2018-07-31T13:13:46.879267288Z",
            "type": 2,
            "block_id": {
              "hash": "7D05741B45DADD44B26DA45C3C2D10DED6F389BE",
              "parts": {
                "total": "1",
                "hash": "A1591A68308C696BFF845D9738BC9F9EADADFA57"
              }
            },
            "signature": {
              "type": "tendermint/SignatureEd25519",
              "value": "vZHlBsoDzDDHUE8oW589Z51L8xPBL+s0c0d0nfdCATIVFATBQyZI6/X6K4vkjv/LuHMVL9x7rk5iR3iJNgZwAw=="
            }
          },
          {
            "validator_address": "33412C9A69C60CB0FAA24A5C5B3A906DE24B47C2",
            "validator_index": "16",
            "height": "18918",
            "round": "0",
            "timestamp": "2018-07-31T13:13:46.911994501Z",
            "type": 2,
            "block_id": {
              "hash": "7D05741B45DADD44B26DA45C3C2D10DED6F389BE",
              "parts": {
                "total": "1",
                "hash": "A1591A68308C696BFF845D9738BC9F9EADADFA57"
              }
            },
            "signature": {
              "type": "tendermint/SignatureEd25519",
              "value": "t881EEJPX9exWbaE5w2xGVTJLUbx0kkXy/cBeuBMJqclOIsxJMYS1Dt4asmH7WzkslTnwC8v+h2RtFhfokuEBQ=="
            }
          },
          {
            "validator_address": "3383EF2A13B160C41947AC30434B274B2FAF0617",
            "validator_index": "17",
            "height": "18918",
            "round": "0",
            "timestamp": "2018-07-31T13:13:46.919204433Z",
            "type": 2,
            "block_id": {
              "hash": "7D05741B45DADD44B26DA45C3C2D10DED6F389BE",
              "parts": {
                "total": "1",
                "hash": "A1591A68308C696BFF845D9738BC9F9EADADFA57"
              }
            },
            "signature": {
              "type": "tendermint/SignatureEd25519",
              "value": "Pa8q18KSMrL/Jo96BlOfzh7p64TsAi29r80aNwJE7tCp0XdWZ+Q2JuLF0XI7aPKJCjex8bhJq5slj0R1XZi/DQ=="
            }
          },
          {
            "validator_address": "36E9B7FAEC964F97D84C028ED62493E373AD0B38",
            "validator_index": "18",
            "height": "18918",
            "round": "0",
            "timestamp": "2018-07-31T13:13:47.028196497Z",
            "type": 2,
            "block_id": {
              "hash": "7D05741B45DADD44B26DA45C3C2D10DED6F389BE",
              "parts": {
                "total": "1",
                "hash": "A1591A68308C696BFF845D9738BC9F9EADADFA57"
              }
            },
            "signature": {
              "type": "tendermint/SignatureEd25519",
              "value": "mT7fqwa66GJEDfol02eAMKsFFJFvv+ycshwoJ2x3HC/ggiwPy8zUzn1+LAqM6smj6iHnnWqk+Fjz2NRz4gdgDg=="
            }
          },
          {
            "validator_address": "38A8D85D36BEA2E5FCF8A1E778F53628E450EF13",
            "validator_index": "19",
            "height": "18918",
            "round": "0",
            "timestamp": "2018-07-31T13:13:47.081372126Z",
            "type": 2,
            "block_id": {
              "hash": "7D05741B45DADD44B26DA45C3C2D10DED6F389BE",
              "parts": {
                "total": "1",
                "hash": "A1591A68308C696BFF845D9738BC9F9EADADFA57"
              }
            },
            "signature": {
              "type": "tendermint/SignatureEd25519",
              "value": "CVctV/Pf/pEm7Y+6jTBk1LLp3E/mQMZMukW/Hugbza8lbUc+S4cBsdLkg86Q9qBrbU5fDVPrD1Y4j/hxlVbtBQ=="
            }
          },
          {
            "validator_address": "39DFDA0C5DB84B269642188B23253508537798E6",
            "validator_index": "20",
            "height": "18918",
            "round": "0",
            "timestamp": "2018-07-31T13:13:46.86161226Z",
            "type": 2,
            "block_id": {
              "hash": "7D05741B45DADD44B26DA45C3C2D10DED6F389BE",
              "parts": {
                "total": "1",
                "hash": "A1591A68308C696BFF845D9738BC9F9EADADFA57"
              }
            },
            "signature": {
              "type": "tendermint/SignatureEd25519",
              "value": "fa64qKr8RMvjYpUZiHGxNXU+kzsNw/eSjGo42zPryFtwk+LC4sAcZby5QXcnTw1l1NBIokLEx1kR3BaZzhFiDA=="
            }
          },
          {
            "validator_address": "3AC99B708404452366E0953A4BE849226DC86CBC",
            "validator_index": "21",
            "height": "18918",
            "round": "0",
            "timestamp": "2018-07-31T13:13:46.944870988Z",
            "type": 2,
            "block_id": {
              "hash": "7D05741B45DADD44B26DA45C3C2D10DED6F389BE",
              "parts": {
                "total": "1",
                "hash": "A1591A68308C696BFF845D9738BC9F9EADADFA57"
              }
            },
            "signature": {
              "type": "tendermint/SignatureEd25519",
              "value": "r9JJhY0MfsXVMHU2TjJAiPjoqvgiGSICK05cE7/N7bkS7U18HzuhXG1Ch+9I9yCdbH9EQn+WaXl4In0J8EKWDA=="
            }
          },
          {
            "validator_address": "3DCB822A10ED319EC7C4393D8E3FD4A41B15AAF2",
            "validator_index": "22",
            "height": "18918",
            "round": "0",
            "timestamp": "2018-07-31T13:13:46.835826287Z",
            "type": 2,
            "block_id": {
              "hash": "7D05741B45DADD44B26DA45C3C2D10DED6F389BE",
              "parts": {
                "total": "1",
                "hash": "A1591A68308C696BFF845D9738BC9F9EADADFA57"
              }
            },
            "signature": {
              "type": "tendermint/SignatureEd25519",
              "value": "U02eQTHj7OAQqkFwd9WeKb1mZeJUWXtwWK6VPfMlUyoeLuVsJBX2RoFuWe0m9CwUc4vuAFjFcLv1o600ui3bAA=="
            }
          },
          {
            "validator_address": "3E899BA36A93C7370347BD5FE85909F2ECD93F8C",
            "validator_index": "23",
            "height": "18918",
            "round": "0",
            "timestamp": "2018-07-31T13:13:46.877797941Z",
            "type": 2,
            "block_id": {
              "hash": "7D05741B45DADD44B26DA45C3C2D10DED6F389BE",
              "parts": {
                "total": "1",
                "hash": "A1591A68308C696BFF845D9738BC9F9EADADFA57"
              }
            },
            "signature": {
              "type": "tendermint/SignatureEd25519",
              "value": "Qg2ozqYsrlNUeH+cmKx3E47sUb5AsHa5qbxAWWQUCbs6gC2L3i+FBQhdz1kUMlWqzl8vumhYikzZv/PEWVrHAQ=="
            }
          },
          {
            "validator_address": "41CAB2E29E7D0F2282E3275938F188FF9386B84C",
            "validator_index": "24",
            "height": "18918",
            "round": "0",
            "timestamp": "2018-07-31T13:13:46.937398968Z",
            "type": 2,
            "block_id": {
              "hash": "7D05741B45DADD44B26DA45C3C2D10DED6F389BE",
              "parts": {
                "total": "1",
                "hash": "A1591A68308C696BFF845D9738BC9F9EADADFA57"
              }
            },
            "signature": {
              "type": "tendermint/SignatureEd25519",
              "value": "9vbiY8LfIdnDU6GyGLr8rGdNCM0X9+Td2MXuurjY+ZZFGuftAuoMZrjQ+icFasTfpcXmZWEnXurf9cGxm9WsDg=="
            }
          },
          {
            "validator_address": "462B656869DB02A8FD1077E255F8CC7401DC37C6",
            "validator_index": "25",
            "height": "18918",
            "round": "0",
            "timestamp": "2018-07-31T13:13:46.875521226Z",
            "type": 2,
            "block_id": {
              "hash": "7D05741B45DADD44B26DA45C3C2D10DED6F389BE",
              "parts": {
                "total": "1",
                "hash": "A1591A68308C696BFF845D9738BC9F9EADADFA57"
              }
            },
            "signature": {
              "type": "tendermint/SignatureEd25519",
              "value": "9pukQkPWJ74oPVPBjLBguEJ+fNxWu0/mwPzYxCPi/oh1WDrVz72S0lWZFKK66M7Pujp15sSn0lv/OBNQT+V2Dg=="
            }
          },
          {
            "validator_address": "48E5118163E5442068A1B5A42D2EEDBB75724935",
            "validator_index": "26",
            "height": "18918",
            "round": "0",
            "timestamp": "2018-07-31T13:13:47.015398027Z",
            "type": 2,
            "block_id": {
              "hash": "7D05741B45DADD44B26DA45C3C2D10DED6F389BE",
              "parts": {
                "total": "1",
                "hash": "A1591A68308C696BFF845D9738BC9F9EADADFA57"
              }
            },
            "signature": {
              "type": "tendermint/SignatureEd25519",
              "value": "wM/OdSZ8rVJTVLMVMZM+NsWomeQhC9qkl9k5eAuz8vid72gai30RNN1GkddIgwKendYiOk0k4aICxj27zGA4Aw=="
            }
          },
          {
            "validator_address": "4944F8BBBB5303E17BC0607DF332320EDBC750EA",
            "validator_index": "27",
            "height": "18918",
            "round": "0",
            "timestamp": "2018-07-31T13:13:46.828177286Z",
            "type": 2,
            "block_id": {
              "hash": "7D05741B45DADD44B26DA45C3C2D10DED6F389BE",
              "parts": {
                "total": "1",
                "hash": "A1591A68308C696BFF845D9738BC9F9EADADFA57"
              }
            },
            "signature": {
              "type": "tendermint/SignatureEd25519",
              "value": "YZ/GRHShvjS/DUdK8fuXDMVS0hn4YYxHxHuVh2G47NSMqwGlGyz9aJMcDF9HXD9COLG1xxKFTTC3kO2gRmy3Cg=="
            }
          },
          {
            "validator_address": "49841599DE675157CBE1E7D6B35BF8FFC23BD5CB",
            "validator_index": "28",
            "height": "18918",
            "round": "0",
            "timestamp": "2018-07-31T13:13:46.813743077Z",
            "type": 2,
            "block_id": {
              "hash": "7D05741B45DADD44B26DA45C3C2D10DED6F389BE",
              "parts": {
                "total": "1",
                "hash": "A1591A68308C696BFF845D9738BC9F9EADADFA57"
              }
            },
            "signature": {
              "type": "tendermint/SignatureEd25519",
              "value": "j3yQUj0USp9vqlhspilbhysqKBpB7+NMBMCUOGfLA03Jq8aINGg+cMdphQM8UigS4ix9NeobR6lrKtGM5sEEAA=="
            }
          },
          {
            "validator_address": "5104F488EA6B1E2C33CBDA3C18389C88104DBC72",
            "validator_index": "29",
            "height": "18918",
            "round": "0",
            "timestamp": "2018-07-31T13:13:46.894422847Z",
            "type": 2,
            "block_id": {
              "hash": "7D05741B45DADD44B26DA45C3C2D10DED6F389BE",
              "parts": {
                "total": "1",
                "hash": "A1591A68308C696BFF845D9738BC9F9EADADFA57"
              }
            },
            "signature": {
              "type": "tendermint/SignatureEd25519",
              "value": "hnaHB2Xv0XanQg/aE07YRPhl8KQ91RY61jhg542t+tRgV42cVCkKrryRezvz+iBmqrlNS6Yylsa8SzRiJGg5Dw=="
            }
          },
          {
            "validator_address": "51386C2CF9556821D114D7E4945806802BADB28D",
            "validator_index": "30",
            "height": "18918",
            "round": "0",
            "timestamp": "2018-07-31T13:13:46.924833729Z",
            "type": 2,
            "block_id": {
              "hash": "7D05741B45DADD44B26DA45C3C2D10DED6F389BE",
              "parts": {
                "total": "1",
                "hash": "A1591A68308C696BFF845D9738BC9F9EADADFA57"
              }
            },
            "signature": {
              "type": "tendermint/SignatureEd25519",
              "value": "KDUatki3qU2uCqNot6SOcQgEoLza/VRf3sx8KtySyPS5gSL0P4IGt91VDixG+uqLlpc0ZoShOqaojy+tNW23Aw=="
            }
          },
          {
            "validator_address": "543564ECA3AFEFADC73EE8591AAC3A96F079BC8A",
            "validator_index": "31",
            "height": "18918",
            "round": "0",
            "timestamp": "2018-07-31T13:13:46.888410629Z",
            "type": 2,
            "block_id": {
              "hash": "7D05741B45DADD44B26DA45C3C2D10DED6F389BE",
              "parts": {
                "total": "1",
                "hash": "A1591A68308C696BFF845D9738BC9F9EADADFA57"
              }
            },
            "signature": {
              "type": "tendermint/SignatureEd25519",
              "value": "ReOJRhGQx+FUHJ6V5UsXuSwXPtMys+nEuYvQh4/hYGVRcC9/9fKYOHHKLy9i9ayEuwviKFCeDdSpppdl9bbcCg=="
            }
          },
          {
            "validator_address": "55D67B1A6DC13E96F8754A5A42EABC20F7F86664",
            "validator_index": "32",
            "height": "18918",
            "round": "0",
            "timestamp": "2018-07-31T13:13:46.848569568Z",
            "type": 2,
            "block_id": {
              "hash": "7D05741B45DADD44B26DA45C3C2D10DED6F389BE",
              "parts": {
                "total": "1",
                "hash": "A1591A68308C696BFF845D9738BC9F9EADADFA57"
              }
            },
            "signature": {
              "type": "tendermint/SignatureEd25519",
              "value": "yWdTUpomEVPWJfBlzH8DCywZEv04IPBZFT9TqqNQjgPJySpPV3HZz30kShHoZ5vA67nai5ssfll09uw/XwLBAA=="
            }
          },
          {
            "validator_address": "570B6A755ED339EAC56BB3390A48069F6AC9449B",
            "validator_index": "33",
            "height": "18918",
            "round": "0",
            "timestamp": "2018-07-31T13:13:50.223327823Z",
            "type": 2,
            "block_id": {
              "hash": "7D05741B45DADD44B26DA45C3C2D10DED6F389BE",
              "parts": {
                "total": "1",
                "hash": "A1591A68308C696BFF845D9738BC9F9EADADFA57"
              }
            },
            "signature": {
              "type": "tendermint/SignatureEd25519",
              "value": "/OF4/OadOvz2AkOPDEzdJJngqozznZp0W+YNnY3rBNHkJvZBt9Gm+kPrrMI1rvYWCm7yAtfJ+LTn1ygZ+2yqAg=="
            }
          },
          {
            "validator_address": "5BDF8EA41B1835FBAD865B181A2A4B23F511B5E4",
            "validator_index": "34",
            "height": "18918",
            "round": "0",
            "timestamp": "2018-07-31T13:13:46.813702353Z",
            "type": 2,
            "block_id": {
              "hash": "7D05741B45DADD44B26DA45C3C2D10DED6F389BE",
              "parts": {
                "total": "1",
                "hash": "A1591A68308C696BFF845D9738BC9F9EADADFA57"
              }
            },
            "signature": {
              "type": "tendermint/SignatureEd25519",
              "value": "ZnhG9MIZ+JWRKZ7aR4mkqK+vInYsgTxjzdzGcsdNR94167xffaL3gAcZUdSezZIm9YA37illPQ2Zs1XgNPYoCw=="
            }
          },
          {
            "validator_address": "60229E2E273297FE00219E46DFFB8F76844CDEF9",
            "validator_index": "35",
            "height": "18918",
            "round": "0",
            "timestamp": "2018-07-31T13:13:45.730892763Z",
            "type": 2,
            "block_id": {
              "hash": "7D05741B45DADD44B26DA45C3C2D10DED6F389BE",
              "parts": {
                "total": "1",
                "hash": "A1591A68308C696BFF845D9738BC9F9EADADFA57"
              }
            },
            "signature": {
              "type": "tendermint/SignatureEd25519",
              "value": "LtV5tkWJRYud5YSQ22ZKpU337g5IRTzZExioA38TewiCv6lXlIbToygIBkKD0IMZ1LJ0wqFGxQo7VwVxpvu7Dg=="
            }
          },
          {
            "validator_address": "62410D6D1CD98278136E4D0738AA0EA273CDFC54",
            "validator_index": "36",
            "height": "18918",
            "round": "0",
            "timestamp": "2018-07-31T13:13:46.855418186Z",
            "type": 2,
            "block_id": {
              "hash": "7D05741B45DADD44B26DA45C3C2D10DED6F389BE",
              "parts": {
                "total": "1",
                "hash": "A1591A68308C696BFF845D9738BC9F9EADADFA57"
              }
            },
            "signature": {
              "type": "tendermint/SignatureEd25519",
              "value": "WGjPXxQ0mNtmBm5oyVfHGGAv3/fqIAT/CVuKAKcMRWy8gDFmR38MaZmWI+PSgNHu7pQ9wVh0FIdQnWtac3bJBg=="
            }
          },
          {
            "validator_address": "632F5C139A5A9DFBFE5111DEE29FCFB6157207DC",
            "validator_index": "37",
            "height": "18918",
            "round": "0",
            "timestamp": "2018-07-31T13:13:46.843210453Z",
            "type": 2,
            "block_id": {
              "hash": "7D05741B45DADD44B26DA45C3C2D10DED6F389BE",
              "parts": {
                "total": "1",
                "hash": "A1591A68308C696BFF845D9738BC9F9EADADFA57"
              }
            },
            "signature": {
              "type": "tendermint/SignatureEd25519",
              "value": "woel8/R2JHQ+kVNYj1fBSn8RJKke+J+XUfWMjM+GP5uvXED9b1df4gENzgBgXXNFJspz8VR5cFSvakyr9ZEBBA=="
            }
          },
          {
            "validator_address": "64F57F8E796A9B7B590C1EFA4123988C86631D39",
            "validator_index": "38",
            "height": "18918",
            "round": "0",
            "timestamp": "2018-07-31T13:13:46.836115236Z",
            "type": 2,
            "block_id": {
              "hash": "7D05741B45DADD44B26DA45C3C2D10DED6F389BE",
              "parts": {
                "total": "1",
                "hash": "A1591A68308C696BFF845D9738BC9F9EADADFA57"
              }
            },
            "signature": {
              "type": "tendermint/SignatureEd25519",
              "value": "04HQdf45MIMsL9lLZx4/NRdBfq7xDpxkuES627Y2hycelO9iExAXR7W7ELx889pXwxYCKB7rND0/p97oFyf2Dg=="
            }
          },
          {
            "validator_address": "69D99B2C66043ACBEAA8447525C356AFC6408E0C",
            "validator_index": "39",
            "height": "18918",
            "round": "0",
            "timestamp": "2018-07-31T13:13:47.004154906Z",
            "type": 2,
            "block_id": {
              "hash": "7D05741B45DADD44B26DA45C3C2D10DED6F389BE",
              "parts": {
                "total": "1",
                "hash": "A1591A68308C696BFF845D9738BC9F9EADADFA57"
              }
            },
            "signature": {
              "type": "tendermint/SignatureEd25519",
              "value": "q2oEFF5VBfL4eFPXsKVKnoDGvrZqqZ2GloWji40A6VZ89wKvh2QvZzLOSgDNkI2fR2t+YtKX7PIyO8x/fURHDw=="
            }
          },
          {
            "validator_address": "69EDADFA4A803E9DBF548C900D4A465E7D154262",
            "validator_index": "40",
            "height": "18918",
            "round": "0",
            "timestamp": "2018-07-31T13:13:47.00407542Z",
            "type": 2,
            "block_id": {
              "hash": "7D05741B45DADD44B26DA45C3C2D10DED6F389BE",
              "parts": {
                "total": "1",
                "hash": "A1591A68308C696BFF845D9738BC9F9EADADFA57"
              }
            },
            "signature": {
              "type": "tendermint/SignatureEd25519",
              "value": "ZBilhWKakclfljdvcDcI5bxnBz7MG/WWfscPNSJlSKa3xAnHMlsScYjLOXFiZ7Kd6rLhQd51rNPVis/KqhS9CQ=="
            }
          },
          {
            "validator_address": "6D3AD380E398D8592B03AA124BAFED5F125DF863",
            "validator_index": "41",
            "height": "18918",
            "round": "0",
            "timestamp": "2018-07-31T13:12:44.945158048Z",
            "type": 2,
            "block_id": {
              "hash": "7D05741B45DADD44B26DA45C3C2D10DED6F389BE",
              "parts": {
                "total": "1",
                "hash": "A1591A68308C696BFF845D9738BC9F9EADADFA57"
              }
            },
            "signature": {
              "type": "tendermint/SignatureEd25519",
              "value": "ztugGVcFOTdGZiim6cUmLJdPc+J7iGvp18eiCZOyFSI/ABJ3zaZ45CirwnBplleakds3jMb28wIIhNHzGLzxBA=="
            }
          },
          {
            "validator_address": "6F6C93B8BF3495063FEC9B5C771158607F4AE9D6",
            "validator_index": "42",
            "height": "18918",
            "round": "0",
            "timestamp": "2018-07-31T13:13:46.963360549Z",
            "type": 2,
            "block_id": {
              "hash": "7D05741B45DADD44B26DA45C3C2D10DED6F389BE",
              "parts": {
                "total": "1",
                "hash": "A1591A68308C696BFF845D9738BC9F9EADADFA57"
              }
            },
            "signature": {
              "type": "tendermint/SignatureEd25519",
              "value": "3iNSvop/8rT/mJQjgowd9KIqk1DEJZ71K0GTniZgxXTQD18VQYOBtUBCcpyoTnA0pLCvM7H56OHbLxsHjsZfCw=="
            }
          },
          {
            "validator_address": "732CEEF54C374DDC6ADECBFD707AEFD07FEDC143",
            "validator_index": "43",
            "height": "18918",
            "round": "0",
            "timestamp": "2018-07-31T13:13:46.99450653Z",
            "type": 2,
            "block_id": {
              "hash": "7D05741B45DADD44B26DA45C3C2D10DED6F389BE",
              "parts": {
                "total": "1",
                "hash": "A1591A68308C696BFF845D9738BC9F9EADADFA57"
              }
            },
            "signature": {
              "type": "tendermint/SignatureEd25519",
              "value": "aUPFlnPZpoSAQU7KPn+XJfN8vIz3llde0TuTTYhrfiR3SACko2GIZl7ZgNVrRcaVns+FqBb9zzL0v+p00KaVDA=="
            }
          },
          {
            "validator_address": "7393D691BFAE9661918C09932D4D9060AB40939B",
            "validator_index": "44",
            "height": "18918",
            "round": "0",
            "timestamp": "2018-07-31T13:13:47.08837387Z",
            "type": 2,
            "block_id": {
              "hash": "7D05741B45DADD44B26DA45C3C2D10DED6F389BE",
              "parts": {
                "total": "1",
                "hash": "A1591A68308C696BFF845D9738BC9F9EADADFA57"
              }
            },
            "signature": {
              "type": "tendermint/SignatureEd25519",
              "value": "KaOza+93XNk9HzsiqUMdWRP9q5cOmmlgnLE3xKXcU5XTLs//qWgLkf4UInUpZfgWWtFoHsgCxrUBzU1gdTfpDA=="
            }
          },
          {
            "validator_address": "751E43437224E8BB6D1569B3E2B2616B6E7F4397",
            "validator_index": "45",
            "height": "18918",
            "round": "0",
            "timestamp": "2018-07-31T13:13:46.877572405Z",
            "type": 2,
            "block_id": {
              "hash": "7D05741B45DADD44B26DA45C3C2D10DED6F389BE",
              "parts": {
                "total": "1",
                "hash": "A1591A68308C696BFF845D9738BC9F9EADADFA57"
              }
            },
            "signature": {
              "type": "tendermint/SignatureEd25519",
              "value": "oDUail3sBQE1ZXUgdaP0WbnbfmEws3Sz50OY3gpYN40XR+oQWYasH5mMTd+6kAitk0hBl0mfGxaSWWpRqFcqBw=="
            }
          },
          {
            "validator_address": "7EB7593F519F1180C7E872D0494611464EDF03AE",
            "validator_index": "46",
            "height": "18918",
            "round": "0",
            "timestamp": "2018-07-31T13:13:46.956328609Z",
            "type": 2,
            "block_id": {
              "hash": "7D05741B45DADD44B26DA45C3C2D10DED6F389BE",
              "parts": {
                "total": "1",
                "hash": "A1591A68308C696BFF845D9738BC9F9EADADFA57"
              }
            },
            "signature": {
              "type": "tendermint/SignatureEd25519",
              "value": "nAMnJZydkft3jKMfOY5TiXXWRXol7Y1ohtOidkm7Lfm0CShkG6aGIyC9WQuJSb6FW2bck7qsRK8LxNiHKqVBAQ=="
            }
          },
          {
            "validator_address": "807CF675BA8479FC4FEC1047215DF07970040F1F",
            "validator_index": "47",
            "height": "18918",
            "round": "0",
            "timestamp": "2018-07-31T13:13:47.244458686Z",
            "type": 2,
            "block_id": {
              "hash": "7D05741B45DADD44B26DA45C3C2D10DED6F389BE",
              "parts": {
                "total": "1",
                "hash": "A1591A68308C696BFF845D9738BC9F9EADADFA57"
              }
            },
            "signature": {
              "type": "tendermint/SignatureEd25519",
              "value": "veGI5+I1Ix/+nBPfrJLbtck+4iWCZkKVZHmeexAjZsL9wzgX9q1S0Pxsn5ukDCr6UYdm9AqaEGKLseHVqop8Dg=="
            }
          },
          {
            "validator_address": "8126192EA66E8ADE6B36924534721366B987A4C1",
            "validator_index": "48",
            "height": "18918",
            "round": "0",
            "timestamp": "2018-07-31T13:13:46.911781818Z",
            "type": 2,
            "block_id": {
              "hash": "7D05741B45DADD44B26DA45C3C2D10DED6F389BE",
              "parts": {
                "total": "1",
                "hash": "A1591A68308C696BFF845D9738BC9F9EADADFA57"
              }
            },
            "signature": {
              "type": "tendermint/SignatureEd25519",
              "value": "3a8suLBlkQ8COpgjotaq6f3bSZ+yj6MwKyXi1HJ35VXyZWX2oqCZjmmr3cQkWO6jErJE82ZYhx42LcH8j7mEAQ=="
            }
          },
          {
            "validator_address": "83AB321E012C57746689FED3A6064DF331F81007",
            "validator_index": "49",
            "height": "18918",
            "round": "0",
            "timestamp": "2018-07-31T13:13:46.93753714Z",
            "type": 2,
            "block_id": {
              "hash": "7D05741B45DADD44B26DA45C3C2D10DED6F389BE",
              "parts": {
                "total": "1",
                "hash": "A1591A68308C696BFF845D9738BC9F9EADADFA57"
              }
            },
            "signature": {
              "type": "tendermint/SignatureEd25519",
              "value": "MdolegMZZzR4n1YIdGjjgmJ83Kw0TqTkUS3pejr5K7uzsNGLmmBdYKoE+Lju/g4/AgXKEbSuhTb/64Uu7UDgCA=="
            }
          },
          {
            "validator_address": "83BB1B88D3DBB20AD845FECA07749EBD87D3754D",
            "validator_index": "50",
            "height": "18918",
            "round": "0",
            "timestamp": "2018-07-31T13:13:47.051967583Z",
            "type": 2,
            "block_id": {
              "hash": "7D05741B45DADD44B26DA45C3C2D10DED6F389BE",
              "parts": {
                "total": "1",
                "hash": "A1591A68308C696BFF845D9738BC9F9EADADFA57"
              }
            },
            "signature": {
              "type": "tendermint/SignatureEd25519",
              "value": "aWNXhGIGs8nK/T63yikDXMl4LPhwD8qvr3j1j3a5EGyAhkvvW75Es1w0fqvL6HN1XxoW74480tWepRKlc2OFAQ=="
            }
          },
          {
            "validator_address": "8F06FE1FD042683C426137FBC4BBAA4288924217",
            "validator_index": "51",
            "height": "18918",
            "round": "0",
            "timestamp": "2018-07-31T13:13:46.94699545Z",
            "type": 2,
            "block_id": {
              "hash": "7D05741B45DADD44B26DA45C3C2D10DED6F389BE",
              "parts": {
                "total": "1",
                "hash": "A1591A68308C696BFF845D9738BC9F9EADADFA57"
              }
            },
            "signature": {
              "type": "tendermint/SignatureEd25519",
              "value": "kET012WIKsgphaBsntE2VM9jtgr/aQv86cyJoWaRtW9TwgPdAiJBd/SRHZfClIG5q1Xc+ISH53/gCjlEnt45DQ=="
            }
          },
          {
            "validator_address": "8F45617BF45B10A3F8283DEBDB35E38C7CA43237",
            "validator_index": "52",
            "height": "18918",
            "round": "0",
            "timestamp": "2018-07-31T13:13:46.825920914Z",
            "type": 2,
            "block_id": {
              "hash": "7D05741B45DADD44B26DA45C3C2D10DED6F389BE",
              "parts": {
                "total": "1",
                "hash": "A1591A68308C696BFF845D9738BC9F9EADADFA57"
              }
            },
            "signature": {
              "type": "tendermint/SignatureEd25519",
              "value": "J93vMivj+UeOAKg2r1mb2jyaFhA4opuv5w32JtdfJ8zAd62NUIkfQGFCbCyLDbzXL3uwGNifD6R2pxMUGHKECQ=="
            }
          },
          {
            "validator_address": "95980831E186F2540F6E9FB6C8E74DE2401405AC",
            "validator_index": "53",
            "height": "18918",
            "round": "0",
            "timestamp": "2018-07-31T13:13:46.917204338Z",
            "type": 2,
            "block_id": {
              "hash": "7D05741B45DADD44B26DA45C3C2D10DED6F389BE",
              "parts": {
                "total": "1",
                "hash": "A1591A68308C696BFF845D9738BC9F9EADADFA57"
              }
            },
            "signature": {
              "type": "tendermint/SignatureEd25519",
              "value": "vJjOcXlNNsm3ekrrlklDHMnzhspKGhssg2muP2mWoZm93Yrw/+KyIDrv8Tk42ExHAAuy4xwgOJPVqd4qV2hoDA=="
            }
          },
          {
            "validator_address": "95FAFBC1E0579C83D290A063020CE87C5334BD9B",
            "validator_index": "54",
            "height": "18918",
            "round": "0",
            "timestamp": "2018-07-31T13:13:46.888692775Z",
            "type": 2,
            "block_id": {
              "hash": "7D05741B45DADD44B26DA45C3C2D10DED6F389BE",
              "parts": {
                "total": "1",
                "hash": "A1591A68308C696BFF845D9738BC9F9EADADFA57"
              }
            },
            "signature": {
              "type": "tendermint/SignatureEd25519",
              "value": "iwV7244N9TpDi1VCxTYNxdWHpAEUGiPq8hs6dUJpEKB09RA7hTeCuqlikGh4McfjUfnNd7FueQyjZLhbJzvpDw=="
            }
          },
          {
            "validator_address": "96BDE45EC52606CF5CB59853097871AD60680549",
            "validator_index": "55",
            "height": "18918",
            "round": "0",
            "timestamp": "2018-07-31T13:13:46.877543187Z",
            "type": 2,
            "block_id": {
              "hash": "7D05741B45DADD44B26DA45C3C2D10DED6F389BE",
              "parts": {
                "total": "1",
                "hash": "A1591A68308C696BFF845D9738BC9F9EADADFA57"
              }
            },
            "signature": {
              "type": "tendermint/SignatureEd25519",
              "value": "TJPwLZWAzzxw8spmtALWLM6iNnU9oNSoKGEvVWrUdnc1ZMACb5cHl29sx8CtrEYy98iMayLHn/A3DriKvUh1CA=="
            }
          },
          {
            "validator_address": "970CD321881185BF83DB2923C321B0E75FDBB2B8",
            "validator_index": "56",
            "height": "18918",
            "round": "0",
            "timestamp": "2018-07-31T13:13:46.916361834Z",
            "type": 2,
            "block_id": {
              "hash": "7D05741B45DADD44B26DA45C3C2D10DED6F389BE",
              "parts": {
                "total": "1",
                "hash": "A1591A68308C696BFF845D9738BC9F9EADADFA57"
              }
            },
            "signature": {
              "type": "tendermint/SignatureEd25519",
              "value": "oFinJzpdbxS+/SUud9+rIA9we+uykCjWp2WG+nMg1ho8QPsnTzmFpB5ZWhgQ84KJRox4wu+a6u61+w9gulIEAw=="
            }
          },
          {
            "validator_address": "97DBB3D4B3D6C29287244864448F651DD5B07390",
            "validator_index": "57",
            "height": "18918",
            "round": "0",
            "timestamp": "2018-07-31T13:13:46.992179855Z",
            "type": 2,
            "block_id": {
              "hash": "7D05741B45DADD44B26DA45C3C2D10DED6F389BE",
              "parts": {
                "total": "1",
                "hash": "A1591A68308C696BFF845D9738BC9F9EADADFA57"
              }
            },
            "signature": {
              "type": "tendermint/SignatureEd25519",
              "value": "dJSz+jF/yaG5SYqPpJ0ZbASE/cBhKWaknUxsizlqbYCx0iqkxikj2jFFBDcVlIjDDCi2Oa4+EpesOD2oh3jOBg=="
            }
          },
          {
            "validator_address": "9C29C9B76D27586E4D9AD2AED0E943162645E55C",
            "validator_index": "58",
            "height": "18918",
            "round": "0",
            "timestamp": "2018-07-31T13:13:46.83252471Z",
            "type": 2,
            "block_id": {
              "hash": "7D05741B45DADD44B26DA45C3C2D10DED6F389BE",
              "parts": {
                "total": "1",
                "hash": "A1591A68308C696BFF845D9738BC9F9EADADFA57"
              }
            },
            "signature": {
              "type": "tendermint/SignatureEd25519",
              "value": "aslTDDZW3yUSAr2qvfwSAYrO0977VvTMsi2wYN6e5OzSnK5WF6UtqC5BtH3n8gh5mf+xn9bX1DGzQr1e/hkaAw=="
            }
          },
          {
            "validator_address": "9D93AD02FE1BD7E76B9E58D7EB461088EAD011E5",
            "validator_index": "59",
            "height": "18918",
            "round": "0",
            "timestamp": "2018-07-31T13:13:46.858209243Z",
            "type": 2,
            "block_id": {
              "hash": "7D05741B45DADD44B26DA45C3C2D10DED6F389BE",
              "parts": {
                "total": "1",
                "hash": "A1591A68308C696BFF845D9738BC9F9EADADFA57"
              }
            },
            "signature": {
              "type": "tendermint/SignatureEd25519",
              "value": "4sdgqfKqc/58ctcwHe9eA3LUzYInvFs/lNrQI2nqOSd5wXwWQWMNTLFRUfD1tzewa+xe5YRJvoCx1P1bGRSJDw=="
            }
          },
          {
            "validator_address": "A0A6466F4ABEA09C3B55E3709AFDE217A103209F",
            "validator_index": "60",
            "height": "18918",
            "round": "0",
            "timestamp": "2018-07-31T13:13:46.837955841Z",
            "type": 2,
            "block_id": {
              "hash": "7D05741B45DADD44B26DA45C3C2D10DED6F389BE",
              "parts": {
                "total": "1",
                "hash": "A1591A68308C696BFF845D9738BC9F9EADADFA57"
              }
            },
            "signature": {
              "type": "tendermint/SignatureEd25519",
              "value": "d2YZIusuu6lnBH5S33YBRujy7+jCb7/zsS/NqWYQkuykRM5xQmCtKHyrHuMgJuqLNkBO+eVVc6iQ+B+0V3FUDQ=="
            }
          },
          {
            "validator_address": "A5868971300F155020634D7BB49C7634F7AACCD3",
            "validator_index": "61",
            "height": "18918",
            "round": "0",
            "timestamp": "2018-07-31T13:13:46.956692494Z",
            "type": 2,
            "block_id": {
              "hash": "7D05741B45DADD44B26DA45C3C2D10DED6F389BE",
              "parts": {
                "total": "1",
                "hash": "A1591A68308C696BFF845D9738BC9F9EADADFA57"
              }
            },
            "signature": {
              "type": "tendermint/SignatureEd25519",
              "value": "nTi3aNP+KN8hdMlZ5odVbDAVKzDb7J/Ist7qPD6PMZ9Cnoty1dXYl2j/NGsho8g5IU3JyRPf7mOrNxV3uDtMBA=="
            }
          },
          {
            "validator_address": "A6B3A5B5D982CFD7B5FDFA15CF5A720E7AE25E7F",
            "validator_index": "62",
            "height": "18918",
            "round": "0",
            "timestamp": "2018-07-31T13:13:46.829493394Z",
            "type": 2,
            "block_id": {
              "hash": "7D05741B45DADD44B26DA45C3C2D10DED6F389BE",
              "parts": {
                "total": "1",
                "hash": "A1591A68308C696BFF845D9738BC9F9EADADFA57"
              }
            },
            "signature": {
              "type": "tendermint/SignatureEd25519",
              "value": "7D9JnH6qyBRAly9mw05JhzxzIhJDpP/hLkm42k/VJhoYcLhPkMVjKa94h7t8ksPeFqj7ghpzXJ3A6Uw7hjuvCQ=="
            }
          },
          {
            "validator_address": "AC96444A9083890B7C7B430DB17BF1D3EA5EED04",
            "validator_index": "63",
            "height": "18918",
            "round": "0",
            "timestamp": "2018-07-31T13:13:46.893635804Z",
            "type": 2,
            "block_id": {
              "hash": "7D05741B45DADD44B26DA45C3C2D10DED6F389BE",
              "parts": {
                "total": "1",
                "hash": "A1591A68308C696BFF845D9738BC9F9EADADFA57"
              }
            },
            "signature": {
              "type": "tendermint/SignatureEd25519",
              "value": "X32kY3HibKlEldeNFy9SEbSsP+W98mUxIlxjBFkgTjzkb/0dKuu3JU8y2zQNGL7SL8A8Jy90e5QeA+9Fc7/CDA=="
            }
          },
          {
            "validator_address": "ACB97FDA2D940AF0709B73537C458EB988AD2893",
            "validator_index": "64",
            "height": "18918",
            "round": "0",
            "timestamp": "2018-07-31T13:13:46.943725807Z",
            "type": 2,
            "block_id": {
              "hash": "7D05741B45DADD44B26DA45C3C2D10DED6F389BE",
              "parts": {
                "total": "1",
                "hash": "A1591A68308C696BFF845D9738BC9F9EADADFA57"
              }
            },
            "signature": {
              "type": "tendermint/SignatureEd25519",
              "value": "J0nlg4YiPp9VfH0NiEGeQo1JCegCFwnykfyzwuG7dAVUZyAA9V8kMWUnlu1BG0je54Gyhr+tXZdVZQIl4QltCQ=="
            }
          },
          {
            "validator_address": "B197425B3210375F211661DE02EF2AE36580EB0F",
            "validator_index": "65",
            "height": "18918",
            "round": "0",
            "timestamp": "2018-07-31T13:13:46.874292926Z",
            "type": 2,
            "block_id": {
              "hash": "7D05741B45DADD44B26DA45C3C2D10DED6F389BE",
              "parts": {
                "total": "1",
                "hash": "A1591A68308C696BFF845D9738BC9F9EADADFA57"
              }
            },
            "signature": {
              "type": "tendermint/SignatureEd25519",
              "value": "Y+QHasBq35SPHpoDCNz5NiEmFxqkk0KIfcx8QNvVJK7kLT/ggMMPpKhqE+e8KfRiNO/8M9HhQDJXKq2pwLr0Bg=="
            }
          },
          {
            "validator_address": "B45E54D2D1CB5A4CCD1D49016608C18E7C56B270",
            "validator_index": "66",
            "height": "18918",
            "round": "0",
            "timestamp": "2018-07-31T13:13:47.03413926Z",
            "type": 2,
            "block_id": {
              "hash": "7D05741B45DADD44B26DA45C3C2D10DED6F389BE",
              "parts": {
                "total": "1",
                "hash": "A1591A68308C696BFF845D9738BC9F9EADADFA57"
              }
            },
            "signature": {
              "type": "tendermint/SignatureEd25519",
              "value": "jQLNZGDLUXvyw4h2veQoDkqaW4n2ipv4EQAMHiaekhvE0FZ3ofhMpiQYpNdiIYmAuUC+huoZSa2uz3bYfaHLAQ=="
            }
          },
          {
            "validator_address": "B59A34C0BE4EC73AF6A67D274F1695C9259C237C",
            "validator_index": "67",
            "height": "18918",
            "round": "0",
            "timestamp": "2018-07-31T13:13:47.058788198Z",
            "type": 2,
            "block_id": {
              "hash": "7D05741B45DADD44B26DA45C3C2D10DED6F389BE",
              "parts": {
                "total": "1",
                "hash": "A1591A68308C696BFF845D9738BC9F9EADADFA57"
              }
            },
            "signature": {
              "type": "tendermint/SignatureEd25519",
              "value": "IwRFfEaktG+y8O/liqoUBTUv18mvPlLYnNORDKZcyACvmzx+0sTWaEZmwC76fc3HJL780AjV9Q7YdV1H3U31CA=="
            }
          },
          {
            "validator_address": "BB1276BE89834835428664408917649FEEF5D90C",
            "validator_index": "68",
            "height": "18918",
            "round": "0",
            "timestamp": "2018-07-31T13:13:46.958063941Z",
            "type": 2,
            "block_id": {
              "hash": "7D05741B45DADD44B26DA45C3C2D10DED6F389BE",
              "parts": {
                "total": "1",
                "hash": "A1591A68308C696BFF845D9738BC9F9EADADFA57"
              }
            },
            "signature": {
              "type": "tendermint/SignatureEd25519",
              "value": "oRmTLrkkIXEDXfuoQMi0e8JyWDDmT1yytVfETcLV2y87b0A0bb0FJndcUWoNmJBumFXEqV9gEAVzvrf7iXdKBQ=="
            }
          },
          {
            "validator_address": "BC36FEDD6EF6071118A3E51859DF3831A2EC4782",
            "validator_index": "69",
            "height": "18918",
            "round": "0",
            "timestamp": "2018-07-31T13:13:46.835842423Z",
            "type": 2,
            "block_id": {
              "hash": "7D05741B45DADD44B26DA45C3C2D10DED6F389BE",
              "parts": {
                "total": "1",
                "hash": "A1591A68308C696BFF845D9738BC9F9EADADFA57"
              }
            },
            "signature": {
              "type": "tendermint/SignatureEd25519",
              "value": "+t/DnYNVgQ2FOL6RmOegJKtJri1+QxJYst6UKYicO8FNm7DoTCrZ2yBsfiJwB92oCpkn6NwPg84BA6+KWQUpAA=="
            }
          },
          {
            "validator_address": "BD9D0DA513BF099DB4BB6E725A4E19832789882F",
            "validator_index": "70",
            "height": "18918",
            "round": "0",
            "timestamp": "2018-07-31T13:13:46.83695219Z",
            "type": 2,
            "block_id": {
              "hash": "7D05741B45DADD44B26DA45C3C2D10DED6F389BE",
              "parts": {
                "total": "1",
                "hash": "A1591A68308C696BFF845D9738BC9F9EADADFA57"
              }
            },
            "signature": {
              "type": "tendermint/SignatureEd25519",
              "value": "kL6hnoEHLa8GuadQZ1VK1TeSvVLQr9dbPhpZm2Sz27xnsv6Dhd2BhylZnGmASUr0f3QnsqI9GNhrgmPXRd17DQ=="
            }
          },
          {
            "validator_address": "C1134A2FF8F7338E7CDB3FE57DDD2A655DEB1E22",
            "validator_index": "71",
            "height": "18918",
            "round": "0",
            "timestamp": "2018-07-31T13:13:46.198005343Z",
            "type": 2,
            "block_id": {
              "hash": "7D05741B45DADD44B26DA45C3C2D10DED6F389BE",
              "parts": {
                "total": "1",
                "hash": "A1591A68308C696BFF845D9738BC9F9EADADFA57"
              }
            },
            "signature": {
              "type": "tendermint/SignatureEd25519",
              "value": "4PqHIG0RGU9V9YIlaJUvpgQixLjipiQNIDewM11hzXdUkN9XbTlvq3GHGjdRHZfr/qzN0dSSa5ABUaNlul+LDw=="
            }
          },
          {
            "validator_address": "C39A8A2B85198DCB8F23AD1F6C198E2BA7AB5D60",
            "validator_index": "72",
            "height": "18918",
            "round": "0",
            "timestamp": "2018-07-31T13:13:46.924703775Z",
            "type": 2,
            "block_id": {
              "hash": "7D05741B45DADD44B26DA45C3C2D10DED6F389BE",
              "parts": {
                "total": "1",
                "hash": "A1591A68308C696BFF845D9738BC9F9EADADFA57"
              }
            },
            "signature": {
              "type": "tendermint/SignatureEd25519",
              "value": "OSuGtHBJf/bw0YS9a6aKPAHEyrpf17TdVjECHMGYgdediryI16iCqWJtd3iKzePUukuacWZCARxGYkSmRGR/Bg=="
            }
          },
          {
            "validator_address": "C4335190C3B5BD4BA5568BC0F99C34162D940D08",
            "validator_index": "73",
            "height": "18918",
            "round": "0",
            "timestamp": "2018-07-31T13:13:46.97138728Z",
            "type": 2,
            "block_id": {
              "hash": "7D05741B45DADD44B26DA45C3C2D10DED6F389BE",
              "parts": {
                "total": "1",
                "hash": "A1591A68308C696BFF845D9738BC9F9EADADFA57"
              }
            },
            "signature": {
              "type": "tendermint/SignatureEd25519",
              "value": "guLxLbVQ0EuXzttYDROuMDisYnwzQODuF621/h16eqo6gDpZDfdLJbGBK6IV5UxwLhL+UwicPlpwtGBSfUt1Aw=="
            }
          },
          {
            "validator_address": "C561CFA081677046376396922E7576E5F7B316AD",
            "validator_index": "74",
            "height": "18918",
            "round": "0",
            "timestamp": "2018-07-31T13:13:46.945904636Z",
            "type": 2,
            "block_id": {
              "hash": "7D05741B45DADD44B26DA45C3C2D10DED6F389BE",
              "parts": {
                "total": "1",
                "hash": "A1591A68308C696BFF845D9738BC9F9EADADFA57"
              }
            },
            "signature": {
              "type": "tendermint/SignatureEd25519",
              "value": "BFyX336idJrlGH5f1MZFKmxIhTiOU+K0gL6hu21apVFwQEB2NPi869lF2Q/sRjiLa2Dzip7f2g+4lS7X2EhhBw=="
            }
          },
          {
            "validator_address": "CE589EA77B056D268D30D1DC1D68A70E0F885E95",
            "validator_index": "75",
            "height": "18918",
            "round": "0",
            "timestamp": "2018-07-31T13:13:46.898600764Z",
            "type": 2,
            "block_id": {
              "hash": "7D05741B45DADD44B26DA45C3C2D10DED6F389BE",
              "parts": {
                "total": "1",
                "hash": "A1591A68308C696BFF845D9738BC9F9EADADFA57"
              }
            },
            "signature": {
              "type": "tendermint/SignatureEd25519",
              "value": "LFY2i6vFLWXeQm0IglFS/wUHMLjvC2IcfTvgtnpMRw2FGmQGFdqFOgdAMGAcOZVZKg1uCL5thKxsJJbPXpw9CQ=="
            }
          },
          {
            "validator_address": "CEB97DB5CB18270247ABDE6CF2F84F9AEE8A2904",
            "validator_index": "76",
            "height": "18918",
            "round": "0",
            "timestamp": "2018-07-31T13:13:47.062807074Z",
            "type": 2,
            "block_id": {
              "hash": "7D05741B45DADD44B26DA45C3C2D10DED6F389BE",
              "parts": {
                "total": "1",
                "hash": "A1591A68308C696BFF845D9738BC9F9EADADFA57"
              }
            },
            "signature": {
              "type": "tendermint/SignatureEd25519",
              "value": "/opO6ds939OB4wc738UC45cjg1uc95CTL8oiESB70ejJUncfm8Em1z0wx1oQHP3bh72SPuQWSjZjBS97XBZyDA=="
            }
          },
          {
            "validator_address": "CF205769734F5758CC39F907EFB73D6BAF915FB1",
            "validator_index": "77",
            "height": "18918",
            "round": "0",
            "timestamp": "2018-07-31T13:13:47.241117791Z",
            "type": 2,
            "block_id": {
              "hash": "7D05741B45DADD44B26DA45C3C2D10DED6F389BE",
              "parts": {
                "total": "1",
                "hash": "A1591A68308C696BFF845D9738BC9F9EADADFA57"
              }
            },
            "signature": {
              "type": "tendermint/SignatureEd25519",
              "value": "zPl39P0rdw1WgtWvBnfygGsgqDjngzOdb+lxUih4c0kU5UUj8jLBEB0/iqf6HrR+7tEx6uXtkCivWUmzMJ/lAA=="
            }
          },
          {
            "validator_address": "D2134B826A1E25A955905CB79A4D8731CAFA0CCE",
            "validator_index": "78",
            "height": "18918",
            "round": "0",
            "timestamp": "2018-07-31T13:13:46.992947836Z",
            "type": 2,
            "block_id": {
              "hash": "7D05741B45DADD44B26DA45C3C2D10DED6F389BE",
              "parts": {
                "total": "1",
                "hash": "A1591A68308C696BFF845D9738BC9F9EADADFA57"
              }
            },
            "signature": {
              "type": "tendermint/SignatureEd25519",
              "value": "zcwe9xD43T7vzeshbu6eX96yOZ3HTtE4O7j82oLaI2gXEXU+2azqcieHkHLfJ0umuDj3a8Vw9vR3jaN6/Xe+Aw=="
            }
          },
          {
            "validator_address": "D6285C3422C8886445D53757CBE12D2B91B5A9D0",
            "validator_index": "79",
            "height": "18918",
            "round": "0",
            "timestamp": "2018-07-31T13:13:29.442558418Z",
            "type": 2,
            "block_id": {
              "hash": "7D05741B45DADD44B26DA45C3C2D10DED6F389BE",
              "parts": {
                "total": "1",
                "hash": "A1591A68308C696BFF845D9738BC9F9EADADFA57"
              }
            },
            "signature": {
              "type": "tendermint/SignatureEd25519",
              "value": "LuomvRRgyZo8OahD93glWSMcDPWViYj8WclxNREiDflN/AsTYJ37aeK7EAq01qCLQVm8qa5dMpktN9hpGffrDg=="
            }
          },
          {
            "validator_address": "D77FB84A729972CD3E757C9BEB61561855832B92",
            "validator_index": "80",
            "height": "18918",
            "round": "0",
            "timestamp": "2018-07-31T13:13:47.036610145Z",
            "type": 2,
            "block_id": {
              "hash": "7D05741B45DADD44B26DA45C3C2D10DED6F389BE",
              "parts": {
                "total": "1",
                "hash": "A1591A68308C696BFF845D9738BC9F9EADADFA57"
              }
            },
            "signature": {
              "type": "tendermint/SignatureEd25519",
              "value": "/5TJYR6XdqBkVNWruLPFBBR528LcDnaxQB55iiwM0XrgMQkVuXFyxhnlQhjZvsTdBh5KzvmWh9kqaBh7fmLPDQ=="
            }
          },
          {
            "validator_address": "DB7E6732471D3EA5C90C17A9974D9F88AB45F2FB",
            "validator_index": "81",
            "height": "18918",
            "round": "0",
            "timestamp": "2018-07-31T13:13:46.900511953Z",
            "type": 2,
            "block_id": {
              "hash": "7D05741B45DADD44B26DA45C3C2D10DED6F389BE",
              "parts": {
                "total": "1",
                "hash": "A1591A68308C696BFF845D9738BC9F9EADADFA57"
              }
            },
            "signature": {
              "type": "tendermint/SignatureEd25519",
              "value": "YWrLYHC7zfl0USIcBgsO7x40Br4UpcLT3jsVziWhnwQuvduMBfj8ZMD+v5IW8qZwIYbdBa+ENzJAIGZDhPzxDQ=="
            }
          },
          {
            "validator_address": "DF54B862410BCD9B5C516FBB6C56BDC826ED6FA7",
            "validator_index": "82",
            "height": "18918",
            "round": "0",
            "timestamp": "2018-07-31T13:13:47.055456341Z",
            "type": 2,
            "block_id": {
              "hash": "7D05741B45DADD44B26DA45C3C2D10DED6F389BE",
              "parts": {
                "total": "1",
                "hash": "A1591A68308C696BFF845D9738BC9F9EADADFA57"
              }
            },
            "signature": {
              "type": "tendermint/SignatureEd25519",
              "value": "CwgVqIrj484WYTfsb0s+fFfQFwvWXJrIL6Rr3FmYv1zkcMIQjaZkO6dk8/Ct8Z+F19j+UtBe8VHlTVXFtQ+DDw=="
            }
          },
          {
            "validator_address": "DFAF0C8B1B78D6D552B0189DE3ACA351439A1319",
            "validator_index": "83",
            "height": "18918",
            "round": "0",
            "timestamp": "2018-07-31T13:13:46.89258287Z",
            "type": 2,
            "block_id": {
              "hash": "7D05741B45DADD44B26DA45C3C2D10DED6F389BE",
              "parts": {
                "total": "1",
                "hash": "A1591A68308C696BFF845D9738BC9F9EADADFA57"
              }
            },
            "signature": {
              "type": "tendermint/SignatureEd25519",
              "value": "3U4jWkDgyEOeZnX4MQ81ukR43sCGgCMiSxEu8Y3pxCpbLYMRxUpOa92SbUHT1/RkzJ5FoK9NwNoyiugHotVjDw=="
            }
          },
          {
            "validator_address": "E1DBC77881161A5A3A8536A57536EAE546A75D69",
            "validator_index": "84",
            "height": "18918",
            "round": "0",
            "timestamp": "2018-07-31T13:13:46.820358333Z",
            "type": 2,
            "block_id": {
              "hash": "7D05741B45DADD44B26DA45C3C2D10DED6F389BE",
              "parts": {
                "total": "1",
                "hash": "A1591A68308C696BFF845D9738BC9F9EADADFA57"
              }
            },
            "signature": {
              "type": "tendermint/SignatureEd25519",
              "value": "barLCGgAcuD3cgkMZrEr2LHgk83kdzC/HbLyAyyZm7qWVRGIPE/6p2B7iBfvnmR6Pb6HMxXfVceceXUbT3Q+Dg=="
            }
          },
          {
            "validator_address": "E300E9D484374C1D3E97C1D93CAC3B160A056298",
            "validator_index": "85",
            "height": "18918",
            "round": "0",
            "timestamp": "2018-07-31T13:13:47.085945608Z",
            "type": 2,
            "block_id": {
              "hash": "7D05741B45DADD44B26DA45C3C2D10DED6F389BE",
              "parts": {
                "total": "1",
                "hash": "A1591A68308C696BFF845D9738BC9F9EADADFA57"
              }
            },
            "signature": {
              "type": "tendermint/SignatureEd25519",
              "value": "kLZc+u2BgCG6xZvhW+mqBC3aVK2Rfk9np7BOxDPWesLR52qZdBjCsGV/fTceX3IYohWifxj54lUn6QvUvG6vBA=="
            }
          },
          {
            "validator_address": "E39B5778E0D4297A46F45CF6940B0A163A430FF8",
            "validator_index": "86",
            "height": "18918",
            "round": "0",
            "timestamp": "2018-07-31T13:13:46.917057286Z",
            "type": 2,
            "block_id": {
              "hash": "7D05741B45DADD44B26DA45C3C2D10DED6F389BE",
              "parts": {
                "total": "1",
                "hash": "A1591A68308C696BFF845D9738BC9F9EADADFA57"
              }
            },
            "signature": {
              "type": "tendermint/SignatureEd25519",
              "value": "RtzN3b1ogO2cPjfdUw4lB2MMnCi3lrQVcf9VrrrNNErILYGPiX8X6bB46KxxA6tKhFMs6/sfO8lQXCK9py8rBw=="
            }
          },
          {
            "validator_address": "E3B19738F7132F950668504D326C7660F159D170",
            "validator_index": "87",
            "height": "18918",
            "round": "0",
            "timestamp": "2018-07-31T13:13:46.848334734Z",
            "type": 2,
            "block_id": {
              "hash": "7D05741B45DADD44B26DA45C3C2D10DED6F389BE",
              "parts": {
                "total": "1",
                "hash": "A1591A68308C696BFF845D9738BC9F9EADADFA57"
              }
            },
            "signature": {
              "type": "tendermint/SignatureEd25519",
              "value": "00oT+/oKEUL+X8POQmKfwyztZAmYcK5bM16M/vdNxwK9ls+KXuNATUAIViI082WK+SDfB5zr1+TzMB9QkcfhBw=="
            }
          },
          {
            "validator_address": "E42F8AEABB685219F7027F54D2B0DBC7846F633A",
            "validator_index": "88",
            "height": "18918",
            "round": "0",
            "timestamp": "2018-07-31T13:13:46.107674077Z",
            "type": 2,
            "block_id": {
              "hash": "7D05741B45DADD44B26DA45C3C2D10DED6F389BE",
              "parts": {
                "total": "1",
                "hash": "A1591A68308C696BFF845D9738BC9F9EADADFA57"
              }
            },
            "signature": {
              "type": "tendermint/SignatureEd25519",
              "value": "+EDhLqnqpOAuVn9BiM6KfejHMqwmmagbtb3NPhNKAZBnLOmK9B5TxVDcqLuQwDf3F8UE9Z19242hjdhN/QL2Aw=="
            }
          },
          {
            "validator_address": "E4E6C2E81269DFFA196C17F98240E491479A6008",
            "validator_index": "89",
            "height": "18918",
            "round": "0",
            "timestamp": "2018-07-31T13:13:46.935983318Z",
            "type": 2,
            "block_id": {
              "hash": "7D05741B45DADD44B26DA45C3C2D10DED6F389BE",
              "parts": {
                "total": "1",
                "hash": "A1591A68308C696BFF845D9738BC9F9EADADFA57"
              }
            },
            "signature": {
              "type": "tendermint/SignatureEd25519",
              "value": "6G/1k2bQHjbaQfh81jwoqcRB+MUzEoHoUvrlVbAijz3pEdv+0h9isf/5786qYL0I+QOoJGBKRqbcojfUkmqGDQ=="
            }
          },
          {
            "validator_address": "E6A7079D584B163750BE0831227F6B685DEAF3C1",
            "validator_index": "90",
            "height": "18918",
            "round": "0",
            "timestamp": "2018-07-31T13:13:46.988718119Z",
            "type": 2,
            "block_id": {
              "hash": "7D05741B45DADD44B26DA45C3C2D10DED6F389BE",
              "parts": {
                "total": "1",
                "hash": "A1591A68308C696BFF845D9738BC9F9EADADFA57"
              }
            },
            "signature": {
              "type": "tendermint/SignatureEd25519",
              "value": "CcAgCCNFuTJdAaUygj7EwFX8ansoIrytl5VjCFrxyfl1HrYC12jYCMMoFjCQtjGOLSCJkEIuOAEAZ2rivMa1BQ=="
            }
          },
          {
            "validator_address": "E7A30077D5D11867D3EAF99ED45BFDC1EB834509",
            "validator_index": "91",
            "height": "18918",
            "round": "0",
            "timestamp": "2018-07-31T13:13:46.815015431Z",
            "type": 2,
            "block_id": {
              "hash": "7D05741B45DADD44B26DA45C3C2D10DED6F389BE",
              "parts": {
                "total": "1",
                "hash": "A1591A68308C696BFF845D9738BC9F9EADADFA57"
              }
            },
            "signature": {
              "type": "tendermint/SignatureEd25519",
              "value": "HRqAHrlXd0CWuCyHcyWkuzjaPYV67XH6l1bcS6jGtpX9K3jVm73k/+LQZv/oo6Xg2PXM+7sNrs5wDx/WLIlmAA=="
            }
          },
          {
            "validator_address": "EBC613967F66F4EC306852CDF58B4F151CF16738",
            "validator_index": "92",
            "height": "18918",
            "round": "0",
            "timestamp": "2018-07-31T13:13:47.004708627Z",
            "type": 2,
            "block_id": {
              "hash": "7D05741B45DADD44B26DA45C3C2D10DED6F389BE",
              "parts": {
                "total": "1",
                "hash": "A1591A68308C696BFF845D9738BC9F9EADADFA57"
              }
            },
            "signature": {
              "type": "tendermint/SignatureEd25519",
              "value": "xspPHl+27iepFE75lvDLDbj1SgDPqPSZPYojUt+yd20NtAVkecFL+YQJXUr1FbowElI2/MAakBD8p3QCs5tdCg=="
            }
          },
          {
            "validator_address": "EC3401441726C40ECC7E51F744483B05BC6DE9BD",
            "validator_index": "93",
            "height": "18918",
            "round": "0",
            "timestamp": "2018-07-31T13:13:46.939275891Z",
            "type": 2,
            "block_id": {
              "hash": "7D05741B45DADD44B26DA45C3C2D10DED6F389BE",
              "parts": {
                "total": "1",
                "hash": "A1591A68308C696BFF845D9738BC9F9EADADFA57"
              }
            },
            "signature": {
              "type": "tendermint/SignatureEd25519",
              "value": "U4wmbpCTee1KBO3LptmC9U/MEZOZBuzxPKfYF9z0sEsBT79BDnHzOSJzGpe2aKM6okKCI6N3LIWW4ihkRyWcAg=="
            }
          },
          {
            "validator_address": "EC95B111D032181E1EC3B5E8875C5BB8E4AE7140",
            "validator_index": "94",
            "height": "18918",
            "round": "0",
            "timestamp": "2018-07-31T13:13:46.795873252Z",
            "type": 2,
            "block_id": {
              "hash": "7D05741B45DADD44B26DA45C3C2D10DED6F389BE",
              "parts": {
                "total": "1",
                "hash": "A1591A68308C696BFF845D9738BC9F9EADADFA57"
              }
            },
            "signature": {
              "type": "tendermint/SignatureEd25519",
              "value": "fWrAUEikUK+d0ODz8EymKttwf+ctNyh5XERCBi4Ui0mLgW5t+8xZuKo1/uKSc/nU4w22mwxAHcqOjd257nFOBw=="
            }
          },
          {
            "validator_address": "F13C1805E8131C9B47E2A46818F57D8A2841E578",
            "validator_index": "95",
            "height": "18918",
            "round": "0",
            "timestamp": "2018-07-31T13:13:46.924441877Z",
            "type": 2,
            "block_id": {
              "hash": "7D05741B45DADD44B26DA45C3C2D10DED6F389BE",
              "parts": {
                "total": "1",
                "hash": "A1591A68308C696BFF845D9738BC9F9EADADFA57"
              }
            },
            "signature": {
              "type": "tendermint/SignatureEd25519",
              "value": "+LqPYOXqlSiLLORZ1951n6VzLifyDHw7uTrX5ZJ/sn+UWjcd77L93EMmjKT9obDxotBvpj9j/aPUbeFmzHbAAQ=="
            }
          },
          {
            "validator_address": "F23FF36BD5B90C33CE3A03ED72DBDCF5EC07D6AF",
            "validator_index": "96",
            "height": "18918",
            "round": "0",
            "timestamp": "2018-07-31T13:13:46.920368529Z",
            "type": 2,
            "block_id": {
              "hash": "7D05741B45DADD44B26DA45C3C2D10DED6F389BE",
              "parts": {
                "total": "1",
                "hash": "A1591A68308C696BFF845D9738BC9F9EADADFA57"
              }
            },
            "signature": {
              "type": "tendermint/SignatureEd25519",
              "value": "PodEMf95UdCokxiqw7cmQG2XS5c5x99ERrrycYFOaRHR/1nQOoqWB3sugo3zxJY//Iq6ZJaB+XqYzuHXE9tMDQ=="
            }
          },
          {
            "validator_address": "F4268597DE93E3E2CED38845010F8AA34E2A879E",
            "validator_index": "97",
            "height": "18918",
            "round": "0",
            "timestamp": "2018-07-31T13:13:46.891472701Z",
            "type": 2,
            "block_id": {
              "hash": "7D05741B45DADD44B26DA45C3C2D10DED6F389BE",
              "parts": {
                "total": "1",
                "hash": "A1591A68308C696BFF845D9738BC9F9EADADFA57"
              }
            },
            "signature": {
              "type": "tendermint/SignatureEd25519",
              "value": "xLxC/lupJHAMgHcXwtgpFrLu8hjZBM0SKLYUlwxjO1C1ed28vgv+OXJiDp/g5fDLXZRSvNVuARNBtdYrtZOpDg=="
            }
          },
          {
            "validator_address": "F4DEB417999B04BE2EFF9FFE03FA373D86011CC0",
            "validator_index": "98",
            "height": "18918",
            "round": "0",
            "timestamp": "2018-07-31T13:13:46.875034308Z",
            "type": 2,
            "block_id": {
              "hash": "7D05741B45DADD44B26DA45C3C2D10DED6F389BE",
              "parts": {
                "total": "1",
                "hash": "A1591A68308C696BFF845D9738BC9F9EADADFA57"
              }
            },
            "signature": {
              "type": "tendermint/SignatureEd25519",
              "value": "fhYpT5zTi66Ta6nRwqEe/qTgtH8Zt2jKrrkEIS8PANk1DQFo/E8TDslHC/lKrUCjk2bhmxlVzficmmGrXot4Dg=="
            }
          },
          {
            "validator_address": "F6738260186D33D9C14FC6E7017AFE6BB952A63D",
            "validator_index": "99",
            "height": "18918",
            "round": "0",
            "timestamp": "2018-07-31T13:13:46.896548605Z",
            "type": 2,
            "block_id": {
              "hash": "7D05741B45DADD44B26DA45C3C2D10DED6F389BE",
              "parts": {
                "total": "1",
                "hash": "A1591A68308C696BFF845D9738BC9F9EADADFA57"
              }
            },
            "signature": {
              "type": "tendermint/SignatureEd25519",
              "value": "3cxSkmSPAwvLeKt+vOJY79etZQwVocrdadEs60NXrk1UEPsiUMITy3akOFvKSPxtpYEoedQajW8d/Mc8wTBSAA=="
            }
          },
          null,
          {
            "validator_address": "FF3F3FCBCE7E62D7AD5506FF846EC4518D980515",
            "validator_index": "101",
            "height": "18918",
            "round": "0",
            "timestamp": "2018-07-31T13:13:46.838502186Z",
            "type": 2,
            "block_id": {
              "hash": "7D05741B45DADD44B26DA45C3C2D10DED6F389BE",
              "parts": {
                "total": "1",
                "hash": "A1591A68308C696BFF845D9738BC9F9EADADFA57"
              }
            },
            "signature": {
              "type": "tendermint/SignatureEd25519",
              "value": "RlmbaqZyPtFO6NUbemlr/8qqoGu0Y+9VCo7j+2sudQAWXt23PXNLb+nugfENkR8GO3q/bMzH5Rp5m3EXTtXOBg=="
            }
          }
        ]
      }
    },
    "canonical": true
  }
}