{
  "jsonrpc": "2.0",
  "id": "",
  "result": {
    "SignedHeader": {
      "header": {
        "chain_id": "gaia-7004",
        "height": "19013",
        "time": "2018-07-31T13:23:14.38642349Z",
        "num_txs": "0",
        "last_block_id": {
          "hash": "D745C882E0C72644882053574E85C288B58A8A36",
          "parts": {
            "total": "1",
            "hash": "A8D576BD477D4DEBE3CE13974C6434FD0486FD46"
          }
        },
        "total_txs": "591",
        "last_commit_hash": "3B0B469C538B1CB0580BECFF105CB41BAD1049F4",
        "data_hash": "",
        "validators_hash": "17811E775026D9E0F0335040020E6527325C73FC",
        "consensus_hash": "D6B74BB35BDFFD8392340F2A379173548AE188FE",
        "app_hash": "9E6469985A41FBABD71E1E2B832CF077B5731CB5",
        "last_results_hash": "",
        "evidence_hash": ""
      },
      "commit": {
        "block_id": {
          "hash": "DE05B72148153DBDCB470A2BC736B1C463122C55",
          "parts": {
            "total": "1",
            "hash": "E11FE4A90070D2F6D7A881074BA533F7400485FB"
          }
        },
        "precommits": [
          {
            "validator_address": "029359C0C768096273A68ABC902A6B17AC8D1D70",
            "validator_index": "0",
            "height": "19013",
            "round": "0",
            "timestamp": "2018-07-31T13:23:15.297163555Z",
            "type": 2,
            "block_id": {
              "hash": "DE05B72148153DBDCB470A2BC736B1C463122C55",
              "parts": {
                "total": "1",
                "hash": "E11FE4A90070D2F6D7A881074BA533F7400485FB"
              }
            },
            "signature": {
              "type": "tendermint/SignatureEd25519",
              "value": "eQ6TY2WUxy8t+eYNl9HljWP17lV7Uk+AJM8KGGFM3StqG8V+YYHD3VlhWInnZVDglxoZeB5zO3eS5nQdMXEJDA=="
            }
          },
          {
            "validator_address": "02FE4B97A8387F39D1AC19E0C1702B3CC614812F",
            "validator_index": "1",
            "height": "19013",
            "round": "0",
            "timestamp": "2018-07-31T13:23:15.264166422Z",
            "type": 2,
            "block_id": {
              "hash": "DE05B72148153DBDCB470A2BC736B1C463122C55",
              "parts": {
                "total": "1",
                "hash": "E11FE4A90070D2F6D7A881074BA533F7400485FB"
              }
            },
            "signature": {
              "type": "tendermint/SignatureEd25519",
              "value": "m1iljX9aWYh+Re9f9QqbPbETlLJ0ZnLj3ZP+QG0tPuMljTwCErPPUSgIkY58/4SUB1NDG4aDtQdhJ8nuF87oDw=="
            }
          },
          {
            "validator_address": "0548261C50222FD710EB5EBDF03A0E6567B21D20",
            "validator_index": "2",
            "height": "19013",
            "round": "0",
            "timestamp": "2018-07-31T13:23:15.297962468Z",
            "type": 2,
            "block_id": {
              "hash": "DE05B72148153DBDCB470A2BC736B1C463122C55",
              "parts": {
                "total": "1",
                "hash": "E11FE4A90070D2F6D7A881074BA533F7400485FB"
              }
            },
            "signature": {
              "type": "tendermint/SignatureEd25519",
              "value": "EepM6MDSNLT+nxcApOaXFjJSS9rZu1Iw7zKYtoYJnVVKhDi5PV3rZ65F0lPDbpTeCTL96iD9e3fjcU6Z5fpVBA=="
            }
          },
          {
            "validator_address": "09145E611CC27EEB944FC5A956DDF710F943B9EF",
            "validator_index": "3",
            "height": "19013",
            "round": "0",
            "timestamp": "2018-07-31T13:23:15.302050932Z",
            "type": 2,
            "block_id": {
              "hash": "DE05B72148153DBDCB470A2BC736B1C463122C55",
              "parts": {
                "total": "1",
                "hash": "E11FE4A90070D2F6D7A881074BA533F7400485FB"
              }
            },
            "signature": {
              "type": "tendermint/SignatureEd25519",
              "value": "mFCb/BxbquStHVyqznUOIqESfwiU8/Z+ypYffRRyrzeLExYRLvSP97EIJ5hcqcWpkOr+/h1yVAYZK0+jzP75Bw=="
            }
          },
          {
            "validator_address": "0989D0355A104B67AE0AE028C68FB610690E174B",
            "validator_index": "4",
            "height": "19013",
            "round": "0",
            "timestamp": "2018-07-31T13:23:15.252797875Z",
            "type": 2,
            "block_id": {
              "hash": "DE05B72148153DBDCB470A2BC736B1C463122C55",
              "parts": {
                "total": "1",
                "hash": "E11FE4A90070D2F6D7A881074BA533F7400485FB"
              }
            },
            "signature": {
              "type": "tendermint/SignatureEd25519",
              "value": "pf1k6wcqBLN5StKnbJ9ZhjgO+jaSHxB2t7tctZYzoFMZYqRPr41efy88jqzPRjORsc4KIef7FmlqJYEWKQCBDQ=="
            }
          },
          {
            "validator_address": "0A692DBFFE9E5DD28E7DECC33CED1AEB4C0D014E",
            "validator_index": "5",
            "height": "19013",
            "round": "0",
            "timestamp": "2018-07-31T13:23:15.305340206Z",
            "type": 2,
            "block_id": {
              "hash": "DE05B72148153DBDCB470A2BC736B1C463122C55",
              "parts": {
                "total": "1",
                "hash": "E11FE4A90070D2F6D7A881074BA533F7400485FB"
              }
            },
            "signature": {
              "type": "tendermint/SignatureEd25519",
              "value": "rgTuzHThjx7UJbZ/SVIMGJC6e/1sMjgn6kBX3jHStnbKqdpx8bXM6zkgPK+woDBPaDyzF85kqquG5PC9mS2zBQ=="
            }
          },
          {
            "validator_address": "0DDF97111D73DB825138EC15EC27DE5FE8536901",
            "validator_index": "6",
            "height": "19013",
            "round": "0",
            "timestamp": "2018-07-31T13:23:15.278934346Z",
            "type": 2,
            "block_id": {
              "hash": "DE05B72148153DBDCB470A2BC736B1C463122C55",
              "parts": {
                "total": "1",
                "hash": "E11FE4A90070D2F6D7A881074BA533F7400485FB"
              }
            },
            "signature": {
              "type": "tendermint/SignatureEd25519",
              "value": "jQas+vX6CVJxdqTrfC+AKqGIzyEXDQulOvH9Vo2nmiA5k7VzyOi+3Az4vr/ZnuZDgNr+DTC2DrHtSwT23klADw=="
            }
          },
          {
            "validator_address": "1751786EFC085D5331C61168FFFC8202EA151B4E",
            "validator_index": "7",
            "height": "19013",
            "round": "0",
            "timestamp": "2018-07-31T13:23:14.854965919Z",
            "type": 2,
            "block_id": {
              "hash": "DE05B72148153DBDCB470A2BC736B1C463122C55",
              "parts": {
                "total": "1",
                "hash": "E11FE4A90070D2F6D7A881074BA533F7400485FB"
              }
            },
            "signature": {
              "type": "tendermint/SignatureEd25519",
              "value": "Ld4Qvhg2T6pvDCz6xsBJbZZhUBnSJtF7ljvfCNidyg+mDugn69watx9/E0SH2wXDV3e8W1BML8Fb0hC78VtmBQ=="
            }
          },
          {
            "validator_address": "17BB5CD01E8940FAFB948A04D5FA5A0645E5822E",
            "validator_index": "8",
            "height": "19013",
            "round": "0",
            "timestamp": "2018-07-31T13:23:15.267799218Z",
            "type": 2,
            "block_id": {
              "hash": "DE05B72148153DBDCB470A2BC736B1C463122C55",
              "parts": {
                "total": "1",
                "hash": "E11FE4A90070D2F6D7A881074BA533F7400485FB"
              }
            },
            "signature": {
              "type": "tendermint/SignatureEd25519",
              "value": "+0GrUzB88xWMrmnmSs4ZpQb15a18Nqy82O4dABzhnrrwvO88Y84xyIWfaPkrYMJLyZBol8LfbWhd67DxWQ28CA=="
            }
          },
          {
            "validator_address": "1C683A87904BC38F05004FE83301A3A3E35447EB",
            "validator_index": "9",
            "height": "19013",
            "round": "0",
            "timestamp": "2018-07-31T13:23:15.259006147Z",
            "type": 2,
            "block_id": {
              "hash": "DE05B72148153DBDCB470A2BC736B1C463122C55",
              "parts": {
                "total": "1",
                "hash": "E11FE4A90070D2F6D7A881074BA533F7400485FB"
              }
            },
            "signature": {
              "type": "tendermint/SignatureEd25519",
              "value": "JuPCOOWEiLwfFU6cZVhKV50JS2bNesShbBvK3Dz97jqIspRZkWIRLvrX0J5D4nL2mj5ttiIqM5kDEDKfp7p9CA=="
            }
          },
          {
            "validator_address": "1E9CE94FD0BA5CFEB901F90BC658D64D85B134D2",
            "validator_index": "10",
            "height": "19013",
            "round": "0",
            "timestamp": "2018-07-31T13:23:15.244071966Z",
            "type": 2,
            "block_id": {
              "hash": "DE05B72148153DBDCB470A2BC736B1C463122C55",
              "parts": {
                "total": "1",
                "hash": "E11FE4A90070D2F6D7A881074BA533F7400485FB"
              }
            },
            "signature": {
              "type": "tendermint/SignatureEd25519",
              "value": "sZlW2KdxAEvcupp//lSyFy9Q5UXO/Pz/D+5KeG68WXUubolpa7u4LTThBIleFLfgFk/MgDjxWhtBaLHF37H1Dw=="
            }
          },
          {
            "validator_address": "1ECD8C5FE1341D74CDC633A245DD56858DE2F9A2",
            "validator_index": "11",
            "height": "19013",
            "round": "0",
            "timestamp": "2018-07-31T13:23:15.375749904Z",
            "type": 2,
            "block_id": {
              "hash": "DE05B72148153DBDCB470A2BC736B1C463122C55",
              "parts": {
                "total": "1",
                "hash": "E11FE4A90070D2F6D7A881074BA533F7400485FB"
              }
            },
            "signature": {
              "type": "tendermint/SignatureEd25519",
              "value": "7rec6ov5fjHVJbpBjY5pNDbKceHQDu7tBTimclLSFqoNuxIg/gqJ5ldTPZbZ5/AFMv/OmCBiTT2HfD6+X6+BCg=="
            }
          },
          {
            "validator_address": "1F3A68CAAD483768AA2BF667DEF10F7104C89928",
            "validator_index": "12",
            "height": "19013",
            "round": "0",
            "timestamp": "2018-07-31T13:23:15.253509946Z",
            "type": 2,
            "block_id": {
              "hash": "DE05B72148153DBDCB470A2BC736B1C463122C55",
              "parts": {
                "total": "1",
                "hash": "E11FE4A90070D2F6D7A881074BA533F7400485FB"
              }
            },
            "signature": {
              "type": "tendermint/SignatureEd25519",
              "value": "lHUMRerO6beraFBbtvFmjDO4lQ2tLpcfZn1GMszeoS4kRF/Ak/4z/YdHBNhDs+wkBqUW2zkgWgXgeaxT+4Z7Cw=="
            }
          },
          {
            "validator_address": "23897586D68E2AC1C78E0EF5BB5DF5C8EAB18F50",
            "validator_index": "13",
            "height": "19013",
            "round": "0",
            "timestamp": "2018-07-31T13:23:15.355885953Z",
            "type": 2,
            "block_id": {
              "hash": "DE05B72148153DBDCB470A2BC736B1C463122C55",
              "parts": {
                "total": "1",
                "hash": "E11FE4A90070D2F6D7A881074BA533F7400485FB"
              }
            },
            "signature": {
              "type": "tendermint/SignatureEd25519",
              "value": "riOHLeTJOKqY1PtL9TAn/8pe0csmbyQBvgynmG7nYBzug6KoPDrQJE/LwVznNUCRYn9TEToHd4dkyVfVg1wdCw=="
            }
          },
          {
            "validator_address": "28770D17E8530825E7310A0659308654B7EC9682",
            "validator_index": "14",
            "height": "19013",
            "round": "0",
            "timestamp": "2018-07-31T13:23:15.264940107Z",
            "type": 2,
            "block_id": {
              "hash": "DE05B72148153DBDCB470A2BC736B1C463122C55",
              "parts": {
                "total": "1",
                "hash": "E11FE4A90070D2F6D7A881074BA533F7400485FB"
              }
            },
            "signature": {
              "type": "tendermint/SignatureEd25519",
              "value": "qcVSADVhvqh/5AI+kSM2vVydDljkbqVtsTpGhASof641kpV1JJMm+fYJoMZegCLDEtldlcdsbz+2g/7mYXfIDA=="
            }
          },
          {
            "validator_address": "2A92EC3C642140202298D0E245095E0ECFC25228",
            "validator_index": "15",
            "height": "19013",
            "round": "0",
            "timestamp": "2018-07-31T13:23:15.325639532Z",
            "type": 2,
            "block_id": {
              "hash": "DE05B72148153DBDCB470A2BC736B1C463122C55",
              "parts": {
                "total": "1",
                "hash": "E11FE4A90070D2F6D7A881074BA533F7400485FB"
              }
            },
            "signature": {
              "type": "tendermint/SignatureEd25519",
              "value": "zbSjluVwIIxEvRMr1G6e4Klv8jSKFyP54rEhwijEgIqnxtOfOdZb5gcf1ekwno56AW6demJ9TwrOW7MPpLbiBA=="
            }
          },
          {
            "validator_address": "33412C9A69C60CB0FAA24A5C5B3A906DE24B47C2",
            "validator_index": "16",
            "height": "19013",
            "round": "0",
            "timestamp": "2018-07-31T13:23:15.266054443Z",
            "type": 2,
            "block_id": {
              "hash": "DE05B72148153DBDCB470A2BC736B1C463122C55",
              "parts": {
                "total": "1",
                "hash": "E11FE4A90070D2F6D7A881074BA533F7400485FB"
              }
            },
            "signature": {
              "type": "tendermint/SignatureEd25519",
              "value": "ejmqUpec+2OM1ooli4psXokmkCxld4uemQXtVJqarpo3c29sVgizJJwuy39BtnrKemHIf8kaC8sF4Wkk38NsBQ=="
            }
          },
          {
            "validator_address": "3383EF2A13B160C41947AC30434B274B2FAF0617",
            "validator_index": "17",
            "height": "19013",
            "round": "0",
            "timestamp": "2018-07-31T13:23:15.300201794Z",
            "type": 2,
            "block_id": {
              "hash": "DE05B72148153DBDCB470A2BC736B1C463122C55",
              "parts": {
                "total": "1",
                "hash": "E11FE4A90070D2F6D7A881074BA533F7400485FB"
              }
            },
            "signature": {
              "type": "tendermint/SignatureEd25519",
              "value": "aheUgacqr7ezGcYEtNoib90WLTVw5djJ0hWHIoOARt+12wVl0Wd09vobeRGO56o3wqfNRsim4nIfqRRafGcWDw=="
            }
          },
          {
            "validator_address": "36E9B7FAEC964F97D84C028ED62493E373AD0B38",
            "validator_index": "18",
            "height": "19013",
            "round": "0",
            "timestamp": "2018-07-31T13:23:15.376663269Z",
            "type": 2,
            "block_id": {
              "hash": "DE05B72148153DBDCB470A2BC736B1C463122C55",
              "parts": {
                "total": "1",
                "hash": "E11FE4A90070D2F6D7A881074BA533F7400485FB"
              }
            },
            "signature": {
              "type": "tendermint/SignatureEd25519",
              "value": "C1omsKlP7zNLyUav92TYYoUQnnycVHZ5EztCQcXZM7rf1GHp3gmEPbSBgNpD8k0JabOp18DGh0rrotXHJuzCDw=="
            }
          },
          {
            "validator_address": "38A8D85D36BEA2E5FCF8A1E778F53628E450EF13",
            "validator_index": "19",
            "height": "19013",
            "round": "0",
            "timestamp": "2018-07-31T13:23:15.468621805Z",
            "type": 2,
            "block_id": {
              "hash": "DE05B72148153DBDCB470A2BC736B1C463122C55",
              "parts": {
                "total": "1",
                "hash": "E11FE4A90070D2F6D7A881074BA533F7400485FB"
              }
            },
            "signature": {
              "type": "tendermint/SignatureEd25519",
              "value": "2FAq1+04py/DlqkzfifpbRf7RCZNpraUK0B8xvCvn1T/NCWYPFHk8bRSHT7pIH5ynypBwwJgIIRANf5sHn3EBQ=="
            }
          },
          {
            "validator_address": "39DFDA0C5DB84B269642188B23253508537798E6",
            "validator_index": "20",
            "height": "19013",
            "round": "0",
            "timestamp": "2018-07-31T13:23:15.2533806Z",
            "type": 2,
            "block_id": {
              "hash": "DE05B72148153DBDCB470A2BC736B1C463122C55",
              "parts": {
                "total": "1",
                "hash": "E11FE4A90070D2F6D7A881074BA533F7400485FB"
              }
            },
            "signature": {
              "type": "tendermint/SignatureEd25519",
              "value": "GAv3jxTQng0JHiOsRJHhNIInyDQLpWDoOEUIHEhO8N+3HMf4GfTwl4wHMWhE3lcc9xCi1waovJg1l+B2rFz7BA=="
            }
          },
          {
            "validator_address": "3AC99B708404452366E0953A4BE849226DC86CBC",
            "validator_index": "21",
            "height": "19013",
            "round": "0",
            "timestamp": "2018-07-31T13:23:15.296315409Z",
            "type": 2,
            "block_id": {
              "hash": "DE05B72148153DBDCB470A2BC736B1C463122C55",
              "parts": {
                "total": "1",
                "hash": "E11FE4A90070D2F6D7A881074BA533F7400485FB"
              }
            },
            "signature": {
              "type": "tendermint/SignatureEd25519",
              "value": "a3s/JBE4WRQqzauWV0JBPoiNaEDyQVmRndR7UN7t5JW4zeS3g/F5NmBgR3rL0QPic7ccUkcvVR9LGBoz8Bv0Aw=="
            }
          },
          {
            "validator_address": "3DCB822A10ED319EC7C4393D8E3FD4A41B15AAF2",
            "validator_index": "22",
            "height": "19013",
            "round": "0",
            "timestamp": "2018-07-31T13:23:15.241635973Z",
            "type": 2,
            "block_id": {
              "hash": "DE05B72148153DBDCB470A2BC736B1C463122C55",
              "parts": {
                "total": "1",
                "hash": "E11FE4A90070D2F6D7A881074BA533F7400485FB"
              }
            },
            "signature": {
              "type": "tendermint/SignatureEd25519",
              "value": "1uIu48hbBHza5XaKjuL6Efkislmuy6UA42FVE6U69dql7r3MyZ1PKZFY0sybzTTdW0Y0/xQl3lkgzBHxwwloBA=="
            }
          },
          {
            "validator_address": "3E899BA36A93C7370347BD5FE85909F2ECD93F8C",
            "validator_index": "23",
            "height": "19013",
            "round": "0",
            "timestamp": "2018-07-31T13:23:15.309605116Z",
            "type": 2,
            "block_id": {
              "hash": "DE05B72148153DBDCB470A2BC736B1C463122C55",
              "parts": {
                "total": "1",
                "hash": "E11FE4A90070D2F6D7A881074BA533F7400485FB"
              }
            },
            "signature": {
              "type": "tendermint/SignatureEd25519",
              "value": "FkLuiefOF7JPWHpidbKljwqKIj1tKqs3PRx5R3NgTQx75eNry8Ub/LG/vTclwlFRa7etdFdsmGOT34ioD0TMDw=="
            }
          },
          {
            "validator_address": "41CAB2E29E7D0F2282E3275938F188FF9386B84C",
            "validator_index": "24",
            "height": "19013",
            "round": "0",
            "timestamp": "2018-07-31T13:23:15.308723667Z",
            "type": 2,
            "block_id": {
              "hash": "DE05B72148153DBDCB470A2BC736B1C463122C55",
              "parts": {
                "total": "1",
                "hash": "E11FE4A90070D2F6D7A881074BA533F7400485FB"
              }
            },
            "signature": {
              "type": "tendermint/SignatureEd25519",
              "value": "Oi3Iq1pUBBrLXQcArbrExOhKoYC2AvXbXnwC776S9pcPNjs3qSgyLt5DhIR1W3Lbevl60/qZ9A0JZtv6ekjFDw=="
            }
          },
          {
            "validator_address": "462B656869DB02A8FD1077E255F8CC7401DC37C6",
            "validator_index": "25",
            "height": "19013",
            "round": "0",
            "timestamp": "2018-07-31T13:23:15.239779106Z",
            "type": 2,
            "block_id": {
              "hash": "DE05B72148153DBDCB470A2BC736B1C463122C55",
              "parts": {
                "total": "1",
                "hash": "E11FE4A90070D2F6D7A881074BA533F7400485FB"
              }
            },
            "signature": {
              "type": "tendermint/SignatureEd25519",
              "value": "U/QCf2D4TtSOctXCrPKPBwBHl7K+J2mjj7d9LiDLoN5dfQKL8FbxirJv9hPPu/c/81I9G3xmcsojlPVCw4pCDQ=="
            }
          },
          {
            "validator_address": "48E5118163E5442068A1B5A42D2EEDBB75724935",
            "validator_index": "26",
            "height": "19013",
            "round": "0",
            "timestamp": "2018-07-31T13:23:15.439082093Z",
            "type": 2,
            "block_id": {
              "hash": "DE05B72148153DBDCB470A2BC736B1C463122C55",
              "parts": {
                "total": "1",
                "hash": "E11FE4A90070D2F6D7A881074BA533F7400485FB"
              }
            },
            "signature": {
              "type": "tendermint/SignatureEd25519",
              "value": "COxqwTj0ero/SlIB7jJLwBjHUqjd7HtY4yhPDtwHMGyfWpzXSos/axlQLIKbKFaT29Nyrd4XvELOdtgCP0vPAA=="
            }
          },
          {
            "validator_address": "4944F8BBBB5303E17BC0607DF332320EDBC750EA",
            "validator_index": "27",
            "height": "19013",
            "round": "0",
            "timestamp": "2018-07-31T13:23:15.233237758Z",
            "type": 2,
            "block_id": {
              "hash": "DE05B72148153DBDCB470A2BC736B1C463122C55",
              "parts": {
                "total": "1",
                "hash": "E11FE4A90070D2F6D7A881074BA533F7400485FB"
              }
            },
            "signature": {
              "type": "tendermint/SignatureEd25519",
              "value": "5trFGzNmow4JqbAV0db/DMTZXyS/t8Eor0MebbLK28F4DBTehVsO3ifx/95DTK+mX3n6SSaMG8hSbNp11oM1Aw=="
            }
          },
          {
            "validator_address": "49841599DE675157CBE1E7D6B35BF8FFC23BD5CB",
            "validator_index": "28",
            "height": "19013",
            "round": "0",
            "timestamp": "2018-07-31T13:23:15.23344634Z",
            "type": 2,
            "block_id": {
              "hash": "DE05B72148153DBDCB470A2BC736B1C463122C55",
              "parts": {
                "total": "1",
                "hash": "E11FE4A90070D2F6D7A881074BA533F7400485FB"
              }
            },
            "signature": {
              "type": "tendermint/SignatureEd25519",
              "value": "cmf5AZnsvFaUbn+R34xKBvPGldKwiZrPPk7bYOidBjsrCoAqIMh4CWNw5iEXYZGeR2soamhtF6z09ksDRTfkCw=="
            }
          },
          {
            "validator_address": "5104F488EA6B1E2C33CBDA3C18389C88104DBC72",
            "validator_index": "29",
            "height": "19013",
            "round": "0",
            "timestamp": "2018-07-31T13:23:15.274785308Z",
            "type": 2,
            "block_id": {
              "hash": "DE05B72148153DBDCB470A2BC736B1C463122C55",
              "parts": {
                "total": "1",
                "hash": "E11FE4A90070D2F6D7A881074BA533F7400485FB"
              }
            },
            "signature": {
              "type": "tendermint/SignatureEd25519",
              "value": "mhGLLQgnHxmY1b4e76O5tS1CL/cQnmRICS07Sxff4w/9NIBsvE1D1BjP4yh6xsCCF68rRPA+4CRW8sLhmA1XCA=="
            }
          },
          {
            "validator_address": "51386C2CF9556821D114D7E4945806802BADB28D",
            "validator_index": "30",
            "height": "19013",
            "round": "0",
            "timestamp": "2018-07-31T13:23:15.302659701Z",
            "type": 2,
            "block_id": {
              "hash": "DE05B72148153DBDCB470A2BC736B1C463122C55",
              "parts": {
                "total": "1",
                "hash": "E11FE4A90070D2F6D7A881074BA533F7400485FB"
              }
            },
            "signature": {
              "type": "tendermint/SignatureEd25519",
              "value": "9yaKr24LdZFZEO3W95ZByPDB5DMUPn6q1C5x8i+JW+ge3xdzt8B0aXw9ibmnjP9gt557PqbQUgTRmwcF4qjRCA=="
            }
          },
          {
            "validator_address": "543564ECA3AFEFADC73EE8591AAC3A96F079BC8A",
            "validator_index": "31",
            "height": "19013",
            "round": "0",
            "timestamp": "2018-07-31T13:23:15.294307151Z",
            "type": 2,
            "block_id": {
              "hash": "DE05B72148153DBDCB470A2BC736B1C463122C55",
              "parts": {
                "total": "1",
                "hash": "E11FE4A90070D2F6D7A881074BA533F7400485FB"
              }
            },
            "signature": {
              "type": "tendermint/SignatureEd25519",
              "value": "+jrPsypSV84Uqa0bEgaOYPJXrgkHjJkYMnUBpv05LmpxCNcnDAaeyBGQUCTwszWlwyK1Ae0k4WvLwkCOd3WmAQ=="
            }
          },
          {
            "validator_address": "55D67B1A6DC13E96F8754A5A42EABC20F7F86664",
            "validator_index": "32",
            "height": "19013",
            "round": "0",
            "timestamp": "2018-07-31T13:23:15.261077715Z",
            "type": 2,
            "block_id": {
              "hash": "DE05B72148153DBDCB470A2BC736B1C463122C55",
              "parts": {
                "total": "1",
                "hash": "E11FE4A90070D2F6D7A881074BA533F7400485FB"
              }
            },
            "signature": {
              "type": "tendermint/SignatureEd25519",
              "value": "slvwCRC4nM0tt4biv8uQ+05AG35U41WDDLqTf7Oubx8Mw6UwvY+N9CsKvg9kde7sx6apFB0x6Z+1yv9eSDrPBg=="
            }
          },
          {
            "validator_address": "570B6A755ED339EAC56BB3390A48069F6AC9449B",
            "validator_index": "33",
            "height": "19013",
            "round": "0",
            "timestamp": "2018-07-31T13:23:18.666430337Z",
            "type": 2,
            "block_id": {
              "hash": "DE05B72148153DBDCB470A2BC736B1C463122C55",
              "parts": {
                "total": "1",
                "hash": "E11FE4A90070D2F6D7A881074BA533F7400485FB"
              }
            },
            "signature": {
              "type": "tendermint/SignatureEd25519",
              "value": "Ugg4GPyCuJDFYYYuRbxpSN1I6mRU2YqVS3+l7Yfr1r0VNawFDtsANKLrgUEL7p5n/Dk0xFlAMbhrr6ldQBZpAQ=="
            }
          },
          {
            "validator_address": "5BDF8EA41B1835FBAD865B181A2A4B23F511B5E4",
            "validator_index": "34",
            "height": "19013",
            "round": "0",
            "timestamp": "2018-07-31T13:23:15.234396787Z",
            "type": 2,
            "block_id": {
              "hash": "DE05B72148153DBDCB470A2BC736B1C463122C55",
              "parts": {
                "total": "1",
                "hash": "E11FE4A90070D2F6D7A881074BA533F7400485FB"
              }
            },
            "signature": {
              "type": "tendermint/SignatureEd25519",
              "value": "N4WeXeUITx6kSh/FWM2UHo85SFhzxO9yu+HdUNr511Ig6fvT1xAkixFyvQZFtMeRA5fx7KyVxQ0lA5cTBMEZAQ=="
            }
          },
          {
            "validator_address": "60229E2E273297FE00219E46DFFB8F76844CDEF9",
            "validator_index": "35",
            "height": "19013",
            "round": "0",
            "timestamp": "2018-07-31T13:23:14.053830462Z",
            "type": 2,
            "block_id": {
              "hash": "DE05B72148153DBDCB470A2BC736B1C463122C55",
              "parts": {
                "total": "1",
                "hash": "E11FE4A90070D2F6D7A881074BA533F7400485FB"
              }
            },
            "signature": {
              "type": "tendermint/SignatureEd25519",
              "value": "kBcQtvpzc9deGD3LSpAOof1EAbQcbBSybvQR9VPesOQd5nzXGCgxNLaYkQtKkB2YloWJ9QQjPGTK9WNC5pqkDg=="
            }
          },
          {
            "validator_address": "62410D6D1CD98278136E4D0738AA0EA273CDFC54",
            "validator_index": "36",
            "height": "19013",
            "round": "0",
            "timestamp": "2018-07-31T13:23:15.283942767Z",
            "type": 2,
            "block_id": {
              "hash": "DE05B72148153DBDCB470A2BC736B1C463122C55",
              "parts": {
                "total": "1",
                "hash": "E11FE4A90070D2F6D7A881074BA533F7400485FB"
              }
            },
            "signature": {
              "type": "tendermint/SignatureEd25519",
              "value": "ModeSBqXTn6iyX8bOO7r6jvSAsaink3MoDhXpJTzV/taZ2j7P9oj+suL4WIkFkckgnbXgxTorsS+6b8mwjJ8Cw=="
            }
          },
          {
            "validator_address": "632F5C139A5A9DFBFE5111DEE29FCFB6157207DC",
            "validator_index": "37",
            "height": "19013",
            "round": "0",
            "timestamp": "2018-07-31T13:23:15.284725712Z",
            "type": 2,
            "block_id": {
              "hash": "DE05B72148153DBDCB470A2BC736B1C463122C55",
              "parts": {
                "total": "1",
                "hash": "E11FE4A90070D2F6D7A881074BA533F7400485FB"
              }
            },
            "signature": {
              "type": "tendermint/SignatureEd25519",
              "value": "LbbeTI7BWjpI3+GCkdyY+0h837buo6dSh5QzF9RW+JwMSxmxYQDNZMYAVCulfaKf6JFVTyrRfHtCDesvw/HtDQ=="
            }
          },
          {
            "validator_address": "64F57F8E796A9B7B590C1EFA4123988C86631D39",
            "validator_index": "38",
            "height": "19013",
            "round": "0",
            "timestamp": "2018-07-31T13:23:15.247847407Z",
            "type": 2,
            "block_id": {
              "hash": "DE05B72148153DBDCB470A2BC736B1C463122C55",
              "parts": {
                "total": "1",
                "hash": "E11FE4A90070D2F6D7A881074BA533F7400485FB"
              }
            },
            "signature": {
              "type": "tendermint/SignatureEd25519",
              "value": "Xq2KbDMiwRr6dNz4ZCDbnqPyNGfFL/B/1FPSpdokYkVGLVbe4055lP5bBOiLLL10t0TKb+Vq+I19bqJS3Ab9Dw=="
            }
          },
          {
            "validator_address": "69D99B2C66043ACBEAA8447525C356AFC6408E0C",
            "validator_index": "39",
            "height": "19013",
            "round": "0",
            "timestamp": "2018-07-31T13:23:15.444201384Z",
            "type": 2,
            "block_id": {
              "hash": "DE05B72148153DBDCB470A2BC736B1C463122C55",
              "parts": {
                "total": "1",
                "hash": "E11FE4A90070D2F6D7A881074BA533F7400485FB"
              }
            },
            "signature": {
              "type": "tendermint/SignatureEd25519",
              "value": "Udl80hpwHvfEjQOUPnJDfnL6gYlnr/HrCuiHzMEZbby3TS9a2eNyREALe2cuD5UTKsC2WIS2EG+IfAfwnFJKDQ=="
            }
          },
          {
            "validator_address": "69EDADFA4A803E9DBF548C900D4A465E7D154262",
            "validator_index": "40",
            "height": "19013",
            "round": "0",
            "timestamp": "2018-07-31T13:23:15.35125536Z",
            "type": 2,
            "block_id": {
              "hash": "DE05B72148153DBDCB470A2BC736B1C463122C55",
              "parts": {
                "total": "1",
                "hash": "E11FE4A90070D2F6D7A881074BA533F7400485FB"
              }
            },
            "signature": {
              "type": "tendermint/SignatureEd25519",
              "value": "Yc3VyMJtK9f+vIgU2g0VF1tqsZEKFcOymMeZPmzgvEYEOjcoVOA2xFZ5Gnv+8iNVcjGnY4AHZFWh2hyutGCSCw=="
            }
          },
          {
            "validator_address": "6D3AD380E398D8592B03AA124BAFED5F125DF863",
            "validator_index": "41",
            "height": "19013",
            "round": "0",
            "timestamp": "2018-07-31T13:22:13.457354006Z",
            "type": 2,
            "block_id": {
              "hash": "DE05B72148153DBDCB470A2BC736B1C463122C55",
              "parts": {
                "total": "1",
                "hash": "E11FE4A90070D2F6D7A881074BA533F7400485FB"
              }
            },
            "signature": {
              "type": "tendermint/SignatureEd25519",
              "value": "2HzAexJSev0UBN4mmwP6t2Ma2On2+IFUVSlVytmDyzpthZQnCQV1yJ6fOBzbOkNs7l63hgvWNXXEc3onplFwCg=="
            }
          },
          {
            "validator_address": "6F6C93B8BF3495063FEC9B5C771158607F4AE9D6",
            "validator_index": "42",
            "height": "19013",
            "round": "0",
            "timestamp": "2018-07-31T13:23:15.375847795Z",
            "type": 2,
            "block_id": {
              "hash": "DE05B72148153DBDCB470A2BC736B1C463122C55",
              "parts": {
                "total": "1",
                "hash": "E11FE4A90070D2F6D7A881074BA533F7400485FB"
              }
            },
            "signature": {
              "type": "tendermint/SignatureEd25519",
              "value": "PPkskAFkRj6QmY5H2qdnaQCDBtu1ZIxTcNxAnjrrnwNalAm6MhsyzYLEKc36rA7fJfzuO5tV+Dz9A/Xo9S/VBQ=="
            }
          },
          {
            "validator_address": "732CEEF54C374DDC6ADECBFD707AEFD07FEDC143",
            "validator_index": "43",
            "height": "19013",
            "round": "0",
            "timestamp": "2018-07-31T13:23:15.415253221Z",
            "type": 2,
            "block_id": {
              "hash": "DE05B72148153DBDCB470A2BC736B1C463122C55",
              "parts": {
                "total": "1",
                "hash": "E11FE4A90070D2F6D7A881074BA533F7400485FB"
              }
            },
            "signature": {
              "type": "tendermint/SignatureEd25519",
              "value": "NjsuO7a7t1LOZ5ukUE6blflQeP8B3M+vGdmLOdMGod5nJmxhs6LzXjkGs+49pxSIBaa9gheAdTaFrKIG6XxPAg=="
            }
          },
          {
            "validator_address": "7393D691BFAE9661918C09932D4D9060AB40939B",
            "validator_index": "44",
            "height": "19013",
            "round": "0",
            "timestamp": "2018-07-31T13:23:15.450235856Z",
            "type": 2,
            "block_id": {
              "hash": "DE05B72148153DBDCB470A2BC736B1C463122C55",
              "parts": {
                "total": "1",
                "hash": "E11FE4A90070D2F6D7A881074BA533F7400485FB"
              }
            },
            "signature": {
              "type": "tendermint/SignatureEd25519",
              "value": "c7oQZ6sO9H6bEvM5I0/ya56/WyDAJaOu2lbMuLgkK4XU+gHaRWeoYGeLGw0+CJDSDVoHow1DRQWrbSikT0ANCw=="
            }
          },
          {
            "validator_address": "751E43437224E8BB6D1569B3E2B2616B6E7F4397",
            "validator_index": "45",
            "height": "19013",
            "round": "0",
            "timestamp": "2018-07-31T13:23:15.290048707Z",
            "type": 2,
            "block_id": {
              "hash": "DE05B72148153DBDCB470A2BC736B1C463122C55",
              "parts": {
                "total": "1",
                "hash": "E11FE4A90070D2F6D7A881074BA533F7400485FB"
              }
            },
            "signature": {
              "type": "tendermint/SignatureEd25519",
              "value": "SY7TmBlP2kBski+hqg2VpEYexDS/ru0BM7oI8OnYjBT4ZuxsT1EJDxk7lUOuHORdhddXaCuZa6pSQRvoCm7WDQ=="
            }
          },
          {
            "validator_address": "7EB7593F519F1180C7E872D0494611464EDF03AE",
            "validator_index": "46",
            "height": "19013",
            "round": "0",
            "timestamp": "2018-07-31T13:23:15.407226819Z",
            "type": 2,
            "block_id": {
              "hash": "DE05B72148153DBDCB470A2BC736B1C463122C55",
              "parts": {
                "total": "1",
                "hash": "E11FE4A90070D2F6D7A881074BA533F7400485FB"
              }
            },
            "signature": {
              "type": "tendermint/SignatureEd25519",
              "value": "zoBRQLJst7srrHhureiKLkBnsgjTLBtDyzZo76JuUwId+fQAp3zqtzvta8vRq7dDpYFG3d0Mu0Qh+38Ir/2DBQ=="
            }
          },
          {
            "validator_address": "807CF675BA8479FC4FEC1047215DF07970040F1F",
            "validator_index": "47",
            "height": "19013",
            "round": "0",
            "timestamp": "2018-07-31T13:23:15.53530744Z",
            "type": 2,
            "block_id": {
              "hash": "DE05B72148153DBDCB470A2BC736B1C463122C55",
              "parts": {
                "total": "1",
                "hash": "E11FE4A90070D2F6D7A881074BA533F7400485FB"
              }
            },
            "signature": {
              "type": "tendermint/SignatureEd25519",
              "value": "pokYxUnFV88rH5Mzjo29qccxBwhrxBngVlU99yQ6GtiTbT+dJuDSLY2Qp3RepARkamv5lP5mgL2gpV8EeoixDw=="
            }
          },
          {
            "validator_address": "8126192EA66E8ADE6B36924534721366B987A4C1",
            "validator_index": "48",
            "height": "19013",
            "round": "0",
            "timestamp": "2018-07-31T13:23:15.297759509Z",
            "type": 2,
            "block_id": {
              "hash": "DE05B72148153DBDCB470A2BC736B1C463122C55",
              "parts": {
                "total": "1",
                "hash": "E11FE4A90070D2F6D7A881074BA533F7400485FB"
              }
            },
            "signature": {
              "type": "tendermint/SignatureEd25519",
              "value": "k73qcXQoUPCzcNd6lK1AnSz9+zL7XaxO8z52E16Mwro+rf/3BqODGg9A2ISY4VOB3TfZicRO882zl+J3xaGEBg=="
            }
          },
          {
            "validator_address": "83AB321E012C57746689FED3A6064DF331F81007",
            "validator_index": "49",
            "height": "19013",
            "round": "0",
            "timestamp": "2018-07-31T13:23:15.28717885Z",
            "type": 2,
            "block_id": {
              "hash": "DE05B72148153DBDCB470A2BC736B1C463122C55",
              "parts": {
                "total": "1",
                "hash": "E11FE4A90070D2F6D7A881074BA533F7400485FB"
              }
            },
            "signature": {
              "type": "tendermint/SignatureEd25519",
              "value": "n0oFw7mL7BCSbBn8wSx2clCIjxN0mV1T+Z76OFV+C9BSjDoauqcrQz/XPt2hV8EKsxLhXqoMpyD0R6wu6DGDCg=="
            }
          },
          {
            "validator_address": "83BB1B88D3DBB20AD845FECA07749EBD87D3754D",
            "validator_index": "50",
            "height": "19013",
            "round": "0",
            "timestamp": "2018-07-31T13:23:15.421550321Z",
            "type": 2,
            "block_id": {
              "hash": "DE05B72148153DBDCB470A2BC736B1C463122C55",
              "parts": {
                "total": "1",
                "hash": "E11FE4A90070D2F6D7A881074BA533F7400485FB"
              }
            },
            "signature": {
              "type": "tendermint/SignatureEd25519",
              "value": "3eHhWLFRwgXGEIr8NG4CX9cCk0PUrzF+m7P2Heg44STfTfKn/UOwijJ0oKT83NWqO5Srb72FNQXH96F/mlHeCQ=="
            }
          },
          {
            "validator_address": "8F06FE1FD042683C426137FBC4BBAA4288924217",
            "validator_index": "51",
            "height": "19013",
            "round": "0",
            "timestamp": "2018-07-31T13:23:15.3454519Z",
            "type": 2,
            "block_id": {
              "hash": "DE05B72148153DBDCB470A2BC736B1C463122C55",
              "parts": {
                "total": "1",
                "hash": "E11FE4A90070D2F6D7A881074BA533F7400485FB"
              }
            },
            "signature": {
              "type": "tendermint/SignatureEd25519",
              "value": "mILwxP+j52INdYhPf2prW2bYlrp69KCrJoJKx7sWM9wQGHI7QvdEvweOQ7LRGnhTtlsboHhqGZtevLlcV6AADA=="
            }
          },
          {
            "validator_address": "8F45617BF45B10A3F8283DEBDB35E38C7CA43237",
            "validator_index": "52",
            "height": "19013",
            "round": "0",
            "timestamp": "2018-07-31T13:23:15.317255613Z",
            "type": 2,
            "block_id": {
              "hash": "DE05B72148153DBDCB470A2BC736B1C463122C55",
              "parts": {
                "total": "1",
                "hash": "E11FE4A90070D2F6D7A881074BA533F7400485FB"
              }
            },
            "signature": {
              "type": "tendermint/SignatureEd25519",
              "value": "lzRN138cgIytsZ9NErutqLOhRnpsZI+wIneGhfFja54ypEqyxZyFEyQvWGcL2W6l6xZ4iV4ReOwLoC/fXgq6Dw=="
            }
          },
          {
            "validator_address": "95980831E186F2540F6E9FB6C8E74DE2401405AC",
            "validator_index": "53",
            "height": "19013",
            "round": "0",
            "timestamp": "2018-07-31T13:23:15.267539597Z",
            "type": 2,
            "block_id": {
              "hash": "DE05B72148153DBDCB470A2BC736B1C463122C55",
              "parts": {
                "total": "1",
                "hash": "E11FE4A90070D2F6D7A881074BA533F7400485FB"
              }
            },
            "signature": {
              "type": "tendermint/SignatureEd25519",
              "value": "r5bu/pT0oUcWOc1H0OephFEitdO9rfawTqacnJaDY/nci7yXnoBLkHu9M+UHUs4TIMg22cmLF7ROfpxEizXhBg=="
            }
          },
          {
            "validator_address": "95FAFBC1E0579C83D290A063020CE87C5334BD9B",
            "validator_index": "54",
            "height": "19013",
            "round": "0",
            "timestamp": "2018-07-31T13:23:15.315992664Z",
            "type": 2,
            "block_id": {
              "hash": "DE05B72148153DBDCB470A2BC736B1C463122C55",
              "parts": {
                "total": "1",
                "hash": "E11FE4A90070D2F6D7A881074BA533F7400485FB"
              }
            },
            "signature": {
              "type": "tendermint/SignatureEd25519",
              "value": "J2FCO4/3dKjcWSdDdkDst4gYakef1BnpyytLEHD8Ju7iewG6y77i5n7VGj1yJ8c4WDjcbJUHOkRWPg7/cJKuBQ=="
            }
          },
          {
            "validator_address": "96BDE45EC52606CF5CB59853097871AD60680549",
            "validator_index": "55",
            "height": "19013",
            "round": "0",
            "timestamp": "2018-07-31T13:23:15.281417058Z",
            "type": 2,
            "block_id": {
              "hash": "DE05B72148153DBDCB470A2BC736B1C463122C55",
              "parts": {
                "total": "1",
                "hash": "E11FE4A90070D2F6D7A881074BA533F7400485FB"
              }
            },
            "signature": {
              "type": "tendermint/SignatureEd25519",
              "value": "prWGCNoTV7UsKm71whyeTeSeFXfLwsFZ/2Gp9vCZ7VV+3BUIwJOxl9CDlHKj3IKNvI8B7cdVirNf+EVysK6EBA=="
            }
          },
          {
            "validator_address": "970CD321881185BF83DB2923C321B0E75FDBB2B8",
            "validator_index": "56",
            "height": "19013",
            "round": "0",
            "timestamp": "2018-07-31T13:23:15.355371385Z",
            "type": 2,
            "block_id": {
              "hash": "DE05B72148153DBDCB470A2BC736B1C463122C55",
              "parts": {
                "total": "1",
                "hash": "E11FE4A90070D2F6D7A881074BA533F7400485FB"
              }
            },
            "signature": {
              "type": "tendermint/SignatureEd25519",
              "value": "CtqRv6ZqxmeaGhAIfuORRw6cDOcDX+0Cbr20eGr1KW22ntCjmOTNOSRwq6iWM5kjGizaHHZWYdEJY1TowTGGCg=="
            }
          },
          {
            "validator_address": "97DBB3D4B3D6C29287244864448F651DD5B07390",
            "validator_index": "57",
            "height": "19013",
            "round": "0",
            "timestamp": "2018-07-31T13:23:15.370363296Z",
            "type": 2,
            "block_id": {
              "hash": "DE05B72148153DBDCB470A2BC736B1C463122C55",
              "parts": {
                "total": "1",
                "hash": "E11FE4A90070D2F6D7A881074BA533F7400485FB"
              }
            },
            "signature": {
              "type": "tendermint/SignatureEd25519",
              "value": "CS82yfjarqpCbV94p60AU/J/I3ddys5P42RJlpKhjsBip55uU3G6zY0VkoknugchhpKxevj2JYHwUYWXjBFTDA=="
            }
          },
          {
            "validator_address": "9C29C9B76D27586E4D9AD2AED0E943162645E55C",
            "validator_index": "58",
            "height": "19013",
            "round": "0",
            "timestamp": "2018-07-31T13:23:15.213788671Z",
            "type": 2,
            "block_id": {
              "hash": "DE05B72148153DBDCB470A2BC736B1C463122C55",
              "parts": {
                "total": "1",
                "hash": "E11FE4A90070D2F6D7A881074BA533F7400485FB"
              }
            },
            "signature": {
              "type": "tendermint/SignatureEd25519",
              "value": "EP5/8q6DOVgV0pnFIuOxlLGO/jwIA8OqOEJAU6qJY1ZnyECiE+YKmLiz2hc8m9ZG5DQwQuXNKRVJ9BbGDnMcBQ=="
            }
          },
          {
            "validator_address": "9D93AD02FE1BD7E76B9E58D7EB461088EAD011E5",
            "validator_index": "59",
            "height": "19013",
            "round": "0",
            "timestamp": "2018-07-31T13:23:15.275063531Z",
            "type": 2,
            "block_id": {
              "hash": "DE05B72148153DBDCB470A2BC736B1C463122C55",
              "parts": {
                "total": "1",
                "hash": "E11FE4A90070D2F6D7A881074BA533F7400485FB"
              }
            },
            "signature": {
              "type": "tendermint/SignatureEd25519",
              "value": "ejrpgyivBds6nGBYjdDZyDVw2kHCrxAfNdToPq6gaGg4Fgr/xbxUwib4Dtupfl6pW1j/Oo5/7v5nGIG3fK5FDw=="
            }
          },
          {
            "validator_address": "A0A6466F4ABEA09C3B55E3709AFDE217A103209F",
            "validator_index": "60",
            "height": "19013",
            "round": "0",
            "timestamp": "2018-07-31T13:23:15.235009863Z",
            "type": 2,
            "block_id": {
              "hash": "DE05B72148153DBDCB470A2BC736B1C463122C55",
              "parts": {
                "total": "1",
                "hash": "E11FE4A90070D2F6D7A881074BA533F7400485FB"
              }
            },
            "signature": {
              "type": "tendermint/SignatureEd25519",
              "value": "JG2UcWh6QxLN/PiNnW6ZvgvCl4MVAhlkdR4Es1tO1wpVVv0KU1LeX/oagAeMEHj8ksgq+oRnQxQfz7hkUnBuCQ=="
            }
          },
          {
            "validator_address": "A5868971300F155020634D7BB49C7634F7AACCD3",
            "validator_index": "61",
            "height": "19013",
            "round": "0",
            "timestamp": "2018-07-31T13:23:15.275580342Z",
            "type": 2,
            "block_id": {
              "hash": "DE05B72148153DBDCB470A2BC736B1C463122C55",
              "parts": {
                "total": "1",
                "hash": "E11FE4A90070D2F6D7A881074BA533F7400485FB"
              }
            },
            "signature": {
              "type": "tendermint/SignatureEd25519",
              "value": "5LpaILsYcRfU+dTfk+2uhtrLxcZ1gT05TlDW8sr+8pED/dnGW+RhnH/bn5lM01au/pNtCXkIMo7595LbdcZwCw=="
            }
          },
          {
            "validator_address": "A6B3A5B5D982CFD7B5FDFA15CF5A720E7AE25E7F",
            "validator_index": "62",
            "height": "19013",
            "round": "0",
            "timestamp": "2018-07-31T13:23:15.221210033Z",
            "type": 2,
            "block_id": {
              "hash": "DE05B72148153DBDCB470A2BC736B1C463122C55",
              "parts": {
                "total": "1",
                "hash": "E11FE4A90070D2F6D7A881074BA533F7400485FB"
              }
            },
            "signature": {
              "type": "tendermint/SignatureEd25519",
              "value": "IqUlwEhbubjiJmKHbzTZVy0p88OI9ZoYVujzAJI8cXBD7HPdWPH1SM6/kULCV2GBORQwzLGh0FThb27hlQJjBQ=="
            }
          },
          {
            "validator_address": "AC96444A9083890B7C7B430DB17BF1D3EA5EED04",
            "validator_index": "63",
            "height": "19013",
            "round": "0",
            "timestamp": "2018-07-31T13:23:15.302308009Z",
            "type": 2,
            "block_id": {
              "hash": "DE05B72148153DBDCB470A2BC736B1C463122C55",
              "parts": {
                "total": "1",
                "hash": "E11FE4A90070D2F6D7A881074BA533F7400485FB"
              }
            },
            "signature": {
              "type": "tendermint/SignatureEd25519",
              "value": "oTTMPKaIr9KGFiv7yNbfpw6EcmhwOwh9fOOvDFIyh5GQtptoDqNfTl6HL+SKiknMxTFd0XwYLOzpbCgbPnaMAA=="
            }
          },
          {
            "validator_address": "ACB97FDA2D940AF0709B73537C458EB988AD2893",
            "validator_index": "64",
            "height": "19013",
            "round": "0",
            "timestamp": "2018-07-31T13:23:15.218263813Z",
            "type": 2,
            "block_id": {
              "hash": "DE05B72148153DBDCB470A2BC736B1C463122C55",
              "parts": {
                "total": "1",
                "hash": "E11FE4A90070D2F6D7A881074BA533F7400485FB"
              }
            },
            "signature": {
              "type": "tendermint/SignatureEd25519",
              "value": "6yF0k1eQJCr60pzJArNvCukDox0gvMTR5EgmEup4+qdYacoZRhc0bpSsu9hBTfA176ijzxEWt9LLGtFRWpK6Dw=="
            }
          },
          {
            "validator_address": "B197425B3210375F211661DE02EF2AE36580EB0F",
            "validator_index": "65",
            "height": "19013",
            "round": "0",
            "timestamp": "2018-07-31T13:23:15.331606093Z",
            "type": 2,
            "block_id": {
              "hash": "DE05B72148153DBDCB470A2BC736B1C463122C55",
              "parts": {
                "total": "1",
                "hash": "E11FE4A90070D2F6D7A881074BA533F7400485FB"
              }
            },
            "signature": {
              "type": "tendermint/SignatureEd25519",
              "value": "x12slw1jKaOMCXrO6p2GWievs91y09TnqMY4yK2dehTHdQFGyRsDLZKIpOoLW43L2C9/Z8IXmCz0HfJmD53FDQ=="
            }
          },
          {
            "validator_address": "B45E54D2D1CB5A4CCD1D49016608C18E7C56B270",
            "validator_index": "66",
            "height": "19013",
            "round": "0",
            "timestamp": "2018-07-31T13:23:15.449693513Z",
            "type": 2,
            "block_id": {
              "hash": "DE05B72148153DBDCB470A2BC736B1C463122C55",
              "parts": {
                "total": "1",
                "hash": "E11FE4A90070D2F6D7A881074BA533F7400485FB"
              }
            },
            "signature": {
              "type": "tendermint/SignatureEd25519",
              "value": "Kr1DZQS61NFl4oRpFI9HVotca29EqOd/2Cd54heFFS4aL7DA/UNsgNF/fmvQ4pGWw8mIkkwCvQUXa3AZRqExDg=="
            }
          },
          {
            "validator_address": "B59A34C0BE4EC73AF6A67D274F1695C9259C237C",
            "validator_index": "67",
            "height": "19013",
            "round": "0",
            "timestamp": "2018-07-31T13:23:15.450516948Z",
            "type": 2,
            "block_id": {
              "hash": "DE05B72148153DBDCB470A2BC736B1C463122C55",
              "parts": {
                "total": "1",
                "hash": "E11FE4A90070D2F6D7A881074BA533F7400485FB"
              }
            },
            "signature": {
              "type": "tendermint/SignatureEd25519",
              "value": "eylBq7yQb83ImJkA5d2oaDfmv5khfD65RmTpv6g/9nMwdxnJCeCKzXkVVQo6gL54n32iOfHDvxbmTC4/YCB1CA=="
            }
          },
          {
            "validator_address": "BB1276BE89834835428664408917649FEEF5D90C",
            "validator_index": "68",
            "height": "19013",
            "round": "0",
            "timestamp": "2018-07-31T13:23:15.339925027Z",
            "type": 2,
            "block_id": {
              "hash": "DE05B72148153DBDCB470A2BC736B1C463122C55",
              "parts": {
                "total": "1",
                "hash": "E11FE4A90070D2F6D7A881074BA533F7400485FB"
              }
            },
            "signature": {
              "type": "tendermint/SignatureEd25519",
              "value": "UP+08ZMyDlB52dVAlFMMz4YLyge/dGquiTKT1XrOuWAga5aT2rlUQwBbuQEXDaHgEhunqpk+3C+eIGlNzTCiDQ=="
            }
          },
          {
            "validator_address": "BC36FEDD6EF6071118A3E51859DF3831A2EC4782",
            "validator_index": "69",
            "height": "19013",
            "round": "0",
            "timestamp": "2018-07-31T13:23:15.304744057Z",
            "type": 2,
            "block_id": {
              "hash": "DE05B72148153DBDCB470A2BC736B1C463122C55",
              "parts": {
                "total": "1",
                "hash": "E11FE4A90070D2F6D7A881074BA533F7400485FB"
              }
            },
            "signature": {
              "type": "tendermint/SignatureEd25519",
              "value": "Zry6b1MkvvC6F/L7+eY3NQF7JxLl5t8y/LZYFkRb2OCY3l3w7uTG2rtQf5aY/dNpBa8ZCh9MZO5qCleEuMuTCg=="
            }
          },
          {
            "validator_address": "BD9D0DA513BF099DB4BB6E725A4E19832789882F",
            "validator_index": "70",
            "height": "19013",
            "round": "0",
            "timestamp": "2018-07-31T13:23:15.285152547Z",
            "type": 2,
            "block_id": {
              "hash": "DE05B72148153DBDCB470A2BC736B1C463122C55",
              "parts": {
                "total": "1",
                "hash": "E11FE4A90070D2F6D7A881074BA533F7400485FB"
              }
            },
            "signature": {
              "type": "tendermint/SignatureEd25519",
              "value": "ILH4nR6iLbiiicrn4oGOhEaH1hIOQjtuHnmev122c24+UOO4jLXgl1Tk+bbhBxFPo4IyjZdgfmh/kGel99kbAA=="
            }
          },
          null,
          {
            "validator_address": "C39A8A2B85198DCB8F23AD1F6C198E2BA7AB5D60",
            "validator_index": "72",
            "height": "19013",
            "round": "0",
            "timestamp": "2018-07-31T13:23:15.233747298Z",
            "type": 2,
            "block_id": {
              "hash": "DE05B72148153DBDCB470A2BC736B1C463122C55",
              "parts": {
                "total": "1",
                "hash": "E11FE4A90070D2F6D7A881074BA533F7400485FB"
              }
            },
            "signature": {
              "type": "tendermint/SignatureEd25519",
              "value": "xUwV0mv4wTT17nSdw8lhQHXpwMN1U7zgvYyCQTb5mE03zsllKRPM0cmvXHN4AW6ut2D3HjJ6zdk3szJq87L+DA=="
            }
          },
          {
            "validator_address": "C4335190C3B5BD4BA5568BC0F99C34162D940D08",
            "validator_index": "73",
            "height": "19013",
            "round": "0",
            "timestamp": "2018-07-31T13:23:15.34028701Z",
            "type": 2,
            "block_id": {
              "hash": "DE05B72148153DBDCB470A2BC736B1C463122C55",
              "parts": {
                "total": "1",
                "hash": "E11FE4A90070D2F6D7A881074BA533F7400485FB"
              }
            },
            "signature": {
              "type": "tendermint/SignatureEd25519",
              "value": "dnOEX4S9BEHYABHufH2OYNOhjY18c7YmR5XyGdInTxx5W/0E+BsUUGZZnq2GvXaMWLqUdljUlSWy3V43Ka2iCA=="
            }
          },
          {
            "validator_address": "C561CFA081677046376396922E7576E5F7B316AD",
            "validator_index": "74",
            "height": "19013",
            "round": "0",
            "timestamp": "2018-07-31T13:23:15.376516586Z",
            "type": 2,
            "block_id": {
              "hash": "DE05B72148153DBDCB470A2BC736B1C463122C55",
              "parts": {
                "total": "1",
                "hash": "E11FE4A90070D2F6D7A881074BA533F7400485FB"
              }
            },
            "signature": {
              "type": "tendermint/SignatureEd25519",
              "value": "YPu71IGdhYJUxFyY5kQn/KisFF9kSnaGxM39Xs0OUu48SFOqH5n8kZq36GiizOKamRo78SEUJBI7GfNM5GOZCQ=="
            }
          },
          {
            "validator_address": "CE589EA77B056D268D30D1DC1D68A70E0F885E95",
            "validator_index": "75",
            "height": "19013",
            "round": "0",
            "timestamp": "2018-07-31T13:23:15.328288618Z",
            "type": 2,
            "block_id": {
              "hash": "DE05B72148153DBDCB470A2BC736B1C463122C55",
              "parts": {
                "total": "1",
                "hash": "E11FE4A90070D2F6D7A881074BA533F7400485FB"
              }
            },
            "signature": {
              "type": "tendermint/SignatureEd25519",
              "value": "eY6DMTrDqxa1+XWaIQgffpEh53avniRmYKGmTz52xEg9N7uBFh2Ywe2gkVPto/gcItlSiTUhh1XMw9ipyELaAw=="
            }
          },
          {
            "validator_address": "CEB97DB5CB18270247ABDE6CF2F84F9AEE8A2904",
            "validator_index": "76",
            "height": "19013",
            "round": "0",
            "timestamp": "2018-07-31T13:23:15.463110004Z",
            "type": 2,
            "block_id": {
              "hash": "DE05B72148153DBDCB470A2BC736B1C463122C55",
              "parts": {
                "total": "1",
                "hash": "E11FE4A90070D2F6D7A881074BA533F7400485FB"
              }
            },
            "signature": {
              "type": "tendermint/SignatureEd25519",
              "value": "QllQTH/8mPxwdPr86haGkoKRmik0J49uMH+lsdDGqxCYNYcl5u6ta9c/T9n8OuYLfkgGiXzs++uRnhNZdq0cCg=="
            }
          },
          {
            "validator_address": "CF205769734F5758CC39F907EFB73D6BAF915FB1",
            "validator_index": "77",
            "height": "19013",
            "round": "0",
            "timestamp": "2018-07-31T13:23:15.388856944Z",
            "type": 2,
            "block_id": {
              "hash": "DE05B72148153DBDCB470A2BC736B1C463122C55",
              "parts": {
                "total": "1",
                "hash": "E11FE4A90070D2F6D7A881074BA533F7400485FB"
              }
            },
            "signature": {
              "type": "tendermint/SignatureEd25519",
              "value": "fzkA1aruIOycCv7tVqH2x8zldCO9Nd3iWeKFUJb0U5OmLXdClogLSId1K2/tEY9R2bR8f5F8DO0uf7IfWQISCg=="
            }
          },
          {
            "validator_address": "D2134B826A1E25A955905CB79A4D8731CAFA0CCE",
            "validator_index": "78",
            "height": "19013",
            "round": "0",
            "timestamp": "2018-07-31T13:23:15.390653777Z",
            "type": 2,
            "block_id": {
              "hash": "DE05B72148153DBDCB470A2BC736B1C463122C55",
              "parts": {
                "total": "1",
                "hash": "E11FE4A90070D2F6D7A881074BA533F7400485FB"
              }
            },
            "signature": {
              "type": "tendermint/SignatureEd25519",
              "value": "2woVwci0hO/WOuIQBmveUxIMjj2ALlwO6nwYNVwexsJxxyCsjnYS0y5QbHKQJTYP5CEpPJs4wJ+2Z9jadPn2Bg=="
            }
          },
          {
            "validator_address": "D6285C3422C8886445D53757CBE12D2B91B5A9D0",
            "validator_index": "79",
            "height": "19013",
            "round": "0",
            "timestamp": "2018-07-31T13:22:57.88820759Z",
            "type": 2,
            "block_id": {
              "hash": "DE05B72148153DBDCB470A2BC736B1C463122C55",
              "parts": {
                "total": "1",
                "hash": "E11FE4A90070D2F6D7A881074BA533F7400485FB"
              }
            },
            "signature": {
              "type": "tendermint/SignatureEd25519",
              "value": "gp6DBqOBuGMESXio61hApbLvc3mJcp3K3oeJt09xPM59ZLWyeX8exJJXZkHRjYX593FtCLT2YWyW5x2WizyQCQ=="
            }
          },
          {
            "validator_address": "D77FB84A729972CD3E757C9BEB61561855832B92",
            "validator_index": "80",
            "height": "19013",
            "round": "0",
            "timestamp": "2018-07-31T13:23:15.4313725Z",
            "type": 2,
            "block_id": {
              "hash": "DE05B72148153DBDCB470A2BC736B1C463122C55",
              "parts": {
                "total": "1",
                "hash": "E11FE4A90070D2F6D7A881074BA533F7400485FB"
              }
            },
            "signature": {
              "type": "tendermint/SignatureEd25519",
              "value": "DZLnHoaQQONsJcwO9l8syHO+QXwHx3JRXhk9mGa5i5yIZSSLfmevWTVeXPitXLJxjtgCjx37SylLgrFN3FBsBQ=="
            }
          },
          {
            "validator_address": "DB7E6732471D3EA5C90C17A9974D9F88AB45F2FB",
            "validator_index": "81",
            "height": "19013",
            "round": "0",
            "timestamp": "2018-07-31T13:23:15.311838275Z",
            "type": 2,
            "block_id": {
              "hash": "DE05B72148153DBDCB470A2BC736B1C463122C55",
              "parts": {
                "total": "1",
                "hash": "E11FE4A90070D2F6D7A881074BA533F7400485FB"
              }
            },
            "signature": {
              "type": "tendermint/SignatureEd25519",
              "value": "gzDLRj08cpT3s/vlSyNtfZ4LuP/EZKPkgZFGww6z9V/UU8hEe6j078QqZzpAK1a5PSkYa+f2aRp4gMCi6TxeAg=="
            }
          },
          {
            "validator_address": "DF54B862410BCD9B5C516FBB6C56BDC826ED6FA7",
            "validator_index": "82",
            "height": "19013",
            "round": "0",
            "timestamp": "2018-07-31T13:23:15.405934701Z",
            "type": 2,
            "block_id": {
              "hash": "DE05B72148153DBDCB470A2BC736B1C463122C55",
              "parts": {
                "total": "1",
                "hash": "E11FE4A90070D2F6D7A881074BA533F7400485FB"
              }
            },
            "signature": {
              "type": "tendermint/SignatureEd25519",
              "value": "47JlPeRcwUCBxjHyxXm2vdnrU1mUzB1LSahvJCRxjrDtQp5PC3wJLeuG+2EdmyKWetlPzqmVET4J/13EjWfIBQ=="
            }
          },
          {
            "validator_address": "DFAF0C8B1B78D6D552B0189DE3ACA351439A1319",
            "validator_index": "83",
            "height": "19013",
            "round": "0",
            "timestamp": "2018-07-31T13:23:15.268744101Z",
            "type": 2,
            "block_id": {
              "hash": "DE05B72148153DBDCB470A2BC736B1C463122C55",
              "parts": {
                "total": "1",
                "hash": "E11FE4A90070D2F6D7A881074BA533F7400485FB"
              }
            },
            "signature": {
              "type": "tendermint/SignatureEd25519",
              "value": "HXA9qByoAaLPpQy48R095HNF/6XyjGP5Se0lX1eg/GvyujiCkAQ5siQlqi7B2DGwITAMFeD3iwTP41f4BWJ/Bg=="
            }
          },
          {
            "validator_address": "E1DBC77881161A5A3A8536A57536EAE546A75D69",
            "validator_index": "84",
            "height": "19013",
            "round": "0",
            "timestamp": "2018-07-31T13:23:15.2334278Z",
            "type": 2,
            "block_id": {
              "hash": "DE05B72148153DBDCB470A2BC736B1C463122C55",
              "parts": {
                "total": "1",
                "hash": "E11FE4A90070D2F6D7A881074BA533F7400485FB"
              }
            },
            "signature": {
              "type": "tendermint/SignatureEd25519",
              "value": "MVdAziMfq2vvwgTslGRqynGQMueNWH9lHiIqsRJA6WhSxL6vk3D1dUe8uPAtWrDAbQv10bXBIQ0/BvnAnDUgBA=="
            }
          },
          {
            "validator_address": "E300E9D484374C1D3E97C1D93CAC3B160A056298",
            "validator_index": "85",
            "height": "19013",
            "round": "0",
            "timestamp": "2018-07-31T13:23:15.532155165Z",
            "type": 2,
            "block_id": {
              "hash": "DE05B72148153DBDCB470A2BC736B1C463122C55",
              "parts": {
                "total": "1",
                "hash": "E11FE4A90070D2F6D7A881074BA533F7400485FB"
              }
            },
            "signature": {
              "type": "tendermint/SignatureEd25519",
              "value": "TT1PzDvw9ee5FmQ58k6IwPiuXLyaN6NCnQnUiFKJVZmBmIViQF+VNplUS49qUvCdLRYLn88Tq1wfdpeMg8MMDg=="
            }
          },
          {
            "validator_address": "E39B5778E0D4297A46F45CF6940B0A163A430FF8",
            "validator_index": "86",
            "height": "19013",
            "round": "0",
            "timestamp": "2018-07-31T13:23:15.314155019Z",
            "type": 2,
            "block_id": {
              "hash": "DE05B72148153DBDCB470A2BC736B1C463122C55",
              "parts": {
                "total": "1",
                "hash": "E11FE4A90070D2F6D7A881074BA533F7400485FB"
              }
            },
            "signature": {
              "type": "tendermint/SignatureEd25519",
              "value": "bYc+q9ShT08+k5EKcKiTE2mK4RfXEJ6YH3g4JyZE4vBpOg7yMpptHMwqbsAwz96Hk4yj9iM+SCPpFSjUhHZsDw=="
            }
          },
          {
            "validator_address": "E3B19738F7132F950668504D326C7660F159D170",
            "validator_index": "87",
            "height": "19013",
            "round": "0",
            "timestamp": "2018-07-31T13:23:15.271192524Z",
            "type": 2,
            "block_id": {
              "hash": "DE05B72148153DBDCB470A2BC736B1C463122C55",
              "parts": {
                "total": "1",
                "hash": "E11FE4A90070D2F6D7A881074BA533F7400485FB"
              }
            },
            "signature": {
              "type": "tendermint/SignatureEd25519",
              "value": "1LFzWnaxeuVIp8+E1G1cABMJZapYA+BTpTe5LIGxKQWPm3/0tkxNlKCqAOBOpeyj5N0bIOZNE/5PqgJGUBtdBA=="
            }
          },
          {
            "validator_address": "E42F8AEABB685219F7027F54D2B0DBC7846F633A",
            "validator_index": "88",
            "height": "19013",
            "round": "0",
            "timestamp": "2018-07-31T13:23:14.45715968Z",
            "type": 2,
            "block_id": {
              "hash": "DE05B72148153DBDCB470A2BC736B1C463122C55",
              "parts": {
                "total": "1",
                "hash": "E11FE4A90070D2F6D7A881074BA533F7400485FB"
              }
            },
            "signature": {
              "type": "tendermint/SignatureEd25519",
              "value": "Z3uYi1bglEpSJ9741P1j7u8HjXPRjxe6+Ssz46XOMVCIfcdBpoclEpW0vxbSUA7ynIQflOblAVZuTuPo3k14AA=="
            }
          },
          {
            "validator_address": "E4E6C2E81269DFFA196C17F98240E491479A6008",
            "validator_index": "89",
            "height": "19013",
            "round": "0",
            "timestamp": "2018-07-31T13:23:15.493936314Z",
            "type": 2,
            "block_id": {
              "hash": "DE05B72148153DBDCB470A2BC736B1C463122C55",
              "parts": {
                "total": "1",
                "hash": "E11FE4A90070D2F6D7A881074BA533F7400485FB"
              }
            },
            "signature": {
              "type": "tendermint/SignatureEd25519",
              "value": "bMEmmGE9ORm5NlxZqfUnCNf8JXTYOS5DQvLqu35CLsdr1Vp4Ysy/nY6qwWGgS5QxO1ZZ9UETjpvoxoHY/x9OCQ=="
            }
          },
          {
            "validator_address": "E6A7079D584B163750BE0831227F6B685DEAF3C1",
            "validator_index": "90",
            "height": "19013",
            "round": "0",
            "timestamp": "2018-07-31T13:23:15.423495829Z",
            "type": 2,
            "block_id": {
              "hash": "DE05B72148153DBDCB470A2BC736B1C463122C55",
              "parts": {
                "total": "1",
                "hash": "E11FE4A90070D2F6D7A881074BA533F7400485FB"
              }
            },
            "signature": {
              "type": "tendermint/SignatureEd25519",
              "value": "6npzAyZe3m6VoIiKqijlzYtDONNbMyfMXrnUlMl7poKk27Fj53MSTRa0md6pGdLA8zXhfqJ0xfEl2QPomUjNCg=="
            }
          },
          {
            "validator_address": "E7A30077D5D11867D3EAF99ED45BFDC1EB834509",
            "validator_index": "91",
            "height": "19013",
            "round": "0",
            "timestamp": "2018-07-31T13:23:15.271188733Z",
            "type": 2,
            "block_id": {
              "hash": "DE05B72148153DBDCB470A2BC736B1C463122C55",
              "parts": {
                "total": "1",
                "hash": "E11FE4A90070D2F6D7A881074BA533F7400485FB"
              }
            },
            "signature": {
              "type": "tendermint/SignatureEd25519",
              "value": "aspi6f9D9nqc54vJIqLI6iC2PcvGSQrwqEMaX+sEjhrReIlrnIWaK10RKaUBT+UBFtkjgN6WxCgBzqTRGocbBQ=="
            }
          },
          {
            "validator_address": "EBC613967F66F4EC306852CDF58B4F151CF16738",
            "validator_index": "92",
            "height": "19013",
            "round": "0",
            "timestamp": "2018-07-31T13:23:15.307594872Z",
            "type": 2,
            "block_id": {
              "hash": "DE05B72148153DBDCB470A2BC736B1C463122C55",
              "parts": {
                "total": "1",
                "hash": "E11FE4A90070D2F6D7A881074BA533F7400485FB"
              }
            },
            "signature": {
              "type": "tendermint/SignatureEd25519",
              "value": "ps6AD+nxxExdkt9QDSxy6yhe1h2xMN/9om2QES35zdrXK/ZZyt6RyWANuoncOyjOAuyS5bZI9hQdDo2Hv3nACQ=="
            }
          },
          {
            "validator_address": "EC3401441726C40ECC7E51F744483B05BC6DE9BD",
            "validator_index": "93",
            "height": "19013",
            "round": "0",
            "timestamp": "2018-07-31T13:23:15.283579349Z",
            "type": 2,
            "block_id": {
              "hash": "DE05B72148153DBDCB470A2BC736B1C463122C55",
              "parts": {
                "total": "1",
                "hash": "E11FE4A90070D2F6D7A881074BA533F7400485FB"
              }
            },
            "signature": {
              "type": "tendermint/SignatureEd25519",
              "value": "E1XKlMAS9O99YRab+dJhMUqX6U8X8ZoblIfAaFHpPRnc5zTp8IadQVi9nBYtSr3iUJuYm7X58WqyVKuWbv5PCA=="
            }
          },
          {
            "validator_address": "EC95B111D032181E1EC3B5E8875C5BB8E4AE7140",
            "validator_index": "94",
            "height": "19013",
            "round": "0",
            "timestamp": "2018-07-31T13:23:15.237893648Z",
            "type": 2,
            "block_id": {
              "hash": "DE05B72148153DBDCB470A2BC736B1C463122C55",
              "parts": {
                "total": "1",
                "hash": "E11FE4A90070D2F6D7A881074BA533F7400485FB"
              }
            },
            "signature": {
              "type": "tendermint/SignatureEd25519",
              "value": "H7pRkX8RCNfYpkiL7seuyI0hx1jwcD5ozuMr3yQx2b5Yi2Acoo2WvcuRKhOmw/WF3lhtiTMqHCNVcOATpJlGCQ=="
            }
          },
          {
            "validator_address": "F13C1805E8131C9B47E2A46818F57D8A2841E578",
            "validator_index": "95",
            "height": "19013",
            "round": "0",
            "timestamp": "2018-07-31T13:23:15.293799625Z",
            "type": 2,
            "block_id": {
              "hash": "DE05B72148153DBDCB470A2BC736B1C463122C55",
              "parts": {
                "total": "1",
                "hash": "E11FE4A90070D2F6D7A881074BA533F7400485FB"
              }
            },
            "signature": {
              "type": "tendermint/SignatureEd25519",
              "value": "R8IqGqY2W4aSz4A2QVlcAfWKtVwBWp2qKz2ug6tdPwrbnTIkzJ/gaWzCS6x2VMk7heRNAhPbqwUlLXIr45gxDA=="
            }
          },
          {
            "validator_address": "F23FF36BD5B90C33CE3A03ED72DBDCF5EC07D6AF",
            "validator_index": "96",
            "height": "19013",
            "round": "0",
            "timestamp": "2018-07-31T13:23:15.300002347Z",
            "type": 2,
            "block_id": {
              "hash": "DE05B72148153DBDCB470A2BC736B1C463122C55",
              "parts": {
                "total": "1",
                "hash": "E11FE4A90070D2F6D7A881074BA533F7400485FB"
              }
            },
            "signature": {
              "type": "tendermint/SignatureEd25519",
              "value": "3eQgMLIF/v+O8mIVXGix4fGngGin0BICtzFCOftGLL2gYEUaMmgKAxauGmZH0UFOxGgTkhwR2lULtGgEbOW8Aw=="
            }
          },
          {
            "validator_address": "F4268597DE93E3E2CED38845010F8AA34E2A879E",
            "validator_index": "97",
            "height": "19013",
            "round": "0",
            "timestamp": "2018-07-31T13:23:15.335553913Z",
            "type": 2,
            "block_id": {
              "hash": "DE05B72148153DBDCB470A2BC736B1C463122C55",
              "parts": {
                "total": "1",
                "hash": "E11FE4A90070D2F6D7A881074BA533F7400485FB"
              }
            },
            "signature": {
              "type": "tendermint/SignatureEd25519",
              "value": "iPiS4uVLIHWK0NItrqM11nsaCaN1NF2eAtuantnro1uBe8ux/dsgsISqJn1I1RIuPPUwvx8Zs5SCv0MpPjumAQ=="
            }
          },
          {
            "validator_address": "F4DEB417999B04BE2EFF9FFE03FA373D86011CC0",
            "validator_index": "98",
            "height": "19013",
            "round": "0",
            "timestamp": "2018-07-31T13:23:15.266851458Z",
            "type": 2,
            "block_id": {
              "hash": "DE05B72148153DBDCB470A2BC736B1C463122C55",
              "parts": {
                "total": "1",
                "hash": "E11FE4A90070D2F6D7A881074BA533F7400485FB"
              }
            },
            "signature": {
              "type": "tendermint/SignatureEd25519",
              "value": "t8qqKtsSTWKitDH3dFgBdX5y07MTtjeuZjekyXHzEmaJEf2nvWtomsc/9OKRq2YqLj/Fd73rFI6OKpsR/MTLAg=="
            }
          },
          {
            "validator_address": "F6738260186D33D9C14FC6E7017AFE6BB952A63D",
            "validator_index": "99",
            "height": "19013",
            "round": "0",
            "timestamp": "2018-07-31T13:23:15.296318557Z",
            "type": 2,
            "block_id": {
              "hash": "DE05B72148153DBDCB470A2BC736B1C463122C55",
              "parts": {
                "total": "1",
                "hash": "E11FE4A90070D2F6D7A881074BA533F7400485FB"
              }
            },
            "signature": {
              "type": "tendermint/SignatureEd25519",
              "value": "lGsxt2SII1tJN7763PBoJgM5hGbUuipBA+ihQgOzNipUNGlqqoVT7rmygozPGp9mK9ODi3JsOsdItWLmCDn8BQ=="
            }
          },
          null,
          {
            "validator_address": "FF3F3FCBCE7E62D7AD5506FF846EC4518D980515",
            "validator_index": "101",
            "height": "19013",
            "round": "0",
            "timestamp": "2018-07-31T13:23:15.218421633Z",
            "type": 2,
            "block_id": {
              "hash": "DE05B72148153DBDCB470A2BC736B1C463122C55",
              "parts": {
                "total": "1",
                "hash": "E11FE4A90070D2F6D7A881074BA533F7400485FB"
              }
            },
            "signature": {
              "type": "tendermint/SignatureEd25519",
              "value": "2vK+AsC+oRBuCv6nbs6tYKy4AqquIQ5hNmucXpWBQ9zKEJqMIDwcdZSOjB9OQ6ibuGKv7Afd6eXf/2dl18aVAw=="
            }
          }
        ]
      }
    },
    "canonical": true
  }
}