{
  "jsonrpc": "2.0",
  "id": "",
  "result": {
    "SignedHeader": {
      "header": {
        "chain_id": "gaia-7004",
        "height": "19730",
        "time": "2018-07-31T14:33:39.546426465Z",
        "num_txs": "0",
        "last_block_id": {
          "hash": "32D98689DC7A0B3DC97E0D48F93E587EAE76A154",
          "parts": {
            "total": "1",
            "hash": "C4498305E24D7FC1C8980F05DD78B87FAE4106DD"
          }
        },
        "total_txs": "591",
        "last_commit_hash": "D0CB146BDD40558A1C7BB0CCC3637AF0931D2DE5",
        "data_hash": "",
        "validators_hash": "17811E775026D9E0F0335040020E6527325C73FC",
        "consensus_hash": "D6B74BB35BDFFD8392340F2A379173548AE188FE",
        "app_hash": "B97C5A1643A681A6B4DC736E25F7D544F71C1084",
        "last_results_hash": "",
        "evidence_hash": ""
      },
      "commit": {
        "block_id": {
          "hash": "868BA5D6678ABBB82F0C38D2B2408152311CFB0F",
          "parts": {
            "total": "1",
            "hash": "D563A4AAFEB2792892E24DCCC6B3C109E8198693"
          }
        },
        "precommits": [
          {
            "validator_address": "029359C0C768096273A68ABC902A6B17AC8D1D70",
            "validator_index": "0",
            "height": "19730",
            "round": "1",
            "timestamp": "2018-07-31T14:33:40.410892134Z",
            "type": 2,
            "block_id": {
              "hash": "868BA5D6678ABBB82F0C38D2B2408152311CFB0F",
              "parts": {
                "total": "1",
                "hash": "D563A4AAFEB2792892E24DCCC6B3C109E8198693"
              }
            },
            "signature": {
              "type": "tendermint/SignatureEd25519",
              "value": "lVc8jcEl0IflwSo/7gYNQAvYcUVbaEyCN5b/33k3Nu0UhKOKKNuqfSLxLtFx9G//MKTehlUf7wXrbLpFOeyKAA=="
            }
          },
          {
            "validator_address": "02FE4B97A8387F39D1AC19E0C1702B3CC614812F",
            "validator_index": "1",
            "height": "19730",
            "round": "1",
            "timestamp": "2018-07-31T14:33:40.475236474Z",
            "type": 2,
            "block_id": {
              "hash": "868BA5D6678ABBB82F0C38D2B2408152311CFB0F",
              "parts": {
                "total": "1",
                "hash": "D563A4AAFEB2792892E24DCCC6B3C109E8198693"
              }
            },
            "signature": {
              "type": "tendermint/SignatureEd25519",
              "value": "9VS3Gsp8GJl27B0wFeZGvywtjgravi8j/hdAXzlI9VOqzrloo9BsDbgJCGiz0gIsxQJybXYFGI2WSv3669aUDQ=="
            }
          },
          {
            "validator_address": "0548261C50222FD710EB5EBDF03A0E6567B21D20",
            "validator_index": "2",
            "height": "19730",
            "round": "1",
            "timestamp": "2018-07-31T14:33:40.423485983Z",
            "type": 2,
            "block_id": {
              "hash": "868BA5D6678ABBB82F0C38D2B2408152311CFB0F",
              "parts": {
                "total": "1",
                "hash": "D563A4AAFEB2792892E24DCCC6B3C109E8198693"
              }
            },
            "signature": {
              "type": "tendermint/SignatureEd25519",
              "value": "7FfkOaFOddeRA4UtxG+Bl/C++uoQB1Mwsx8BsbNl5kbxludfriqYNRRGfDLon8RSpBi411GO16iv1W0JRMWtCg=="
            }
          },
          {
            "validator_address": "09145E611CC27EEB944FC5A956DDF710F943B9EF",
            "validator_index": "3",
            "height": "19730",
            "round": "1",
            "timestamp": "2018-07-31T14:33:40.410077314Z",
            "type": 2,
            "block_id": {
              "hash": "868BA5D6678ABBB82F0C38D2B2408152311CFB0F",
              "parts": {
                "total": "1",
                "hash": "D563A4AAFEB2792892E24DCCC6B3C109E8198693"
              }
            },
            "signature": {
              "type": "tendermint/SignatureEd25519",
              "value": "iR0wisPbs3eLItDPu6rxmDNHqO/l4/eoWN7amWlB1KhGH/KB8UFg9Kl0hNEd9hvzW8Res6gkuSn5KOp6bZrQDQ=="
            }
          },
          {
            "validator_address": "0989D0355A104B67AE0AE028C68FB610690E174B",
            "validator_index": "4",
            "height": "19730",
            "round": "1",
            "timestamp": "2018-07-31T14:33:40.430992735Z",
            "type": 2,
            "block_id": {
              "hash": "868BA5D6678ABBB82F0C38D2B2408152311CFB0F",
              "parts": {
                "total": "1",
                "hash": "D563A4AAFEB2792892E24DCCC6B3C109E8198693"
              }
            },
            "signature": {
              "type": "tendermint/SignatureEd25519",
              "value": "7EaULqi7HPxAiSbK1/peX+Txj7A2G7yQop2QZ0L2g49yd77pEW6oTgFE7wRWGW6G1voXlLwTv1b/ZSPm3RtyBQ=="
            }
          },
          {
            "validator_address": "0A692DBFFE9E5DD28E7DECC33CED1AEB4C0D014E",
            "validator_index": "5",
            "height": "19730",
            "round": "1",
            "timestamp": "2018-07-31T14:33:40.545209219Z",
            "type": 2,
            "block_id": {
              "hash": "868BA5D6678ABBB82F0C38D2B2408152311CFB0F",
              "parts": {
                "total": "1",
                "hash": "D563A4AAFEB2792892E24DCCC6B3C109E8198693"
              }
            },
            "signature": {
              "type": "tendermint/SignatureEd25519",
              "value": "/N7BIjlHdaMo03UVNASyDVC+UBDbjCvfD5l4wZmgKNwzqyA/rGsphq5yj1CM52YkxwHBAHsEdIeM6f9NTCeNDA=="
            }
          },
          {
            "validator_address": "0DDF97111D73DB825138EC15EC27DE5FE8536901",
            "validator_index": "6",
            "height": "19730",
            "round": "1",
            "timestamp": "2018-07-31T14:33:40.36099874Z",
            "type": 2,
            "block_id": {
              "hash": "868BA5D6678ABBB82F0C38D2B2408152311CFB0F",
              "parts": {
                "total": "1",
                "hash": "D563A4AAFEB2792892E24DCCC6B3C109E8198693"
              }
            },
            "signature": {
              "type": "tendermint/SignatureEd25519",
              "value": "nqfKDvbFrDzTm4LtsAsLeK3UxffeSjEU1GbexcKSVXu3Q30+Busk/4vl3f93htzuQbzySDDNwrRNDpyuewHlCA=="
            }
          },
          {
            "validator_address": "1751786EFC085D5331C61168FFFC8202EA151B4E",
            "validator_index": "7",
            "height": "19730",
            "round": "1",
            "timestamp": "2018-07-31T14:33:39.982315209Z",
            "type": 2,
            "block_id": {
              "hash": "868BA5D6678ABBB82F0C38D2B2408152311CFB0F",
              "parts": {
                "total": "1",
                "hash": "D563A4AAFEB2792892E24DCCC6B3C109E8198693"
              }
            },
            "signature": {
              "type": "tendermint/SignatureEd25519",
              "value": "G9oN3/uMQ7qP29CYKSkptEu2eOW1dFwWvlyZYAK1v8S4zcfgDAZVin53Cf5JisUGvgcnHD5TbaJCSGCs6kXbCA=="
            }
          },
          {
            "validator_address": "17BB5CD01E8940FAFB948A04D5FA5A0645E5822E",
            "validator_index": "8",
            "height": "19730",
            "round": "1",
            "timestamp": "2018-07-31T14:33:40.440228084Z",
            "type": 2,
            "block_id": {
              "hash": "868BA5D6678ABBB82F0C38D2B2408152311CFB0F",
              "parts": {
                "total": "1",
                "hash": "D563A4AAFEB2792892E24DCCC6B3C109E8198693"
              }
            },
            "signature": {
              "type": "tendermint/SignatureEd25519",
              "value": "K6DG/V8kKgElLW6tK6PFJ5lKIE5VgysYjtkxK3FHPgB0lmTz1JQk5t7aVHlnbzNTjzQzsrSAfBUgT/FK5L+wDQ=="
            }
          },
          {
            "validator_address": "1C683A87904BC38F05004FE83301A3A3E35447EB",
            "validator_index": "9",
            "height": "19730",
            "round": "1",
            "timestamp": "2018-07-31T14:33:40.397071997Z",
            "type": 2,
            "block_id": {
              "hash": "868BA5D6678ABBB82F0C38D2B2408152311CFB0F",
              "parts": {
                "total": "1",
                "hash": "D563A4AAFEB2792892E24DCCC6B3C109E8198693"
              }
            },
            "signature": {
              "type": "tendermint/SignatureEd25519",
              "value": "sutgWf+MtiMPeMHOddTrOR2pTPbSfuABtsBwfevq6Jd1N+d31rdn/hX751BHP/gWosqACDL36/uuUu7mme26Ag=="
            }
          },
          {
            "validator_address": "1E9CE94FD0BA5CFEB901F90BC658D64D85B134D2",
            "validator_index": "10",
            "height": "19730",
            "round": "1",
            "timestamp": "2018-07-31T14:33:40.404510093Z",
            "type": 2,
            "block_id": {
              "hash": "868BA5D6678ABBB82F0C38D2B2408152311CFB0F",
              "parts": {
                "total": "1",
                "hash": "D563A4AAFEB2792892E24DCCC6B3C109E8198693"
              }
            },
            "signature": {
              "type": "tendermint/SignatureEd25519",
              "value": "HfFB4Q1AElHzcLFDVtHkixIcWHetg6rJLGqwNI/Y6Y2dTBiBwiOHSOd8mBD9OlseRYFd1J2Sx6KDsyBW67mJAg=="
            }
          },
          {
            "validator_address": "1ECD8C5FE1341D74CDC633A245DD56858DE2F9A2",
            "validator_index": "11",
            "height": "19730",
            "round": "1",
            "timestamp": "2018-07-31T14:33:40.569489222Z",
            "type": 2,
            "block_id": {
              "hash": "868BA5D6678ABBB82F0C38D2B2408152311CFB0F",
              "parts": {
                "total": "1",
                "hash": "D563A4AAFEB2792892E24DCCC6B3C109E8198693"
              }
            },
            "signature": {
              "type": "tendermint/SignatureEd25519",
              "value": "n6VUOT5Q+/P2HnMkPjCenUB8kVJaiDTCQnDL5YnhqOroKT8W3ImeI1OjK7bUrUlrqXq5OODhc+tKTRzvHRFnDg=="
            }
          },
          {
            "validator_address": "1F3A68CAAD483768AA2BF667DEF10F7104C89928",
            "validator_index": "12",
            "height": "19730",
            "round": "1",
            "timestamp": "2018-07-31T14:33:40.406865881Z",
            "type": 2,
            "block_id": {
              "hash": "868BA5D6678ABBB82F0C38D2B2408152311CFB0F",
              "parts": {
                "total": "1",
                "hash": "D563A4AAFEB2792892E24DCCC6B3C109E8198693"
              }
            },
            "signature": {
              "type": "tendermint/SignatureEd25519",
              "value": "7vNZhjHyMYmKMB2X+VqY2vcvLQfofY/fojUJKTbzgR7XJMDrIaFcjKZZq0maYW1lRGVgn+feMknVxW1IobNuAA=="
            }
          },
          {
            "validator_address": "23897586D68E2AC1C78E0EF5BB5DF5C8EAB18F50",
            "validator_index": "13",
            "height": "19730",
            "round": "1",
            "timestamp": "2018-07-31T14:33:40.470769094Z",
            "type": 2,
            "block_id": {
              "hash": "868BA5D6678ABBB82F0C38D2B2408152311CFB0F",
              "parts": {
                "total": "1",
                "hash": "D563A4AAFEB2792892E24DCCC6B3C109E8198693"
              }
            },
            "signature": {
              "type": "tendermint/SignatureEd25519",
              "value": "DQtc4djrkAKZIG/qIkx6fB4WOQF1DEzekPAcchm3xJw+3eTI/J5TAemZ5YyIdi0fXecN32poEbClSbZUIUJlBQ=="
            }
          },
          {
            "validator_address": "28770D17E8530825E7310A0659308654B7EC9682",
            "validator_index": "14",
            "height": "19730",
            "round": "1",
            "timestamp": "2018-07-31T14:33:40.414613774Z",
            "type": 2,
            "block_id": {
              "hash": "868BA5D6678ABBB82F0C38D2B2408152311CFB0F",
              "parts": {
                "total": "1",
                "hash": "D563A4AAFEB2792892E24DCCC6B3C109E8198693"
              }
            },
            "signature": {
              "type": "tendermint/SignatureEd25519",
              "value": "2Emg9CCG1IbIl/pkTdoSZaV1PhMkCoK+STUYgDD4HSHlVXHYPCrtJ5yRvAeAxPUvxcb+S0jbrGNpYXGGvlziAA=="
            }
          },
          {
            "validator_address": "2A92EC3C642140202298D0E245095E0ECFC25228",
            "validator_index": "15",
            "height": "19730",
            "round": "1",
            "timestamp": "2018-07-31T14:33:40.442989507Z",
            "type": 2,
            "block_id": {
              "hash": "868BA5D6678ABBB82F0C38D2B2408152311CFB0F",
              "parts": {
                "total": "1",
                "hash": "D563A4AAFEB2792892E24DCCC6B3C109E8198693"
              }
            },
            "signature": {
              "type": "tendermint/SignatureEd25519",
              "value": "8N9ES7/HG5Botg6fXfu0D8tt0NJh9tZ79VTktOQvj1O7Yhh9A3sdLfKe1oB2atZgPqTtSCXKtHomyZbTG2KBCA=="
            }
          },
          {
            "validator_address": "33412C9A69C60CB0FAA24A5C5B3A906DE24B47C2",
            "validator_index": "16",
            "height": "19730",
            "round": "1",
            "timestamp": "2018-07-31T14:33:40.379398286Z",
            "type": 2,
            "block_id": {
              "hash": "868BA5D6678ABBB82F0C38D2B2408152311CFB0F",
              "parts": {
                "total": "1",
                "hash": "D563A4AAFEB2792892E24DCCC6B3C109E8198693"
              }
            },
            "signature": {
              "type": "tendermint/SignatureEd25519",
              "value": "w3eiGVjwSzD4V3ws2U7EQ69OWyuILi1d/9a2RKAJ/W4NjnMBpyA1AX6H0tqCRlleNGsw4I+NP1bEqD51GkoBBQ=="
            }
          },
          {
            "validator_address": "3383EF2A13B160C41947AC30434B274B2FAF0617",
            "validator_index": "17",
            "height": "19730",
            "round": "1",
            "timestamp": "2018-07-31T14:33:40.472033198Z",
            "type": 2,
            "block_id": {
              "hash": "868BA5D6678ABBB82F0C38D2B2408152311CFB0F",
              "parts": {
                "total": "1",
                "hash": "D563A4AAFEB2792892E24DCCC6B3C109E8198693"
              }
            },
            "signature": {
              "type": "tendermint/SignatureEd25519",
              "value": "7LZKh2j9TR/vA4ILwGCYzYOzcp8Wqd5r40nOrUzSl0+NdblhjiwRYpw+Lc1KIoOlXQmZ07t13w2PlveL6xByCQ=="
            }
          },
          {
            "validator_address": "36E9B7FAEC964F97D84C028ED62493E373AD0B38",
            "validator_index": "18",
            "height": "19730",
            "round": "1",
            "timestamp": "2018-07-31T14:33:40.473573062Z",
            "type": 2,
            "block_id": {
              "hash": "868BA5D6678ABBB82F0C38D2B2408152311CFB0F",
              "parts": {
                "total": "1",
                "hash": "D563A4AAFEB2792892E24DCCC6B3C109E8198693"
              }
            },
            "signature": {
              "type": "tendermint/SignatureEd25519",
              "value": "JWkbfi7EZnHAhRQdtEV6BvQSDC/BbHcSAr0ZkZ+NMhB2EsDYHXVANYT5qxXi8IX+g+S6jEIWK2uMK9M7NF5GBg=="
            }
          },
          {
            "validator_address": "38A8D85D36BEA2E5FCF8A1E778F53628E450EF13",
            "validator_index": "19",
            "height": "19730",
            "round": "1",
            "timestamp": "2018-07-31T14:33:40.557130438Z",
            "type": 2,
            "block_id": {
              "hash": "868BA5D6678ABBB82F0C38D2B2408152311CFB0F",
              "parts": {
                "total": "1",
                "hash": "D563A4AAFEB2792892E24DCCC6B3C109E8198693"
              }
            },
            "signature": {
              "type": "tendermint/SignatureEd25519",
              "value": "5wLy8Zcq/8/v27GXLbubDnIzmSbpwDGbj2Km7cO64O5Y+SsWEHekKkrXvva2upep+83KwkSx5tXjpDQGGO6wAQ=="
            }
          },
          {
            "validator_address": "39DFDA0C5DB84B269642188B23253508537798E6",
            "validator_index": "20",
            "height": "19730",
            "round": "1",
            "timestamp": "2018-07-31T14:33:40.466889234Z",
            "type": 2,
            "block_id": {
              "hash": "868BA5D6678ABBB82F0C38D2B2408152311CFB0F",
              "parts": {
                "total": "1",
                "hash": "D563A4AAFEB2792892E24DCCC6B3C109E8198693"
              }
            },
            "signature": {
              "type": "tendermint/SignatureEd25519",
              "value": "YL35m8GB8DzaTEiyWO75KE5RHHGdQsAgywtZMERFVHbLgD8lOQoDRFFmkFWYyCNuGrtTE3tO6R1X3EnOJsTFDA=="
            }
          },
          {
            "validator_address": "3AC99B708404452366E0953A4BE849226DC86CBC",
            "validator_index": "21",
            "height": "19730",
            "round": "1",
            "timestamp": "2018-07-31T14:33:40.512288215Z",
            "type": 2,
            "block_id": {
              "hash": "868BA5D6678ABBB82F0C38D2B2408152311CFB0F",
              "parts": {
                "total": "1",
                "hash": "D563A4AAFEB2792892E24DCCC6B3C109E8198693"
              }
            },
            "signature": {
              "type": "tendermint/SignatureEd25519",
              "value": "WoEWnOHYNF70GKMBThrdhnqMnwNnjvKbVXyrnGGhRpUuWMFGlLRBhL6sJelbwqvHDxQL2bAPbHckFpdhTSR7Dg=="
            }
          },
          {
            "validator_address": "3DCB822A10ED319EC7C4393D8E3FD4A41B15AAF2",
            "validator_index": "22",
            "height": "19730",
            "round": "1",
            "timestamp": "2018-07-31T14:33:40.445760353Z",
            "type": 2,
            "block_id": {
              "hash": "868BA5D6678ABBB82F0C38D2B2408152311CFB0F",
              "parts": {
                "total": "1",
                "hash": "D563A4AAFEB2792892E24DCCC6B3C109E8198693"
              }
            },
            "signature": {
              "type": "tendermint/SignatureEd25519",
              "value": "tJiPc1qZ8kn+CP1cvgZCLVzZWL7uHQ9b7TlazwiMmRrR5Xf8siT5ZRg9uRcEczVbVUDV7gi+Dg4/WELOp/f/DQ=="
            }
          },
          {
            "validator_address": "3E899BA36A93C7370347BD5FE85909F2ECD93F8C",
            "validator_index": "23",
            "height": "19730",
            "round": "1",
            "timestamp": "2018-07-31T14:33:40.454521192Z",
            "type": 2,
            "block_id": {
              "hash": "868BA5D6678ABBB82F0C38D2B2408152311CFB0F",
              "parts": {
                "total": "1",
                "hash": "D563A4AAFEB2792892E24DCCC6B3C109E8198693"
              }
            },
            "signature": {
              "type": "tendermint/SignatureEd25519",
              "value": "/Q2Bs2oc/bdWnkQcpGeW9sVA8ynNvQuVCEAgBuGJv0GOhCRNVwZXHpDZOosOiRPwZePEIZFKJBD+TALpB+tdAQ=="
            }
          },
          {
            "validator_address": "41CAB2E29E7D0F2282E3275938F188FF9386B84C",
            "validator_index": "24",
            "height": "19730",
            "round": "1",
            "timestamp": "2018-07-31T14:33:40.483625313Z",
            "type": 2,
            "block_id": {
              "hash": "868BA5D6678ABBB82F0C38D2B2408152311CFB0F",
              "parts": {
                "total": "1",
                "hash": "D563A4AAFEB2792892E24DCCC6B3C109E8198693"
              }
            },
            "signature": {
              "type": "tendermint/SignatureEd25519",
              "value": "+xZfOt2CzXw5GW2HIeQv1uhJOrX9x9hICsg41buuA55volZnQpCP52znOahu+JvM334rVcScGarfZv3OS5DEBA=="
            }
          },
          {
            "validator_address": "462B656869DB02A8FD1077E255F8CC7401DC37C6",
            "validator_index": "25",
            "height": "19730",
            "round": "1",
            "timestamp": "2018-07-31T14:33:40.391018505Z",
            "type": 2,
            "block_id": {
              "hash": "868BA5D6678ABBB82F0C38D2B2408152311CFB0F",
              "parts": {
                "total": "1",
                "hash": "D563A4AAFEB2792892E24DCCC6B3C109E8198693"
              }
            },
            "signature": {
              "type": "tendermint/SignatureEd25519",
              "value": "v/sq2pzqKhmc8c8H3V/1oaWmGrNfr5yHwyNfuyc26NA0fHCk3PES5doc6M/JSU+sbrHQyj23lpDKi113GK7XDw=="
            }
          },
          {
            "validator_address": "48E5118163E5442068A1B5A42D2EEDBB75724935",
            "validator_index": "26",
            "height": "19730",
            "round": "1",
            "timestamp": "2018-07-31T14:33:40.560834034Z",
            "type": 2,
            "block_id": {
              "hash": "868BA5D6678ABBB82F0C38D2B2408152311CFB0F",
              "parts": {
                "total": "1",
                "hash": "D563A4AAFEB2792892E24DCCC6B3C109E8198693"
              }
            },
            "signature": {
              "type": "tendermint/SignatureEd25519",
              "value": "P9W3djZBidE97s/2beqmsk7DX3VJSom4hYWuLfcn67GbjX9A3bUq1t0zxt9QUmtgudn1tVbxuUr0wgNYlYuDDA=="
            }
          },
          {
            "validator_address": "4944F8BBBB5303E17BC0607DF332320EDBC750EA",
            "validator_index": "27",
            "height": "19730",
            "round": "1",
            "timestamp": "2018-07-31T14:33:40.39926935Z",
            "type": 2,
            "block_id": {
              "hash": "868BA5D6678ABBB82F0C38D2B2408152311CFB0F",
              "parts": {
                "total": "1",
                "hash": "D563A4AAFEB2792892E24DCCC6B3C109E8198693"
              }
            },
            "signature": {
              "type": "tendermint/SignatureEd25519",
              "value": "cjcaDCU7eUTMtJU9jbbUl+qB/4BeFaDFyllTgQYE9Jevb4v49+rDmYmWgYfqEiahJnMRBM1b+fSiChx8wbQkCw=="
            }
          },
          {
            "validator_address": "49841599DE675157CBE1E7D6B35BF8FFC23BD5CB",
            "validator_index": "28",
            "height": "19730",
            "round": "1",
            "timestamp": "2018-07-31T14:33:40.385605126Z",
            "type": 2,
            "block_id": {
              "hash": "868BA5D6678ABBB82F0C38D2B2408152311CFB0F",
              "parts": {
                "total": "1",
                "hash": "D563A4AAFEB2792892E24DCCC6B3C109E8198693"
              }
            },
            "signature": {
              "type": "tendermint/SignatureEd25519",
              "value": "Xj+BThSap5eAK1wnUtj6blhCFMs1HPTojvaYaW7C2g6FqPB4pubof2NKd61bZHHVOHUbVC2jbmXACkHu1v1XDw=="
            }
          },
          {
            "validator_address": "5104F488EA6B1E2C33CBDA3C18389C88104DBC72",
            "validator_index": "29",
            "height": "19730",
            "round": "1",
            "timestamp": "2018-07-31T14:33:40.391406194Z",
            "type": 2,
            "block_id": {
              "hash": "868BA5D6678ABBB82F0C38D2B2408152311CFB0F",
              "parts": {
                "total": "1",
                "hash": "D563A4AAFEB2792892E24DCCC6B3C109E8198693"
              }
            },
            "signature": {
              "type": "tendermint/SignatureEd25519",
              "value": "1S1byRVffrKiJOkFTZv0DJrhefg43zf4BoEfRKsMAvcYQ3wdXXgt1qXkVe4BoIG/SrwvfMJ9uap4oYZs15FUBQ=="
            }
          },
          {
            "validator_address": "51386C2CF9556821D114D7E4945806802BADB28D",
            "validator_index": "30",
            "height": "19730",
            "round": "1",
            "timestamp": "2018-07-31T14:33:40.433570779Z",
            "type": 2,
            "block_id": {
              "hash": "868BA5D6678ABBB82F0C38D2B2408152311CFB0F",
              "parts": {
                "total": "1",
                "hash": "D563A4AAFEB2792892E24DCCC6B3C109E8198693"
              }
            },
            "signature": {
              "type": "tendermint/SignatureEd25519",
              "value": "c/uzQi9dLziaL0mQfsB1PX/Vt6D3pQt8Uohl5XcTFdsp8wG/fmxKAn/CqZPIue8M4l47h5FrRVVednklXGmqDQ=="
            }
          },
          {
            "validator_address": "543564ECA3AFEFADC73EE8591AAC3A96F079BC8A",
            "validator_index": "31",
            "height": "19730",
            "round": "1",
            "timestamp": "2018-07-31T14:33:40.357511478Z",
            "type": 2,
            "block_id": {
              "hash": "868BA5D6678ABBB82F0C38D2B2408152311CFB0F",
              "parts": {
                "total": "1",
                "hash": "D563A4AAFEB2792892E24DCCC6B3C109E8198693"
              }
            },
            "signature": {
              "type": "tendermint/SignatureEd25519",
              "value": "KrFSK/zhh4ZA6AlA0oq18upubb/RBDFunk1fT0XjrXT5je0VzHP/1WyQ77ek2z+f1ooH98LZVneVFQRRAbFtAw=="
            }
          },
          {
            "validator_address": "55D67B1A6DC13E96F8754A5A42EABC20F7F86664",
            "validator_index": "32",
            "height": "19730",
            "round": "1",
            "timestamp": "2018-07-31T14:33:40.39492955Z",
            "type": 2,
            "block_id": {
              "hash": "868BA5D6678ABBB82F0C38D2B2408152311CFB0F",
              "parts": {
                "total": "1",
                "hash": "D563A4AAFEB2792892E24DCCC6B3C109E8198693"
              }
            },
            "signature": {
              "type": "tendermint/SignatureEd25519",
              "value": "uvxPLV5gNExymdN03h3hCS9UkkQIurzS8F02h44YTZzWncwLU4x5MZUDNo0x/aPIUGwVcMxZwOkJ860oZRqCBw=="
            }
          },
          {
            "validator_address": "570B6A755ED339EAC56BB3390A48069F6AC9449B",
            "validator_index": "33",
            "height": "19730",
            "round": "1",
            "timestamp": "2018-07-31T14:33:44.03126299Z",
            "type": 2,
            "block_id": {
              "hash": "868BA5D6678ABBB82F0C38D2B2408152311CFB0F",
              "parts": {
                "total": "1",
                "hash": "D563A4AAFEB2792892E24DCCC6B3C109E8198693"
              }
            },
            "signature": {
              "type": "tendermint/SignatureEd25519",
              "value": "cPP16GLSa/FHkP16y/nRPA465zgyJUdSP+vMWE32ZT49bjsO4n+fkItOYIZgxc2HHpyBzYdSrd1AkRjMdPr1DA=="
            }
          },
          {
            "validator_address": "5BDF8EA41B1835FBAD865B181A2A4B23F511B5E4",
            "validator_index": "34",
            "height": "19730",
            "round": "1",
            "timestamp": "2018-07-31T14:33:40.391820053Z",
            "type": 2,
            "block_id": {
              "hash": "868BA5D6678ABBB82F0C38D2B2408152311CFB0F",
              "parts": {
                "total": "1",
                "hash": "D563A4AAFEB2792892E24DCCC6B3C109E8198693"
              }
            },
            "signature": {
              "type": "tendermint/SignatureEd25519",
              "value": "Mbdx+FS7+H7xONZoPcDmIaQeP3X0Y+qdeVZH7UIfc3jJJGL6BRjJolWCpRigNFBdNad+uiGzHH63EL7v0uy6BA=="
            }
          },
          {
            "validator_address": "60229E2E273297FE00219E46DFFB8F76844CDEF9",
            "validator_index": "35",
            "height": "19730",
            "round": "1",
            "timestamp": "2018-07-31T14:33:39.183969059Z",
            "type": 2,
            "block_id": {
              "hash": "868BA5D6678ABBB82F0C38D2B2408152311CFB0F",
              "parts": {
                "total": "1",
                "hash": "D563A4AAFEB2792892E24DCCC6B3C109E8198693"
              }
            },
            "signature": {
              "type": "tendermint/SignatureEd25519",
              "value": "YlpVq/C+u3VYn1CwrvbvPOQCas5GEqPNUi294yQcRYdD1gnD9vr1q8QYBS94FeAKoCW/YleEVe9Sa3zEtRfvBA=="
            }
          },
          {
            "validator_address": "62410D6D1CD98278136E4D0738AA0EA273CDFC54",
            "validator_index": "36",
            "height": "19730",
            "round": "1",
            "timestamp": "2018-07-31T14:33:40.415371253Z",
            "type": 2,
            "block_id": {
              "hash": "868BA5D6678ABBB82F0C38D2B2408152311CFB0F",
              "parts": {
                "total": "1",
                "hash": "D563A4AAFEB2792892E24DCCC6B3C109E8198693"
              }
            },
            "signature": {
              "type": "tendermint/SignatureEd25519",
              "value": "r8twdKWf2pVYlvy09Qr+hdN4nGtHlBJj2jNhT4ZHMy/Q/gl8qkP5pf9JaRUF3CXjonNYfbfAt8qMW8kk5FPqAg=="
            }
          },
          {
            "validator_address": "632F5C139A5A9DFBFE5111DEE29FCFB6157207DC",
            "validator_index": "37",
            "height": "19730",
            "round": "1",
            "timestamp": "2018-07-31T14:33:40.401875309Z",
            "type": 2,
            "block_id": {
              "hash": "868BA5D6678ABBB82F0C38D2B2408152311CFB0F",
              "parts": {
                "total": "1",
                "hash": "D563A4AAFEB2792892E24DCCC6B3C109E8198693"
              }
            },
            "signature": {
              "type": "tendermint/SignatureEd25519",
              "value": "51f5dns+rHuc+OwX8J99PZgzzqpDz/6YCYVfDzI+07b28//c7kcqJRYif+rzSqIhv8frVLQG+9Y3KnMwQ90GDg=="
            }
          },
          {
            "validator_address": "64F57F8E796A9B7B590C1EFA4123988C86631D39",
            "validator_index": "38",
            "height": "19730",
            "round": "1",
            "timestamp": "2018-07-31T14:33:40.377893226Z",
            "type": 2,
            "block_id": {
              "hash": "868BA5D6678ABBB82F0C38D2B2408152311CFB0F",
              "parts": {
                "total": "1",
                "hash": "D563A4AAFEB2792892E24DCCC6B3C109E8198693"
              }
            },
            "signature": {
              "type": "tendermint/SignatureEd25519",
              "value": "r2vxUxIGf2d0ma2pUl5idUdklgzj7KSblW9QJshu/RwiCXvna81B8mzNLFqk9U2BXwwQ1ypnHm5Hp1R0or4xDg=="
            }
          },
          {
            "validator_address": "69D99B2C66043ACBEAA8447525C356AFC6408E0C",
            "validator_index": "39",
            "height": "19730",
            "round": "1",
            "timestamp": "2018-07-31T14:33:40.427146605Z",
            "type": 2,
            "block_id": {
              "hash": "868BA5D6678ABBB82F0C38D2B2408152311CFB0F",
              "parts": {
                "total": "1",
                "hash": "D563A4AAFEB2792892E24DCCC6B3C109E8198693"
              }
            },
            "signature": {
              "type": "tendermint/SignatureEd25519",
              "value": "SOHDa4jIRtMA2pUVUIVTal+Dj0hxCnWlU7Lb6/ExEyabpyn6Rs/vwpol4vJwvimnybGTuZoaZzYMVBpVwsdhCQ=="
            }
          },
          {
            "validator_address": "69EDADFA4A803E9DBF548C900D4A465E7D154262",
            "validator_index": "40",
            "height": "19730",
            "round": "1",
            "timestamp": "2018-07-31T14:33:40.526670862Z",
            "type": 2,
            "block_id": {
              "hash": "868BA5D6678ABBB82F0C38D2B2408152311CFB0F",
              "parts": {
                "total": "1",
                "hash": "D563A4AAFEB2792892E24DCCC6B3C109E8198693"
              }
            },
            "signature": {
              "type": "tendermint/SignatureEd25519",
              "value": "EaUajMTPvj2VreXg/Q0PnSGmEZH0c/saNq/j31+Ctg718HZYH+i/F44SOY7Ahqh5zj0uklFNLebABmGY4QqdCA=="
            }
          },
          {
            "validator_address": "6D3AD380E398D8592B03AA124BAFED5F125DF863",
            "validator_index": "41",
            "height": "19730",
            "round": "1",
            "timestamp": "2018-07-31T14:32:38.514503164Z",
            "type": 2,
            "block_id": {
              "hash": "868BA5D6678ABBB82F0C38D2B2408152311CFB0F",
              "parts": {
                "total": "1",
                "hash": "D563A4AAFEB2792892E24DCCC6B3C109E8198693"
              }
            },
            "signature": {
              "type": "tendermint/SignatureEd25519",
              "value": "W3v+3MSJlS0BNIdfeB+o8mzUIHhz4AnjBDXU4dDFJtb0qOPJCw3Xt57rEZV0rRsqv2dTbRzbA/qJx1OGNOrmBA=="
            }
          },
          {
            "validator_address": "6F6C93B8BF3495063FEC9B5C771158607F4AE9D6",
            "validator_index": "42",
            "height": "19730",
            "round": "1",
            "timestamp": "2018-07-31T14:33:40.511827045Z",
            "type": 2,
            "block_id": {
              "hash": "868BA5D6678ABBB82F0C38D2B2408152311CFB0F",
              "parts": {
                "total": "1",
                "hash": "D563A4AAFEB2792892E24DCCC6B3C109E8198693"
              }
            },
            "signature": {
              "type": "tendermint/SignatureEd25519",
              "value": "uX7/k+UMKJEMIu+Ou3QQTfmeW6oy/9sGT+dKRESEIbhW67QgwXghB2vOVmh792q5LZj4FBvQr7E+BYdT6iF/Cg=="
            }
          },
          {
            "validator_address": "732CEEF54C374DDC6ADECBFD707AEFD07FEDC143",
            "validator_index": "43",
            "height": "19730",
            "round": "1",
            "timestamp": "2018-07-31T14:33:40.584890686Z",
            "type": 2,
            "block_id": {
              "hash": "868BA5D6678ABBB82F0C38D2B2408152311CFB0F",
              "parts": {
                "total": "1",
                "hash": "D563A4AAFEB2792892E24DCCC6B3C109E8198693"
              }
            },
            "signature": {
              "type": "tendermint/SignatureEd25519",
              "value": "YYItmBs/eOK8YaISHtPHn+wb6UYShEhbPx5hZtL2h5yNLIVpb5qMsEwb0dtWU+RKtZwghfxP2PZdkm1RRmnwDg=="
            }
          },
          {
            "validator_address": "7393D691BFAE9661918C09932D4D9060AB40939B",
            "validator_index": "44",
            "height": "19730",
            "round": "1",
            "timestamp": "2018-07-31T14:33:40.545365277Z",
            "type": 2,
            "block_id": {
              "hash": "868BA5D6678ABBB82F0C38D2B2408152311CFB0F",
              "parts": {
                "total": "1",
                "hash": "D563A4AAFEB2792892E24DCCC6B3C109E8198693"
              }
            },
            "signature": {
              "type": "tendermint/SignatureEd25519",
              "value": "GFdcc4p7mkZn77u/W9qYuqVrThSmrcFN7+E5pT1fuu4v21Fe2rJ4PFLF9NaVcA9WfyQ2tEoLHfuNVBsJlj6pBg=="
            }
          },
          {
            "validator_address": "751E43437224E8BB6D1569B3E2B2616B6E7F4397",
            "validator_index": "45",
            "height": "19730",
            "round": "1",
            "timestamp": "2018-07-31T14:33:40.44440171Z",
            "type": 2,
            "block_id": {
              "hash": "868BA5D6678ABBB82F0C38D2B2408152311CFB0F",
              "parts": {
                "total": "1",
                "hash": "D563A4AAFEB2792892E24DCCC6B3C109E8198693"
              }
            },
            "signature": {
              "type": "tendermint/SignatureEd25519",
              "value": "aoPENlNt9cvWd02mv0EhSpLkonND8W4LLBAftQvtzpW+UR4gJIrWsukt00lkAy45yXyw2ERoDW20R5nEfYSrDQ=="
            }
          },
          {
            "validator_address": "7EB7593F519F1180C7E872D0494611464EDF03AE",
            "validator_index": "46",
            "height": "19730",
            "round": "1",
            "timestamp": "2018-07-31T14:33:40.540235986Z",
            "type": 2,
            "block_id": {
              "hash": "868BA5D6678ABBB82F0C38D2B2408152311CFB0F",
              "parts": {
                "total": "1",
                "hash": "D563A4AAFEB2792892E24DCCC6B3C109E8198693"
              }
            },
            "signature": {
              "type": "tendermint/SignatureEd25519",
              "value": "eUTSiovbnpebWCL6ryYuL40A2Z3gyO1of7LKv5C2LuHUjfxRPB7VzK8UnjwW1bzvJhS60QxMwAsrwV1ynDt8DQ=="
            }
          },
          {
            "validator_address": "807CF675BA8479FC4FEC1047215DF07970040F1F",
            "validator_index": "47",
            "height": "19730",
            "round": "1",
            "timestamp": "2018-07-31T14:33:40.740629047Z",
            "type": 2,
            "block_id": {
              "hash": "868BA5D6678ABBB82F0C38D2B2408152311CFB0F",
              "parts": {
                "total": "1",
                "hash": "D563A4AAFEB2792892E24DCCC6B3C109E8198693"
              }
            },
            "signature": {
              "type": "tendermint/SignatureEd25519",
              "value": "ri0l6iKoyZIR14MOWnzxL8zqDOXJdHoxjm2X7dEEtzeff8k3cwx7+O9iIsTFTKC4V2FvPCr6qKuIKo1wCsFSAw=="
            }
          },
          {
            "validator_address": "8126192EA66E8ADE6B36924534721366B987A4C1",
            "validator_index": "48",
            "height": "19730",
            "round": "1",
            "timestamp": "2018-07-31T14:33:40.454326514Z",
            "type": 2,
            "block_id": {
              "hash": "868BA5D6678ABBB82F0C38D2B2408152311CFB0F",
              "parts": {
                "total": "1",
                "hash": "D563A4AAFEB2792892E24DCCC6B3C109E8198693"
              }
            },
            "signature": {
              "type": "tendermint/SignatureEd25519",
              "value": "WEQk74sRcM0Xo61Yfr9AXv0srysGmURe3Lhz/9R8384S81JXqxd5OmMOoYf2lFtHYLTkRqCzgAVsMssIFxZsDA=="
            }
          },
          {
            "validator_address": "83AB321E012C57746689FED3A6064DF331F81007",
            "validator_index": "49",
            "height": "19730",
            "round": "1",
            "timestamp": "2018-07-31T14:33:40.472911921Z",
            "type": 2,
            "block_id": {
              "hash": "868BA5D6678ABBB82F0C38D2B2408152311CFB0F",
              "parts": {
                "total": "1",
                "hash": "D563A4AAFEB2792892E24DCCC6B3C109E8198693"
              }
            },
            "signature": {
              "type": "tendermint/SignatureEd25519",
              "value": "cBoxrlh8NquaPMzwtT/RvOT+RKq2DlrWA4YG8iZs3wFj2wz/lXOBWI+Bvb6WBRrfr8SnpVSWQ7ch3wev1hWDBA=="
            }
          },
          {
            "validator_address": "83BB1B88D3DBB20AD845FECA07749EBD87D3754D",
            "validator_index": "50",
            "height": "19730",
            "round": "1",
            "timestamp": "2018-07-31T14:33:40.541009604Z",
            "type": 2,
            "block_id": {
              "hash": "868BA5D6678ABBB82F0C38D2B2408152311CFB0F",
              "parts": {
                "total": "1",
                "hash": "D563A4AAFEB2792892E24DCCC6B3C109E8198693"
              }
            },
            "signature": {
              "type": "tendermint/SignatureEd25519",
              "value": "1S8XO22Ognam+fc2R6lSiq1sIFHOjf84qz7JULoaqfRznizWq+jfnn4rhTAjjmEjDX5s2xpXwYby3iAsKPZRAw=="
            }
          },
          {
            "validator_address": "8F06FE1FD042683C426137FBC4BBAA4288924217",
            "validator_index": "51",
            "height": "19730",
            "round": "1",
            "timestamp": "2018-07-31T14:33:40.482275068Z",
            "type": 2,
            "block_id": {
              "hash": "868BA5D6678ABBB82F0C38D2B2408152311CFB0F",
              "parts": {
                "total": "1",
                "hash": "D563A4AAFEB2792892E24DCCC6B3C109E8198693"
              }
            },
            "signature": {
              "type": "tendermint/SignatureEd25519",
              "value": "oT7RnidWXOamPZAjyaRG33pnHzbpZKsKzzgzz9NVJHFxeDx1KkoCev7nYFcJiP+I1AMoajGoIMw/5s7uWMm+Dw=="
            }
          },
          {
            "validator_address": "8F45617BF45B10A3F8283DEBDB35E38C7CA43237",
            "validator_index": "52",
            "height": "19730",
            "round": "1",
            "timestamp": "2018-07-31T14:33:40.418635935Z",
            "type": 2,
            "block_id": {
              "hash": "868BA5D6678ABBB82F0C38D2B2408152311CFB0F",
              "parts": {
                "total": "1",
                "hash": "D563A4AAFEB2792892E24DCCC6B3C109E8198693"
              }
            },
            "signature": {
              "type": "tendermint/SignatureEd25519",
              "value": "iD8ZwdZLVPZlcwEI0Cf+Hd9tGwY6n+H8zQTA5BoOd84V2q6tS04dGLUoyLerdXvzfCVojmQUsOfHlWQZcKK3BA=="
            }
          },
          {
            "validator_address": "95980831E186F2540F6E9FB6C8E74DE2401405AC",
            "validator_index": "53",
            "height": "19730",
            "round": "1",
            "timestamp": "2018-07-31T14:33:40.385179917Z",
            "type": 2,
            "block_id": {
              "hash": "868BA5D6678ABBB82F0C38D2B2408152311CFB0F",
              "parts": {
                "total": "1",
                "hash": "D563A4AAFEB2792892E24DCCC6B3C109E8198693"
              }
            },
            "signature": {
              "type": "tendermint/SignatureEd25519",
              "value": "4Zj631cxURYCP//5ai3qR29gNUwv38rT22pLq1QGKlFgMsRSqL0iKvtjCCrip0seTkqhMEH9DkodQdUnIkSzBw=="
            }
          },
          {
            "validator_address": "95FAFBC1E0579C83D290A063020CE87C5334BD9B",
            "validator_index": "54",
            "height": "19730",
            "round": "1",
            "timestamp": "2018-07-31T14:33:40.414788618Z",
            "type": 2,
            "block_id": {
              "hash": "868BA5D6678ABBB82F0C38D2B2408152311CFB0F",
              "parts": {
                "total": "1",
                "hash": "D563A4AAFEB2792892E24DCCC6B3C109E8198693"
              }
            },
            "signature": {
              "type": "tendermint/SignatureEd25519",
              "value": "4nDPg3+m+CwDzgheM1/j705CDEOB0652L2GHNTcdbGx+r4efQ/3R19cdAjj8IGm86uin0TOXrOe3iJBtjQG3DA=="
            }
          },
          {
            "validator_address": "96BDE45EC52606CF5CB59853097871AD60680549",
            "validator_index": "55",
            "height": "19730",
            "round": "1",
            "timestamp": "2018-07-31T14:33:40.445496875Z",
            "type": 2,
            "block_id": {
              "hash": "868BA5D6678ABBB82F0C38D2B2408152311CFB0F",
              "parts": {
                "total": "1",
                "hash": "D563A4AAFEB2792892E24DCCC6B3C109E8198693"
              }
            },
            "signature": {
              "type": "tendermint/SignatureEd25519",
              "value": "niA0JTBiRKlEM8YqM42/B6CLZE4EORgS9vufzUNRtuLSgiUBvSqzbsPTxRnEFSqO3PEKT1kwu/pX9obSjCGiDQ=="
            }
          },
          {
            "validator_address": "970CD321881185BF83DB2923C321B0E75FDBB2B8",
            "validator_index": "56",
            "height": "19730",
            "round": "1",
            "timestamp": "2018-07-31T14:33:40.514665578Z",
            "type": 2,
            "block_id": {
              "hash": "868BA5D6678ABBB82F0C38D2B2408152311CFB0F",
              "parts": {
                "total": "1",
                "hash": "D563A4AAFEB2792892E24DCCC6B3C109E8198693"
              }
            },
            "signature": {
              "type": "tendermint/SignatureEd25519",
              "value": "HO2wX1wfwDQ+Lo48EQjow7cQPoqZVCQbUghCeLcItzCLnigtRDYtQAwPCMCHt2RnUTGouBb3AVw3dUR/rCmJCg=="
            }
          },
          {
            "validator_address": "97DBB3D4B3D6C29287244864448F651DD5B07390",
            "validator_index": "57",
            "height": "19730",
            "round": "1",
            "timestamp": "2018-07-31T14:33:40.528430948Z",
            "type": 2,
            "block_id": {
              "hash": "868BA5D6678ABBB82F0C38D2B2408152311CFB0F",
              "parts": {
                "total": "1",
                "hash": "D563A4AAFEB2792892E24DCCC6B3C109E8198693"
              }
            },
            "signature": {
              "type": "tendermint/SignatureEd25519",
              "value": "GE6q6tS80+g2GL2kf/UErBHdECxbE09ToubxhRu/GDINrOKu9kswNEUGNw8xlDBIVEaC9UH0lP17Zc8w/JeaAA=="
            }
          },
          {
            "validator_address": "9C29C9B76D27586E4D9AD2AED0E943162645E55C",
            "validator_index": "58",
            "height": "19730",
            "round": "1",
            "timestamp": "2018-07-31T14:33:40.353652315Z",
            "type": 2,
            "block_id": {
              "hash": "868BA5D6678ABBB82F0C38D2B2408152311CFB0F",
              "parts": {
                "total": "1",
                "hash": "D563A4AAFEB2792892E24DCCC6B3C109E8198693"
              }
            },
            "signature": {
              "type": "tendermint/SignatureEd25519",
              "value": "qYtvo8uD0dyBx8hbzfR/HLPfDOb33S7hvN4AQjTCq4vsM9lX6+TFC8lfX9veOWVaobsrP/l72M0vR6AR7bybBA=="
            }
          },
          {
            "validator_address": "9D93AD02FE1BD7E76B9E58D7EB461088EAD011E5",
            "validator_index": "59",
            "height": "19730",
            "round": "1",
            "timestamp": "2018-07-31T14:33:40.397061471Z",
            "type": 2,
            "block_id": {
              "hash": "868BA5D6678ABBB82F0C38D2B2408152311CFB0F",
              "parts": {
                "total": "1",
                "hash": "D563A4AAFEB2792892E24DCCC6B3C109E8198693"
              }
            },
            "signature": {
              "type": "tendermint/SignatureEd25519",
              "value": "8eDW9vOYSXDeQFJm5ACNvigAs3UOiRRGu2XTQ/F/OxjfKFc9bk2MAfEp5NrqusSYlPmvfiyxV1Rgcr7Qw5iQAw=="
            }
          },
          {
            "validator_address": "A0A6466F4ABEA09C3B55E3709AFDE217A103209F",
            "validator_index": "60",
            "height": "19730",
            "round": "1",
            "timestamp": "2018-07-31T14:33:40.373147329Z",
            "type": 2,
            "block_id": {
              "hash": "868BA5D6678ABBB82F0C38D2B2408152311CFB0F",
              "parts": {
                "total": "1",
                "hash": "D563A4AAFEB2792892E24DCCC6B3C109E8198693"
              }
            },
            "signature": {
              "type": "tendermint/SignatureEd25519",
              "value": "+E/p1tEzit3jctdeM6rUpegbdian0ouNbysv2FpmQZEhttGQUUPnUjE7d8pxxbRDbxNFX1jM/6+UylcmaEbWAg=="
            }
          },
          {
            "validator_address": "A5868971300F155020634D7BB49C7634F7AACCD3",
            "validator_index": "61",
            "height": "19730",
            "round": "1",
            "timestamp": "2018-07-31T14:33:40.419342025Z",
            "type": 2,
            "block_id": {
              "hash": "868BA5D6678ABBB82F0C38D2B2408152311CFB0F",
              "parts": {
                "total": "1",
                "hash": "D563A4AAFEB2792892E24DCCC6B3C109E8198693"
              }
            },
            "signature": {
              "type": "tendermint/SignatureEd25519",
              "value": "/wUATUL1dbozGxdqlry/4+8O39nskEKuaDodheHNFnCHloQ1HWa+YG1pztuZv3DnTBdfnOLNQtT1Tr1C1HhRCQ=="
            }
          },
          {
            "validator_address": "A6B3A5B5D982CFD7B5FDFA15CF5A720E7AE25E7F",
            "validator_index": "62",
            "height": "19730",
            "round": "1",
            "timestamp": "2018-07-31T14:33:40.362312004Z",
            "type": 2,
            "block_id": {
              "hash": "868BA5D6678ABBB82F0C38D2B2408152311CFB0F",
              "parts": {
                "total": "1",
                "hash": "D563A4AAFEB2792892E24DCCC6B3C109E8198693"
              }
            },
            "signature": {
              "type": "tendermint/SignatureEd25519",
              "value": "nd7Qdmvp1Klmx41KDLJwp7s8XT9MldYg0o5Ft3ObWJ/mKmY+DZaKpTLvtvbH+RzkWMrbv8f2nVu6An1GU3XIBw=="
            }
          },
          {
            "validator_address": "AC96444A9083890B7C7B430DB17BF1D3EA5EED04",
            "validator_index": "63",
            "height": "19730",
            "round": "1",
            "timestamp": "2018-07-31T14:33:40.481481356Z",
            "type": 2,
            "block_id": {
              "hash": "868BA5D6678ABBB82F0C38D2B2408152311CFB0F",
              "parts": {
                "total": "1",
                "hash": "D563A4AAFEB2792892E24DCCC6B3C109E8198693"
              }
            },
            "signature": {
              "type": "tendermint/SignatureEd25519",
              "value": "g/Qt/WTGwAsjuxBkp3JiIHdgVvqvbgvPnBqEYTaWpPMeQlDi9Ywwy0quI4WaK2/z5eF6E3YUYbjmCXQ4qtomBA=="
            }
          },
          {
            "validator_address": "ACB97FDA2D940AF0709B73537C458EB988AD2893",
            "validator_index": "64",
            "height": "19730",
            "round": "1",
            "timestamp": "2018-07-31T14:33:40.375067254Z",
            "type": 2,
            "block_id": {
              "hash": "868BA5D6678ABBB82F0C38D2B2408152311CFB0F",
              "parts": {
                "total": "1",
                "hash": "D563A4AAFEB2792892E24DCCC6B3C109E8198693"
              }
            },
            "signature": {
              "type": "tendermint/SignatureEd25519",
              "value": "Bygx02FjHRuggC/wEwDKKMOzQL89BD/cGCtX46VC7Y9EbJfr8b+x+bfL7NYOAZYNLVMZH+YoA4qADNc7B8zsCg=="
            }
          },
          {
            "validator_address": "B197425B3210375F211661DE02EF2AE36580EB0F",
            "validator_index": "65",
            "height": "19730",
            "round": "1",
            "timestamp": "2018-07-31T14:33:40.549181908Z",
            "type": 2,
            "block_id": {
              "hash": "868BA5D6678ABBB82F0C38D2B2408152311CFB0F",
              "parts": {
                "total": "1",
                "hash": "D563A4AAFEB2792892E24DCCC6B3C109E8198693"
              }
            },
            "signature": {
              "type": "tendermint/SignatureEd25519",
              "value": "yWOTkn3ime4ZJXZ8RusJbvHyAa8SsMfP1imVhZXSnX/jJErV30x2eE6DPesAfqcIhaQw84MEqKr2hW7SlrztBA=="
            }
          },
          {
            "validator_address": "B45E54D2D1CB5A4CCD1D49016608C18E7C56B270",
            "validator_index": "66",
            "height": "19730",
            "round": "1",
            "timestamp": "2018-07-31T14:33:40.522656556Z",
            "type": 2,
            "block_id": {
              "hash": "868BA5D6678ABBB82F0C38D2B2408152311CFB0F",
              "parts": {
                "total": "1",
                "hash": "D563A4AAFEB2792892E24DCCC6B3C109E8198693"
              }
            },
            "signature": {
              "type": "tendermint/SignatureEd25519",
              "value": "t5LsVHcSRwQc1vK+vu4LgZIacxIFfpS0wN+O9aHsAxp4cROKv4MPb031sucPNgqJS2zbeazJ/e390qh2KKAiBw=="
            }
          },
          {
            "validator_address": "B59A34C0BE4EC73AF6A67D274F1695C9259C237C",
            "validator_index": "67",
            "height": "19730",
            "round": "1",
            "timestamp": "2018-07-31T14:33:40.647599099Z",
            "type": 2,
            "block_id": {
              "hash": "868BA5D6678ABBB82F0C38D2B2408152311CFB0F",
              "parts": {
                "total": "1",
                "hash": "D563A4AAFEB2792892E24DCCC6B3C109E8198693"
              }
            },
            "signature": {
              "type": "tendermint/SignatureEd25519",
              "value": "YqYFjgjabKCFSrFnbM3pGZvX6OC8rwzx13Gu/DadGcsK4Ib/Zo6g2SJBnupHNQ80J7nI1tjrScEtp/xoFQciDw=="
            }
          },
          {
            "validator_address": "BB1276BE89834835428664408917649FEEF5D90C",
            "validator_index": "68",
            "height": "19730",
            "round": "1",
            "timestamp": "2018-07-31T14:33:40.504057477Z",
            "type": 2,
            "block_id": {
              "hash": "868BA5D6678ABBB82F0C38D2B2408152311CFB0F",
              "parts": {
                "total": "1",
                "hash": "D563A4AAFEB2792892E24DCCC6B3C109E8198693"
              }
            },
            "signature": {
              "type": "tendermint/SignatureEd25519",
              "value": "PNgnDh4sGLDuBIofXL+dSfNkZE11Qepgjve8HeY3PdFvGo2S9DH3Zbyz9IyInQVulWtogrd86lGNwHu7diHBDQ=="
            }
          },
          {
            "validator_address": "BC36FEDD6EF6071118A3E51859DF3831A2EC4782",
            "validator_index": "69",
            "height": "19730",
            "round": "1",
            "timestamp": "2018-07-31T14:33:40.463328868Z",
            "type": 2,
            "block_id": {
              "hash": "868BA5D6678ABBB82F0C38D2B2408152311CFB0F",
              "parts": {
                "total": "1",
                "hash": "D563A4AAFEB2792892E24DCCC6B3C109E8198693"
              }
            },
            "signature": {
              "type": "tendermint/SignatureEd25519",
              "value": "pe4CityFfkIzP6iBKivVebhb3oZ+UU3hBBh/4gulMKccrUH5SNyFFde36wyhIYoTRT5kkU8SH3+Yh8iWVP5lBQ=="
            }
          },
          {
            "validator_address": "BD9D0DA513BF099DB4BB6E725A4E19832789882F",
            "validator_index": "70",
            "height": "19730",
            "round": "1",
            "timestamp": "2018-07-31T14:33:40.407680925Z",
            "type": 2,
            "block_id": {
              "hash": "868BA5D6678ABBB82F0C38D2B2408152311CFB0F",
              "parts": {
                "total": "1",
                "hash": "D563A4AAFEB2792892E24DCCC6B3C109E8198693"
              }
            },
            "signature": {
              "type": "tendermint/SignatureEd25519",
              "value": "/W4EOun2ATYnt2NSXk+ekNd64gY+JJEoY60lgHa7yFgmjQeOZlEhrK4rjE+PYMVweinb9IDv55n99gxwitjfAw=="
            }
          },
          {
            "validator_address": "C1134A2FF8F7338E7CDB3FE57DDD2A655DEB1E22",
            "validator_index": "71",
            "height": "19730",
            "round": "1",
            "timestamp": "2018-07-31T14:33:40.443454897Z",
            "type": 2,
            "block_id": {
              "hash": "868BA5D6678ABBB82F0C38D2B2408152311CFB0F",
              "parts": {
                "total": "1",
                "hash": "D563A4AAFEB2792892E24DCCC6B3C109E8198693"
              }
            },
            "signature": {
              "type": "tendermint/SignatureEd25519",
              "value": "C77UIxNTNho1WLAP2UI6ItKxpjX6K8SeN5tIKCRZGAybif5irmEo5zXRowdUrYbQqxi82fVnExrgxAKgmS1ZBA=="
            }
          },
          {
            "validator_address": "C39A8A2B85198DCB8F23AD1F6C198E2BA7AB5D60",
            "validator_index": "72",
            "height": "19730",
            "round": "1",
            "timestamp": "2018-07-31T14:33:40.42312641Z",
            "type": 2,
            "block_id": {
              "hash": "868BA5D6678ABBB82F0C38D2B2408152311CFB0F",
              "parts": {
                "total": "1",
                "hash": "D563A4AAFEB2792892E24DCCC6B3C109E8198693"
              }
            },
            "signature": {
              "type": "tendermint/SignatureEd25519",
              "value": "j0fPY6f+iwPpDqSFCHBVz0jZSOo7zBTfaSPeQ0n6tm37zqNvFvNYRYK5ceDsuktmMFAFZ1josSGMspzm6hZ4BA=="
            }
          },
          {
            "validator_address": "C4335190C3B5BD4BA5568BC0F99C34162D940D08",
            "validator_index": "73",
            "height": "19730",
            "round": "1",
            "timestamp": "2018-07-31T14:33:40.487497268Z",
            "type": 2,
            "block_id": {
              "hash": "868BA5D6678ABBB82F0C38D2B2408152311CFB0F",
              "parts": {
                "total": "1",
                "hash": "D563A4AAFEB2792892E24DCCC6B3C109E8198693"
              }
            },
            "signature": {
              "type": "tendermint/SignatureEd25519",
              "value": "usXfRgfjd8BsJGDLoR02HBVFQHTlgGZUJ+GoQkkalhhYbfZk3xY7O2DkZyj0WtPMkcowPyNURVOREFhCS6aSAQ=="
            }
          },
          {
            "validator_address": "C561CFA081677046376396922E7576E5F7B316AD",
            "validator_index": "74",
            "height": "19730",
            "round": "1",
            "timestamp": "2018-07-31T14:33:40.556628656Z",
            "type": 2,
            "block_id": {
              "hash": "868BA5D6678ABBB82F0C38D2B2408152311CFB0F",
              "parts": {
                "total": "1",
                "hash": "D563A4AAFEB2792892E24DCCC6B3C109E8198693"
              }
            },
            "signature": {
              "type": "tendermint/SignatureEd25519",
              "value": "7zgCzvSk/FKTlbsvFXMpHmcvbGOEr+u0s4n355zgtB3SiobZ9gHj9BwxcpFyuTLFcLO1nRhPqR8TSlWiAQ/EDw=="
            }
          },
          {
            "validator_address": "CE589EA77B056D268D30D1DC1D68A70E0F885E95",
            "validator_index": "75",
            "height": "19730",
            "round": "1",
            "timestamp": "2018-07-31T14:33:40.440371299Z",
            "type": 2,
            "block_id": {
              "hash": "868BA5D6678ABBB82F0C38D2B2408152311CFB0F",
              "parts": {
                "total": "1",
                "hash": "D563A4AAFEB2792892E24DCCC6B3C109E8198693"
              }
            },
            "signature": {
              "type": "tendermint/SignatureEd25519",
              "value": "AGyXgUAtsGI0CUHC8cnri9b4ckLy53A1b3dMWTgq9SKIx3GcGoSPAvC7JMPvjuZTkyYQ2oDSMELwBrazS5ZMDw=="
            }
          },
          {
            "validator_address": "CEB97DB5CB18270247ABDE6CF2F84F9AEE8A2904",
            "validator_index": "76",
            "height": "19730",
            "round": "1",
            "timestamp": "2018-07-31T14:33:40.682851411Z",
            "type": 2,
            "block_id": {
              "hash": "868BA5D6678ABBB82F0C38D2B2408152311CFB0F",
              "parts": {
                "total": "1",
                "hash": "D563A4AAFEB2792892E24DCCC6B3C109E8198693"
              }
            },
            "signature": {
              "type": "tendermint/SignatureEd25519",
              "value": "RHRp33KhBTFfxR7TfEKTBwkrNHSsJlkvtRcVenGaD9/mOAH12GnO/ORZTOZJu8vldwWn7P1Sgwy3BMjoTW4dDA=="
            }
          },
          {
            "validator_address": "CF205769734F5758CC39F907EFB73D6BAF915FB1",
            "validator_index": "77",
            "height": "19730",
            "round": "1",
            "timestamp": "2018-07-31T14:33:40.518996056Z",
            "type": 2,
            "block_id": {
              "hash": "868BA5D6678ABBB82F0C38D2B2408152311CFB0F",
              "parts": {
                "total": "1",
                "hash": "D563A4AAFEB2792892E24DCCC6B3C109E8198693"
              }
            },
            "signature": {
              "type": "tendermint/SignatureEd25519",
              "value": "u47Vo6tefdzr0vAk4T4nog46qesv07M5dkoiowDqEYpJLh4GeINaIrOni6aoro0TKIQlMYSwWt8aJbGm016bDQ=="
            }
          },
          {
            "validator_address": "D2134B826A1E25A955905CB79A4D8731CAFA0CCE",
            "validator_index": "78",
            "height": "19730",
            "round": "1",
            "timestamp": "2018-07-31T14:33:40.523449139Z",
            "type": 2,
            "block_id": {
              "hash": "868BA5D6678ABBB82F0C38D2B2408152311CFB0F",
              "parts": {
                "total": "1",
                "hash": "D563A4AAFEB2792892E24DCCC6B3C109E8198693"
              }
            },
            "signature": {
              "type": "tendermint/SignatureEd25519",
              "value": "cLDvIH8sxDBroba4l2f+Vng3o3wl0sg0n+6DyBgUmuGy8K0OkOUBePUSgECP/rK5zd5otCqMtW1eo9Igs1fqCQ=="
            }
          },
          {
            "validator_address": "D6285C3422C8886445D53757CBE12D2B91B5A9D0",
            "validator_index": "79",
            "height": "19730",
            "round": "1",
            "timestamp": "2018-07-31T14:33:23.065305646Z",
            "type": 2,
            "block_id": {
              "hash": "868BA5D6678ABBB82F0C38D2B2408152311CFB0F",
              "parts": {
                "total": "1",
                "hash": "D563A4AAFEB2792892E24DCCC6B3C109E8198693"
              }
            },
            "signature": {
              "type": "tendermint/SignatureEd25519",
              "value": "FAOkvqKMW6unoM3sawZq7mOFXM1kts5iIQEuyPovaw/1biVo6biOfTcdYpkUYfmxwXfXfTyg33BqI03fZPNLAQ=="
            }
          },
          {
            "validator_address": "D77FB84A729972CD3E757C9BEB61561855832B92",
            "validator_index": "80",
            "height": "19730",
            "round": "1",
            "timestamp": "2018-07-31T14:33:40.580869053Z",
            "type": 2,
            "block_id": {
              "hash": "868BA5D6678ABBB82F0C38D2B2408152311CFB0F",
              "parts": {
                "total": "1",
                "hash": "D563A4AAFEB2792892E24DCCC6B3C109E8198693"
              }
            },
            "signature": {
              "type": "tendermint/SignatureEd25519",
              "value": "B4f7OMdypJ+7tQIqXPVi39ynCB5Ab4R3lNJlauhdOhRk+xdXwWanrJQYBZzUAYv/Ic/TqVaIpI9bKS8uUIHYDQ=="
            }
          },
          {
            "validator_address": "DB7E6732471D3EA5C90C17A9974D9F88AB45F2FB",
            "validator_index": "81",
            "height": "19730",
            "round": "1",
            "timestamp": "2018-07-31T14:33:40.44664489Z",
            "type": 2,
            "block_id": {
              "hash": "868BA5D6678ABBB82F0C38D2B2408152311CFB0F",
              "parts": {
                "total": "1",
                "hash": "D563A4AAFEB2792892E24DCCC6B3C109E8198693"
              }
            },
            "signature": {
              "type": "tendermint/SignatureEd25519",
              "value": "wah+FG5zLSSauk+7N7ms5gnyeLQmvHxIvV8/7RUaRDMOcMGy1DYvsLiYOXUCZqDlY41DO6uR5eBB5vf3KJspAg=="
            }
          },
          {
            "validator_address": "DF54B862410BCD9B5C516FBB6C56BDC826ED6FA7",
            "validator_index": "82",
            "height": "19730",
            "round": "1",
            "timestamp": "2018-07-31T14:33:40.500473248Z",
            "type": 2,
            "block_id": {
              "hash": "868BA5D6678ABBB82F0C38D2B2408152311CFB0F",
              "parts": {
                "total": "1",
                "hash": "D563A4AAFEB2792892E24DCCC6B3C109E8198693"
              }
            },
            "signature": {
              "type": "tendermint/SignatureEd25519",
              "value": "Qu2NOOKoYMTk7OXKfhEvK46vo6uMhe24wRwU28f3UpZQNaeuaNO/FSNQXKWQQXpxOk8GIPyjy51wXJl8cilGCA=="
            }
          },
          {
            "validator_address": "DFAF0C8B1B78D6D552B0189DE3ACA351439A1319",
            "validator_index": "83",
            "height": "19730",
            "round": "1",
            "timestamp": "2018-07-31T14:33:40.404451487Z",
            "type": 2,
            "block_id": {
              "hash": "868BA5D6678ABBB82F0C38D2B2408152311CFB0F",
              "parts": {
                "total": "1",
                "hash": "D563A4AAFEB2792892E24DCCC6B3C109E8198693"
              }
            },
            "signature": {
              "type": "tendermint/SignatureEd25519",
              "value": "Di7Lm63AGDg/2NtYGLLqKWWbPJj0KzvUFhcXttLbDjfMhj3ahmVGHnUJwYipkXvKCXQtCcaQgD8Z6rkvzo0GCw=="
            }
          },
          {
            "validator_address": "E1DBC77881161A5A3A8536A57536EAE546A75D69",
            "validator_index": "84",
            "height": "19730",
            "round": "1",
            "timestamp": "2018-07-31T14:33:40.377272364Z",
            "type": 2,
            "block_id": {
              "hash": "868BA5D6678ABBB82F0C38D2B2408152311CFB0F",
              "parts": {
                "total": "1",
                "hash": "D563A4AAFEB2792892E24DCCC6B3C109E8198693"
              }
            },
            "signature": {
              "type": "tendermint/SignatureEd25519",
              "value": "77wNbQ3aPzQI+K0+pxeSr4rcfE6zZJs1D/Ff7QtyugiNUeUj3epjQggTKelA48tf+ZKHCHRbJbLxh0Qpz93sDw=="
            }
          },
          {
            "validator_address": "E300E9D484374C1D3E97C1D93CAC3B160A056298",
            "validator_index": "85",
            "height": "19730",
            "round": "1",
            "timestamp": "2018-07-31T14:33:40.652784479Z",
            "type": 2,
            "block_id": {
              "hash": "868BA5D6678ABBB82F0C38D2B2408152311CFB0F",
              "parts": {
                "total": "1",
                "hash": "D563A4AAFEB2792892E24DCCC6B3C109E8198693"
              }
            },
            "signature": {
              "type": "tendermint/SignatureEd25519",
              "value": "cce2HMCGabibW01eoD1w1PNijBo81x5sK2pZpFsI48hsAu7oCxij7Svvxpo/XWmiRg1MCPsNaosumWILQ0DRAg=="
            }
          },
          {
            "validator_address": "E39B5778E0D4297A46F45CF6940B0A163A430FF8",
            "validator_index": "86",
            "height": "19730",
            "round": "1",
            "timestamp": "2018-07-31T14:33:40.426808162Z",
            "type": 2,
            "block_id": {
              "hash": "868BA5D6678ABBB82F0C38D2B2408152311CFB0F",
              "parts": {
                "total": "1",
                "hash": "D563A4AAFEB2792892E24DCCC6B3C109E8198693"
              }
            },
            "signature": {
              "type": "tendermint/SignatureEd25519",
              "value": "kAUnMb8yHtHngU+OOwk4v61I/VhUwf6xpUiGC4MqFKLgSGTo4BdEAzoFar6pFFZsLdsLocHaS3se8vAMkCsRDg=="
            }
          },
          {
            "validator_address": "E3B19738F7132F950668504D326C7660F159D170",
            "validator_index": "87",
            "height": "19730",
            "round": "1",
            "timestamp": "2018-07-31T14:33:40.427423828Z",
            "type": 2,
            "block_id": {
              "hash": "868BA5D6678ABBB82F0C38D2B2408152311CFB0F",
              "parts": {
                "total": "1",
                "hash": "D563A4AAFEB2792892E24DCCC6B3C109E8198693"
              }
            },
            "signature": {
              "type": "tendermint/SignatureEd25519",
              "value": "xttE1vWNE1f6kESxldHfFfyc9pFG7FpaRS6zmRzb07lTLgkFbHonmIKM/HldchkM2vl7CVRxTWAhLIl1YDZMCA=="
            }
          },
          {
            "validator_address": "E42F8AEABB685219F7027F54D2B0DBC7846F633A",
            "validator_index": "88",
            "height": "19730",
            "round": "1",
            "timestamp": "2018-07-31T14:33:39.651038354Z",
            "type": 2,
            "block_id": {
              "hash": "868BA5D6678ABBB82F0C38D2B2408152311CFB0F",
              "parts": {
                "total": "1",
                "hash": "D563A4AAFEB2792892E24DCCC6B3C109E8198693"
              }
            },
            "signature": {
              "type": "tendermint/SignatureEd25519",
              "value": "74yT+JbXF7/R2M/w9EJtcXJoOnMQmEa7Hbd1w9YjxZuLMiliRZtkK1EzOM+tH4TpCdWMqjXUAnzFFaiLjJLIAQ=="
            }
          },
          {
            "validator_address": "E4E6C2E81269DFFA196C17F98240E491479A6008",
            "validator_index": "89",
            "height": "19730",
            "round": "1",
            "timestamp": "2018-07-31T14:33:40.465712062Z",
            "type": 2,
            "block_id": {
              "hash": "868BA5D6678ABBB82F0C38D2B2408152311CFB0F",
              "parts": {
                "total": "1",
                "hash": "D563A4AAFEB2792892E24DCCC6B3C109E8198693"
              }
            },
            "signature": {
              "type": "tendermint/SignatureEd25519",
              "value": "nnmRQkXFQJquT5YSrzSF/RhFI6ohE8KNsWD0wOEL+yvwnNoglT+8jHjjcX8fBlQt+ecZULIAXvhDCAybnsR6Aw=="
            }
          },
          {
            "validator_address": "E6A7079D584B163750BE0831227F6B685DEAF3C1",
            "validator_index": "90",
            "height": "19730",
            "round": "1",
            "timestamp": "2018-07-31T14:33:40.483751038Z",
            "type": 2,
            "block_id": {
              "hash": "868BA5D6678ABBB82F0C38D2B2408152311CFB0F",
              "parts": {
                "total": "1",
                "hash": "D563A4AAFEB2792892E24DCCC6B3C109E8198693"
              }
            },
            "signature": {
              "type": "tendermint/SignatureEd25519",
              "value": "uecaFIzrnyuHKYQKSELoh4ZuUaQaZVlawm1qdbCKRJKNy8T5yn54xnLQ0+n2e2idvOGqliTFSJ6wAgQ7fIlHBg=="
            }
          },
          {
            "validator_address": "E7A30077D5D11867D3EAF99ED45BFDC1EB834509",
            "validator_index": "91",
            "height": "19730",
            "round": "1",
            "timestamp": "2018-07-31T14:33:40.44309073Z",
            "type": 2,
            "block_id": {
              "hash": "868BA5D6678ABBB82F0C38D2B2408152311CFB0F",
              "parts": {
                "total": "1",
                "hash": "D563A4AAFEB2792892E24DCCC6B3C109E8198693"
              }
            },
            "signature": {
              "type": "tendermint/SignatureEd25519",
              "value": "tXawhOlCx4g2BQeYinVrWh96RS3nhwk+sgVP1dqJdfEMjAWx3ZPILFCrvytjSwyiCsgkhe6d3sccFYM6G+elCg=="
            }
          },
          {
            "validator_address": "EBC613967F66F4EC306852CDF58B4F151CF16738",
            "validator_index": "92",
            "height": "19730",
            "round": "1",
            "timestamp": "2018-07-31T14:33:40.562165188Z",
            "type": 2,
            "block_id": {
              "hash": "868BA5D6678ABBB82F0C38D2B2408152311CFB0F",
              "parts": {
                "total": "1",
                "hash": "D563A4AAFEB2792892E24DCCC6B3C109E8198693"
              }
            },
            "signature": {
              "type": "tendermint/SignatureEd25519",
              "value": "TU0Mczvg/jsIXexAPF59a/5lrHy9ahM40gQLH0T5aY4tkVTfucl/y0Gws6xRjVtxdnwMS9E1CyrZFDC2i74qDQ=="
            }
          },
          {
            "validator_address": "EC3401441726C40ECC7E51F744483B05BC6DE9BD",
            "validator_index": "93",
            "height": "19730",
            "round": "1",
            "timestamp": "2018-07-31T14:33:40.450409728Z",
            "type": 2,
            "block_id": {
              "hash": "868BA5D6678ABBB82F0C38D2B2408152311CFB0F",
              "parts": {
                "total": "1",
                "hash": "D563A4AAFEB2792892E24DCCC6B3C109E8198693"
              }
            },
            "signature": {
              "type": "tendermint/SignatureEd25519",
              "value": "6MTRQrwLui2s+FZbRY+ip7Nq6WYdo2xy4rKlVWQzMrePpRvuFY6Sfj/Pv3izpLCMm3YbvGC/OJkmR6W5txZ9BA=="
            }
          },
          {
            "validator_address": "EC95B111D032181E1EC3B5E8875C5BB8E4AE7140",
            "validator_index": "94",
            "height": "19730",
            "round": "1",
            "timestamp": "2018-07-31T14:33:40.389912393Z",
            "type": 2,
            "block_id": {
              "hash": "868BA5D6678ABBB82F0C38D2B2408152311CFB0F",
              "parts": {
                "total": "1",
                "hash": "D563A4AAFEB2792892E24DCCC6B3C109E8198693"
              }
            },
            "signature": {
              "type": "tendermint/SignatureEd25519",
              "value": "FMfYq/l1wlSjqHGY7xCCvn++/UfLhIXDfiN4TTanQ3nxSQcqnlIZvCg7ICedXRLeX8i9ollf+zNLLRruMXf7AQ=="
            }
          },
          null,
          {
            "validator_address": "F23FF36BD5B90C33CE3A03ED72DBDCF5EC07D6AF",
            "validator_index": "96",
            "height": "19730",
            "round": "1",
            "timestamp": "2018-07-31T14:33:40.479795929Z",
            "type": 2,
            "block_id": {
              "hash": "868BA5D6678ABBB82F0C38D2B2408152311CFB0F",
              "parts": {
                "total": "1",
                "hash": "D563A4AAFEB2792892E24DCCC6B3C109E8198693"
              }
            },
            "signature": {
              "type": "tendermint/SignatureEd25519",
              "value": "w2sqVUwjJbVeLywByNRMd0NC2HDpRa9tcDVPQ5Hctf95tkqZBUtRcGVYIJAVFaQy0Z2P8/UPdQ2FSzgEPnCXBg=="
            }
          },
          {
            "validator_address": "F4268597DE93E3E2CED38845010F8AA34E2A879E",
            "validator_index": "97",
            "height": "19730",
            "round": "1",
            "timestamp": "2018-07-31T14:33:40.510499907Z",
            "type": 2,
            "block_id": {
              "hash": "868BA5D6678ABBB82F0C38D2B2408152311CFB0F",
              "parts": {
                "total": "1",
                "hash": "D563A4AAFEB2792892E24DCCC6B3C109E8198693"
              }
            },
            "signature": {
              "type": "tendermint/SignatureEd25519",
              "value": "7RaZ8yEYRR6BN62d05WChlOG9OJy9SzmL0xz/vv8h3+f7BvLYf3Wz/zMO+TFgB4b15ho0RaYB6HKntZ1K7OKCA=="
            }
          },
          {
            "validator_address": "F4DEB417999B04BE2EFF9FFE03FA373D86011CC0",
            "validator_index": "98",
            "height": "19730",
            "round": "1",
            "timestamp": "2018-07-31T14:33:40.425777713Z",
            "type": 2,
            "block_id": {
              "hash": "868BA5D6678ABBB82F0C38D2B2408152311CFB0F",
              "parts": {
                "total": "1",
                "hash": "D563A4AAFEB2792892E24DCCC6B3C109E8198693"
              }
            },
            "signature": {
              "type": "tendermint/SignatureEd25519",
              "value": "QkHcNC+F3wd7jlrznfIH2OP5bkRDswomgkG3UKMk4AgqToKKH/57buGX4lzScc0bse35ix0u7NbDOGkOkoEkAg=="
            }
          },
          {
            "validator_address": "F6738260186D33D9C14FC6E7017AFE6BB952A63D",
            "validator_index": "99",
            "height": "19730",
            "round": "1",
            "timestamp": "2018-07-31T14:33:40.435807646Z",
            "type": 2,
            "block_id": {
              "hash": "868BA5D6678ABBB82F0C38D2B2408152311CFB0F",
              "parts": {
                "total": "1",
                "hash": "D563A4AAFEB2792892E24DCCC6B3C109E8198693"
              }
            },
            "signature": {
              "type": "tendermint/SignatureEd25519",
              "value": "CZ1kuk6XL0LEzOZN3Bf2vViErYTCv12YN06kEZxfMGIQINmfcC0Ia6Fa4iQX4Y8XNdUhlIm8479lBR3egBCKAg=="
            }
          },
          null,
          {
            "validator_address": "FF3F3FCBCE7E62D7AD5506FF846EC4518D980515",
            "validator_index": "101",
            "height": "19730",
            "round": "1",
            "timestamp": "2018-07-31T14:33:40.378077889Z",
            "type": 2,
            "block_id": {
              "hash": "868BA5D6678ABBB82F0C38D2B2408152311CFB0F",
              "parts": {
                "total": "1",
                "hash": "D563A4AAFEB2792892E24DCCC6B3C109E8198693"
              }
            },
            "signature": {
              "type": "tendermint/SignatureEd25519",
              "value": "GaXIt8CN7XsfnFw4i//QovbuPVGPQm/92W4C+rx1Is8sxN6YMpndGBYINL/F2MYMRLNWkdwaB7OLe54GTcPhCg=="
            }
          }
        ]
      }
    },
    "canonical": true
  }
}