{
  "jsonrpc": "2.0",
  "id": "",
  "result": {
    "SignedHeader": {
      "header": {
        "chain_id": "gaia-7004",
        "height": "1991",
        "time": "2018-07-30T07:56:46.322330424Z",
        "num_txs": "0",
        "last_block_id": {
          "hash": "F6C9AEF077E065F746A9BC911A24C46A59468EC6",
          "parts": {
            "total": "1",
            "hash": "A98AFC736B982F62AE568B648B20F9515E923CCB"
          }
        },
        "total_txs": "43",
        "last_commit_hash": "D819314887D8559F1CDE418F675BC88ED547DF70",
        "data_hash": "",
        "validators_hash": "0ED642B6E87C68CE3A761B2A29ACD7EE52580766",
        "consensus_hash": "D6B74BB35BDFFD8392340F2A379173548AE188FE",
        "app_hash": "D11D407E734EC5CA3A7F5884C947CE661E901106",
        "last_results_hash": "",
        "evidence_hash": ""
      },
      "commit": {
        "block_id": {
          "hash": "75738BB384E4A84D0A77D8DC036133579D30D2CB",
          "parts": {
            "total": "1",
            "hash": "8708EB371479313AAF2ED230EA02092C85C0B772"
          }
        },
        "precommits": [
          {
            "validator_address": "029359C0C768096273A68ABC902A6B17AC8D1D70",
            "validator_index": "0",
            "height": "1991",
            "round": "0",
            "timestamp": "2018-07-30T07:56:47.203115678Z",
            "type": 2,
            "block_id": {
              "hash": "75738BB384E4A84D0A77D8DC036133579D30D2CB",
              "parts": {
                "total": "1",
                "hash": "8708EB371479313AAF2ED230EA02092C85C0B772"
              }
            },
            "signature": {
              "type": "tendermint/SignatureEd25519",
              "value": "XexFwB9krl3odJJlBiBREENKaHyX9PXXlxB6B1zX2ZON2bTVxFmxK6xUqjS+mHRsO8dW8VeijhxkAi5aBU1PDw=="
            }
          },
          {
            "validator_address": "02FE4B97A8387F39D1AC19E0C1702B3CC614812F",
            "validator_index": "1",
            "height": "1991",
            "round": "0",
            "timestamp": "2018-07-30T07:56:47.200694402Z",
            "type": 2,
            "block_id": {
              "hash": "75738BB384E4A84D0A77D8DC036133579D30D2CB",
              "parts": {
                "total": "1",
                "hash": "8708EB371479313AAF2ED230EA02092C85C0B772"
              }
            },
            "signature": {
              "type": "tendermint/SignatureEd25519",
              "value": "LIfz8j3lVoeO0nksZaaYb6vfxl7K6vAuAr3MN0kjQeP2phQTLTmFjvbaf7k+aEvcxadOfYls3FGunrs4jGckBQ=="
            }
          },
          {
            "validator_address": "0548261C50222FD710EB5EBDF03A0E6567B21D20",
            "validator_index": "2",
            "height": "1991",
            "round": "0",
            "timestamp": "2018-07-30T07:56:47.269246554Z",
            "type": 2,
            "block_id": {
              "hash": "75738BB384E4A84D0A77D8DC036133579D30D2CB",
              "parts": {
                "total": "1",
                "hash": "8708EB371479313AAF2ED230EA02092C85C0B772"
              }
            },
            "signature": {
              "type": "tendermint/SignatureEd25519",
              "value": "5ej/L7Ta0R4Vzq4Hng+O5B+si2+qPEJ3bZFvvalNr9bPf6Zpc8wVN3u7rpGLyjyl0kJjAbB8L/Nk3JWYtntuDA=="
            }
          },
          null,
          null,
          {
            "validator_address": "0989D0355A104B67AE0AE028C68FB610690E174B",
            "validator_index": "5",
            "height": "1991",
            "round": "0",
            "timestamp": "2018-07-30T07:56:47.138870595Z",
            "type": 2,
            "block_id": {
              "hash": "75738BB384E4A84D0A77D8DC036133579D30D2CB",
              "parts": {
                "total": "1",
                "hash": "8708EB371479313AAF2ED230EA02092C85C0B772"
              }
            },
            "signature": {
              "type": "tendermint/SignatureEd25519",
              "value": "MTTClzSSWXvsbU9rdFiRhSlN5L2hUh0gtJi79Myog9Tp6X+c1vjqRHIP1uOfep+w+asoX2mTjd/mDUat8cJBDg=="
            }
          },
          {
            "validator_address": "0A692DBFFE9E5DD28E7DECC33CED1AEB4C0D014E",
            "validator_index": "6",
            "height": "1991",
            "round": "0",
            "timestamp": "2018-07-30T07:56:47.297631745Z",
            "type": 2,
            "block_id": {
              "hash": "75738BB384E4A84D0A77D8DC036133579D30D2CB",
              "parts": {
                "total": "1",
                "hash": "8708EB371479313AAF2ED230EA02092C85C0B772"
              }
            },
            "signature": {
              "type": "tendermint/SignatureEd25519",
              "value": "3Ni42Ygv4GNICbyHUx7IIbwbHMeKaNy0SuRMrUdf+QLXc1jVOFnFMQE7MZedAFdQ5POvfUjAnNl3lFemnJcYAw=="
            }
          },
          {
            "validator_address": "0DDF97111D73DB825138EC15EC27DE5FE8536901",
            "validator_index": "7",
            "height": "1991",
            "round": "0",
            "timestamp": "2018-07-30T07:56:47.248874158Z",
            "type": 2,
            "block_id": {
              "hash": "75738BB384E4A84D0A77D8DC036133579D30D2CB",
              "parts": {
                "total": "1",
                "hash": "8708EB371479313AAF2ED230EA02092C85C0B772"
              }
            },
            "signature": {
              "type": "tendermint/SignatureEd25519",
              "value": "KIyYFnCQqR0lsBdk6gqX/cA/4k03HoaLC0x0InqJfAz/ulV4rEWZyAHWwpc9o841B4Ghx4TqIL3+5XoGFn6hAw=="
            }
          },
          {
            "validator_address": "0F3FB8F818BE494E8F5597D9A8ACA57C8C5E72B7",
            "validator_index": "8",
            "height": "1991",
            "round": "0",
            "timestamp": "2018-07-30T07:56:47.335733691Z",
            "type": 2,
            "block_id": {
              "hash": "75738BB384E4A84D0A77D8DC036133579D30D2CB",
              "parts": {
                "total": "1",
                "hash": "8708EB371479313AAF2ED230EA02092C85C0B772"
              }
            },
            "signature": {
              "type": "tendermint/SignatureEd25519",
              "value": "/JBM4w+ce8HX2RwxwnMiJS5yLrKJ7loDzLg8OODsTgp47jeOVgrpNg7HSVptueDkDGDPVm1hfm1g4PwwrbBEBA=="
            }
          },
          {
            "validator_address": "1751786EFC085D5331C61168FFFC8202EA151B4E",
            "validator_index": "9",
            "height": "1991",
            "round": "0",
            "timestamp": "2018-07-30T07:56:46.727826588Z",
            "type": 2,
            "block_id": {
              "hash": "75738BB384E4A84D0A77D8DC036133579D30D2CB",
              "parts": {
                "total": "1",
                "hash": "8708EB371479313AAF2ED230EA02092C85C0B772"
              }
            },
            "signature": {
              "type": "tendermint/SignatureEd25519",
              "value": "2WKqFR9fNE3GdBh6VOG+fhWHL4cyaLxwqa8PA7OtBTEM+MLo8C4p15g4Fb27DM1+hL1pr97hgCst5+NL4RYuBg=="
            }
          },
          {
            "validator_address": "17BB5CD01E8940FAFB948A04D5FA5A0645E5822E",
            "validator_index": "10",
            "height": "1991",
            "round": "0",
            "timestamp": "2018-07-30T07:56:47.210430457Z",
            "type": 2,
            "block_id": {
              "hash": "75738BB384E4A84D0A77D8DC036133579D30D2CB",
              "parts": {
                "total": "1",
                "hash": "8708EB371479313AAF2ED230EA02092C85C0B772"
              }
            },
            "signature": {
              "type": "tendermint/SignatureEd25519",
              "value": "XCuD0w8JbUyT4M9zJv0EeE1RbX8VxcKuaBTFRCmis/73OWjhCv0u3tvIzxJDURDs+2U2wTk50wrS7YC5W42UBg=="
            }
          },
          null,
          {
            "validator_address": "1E9CE94FD0BA5CFEB901F90BC658D64D85B134D2",
            "validator_index": "12",
            "height": "1991",
            "round": "0",
            "timestamp": "2018-07-30T07:56:47.135435215Z",
            "type": 2,
            "block_id": {
              "hash": "75738BB384E4A84D0A77D8DC036133579D30D2CB",
              "parts": {
                "total": "1",
                "hash": "8708EB371479313AAF2ED230EA02092C85C0B772"
              }
            },
            "signature": {
              "type": "tendermint/SignatureEd25519",
              "value": "sxuXL/tcSB/mn4F3xnXpD0ZCUCIkjngowcDKkFcFo4guWz3H3c7dOfLVYcexYiyPvEFh8bz/oZ+GVmxkW37bBQ=="
            }
          },
          {
            "validator_address": "1ECD8C5FE1341D74CDC633A245DD56858DE2F9A2",
            "validator_index": "13",
            "height": "1991",
            "round": "0",
            "timestamp": "2018-07-30T07:56:47.372847767Z",
            "type": 2,
            "block_id": {
              "hash": "75738BB384E4A84D0A77D8DC036133579D30D2CB",
              "parts": {
                "total": "1",
                "hash": "8708EB371479313AAF2ED230EA02092C85C0B772"
              }
            },
            "signature": {
              "type": "tendermint/SignatureEd25519",
              "value": "Lhy5YgQTP3E8W2C5iKRBNQlV2K0+CmDawP6BYf2jYaTO32zYev7ESejLj+WKMVw4QjkEKpG/Hhk/FR0ABngeAA=="
            }
          },
          null,
          null,
          {
            "validator_address": "23897586D68E2AC1C78E0EF5BB5DF5C8EAB18F50",
            "validator_index": "16",
            "height": "1991",
            "round": "0",
            "timestamp": "2018-07-30T07:56:47.195938689Z",
            "type": 2,
            "block_id": {
              "hash": "75738BB384E4A84D0A77D8DC036133579D30D2CB",
              "parts": {
                "total": "1",
                "hash": "8708EB371479313AAF2ED230EA02092C85C0B772"
              }
            },
            "signature": {
              "type": "tendermint/SignatureEd25519",
              "value": "D4Av9BN4oiTt73bAzxKFdUGvFyKI+cYXmZkZ8vTPRfLdDKX2bp+0vw0A3UgJpKWQGtNsna12m6IK2Ay5ELfnCA=="
            }
          },
          {
            "validator_address": "28770D17E8530825E7310A0659308654B7EC9682",
            "validator_index": "17",
            "height": "1991",
            "round": "0",
            "timestamp": "2018-07-30T07:56:47.198396232Z",
            "type": 2,
            "block_id": {
              "hash": "75738BB384E4A84D0A77D8DC036133579D30D2CB",
              "parts": {
                "total": "1",
                "hash": "8708EB371479313AAF2ED230EA02092C85C0B772"
              }
            },
            "signature": {
              "type": "tendermint/SignatureEd25519",
              "value": "mEEIG1Gue1poDNs1MSfa44NhlYuDYS44wRuZTMbOT8G5A/bLZL7OinL7qNWP+8ZZIYeQRJQgzEBo/k/V+ibrBQ=="
            }
          },
          null,
          {
            "validator_address": "2A92EC3C642140202298D0E245095E0ECFC25228",
            "validator_index": "19",
            "height": "1991",
            "round": "0",
            "timestamp": "2018-07-30T07:56:47.237785227Z",
            "type": 2,
            "block_id": {
              "hash": "75738BB384E4A84D0A77D8DC036133579D30D2CB",
              "parts": {
                "total": "1",
                "hash": "8708EB371479313AAF2ED230EA02092C85C0B772"
              }
            },
            "signature": {
              "type": "tendermint/SignatureEd25519",
              "value": "kueqAPpom3awn+7mxohdj+3a6+H8Ivla+nqfdf8lNsHOsq+z7cyGiCCqvD6Iv9/+5Epe5qiL4OksXY5dBOLIAQ=="
            }
          },
          null,
          null,
          {
            "validator_address": "33412C9A69C60CB0FAA24A5C5B3A906DE24B47C2",
            "validator_index": "22",
            "height": "1991",
            "round": "0",
            "timestamp": "2018-07-30T07:56:47.129086654Z",
            "type": 2,
            "block_id": {
              "hash": "75738BB384E4A84D0A77D8DC036133579D30D2CB",
              "parts": {
                "total": "1",
                "hash": "8708EB371479313AAF2ED230EA02092C85C0B772"
              }
            },
            "signature": {
              "type": "tendermint/SignatureEd25519",
              "value": "Y38/ktqlL+FaPPYEWIkunrVqIR3bCfSWMb65yRwvYnmqSXTXr3wElKrsh779BbfU6hDwifIUZ+ACJ4VPHpqyAg=="
            }
          },
          null,
          {
            "validator_address": "36E9B7FAEC964F97D84C028ED62493E373AD0B38",
            "validator_index": "24",
            "height": "1991",
            "round": "0",
            "timestamp": "2018-07-30T07:56:47.172575561Z",
            "type": 2,
            "block_id": {
              "hash": "75738BB384E4A84D0A77D8DC036133579D30D2CB",
              "parts": {
                "total": "1",
                "hash": "8708EB371479313AAF2ED230EA02092C85C0B772"
              }
            },
            "signature": {
              "type": "tendermint/SignatureEd25519",
              "value": "oZ9nEvfEYSgVsA7gpkCG8Ym9qWDtZgVuC0KOLSCAYvXlhrdEXE7uvUTI5sgU89xNXBNUeawr7VFPnD62cGk+Cw=="
            }
          },
          {
            "validator_address": "38A8D85D36BEA2E5FCF8A1E778F53628E450EF13",
            "validator_index": "25",
            "height": "1991",
            "round": "0",
            "timestamp": "2018-07-30T07:56:47.226281501Z",
            "type": 2,
            "block_id": {
              "hash": "75738BB384E4A84D0A77D8DC036133579D30D2CB",
              "parts": {
                "total": "1",
                "hash": "8708EB371479313AAF2ED230EA02092C85C0B772"
              }
            },
            "signature": {
              "type": "tendermint/SignatureEd25519",
              "value": "MekuelBFp1QgzX54XwRxQcmFtBrXYyK2GbK4M+QDZaX3WAUne86WbDzufpDtTpwHRj0NiAb8IfIttJ/JfD5ZBw=="
            }
          },
          null,
          {
            "validator_address": "3AC99B708404452366E0953A4BE849226DC86CBC",
            "validator_index": "27",
            "height": "1991",
            "round": "0",
            "timestamp": "2018-07-30T07:56:47.333654763Z",
            "type": 2,
            "block_id": {
              "hash": "75738BB384E4A84D0A77D8DC036133579D30D2CB",
              "parts": {
                "total": "1",
                "hash": "8708EB371479313AAF2ED230EA02092C85C0B772"
              }
            },
            "signature": {
              "type": "tendermint/SignatureEd25519",
              "value": "Gp2O0JEohGN4B7U/FGnlERAY44NO194mpbL4u44WV+KsfkpljyIl9sKSFnJWtG9rayq28kDbP/fd90xQn2OkBw=="
            }
          },
          {
            "validator_address": "3DCB822A10ED319EC7C4393D8E3FD4A41B15AAF2",
            "validator_index": "28",
            "height": "1991",
            "round": "0",
            "timestamp": "2018-07-30T07:56:47.214999195Z",
            "type": 2,
            "block_id": {
              "hash": "75738BB384E4A84D0A77D8DC036133579D30D2CB",
              "parts": {
                "total": "1",
                "hash": "8708EB371479313AAF2ED230EA02092C85C0B772"
              }
            },
            "signature": {
              "type": "tendermint/SignatureEd25519",
              "value": "2F+PqbiMVEwlkS3j6pjbJz0H8Pr7jmkVZ4OOxNLrxj8SiVejl7tTNgzt+kjRNrdO+Qlsjqqtw1Qnnt0d9rjVCA=="
            }
          },
          {
            "validator_address": "3E899BA36A93C7370347BD5FE85909F2ECD93F8C",
            "validator_index": "29",
            "height": "1991",
            "round": "0",
            "timestamp": "2018-07-30T07:56:47.222110215Z",
            "type": 2,
            "block_id": {
              "hash": "75738BB384E4A84D0A77D8DC036133579D30D2CB",
              "parts": {
                "total": "1",
                "hash": "8708EB371479313AAF2ED230EA02092C85C0B772"
              }
            },
            "signature": {
              "type": "tendermint/SignatureEd25519",
              "value": "BKSTTNc4+fB6v5sZdP5pbRQ1CIZ/2tARzXW4cmYXIIEKP6jm2Ntc/7Q6GsWgnZD/YESHbxrVzI/ws6sV1zgFDA=="
            }
          },
          {
            "validator_address": "41CAB2E29E7D0F2282E3275938F188FF9386B84C",
            "validator_index": "30",
            "height": "1991",
            "round": "0",
            "timestamp": "2018-07-30T07:56:47.167939373Z",
            "type": 2,
            "block_id": {
              "hash": "75738BB384E4A84D0A77D8DC036133579D30D2CB",
              "parts": {
                "total": "1",
                "hash": "8708EB371479313AAF2ED230EA02092C85C0B772"
              }
            },
            "signature": {
              "type": "tendermint/SignatureEd25519",
              "value": "6UfuOpqn03zeJOeLI3Fxzfj4wbbpE/QbYkVzzMHUOiXt9oL798X/aoqYEMsnJosmMXlemSqN9HtCiJHStay+Aw=="
            }
          },
          {
            "validator_address": "462B656869DB02A8FD1077E255F8CC7401DC37C6",
            "validator_index": "31",
            "height": "1991",
            "round": "0",
            "timestamp": "2018-07-30T07:56:47.153358932Z",
            "type": 2,
            "block_id": {
              "hash": "75738BB384E4A84D0A77D8DC036133579D30D2CB",
              "parts": {
                "total": "1",
                "hash": "8708EB371479313AAF2ED230EA02092C85C0B772"
              }
            },
            "signature": {
              "type": "tendermint/SignatureEd25519",
              "value": "+IO0v/c17FQ65llOpbzWxG8hywut6l5h3T3QHteqmKamx33QsPW3wViflt332RSLvreXmjVR+oOhKp2dhU1VBA=="
            }
          },
          {
            "validator_address": "48E5118163E5442068A1B5A42D2EEDBB75724935",
            "validator_index": "32",
            "height": "1991",
            "round": "0",
            "timestamp": "2018-07-30T07:56:47.250266627Z",
            "type": 2,
            "block_id": {
              "hash": "75738BB384E4A84D0A77D8DC036133579D30D2CB",
              "parts": {
                "total": "1",
                "hash": "8708EB371479313AAF2ED230EA02092C85C0B772"
              }
            },
            "signature": {
              "type": "tendermint/SignatureEd25519",
              "value": "Tcg5a4yc2dfjuue1U6RwggS43qt2AA5moyDWV+h3O/fqo2MoIffOmqY6G3JMF7ay4OLleytMOtflU0/pzfWaCg=="
            }
          },
          null,
          {
            "validator_address": "4944F8BBBB5303E17BC0607DF332320EDBC750EA",
            "validator_index": "34",
            "height": "1991",
            "round": "0",
            "timestamp": "2018-07-30T07:56:47.154201646Z",
            "type": 2,
            "block_id": {
              "hash": "75738BB384E4A84D0A77D8DC036133579D30D2CB",
              "parts": {
                "total": "1",
                "hash": "8708EB371479313AAF2ED230EA02092C85C0B772"
              }
            },
            "signature": {
              "type": "tendermint/SignatureEd25519",
              "value": "MD3EVsvwGxT6fr62c0esBHAUPW4Vgjr4x7ngb8HwrRnyE8z/GcBhZyQI/dX6Bxdk9TtV16eNqZGkKFRAp79vDg=="
            }
          },
          {
            "validator_address": "49841599DE675157CBE1E7D6B35BF8FFC23BD5CB",
            "validator_index": "35",
            "height": "1991",
            "round": "0",
            "timestamp": "2018-07-30T07:56:47.174086663Z",
            "type": 2,
            "block_id": {
              "hash": "75738BB384E4A84D0A77D8DC036133579D30D2CB",
              "parts": {
                "total": "1",
                "hash": "8708EB371479313AAF2ED230EA02092C85C0B772"
              }
            },
            "signature": {
              "type": "tendermint/SignatureEd25519",
              "value": "d46tbwiLAzxDcuyDI1gq7XgPMizNNx/JVchxaJHdM+x5/U0FNJnsVh6ebntqBXtkYIv84Lts2gJMIcAcYVPsBw=="
            }
          },
          {
            "validator_address": "5104F488EA6B1E2C33CBDA3C18389C88104DBC72",
            "validator_index": "36",
            "height": "1991",
            "round": "0",
            "timestamp": "2018-07-30T07:56:47.205523666Z",
            "type": 2,
            "block_id": {
              "hash": "75738BB384E4A84D0A77D8DC036133579D30D2CB",
              "parts": {
                "total": "1",
                "hash": "8708EB371479313AAF2ED230EA02092C85C0B772"
              }
            },
            "signature": {
              "type": "tendermint/SignatureEd25519",
              "value": "RALeHI/s1e4PZiM/qrNuL8LK0XS8hMfoPBMU4b1opKgjHZsNhKd+MvtvNQ5pl0P0lHzQGC7NcbbH5EspHOtFDw=="
            }
          },
          {
            "validator_address": "51386C2CF9556821D114D7E4945806802BADB28D",
            "validator_index": "37",
            "height": "1991",
            "round": "0",
            "timestamp": "2018-07-30T07:56:47.173877583Z",
            "type": 2,
            "block_id": {
              "hash": "75738BB384E4A84D0A77D8DC036133579D30D2CB",
              "parts": {
                "total": "1",
                "hash": "8708EB371479313AAF2ED230EA02092C85C0B772"
              }
            },
            "signature": {
              "type": "tendermint/SignatureEd25519",
              "value": "D8+nsAf3iwsJnGLEEBNkadXYMqcyfwQMiBzKpTb9MC9xpOslsGU+LjgzKYj7EqmFGSdOitBeDJWJAnfAvQPHCw=="
            }
          },
          {
            "validator_address": "543564ECA3AFEFADC73EE8591AAC3A96F079BC8A",
            "validator_index": "38",
            "height": "1991",
            "round": "0",
            "timestamp": "2018-07-30T07:56:47.181088529Z",
            "type": 2,
            "block_id": {
              "hash": "75738BB384E4A84D0A77D8DC036133579D30D2CB",
              "parts": {
                "total": "1",
                "hash": "8708EB371479313AAF2ED230EA02092C85C0B772"
              }
            },
            "signature": {
              "type": "tendermint/SignatureEd25519",
              "value": "SSUzdTAUZg1n0zZgNKsZqhOaM8TOdMFwRzglAMRgw7ibs0xW+OPt2FZLSzXIQ3XZGwS0QoNG2GKfRPB0SNv0AQ=="
            }
          },
          {
            "validator_address": "55D67B1A6DC13E96F8754A5A42EABC20F7F86664",
            "validator_index": "39",
            "height": "1991",
            "round": "0",
            "timestamp": "2018-07-30T07:56:47.131484839Z",
            "type": 2,
            "block_id": {
              "hash": "75738BB384E4A84D0A77D8DC036133579D30D2CB",
              "parts": {
                "total": "1",
                "hash": "8708EB371479313AAF2ED230EA02092C85C0B772"
              }
            },
            "signature": {
              "type": "tendermint/SignatureEd25519",
              "value": "XbEZKjr4YN6OH+I0u7QhvnXzdSVphSatCCQbdeRHXbWGOFlu+cpTcdWI76oN6mO4pfzmn54uom4YL+eu0RMOCQ=="
            }
          },
          {
            "validator_address": "570B6A755ED339EAC56BB3390A48069F6AC9449B",
            "validator_index": "40",
            "height": "1991",
            "round": "0",
            "timestamp": "2018-07-30T07:56:49.288946913Z",
            "type": 2,
            "block_id": {
              "hash": "75738BB384E4A84D0A77D8DC036133579D30D2CB",
              "parts": {
                "total": "1",
                "hash": "8708EB371479313AAF2ED230EA02092C85C0B772"
              }
            },
            "signature": {
              "type": "tendermint/SignatureEd25519",
              "value": "C2hjdq3ZbBSG8NKB53mNtBMJvZf2lBvwTGU5ZM3BO3Uu+CH15Ptj8EsxJCj7zHvO/dHHMmTI7RN089o7IFgmAA=="
            }
          },
          {
            "validator_address": "5BDF8EA41B1835FBAD865B181A2A4B23F511B5E4",
            "validator_index": "41",
            "height": "1991",
            "round": "0",
            "timestamp": "2018-07-30T07:56:47.174380222Z",
            "type": 2,
            "block_id": {
              "hash": "75738BB384E4A84D0A77D8DC036133579D30D2CB",
              "parts": {
                "total": "1",
                "hash": "8708EB371479313AAF2ED230EA02092C85C0B772"
              }
            },
            "signature": {
              "type": "tendermint/SignatureEd25519",
              "value": "GP3MgvTSWfLeFsAzWBbFjbrnWZzS3GuupmCLtISg7314+ETiD90PoPiINsYgYHY5u2drcQThLx0e5lYuPocxBQ=="
            }
          },
          null,
          null,
          {
            "validator_address": "60229E2E273297FE00219E46DFFB8F76844CDEF9",
            "validator_index": "44",
            "height": "1991",
            "round": "0",
            "timestamp": "2018-07-30T07:56:46.772401816Z",
            "type": 2,
            "block_id": {
              "hash": "75738BB384E4A84D0A77D8DC036133579D30D2CB",
              "parts": {
                "total": "1",
                "hash": "8708EB371479313AAF2ED230EA02092C85C0B772"
              }
            },
            "signature": {
              "type": "tendermint/SignatureEd25519",
              "value": "NxVOHskOS3bw6Sn0DpDc3TZ+McXrCi6V/JSiETwej+8R2hyQp+8fzfaTT5DDqhDi8jIoUihur83eCfGhF9aICw=="
            }
          },
          {
            "validator_address": "62410D6D1CD98278136E4D0738AA0EA273CDFC54",
            "validator_index": "45",
            "height": "1991",
            "round": "0",
            "timestamp": "2018-07-30T07:56:47.195552191Z",
            "type": 2,
            "block_id": {
              "hash": "75738BB384E4A84D0A77D8DC036133579D30D2CB",
              "parts": {
                "total": "1",
                "hash": "8708EB371479313AAF2ED230EA02092C85C0B772"
              }
            },
            "signature": {
              "type": "tendermint/SignatureEd25519",
              "value": "6U1+CTWJA3yZcTmEqEhmbKU+AyoLUuBWJfnX9s/igvg8P2oxqMCFV/CDWSJRsSGJc7k1M7EZHqIzff08mbWhAg=="
            }
          },
          {
            "validator_address": "632F5C139A5A9DFBFE5111DEE29FCFB6157207DC",
            "validator_index": "46",
            "height": "1991",
            "round": "0",
            "timestamp": "2018-07-30T07:56:47.167851317Z",
            "type": 2,
            "block_id": {
              "hash": "75738BB384E4A84D0A77D8DC036133579D30D2CB",
              "parts": {
                "total": "1",
                "hash": "8708EB371479313AAF2ED230EA02092C85C0B772"
              }
            },
            "signature": {
              "type": "tendermint/SignatureEd25519",
              "value": "Tsg75YNq7Y3wM8vlfQwBqw3nBU6wDbD+OImHfTdnvey9D/AWHI7zdTTcjK8mB3Z8eKzLw0KJT8SArvmRb23LCA=="
            }
          },
          {
            "validator_address": "64F57F8E796A9B7B590C1EFA4123988C86631D39",
            "validator_index": "47",
            "height": "1991",
            "round": "0",
            "timestamp": "2018-07-30T07:56:47.210481612Z",
            "type": 2,
            "block_id": {
              "hash": "75738BB384E4A84D0A77D8DC036133579D30D2CB",
              "parts": {
                "total": "1",
                "hash": "8708EB371479313AAF2ED230EA02092C85C0B772"
              }
            },
            "signature": {
              "type": "tendermint/SignatureEd25519",
              "value": "6ibscvHbJbObb8ps6I75HRtXP3AnQW40J3z2a9Qq6tc4iHwFVDyGlyHXm4qW9+kG1ZwgAVF21nbGbZg1hV7AAQ=="
            }
          },
          {
            "validator_address": "69D99B2C66043ACBEAA8447525C356AFC6408E0C",
            "validator_index": "48",
            "height": "1991",
            "round": "0",
            "timestamp": "2018-07-30T07:56:47.289431736Z",
            "type": 2,
            "block_id": {
              "hash": "75738BB384E4A84D0A77D8DC036133579D30D2CB",
              "parts": {
                "total": "1",
                "hash": "8708EB371479313AAF2ED230EA02092C85C0B772"
              }
            },
            "signature": {
              "type": "tendermint/SignatureEd25519",
              "value": "RmSBFDxs+c8yhNsEWRmVzj7ND9xR8pWf+mow0rFuDW3RX+1KJ6c+8BYctZpGAXoZQQ3sharCfaJTlvWAhlWSBA=="
            }
          },
          {
            "validator_address": "6D3AD380E398D8592B03AA124BAFED5F125DF863",
            "validator_index": "49",
            "height": "1991",
            "round": "0",
            "timestamp": "2018-07-30T07:55:45.681936536Z",
            "type": 2,
            "block_id": {
              "hash": "75738BB384E4A84D0A77D8DC036133579D30D2CB",
              "parts": {
                "total": "1",
                "hash": "8708EB371479313AAF2ED230EA02092C85C0B772"
              }
            },
            "signature": {
              "type": "tendermint/SignatureEd25519",
              "value": "aunaEJ5Uaybl8lA/K1ChdsAXEsu4jlwNnlLHTmufKW8DJqTrXKVD8fttFJlwfkU2bdyWYJUfxZvVmT5JWhgNDg=="
            }
          },
          {
            "validator_address": "6F6C93B8BF3495063FEC9B5C771158607F4AE9D6",
            "validator_index": "50",
            "height": "1991",
            "round": "0",
            "timestamp": "2018-07-30T07:56:47.179030169Z",
            "type": 2,
            "block_id": {
              "hash": "75738BB384E4A84D0A77D8DC036133579D30D2CB",
              "parts": {
                "total": "1",
                "hash": "8708EB371479313AAF2ED230EA02092C85C0B772"
              }
            },
            "signature": {
              "type": "tendermint/SignatureEd25519",
              "value": "VSBfaWF3vgLoD3isTqjfkAf5CQ6VrOqVMeiHTxpjtQ5HITdsVMxg5gUSCAiLnDelOncagozNTCELxzwRuXokDQ=="
            }
          },
          {
            "validator_address": "732CEEF54C374DDC6ADECBFD707AEFD07FEDC143",
            "validator_index": "51",
            "height": "1991",
            "round": "0",
            "timestamp": "2018-07-30T07:56:47.368635584Z",
            "type": 2,
            "block_id": {
              "hash": "75738BB384E4A84D0A77D8DC036133579D30D2CB",
              "parts": {
                "total": "1",
                "hash": "8708EB371479313AAF2ED230EA02092C85C0B772"
              }
            },
            "signature": {
              "type": "tendermint/SignatureEd25519",
              "value": "kKdD3Z4/QrYgqzDc9Zn2bN+AN805F/xjBeMVal9HTP95FHV/oy9OZ9Jri7uDQFajxcdrtEx6wq162IecFGx5Dw=="
            }
          },
          {
            "validator_address": "7393D691BFAE9661918C09932D4D9060AB40939B",
            "validator_index": "52",
            "height": "1991",
            "round": "0",
            "timestamp": "2018-07-30T07:56:47.274800004Z",
            "type": 2,
            "block_id": {
              "hash": "75738BB384E4A84D0A77D8DC036133579D30D2CB",
              "parts": {
                "total": "1",
                "hash": "8708EB371479313AAF2ED230EA02092C85C0B772"
              }
            },
            "signature": {
              "type": "tendermint/SignatureEd25519",
              "value": "39MVjrQzzbhAP/uc9xuLXeVJU2WK60zmKp21dYvrarMuVjLaqjZVoqrXw4LYGyZFTLSM1dvpEdUiclxXy7zTAQ=="
            }
          },
          {
            "validator_address": "751E43437224E8BB6D1569B3E2B2616B6E7F4397",
            "validator_index": "53",
            "height": "1991",
            "round": "0",
            "timestamp": "2018-07-30T07:56:47.2285558Z",
            "type": 2,
            "block_id": {
              "hash": "75738BB384E4A84D0A77D8DC036133579D30D2CB",
              "parts": {
                "total": "1",
                "hash": "8708EB371479313AAF2ED230EA02092C85C0B772"
              }
            },
            "signature": {
              "type": "tendermint/SignatureEd25519",
              "value": "t9Vhzlx1YnWWg5EsdbOWMEsWQT2XTTTCtHdlMEISLqWsNi5NTpjlGC0DWn0E7wD2k1eci4UQ7WhKttFTdoAsBw=="
            }
          },
          {
            "validator_address": "7EB7593F519F1180C7E872D0494611464EDF03AE",
            "validator_index": "54",
            "height": "1991",
            "round": "0",
            "timestamp": "2018-07-30T07:56:47.188181072Z",
            "type": 2,
            "block_id": {
              "hash": "75738BB384E4A84D0A77D8DC036133579D30D2CB",
              "parts": {
                "total": "1",
                "hash": "8708EB371479313AAF2ED230EA02092C85C0B772"
              }
            },
            "signature": {
              "type": "tendermint/SignatureEd25519",
              "value": "DxL+U99ocxq+m5CtEjUCiw9oeGUtOJQY24id6DcDmVJRMtZBiO6s2rs2vdB3VjI1/qR0k4DEhVmHPsXfivvRAQ=="
            }
          },
          {
            "validator_address": "807CF675BA8479FC4FEC1047215DF07970040F1F",
            "validator_index": "55",
            "height": "1991",
            "round": "0",
            "timestamp": "2018-07-30T07:56:47.479409859Z",
            "type": 2,
            "block_id": {
              "hash": "75738BB384E4A84D0A77D8DC036133579D30D2CB",
              "parts": {
                "total": "1",
                "hash": "8708EB371479313AAF2ED230EA02092C85C0B772"
              }
            },
            "signature": {
              "type": "tendermint/SignatureEd25519",
              "value": "xnQcRt/5YITujZL5TK7AUK3Xitd+MDiuu5YWggoiTMp7st8MNUk3OJubMF0u6Tjye8M/0kMfP42AZr9GR9kyDw=="
            }
          },
          {
            "validator_address": "8126192EA66E8ADE6B36924534721366B987A4C1",
            "validator_index": "56",
            "height": "1991",
            "round": "0",
            "timestamp": "2018-07-30T07:56:47.171687719Z",
            "type": 2,
            "block_id": {
              "hash": "75738BB384E4A84D0A77D8DC036133579D30D2CB",
              "parts": {
                "total": "1",
                "hash": "8708EB371479313AAF2ED230EA02092C85C0B772"
              }
            },
            "signature": {
              "type": "tendermint/SignatureEd25519",
              "value": "+bklIG8zBqwMp1InJwgTN1jqVC9+WT9hFT/WFRJ6uZcWJMDbV13X/hPHe39y/sWs53P37B8lAKbS+LJssWcZDQ=="
            }
          },
          null,
          {
            "validator_address": "83AB321E012C57746689FED3A6064DF331F81007",
            "validator_index": "58",
            "height": "1991",
            "round": "0",
            "timestamp": "2018-07-30T07:56:47.181518264Z",
            "type": 2,
            "block_id": {
              "hash": "75738BB384E4A84D0A77D8DC036133579D30D2CB",
              "parts": {
                "total": "1",
                "hash": "8708EB371479313AAF2ED230EA02092C85C0B772"
              }
            },
            "signature": {
              "type": "tendermint/SignatureEd25519",
              "value": "+rY7bYgdRPrTf1iLj9AdYdT0X0/UG+zeIOOwu4P72YMwv8WpOK8UY6xruP9/4X6OLFdeGiy0rJ3d+obo6dHlCw=="
            }
          },
          {
            "validator_address": "83BB1B88D3DBB20AD845FECA07749EBD87D3754D",
            "validator_index": "59",
            "height": "1991",
            "round": "0",
            "timestamp": "2018-07-30T07:56:47.435557601Z",
            "type": 2,
            "block_id": {
              "hash": "75738BB384E4A84D0A77D8DC036133579D30D2CB",
              "parts": {
                "total": "1",
                "hash": "8708EB371479313AAF2ED230EA02092C85C0B772"
              }
            },
            "signature": {
              "type": "tendermint/SignatureEd25519",
              "value": "W604sC6Rwi37hT1wwS4XPuXr4GqTR7CO6Jl7aAgMasXZfAEKL5GaxTf6rriPzAZh18m30SUCUZDsMckjFijEBQ=="
            }
          },
          null,
          null,
          {
            "validator_address": "8F45617BF45B10A3F8283DEBDB35E38C7CA43237",
            "validator_index": "62",
            "height": "1991",
            "round": "0",
            "timestamp": "2018-07-30T07:56:47.131812039Z",
            "type": 2,
            "block_id": {
              "hash": "75738BB384E4A84D0A77D8DC036133579D30D2CB",
              "parts": {
                "total": "1",
                "hash": "8708EB371479313AAF2ED230EA02092C85C0B772"
              }
            },
            "signature": {
              "type": "tendermint/SignatureEd25519",
              "value": "z171KT9ukpG1nS3rSgpnP/Wcc8qqBkNO3yf8ffTQPERV4DMyYzRhuCASAXtxbZ8ZvW2wenzB6kYHvsA86XGYAw=="
            }
          },
          {
            "validator_address": "90130588383502829D439E2E85C0B5F971ECF39E",
            "validator_index": "63",
            "height": "1991",
            "round": "0",
            "timestamp": "2018-07-30T07:56:47.34636592Z",
            "type": 2,
            "block_id": {
              "hash": "75738BB384E4A84D0A77D8DC036133579D30D2CB",
              "parts": {
                "total": "1",
                "hash": "8708EB371479313AAF2ED230EA02092C85C0B772"
              }
            },
            "signature": {
              "type": "tendermint/SignatureEd25519",
              "value": "A6G4YY62Ltq8q1VksZOn93abvrhAjqws/ixayfpvwnrgnNsRt7HwhYicw0RIlQ1TMfyyM8a1BdNez5ZwVrUnAQ=="
            }
          },
          null,
          {
            "validator_address": "95FAFBC1E0579C83D290A063020CE87C5334BD9B",
            "validator_index": "65",
            "height": "1991",
            "round": "0",
            "timestamp": "2018-07-30T07:56:47.218034409Z",
            "type": 2,
            "block_id": {
              "hash": "75738BB384E4A84D0A77D8DC036133579D30D2CB",
              "parts": {
                "total": "1",
                "hash": "8708EB371479313AAF2ED230EA02092C85C0B772"
              }
            },
            "signature": {
              "type": "tendermint/SignatureEd25519",
              "value": "GQD2Po8zVocUU5gR/qFBAPbfIuP9FZXzVQa8P8544sVt+xhWJsx/LgS1mlcp3Of7F4sqHu3lElR4TQSGPN79Aw=="
            }
          },
          {
            "validator_address": "96BDE45EC52606CF5CB59853097871AD60680549",
            "validator_index": "66",
            "height": "1991",
            "round": "0",
            "timestamp": "2018-07-30T07:56:47.235731617Z",
            "type": 2,
            "block_id": {
              "hash": "75738BB384E4A84D0A77D8DC036133579D30D2CB",
              "parts": {
                "total": "1",
                "hash": "8708EB371479313AAF2ED230EA02092C85C0B772"
              }
            },
            "signature": {
              "type": "tendermint/SignatureEd25519",
              "value": "wmj4dNxllNQpvtnHs69+etc8XmE5flYL+Mlx0sEfXFL8HMdh4yHiF2yEZ0kALg3Ri6rhC2E9o1932jIPkvacAA=="
            }
          },
          {
            "validator_address": "970CD321881185BF83DB2923C321B0E75FDBB2B8",
            "validator_index": "67",
            "height": "1991",
            "round": "0",
            "timestamp": "2018-07-30T07:56:47.305201191Z",
            "type": 2,
            "block_id": {
              "hash": "75738BB384E4A84D0A77D8DC036133579D30D2CB",
              "parts": {
                "total": "1",
                "hash": "8708EB371479313AAF2ED230EA02092C85C0B772"
              }
            },
            "signature": {
              "type": "tendermint/SignatureEd25519",
              "value": "ptaF3PFDDUiXlD3Cx6av9DuWVopABi8T4RTvZTkPkYPO/FsubvYjKc6+Ht/c67O6Ofmaw+xmluhgsyIUvarYDw=="
            }
          },
          null,
          {
            "validator_address": "9C29C9B76D27586E4D9AD2AED0E943162645E55C",
            "validator_index": "69",
            "height": "1991",
            "round": "0",
            "timestamp": "2018-07-30T07:56:47.123135Z",
            "type": 2,
            "block_id": {
              "hash": "75738BB384E4A84D0A77D8DC036133579D30D2CB",
              "parts": {
                "total": "1",
                "hash": "8708EB371479313AAF2ED230EA02092C85C0B772"
              }
            },
            "signature": {
              "type": "tendermint/SignatureEd25519",
              "value": "oBQE4tHfu+kRxa1GkcW4EenwY1dOVhFDDemhXLwwLtzNiTWFzAUFvCA3nb7kQV9EpMfCFr3yPC0VXB3xnHF0Ag=="
            }
          },
          {
            "validator_address": "9D93AD02FE1BD7E76B9E58D7EB461088EAD011E5",
            "validator_index": "70",
            "height": "1991",
            "round": "0",
            "timestamp": "2018-07-30T07:56:47.103671701Z",
            "type": 2,
            "block_id": {
              "hash": "75738BB384E4A84D0A77D8DC036133579D30D2CB",
              "parts": {
                "total": "1",
                "hash": "8708EB371479313AAF2ED230EA02092C85C0B772"
              }
            },
            "signature": {
              "type": "tendermint/SignatureEd25519",
              "value": "hL0ToQlnWbNNSir7QzhSunucEBcsXlZneInDs+JQqosXeiAIOC1nRcG8bgUU/d6YbUsu+VvEnnhwtIche+m3Cg=="
            }
          },
          null,
          {
            "validator_address": "A0A6466F4ABEA09C3B55E3709AFDE217A103209F",
            "validator_index": "72",
            "height": "1991",
            "round": "0",
            "timestamp": "2018-07-30T07:56:47.19492314Z",
            "type": 2,
            "block_id": {
              "hash": "75738BB384E4A84D0A77D8DC036133579D30D2CB",
              "parts": {
                "total": "1",
                "hash": "8708EB371479313AAF2ED230EA02092C85C0B772"
              }
            },
            "signature": {
              "type": "tendermint/SignatureEd25519",
              "value": "BRi/A/EoEBNO93z/bGjUYWVMwXKPHPyVRFqOMQQTIrPhbLl9609rqQhezmLtHB0Z3R7+AjyoG9s0hiY7JK88AA=="
            }
          },
          {
            "validator_address": "A5868971300F155020634D7BB49C7634F7AACCD3",
            "validator_index": "73",
            "height": "1991",
            "round": "0",
            "timestamp": "2018-07-30T07:56:47.20552145Z",
            "type": 2,
            "block_id": {
              "hash": "75738BB384E4A84D0A77D8DC036133579D30D2CB",
              "parts": {
                "total": "1",
                "hash": "8708EB371479313AAF2ED230EA02092C85C0B772"
              }
            },
            "signature": {
              "type": "tendermint/SignatureEd25519",
              "value": "VItW/AeQPJg8YodXgrWShWau5rkHv8hsKF/Pxo6xT+3GJV7KCISMLxu6WbxaK0yO5aPelTgqHUzz4Zw95MtPAw=="
            }
          },
          null,
          {
            "validator_address": "AC96444A9083890B7C7B430DB17BF1D3EA5EED04",
            "validator_index": "75",
            "height": "1991",
            "round": "0",
            "timestamp": "2018-07-30T07:56:47.329037662Z",
            "type": 2,
            "block_id": {
              "hash": "75738BB384E4A84D0A77D8DC036133579D30D2CB",
              "parts": {
                "total": "1",
                "hash": "8708EB371479313AAF2ED230EA02092C85C0B772"
              }
            },
            "signature": {
              "type": "tendermint/SignatureEd25519",
              "value": "W4tjB2VX2K/KYUTLLXm0R4xd/Qr0Z0KLw+ksanr++az7M9znFwmBo6BGX11k5mbUYAdSp53zNVWdmnPp4RBEDA=="
            }
          },
          {
            "validator_address": "ACB97FDA2D940AF0709B73537C458EB988AD2893",
            "validator_index": "76",
            "height": "1991",
            "round": "0",
            "timestamp": "2018-07-30T07:56:47.201282473Z",
            "type": 2,
            "block_id": {
              "hash": "75738BB384E4A84D0A77D8DC036133579D30D2CB",
              "parts": {
                "total": "1",
                "hash": "8708EB371479313AAF2ED230EA02092C85C0B772"
              }
            },
            "signature": {
              "type": "tendermint/SignatureEd25519",
              "value": "Opp7vxdsB32pJ3jgW/kKW13Xvzehqvh9CeK2DlxAN8Sn7ALhqUxMNtTnjfyixkQeLA+oliGgBmQyntf7fJVTCQ=="
            }
          },
          {
            "validator_address": "B119AEA58588AECA2B86F5A9681629959934698A",
            "validator_index": "77",
            "height": "1991",
            "round": "0",
            "timestamp": "2018-07-30T07:56:48.983940657Z",
            "type": 2,
            "block_id": {
              "hash": "",
              "parts": {
                "total": "0",
                "hash": ""
              }
            },
            "signature": {
              "type": "tendermint/SignatureEd25519",
              "value": "IxWI5bQkg0AZsJNCghWunLXZshCJxLe7laeYeAtb2nCNTSPAcwTv6Tk1GXdB4jAq3rh4zYElllQRx6a1JnEfDg=="
            }
          },
          {
            "validator_address": "B197425B3210375F211661DE02EF2AE36580EB0F",
            "validator_index": "78",
            "height": "1991",
            "round": "0",
            "timestamp": "2018-07-30T07:56:47.202217191Z",
            "type": 2,
            "block_id": {
              "hash": "75738BB384E4A84D0A77D8DC036133579D30D2CB",
              "parts": {
                "total": "1",
                "hash": "8708EB371479313AAF2ED230EA02092C85C0B772"
              }
            },
            "signature": {
              "type": "tendermint/SignatureEd25519",
              "value": "n3Td1rE+3DxTOqUQ7w8y3JAm/HQWllJisAI103IXHZzYa6sLoNc6aIopeZGOQbDRfeMOs8wNThhP+7bLnPQyBQ=="
            }
          },
          {
            "validator_address": "B45E54D2D1CB5A4CCD1D49016608C18E7C56B270",
            "validator_index": "79",
            "height": "1991",
            "round": "0",
            "timestamp": "2018-07-30T07:56:47.336939888Z",
            "type": 2,
            "block_id": {
              "hash": "75738BB384E4A84D0A77D8DC036133579D30D2CB",
              "parts": {
                "total": "1",
                "hash": "8708EB371479313AAF2ED230EA02092C85C0B772"
              }
            },
            "signature": {
              "type": "tendermint/SignatureEd25519",
              "value": "yzNtNK3GbPgwT62Z2cI/5XD87BeQfPSpvbK+IHf5Yz3GsWMjzejzgTPCVwzkRqRYoVdw/Ma2SYtl78L9z4wBBQ=="
            }
          },
          {
            "validator_address": "B59A34C0BE4EC73AF6A67D274F1695C9259C237C",
            "validator_index": "80",
            "height": "1991",
            "round": "0",
            "timestamp": "2018-07-30T07:56:47.198174306Z",
            "type": 2,
            "block_id": {
              "hash": "75738BB384E4A84D0A77D8DC036133579D30D2CB",
              "parts": {
                "total": "1",
                "hash": "8708EB371479313AAF2ED230EA02092C85C0B772"
              }
            },
            "signature": {
              "type": "tendermint/SignatureEd25519",
              "value": "DH6npIhRpcpXMf0wlrNm48NYOup7YYtaXhA0AFLuGy+EvdkusvES7Lat1FxQuQgsrrgpjY5hYBDgyIgwz02NDA=="
            }
          },
          {
            "validator_address": "BC36FEDD6EF6071118A3E51859DF3831A2EC4782",
            "validator_index": "81",
            "height": "1991",
            "round": "0",
            "timestamp": "2018-07-30T07:56:47.20273831Z",
            "type": 2,
            "block_id": {
              "hash": "75738BB384E4A84D0A77D8DC036133579D30D2CB",
              "parts": {
                "total": "1",
                "hash": "8708EB371479313AAF2ED230EA02092C85C0B772"
              }
            },
            "signature": {
              "type": "tendermint/SignatureEd25519",
              "value": "6jWmB9ZRIyr7vwpaRicbNIO0AyCPxatnAnTpEbP6cWUQ9El1I3n7NmzIWsrN3kcR3UZFGR+iECXgksQH2C7+CQ=="
            }
          },
          null,
          null,
          {
            "validator_address": "C39A8A2B85198DCB8F23AD1F6C198E2BA7AB5D60",
            "validator_index": "84",
            "height": "1991",
            "round": "0",
            "timestamp": "2018-07-30T07:56:47.143743752Z",
            "type": 2,
            "block_id": {
              "hash": "75738BB384E4A84D0A77D8DC036133579D30D2CB",
              "parts": {
                "total": "1",
                "hash": "8708EB371479313AAF2ED230EA02092C85C0B772"
              }
            },
            "signature": {
              "type": "tendermint/SignatureEd25519",
              "value": "NYP+FgGKvWx7Uu2alYLn/JCK2anqfbgUYyxVv3nCqhOPdeq1j1Mzyf0YaN5Z81Y27kt6IiNE2Nz0gS6CVbtkCA=="
            }
          },
          {
            "validator_address": "C4335190C3B5BD4BA5568BC0F99C34162D940D08",
            "validator_index": "85",
            "height": "1991",
            "round": "0",
            "timestamp": "2018-07-30T07:56:47.23374741Z",
            "type": 2,
            "block_id": {
              "hash": "75738BB384E4A84D0A77D8DC036133579D30D2CB",
              "parts": {
                "total": "1",
                "hash": "8708EB371479313AAF2ED230EA02092C85C0B772"
              }
            },
            "signature": {
              "type": "tendermint/SignatureEd25519",
              "value": "ZvlDxw0aO/jwSKSWA4y4Ksnx5/8izFoIWC8whP6tfoN7EHyXtJzI6Vg4HjT8OVqFEUudisHqRbxIJ75pq6zQCg=="
            }
          },
          null,
          null,
          {
            "validator_address": "D2134B826A1E25A955905CB79A4D8731CAFA0CCE",
            "validator_index": "88",
            "height": "1991",
            "round": "0",
            "timestamp": "2018-07-30T07:56:47.304808363Z",
            "type": 2,
            "block_id": {
              "hash": "75738BB384E4A84D0A77D8DC036133579D30D2CB",
              "parts": {
                "total": "1",
                "hash": "8708EB371479313AAF2ED230EA02092C85C0B772"
              }
            },
            "signature": {
              "type": "tendermint/SignatureEd25519",
              "value": "/XFwrlKGzlSWWof4A0eruwnv6YUvA2UBSyfnCZmO33ME059pqR5+HAioGV1DxMSFYSRA2BZftC0+b6PNdlk1Aw=="
            }
          },
          null,
          {
            "validator_address": "D6285C3422C8886445D53757CBE12D2B91B5A9D0",
            "validator_index": "90",
            "height": "1991",
            "round": "0",
            "timestamp": "2018-07-30T07:56:29.294779729Z",
            "type": 2,
            "block_id": {
              "hash": "75738BB384E4A84D0A77D8DC036133579D30D2CB",
              "parts": {
                "total": "1",
                "hash": "8708EB371479313AAF2ED230EA02092C85C0B772"
              }
            },
            "signature": {
              "type": "tendermint/SignatureEd25519",
              "value": "SwAIBZI2eqhodQ8rXBt2oNKQoDu9yURVH704lTbTZGvDxUoJFdPLtuAUhuVSQaqi9sXp+DQk1+9Xih9Rt+anBg=="
            }
          },
          null,
          null,
          {
            "validator_address": "DB7E6732471D3EA5C90C17A9974D9F88AB45F2FB",
            "validator_index": "93",
            "height": "1991",
            "round": "0",
            "timestamp": "2018-07-30T07:56:47.258007918Z",
            "type": 2,
            "block_id": {
              "hash": "75738BB384E4A84D0A77D8DC036133579D30D2CB",
              "parts": {
                "total": "1",
                "hash": "8708EB371479313AAF2ED230EA02092C85C0B772"
              }
            },
            "signature": {
              "type": "tendermint/SignatureEd25519",
              "value": "ZCWSXx0cGWR1qooV636oxjyQlKZ5qMbxd+On3YP1QyGdIpC1K3F2gtQmIoAA6dXDrZ2k6SxFgDJwMYMcCIxhBw=="
            }
          },
          {
            "validator_address": "DF54B862410BCD9B5C516FBB6C56BDC826ED6FA7",
            "validator_index": "94",
            "height": "1991",
            "round": "0",
            "timestamp": "2018-07-30T07:56:47.245418996Z",
            "type": 2,
            "block_id": {
              "hash": "75738BB384E4A84D0A77D8DC036133579D30D2CB",
              "parts": {
                "total": "1",
                "hash": "8708EB371479313AAF2ED230EA02092C85C0B772"
              }
            },
            "signature": {
              "type": "tendermint/SignatureEd25519",
              "value": "WYEyxP/dYk+oCt0SyAI1zzGVSMj/xRUf56llPDGj7a8y4QjvZCAhPz5AuqkJOvqMh3y2VEugfeNMk9GPRb8dDg=="
            }
          },
          {
            "validator_address": "DFAF0C8B1B78D6D552B0189DE3ACA351439A1319",
            "validator_index": "95",
            "height": "1991",
            "round": "0",
            "timestamp": "2018-07-30T07:56:47.165946966Z",
            "type": 2,
            "block_id": {
              "hash": "75738BB384E4A84D0A77D8DC036133579D30D2CB",
              "parts": {
                "total": "1",
                "hash": "8708EB371479313AAF2ED230EA02092C85C0B772"
              }
            },
            "signature": {
              "type": "tendermint/SignatureEd25519",
              "value": "LuNvmav3ZtX6cw2KKFXcHGolG/FxdmsHHwHtd5TvMSByzwn4V0fb/nwdA4BI3hkXNpEinXp+6rFE/FEKtlbRCw=="
            }
          },
          {
            "validator_address": "E1DBC77881161A5A3A8536A57536EAE546A75D69",
            "validator_index": "96",
            "height": "1991",
            "round": "0",
            "timestamp": "2018-07-30T07:56:47.142503713Z",
            "type": 2,
            "block_id": {
              "hash": "75738BB384E4A84D0A77D8DC036133579D30D2CB",
              "parts": {
                "total": "1",
                "hash": "8708EB371479313AAF2ED230EA02092C85C0B772"
              }
            },
            "signature": {
              "type": "tendermint/SignatureEd25519",
              "value": "E0PMU467v18+xg1H+8tgxoKTk7Tmwgwn3gWRdD+BDjZao7cYVAtvHCtEOlWOfIbRxdh2+hGkKjW0WvtiRsjRCw=="
            }
          },
          {
            "validator_address": "E300E9D484374C1D3E97C1D93CAC3B160A056298",
            "validator_index": "97",
            "height": "1991",
            "round": "0",
            "timestamp": "2018-07-30T07:56:47.425790998Z",
            "type": 2,
            "block_id": {
              "hash": "75738BB384E4A84D0A77D8DC036133579D30D2CB",
              "parts": {
                "total": "1",
                "hash": "8708EB371479313AAF2ED230EA02092C85C0B772"
              }
            },
            "signature": {
              "type": "tendermint/SignatureEd25519",
              "value": "9noGOQoilDvx9XKK+gUZ1FexUBWnKm54rGTWb+BfEDESZmPb9HpfHq5Dz0VkgtepwUodOmMyj7f5sTtpFVKkCw=="
            }
          },
          {
            "validator_address": "E39B5778E0D4297A46F45CF6940B0A163A430FF8",
            "validator_index": "98",
            "height": "1991",
            "round": "0",
            "timestamp": "2018-07-30T07:56:47.191762727Z",
            "type": 2,
            "block_id": {
              "hash": "75738BB384E4A84D0A77D8DC036133579D30D2CB",
              "parts": {
                "total": "1",
                "hash": "8708EB371479313AAF2ED230EA02092C85C0B772"
              }
            },
            "signature": {
              "type": "tendermint/SignatureEd25519",
              "value": "2OvumMQOsExNj3+nfz9nljP17QkZhmC4bQiBsHDbulsrTNjRIw97fbPX58Sr2QalQ0VYYTDk7C2ujisZlZXHBA=="
            }
          },
          null,
          {
            "validator_address": "E42F8AEABB685219F7027F54D2B0DBC7846F633A",
            "validator_index": "100",
            "height": "1991",
            "round": "0",
            "timestamp": "2018-07-30T07:56:46.593997581Z",
            "type": 2,
            "block_id": {
              "hash": "75738BB384E4A84D0A77D8DC036133579D30D2CB",
              "parts": {
                "total": "1",
                "hash": "8708EB371479313AAF2ED230EA02092C85C0B772"
              }
            },
            "signature": {
              "type": "tendermint/SignatureEd25519",
              "value": "U+MSttQmIuMNaSNnaieZh8RsJbIzWf3li5jOeob0oSz6JC22splLdzN0omOsTToRBozayIlfjTfkjwkC7X8EBg=="
            }
          },
          {
            "validator_address": "E4E6C2E81269DFFA196C17F98240E491479A6008",
            "validator_index": "101",
            "height": "1991",
            "round": "0",
            "timestamp": "2018-07-30T07:56:47.208733795Z",
            "type": 2,
            "block_id": {
              "hash": "75738BB384E4A84D0A77D8DC036133579D30D2CB",
              "parts": {
                "total": "1",
                "hash": "8708EB371479313AAF2ED230EA02092C85C0B772"
              }
            },
            "signature": {
              "type": "tendermint/SignatureEd25519",
              "value": "2ysg8frgHWmWVPH3tQZjd8LtSIizePRlPKbB7+fxoBNcvL3eyriIQ/Ow6C7IbYK9mFHa21n97mUaRrwNwJh4Dw=="
            }
          },
          null,
          {
            "validator_address": "E6A7079D584B163750BE0831227F6B685DEAF3C1",
            "validator_index": "103",
            "height": "1991",
            "round": "0",
            "timestamp": "2018-07-30T07:56:47.238343021Z",
            "type": 2,
            "block_id": {
              "hash": "75738BB384E4A84D0A77D8DC036133579D30D2CB",
              "parts": {
                "total": "1",
                "hash": "8708EB371479313AAF2ED230EA02092C85C0B772"
              }
            },
            "signature": {
              "type": "tendermint/SignatureEd25519",
              "value": "TNkPyeHESsaLxqwC0hVija/iurONVXaEgFCKq3rxJlx2ipbXaZRR4YiwpcAf5LRwOlwipRfjLHworve9ICykAQ=="
            }
          },
          {
            "validator_address": "E7A30077D5D11867D3EAF99ED45BFDC1EB834509",
            "validator_index": "104",
            "height": "1991",
            "round": "0",
            "timestamp": "2018-07-30T07:56:47.139320716Z",
            "type": 2,
            "block_id": {
              "hash": "75738BB384E4A84D0A77D8DC036133579D30D2CB",
              "parts": {
                "total": "1",
                "hash": "8708EB371479313AAF2ED230EA02092C85C0B772"
              }
            },
            "signature": {
              "type": "tendermint/SignatureEd25519",
              "value": "npnlDAyHy062bBQkySY5FaHDJ8qMhmfEbxbtpy808wY/yubnx2KotjqCQGuAHPT1RccqqCOEFK75OjO+dqX0AQ=="
            }
          },
          {
            "validator_address": "EBC613967F66F4EC306852CDF58B4F151CF16738",
            "validator_index": "105",
            "height": "1991",
            "round": "0",
            "timestamp": "2018-07-30T07:56:47.205158041Z",
            "type": 2,
            "block_id": {
              "hash": "75738BB384E4A84D0A77D8DC036133579D30D2CB",
              "parts": {
                "total": "1",
                "hash": "8708EB371479313AAF2ED230EA02092C85C0B772"
              }
            },
            "signature": {
              "type": "tendermint/SignatureEd25519",
              "value": "3ll9Nqhsy/bXzpuV/m/GMAeeI4B9v+4nvOu77BeSIHl9Z8pabL/zRBONtHmEV+ErAnTf4IPp4G9BSJPw6dmDCA=="
            }
          },
          null,
          {
            "validator_address": "EC95B111D032181E1EC3B5E8875C5BB8E4AE7140",
            "validator_index": "107",
            "height": "1991",
            "round": "0",
            "timestamp": "2018-07-30T07:56:47.075179225Z",
            "type": 2,
            "block_id": {
              "hash": "75738BB384E4A84D0A77D8DC036133579D30D2CB",
              "parts": {
                "total": "1",
                "hash": "8708EB371479313AAF2ED230EA02092C85C0B772"
              }
            },
            "signature": {
              "type": "tendermint/SignatureEd25519",
              "value": "nwUX6gjESAmtnhTuwjtZXolxxyf2TCOoY8WXaBsIZm5nT+QoT8cpge5G3KNrPzUXxRPu4OfwlaCbsK5nVNaBDQ=="
            }
          },
          {
            "validator_address": "F13C1805E8131C9B47E2A46818F57D8A2841E578",
            "validator_index": "108",
            "height": "1991",
            "round": "0",
            "timestamp": "2018-07-30T07:56:47.369439439Z",
            "type": 2,
            "block_id": {
              "hash": "75738BB384E4A84D0A77D8DC036133579D30D2CB",
              "parts": {
                "total": "1",
                "hash": "8708EB371479313AAF2ED230EA02092C85C0B772"
              }
            },
            "signature": {
              "type": "tendermint/SignatureEd25519",
              "value": "wh4Ac5uw7vbiLx5e/oAMpK5ZzA2ZiJ2bdJSdp8IMgmcpu/C9pgb6e5hBkapJCpTxYrcH8LKEFA6YtQpitVeDCw=="
            }
          },
          {
            "validator_address": "F23FF36BD5B90C33CE3A03ED72DBDCF5EC07D6AF",
            "validator_index": "109",
            "height": "1991",
            "round": "0",
            "timestamp": "2018-07-30T07:56:47.246515204Z",
            "type": 2,
            "block_id": {
              "hash": "75738BB384E4A84D0A77D8DC036133579D30D2CB",
              "parts": {
                "total": "1",
                "hash": "8708EB371479313AAF2ED230EA02092C85C0B772"
              }
            },
            "signature": {
              "type": "tendermint/SignatureEd25519",
              "value": "A9kMguxhwPf2/sqVn76EyzZ6xf0ajsegre8HwjwkckrMvx3RM0/x2qJDMTlLdwivIBWrkV64UVbDdWiQP4LmBQ=="
            }
          },
          {
            "validator_address": "F4268597DE93E3E2CED38845010F8AA34E2A879E",
            "validator_index": "110",
            "height": "1991",
            "round": "0",
            "timestamp": "2018-07-30T07:56:47.283691135Z",
            "type": 2,
            "block_id": {
              "hash": "75738BB384E4A84D0A77D8DC036133579D30D2CB",
              "parts": {
                "total": "1",
                "hash": "8708EB371479313AAF2ED230EA02092C85C0B772"
              }
            },
            "signature": {
              "type": "tendermint/SignatureEd25519",
              "value": "oY6hp8zVpIR0v1ZaAE40xY3QTbFPVPd+UCgBxtvs8ObvURkRFAgoT+GcTGZt7VZCznUKnbEYDzqu7xj4gp97Cw=="
            }
          },
          {
            "validator_address": "F4DEB417999B04BE2EFF9FFE03FA373D86011CC0",
            "validator_index": "111",
            "height": "1991",
            "round": "0",
            "timestamp": "2018-07-30T07:56:47.184122504Z",
            "type": 2,
            "block_id": {
              "hash": "75738BB384E4A84D0A77D8DC036133579D30D2CB",
              "parts": {
                "total": "1",
                "hash": "8708EB371479313AAF2ED230EA02092C85C0B772"
              }
            },
            "signature": {
              "type": "tendermint/SignatureEd25519",
              "value": "zJUswbYoRzcWYhysvU4LJX5dGn9T1fwAqr2FUkIc3z98pNY0A+UuI//pz/g98I34G3ftbE2s2nCzfbpUhphgAg=="
            }
          },
          null,
          {
            "validator_address": "FB6AC8B89A1C585F26410FF259952A432A7A3FDB",
            "validator_index": "113",
            "height": "1991",
            "round": "0",
            "timestamp": "2018-07-30T07:56:47.253302585Z",
            "type": 2,
            "block_id": {
              "hash": "75738BB384E4A84D0A77D8DC036133579D30D2CB",
              "parts": {
                "total": "1",
                "hash": "8708EB371479313AAF2ED230EA02092C85C0B772"
              }
            },
            "signature": {
              "type": "tendermint/SignatureEd25519",
              "value": "/DYTh6tw7BJ3zVcyzCSf4BUF1Q1wgLSKa3nE0fxBh8XZ7UDEeicqGzi2LkgIvATPfy0gy0/zO5ZWY+bdEEU9Bg=="
            }
          },
          null,
          {
            "validator_address": "FF3F3FCBCE7E62D7AD5506FF846EC4518D980515",
            "validator_index": "115",
            "height": "1991",
            "round": "0",
            "timestamp": "2018-07-30T07:56:47.117142474Z",
            "type": 2,
            "block_id": {
              "hash": "75738BB384E4A84D0A77D8DC036133579D30D2CB",
              "parts": {
                "total": "1",
                "hash": "8708EB371479313AAF2ED230EA02092C85C0B772"
              }
            },
            "signature": {
              "type": "tendermint/SignatureEd25519",
              "value": "zfnSxbep4xX91F18QbXVa13XkwqaKQ4UY6iAedBiHzd2+NKWEJceItqN7AB7u/pF5zIALtLNvPEiOLzMo7MLDQ=="
            }
          }
        ]
      }
    },
    "canonical": true
  }
}