{
  "jsonrpc": "2.0",
  "id": "",
  "result": {
    "SignedHeader": {
      "header": {
        "chain_id": "gaia-7004",
        "height": "21172",
        "time": "2018-07-31T16:55:23.621676205Z",
        "num_txs": "0",
        "last_block_id": {
          "hash": "CF34E237164E5FC72A10F848A6F1518E2271B733",
          "parts": {
            "total": "1",
            "hash": "473625EC4B92FC738508A8D872F5A2BE4AEEC1C5"
          }
        },
        "total_txs": "593",
        "last_commit_hash": "70DE8EB233BDD796A43DC85FC419350A6D44A3FD",
        "data_hash": "",
        "validators_hash": "86AE56F431B05932D8FA24DBEB62ABFFEBCEC5E0",
        "consensus_hash": "D6B74BB35BDFFD8392340F2A379173548AE188FE",
        "app_hash": "AB25DBCEBC24031B239FD1EF11ADEA4CCDBE4D06",
        "last_results_hash": "",
        "evidence_hash": ""
      },
      "commit": {
        "block_id": {
          "hash": "43BF56EE452151112450E09C9221032D329CAC87",
          "parts": {
            "total": "1",
            "hash": "16E5CD02C252A59A80095A8EC567F5A8178D267C"
          }
        },
        "precommits": [
          {
            "validator_address": "029359C0C768096273A68ABC902A6B17AC8D1D70",
            "validator_index": "0",
            "height": "21172",
            "round": "1",
            "timestamp": "2018-07-31T16:55:24.492863013Z",
            "type": 2,
            "block_id": {
              "hash": "43BF56EE452151112450E09C9221032D329CAC87",
              "parts": {
                "total": "1",
                "hash": "16E5CD02C252A59A80095A8EC567F5A8178D267C"
              }
            },
            "signature": {
              "type": "tendermint/SignatureEd25519",
              "value": "FMCAacW8xsP14b90YgzbvrymIC88ntJd4W/ASJHhNDLZDnhjKbafCaWW3mEcmQTpeRHdc6Maz7lqZjz9UyNpBg=="
            }
          },
          {
            "validator_address": "02FE4B97A8387F39D1AC19E0C1702B3CC614812F",
            "validator_index": "1",
            "height": "21172",
            "round": "1",
            "timestamp": "2018-07-31T16:55:24.523977885Z",
            "type": 2,
            "block_id": {
              "hash": "43BF56EE452151112450E09C9221032D329CAC87",
              "parts": {
                "total": "1",
                "hash": "16E5CD02C252A59A80095A8EC567F5A8178D267C"
              }
            },
            "signature": {
              "type": "tendermint/SignatureEd25519",
              "value": "L6WXNItLPqVUEjF6hGb6Qn9zhtMgeDKbuYT3WHQhpz6RksGsmQ2QYFg+eMr2WG4t7nhbyhVyxqWT6DBnBAzuBA=="
            }
          },
          {
            "validator_address": "0548261C50222FD710EB5EBDF03A0E6567B21D20",
            "validator_index": "2",
            "height": "21172",
            "round": "1",
            "timestamp": "2018-07-31T16:55:24.574993334Z",
            "type": 2,
            "block_id": {
              "hash": "43BF56EE452151112450E09C9221032D329CAC87",
              "parts": {
                "total": "1",
                "hash": "16E5CD02C252A59A80095A8EC567F5A8178D267C"
              }
            },
            "signature": {
              "type": "tendermint/SignatureEd25519",
              "value": "Qd+0NcFRddPJbiOxnmuzPrnTqWscvhDGgLVQ0yOJ1bQS9z05u94yO+TyKd2Ke7vihA+fplQl1LmRvdZSPNXqCg=="
            }
          },
          {
            "validator_address": "09145E611CC27EEB944FC5A956DDF710F943B9EF",
            "validator_index": "3",
            "height": "21172",
            "round": "1",
            "timestamp": "2018-07-31T16:55:24.538971101Z",
            "type": 2,
            "block_id": {
              "hash": "43BF56EE452151112450E09C9221032D329CAC87",
              "parts": {
                "total": "1",
                "hash": "16E5CD02C252A59A80095A8EC567F5A8178D267C"
              }
            },
            "signature": {
              "type": "tendermint/SignatureEd25519",
              "value": "LWxeruRRI2IMlXhe4jYBbGUTHwX46q2DSq3TfP2b8sskpWfacIAURiquIjEJCIFwFNzPY0Re6tP43LA58e1aDg=="
            }
          },
          {
            "validator_address": "0989D0355A104B67AE0AE028C68FB610690E174B",
            "validator_index": "4",
            "height": "21172",
            "round": "1",
            "timestamp": "2018-07-31T16:55:24.518107551Z",
            "type": 2,
            "block_id": {
              "hash": "43BF56EE452151112450E09C9221032D329CAC87",
              "parts": {
                "total": "1",
                "hash": "16E5CD02C252A59A80095A8EC567F5A8178D267C"
              }
            },
            "signature": {
              "type": "tendermint/SignatureEd25519",
              "value": "U2ZQfNrSfB5eNUUN6KbM6kDCXvQT1wbHEy3CNMYvwD/VmKM4DaHDvRLnyeN2Adpi40qdJAq+GZGTXS1+abikDA=="
            }
          },
          {
            "validator_address": "0A692DBFFE9E5DD28E7DECC33CED1AEB4C0D014E",
            "validator_index": "5",
            "height": "21172",
            "round": "1",
            "timestamp": "2018-07-31T16:55:24.638875862Z",
            "type": 2,
            "block_id": {
              "hash": "43BF56EE452151112450E09C9221032D329CAC87",
              "parts": {
                "total": "1",
                "hash": "16E5CD02C252A59A80095A8EC567F5A8178D267C"
              }
            },
            "signature": {
              "type": "tendermint/SignatureEd25519",
              "value": "5H8SqQ+R9zYW6zDf/ZpEdk8s5vtBn6U790LRpxCIpKSHuYFhXiGtMN8YbgpaYacrMLf5GPBw08kau6xf6TDtDA=="
            }
          },
          {
            "validator_address": "0DDF97111D73DB825138EC15EC27DE5FE8536901",
            "validator_index": "6",
            "height": "21172",
            "round": "1",
            "timestamp": "2018-07-31T16:55:24.561367129Z",
            "type": 2,
            "block_id": {
              "hash": "43BF56EE452151112450E09C9221032D329CAC87",
              "parts": {
                "total": "1",
                "hash": "16E5CD02C252A59A80095A8EC567F5A8178D267C"
              }
            },
            "signature": {
              "type": "tendermint/SignatureEd25519",
              "value": "3ComsCqVhrZTsjHIgl+s/sGYbvM0Nx7LhonhsOSnJHXOW0rzfnJJ/RGfF2yPkL3+yh2br2ew2qf0k9ewR4/GBg=="
            }
          },
          {
            "validator_address": "1751786EFC085D5331C61168FFFC8202EA151B4E",
            "validator_index": "7",
            "height": "21172",
            "round": "1",
            "timestamp": "2018-07-31T16:55:24.167757342Z",
            "type": 2,
            "block_id": {
              "hash": "43BF56EE452151112450E09C9221032D329CAC87",
              "parts": {
                "total": "1",
                "hash": "16E5CD02C252A59A80095A8EC567F5A8178D267C"
              }
            },
            "signature": {
              "type": "tendermint/SignatureEd25519",
              "value": "p/SnEsrN/fO2NKjCozmGJPi98Ij859MJf3F6Hfx5K26GgygwYdSRUSgydBTh+pMsoXYafFPEAzVokILBvRBwCg=="
            }
          },
          {
            "validator_address": "17BB5CD01E8940FAFB948A04D5FA5A0645E5822E",
            "validator_index": "8",
            "height": "21172",
            "round": "1",
            "timestamp": "2018-07-31T16:55:24.495280145Z",
            "type": 2,
            "block_id": {
              "hash": "43BF56EE452151112450E09C9221032D329CAC87",
              "parts": {
                "total": "1",
                "hash": "16E5CD02C252A59A80095A8EC567F5A8178D267C"
              }
            },
            "signature": {
              "type": "tendermint/SignatureEd25519",
              "value": "y56D3N4fDpz5Ch0IHLwSqyDYms1Jo12GJCoDHZjX5ftU33o6BJkWZpVnFk8Ct5D/on8e9vwYdhN7Ev3mu0l5Dw=="
            }
          },
          {
            "validator_address": "1C683A87904BC38F05004FE83301A3A3E35447EB",
            "validator_index": "9",
            "height": "21172",
            "round": "1",
            "timestamp": "2018-07-31T16:55:24.523685741Z",
            "type": 2,
            "block_id": {
              "hash": "43BF56EE452151112450E09C9221032D329CAC87",
              "parts": {
                "total": "1",
                "hash": "16E5CD02C252A59A80095A8EC567F5A8178D267C"
              }
            },
            "signature": {
              "type": "tendermint/SignatureEd25519",
              "value": "EKrAk0mDBXY4+Zt6dai6G1He70gPhkaQMpNxX5n6LUCBu7dFffRa+ZyFQZNQro1KNRB/mU8iO6qVRNOFp7mSCg=="
            }
          },
          {
            "validator_address": "1E9CE94FD0BA5CFEB901F90BC658D64D85B134D2",
            "validator_index": "10",
            "height": "21172",
            "round": "1",
            "timestamp": "2018-07-31T16:55:24.562209517Z",
            "type": 2,
            "block_id": {
              "hash": "43BF56EE452151112450E09C9221032D329CAC87",
              "parts": {
                "total": "1",
                "hash": "16E5CD02C252A59A80095A8EC567F5A8178D267C"
              }
            },
            "signature": {
              "type": "tendermint/SignatureEd25519",
              "value": "zmqzyq/9YX6w/pPBiu6OZsbsxBMcmMOsHRj0HU6fz/odroAMs93KViufriyL2J8EOWvJ5eaGZKkH/Sr5LLeECQ=="
            }
          },
          {
            "validator_address": "1ECD8C5FE1341D74CDC633A245DD56858DE2F9A2",
            "validator_index": "11",
            "height": "21172",
            "round": "1",
            "timestamp": "2018-07-31T16:55:24.595765869Z",
            "type": 2,
            "block_id": {
              "hash": "43BF56EE452151112450E09C9221032D329CAC87",
              "parts": {
                "total": "1",
                "hash": "16E5CD02C252A59A80095A8EC567F5A8178D267C"
              }
            },
            "signature": {
              "type": "tendermint/SignatureEd25519",
              "value": "ahIqXSD7LGcIBpY64h2HjwU2T2xw+MGZM7aHBSYRlMDKU06UDxMuJlzkar5oI+GMtl7TAZvAsLA0UJKP9MUWBA=="
            }
          },
          {
            "validator_address": "1F3A68CAAD483768AA2BF667DEF10F7104C89928",
            "validator_index": "12",
            "height": "21172",
            "round": "1",
            "timestamp": "2018-07-31T16:55:24.494815719Z",
            "type": 2,
            "block_id": {
              "hash": "43BF56EE452151112450E09C9221032D329CAC87",
              "parts": {
                "total": "1",
                "hash": "16E5CD02C252A59A80095A8EC567F5A8178D267C"
              }
            },
            "signature": {
              "type": "tendermint/SignatureEd25519",
              "value": "gaMHT26w3okyoO4mXbFYdTeIKKLuuiqHu89165VvqbY8kLi/kUyHvi0CQsqK6mzGhu0uGVMnjRlZXlDrzgoMCg=="
            }
          },
          {
            "validator_address": "23897586D68E2AC1C78E0EF5BB5DF5C8EAB18F50",
            "validator_index": "13",
            "height": "21172",
            "round": "1",
            "timestamp": "2018-07-31T16:55:24.52736744Z",
            "type": 2,
            "block_id": {
              "hash": "43BF56EE452151112450E09C9221032D329CAC87",
              "parts": {
                "total": "1",
                "hash": "16E5CD02C252A59A80095A8EC567F5A8178D267C"
              }
            },
            "signature": {
              "type": "tendermint/SignatureEd25519",
              "value": "Y5ek3zbezieJfcbZtFbfCsMp7grR7mTQdGcpQrG1lUKBszJWxMZtzK990NWq9+nVQbmPl9FbstDG3zLK+tyZBQ=="
            }
          },
          {
            "validator_address": "28770D17E8530825E7310A0659308654B7EC9682",
            "validator_index": "14",
            "height": "21172",
            "round": "1",
            "timestamp": "2018-07-31T16:55:24.482457607Z",
            "type": 2,
            "block_id": {
              "hash": "43BF56EE452151112450E09C9221032D329CAC87",
              "parts": {
                "total": "1",
                "hash": "16E5CD02C252A59A80095A8EC567F5A8178D267C"
              }
            },
            "signature": {
              "type": "tendermint/SignatureEd25519",
              "value": "aW8TkuVBoBV3SwxiNKav8zXJGywckkK0fMgZF+4wwgBy/y0JLpye4iK9ZIgrcwS3M+xlmRXCM83uWP8UpkxWBQ=="
            }
          },
          {
            "validator_address": "2A92EC3C642140202298D0E245095E0ECFC25228",
            "validator_index": "15",
            "height": "21172",
            "round": "1",
            "timestamp": "2018-07-31T16:55:24.655474282Z",
            "type": 2,
            "block_id": {
              "hash": "43BF56EE452151112450E09C9221032D329CAC87",
              "parts": {
                "total": "1",
                "hash": "16E5CD02C252A59A80095A8EC567F5A8178D267C"
              }
            },
            "signature": {
              "type": "tendermint/SignatureEd25519",
              "value": "FAJ+q4RuikF2ngzMB9tfHYdcp0fcBlmBLsouOfCm5mzZORl2TkBdWCGX7ZBIAmLS4ZSYMuXaFtbWXg3/eEZqBQ=="
            }
          },
          {
            "validator_address": "33412C9A69C60CB0FAA24A5C5B3A906DE24B47C2",
            "validator_index": "16",
            "height": "21172",
            "round": "1",
            "timestamp": "2018-07-31T16:55:24.519519036Z",
            "type": 2,
            "block_id": {
              "hash": "43BF56EE452151112450E09C9221032D329CAC87",
              "parts": {
                "total": "1",
                "hash": "16E5CD02C252A59A80095A8EC567F5A8178D267C"
              }
            },
            "signature": {
              "type": "tendermint/SignatureEd25519",
              "value": "F7aagIXVyR3AMt+gXhWkCD1kMUG25KgFSh+Jwtp63nMNSqi/yfbCcFtN+3TIUiF33tAK1tMix24hIX0Bt8ZpBQ=="
            }
          },
          {
            "validator_address": "3383EF2A13B160C41947AC30434B274B2FAF0617",
            "validator_index": "17",
            "height": "21172",
            "round": "1",
            "timestamp": "2018-07-31T16:55:24.580983996Z",
            "type": 2,
            "block_id": {
              "hash": "43BF56EE452151112450E09C9221032D329CAC87",
              "parts": {
                "total": "1",
                "hash": "16E5CD02C252A59A80095A8EC567F5A8178D267C"
              }
            },
            "signature": {
              "type": "tendermint/SignatureEd25519",
              "value": "U2GkIpE1af8UbL67ojplJcLGD6fXaEPOYbW63NjD9aq6aq0IVntzR+etQyErXkxoX12obV+esFXHiDKjbOGGAQ=="
            }
          },
          {
            "validator_address": "36E9B7FAEC964F97D84C028ED62493E373AD0B38",
            "validator_index": "18",
            "height": "21172",
            "round": "1",
            "timestamp": "2018-07-31T16:55:24.577597176Z",
            "type": 2,
            "block_id": {
              "hash": "43BF56EE452151112450E09C9221032D329CAC87",
              "parts": {
                "total": "1",
                "hash": "16E5CD02C252A59A80095A8EC567F5A8178D267C"
              }
            },
            "signature": {
              "type": "tendermint/SignatureEd25519",
              "value": "AhX3G3ChIAxDxy7u/M1E09sbB6t5JODKGvQWNBqCb7+U8Cv43weKddCGs1YcPKk/dA4BOoNdQfRDnxhwjID6Bw=="
            }
          },
          {
            "validator_address": "38A8D85D36BEA2E5FCF8A1E778F53628E450EF13",
            "validator_index": "19",
            "height": "21172",
            "round": "1",
            "timestamp": "2018-07-31T16:55:24.656786137Z",
            "type": 2,
            "block_id": {
              "hash": "43BF56EE452151112450E09C9221032D329CAC87",
              "parts": {
                "total": "1",
                "hash": "16E5CD02C252A59A80095A8EC567F5A8178D267C"
              }
            },
            "signature": {
              "type": "tendermint/SignatureEd25519",
              "value": "6FSrnR5bDo8H/i9g+XaXwVXiHz3/u4EPOWlrttcifc8xYeJwW2tNE99nbX1lM02Lvu3GXU+Wab00VcroMtsHDw=="
            }
          },
          {
            "validator_address": "39DFDA0C5DB84B269642188B23253508537798E6",
            "validator_index": "20",
            "height": "21172",
            "round": "1",
            "timestamp": "2018-07-31T16:55:24.49738361Z",
            "type": 2,
            "block_id": {
              "hash": "43BF56EE452151112450E09C9221032D329CAC87",
              "parts": {
                "total": "1",
                "hash": "16E5CD02C252A59A80095A8EC567F5A8178D267C"
              }
            },
            "signature": {
              "type": "tendermint/SignatureEd25519",
              "value": "VS40s2Mlqv+t2/lEcd1itUD61G/ViQ6vnJGnOGV+kUpP8Q1b6i3XkulQWVF9swIeDdGeNqvm7G3XtLNOL/PyCA=="
            }
          },
          {
            "validator_address": "3AC99B708404452366E0953A4BE849226DC86CBC",
            "validator_index": "21",
            "height": "21172",
            "round": "1",
            "timestamp": "2018-07-31T16:55:24.639989062Z",
            "type": 2,
            "block_id": {
              "hash": "43BF56EE452151112450E09C9221032D329CAC87",
              "parts": {
                "total": "1",
                "hash": "16E5CD02C252A59A80095A8EC567F5A8178D267C"
              }
            },
            "signature": {
              "type": "tendermint/SignatureEd25519",
              "value": "k1fHykGbbDfrmbXCGVMk3aVfMUA1x9YmAD0ype9sFz9IYym7FIrViHcgqZL+WS7Fzk+Msm9dWFiShr9SvvgoBg=="
            }
          },
          {
            "validator_address": "3DCB822A10ED319EC7C4393D8E3FD4A41B15AAF2",
            "validator_index": "22",
            "height": "21172",
            "round": "1",
            "timestamp": "2018-07-31T16:55:24.494284566Z",
            "type": 2,
            "block_id": {
              "hash": "43BF56EE452151112450E09C9221032D329CAC87",
              "parts": {
                "total": "1",
                "hash": "16E5CD02C252A59A80095A8EC567F5A8178D267C"
              }
            },
            "signature": {
              "type": "tendermint/SignatureEd25519",
              "value": "ShMQ7dFmEvK/Hk0n7FV3BM/ljkfi63LvYTNjq8dRle35Aok39Ivw+Qe9Rh6qgMdkyNdavCLDBMCrHeOsKtB0BA=="
            }
          },
          {
            "validator_address": "3E899BA36A93C7370347BD5FE85909F2ECD93F8C",
            "validator_index": "23",
            "height": "21172",
            "round": "1",
            "timestamp": "2018-07-31T16:55:24.571453902Z",
            "type": 2,
            "block_id": {
              "hash": "43BF56EE452151112450E09C9221032D329CAC87",
              "parts": {
                "total": "1",
                "hash": "16E5CD02C252A59A80095A8EC567F5A8178D267C"
              }
            },
            "signature": {
              "type": "tendermint/SignatureEd25519",
              "value": "y6vKpz+D6Ed8Hhzfh6fbtqc8txtg2kk3E5J6RbOx8w/O/ZAtgAWw+oKZMpqHfNVW+KSGvyrhO1L5IczwDoq8DQ=="
            }
          },
          {
            "validator_address": "41CAB2E29E7D0F2282E3275938F188FF9386B84C",
            "validator_index": "24",
            "height": "21172",
            "round": "1",
            "timestamp": "2018-07-31T16:55:24.503219598Z",
            "type": 2,
            "block_id": {
              "hash": "43BF56EE452151112450E09C9221032D329CAC87",
              "parts": {
                "total": "1",
                "hash": "16E5CD02C252A59A80095A8EC567F5A8178D267C"
              }
            },
            "signature": {
              "type": "tendermint/SignatureEd25519",
              "value": "nJqeSFplZMMPpnbcOqLL1EqoSM8eqfYjkxsA+MVebQH7p9fAVye6MQ42I29XWNwmahxXDrzT45CrSkEgJjlKAA=="
            }
          },
          {
            "validator_address": "462B656869DB02A8FD1077E255F8CC7401DC37C6",
            "validator_index": "25",
            "height": "21172",
            "round": "1",
            "timestamp": "2018-07-31T16:55:24.508944276Z",
            "type": 2,
            "block_id": {
              "hash": "43BF56EE452151112450E09C9221032D329CAC87",
              "parts": {
                "total": "1",
                "hash": "16E5CD02C252A59A80095A8EC567F5A8178D267C"
              }
            },
            "signature": {
              "type": "tendermint/SignatureEd25519",
              "value": "iDTBs4PwbAAgyIA3MS6HeQjOjdYtW2a6iGxtqOuVVhfcTtPnZWszRu9Lmb8XtBI1fe0wmS2JJoz22h8469TvBg=="
            }
          },
          {
            "validator_address": "48E5118163E5442068A1B5A42D2EEDBB75724935",
            "validator_index": "26",
            "height": "21172",
            "round": "1",
            "timestamp": "2018-07-31T16:55:24.663012595Z",
            "type": 2,
            "block_id": {
              "hash": "43BF56EE452151112450E09C9221032D329CAC87",
              "parts": {
                "total": "1",
                "hash": "16E5CD02C252A59A80095A8EC567F5A8178D267C"
              }
            },
            "signature": {
              "type": "tendermint/SignatureEd25519",
              "value": "sM2aaNv4Bj/jIDeY7C23psLPVoweS7Nfsu/I53+56G8eqFYk+/i1yAX1HaD4rljBgBdnETS5XcYIpKMs9G3ICw=="
            }
          },
          {
            "validator_address": "4944F8BBBB5303E17BC0607DF332320EDBC750EA",
            "validator_index": "27",
            "height": "21172",
            "round": "1",
            "timestamp": "2018-07-31T16:55:24.578301132Z",
            "type": 2,
            "block_id": {
              "hash": "43BF56EE452151112450E09C9221032D329CAC87",
              "parts": {
                "total": "1",
                "hash": "16E5CD02C252A59A80095A8EC567F5A8178D267C"
              }
            },
            "signature": {
              "type": "tendermint/SignatureEd25519",
              "value": "VgAqzoMtLR6F/XtSSUEFwNSBAAK/WpNXhFjt5vfNTDdZdFiZ9HuW5IXsABPaNhU3COtAMlmMvJL7Jn02f+3MAg=="
            }
          },
          {
            "validator_address": "49841599DE675157CBE1E7D6B35BF8FFC23BD5CB",
            "validator_index": "28",
            "height": "21172",
            "round": "1",
            "timestamp": "2018-07-31T16:55:24.51666325Z",
            "type": 2,
            "block_id": {
              "hash": "43BF56EE452151112450E09C9221032D329CAC87",
              "parts": {
                "total": "1",
                "hash": "16E5CD02C252A59A80095A8EC567F5A8178D267C"
              }
            },
            "signature": {
              "type": "tendermint/SignatureEd25519",
              "value": "3aFGvBNL02Pf2rbXbY1dcQ97OH5+CVobIrnDaruoJiUZFIL7uZ7B+roQc1gA4joy107H9q6fZvOhvWYg18ttAA=="
            }
          },
          {
            "validator_address": "51386C2CF9556821D114D7E4945806802BADB28D",
            "validator_index": "29",
            "height": "21172",
            "round": "1",
            "timestamp": "2018-07-31T16:55:24.511114203Z",
            "type": 2,
            "block_id": {
              "hash": "43BF56EE452151112450E09C9221032D329CAC87",
              "parts": {
                "total": "1",
                "hash": "16E5CD02C252A59A80095A8EC567F5A8178D267C"
              }
            },
            "signature": {
              "type": "tendermint/SignatureEd25519",
              "value": "uzYXFrJnMZDYiG0j9mvz/MPjo3Jmrrqt0/DxxsrWWJKj8EGIEoYtzmMR9XVYscSNS3yYuFNoCtwGHVC8kJx3Dw=="
            }
          },
          {
            "validator_address": "543564ECA3AFEFADC73EE8591AAC3A96F079BC8A",
            "validator_index": "30",
            "height": "21172",
            "round": "1",
            "timestamp": "2018-07-31T16:55:24.57616072Z",
            "type": 2,
            "block_id": {
              "hash": "43BF56EE452151112450E09C9221032D329CAC87",
              "parts": {
                "total": "1",
                "hash": "16E5CD02C252A59A80095A8EC567F5A8178D267C"
              }
            },
            "signature": {
              "type": "tendermint/SignatureEd25519",
              "value": "ZbPaOgDLc3T92GdJLW8Or62qxbpo9Z/5vYsdrODzCjaifJ+Q0FSsNvHkfCP86cRysyGmdKTIG9ESg766mhc7CQ=="
            }
          },
          {
            "validator_address": "55D67B1A6DC13E96F8754A5A42EABC20F7F86664",
            "validator_index": "31",
            "height": "21172",
            "round": "1",
            "timestamp": "2018-07-31T16:55:24.495788276Z",
            "type": 2,
            "block_id": {
              "hash": "43BF56EE452151112450E09C9221032D329CAC87",
              "parts": {
                "total": "1",
                "hash": "16E5CD02C252A59A80095A8EC567F5A8178D267C"
              }
            },
            "signature": {
              "type": "tendermint/SignatureEd25519",
              "value": "GthsXNudntKuq0Hm1KQ4HR3RXWNVgNCsOkcwx6bC2euGu+as+IhYdRHyCucbRbhWc3beTgECa4p9PVggt5xBCA=="
            }
          },
          {
            "validator_address": "570B6A755ED339EAC56BB3390A48069F6AC9449B",
            "validator_index": "32",
            "height": "21172",
            "round": "1",
            "timestamp": "2018-07-31T16:55:28.455637933Z",
            "type": 2,
            "block_id": {
              "hash": "43BF56EE452151112450E09C9221032D329CAC87",
              "parts": {
                "total": "1",
                "hash": "16E5CD02C252A59A80095A8EC567F5A8178D267C"
              }
            },
            "signature": {
              "type": "tendermint/SignatureEd25519",
              "value": "DLc4X7Ejx1Q7RmgfhYbPzLK6OsxgMvSaKv2L2Nu8Kl/WoWNhhodrt4r5jGWmLjugGDzsPZ8JWh0yxFeJME5cAQ=="
            }
          },
          {
            "validator_address": "5BDF8EA41B1835FBAD865B181A2A4B23F511B5E4",
            "validator_index": "33",
            "height": "21172",
            "round": "1",
            "timestamp": "2018-07-31T16:55:24.534826556Z",
            "type": 2,
            "block_id": {
              "hash": "43BF56EE452151112450E09C9221032D329CAC87",
              "parts": {
                "total": "1",
                "hash": "16E5CD02C252A59A80095A8EC567F5A8178D267C"
              }
            },
            "signature": {
              "type": "tendermint/SignatureEd25519",
              "value": "yJMSo4S8zMO7HMDEziux0gBSquSpJv9qxg/3+c3VfzIlE9BwLRO5PC9YZ5NX8AHCzNa/ejE1gSOILfK+1ZoxCQ=="
            }
          },
          {
            "validator_address": "60229E2E273297FE00219E46DFFB8F76844CDEF9",
            "validator_index": "34",
            "height": "21172",
            "round": "1",
            "timestamp": "2018-07-31T16:55:23.169756855Z",
            "type": 2,
            "block_id": {
              "hash": "43BF56EE452151112450E09C9221032D329CAC87",
              "parts": {
                "total": "1",
                "hash": "16E5CD02C252A59A80095A8EC567F5A8178D267C"
              }
            },
            "signature": {
              "type": "tendermint/SignatureEd25519",
              "value": "wvUvnpOeqXRHrMj316odlAasW8ROgxjUTshBDtmXi7COPh025kBhqC0M4AJcdRDZNAIQKCS6kpWlyYSKgCVUCg=="
            }
          },
          {
            "validator_address": "62410D6D1CD98278136E4D0738AA0EA273CDFC54",
            "validator_index": "35",
            "height": "21172",
            "round": "1",
            "timestamp": "2018-07-31T16:55:24.493092701Z",
            "type": 2,
            "block_id": {
              "hash": "43BF56EE452151112450E09C9221032D329CAC87",
              "parts": {
                "total": "1",
                "hash": "16E5CD02C252A59A80095A8EC567F5A8178D267C"
              }
            },
            "signature": {
              "type": "tendermint/SignatureEd25519",
              "value": "u0Udf15krskTMCba1+vKajicvDz76di9ABRapoESMaVDa8MoOiBNiqm92WPoqmvcLtL3sp0ldhNmhqazPLebAQ=="
            }
          },
          {
            "validator_address": "632F5C139A5A9DFBFE5111DEE29FCFB6157207DC",
            "validator_index": "36",
            "height": "21172",
            "round": "1",
            "timestamp": "2018-07-31T16:55:24.573564417Z",
            "type": 2,
            "block_id": {
              "hash": "43BF56EE452151112450E09C9221032D329CAC87",
              "parts": {
                "total": "1",
                "hash": "16E5CD02C252A59A80095A8EC567F5A8178D267C"
              }
            },
            "signature": {
              "type": "tendermint/SignatureEd25519",
              "value": "Gioasjd5sdzV8unxBl6tJEzfXhEfv6jdm1l9ZaZwmBwWVJ0y8E0V2I1E31xZ0KfDh9028PuIZPUCdWkGpZsTCw=="
            }
          },
          {
            "validator_address": "64F57F8E796A9B7B590C1EFA4123988C86631D39",
            "validator_index": "37",
            "height": "21172",
            "round": "1",
            "timestamp": "2018-07-31T16:55:24.510387873Z",
            "type": 2,
            "block_id": {
              "hash": "43BF56EE452151112450E09C9221032D329CAC87",
              "parts": {
                "total": "1",
                "hash": "16E5CD02C252A59A80095A8EC567F5A8178D267C"
              }
            },
            "signature": {
              "type": "tendermint/SignatureEd25519",
              "value": "SHWijNC6YzBTZUBVN+8vejxkwGwuPQnl8phVsR3BLz0OY/x8cn4bs8d/fP65A++eA/JwyNq4MubZDKuGchJ7Bw=="
            }
          },
          {
            "validator_address": "69D99B2C66043ACBEAA8447525C356AFC6408E0C",
            "validator_index": "38",
            "height": "21172",
            "round": "1",
            "timestamp": "2018-07-31T16:55:24.605808786Z",
            "type": 2,
            "block_id": {
              "hash": "43BF56EE452151112450E09C9221032D329CAC87",
              "parts": {
                "total": "1",
                "hash": "16E5CD02C252A59A80095A8EC567F5A8178D267C"
              }
            },
            "signature": {
              "type": "tendermint/SignatureEd25519",
              "value": "YbL0OWw2l4uJZ1be1y+zs0hLxdKxCHOReri93z89SY+FVea4qbQrzmVuaLjTDglvNwhodpgf6sFK4rjjm35bCw=="
            }
          },
          {
            "validator_address": "69EDADFA4A803E9DBF548C900D4A465E7D154262",
            "validator_index": "39",
            "height": "21172",
            "round": "1",
            "timestamp": "2018-07-31T16:55:24.596744738Z",
            "type": 2,
            "block_id": {
              "hash": "43BF56EE452151112450E09C9221032D329CAC87",
              "parts": {
                "total": "1",
                "hash": "16E5CD02C252A59A80095A8EC567F5A8178D267C"
              }
            },
            "signature": {
              "type": "tendermint/SignatureEd25519",
              "value": "W9SZahr3cofTlEEAZjxrrN3GsgnHI++9GbbxOFlwruJM1tZs5c781GE1uMfh69D50t2XvSx/xAJjMsscVB00BQ=="
            }
          },
          {
            "validator_address": "6D3AD380E398D8592B03AA124BAFED5F125DF863",
            "validator_index": "40",
            "height": "21172",
            "round": "1",
            "timestamp": "2018-07-31T16:54:22.638888177Z",
            "type": 2,
            "block_id": {
              "hash": "43BF56EE452151112450E09C9221032D329CAC87",
              "parts": {
                "total": "1",
                "hash": "16E5CD02C252A59A80095A8EC567F5A8178D267C"
              }
            },
            "signature": {
              "type": "tendermint/SignatureEd25519",
              "value": "AWezN/yVVOj+Zh3TKWrcnXgJcl7p7ZXE6KMxELJko9POBX2phsy02hdUN3uYhNumdL89uC0i0h9wErlPeFt/CQ=="
            }
          },
          {
            "validator_address": "6F6C93B8BF3495063FEC9B5C771158607F4AE9D6",
            "validator_index": "41",
            "height": "21172",
            "round": "1",
            "timestamp": "2018-07-31T16:55:24.534231398Z",
            "type": 2,
            "block_id": {
              "hash": "43BF56EE452151112450E09C9221032D329CAC87",
              "parts": {
                "total": "1",
                "hash": "16E5CD02C252A59A80095A8EC567F5A8178D267C"
              }
            },
            "signature": {
              "type": "tendermint/SignatureEd25519",
              "value": "+TPAYjFfHtM6aBUSwEpFK02mwRs60x1+E4a+lZE6XI3zrByJBIbhMFamlTm5TER34RUinrEFD65baf4VkkwvCw=="
            }
          },
          {
            "validator_address": "732CEEF54C374DDC6ADECBFD707AEFD07FEDC143",
            "validator_index": "42",
            "height": "21172",
            "round": "1",
            "timestamp": "2018-07-31T16:55:24.61267945Z",
            "type": 2,
            "block_id": {
              "hash": "43BF56EE452151112450E09C9221032D329CAC87",
              "parts": {
                "total": "1",
                "hash": "16E5CD02C252A59A80095A8EC567F5A8178D267C"
              }
            },
            "signature": {
              "type": "tendermint/SignatureEd25519",
              "value": "m6xm3jaMziVpCWsnyoFIBGv8u0q+Vgbsh1JkSgPZ2qFrP2Y+eQbvxnqWwntGcc9DDOm6B5istbZjtUhOM+z2AQ=="
            }
          },
          {
            "validator_address": "7393D691BFAE9661918C09932D4D9060AB40939B",
            "validator_index": "43",
            "height": "21172",
            "round": "1",
            "timestamp": "2018-07-31T16:55:24.79439441Z",
            "type": 2,
            "block_id": {
              "hash": "43BF56EE452151112450E09C9221032D329CAC87",
              "parts": {
                "total": "1",
                "hash": "16E5CD02C252A59A80095A8EC567F5A8178D267C"
              }
            },
            "signature": {
              "type": "tendermint/SignatureEd25519",
              "value": "G6iq1HlONzefn8LPQHCryA8kvIOJ8EJZ1B4o+0knMzrFA1UocszJ8wHWM9O2oitQGMJ+D3AOJ0XZQhgZqjxXCw=="
            }
          },
          {
            "validator_address": "751E43437224E8BB6D1569B3E2B2616B6E7F4397",
            "validator_index": "44",
            "height": "21172",
            "round": "1",
            "timestamp": "2018-07-31T16:55:24.559099734Z",
            "type": 2,
            "block_id": {
              "hash": "43BF56EE452151112450E09C9221032D329CAC87",
              "parts": {
                "total": "1",
                "hash": "16E5CD02C252A59A80095A8EC567F5A8178D267C"
              }
            },
            "signature": {
              "type": "tendermint/SignatureEd25519",
              "value": "OucP45FHdsQTi8E9EgPvNOa4Y27QjGKMePEZmHajya0uBYxnetW7EJasdXM/32ps1j6gLgo2xE8fa1mg2jE7Dw=="
            }
          },
          {
            "validator_address": "7EB7593F519F1180C7E872D0494611464EDF03AE",
            "validator_index": "45",
            "height": "21172",
            "round": "1",
            "timestamp": "2018-07-31T16:55:24.61355459Z",
            "type": 2,
            "block_id": {
              "hash": "43BF56EE452151112450E09C9221032D329CAC87",
              "parts": {
                "total": "1",
                "hash": "16E5CD02C252A59A80095A8EC567F5A8178D267C"
              }
            },
            "signature": {
              "type": "tendermint/SignatureEd25519",
              "value": "5UCRNel/F8CaE4G8TMxwurmq+hc9NSi0Mhc9vehrNMABlPzL5Lxv9XdFZhDQkHeKXLwl48Vi//YnqnFa3JxEBg=="
            }
          },
          {
            "validator_address": "807CF675BA8479FC4FEC1047215DF07970040F1F",
            "validator_index": "46",
            "height": "21172",
            "round": "1",
            "timestamp": "2018-07-31T16:55:24.862244029Z",
            "type": 2,
            "block_id": {
              "hash": "43BF56EE452151112450E09C9221032D329CAC87",
              "parts": {
                "total": "1",
                "hash": "16E5CD02C252A59A80095A8EC567F5A8178D267C"
              }
            },
            "signature": {
              "type": "tendermint/SignatureEd25519",
              "value": "3Z7/19PJF/pBnRDqGJE8pf+90mAx3oaivh5/Z2xIAAtCbO5cjTVrhS/TMdptQf4sQvL7uwb68tvDYFtL8rKBBA=="
            }
          },
          {
            "validator_address": "8126192EA66E8ADE6B36924534721366B987A4C1",
            "validator_index": "47",
            "height": "21172",
            "round": "1",
            "timestamp": "2018-07-31T16:55:24.508790144Z",
            "type": 2,
            "block_id": {
              "hash": "43BF56EE452151112450E09C9221032D329CAC87",
              "parts": {
                "total": "1",
                "hash": "16E5CD02C252A59A80095A8EC567F5A8178D267C"
              }
            },
            "signature": {
              "type": "tendermint/SignatureEd25519",
              "value": "0NuOCv0NmfTx+V0Q+Fgk99AcN6dD6e2RWzg0rebz3qWeS7e2qmAWYSz6UeV3yE17Qfu83/e49ptsooZ0cq9bDA=="
            }
          },
          {
            "validator_address": "83AB321E012C57746689FED3A6064DF331F81007",
            "validator_index": "48",
            "height": "21172",
            "round": "1",
            "timestamp": "2018-07-31T16:55:24.550076383Z",
            "type": 2,
            "block_id": {
              "hash": "43BF56EE452151112450E09C9221032D329CAC87",
              "parts": {
                "total": "1",
                "hash": "16E5CD02C252A59A80095A8EC567F5A8178D267C"
              }
            },
            "signature": {
              "type": "tendermint/SignatureEd25519",
              "value": "F7czvvehdUu0QrEp9AnfjyMc4tPdGpNLMVlE0UQbsBaKvPn8hi9tIi/gzJAnqa0N0R53HtR7y90/IBrEMNy+CQ=="
            }
          },
          {
            "validator_address": "83BB1B88D3DBB20AD845FECA07749EBD87D3754D",
            "validator_index": "49",
            "height": "21172",
            "round": "1",
            "timestamp": "2018-07-31T16:55:24.746786652Z",
            "type": 2,
            "block_id": {
              "hash": "43BF56EE452151112450E09C9221032D329CAC87",
              "parts": {
                "total": "1",
                "hash": "16E5CD02C252A59A80095A8EC567F5A8178D267C"
              }
            },
            "signature": {
              "type": "tendermint/SignatureEd25519",
              "value": "qZG6VLK5TZHx/EpmIYz/zHYHmSdclCAAP6NJo1hvWPs4kFmUSgliNP1iYipDMW3zSBdSgziZcHCaifFq+p/HBw=="
            }
          },
          {
            "validator_address": "8F06FE1FD042683C426137FBC4BBAA4288924217",
            "validator_index": "50",
            "height": "21172",
            "round": "1",
            "timestamp": "2018-07-31T16:55:24.559444805Z",
            "type": 2,
            "block_id": {
              "hash": "43BF56EE452151112450E09C9221032D329CAC87",
              "parts": {
                "total": "1",
                "hash": "16E5CD02C252A59A80095A8EC567F5A8178D267C"
              }
            },
            "signature": {
              "type": "tendermint/SignatureEd25519",
              "value": "EDmiWEC2al/2s6y6HCRqW/umUWriPITYDjrMwqegmlrgdwbGIrXeV/93h/3NuuUSXXmVBBrIkQq66lEgmMPQCA=="
            }
          },
          {
            "validator_address": "8F45617BF45B10A3F8283DEBDB35E38C7CA43237",
            "validator_index": "51",
            "height": "21172",
            "round": "1",
            "timestamp": "2018-07-31T16:55:24.52536669Z",
            "type": 2,
            "block_id": {
              "hash": "43BF56EE452151112450E09C9221032D329CAC87",
              "parts": {
                "total": "1",
                "hash": "16E5CD02C252A59A80095A8EC567F5A8178D267C"
              }
            },
            "signature": {
              "type": "tendermint/SignatureEd25519",
              "value": "jkmrkdSD0MN3b0415cXdAfcko/Vu1f62Uv7Mx5IP4pPb6Y2m2dq9iapbJTVCQay2FR7rbEQ6YSRJUdR5iMBkCQ=="
            }
          },
          {
            "validator_address": "95980831E186F2540F6E9FB6C8E74DE2401405AC",
            "validator_index": "52",
            "height": "21172",
            "round": "1",
            "timestamp": "2018-07-31T16:55:24.509686905Z",
            "type": 2,
            "block_id": {
              "hash": "43BF56EE452151112450E09C9221032D329CAC87",
              "parts": {
                "total": "1",
                "hash": "16E5CD02C252A59A80095A8EC567F5A8178D267C"
              }
            },
            "signature": {
              "type": "tendermint/SignatureEd25519",
              "value": "htbmxSvqnwqvyDt3TyAZAaD5eWLd6p6UkgH11BDQvvMmKVEg4OyYHpD8GMNNHZyb6AD529FZthHp4N/4NKQ0DA=="
            }
          },
          {
            "validator_address": "95FAFBC1E0579C83D290A063020CE87C5334BD9B",
            "validator_index": "53",
            "height": "21172",
            "round": "1",
            "timestamp": "2018-07-31T16:55:24.580482588Z",
            "type": 2,
            "block_id": {
              "hash": "43BF56EE452151112450E09C9221032D329CAC87",
              "parts": {
                "total": "1",
                "hash": "16E5CD02C252A59A80095A8EC567F5A8178D267C"
              }
            },
            "signature": {
              "type": "tendermint/SignatureEd25519",
              "value": "5RB7HPrlAZqhUatVbDEc05LtEuwKgzqGTuyR9avP3kP9eq4ByM4hEgjQbR272pzDE2U9ovrw4Qh+IeaNeLghDg=="
            }
          },
          {
            "validator_address": "96BDE45EC52606CF5CB59853097871AD60680549",
            "validator_index": "54",
            "height": "21172",
            "round": "1",
            "timestamp": "2018-07-31T16:55:24.531473429Z",
            "type": 2,
            "block_id": {
              "hash": "43BF56EE452151112450E09C9221032D329CAC87",
              "parts": {
                "total": "1",
                "hash": "16E5CD02C252A59A80095A8EC567F5A8178D267C"
              }
            },
            "signature": {
              "type": "tendermint/SignatureEd25519",
              "value": "rvEhz0RtjZkL+mIsvsMU8ENnrl0j82iHUqSNstqTwFVyq8+l3BPHQEYei5n6HxySnJ1YuJ8vsn51rehisYtMDg=="
            }
          },
          {
            "validator_address": "970CD321881185BF83DB2923C321B0E75FDBB2B8",
            "validator_index": "55",
            "height": "21172",
            "round": "1",
            "timestamp": "2018-07-31T16:55:24.607219904Z",
            "type": 2,
            "block_id": {
              "hash": "43BF56EE452151112450E09C9221032D329CAC87",
              "parts": {
                "total": "1",
                "hash": "16E5CD02C252A59A80095A8EC567F5A8178D267C"
              }
            },
            "signature": {
              "type": "tendermint/SignatureEd25519",
              "value": "ew5iad20f3duQnkJ5rzD/QVFR+/iDTOliqVIkk6/xI/klv78efmeekoKGR0XmqhaZYCHuEaIFuhpttAY634cAQ=="
            }
          },
          {
            "validator_address": "97DBB3D4B3D6C29287244864448F651DD5B07390",
            "validator_index": "56",
            "height": "21172",
            "round": "1",
            "timestamp": "2018-07-31T16:55:24.687294796Z",
            "type": 2,
            "block_id": {
              "hash": "43BF56EE452151112450E09C9221032D329CAC87",
              "parts": {
                "total": "1",
                "hash": "16E5CD02C252A59A80095A8EC567F5A8178D267C"
              }
            },
            "signature": {
              "type": "tendermint/SignatureEd25519",
              "value": "YxeZPdorqB1eBFJ6n1a2E7OXvxAujY844yRNfm0izkQTO2c464qWGpGSt4HyViUNmawF3fVSvvf/a3zHcO1qBw=="
            }
          },
          {
            "validator_address": "9C29C9B76D27586E4D9AD2AED0E943162645E55C",
            "validator_index": "57",
            "height": "21172",
            "round": "1",
            "timestamp": "2018-07-31T16:55:24.482304344Z",
            "type": 2,
            "block_id": {
              "hash": "43BF56EE452151112450E09C9221032D329CAC87",
              "parts": {
                "total": "1",
                "hash": "16E5CD02C252A59A80095A8EC567F5A8178D267C"
              }
            },
            "signature": {
              "type": "tendermint/SignatureEd25519",
              "value": "Zelpb0/AT4cj/IPZiR+BvPbFO9f0cgu1gXiVqEb4gt5gAcNko7/p8mpnuRlB+cjZAiVIaHIeaopgY2cojhWpCw=="
            }
          },
          {
            "validator_address": "9D93AD02FE1BD7E76B9E58D7EB461088EAD011E5",
            "validator_index": "58",
            "height": "21172",
            "round": "1",
            "timestamp": "2018-07-31T16:55:24.48503232Z",
            "type": 2,
            "block_id": {
              "hash": "43BF56EE452151112450E09C9221032D329CAC87",
              "parts": {
                "total": "1",
                "hash": "16E5CD02C252A59A80095A8EC567F5A8178D267C"
              }
            },
            "signature": {
              "type": "tendermint/SignatureEd25519",
              "value": "dsx/SQOwr4MnLSKZkHwcWVJXYIwgJnWTaJAqJ6CyrbuQSkBhrqGAvE0TA2Ki4g/RKCkq2Jfr3oIZ826qS8ZGDQ=="
            }
          },
          {
            "validator_address": "A0A6466F4ABEA09C3B55E3709AFDE217A103209F",
            "validator_index": "59",
            "height": "21172",
            "round": "1",
            "timestamp": "2018-07-31T16:55:24.510211512Z",
            "type": 2,
            "block_id": {
              "hash": "43BF56EE452151112450E09C9221032D329CAC87",
              "parts": {
                "total": "1",
                "hash": "16E5CD02C252A59A80095A8EC567F5A8178D267C"
              }
            },
            "signature": {
              "type": "tendermint/SignatureEd25519",
              "value": "l2wmv37MKb9Yze9loj9RzdCl1kM4UafbdaM1+czyGHPzFV8/hbO20JSbU7RTvJkkg5/T42UptBPZm1+VgvFtAg=="
            }
          },
          {
            "validator_address": "A5868971300F155020634D7BB49C7634F7AACCD3",
            "validator_index": "60",
            "height": "21172",
            "round": "1",
            "timestamp": "2018-07-31T16:55:24.520993293Z",
            "type": 2,
            "block_id": {
              "hash": "43BF56EE452151112450E09C9221032D329CAC87",
              "parts": {
                "total": "1",
                "hash": "16E5CD02C252A59A80095A8EC567F5A8178D267C"
              }
            },
            "signature": {
              "type": "tendermint/SignatureEd25519",
              "value": "q2V2FSRni39yUP2zQeKh6VZqORoxjcVYRmWH12ZHb2NfirbQOCJhdDS4h5tpmmMupowUfW1GNE4pe9knK+ogDg=="
            }
          },
          {
            "validator_address": "A6B3A5B5D982CFD7B5FDFA15CF5A720E7AE25E7F",
            "validator_index": "61",
            "height": "21172",
            "round": "1",
            "timestamp": "2018-07-31T16:55:24.521156844Z",
            "type": 2,
            "block_id": {
              "hash": "43BF56EE452151112450E09C9221032D329CAC87",
              "parts": {
                "total": "1",
                "hash": "16E5CD02C252A59A80095A8EC567F5A8178D267C"
              }
            },
            "signature": {
              "type": "tendermint/SignatureEd25519",
              "value": "KA3vQeuinTa++CC8+qIKVaeS6C5imyR0SIewvDUmJoF2Y1zWQMzQbSlZ/ePuPe9KFGSEdYh88ZjCn3JUFPO5AA=="
            }
          },
          {
            "validator_address": "AC96444A9083890B7C7B430DB17BF1D3EA5EED04",
            "validator_index": "62",
            "height": "21172",
            "round": "1",
            "timestamp": "2018-07-31T16:55:24.625621951Z",
            "type": 2,
            "block_id": {
              "hash": "43BF56EE452151112450E09C9221032D329CAC87",
              "parts": {
                "total": "1",
                "hash": "16E5CD02C252A59A80095A8EC567F5A8178D267C"
              }
            },
            "signature": {
              "type": "tendermint/SignatureEd25519",
              "value": "zCTw0BhPPfQ02Tm50gMsscw50Ee4Ef1/Fa3bOxLD+hecFqfE9ABN0cwoE38r7Wa8tYY95Ja89nb7uOu8YqFwBA=="
            }
          },
          {
            "validator_address": "ACB97FDA2D940AF0709B73537C458EB988AD2893",
            "validator_index": "63",
            "height": "21172",
            "round": "1",
            "timestamp": "2018-07-31T16:55:24.510867078Z",
            "type": 2,
            "block_id": {
              "hash": "43BF56EE452151112450E09C9221032D329CAC87",
              "parts": {
                "total": "1",
                "hash": "16E5CD02C252A59A80095A8EC567F5A8178D267C"
              }
            },
            "signature": {
              "type": "tendermint/SignatureEd25519",
              "value": "WQQXYLBjlzh5oU+qHdk2h68HHq2G/Ytv7ijsQjrGEdoJqvkLs4kJfA4AWMcuuFvxne4lMBzMrTu0cVTGV27SAQ=="
            }
          },
          {
            "validator_address": "B197425B3210375F211661DE02EF2AE36580EB0F",
            "validator_index": "64",
            "height": "21172",
            "round": "1",
            "timestamp": "2018-07-31T16:55:24.549488558Z",
            "type": 2,
            "block_id": {
              "hash": "43BF56EE452151112450E09C9221032D329CAC87",
              "parts": {
                "total": "1",
                "hash": "16E5CD02C252A59A80095A8EC567F5A8178D267C"
              }
            },
            "signature": {
              "type": "tendermint/SignatureEd25519",
              "value": "uEOVmM1nX7Q6a6361lmUTPOnHgRT6FFmQjYLp5ZPoe78QD8gbnNO6TU/wOhGv4JAS5+Yut2iHI/zKeyrvYGbBg=="
            }
          },
          {
            "validator_address": "B45E54D2D1CB5A4CCD1D49016608C18E7C56B270",
            "validator_index": "65",
            "height": "21172",
            "round": "1",
            "timestamp": "2018-07-31T16:55:24.721329548Z",
            "type": 2,
            "block_id": {
              "hash": "43BF56EE452151112450E09C9221032D329CAC87",
              "parts": {
                "total": "1",
                "hash": "16E5CD02C252A59A80095A8EC567F5A8178D267C"
              }
            },
            "signature": {
              "type": "tendermint/SignatureEd25519",
              "value": "cu2TOla19iyJpBAHFVl/sCIw4qv8uCgmV2pALa9kzHmj6r1gbNCxZ+UJsgThJu1UWlosleim6GWv8l3qd9foBQ=="
            }
          },
          {
            "validator_address": "B59A34C0BE4EC73AF6A67D274F1695C9259C237C",
            "validator_index": "66",
            "height": "21172",
            "round": "1",
            "timestamp": "2018-07-31T16:55:24.752919692Z",
            "type": 2,
            "block_id": {
              "hash": "43BF56EE452151112450E09C9221032D329CAC87",
              "parts": {
                "total": "1",
                "hash": "16E5CD02C252A59A80095A8EC567F5A8178D267C"
              }
            },
            "signature": {
              "type": "tendermint/SignatureEd25519",
              "value": "fKmBOB4UtzjpafO/AYFyI4I+xbiiD4UbpPu/kNSZo+CxOhtotwJpkyH5b5KeIFngo/9HTUOmP6c60lzcia2wBQ=="
            }
          },
          {
            "validator_address": "BB1276BE89834835428664408917649FEEF5D90C",
            "validator_index": "67",
            "height": "21172",
            "round": "1",
            "timestamp": "2018-07-31T16:55:24.597172019Z",
            "type": 2,
            "block_id": {
              "hash": "43BF56EE452151112450E09C9221032D329CAC87",
              "parts": {
                "total": "1",
                "hash": "16E5CD02C252A59A80095A8EC567F5A8178D267C"
              }
            },
            "signature": {
              "type": "tendermint/SignatureEd25519",
              "value": "247mReSQmaMSa8XO+A3rcLdrsYJC4YSXmqhEDasKid2Pz6qy+dQ9rZshZwAC/lbJNYdPzXTQx2v3VW9U54U8BQ=="
            }
          },
          {
            "validator_address": "BC36FEDD6EF6071118A3E51859DF3831A2EC4782",
            "validator_index": "68",
            "height": "21172",
            "round": "1",
            "timestamp": "2018-07-31T16:55:24.572460811Z",
            "type": 2,
            "block_id": {
              "hash": "43BF56EE452151112450E09C9221032D329CAC87",
              "parts": {
                "total": "1",
                "hash": "16E5CD02C252A59A80095A8EC567F5A8178D267C"
              }
            },
            "signature": {
              "type": "tendermint/SignatureEd25519",
              "value": "xD1VOTd0217kafsIGJc8FiNZRP4nr75mYnni7joO7rNf3h8qWZbkFZT+gqMBjrgHsDTjDDkJsDZWDGRTcMQjDA=="
            }
          },
          {
            "validator_address": "BD9D0DA513BF099DB4BB6E725A4E19832789882F",
            "validator_index": "69",
            "height": "21172",
            "round": "1",
            "timestamp": "2018-07-31T16:55:24.546887769Z",
            "type": 2,
            "block_id": {
              "hash": "43BF56EE452151112450E09C9221032D329CAC87",
              "parts": {
                "total": "1",
                "hash": "16E5CD02C252A59A80095A8EC567F5A8178D267C"
              }
            },
            "signature": {
              "type": "tendermint/SignatureEd25519",
              "value": "TQwsOE0ArU2eitTsNI8HlE1gFwtIbFytfm4mV7cTI2fhtxY9f2SMdhMEqknCXyYLB6XyRiuon05ncwBzbM4sCw=="
            }
          },
          {
            "validator_address": "C1134A2FF8F7338E7CDB3FE57DDD2A655DEB1E22",
            "validator_index": "70",
            "height": "21172",
            "round": "1",
            "timestamp": "2018-07-31T16:55:24.456288331Z",
            "type": 2,
            "block_id": {
              "hash": "43BF56EE452151112450E09C9221032D329CAC87",
              "parts": {
                "total": "1",
                "hash": "16E5CD02C252A59A80095A8EC567F5A8178D267C"
              }
            },
            "signature": {
              "type": "tendermint/SignatureEd25519",
              "value": "+ge+eDXtZDVkqdxQQiDYaIW55aosmiHrpQOqFodk2nyC4eT3tSbjdpQFGL6HiLn9OoI41nBnToel+qHOmYnKAw=="
            }
          },
          {
            "validator_address": "C39A8A2B85198DCB8F23AD1F6C198E2BA7AB5D60",
            "validator_index": "71",
            "height": "21172",
            "round": "1",
            "timestamp": "2018-07-31T16:55:24.503087777Z",
            "type": 2,
            "block_id": {
              "hash": "43BF56EE452151112450E09C9221032D329CAC87",
              "parts": {
                "total": "1",
                "hash": "16E5CD02C252A59A80095A8EC567F5A8178D267C"
              }
            },
            "signature": {
              "type": "tendermint/SignatureEd25519",
              "value": "Ps3q7jYEnYdLH/bqcMUUU8FonrJl0nrDdgrj3FhAP1XXqzzhZqBY20r2N2YBrIKK5DsrQZ/ccfVJ3qrvMTQmBg=="
            }
          },
          {
            "validator_address": "C4335190C3B5BD4BA5568BC0F99C34162D940D08",
            "validator_index": "72",
            "height": "21172",
            "round": "1",
            "timestamp": "2018-07-31T16:55:24.584362404Z",
            "type": 2,
            "block_id": {
              "hash": "43BF56EE452151112450E09C9221032D329CAC87",
              "parts": {
                "total": "1",
                "hash": "16E5CD02C252A59A80095A8EC567F5A8178D267C"
              }
            },
            "signature": {
              "type": "tendermint/SignatureEd25519",
              "value": "K0WzV58l/HibuR7EN6W9GxliHKVdbCHGpnXCJ+w0/MAPCGSFdQpnS1XDQwX3UpDo/EDUuvBtXsF8/zzKpGEgCw=="
            }
          },
          {
            "validator_address": "C561CFA081677046376396922E7576E5F7B316AD",
            "validator_index": "73",
            "height": "21172",
            "round": "1",
            "timestamp": "2018-07-31T16:55:24.658897748Z",
            "type": 2,
            "block_id": {
              "hash": "43BF56EE452151112450E09C9221032D329CAC87",
              "parts": {
                "total": "1",
                "hash": "16E5CD02C252A59A80095A8EC567F5A8178D267C"
              }
            },
            "signature": {
              "type": "tendermint/SignatureEd25519",
              "value": "KO6Jb9KcylQxq7FN3LZf0NR/spe3W2/v7k2QpMBDRJV+zpqZZECZ1scQJcmjikeOOmius5E9lsR9TOVNcDMoCw=="
            }
          },
          {
            "validator_address": "CE589EA77B056D268D30D1DC1D68A70E0F885E95",
            "validator_index": "74",
            "height": "21172",
            "round": "1",
            "timestamp": "2018-07-31T16:55:24.595390681Z",
            "type": 2,
            "block_id": {
              "hash": "43BF56EE452151112450E09C9221032D329CAC87",
              "parts": {
                "total": "1",
                "hash": "16E5CD02C252A59A80095A8EC567F5A8178D267C"
              }
            },
            "signature": {
              "type": "tendermint/SignatureEd25519",
              "value": "b1HMsLM5cvAthbrBwhFpc8pyaB5IPINai/o0LJ/gM3Q9xI2Ww1NqJ0Nipkk+7DG/DdgGGN3UHFDWm2Y0yKsBCQ=="
            }
          },
          {
            "validator_address": "CEB97DB5CB18270247ABDE6CF2F84F9AEE8A2904",
            "validator_index": "75",
            "height": "21172",
            "round": "1",
            "timestamp": "2018-07-31T16:55:24.765171533Z",
            "type": 2,
            "block_id": {
              "hash": "43BF56EE452151112450E09C9221032D329CAC87",
              "parts": {
                "total": "1",
                "hash": "16E5CD02C252A59A80095A8EC567F5A8178D267C"
              }
            },
            "signature": {
              "type": "tendermint/SignatureEd25519",
              "value": "ytAkRfkG2Fu8+4hvi5KXahdMfeeftcW7G7mZsfL7XSHP1zgvW+GZY683kkgZMVrywpBXEwxUf50EmraxbW/ABQ=="
            }
          },
          {
            "validator_address": "CF205769734F5758CC39F907EFB73D6BAF915FB1",
            "validator_index": "76",
            "height": "21172",
            "round": "1",
            "timestamp": "2018-07-31T16:55:24.612763455Z",
            "type": 2,
            "block_id": {
              "hash": "43BF56EE452151112450E09C9221032D329CAC87",
              "parts": {
                "total": "1",
                "hash": "16E5CD02C252A59A80095A8EC567F5A8178D267C"
              }
            },
            "signature": {
              "type": "tendermint/SignatureEd25519",
              "value": "+XEkm2zI27ErNVEqeITKg2+VSl8XiF42XOsiyns4LZTSb+XpU8Pq6M2Mirad1zt7cDGRLdn85FJveufhfhlsAA=="
            }
          },
          {
            "validator_address": "D2134B826A1E25A955905CB79A4D8731CAFA0CCE",
            "validator_index": "77",
            "height": "21172",
            "round": "1",
            "timestamp": "2018-07-31T16:55:24.628830355Z",
            "type": 2,
            "block_id": {
              "hash": "43BF56EE452151112450E09C9221032D329CAC87",
              "parts": {
                "total": "1",
                "hash": "16E5CD02C252A59A80095A8EC567F5A8178D267C"
              }
            },
            "signature": {
              "type": "tendermint/SignatureEd25519",
              "value": "0JGGWldKB7jeAu1917gEkdvUHiHDdWGQTjUSjFdN2IfdCUkNImjAhwhwD4HCr5nBaCdSSGl6N4a8fjAc7ODDBQ=="
            }
          },
          {
            "validator_address": "D6285C3422C8886445D53757CBE12D2B91B5A9D0",
            "validator_index": "78",
            "height": "21172",
            "round": "1",
            "timestamp": "2018-07-31T16:55:07.205061574Z",
            "type": 2,
            "block_id": {
              "hash": "43BF56EE452151112450E09C9221032D329CAC87",
              "parts": {
                "total": "1",
                "hash": "16E5CD02C252A59A80095A8EC567F5A8178D267C"
              }
            },
            "signature": {
              "type": "tendermint/SignatureEd25519",
              "value": "5YDx3gMUgB2hw6F64cJdWy0EWSKhG6X58eNtHtwkgX6kUABzX/NiM7KyIKyauPnOXUxU8s3Xeektqa64Ri84Cw=="
            }
          },
          {
            "validator_address": "D77FB84A729972CD3E757C9BEB61561855832B92",
            "validator_index": "79",
            "height": "21172",
            "round": "1",
            "timestamp": "2018-07-31T16:55:24.636224952Z",
            "type": 2,
            "block_id": {
              "hash": "43BF56EE452151112450E09C9221032D329CAC87",
              "parts": {
                "total": "1",
                "hash": "16E5CD02C252A59A80095A8EC567F5A8178D267C"
              }
            },
            "signature": {
              "type": "tendermint/SignatureEd25519",
              "value": "eSB2VC4Shdo6nf/bT6/V/mPl31Zzsq4EHBmwvjLHSKyfB4HKWY+KR+t1tqH4mvnCX3A99qXb2uONmv5N4VtQDw=="
            }
          },
          {
            "validator_address": "DB7E6732471D3EA5C90C17A9974D9F88AB45F2FB",
            "validator_index": "80",
            "height": "21172",
            "round": "1",
            "timestamp": "2018-07-31T16:55:24.5451385Z",
            "type": 2,
            "block_id": {
              "hash": "43BF56EE452151112450E09C9221032D329CAC87",
              "parts": {
                "total": "1",
                "hash": "16E5CD02C252A59A80095A8EC567F5A8178D267C"
              }
            },
            "signature": {
              "type": "tendermint/SignatureEd25519",
              "value": "6dVF5TzSEo2e3zeKKVw5i7i4tok4WRfobQgiKeK9twEQk8uB/sao91YCDnAQMIjswn5vJNSf1rGBnVM6Efy6BA=="
            }
          },
          {
            "validator_address": "DF54B862410BCD9B5C516FBB6C56BDC826ED6FA7",
            "validator_index": "81",
            "height": "21172",
            "round": "1",
            "timestamp": "2018-07-31T16:55:24.663699924Z",
            "type": 2,
            "block_id": {
              "hash": "43BF56EE452151112450E09C9221032D329CAC87",
              "parts": {
                "total": "1",
                "hash": "16E5CD02C252A59A80095A8EC567F5A8178D267C"
              }
            },
            "signature": {
              "type": "tendermint/SignatureEd25519",
              "value": "3C6QI0Aem8KrOxD15/a73PLCJW88B8GVC2wiyYN8IFW0cP/bDkPuDheYYqwDrxJmM4fX8aBN1y/UGkw4W7jbDw=="
            }
          },
          {
            "validator_address": "DFAF0C8B1B78D6D552B0189DE3ACA351439A1319",
            "validator_index": "82",
            "height": "21172",
            "round": "1",
            "timestamp": "2018-07-31T16:55:24.508443239Z",
            "type": 2,
            "block_id": {
              "hash": "43BF56EE452151112450E09C9221032D329CAC87",
              "parts": {
                "total": "1",
                "hash": "16E5CD02C252A59A80095A8EC567F5A8178D267C"
              }
            },
            "signature": {
              "type": "tendermint/SignatureEd25519",
              "value": "vxBxu9lsanoBhhJBSOQzdk/drBDCa41DfMBf6Ew4Am+iZz5/AW+GyJX0lsEA8K7tpJ1cQLlb2EpYtHBGl5ZqBg=="
            }
          },
          {
            "validator_address": "E1DBC77881161A5A3A8536A57536EAE546A75D69",
            "validator_index": "83",
            "height": "21172",
            "round": "1",
            "timestamp": "2018-07-31T16:55:24.504655581Z",
            "type": 2,
            "block_id": {
              "hash": "43BF56EE452151112450E09C9221032D329CAC87",
              "parts": {
                "total": "1",
                "hash": "16E5CD02C252A59A80095A8EC567F5A8178D267C"
              }
            },
            "signature": {
              "type": "tendermint/SignatureEd25519",
              "value": "O12bAGEqBe0m1AOMld3DLwXkwFq9ujz+oh4eVBH1lMDpLDuJ1J6Z0fABwRJ7cWww8a7ELtLqyf1Ud73MsQWZBA=="
            }
          },
          {
            "validator_address": "E300E9D484374C1D3E97C1D93CAC3B160A056298",
            "validator_index": "84",
            "height": "21172",
            "round": "1",
            "timestamp": "2018-07-31T16:55:24.750513054Z",
            "type": 2,
            "block_id": {
              "hash": "43BF56EE452151112450E09C9221032D329CAC87",
              "parts": {
                "total": "1",
                "hash": "16E5CD02C252A59A80095A8EC567F5A8178D267C"
              }
            },
            "signature": {
              "type": "tendermint/SignatureEd25519",
              "value": "TOJiaDabfRj7CKEKvg5oc0IbrSPxiPrcmgkKU7j5FahvhoJypmJiPg5Y1e7wwqkmk+0NzGFp89ziioAeovuiBA=="
            }
          },
          {
            "validator_address": "E39B5778E0D4297A46F45CF6940B0A163A430FF8",
            "validator_index": "85",
            "height": "21172",
            "round": "1",
            "timestamp": "2018-07-31T16:55:24.60733106Z",
            "type": 2,
            "block_id": {
              "hash": "43BF56EE452151112450E09C9221032D329CAC87",
              "parts": {
                "total": "1",
                "hash": "16E5CD02C252A59A80095A8EC567F5A8178D267C"
              }
            },
            "signature": {
              "type": "tendermint/SignatureEd25519",
              "value": "0r7vS+dNIKVpJ2eg0v415pv9VgI9n01bju9TE+FPg/2GvqcGnT+fPr9TDK5otU4Satvc3diT3tXRkchmA4UGBQ=="
            }
          },
          {
            "validator_address": "E3B19738F7132F950668504D326C7660F159D170",
            "validator_index": "86",
            "height": "21172",
            "round": "1",
            "timestamp": "2018-07-31T16:55:24.543224054Z",
            "type": 2,
            "block_id": {
              "hash": "43BF56EE452151112450E09C9221032D329CAC87",
              "parts": {
                "total": "1",
                "hash": "16E5CD02C252A59A80095A8EC567F5A8178D267C"
              }
            },
            "signature": {
              "type": "tendermint/SignatureEd25519",
              "value": "r+vgR+wkII4htJ5zp7DojVw9AoZC4ycQWv+NSaPCB307G8EWOHGwGL9sLUTC9lC1WO9E3SUqkEfPqeqJU/FBDA=="
            }
          },
          {
            "validator_address": "E42F8AEABB685219F7027F54D2B0DBC7846F633A",
            "validator_index": "87",
            "height": "21172",
            "round": "1",
            "timestamp": "2018-07-31T16:55:23.726368389Z",
            "type": 2,
            "block_id": {
              "hash": "43BF56EE452151112450E09C9221032D329CAC87",
              "parts": {
                "total": "1",
                "hash": "16E5CD02C252A59A80095A8EC567F5A8178D267C"
              }
            },
            "signature": {
              "type": "tendermint/SignatureEd25519",
              "value": "tpu2Onw4HmHflmoVBKY2p78zcjvUobWqO5t87W5xsqdzz7pxSnMGo8ZbHHhQPm6sraRJAXLd53KejCInhFirAw=="
            }
          },
          {
            "validator_address": "E4E6C2E81269DFFA196C17F98240E491479A6008",
            "validator_index": "88",
            "height": "21172",
            "round": "1",
            "timestamp": "2018-07-31T16:55:24.59565619Z",
            "type": 2,
            "block_id": {
              "hash": "43BF56EE452151112450E09C9221032D329CAC87",
              "parts": {
                "total": "1",
                "hash": "16E5CD02C252A59A80095A8EC567F5A8178D267C"
              }
            },
            "signature": {
              "type": "tendermint/SignatureEd25519",
              "value": "o4+rIw0emUQa8gQz31nw+CCkVOA0PaaMoJVzPbDsuz7zOhIphZHWXryMYBp+1aNyzxUP5X70CGOghQKI6IQnBw=="
            }
          },
          {
            "validator_address": "E4FEB2846F4F3B0ECDCBE9C9DCB2248248A5AF0F",
            "validator_index": "89",
            "height": "21172",
            "round": "1",
            "timestamp": "2018-07-31T16:55:24.799686511Z",
            "type": 2,
            "block_id": {
              "hash": "43BF56EE452151112450E09C9221032D329CAC87",
              "parts": {
                "total": "1",
                "hash": "16E5CD02C252A59A80095A8EC567F5A8178D267C"
              }
            },
            "signature": {
              "type": "tendermint/SignatureEd25519",
              "value": "q+u13tFsn0hXhU1hkBovxxrP1Hi62edJRNyP7oAuFeyCtSwutzLBdnaIRMveHHbSt5rDQx6knfndEssia63BBw=="
            }
          },
          {
            "validator_address": "E6A7079D584B163750BE0831227F6B685DEAF3C1",
            "validator_index": "90",
            "height": "21172",
            "round": "1",
            "timestamp": "2018-07-31T16:55:24.706980254Z",
            "type": 2,
            "block_id": {
              "hash": "43BF56EE452151112450E09C9221032D329CAC87",
              "parts": {
                "total": "1",
                "hash": "16E5CD02C252A59A80095A8EC567F5A8178D267C"
              }
            },
            "signature": {
              "type": "tendermint/SignatureEd25519",
              "value": "WZC2FBoHgK1yqNCQVfKEAVuwfKfb61oT3N6XuQlapp69hyFOokPHvNQ+nmJY7HOrbag5YvS5wAu9kgI0uNpFBA=="
            }
          },
          {
            "validator_address": "E7A30077D5D11867D3EAF99ED45BFDC1EB834509",
            "validator_index": "91",
            "height": "21172",
            "round": "1",
            "timestamp": "2018-07-31T16:55:24.552851185Z",
            "type": 2,
            "block_id": {
              "hash": "43BF56EE452151112450E09C9221032D329CAC87",
              "parts": {
                "total": "1",
                "hash": "16E5CD02C252A59A80095A8EC567F5A8178D267C"
              }
            },
            "signature": {
              "type": "tendermint/SignatureEd25519",
              "value": "gb3EA4pX6P1FXqq0AqPo1rhRcJre751mJsjU1//93H0MM7hfCHhLvf+Do1PDEd7NvRX5vJL2CqpOFDfPMSGzDg=="
            }
          },
          {
            "validator_address": "EBC613967F66F4EC306852CDF58B4F151CF16738",
            "validator_index": "92",
            "height": "21172",
            "round": "1",
            "timestamp": "2018-07-31T16:55:24.582883863Z",
            "type": 2,
            "block_id": {
              "hash": "43BF56EE452151112450E09C9221032D329CAC87",
              "parts": {
                "total": "1",
                "hash": "16E5CD02C252A59A80095A8EC567F5A8178D267C"
              }
            },
            "signature": {
              "type": "tendermint/SignatureEd25519",
              "value": "U+yOpV5uVf8ZErtfWeWFY29gKqB+4bWD0qm1yYty8yMrvfncWbbDUHEhMHC/8GiV1NwG+yzvgGoYd+9POAekBA=="
            }
          },
          {
            "validator_address": "EC3401441726C40ECC7E51F744483B05BC6DE9BD",
            "validator_index": "93",
            "height": "21172",
            "round": "1",
            "timestamp": "2018-07-31T16:55:24.539823523Z",
            "type": 2,
            "block_id": {
              "hash": "43BF56EE452151112450E09C9221032D329CAC87",
              "parts": {
                "total": "1",
                "hash": "16E5CD02C252A59A80095A8EC567F5A8178D267C"
              }
            },
            "signature": {
              "type": "tendermint/SignatureEd25519",
              "value": "R/oBKbOfSETNcN6Qj5qndLzht72plqTTtbAlLVY29pIY2tswfq9wFCFKLi1CfHl/nMzsACM/PD1BVnnFwgfdAw=="
            }
          },
          {
            "validator_address": "EC95B111D032181E1EC3B5E8875C5BB8E4AE7140",
            "validator_index": "94",
            "height": "21172",
            "round": "1",
            "timestamp": "2018-07-31T16:55:24.504953597Z",
            "type": 2,
            "block_id": {
              "hash": "43BF56EE452151112450E09C9221032D329CAC87",
              "parts": {
                "total": "1",
                "hash": "16E5CD02C252A59A80095A8EC567F5A8178D267C"
              }
            },
            "signature": {
              "type": "tendermint/SignatureEd25519",
              "value": "q4Hi5VskR4pF64C43y1iUNk0Egz1+QWhk51EMMGog+hWZxHvKvTFhQDV2xFARxhyF446c2sGnY+p4CUMjOsRCA=="
            }
          },
          {
            "validator_address": "F13C1805E8131C9B47E2A46818F57D8A2841E578",
            "validator_index": "95",
            "height": "21172",
            "round": "1",
            "timestamp": "2018-07-31T16:55:24.565908219Z",
            "type": 2,
            "block_id": {
              "hash": "43BF56EE452151112450E09C9221032D329CAC87",
              "parts": {
                "total": "1",
                "hash": "16E5CD02C252A59A80095A8EC567F5A8178D267C"
              }
            },
            "signature": {
              "type": "tendermint/SignatureEd25519",
              "value": "CTxVkZm2UgRRVHkxJ3XH5rbVfmt/HokIh5PRrIoqeKVbAQkSR1X9qFZqHY+OheahJEpp66xUrVyJyG9plbQwAA=="
            }
          },
          {
            "validator_address": "F23FF36BD5B90C33CE3A03ED72DBDCF5EC07D6AF",
            "validator_index": "96",
            "height": "21172",
            "round": "1",
            "timestamp": "2018-07-31T16:55:24.586582331Z",
            "type": 2,
            "block_id": {
              "hash": "43BF56EE452151112450E09C9221032D329CAC87",
              "parts": {
                "total": "1",
                "hash": "16E5CD02C252A59A80095A8EC567F5A8178D267C"
              }
            },
            "signature": {
              "type": "tendermint/SignatureEd25519",
              "value": "wNrFS6wfRWDIJq7sU9v9b5nKD118qSvRh2h4zm5dpojYilSYcBnO7SSS4U6qC2JKIqr7O8OkAWKwbE6ijA/+CA=="
            }
          },
          {
            "validator_address": "F4268597DE93E3E2CED38845010F8AA34E2A879E",
            "validator_index": "97",
            "height": "21172",
            "round": "1",
            "timestamp": "2018-07-31T16:55:24.577851529Z",
            "type": 2,
            "block_id": {
              "hash": "43BF56EE452151112450E09C9221032D329CAC87",
              "parts": {
                "total": "1",
                "hash": "16E5CD02C252A59A80095A8EC567F5A8178D267C"
              }
            },
            "signature": {
              "type": "tendermint/SignatureEd25519",
              "value": "BlkxnrDvYa4QU761oyj4NsGs9xdWXEZjKemi8tAjPb2AcETjizhUVMCuADp8aWm2AnZamqF2Rw0YgbjtwBomDQ=="
            }
          },
          {
            "validator_address": "F4DEB417999B04BE2EFF9FFE03FA373D86011CC0",
            "validator_index": "98",
            "height": "21172",
            "round": "1",
            "timestamp": "2018-07-31T16:55:24.522762007Z",
            "type": 2,
            "block_id": {
              "hash": "43BF56EE452151112450E09C9221032D329CAC87",
              "parts": {
                "total": "1",
                "hash": "16E5CD02C252A59A80095A8EC567F5A8178D267C"
              }
            },
            "signature": {
              "type": "tendermint/SignatureEd25519",
              "value": "d+Q94EFrFlctm87YGeL2S6kpWzQ368CPZnDyggVq1eAxBiSFdhNJi9VKSAzoAE+Wwjlq5iHEKvY3KFZJsdaVCQ=="
            }
          },
          {
            "validator_address": "F6738260186D33D9C14FC6E7017AFE6BB952A63D",
            "validator_index": "99",
            "height": "21172",
            "round": "1",
            "timestamp": "2018-07-31T16:55:24.587622876Z",
            "type": 2,
            "block_id": {
              "hash": "43BF56EE452151112450E09C9221032D329CAC87",
              "parts": {
                "total": "1",
                "hash": "16E5CD02C252A59A80095A8EC567F5A8178D267C"
              }
            },
            "signature": {
              "type": "tendermint/SignatureEd25519",
              "value": "AH5KPh30B3zOgPtjhkFePhDtnesbC905Dvvwx5TeYs2IxyG85ukmSNfUjeDTf0D9rgXZfAyqgS7T53IZYL1eAQ=="
            }
          },
          null,
          {
            "validator_address": "FF3F3FCBCE7E62D7AD5506FF846EC4518D980515",
            "validator_index": "101",
            "height": "21172",
            "round": "1",
            "timestamp": "2018-07-31T16:55:24.518704576Z",
            "type": 2,
            "block_id": {
              "hash": "43BF56EE452151112450E09C9221032D329CAC87",
              "parts": {
                "total": "1",
                "hash": "16E5CD02C252A59A80095A8EC567F5A8178D267C"
              }
            },
            "signature": {
              "type": "tendermint/SignatureEd25519",
              "value": "0OUexllM0HPaIXt0JuTv9ECIluEF0z0xva4eW2P55ZTJviIdKuuZJUVFSHCggRcnWTqD6WoRHXkNixY2Qg4MCw=="
            }
          }
        ]
      }
    },
    "canonical": true
  }
}