{
  "jsonrpc": "2.0",
  "id": "",
  "result": {
    "SignedHeader": {
      "header": {
        "chain_id": "gaia-7004",
        "height": "21881",
        "time": "2018-07-31T18:04:58.818756458Z",
        "num_txs": "0",
        "last_block_id": {
          "hash": "3E038754A9CFBD21830AB155089EE5E93AC96A30",
          "parts": {
            "total": "1",
            "hash": "574ACFCA71984C5012DBD26CFDDA27472F375240"
          }
        },
        "total_txs": "594",
        "last_commit_hash": "F85F7DB492F6DA79FCD42F6CD140E6CF96BC5F0B",
        "data_hash": "",
        "validators_hash": "86AE56F431B05932D8FA24DBEB62ABFFEBCEC5E0",
        "consensus_hash": "D6B74BB35BDFFD8392340F2A379173548AE188FE",
        "app_hash": "6CE7DD8A7935A87223386B1B4FFD308B1431F6CD",
        "last_results_hash": "",
        "evidence_hash": ""
      },
      "commit": {
        "block_id": {
          "hash": "378BEE8F599A2F793966E69B6988D2EC08E3C240",
          "parts": {
            "total": "1",
            "hash": "C2C1BF0067BF5BA624E8B4D8E2BD0CA708373753"
          }
        },
        "precommits": [
          {
            "validator_address": "029359C0C768096273A68ABC902A6B17AC8D1D70",
            "validator_index": "0",
            "height": "21881",
            "round": "1",
            "timestamp": "2018-07-31T18:04:59.727645376Z",
            "type": 2,
            "block_id": {
              "hash": "378BEE8F599A2F793966E69B6988D2EC08E3C240",
              "parts": {
                "total": "1",
                "hash": "C2C1BF0067BF5BA624E8B4D8E2BD0CA708373753"
              }
            },
            "signature": {
              "type": "tendermint/SignatureEd25519",
              "value": "H9nCdMqMdzCaKJUfycXU8twB3UOzuScB4gMMCTt72cBS1HDMOAQQCRMrsv/9vp+I8QmORgdeWn3IWanL+k8kDQ=="
            }
          },
          {
            "validator_address": "02FE4B97A8387F39D1AC19E0C1702B3CC614812F",
            "validator_index": "1",
            "height": "21881",
            "round": "1",
            "timestamp": "2018-07-31T18:04:59.776700801Z",
            "type": 2,
            "block_id": {
              "hash": "378BEE8F599A2F793966E69B6988D2EC08E3C240",
              "parts": {
                "total": "1",
                "hash": "C2C1BF0067BF5BA624E8B4D8E2BD0CA708373753"
              }
            },
            "signature": {
              "type": "tendermint/SignatureEd25519",
              "value": "0FyRto189w+0sKiQ63JnANeQ3JJNZPxBjjOPmYfHIiPyofLHBtMd9dAGKlZuc/KTuUt/5BQz0SRyZPeNa9pVBg=="
            }
          },
          {
            "validator_address": "0548261C50222FD710EB5EBDF03A0E6567B21D20",
            "validator_index": "2",
            "height": "21881",
            "round": "1",
            "timestamp": "2018-07-31T18:04:59.765783354Z",
            "type": 2,
            "block_id": {
              "hash": "378BEE8F599A2F793966E69B6988D2EC08E3C240",
              "parts": {
                "total": "1",
                "hash": "C2C1BF0067BF5BA624E8B4D8E2BD0CA708373753"
              }
            },
            "signature": {
              "type": "tendermint/SignatureEd25519",
              "value": "O/J0sG+dl18Ky5X1dUqsniSNxs5YUA1Z+wPjloUtN3fejyLz5TvpLWbvtG9UBsKIRNGSIfr2Bz7CMSLrO5V5CA=="
            }
          },
          {
            "validator_address": "09145E611CC27EEB944FC5A956DDF710F943B9EF",
            "validator_index": "3",
            "height": "21881",
            "round": "1",
            "timestamp": "2018-07-31T18:04:59.732861764Z",
            "type": 2,
            "block_id": {
              "hash": "378BEE8F599A2F793966E69B6988D2EC08E3C240",
              "parts": {
                "total": "1",
                "hash": "C2C1BF0067BF5BA624E8B4D8E2BD0CA708373753"
              }
            },
            "signature": {
              "type": "tendermint/SignatureEd25519",
              "value": "wgnyZo/qT1wRNGXvLX5lOw4eFzVV1mvGStWOewYyKalERwKyZ2xV4Ji2R1cqkMtJfJ9hTxnG5do2fwWORGy3Cw=="
            }
          },
          {
            "validator_address": "0989D0355A104B67AE0AE028C68FB610690E174B",
            "validator_index": "4",
            "height": "21881",
            "round": "1",
            "timestamp": "2018-07-31T18:04:59.696990568Z",
            "type": 2,
            "block_id": {
              "hash": "378BEE8F599A2F793966E69B6988D2EC08E3C240",
              "parts": {
                "total": "1",
                "hash": "C2C1BF0067BF5BA624E8B4D8E2BD0CA708373753"
              }
            },
            "signature": {
              "type": "tendermint/SignatureEd25519",
              "value": "cirjGWSTm0tUvTwQaFMIBwJ7sXQ1sxYdJI8fiUBGWW5xBTgBkWjJ8l/58ehb5/knKDZ/4O3iuMYJud+lk7aQCA=="
            }
          },
          {
            "validator_address": "0A692DBFFE9E5DD28E7DECC33CED1AEB4C0D014E",
            "validator_index": "5",
            "height": "21881",
            "round": "1",
            "timestamp": "2018-07-31T18:04:59.910265524Z",
            "type": 2,
            "block_id": {
              "hash": "378BEE8F599A2F793966E69B6988D2EC08E3C240",
              "parts": {
                "total": "1",
                "hash": "C2C1BF0067BF5BA624E8B4D8E2BD0CA708373753"
              }
            },
            "signature": {
              "type": "tendermint/SignatureEd25519",
              "value": "5rcyUw7zhLltFCnk7emRsJLSvknDaicdHVMFt5Urirwc3nKYKudPuz4hJB0r1lKupoMThdOly7x8cU25aYn7Cg=="
            }
          },
          {
            "validator_address": "0DDF97111D73DB825138EC15EC27DE5FE8536901",
            "validator_index": "6",
            "height": "21881",
            "round": "1",
            "timestamp": "2018-07-31T18:04:59.73466575Z",
            "type": 2,
            "block_id": {
              "hash": "378BEE8F599A2F793966E69B6988D2EC08E3C240",
              "parts": {
                "total": "1",
                "hash": "C2C1BF0067BF5BA624E8B4D8E2BD0CA708373753"
              }
            },
            "signature": {
              "type": "tendermint/SignatureEd25519",
              "value": "TqbybZ6PcmqC3Is1Ur+mNZbsULOFj0Fy3p6vQe0yYKDDlRxqprdunOpkg0V9AHzofffV0Refj9ldHnoR2DkTDw=="
            }
          },
          {
            "validator_address": "1751786EFC085D5331C61168FFFC8202EA151B4E",
            "validator_index": "7",
            "height": "21881",
            "round": "1",
            "timestamp": "2018-07-31T18:04:59.327547362Z",
            "type": 2,
            "block_id": {
              "hash": "378BEE8F599A2F793966E69B6988D2EC08E3C240",
              "parts": {
                "total": "1",
                "hash": "C2C1BF0067BF5BA624E8B4D8E2BD0CA708373753"
              }
            },
            "signature": {
              "type": "tendermint/SignatureEd25519",
              "value": "eyYPkh6RZaS1hoJXi1onjxOE1vhhTA1I4XWPNTCOW6xoxyLWt1W37apbKuxAfjugnfhJRP7xmRBUiQWtInfWBg=="
            }
          },
          {
            "validator_address": "17BB5CD01E8940FAFB948A04D5FA5A0645E5822E",
            "validator_index": "8",
            "height": "21881",
            "round": "1",
            "timestamp": "2018-07-31T18:04:59.690670832Z",
            "type": 2,
            "block_id": {
              "hash": "378BEE8F599A2F793966E69B6988D2EC08E3C240",
              "parts": {
                "total": "1",
                "hash": "C2C1BF0067BF5BA624E8B4D8E2BD0CA708373753"
              }
            },
            "signature": {
              "type": "tendermint/SignatureEd25519",
              "value": "ekFoWZMVtUHXTITzICUa4/oCUQOEG7q5smeBrW+OFweUGaDuy1jbvBSyCz1S9TL427JximWKqAjLrvFviHeaBw=="
            }
          },
          {
            "validator_address": "1C683A87904BC38F05004FE83301A3A3E35447EB",
            "validator_index": "9",
            "height": "21881",
            "round": "1",
            "timestamp": "2018-07-31T18:04:59.734075877Z",
            "type": 2,
            "block_id": {
              "hash": "378BEE8F599A2F793966E69B6988D2EC08E3C240",
              "parts": {
                "total": "1",
                "hash": "C2C1BF0067BF5BA624E8B4D8E2BD0CA708373753"
              }
            },
            "signature": {
              "type": "tendermint/SignatureEd25519",
              "value": "mWJHa/k4hBXoqj1GaPULW2KCP4r9t8wwmEyWE76Ji6K/eo8rpFHp/FXlm+pQ2b2Evpfq30zB3c+WhZg0kYf7CQ=="
            }
          },
          {
            "validator_address": "1E9CE94FD0BA5CFEB901F90BC658D64D85B134D2",
            "validator_index": "10",
            "height": "21881",
            "round": "1",
            "timestamp": "2018-07-31T18:04:59.744777915Z",
            "type": 2,
            "block_id": {
              "hash": "378BEE8F599A2F793966E69B6988D2EC08E3C240",
              "parts": {
                "total": "1",
                "hash": "C2C1BF0067BF5BA624E8B4D8E2BD0CA708373753"
              }
            },
            "signature": {
              "type": "tendermint/SignatureEd25519",
              "value": "pE1JsCIot9uR47ybuo90v7cfj9dJDJKoSvMkYSlZvDsIYt9Fd1SHbgr/9hnyEuIabiLn1nO0MISQTnIywZDpDg=="
            }
          },
          {
            "validator_address": "1ECD8C5FE1341D74CDC633A245DD56858DE2F9A2",
            "validator_index": "11",
            "height": "21881",
            "round": "1",
            "timestamp": "2018-07-31T18:04:59.878127597Z",
            "type": 2,
            "block_id": {
              "hash": "378BEE8F599A2F793966E69B6988D2EC08E3C240",
              "parts": {
                "total": "1",
                "hash": "C2C1BF0067BF5BA624E8B4D8E2BD0CA708373753"
              }
            },
            "signature": {
              "type": "tendermint/SignatureEd25519",
              "value": "e/QtxwczPlFB+nogR7etnR+kg2PXayNw+qK2kXZpP851t2bkK5avWmP+cftjOw0nO+jPD7RHA+pmYBvSF4mBAw=="
            }
          },
          {
            "validator_address": "1F3A68CAAD483768AA2BF667DEF10F7104C89928",
            "validator_index": "12",
            "height": "21881",
            "round": "1",
            "timestamp": "2018-07-31T18:04:59.735498803Z",
            "type": 2,
            "block_id": {
              "hash": "378BEE8F599A2F793966E69B6988D2EC08E3C240",
              "parts": {
                "total": "1",
                "hash": "C2C1BF0067BF5BA624E8B4D8E2BD0CA708373753"
              }
            },
            "signature": {
              "type": "tendermint/SignatureEd25519",
              "value": "uEqpbzSKiGtsFyTja0IFPfK50FtvKWqtTJDjA3VeRYLnh6qxGB2epJU4ll/aJkJR2Y7LJOv+4xAJQ6zTdvomDQ=="
            }
          },
          {
            "validator_address": "23897586D68E2AC1C78E0EF5BB5DF5C8EAB18F50",
            "validator_index": "13",
            "height": "21881",
            "round": "1",
            "timestamp": "2018-07-31T18:04:59.776401875Z",
            "type": 2,
            "block_id": {
              "hash": "378BEE8F599A2F793966E69B6988D2EC08E3C240",
              "parts": {
                "total": "1",
                "hash": "C2C1BF0067BF5BA624E8B4D8E2BD0CA708373753"
              }
            },
            "signature": {
              "type": "tendermint/SignatureEd25519",
              "value": "8jd7no4KWWiNtuy9reC3XtpREvl2pyUNjsG9GkUyvA/w46Y+ExDWtDReBRSoDNXH23pZxeTBv8pSaBykIv6RDg=="
            }
          },
          {
            "validator_address": "28770D17E8530825E7310A0659308654B7EC9682",
            "validator_index": "14",
            "height": "21881",
            "round": "1",
            "timestamp": "2018-07-31T18:04:59.683073053Z",
            "type": 2,
            "block_id": {
              "hash": "378BEE8F599A2F793966E69B6988D2EC08E3C240",
              "parts": {
                "total": "1",
                "hash": "C2C1BF0067BF5BA624E8B4D8E2BD0CA708373753"
              }
            },
            "signature": {
              "type": "tendermint/SignatureEd25519",
              "value": "vTkrQOTk2T8CE0vBxN/sU4vLO7DCMb9Z5HQ6xa6eVDQ7SKI/bd7R+YT6ic3qlBW2BA7h9M5ZKJXDbGKiZ04ODA=="
            }
          },
          {
            "validator_address": "2A92EC3C642140202298D0E245095E0ECFC25228",
            "validator_index": "15",
            "height": "21881",
            "round": "1",
            "timestamp": "2018-07-31T18:04:59.826545953Z",
            "type": 2,
            "block_id": {
              "hash": "378BEE8F599A2F793966E69B6988D2EC08E3C240",
              "parts": {
                "total": "1",
                "hash": "C2C1BF0067BF5BA624E8B4D8E2BD0CA708373753"
              }
            },
            "signature": {
              "type": "tendermint/SignatureEd25519",
              "value": "lZiFaJJPwXSIY7/4mzLZnxmODlK0pd0Xsg799doGFJAsTg5TTPXGahDcf6vVauP+X+ZaxTBzfYWXbyd3kdKICw=="
            }
          },
          {
            "validator_address": "33412C9A69C60CB0FAA24A5C5B3A906DE24B47C2",
            "validator_index": "16",
            "height": "21881",
            "round": "1",
            "timestamp": "2018-07-31T18:04:59.717969674Z",
            "type": 2,
            "block_id": {
              "hash": "378BEE8F599A2F793966E69B6988D2EC08E3C240",
              "parts": {
                "total": "1",
                "hash": "C2C1BF0067BF5BA624E8B4D8E2BD0CA708373753"
              }
            },
            "signature": {
              "type": "tendermint/SignatureEd25519",
              "value": "C17nOGMYRK+Bk/1HM6CDQE8CwGmY372ZpDEb91+UfPifkz45wPnuPtByRvQ74WmS2UO/fJ6D3pkcveUOoH4UCA=="
            }
          },
          {
            "validator_address": "3383EF2A13B160C41947AC30434B274B2FAF0617",
            "validator_index": "17",
            "height": "21881",
            "round": "1",
            "timestamp": "2018-07-31T18:04:59.778495602Z",
            "type": 2,
            "block_id": {
              "hash": "378BEE8F599A2F793966E69B6988D2EC08E3C240",
              "parts": {
                "total": "1",
                "hash": "C2C1BF0067BF5BA624E8B4D8E2BD0CA708373753"
              }
            },
            "signature": {
              "type": "tendermint/SignatureEd25519",
              "value": "o3wRS5y9Lcwuvfr/Str3U1P4RiKbCOySvQ6dkpBSLqNjBxu6/C6bW/YWC1eA3bW+yhwgrr93/CdaFvibLFz0AA=="
            }
          },
          {
            "validator_address": "36E9B7FAEC964F97D84C028ED62493E373AD0B38",
            "validator_index": "18",
            "height": "21881",
            "round": "1",
            "timestamp": "2018-07-31T18:04:59.864493597Z",
            "type": 2,
            "block_id": {
              "hash": "378BEE8F599A2F793966E69B6988D2EC08E3C240",
              "parts": {
                "total": "1",
                "hash": "C2C1BF0067BF5BA624E8B4D8E2BD0CA708373753"
              }
            },
            "signature": {
              "type": "tendermint/SignatureEd25519",
              "value": "4sNvSeRR3kvRvPShed5ZvCEnnUtDcaCVtxZiYwiFm0Fey/pwMM1Wt12gGuihg3RtnKO4oO59HENsxS0eDocWDw=="
            }
          },
          {
            "validator_address": "38A8D85D36BEA2E5FCF8A1E778F53628E450EF13",
            "validator_index": "19",
            "height": "21881",
            "round": "1",
            "timestamp": "2018-07-31T18:04:59.793216909Z",
            "type": 2,
            "block_id": {
              "hash": "378BEE8F599A2F793966E69B6988D2EC08E3C240",
              "parts": {
                "total": "1",
                "hash": "C2C1BF0067BF5BA624E8B4D8E2BD0CA708373753"
              }
            },
            "signature": {
              "type": "tendermint/SignatureEd25519",
              "value": "IH3KTgMnR5L/s6aWQiWZmwlV/mqwBrjYGpUmpT1dKP/QejtgcCJkvtrYNUpF9LImjGNF3T941/XTFGc5yWUDAw=="
            }
          },
          {
            "validator_address": "39DFDA0C5DB84B269642188B23253508537798E6",
            "validator_index": "20",
            "height": "21881",
            "round": "1",
            "timestamp": "2018-07-31T18:04:59.723066502Z",
            "type": 2,
            "block_id": {
              "hash": "378BEE8F599A2F793966E69B6988D2EC08E3C240",
              "parts": {
                "total": "1",
                "hash": "C2C1BF0067BF5BA624E8B4D8E2BD0CA708373753"
              }
            },
            "signature": {
              "type": "tendermint/SignatureEd25519",
              "value": "fnfMRHTbxBqL8Ftznv/W1CqHvF9Lf/U9fd3Pi5VYXTzVoKa6hIgeQCG0SH6wAqf98oLe+u84Z13mZ4qXl6h6Bg=="
            }
          },
          {
            "validator_address": "3AC99B708404452366E0953A4BE849226DC86CBC",
            "validator_index": "21",
            "height": "21881",
            "round": "1",
            "timestamp": "2018-07-31T18:04:59.801094891Z",
            "type": 2,
            "block_id": {
              "hash": "378BEE8F599A2F793966E69B6988D2EC08E3C240",
              "parts": {
                "total": "1",
                "hash": "C2C1BF0067BF5BA624E8B4D8E2BD0CA708373753"
              }
            },
            "signature": {
              "type": "tendermint/SignatureEd25519",
              "value": "rAAFSA+g3SI5KIsUviYao5sqCx/HwWMuDdvWA2AwJBQB9sz5lXOCwoJN+I/s2wJaYsleLCfgGK7oTVVcn9ufDw=="
            }
          },
          {
            "validator_address": "3DCB822A10ED319EC7C4393D8E3FD4A41B15AAF2",
            "validator_index": "22",
            "height": "21881",
            "round": "1",
            "timestamp": "2018-07-31T18:04:59.691384376Z",
            "type": 2,
            "block_id": {
              "hash": "378BEE8F599A2F793966E69B6988D2EC08E3C240",
              "parts": {
                "total": "1",
                "hash": "C2C1BF0067BF5BA624E8B4D8E2BD0CA708373753"
              }
            },
            "signature": {
              "type": "tendermint/SignatureEd25519",
              "value": "IwdYUT5Qat06lgaDOFfmEgLY9PoKTlznXQtjAjHLt3pbfRO+Nko0rRUTczXYrbZvNmGMgxspydKYzqs/1G1PAw=="
            }
          },
          {
            "validator_address": "3E899BA36A93C7370347BD5FE85909F2ECD93F8C",
            "validator_index": "23",
            "height": "21881",
            "round": "1",
            "timestamp": "2018-07-31T18:04:59.709807108Z",
            "type": 2,
            "block_id": {
              "hash": "378BEE8F599A2F793966E69B6988D2EC08E3C240",
              "parts": {
                "total": "1",
                "hash": "C2C1BF0067BF5BA624E8B4D8E2BD0CA708373753"
              }
            },
            "signature": {
              "type": "tendermint/SignatureEd25519",
              "value": "QMtJl2SDQ5t0VSYYvAsJKM7W9CGlaJdOV//pu7R9axMwU0kufEqi8UfP/Km30/m4ufXYncQC3pPOM0Nb37SoAw=="
            }
          },
          {
            "validator_address": "41CAB2E29E7D0F2282E3275938F188FF9386B84C",
            "validator_index": "24",
            "height": "21881",
            "round": "1",
            "timestamp": "2018-07-31T18:04:59.773944182Z",
            "type": 2,
            "block_id": {
              "hash": "378BEE8F599A2F793966E69B6988D2EC08E3C240",
              "parts": {
                "total": "1",
                "hash": "C2C1BF0067BF5BA624E8B4D8E2BD0CA708373753"
              }
            },
            "signature": {
              "type": "tendermint/SignatureEd25519",
              "value": "AchT1FQgSjb1Fv/RL3YawrWvrFdOwWC8cTWSAtmlNt1FzBlvWs1oC32xIHmYNLzCmiOhIGTHvrGWa2iFcNdoBQ=="
            }
          },
          {
            "validator_address": "462B656869DB02A8FD1077E255F8CC7401DC37C6",
            "validator_index": "25",
            "height": "21881",
            "round": "1",
            "timestamp": "2018-07-31T18:04:59.765388249Z",
            "type": 2,
            "block_id": {
              "hash": "378BEE8F599A2F793966E69B6988D2EC08E3C240",
              "parts": {
                "total": "1",
                "hash": "C2C1BF0067BF5BA624E8B4D8E2BD0CA708373753"
              }
            },
            "signature": {
              "type": "tendermint/SignatureEd25519",
              "value": "JjOwyCasKwZF56sCanGrp3PYSzxWZPWoihi+U2pUROI4wenXEWNlyZsbI3Nfwu3/8JwjkFP7GHBRmOfjhmzcDQ=="
            }
          },
          {
            "validator_address": "48E5118163E5442068A1B5A42D2EEDBB75724935",
            "validator_index": "26",
            "height": "21881",
            "round": "1",
            "timestamp": "2018-07-31T18:04:59.813161148Z",
            "type": 2,
            "block_id": {
              "hash": "378BEE8F599A2F793966E69B6988D2EC08E3C240",
              "parts": {
                "total": "1",
                "hash": "C2C1BF0067BF5BA624E8B4D8E2BD0CA708373753"
              }
            },
            "signature": {
              "type": "tendermint/SignatureEd25519",
              "value": "KtUHyUzxhX43+hoskjVG/Jdk+5v43Oiq6nE2t1z6H4b094P0LvFnMBYccfU3Rff4CPSUscCiurEKr7lx7oIyBg=="
            }
          },
          {
            "validator_address": "4944F8BBBB5303E17BC0607DF332320EDBC750EA",
            "validator_index": "27",
            "height": "21881",
            "round": "1",
            "timestamp": "2018-07-31T18:04:59.740587732Z",
            "type": 2,
            "block_id": {
              "hash": "378BEE8F599A2F793966E69B6988D2EC08E3C240",
              "parts": {
                "total": "1",
                "hash": "C2C1BF0067BF5BA624E8B4D8E2BD0CA708373753"
              }
            },
            "signature": {
              "type": "tendermint/SignatureEd25519",
              "value": "r08HvDHpCc1ti9NxK34ELRHS+MFdJsNgdRavBLWABZoJEPhO7Vu8S18jhc4Ny3+z/l1iwMhx3G4HEZw/4InGDQ=="
            }
          },
          {
            "validator_address": "49841599DE675157CBE1E7D6B35BF8FFC23BD5CB",
            "validator_index": "28",
            "height": "21881",
            "round": "1",
            "timestamp": "2018-07-31T18:04:59.658541276Z",
            "type": 2,
            "block_id": {
              "hash": "378BEE8F599A2F793966E69B6988D2EC08E3C240",
              "parts": {
                "total": "1",
                "hash": "C2C1BF0067BF5BA624E8B4D8E2BD0CA708373753"
              }
            },
            "signature": {
              "type": "tendermint/SignatureEd25519",
              "value": "352lowcUtHid/WeGbAkAtZzBI/+NF3Njweg0YfX0o5Mx5bWnqItB7shh+WvRm2AtbE1TEqWL6g1Xpv6ZKPMADA=="
            }
          },
          {
            "validator_address": "51386C2CF9556821D114D7E4945806802BADB28D",
            "validator_index": "29",
            "height": "21881",
            "round": "1",
            "timestamp": "2018-07-31T18:04:59.786252546Z",
            "type": 2,
            "block_id": {
              "hash": "378BEE8F599A2F793966E69B6988D2EC08E3C240",
              "parts": {
                "total": "1",
                "hash": "C2C1BF0067BF5BA624E8B4D8E2BD0CA708373753"
              }
            },
            "signature": {
              "type": "tendermint/SignatureEd25519",
              "value": "zz1nVZJ7Qf8/p4bUz+Lxe+YbStJuusWcj98nENrRl8evwuocFhva2fgoQ9gSVROs3LeDPSdvOf5E0wnd9/r5Bg=="
            }
          },
          {
            "validator_address": "543564ECA3AFEFADC73EE8591AAC3A96F079BC8A",
            "validator_index": "30",
            "height": "21881",
            "round": "1",
            "timestamp": "2018-07-31T18:04:59.744902797Z",
            "type": 2,
            "block_id": {
              "hash": "378BEE8F599A2F793966E69B6988D2EC08E3C240",
              "parts": {
                "total": "1",
                "hash": "C2C1BF0067BF5BA624E8B4D8E2BD0CA708373753"
              }
            },
            "signature": {
              "type": "tendermint/SignatureEd25519",
              "value": "VIX9rIgKjag0YFh6HvwZ+G1TwDAASgfyEuwrIVIr+uFcTgnqI3SUVMPITAdfVCgjam6VdZolIgicUc6wRO0ACg=="
            }
          },
          {
            "validator_address": "55D67B1A6DC13E96F8754A5A42EABC20F7F86664",
            "validator_index": "31",
            "height": "21881",
            "round": "1",
            "timestamp": "2018-07-31T18:04:59.690804809Z",
            "type": 2,
            "block_id": {
              "hash": "378BEE8F599A2F793966E69B6988D2EC08E3C240",
              "parts": {
                "total": "1",
                "hash": "C2C1BF0067BF5BA624E8B4D8E2BD0CA708373753"
              }
            },
            "signature": {
              "type": "tendermint/SignatureEd25519",
              "value": "aaNnYbfsrDYVIikDbVgplAJtpPNJs87B3Xgcp0iA+8T9bseuXOMgHzrg2Ux+vq1fL1AG8lGuZZPzGfvpKx38Aw=="
            }
          },
          {
            "validator_address": "570B6A755ED339EAC56BB3390A48069F6AC9449B",
            "validator_index": "32",
            "height": "21881",
            "round": "1",
            "timestamp": "2018-07-31T18:05:03.982776029Z",
            "type": 2,
            "block_id": {
              "hash": "378BEE8F599A2F793966E69B6988D2EC08E3C240",
              "parts": {
                "total": "1",
                "hash": "C2C1BF0067BF5BA624E8B4D8E2BD0CA708373753"
              }
            },
            "signature": {
              "type": "tendermint/SignatureEd25519",
              "value": "xqDvMpBtUbGbIka4w7fCWZe6bYojXnMXSYqypP7KdjRiYj/9Aensj3jEb0YAOQeGWbrouigXBlqxdEsW2NIOCQ=="
            }
          },
          {
            "validator_address": "5BDF8EA41B1835FBAD865B181A2A4B23F511B5E4",
            "validator_index": "33",
            "height": "21881",
            "round": "1",
            "timestamp": "2018-07-31T18:04:59.748172698Z",
            "type": 2,
            "block_id": {
              "hash": "378BEE8F599A2F793966E69B6988D2EC08E3C240",
              "parts": {
                "total": "1",
                "hash": "C2C1BF0067BF5BA624E8B4D8E2BD0CA708373753"
              }
            },
            "signature": {
              "type": "tendermint/SignatureEd25519",
              "value": "pbM/g+RgSqfjVdPOol/u0JaMymoQNTBKcHUFV1m+jJObYG9A4+r0kx2bgXb65maQw6FM8zL0JDpC/Fr0aHYrBA=="
            }
          },
          {
            "validator_address": "60229E2E273297FE00219E46DFFB8F76844CDEF9",
            "validator_index": "34",
            "height": "21881",
            "round": "1",
            "timestamp": "2018-07-31T18:04:58.405979584Z",
            "type": 2,
            "block_id": {
              "hash": "378BEE8F599A2F793966E69B6988D2EC08E3C240",
              "parts": {
                "total": "1",
                "hash": "C2C1BF0067BF5BA624E8B4D8E2BD0CA708373753"
              }
            },
            "signature": {
              "type": "tendermint/SignatureEd25519",
              "value": "xF7tN8YG8XSIkEz44APLthJlxJ84sjaiB02A7V0KwJstb9nLzjQjOJ+HTN3jZ1wwk3zotBOd6dv9RR/nMHPXDw=="
            }
          },
          {
            "validator_address": "62410D6D1CD98278136E4D0738AA0EA273CDFC54",
            "validator_index": "35",
            "height": "21881",
            "round": "1",
            "timestamp": "2018-07-31T18:04:59.756196277Z",
            "type": 2,
            "block_id": {
              "hash": "378BEE8F599A2F793966E69B6988D2EC08E3C240",
              "parts": {
                "total": "1",
                "hash": "C2C1BF0067BF5BA624E8B4D8E2BD0CA708373753"
              }
            },
            "signature": {
              "type": "tendermint/SignatureEd25519",
              "value": "8SADYxJRq/yg9bx6PoUNuH/dlw63qNLAP3uKcYfzt6dCZlDVtW1WChE5YRVR4z2qkCD7MZNaVvC9WZLS2GBsBw=="
            }
          },
          {
            "validator_address": "632F5C139A5A9DFBFE5111DEE29FCFB6157207DC",
            "validator_index": "36",
            "height": "21881",
            "round": "1",
            "timestamp": "2018-07-31T18:04:59.76571748Z",
            "type": 2,
            "block_id": {
              "hash": "378BEE8F599A2F793966E69B6988D2EC08E3C240",
              "parts": {
                "total": "1",
                "hash": "C2C1BF0067BF5BA624E8B4D8E2BD0CA708373753"
              }
            },
            "signature": {
              "type": "tendermint/SignatureEd25519",
              "value": "RUep1wmFyUqWjDfeM0yh2bjPg9/fN5pXYh1ybS4E2N0bnayHvs7taq189fJgTeJPhtN0nmM2OpZM1ntedSETAQ=="
            }
          },
          {
            "validator_address": "64F57F8E796A9B7B590C1EFA4123988C86631D39",
            "validator_index": "37",
            "height": "21881",
            "round": "1",
            "timestamp": "2018-07-31T18:04:59.676297795Z",
            "type": 2,
            "block_id": {
              "hash": "378BEE8F599A2F793966E69B6988D2EC08E3C240",
              "parts": {
                "total": "1",
                "hash": "C2C1BF0067BF5BA624E8B4D8E2BD0CA708373753"
              }
            },
            "signature": {
              "type": "tendermint/SignatureEd25519",
              "value": "8n09TzrguGevmq8bPR38dg5ZuEZFrEKLmpC8phV4ZH8SZqkKc4qFQKYaZLxXznXLY6LOZsu9nPi2zz64lb7LBg=="
            }
          },
          {
            "validator_address": "69D99B2C66043ACBEAA8447525C356AFC6408E0C",
            "validator_index": "38",
            "height": "21881",
            "round": "1",
            "timestamp": "2018-07-31T18:04:59.867432461Z",
            "type": 2,
            "block_id": {
              "hash": "378BEE8F599A2F793966E69B6988D2EC08E3C240",
              "parts": {
                "total": "1",
                "hash": "C2C1BF0067BF5BA624E8B4D8E2BD0CA708373753"
              }
            },
            "signature": {
              "type": "tendermint/SignatureEd25519",
              "value": "JUDLoxBK5JlrMhx5gRjeN+yknbvPzT8V8IgZHQph/pe8mIGgsKRL+/K+g5c5LtoBI4boa62xQFp12knJtH/dCQ=="
            }
          },
          {
            "validator_address": "69EDADFA4A803E9DBF548C900D4A465E7D154262",
            "validator_index": "39",
            "height": "21881",
            "round": "1",
            "timestamp": "2018-07-31T18:04:59.879389983Z",
            "type": 2,
            "block_id": {
              "hash": "378BEE8F599A2F793966E69B6988D2EC08E3C240",
              "parts": {
                "total": "1",
                "hash": "C2C1BF0067BF5BA624E8B4D8E2BD0CA708373753"
              }
            },
            "signature": {
              "type": "tendermint/SignatureEd25519",
              "value": "F56/m1WJxarDxn/zO4TI80+TlYRaEO4mrOz8ch1y23hS6+vFFUDC7c3w6oklaUt7d3AmiEL2sUUdlKTc4Q9qAw=="
            }
          },
          {
            "validator_address": "6D3AD380E398D8592B03AA124BAFED5F125DF863",
            "validator_index": "40",
            "height": "21881",
            "round": "1",
            "timestamp": "2018-07-31T18:03:57.855897961Z",
            "type": 2,
            "block_id": {
              "hash": "378BEE8F599A2F793966E69B6988D2EC08E3C240",
              "parts": {
                "total": "1",
                "hash": "C2C1BF0067BF5BA624E8B4D8E2BD0CA708373753"
              }
            },
            "signature": {
              "type": "tendermint/SignatureEd25519",
              "value": "Pyptp2sD6kDR+U3pofZhvjQkrMgCT6Rd1k/lTmxaa2G1HbzpZrdOHSDctiyJki/OLGpGLNKsevu4FlT5cQ3tDA=="
            }
          },
          {
            "validator_address": "6F6C93B8BF3495063FEC9B5C771158607F4AE9D6",
            "validator_index": "41",
            "height": "21881",
            "round": "1",
            "timestamp": "2018-07-31T18:04:59.89048302Z",
            "type": 2,
            "block_id": {
              "hash": "378BEE8F599A2F793966E69B6988D2EC08E3C240",
              "parts": {
                "total": "1",
                "hash": "C2C1BF0067BF5BA624E8B4D8E2BD0CA708373753"
              }
            },
            "signature": {
              "type": "tendermint/SignatureEd25519",
              "value": "nu3m9RmCwvC1uwDoO7QhP7iXOgi/3q29Zzj4odWvGYozYnzRe9ixQMTejuV3I+eK0lz25cfJAqSjxDOW8fF7Cw=="
            }
          },
          {
            "validator_address": "732CEEF54C374DDC6ADECBFD707AEFD07FEDC143",
            "validator_index": "42",
            "height": "21881",
            "round": "1",
            "timestamp": "2018-07-31T18:04:59.745958522Z",
            "type": 2,
            "block_id": {
              "hash": "378BEE8F599A2F793966E69B6988D2EC08E3C240",
              "parts": {
                "total": "1",
                "hash": "C2C1BF0067BF5BA624E8B4D8E2BD0CA708373753"
              }
            },
            "signature": {
              "type": "tendermint/SignatureEd25519",
              "value": "tO2aBSOqlLePqZuwcZu0zONJV3upuD8t2kcy3Zqdr6qUTu9PVm/ExtLPVTJve1ouZsb5fcKUHKeHRI9nLX0cBg=="
            }
          },
          {
            "validator_address": "7393D691BFAE9661918C09932D4D9060AB40939B",
            "validator_index": "43",
            "height": "21881",
            "round": "1",
            "timestamp": "2018-07-31T18:04:59.90075763Z",
            "type": 2,
            "block_id": {
              "hash": "378BEE8F599A2F793966E69B6988D2EC08E3C240",
              "parts": {
                "total": "1",
                "hash": "C2C1BF0067BF5BA624E8B4D8E2BD0CA708373753"
              }
            },
            "signature": {
              "type": "tendermint/SignatureEd25519",
              "value": "3X9tppUiaIwp8dPh9JTzaukI7/OGWE8RgYlC9PIEy4vRsSIbooKO2aRozc/pbKmBtcmGQau+I310FyN5oZJiCA=="
            }
          },
          {
            "validator_address": "751E43437224E8BB6D1569B3E2B2616B6E7F4397",
            "validator_index": "44",
            "height": "21881",
            "round": "1",
            "timestamp": "2018-07-31T18:04:59.777856382Z",
            "type": 2,
            "block_id": {
              "hash": "378BEE8F599A2F793966E69B6988D2EC08E3C240",
              "parts": {
                "total": "1",
                "hash": "C2C1BF0067BF5BA624E8B4D8E2BD0CA708373753"
              }
            },
            "signature": {
              "type": "tendermint/SignatureEd25519",
              "value": "g1THUxucxo1yKBkWGtI7/ZCaUGPYSgwo5ACiNEO1Y9qyJrMo8QzjwEySbQ+utnG60ou4zPy5hkr5nSw353GJDg=="
            }
          },
          {
            "validator_address": "7EB7593F519F1180C7E872D0494611464EDF03AE",
            "validator_index": "45",
            "height": "21881",
            "round": "1",
            "timestamp": "2018-07-31T18:04:59.873879268Z",
            "type": 2,
            "block_id": {
              "hash": "378BEE8F599A2F793966E69B6988D2EC08E3C240",
              "parts": {
                "total": "1",
                "hash": "C2C1BF0067BF5BA624E8B4D8E2BD0CA708373753"
              }
            },
            "signature": {
              "type": "tendermint/SignatureEd25519",
              "value": "pNfZ/69oU9rndQYo/kzRmzm9FLWdEzkUPjWA5xcYYq5nTe9nDP+dYF5/KHrRqm3dWc9xeK/UrW36VPeQi5yhCw=="
            }
          },
          {
            "validator_address": "807CF675BA8479FC4FEC1047215DF07970040F1F",
            "validator_index": "46",
            "height": "21881",
            "round": "1",
            "timestamp": "2018-07-31T18:05:00.120367291Z",
            "type": 2,
            "block_id": {
              "hash": "378BEE8F599A2F793966E69B6988D2EC08E3C240",
              "parts": {
                "total": "1",
                "hash": "C2C1BF0067BF5BA624E8B4D8E2BD0CA708373753"
              }
            },
            "signature": {
              "type": "tendermint/SignatureEd25519",
              "value": "TE8WxIpDQ5xtyZOhr0VlTrPe6j9KHlR+NcAqf6ONtuU+RWNTZBhM6iavbZIROGjarlikF8pjGErJqJPEvzPTDg=="
            }
          },
          {
            "validator_address": "8126192EA66E8ADE6B36924534721366B987A4C1",
            "validator_index": "47",
            "height": "21881",
            "round": "1",
            "timestamp": "2018-07-31T18:04:59.737886823Z",
            "type": 2,
            "block_id": {
              "hash": "378BEE8F599A2F793966E69B6988D2EC08E3C240",
              "parts": {
                "total": "1",
                "hash": "C2C1BF0067BF5BA624E8B4D8E2BD0CA708373753"
              }
            },
            "signature": {
              "type": "tendermint/SignatureEd25519",
              "value": "qN6ffuxEiw9l6rYKGHUkbbHRmVPeAIKji4VNKpmlbZ+wbg4CUIT+AJXslDKgQL8ggrX7wChmQJt/KEdetyYmAA=="
            }
          },
          {
            "validator_address": "83AB321E012C57746689FED3A6064DF331F81007",
            "validator_index": "48",
            "height": "21881",
            "round": "1",
            "timestamp": "2018-07-31T18:04:59.753871885Z",
            "type": 2,
            "block_id": {
              "hash": "378BEE8F599A2F793966E69B6988D2EC08E3C240",
              "parts": {
                "total": "1",
                "hash": "C2C1BF0067BF5BA624E8B4D8E2BD0CA708373753"
              }
            },
            "signature": {
              "type": "tendermint/SignatureEd25519",
              "value": "hyyO4AHTmeq72pykZF/YMDPubFSO7deYRlVtVqAY0GIF36fkJr8S2ZJ5VxJAhdfjtLLDW5XZEEMwzov7dSfaCQ=="
            }
          },
          {
            "validator_address": "83BB1B88D3DBB20AD845FECA07749EBD87D3754D",
            "validator_index": "49",
            "height": "21881",
            "round": "1",
            "timestamp": "2018-07-31T18:04:59.924107325Z",
            "type": 2,
            "block_id": {
              "hash": "378BEE8F599A2F793966E69B6988D2EC08E3C240",
              "parts": {
                "total": "1",
                "hash": "C2C1BF0067BF5BA624E8B4D8E2BD0CA708373753"
              }
            },
            "signature": {
              "type": "tendermint/SignatureEd25519",
              "value": "0gEva74/JffMjsJ6OPu3Tr+zncKusEeuS0qIyOzaAHuYE2hyYZuR+1cclvVGC4lt6P2bcXe3hffdDa9VlGqYBw=="
            }
          },
          {
            "validator_address": "8F06FE1FD042683C426137FBC4BBAA4288924217",
            "validator_index": "50",
            "height": "21881",
            "round": "1",
            "timestamp": "2018-07-31T18:04:59.8057361Z",
            "type": 2,
            "block_id": {
              "hash": "378BEE8F599A2F793966E69B6988D2EC08E3C240",
              "parts": {
                "total": "1",
                "hash": "C2C1BF0067BF5BA624E8B4D8E2BD0CA708373753"
              }
            },
            "signature": {
              "type": "tendermint/SignatureEd25519",
              "value": "IhcDQntRotqClYHHdfzAhRJHpS92u9w14raPONry/zI9Ioec/cul2iPxHDjRfAUh3RCkt6aQxh/SRARj3M2aBw=="
            }
          },
          {
            "validator_address": "8F45617BF45B10A3F8283DEBDB35E38C7CA43237",
            "validator_index": "51",
            "height": "21881",
            "round": "1",
            "timestamp": "2018-07-31T18:04:59.723385732Z",
            "type": 2,
            "block_id": {
              "hash": "378BEE8F599A2F793966E69B6988D2EC08E3C240",
              "parts": {
                "total": "1",
                "hash": "C2C1BF0067BF5BA624E8B4D8E2BD0CA708373753"
              }
            },
            "signature": {
              "type": "tendermint/SignatureEd25519",
              "value": "0CiNn33KMZ037ziIef74ckYRwXHK3fGpdpp3tO9U4go5jYUEnLYmWPI0/bX5Hj3nWvAbtwlV6aMnljies5+xCQ=="
            }
          },
          {
            "validator_address": "95980831E186F2540F6E9FB6C8E74DE2401405AC",
            "validator_index": "52",
            "height": "21881",
            "round": "1",
            "timestamp": "2018-07-31T18:04:59.74174988Z",
            "type": 2,
            "block_id": {
              "hash": "378BEE8F599A2F793966E69B6988D2EC08E3C240",
              "parts": {
                "total": "1",
                "hash": "C2C1BF0067BF5BA624E8B4D8E2BD0CA708373753"
              }
            },
            "signature": {
              "type": "tendermint/SignatureEd25519",
              "value": "FNL1vI8/fLEdojN3UNOy80S+6aggeeAQ500kuD5M4C724hXkVQg0Y3CXN3+1L/mn0XNnwepcOatwvyX8Lo91Cw=="
            }
          },
          {
            "validator_address": "95FAFBC1E0579C83D290A063020CE87C5334BD9B",
            "validator_index": "53",
            "height": "21881",
            "round": "1",
            "timestamp": "2018-07-31T18:04:59.706759231Z",
            "type": 2,
            "block_id": {
              "hash": "378BEE8F599A2F793966E69B6988D2EC08E3C240",
              "parts": {
                "total": "1",
                "hash": "C2C1BF0067BF5BA624E8B4D8E2BD0CA708373753"
              }
            },
            "signature": {
              "type": "tendermint/SignatureEd25519",
              "value": "0ql0cvn8OPCgidagaEUom0WPRiSmxZdzW3/9gxFuVGp1VAOyc6NRrg6rEzjmEG08Omm4WbeH3oL/T6Tld1JaCw=="
            }
          },
          {
            "validator_address": "96BDE45EC52606CF5CB59853097871AD60680549",
            "validator_index": "54",
            "height": "21881",
            "round": "1",
            "timestamp": "2018-07-31T18:04:59.679229064Z",
            "type": 2,
            "block_id": {
              "hash": "378BEE8F599A2F793966E69B6988D2EC08E3C240",
              "parts": {
                "total": "1",
                "hash": "C2C1BF0067BF5BA624E8B4D8E2BD0CA708373753"
              }
            },
            "signature": {
              "type": "tendermint/SignatureEd25519",
              "value": "cGv4SEBVcp8kduMXL/VTpHbTUAwLbza9prnSzAEDj189XzycExnhc2V45hbsWS7QL1OYOK+UmnbPMU0io++QDw=="
            }
          },
          {
            "validator_address": "970CD321881185BF83DB2923C321B0E75FDBB2B8",
            "validator_index": "55",
            "height": "21881",
            "round": "1",
            "timestamp": "2018-07-31T18:04:59.864508222Z",
            "type": 2,
            "block_id": {
              "hash": "378BEE8F599A2F793966E69B6988D2EC08E3C240",
              "parts": {
                "total": "1",
                "hash": "C2C1BF0067BF5BA624E8B4D8E2BD0CA708373753"
              }
            },
            "signature": {
              "type": "tendermint/SignatureEd25519",
              "value": "xboUNpLRBmD2eNkiKNA0KwBZQdDvUwfe5iS+uVsdq8iRZcsVVqu6oJftwp/dOCCE/EQWYzyYmM0jAizM4LEwBA=="
            }
          },
          {
            "validator_address": "97DBB3D4B3D6C29287244864448F651DD5B07390",
            "validator_index": "56",
            "height": "21881",
            "round": "1",
            "timestamp": "2018-07-31T18:04:59.929644069Z",
            "type": 2,
            "block_id": {
              "hash": "378BEE8F599A2F793966E69B6988D2EC08E3C240",
              "parts": {
                "total": "1",
                "hash": "C2C1BF0067BF5BA624E8B4D8E2BD0CA708373753"
              }
            },
            "signature": {
              "type": "tendermint/SignatureEd25519",
              "value": "Lqw0WLmumHzy01mbQb/W13jR0ikfwHBIUiZsIMQwuRyhgCzT8h3lecjFYx7szXJA5Iaj29MiCJfPunIKtbpJBg=="
            }
          },
          {
            "validator_address": "9C29C9B76D27586E4D9AD2AED0E943162645E55C",
            "validator_index": "57",
            "height": "21881",
            "round": "1",
            "timestamp": "2018-07-31T18:04:59.689431153Z",
            "type": 2,
            "block_id": {
              "hash": "378BEE8F599A2F793966E69B6988D2EC08E3C240",
              "parts": {
                "total": "1",
                "hash": "C2C1BF0067BF5BA624E8B4D8E2BD0CA708373753"
              }
            },
            "signature": {
              "type": "tendermint/SignatureEd25519",
              "value": "Kn04gzWtouykUheOnD13FxV6tth2HEVXRY6rfA1Mbnawq2jnBqMgR1P/Uedff/kZ7g80FArsN5gRM50S2+83Cw=="
            }
          },
          {
            "validator_address": "9D93AD02FE1BD7E76B9E58D7EB461088EAD011E5",
            "validator_index": "58",
            "height": "21881",
            "round": "1",
            "timestamp": "2018-07-31T18:04:59.740119177Z",
            "type": 2,
            "block_id": {
              "hash": "378BEE8F599A2F793966E69B6988D2EC08E3C240",
              "parts": {
                "total": "1",
                "hash": "C2C1BF0067BF5BA624E8B4D8E2BD0CA708373753"
              }
            },
            "signature": {
              "type": "tendermint/SignatureEd25519",
              "value": "gEFUcf06BpayXBj5W25p4EomeaNrj1kTG1x5Cgsy2RW3JhZqMcKSXZq2LfHR3qmXiUfFphsMGgKXh3dJdQPNAA=="
            }
          },
          {
            "validator_address": "A0A6466F4ABEA09C3B55E3709AFDE217A103209F",
            "validator_index": "59",
            "height": "21881",
            "round": "1",
            "timestamp": "2018-07-31T18:04:59.693481023Z",
            "type": 2,
            "block_id": {
              "hash": "378BEE8F599A2F793966E69B6988D2EC08E3C240",
              "parts": {
                "total": "1",
                "hash": "C2C1BF0067BF5BA624E8B4D8E2BD0CA708373753"
              }
            },
            "signature": {
              "type": "tendermint/SignatureEd25519",
              "value": "eYsQB61pUY9RiFbaUU7EbDzIoW5RHQD676zRi8HI5TpzOryOhxSk3/0DOqbMOIk7RH7QrJBInAjjSQpFsC71AA=="
            }
          },
          {
            "validator_address": "A5868971300F155020634D7BB49C7634F7AACCD3",
            "validator_index": "60",
            "height": "21881",
            "round": "1",
            "timestamp": "2018-07-31T18:04:59.749417165Z",
            "type": 2,
            "block_id": {
              "hash": "378BEE8F599A2F793966E69B6988D2EC08E3C240",
              "parts": {
                "total": "1",
                "hash": "C2C1BF0067BF5BA624E8B4D8E2BD0CA708373753"
              }
            },
            "signature": {
              "type": "tendermint/SignatureEd25519",
              "value": "aTnCboR9imJvrBFBLq3eNFBSN7QBOMh/Y6YHDwtgFdw55OhWdxPn1T1jBfmondYgt952XNLsbx8aYJpbtDqjDg=="
            }
          },
          {
            "validator_address": "A6B3A5B5D982CFD7B5FDFA15CF5A720E7AE25E7F",
            "validator_index": "61",
            "height": "21881",
            "round": "1",
            "timestamp": "2018-07-31T18:04:59.756366193Z",
            "type": 2,
            "block_id": {
              "hash": "378BEE8F599A2F793966E69B6988D2EC08E3C240",
              "parts": {
                "total": "1",
                "hash": "C2C1BF0067BF5BA624E8B4D8E2BD0CA708373753"
              }
            },
            "signature": {
              "type": "tendermint/SignatureEd25519",
              "value": "we3BRbnWBO6ANJPMm72xwFvsBNBLFAUnOeu33iQFacImcTBvOgy0q5QC05KcnCYmPpzUzLPztdSixqQCqAIiCg=="
            }
          },
          {
            "validator_address": "AC96444A9083890B7C7B430DB17BF1D3EA5EED04",
            "validator_index": "62",
            "height": "21881",
            "round": "1",
            "timestamp": "2018-07-31T18:04:59.838214402Z",
            "type": 2,
            "block_id": {
              "hash": "378BEE8F599A2F793966E69B6988D2EC08E3C240",
              "parts": {
                "total": "1",
                "hash": "C2C1BF0067BF5BA624E8B4D8E2BD0CA708373753"
              }
            },
            "signature": {
              "type": "tendermint/SignatureEd25519",
              "value": "nZlJTvC+cUnYjnVeonEP4HhPTX1OI9CCVORo0ckTE8CQQqwLS1cXDBibMv+RejdVMSeWcGN0OWKMXSWLR5wSAA=="
            }
          },
          {
            "validator_address": "ACB97FDA2D940AF0709B73537C458EB988AD2893",
            "validator_index": "63",
            "height": "21881",
            "round": "1",
            "timestamp": "2018-07-31T18:04:59.740563117Z",
            "type": 2,
            "block_id": {
              "hash": "378BEE8F599A2F793966E69B6988D2EC08E3C240",
              "parts": {
                "total": "1",
                "hash": "C2C1BF0067BF5BA624E8B4D8E2BD0CA708373753"
              }
            },
            "signature": {
              "type": "tendermint/SignatureEd25519",
              "value": "NVm/hro8Wpa7WZZMgmCQkNBW0eaaUD0oj4wLgb79E0T13hszo5uBEn/LygVRa92mGuXlJlLuj3hpPwPGI6uOBQ=="
            }
          },
          {
            "validator_address": "B197425B3210375F211661DE02EF2AE36580EB0F",
            "validator_index": "64",
            "height": "21881",
            "round": "1",
            "timestamp": "2018-07-31T18:04:59.840981264Z",
            "type": 2,
            "block_id": {
              "hash": "378BEE8F599A2F793966E69B6988D2EC08E3C240",
              "parts": {
                "total": "1",
                "hash": "C2C1BF0067BF5BA624E8B4D8E2BD0CA708373753"
              }
            },
            "signature": {
              "type": "tendermint/SignatureEd25519",
              "value": "QsHL+lY0mj26nMfnTZFwKY98zSzAKK7Z+bh9MUMaX3MCQ4DB9BDIl40F5vnm9rUop4TDJfGE6U236Wq6d0sLDw=="
            }
          },
          {
            "validator_address": "B45E54D2D1CB5A4CCD1D49016608C18E7C56B270",
            "validator_index": "65",
            "height": "21881",
            "round": "1",
            "timestamp": "2018-07-31T18:04:59.857643338Z",
            "type": 2,
            "block_id": {
              "hash": "378BEE8F599A2F793966E69B6988D2EC08E3C240",
              "parts": {
                "total": "1",
                "hash": "C2C1BF0067BF5BA624E8B4D8E2BD0CA708373753"
              }
            },
            "signature": {
              "type": "tendermint/SignatureEd25519",
              "value": "+UbWbRvioVL+AbOKTMW3koIekeD6gSc4kJNjQtD3+TyFs38o8WC9oc7DwUvnbsgKiB5u8zicdXoovHnu5eKDCQ=="
            }
          },
          {
            "validator_address": "B59A34C0BE4EC73AF6A67D274F1695C9259C237C",
            "validator_index": "66",
            "height": "21881",
            "round": "1",
            "timestamp": "2018-07-31T18:05:00.050950104Z",
            "type": 2,
            "block_id": {
              "hash": "378BEE8F599A2F793966E69B6988D2EC08E3C240",
              "parts": {
                "total": "1",
                "hash": "C2C1BF0067BF5BA624E8B4D8E2BD0CA708373753"
              }
            },
            "signature": {
              "type": "tendermint/SignatureEd25519",
              "value": "ntjd3I51+Yf2z+xabIDbNHcOrZLg1ppxR8hIcsrR79oZ7Y0navhlETzrKMLS1gdXX4Zx1qN5SK34piwH02NkAw=="
            }
          },
          {
            "validator_address": "BB1276BE89834835428664408917649FEEF5D90C",
            "validator_index": "67",
            "height": "21881",
            "round": "1",
            "timestamp": "2018-07-31T18:04:59.833425484Z",
            "type": 2,
            "block_id": {
              "hash": "378BEE8F599A2F793966E69B6988D2EC08E3C240",
              "parts": {
                "total": "1",
                "hash": "C2C1BF0067BF5BA624E8B4D8E2BD0CA708373753"
              }
            },
            "signature": {
              "type": "tendermint/SignatureEd25519",
              "value": "6HDPwaucrjeCe22XSloaVw+1UJshY9bURUuIBVAzmCtJVWl7PzOJ2dmvU9uL0A0iXW//V/jyQHsqaZl3qPxhBg=="
            }
          },
          {
            "validator_address": "BC36FEDD6EF6071118A3E51859DF3831A2EC4782",
            "validator_index": "68",
            "height": "21881",
            "round": "1",
            "timestamp": "2018-07-31T18:04:59.747582515Z",
            "type": 2,
            "block_id": {
              "hash": "378BEE8F599A2F793966E69B6988D2EC08E3C240",
              "parts": {
                "total": "1",
                "hash": "C2C1BF0067BF5BA624E8B4D8E2BD0CA708373753"
              }
            },
            "signature": {
              "type": "tendermint/SignatureEd25519",
              "value": "tBE0K7bofVyQpds8qcMRwwwYvCvTdITqYf9pEZ7vD0NO/rktXB3oM/zhVUvt53mgXonwRfNYjk2x+sHb+5ANBg=="
            }
          },
          {
            "validator_address": "BD9D0DA513BF099DB4BB6E725A4E19832789882F",
            "validator_index": "69",
            "height": "21881",
            "round": "1",
            "timestamp": "2018-07-31T18:04:59.731168298Z",
            "type": 2,
            "block_id": {
              "hash": "378BEE8F599A2F793966E69B6988D2EC08E3C240",
              "parts": {
                "total": "1",
                "hash": "C2C1BF0067BF5BA624E8B4D8E2BD0CA708373753"
              }
            },
            "signature": {
              "type": "tendermint/SignatureEd25519",
              "value": "bTWF40LtAtPLnpyWNZb1/Z6ZKFmvLvUb2d5csCUH5ANUQPxso1xYdUGpjR1H0x4Z23alyzCCDTyV0psVx/T5Dg=="
            }
          },
          {
            "validator_address": "C1134A2FF8F7338E7CDB3FE57DDD2A655DEB1E22",
            "validator_index": "70",
            "height": "21881",
            "round": "1",
            "timestamp": "2018-07-31T18:04:59.586452174Z",
            "type": 2,
            "block_id": {
              "hash": "378BEE8F599A2F793966E69B6988D2EC08E3C240",
              "parts": {
                "total": "1",
                "hash": "C2C1BF0067BF5BA624E8B4D8E2BD0CA708373753"
              }
            },
            "signature": {
              "type": "tendermint/SignatureEd25519",
              "value": "g+FQxh04h+O9HQlG7iw6AsdciaUdcItS9BgsEGcnje8GhEYBIc9wdhglxKOgZGzbUrTkKOovkc82GZb2oUykAw=="
            }
          },
          {
            "validator_address": "C39A8A2B85198DCB8F23AD1F6C198E2BA7AB5D60",
            "validator_index": "71",
            "height": "21881",
            "round": "1",
            "timestamp": "2018-07-31T18:04:59.694670276Z",
            "type": 2,
            "block_id": {
              "hash": "378BEE8F599A2F793966E69B6988D2EC08E3C240",
              "parts": {
                "total": "1",
                "hash": "C2C1BF0067BF5BA624E8B4D8E2BD0CA708373753"
              }
            },
            "signature": {
              "type": "tendermint/SignatureEd25519",
              "value": "PHHrKHkSUqQ3VgB4AdbhPWR0FIt+E0VOkOf8anex+lR9f+MwQe0wISVVIoe0WPlJ5yIfoe/wQbeOOxGE+xjlBQ=="
            }
          },
          {
            "validator_address": "C4335190C3B5BD4BA5568BC0F99C34162D940D08",
            "validator_index": "72",
            "height": "21881",
            "round": "1",
            "timestamp": "2018-07-31T18:04:59.813155979Z",
            "type": 2,
            "block_id": {
              "hash": "378BEE8F599A2F793966E69B6988D2EC08E3C240",
              "parts": {
                "total": "1",
                "hash": "C2C1BF0067BF5BA624E8B4D8E2BD0CA708373753"
              }
            },
            "signature": {
              "type": "tendermint/SignatureEd25519",
              "value": "9HuwFUqXwjbInNqu05ZrkT2Wq9zwlB0/oSBRRkd3K147Gy/zH7gzpsgmHElk0W6mLOBu0GARhhCgFpjdIeXoCA=="
            }
          },
          {
            "validator_address": "C561CFA081677046376396922E7576E5F7B316AD",
            "validator_index": "73",
            "height": "21881",
            "round": "1",
            "timestamp": "2018-07-31T18:04:59.861075484Z",
            "type": 2,
            "block_id": {
              "hash": "378BEE8F599A2F793966E69B6988D2EC08E3C240",
              "parts": {
                "total": "1",
                "hash": "C2C1BF0067BF5BA624E8B4D8E2BD0CA708373753"
              }
            },
            "signature": {
              "type": "tendermint/SignatureEd25519",
              "value": "45Hld3VGUyiGQcLfxDY0D/Oa87SsMdvQLHV+se5B8QUaYomswstp1apWDHMm8ZIWsjhZI5umRF8XkY6JMKTIBQ=="
            }
          },
          {
            "validator_address": "CE589EA77B056D268D30D1DC1D68A70E0F885E95",
            "validator_index": "74",
            "height": "21881",
            "round": "1",
            "timestamp": "2018-07-31T18:04:59.771801243Z",
            "type": 2,
            "block_id": {
              "hash": "378BEE8F599A2F793966E69B6988D2EC08E3C240",
              "parts": {
                "total": "1",
                "hash": "C2C1BF0067BF5BA624E8B4D8E2BD0CA708373753"
              }
            },
            "signature": {
              "type": "tendermint/SignatureEd25519",
              "value": "rnIEUNKJoj8eZbAfJtKhKljhzumc+JbEZjO2bfHMxNaBgL2lj4wVqe62aylHZ1qQPF3JHiGV157w5LP+mEKrDg=="
            }
          },
          {
            "validator_address": "CEB97DB5CB18270247ABDE6CF2F84F9AEE8A2904",
            "validator_index": "75",
            "height": "21881",
            "round": "1",
            "timestamp": "2018-07-31T18:05:00.052097038Z",
            "type": 2,
            "block_id": {
              "hash": "378BEE8F599A2F793966E69B6988D2EC08E3C240",
              "parts": {
                "total": "1",
                "hash": "C2C1BF0067BF5BA624E8B4D8E2BD0CA708373753"
              }
            },
            "signature": {
              "type": "tendermint/SignatureEd25519",
              "value": "lh4WFmboJsZUNOktGUc7XQiiwqOaIVWm96+1/d7zmQqD59bgYPDXHMkKJep0VGV0oRGJHeejEjBfvWt3wCsOCA=="
            }
          },
          {
            "validator_address": "CF205769734F5758CC39F907EFB73D6BAF915FB1",
            "validator_index": "76",
            "height": "21881",
            "round": "1",
            "timestamp": "2018-07-31T18:04:59.871492079Z",
            "type": 2,
            "block_id": {
              "hash": "378BEE8F599A2F793966E69B6988D2EC08E3C240",
              "parts": {
                "total": "1",
                "hash": "C2C1BF0067BF5BA624E8B4D8E2BD0CA708373753"
              }
            },
            "signature": {
              "type": "tendermint/SignatureEd25519",
              "value": "GyRZh0G83Zb4qDe5jleODdFS9mnHm7J9oUDqe2jV1Ap/S7CGSwOQLyXjXhPEIn46PYatoLsI/ibXO+f7VQpMBw=="
            }
          },
          null,
          {
            "validator_address": "D6285C3422C8886445D53757CBE12D2B91B5A9D0",
            "validator_index": "78",
            "height": "21881",
            "round": "1",
            "timestamp": "2018-07-31T18:04:42.409486877Z",
            "type": 2,
            "block_id": {
              "hash": "378BEE8F599A2F793966E69B6988D2EC08E3C240",
              "parts": {
                "total": "1",
                "hash": "C2C1BF0067BF5BA624E8B4D8E2BD0CA708373753"
              }
            },
            "signature": {
              "type": "tendermint/SignatureEd25519",
              "value": "XJqCf+4sXV2Q/e6E3v9y+O3tgyDciYFQWYAhawlcbYeCB5xKjV9Xixu/n5vL2dsuj2iveld9sg7u4OLAYdJXDg=="
            }
          },
          {
            "validator_address": "D77FB84A729972CD3E757C9BEB61561855832B92",
            "validator_index": "79",
            "height": "21881",
            "round": "1",
            "timestamp": "2018-07-31T18:04:59.81737978Z",
            "type": 2,
            "block_id": {
              "hash": "378BEE8F599A2F793966E69B6988D2EC08E3C240",
              "parts": {
                "total": "1",
                "hash": "C2C1BF0067BF5BA624E8B4D8E2BD0CA708373753"
              }
            },
            "signature": {
              "type": "tendermint/SignatureEd25519",
              "value": "npkTWnVn0y0C1LYLf0c32+YtguFkXvZHos0ZHr2nOFyHrtiC3Cag2KEc+KGV0Mmrg5HZhtv9nntd7aMmz9OhCw=="
            }
          },
          {
            "validator_address": "DB7E6732471D3EA5C90C17A9974D9F88AB45F2FB",
            "validator_index": "80",
            "height": "21881",
            "round": "1",
            "timestamp": "2018-07-31T18:04:59.75987459Z",
            "type": 2,
            "block_id": {
              "hash": "378BEE8F599A2F793966E69B6988D2EC08E3C240",
              "parts": {
                "total": "1",
                "hash": "C2C1BF0067BF5BA624E8B4D8E2BD0CA708373753"
              }
            },
            "signature": {
              "type": "tendermint/SignatureEd25519",
              "value": "hCxQYsji/YGY125zkb5qeesZ2kBuO9EzfjfWYcLymGYY0pzlF7WNcnsIJf0OUBRmEH7Rm0zzI5pIKVo8yYzKBA=="
            }
          },
          {
            "validator_address": "DF54B862410BCD9B5C516FBB6C56BDC826ED6FA7",
            "validator_index": "81",
            "height": "21881",
            "round": "1",
            "timestamp": "2018-07-31T18:04:59.864023089Z",
            "type": 2,
            "block_id": {
              "hash": "378BEE8F599A2F793966E69B6988D2EC08E3C240",
              "parts": {
                "total": "1",
                "hash": "C2C1BF0067BF5BA624E8B4D8E2BD0CA708373753"
              }
            },
            "signature": {
              "type": "tendermint/SignatureEd25519",
              "value": "tcXpo/W09sPD9uEUTGMRaQtipJyTgf9CN4Z1YQqkmE3Y2x77skLu1MUYTQWEazrkpoe/ZmVQTgsNbv8+WGN9Cw=="
            }
          },
          {
            "validator_address": "DFAF0C8B1B78D6D552B0189DE3ACA351439A1319",
            "validator_index": "82",
            "height": "21881",
            "round": "1",
            "timestamp": "2018-07-31T18:04:59.768209836Z",
            "type": 2,
            "block_id": {
              "hash": "378BEE8F599A2F793966E69B6988D2EC08E3C240",
              "parts": {
                "total": "1",
                "hash": "C2C1BF0067BF5BA624E8B4D8E2BD0CA708373753"
              }
            },
            "signature": {
              "type": "tendermint/SignatureEd25519",
              "value": "bwmSjjOGHb6GZAUep5goDJ8HTLggrlSRzU7NlIlq2qzGdpDsK+IeeeqUNE4P5PfP8F8/IBdnixWNtfhlokaOCg=="
            }
          },
          {
            "validator_address": "E1DBC77881161A5A3A8536A57536EAE546A75D69",
            "validator_index": "83",
            "height": "21881",
            "round": "1",
            "timestamp": "2018-07-31T18:04:59.720629688Z",
            "type": 2,
            "block_id": {
              "hash": "378BEE8F599A2F793966E69B6988D2EC08E3C240",
              "parts": {
                "total": "1",
                "hash": "C2C1BF0067BF5BA624E8B4D8E2BD0CA708373753"
              }
            },
            "signature": {
              "type": "tendermint/SignatureEd25519",
              "value": "VO9j4jjM7kzdLkKh9SNYG/Xl7wk7hBLmx5wnCgZAaEbKu9Mg74E2YRRBEThAjn54OO+6ixEqa8pL2QH5HbdTCg=="
            }
          },
          {
            "validator_address": "E300E9D484374C1D3E97C1D93CAC3B160A056298",
            "validator_index": "84",
            "height": "21881",
            "round": "1",
            "timestamp": "2018-07-31T18:05:00.084480987Z",
            "type": 2,
            "block_id": {
              "hash": "378BEE8F599A2F793966E69B6988D2EC08E3C240",
              "parts": {
                "total": "1",
                "hash": "C2C1BF0067BF5BA624E8B4D8E2BD0CA708373753"
              }
            },
            "signature": {
              "type": "tendermint/SignatureEd25519",
              "value": "VhDLYAo+BuB2nos+u/rcoXdKRHp9cTj/YV/J7HBlvZrVqJI002Iak9STkZ0PxrB1IITa36ZDLiMkhIxjsjhnDQ=="
            }
          },
          {
            "validator_address": "E39B5778E0D4297A46F45CF6940B0A163A430FF8",
            "validator_index": "85",
            "height": "21881",
            "round": "1",
            "timestamp": "2018-07-31T18:04:59.783930373Z",
            "type": 2,
            "block_id": {
              "hash": "378BEE8F599A2F793966E69B6988D2EC08E3C240",
              "parts": {
                "total": "1",
                "hash": "C2C1BF0067BF5BA624E8B4D8E2BD0CA708373753"
              }
            },
            "signature": {
              "type": "tendermint/SignatureEd25519",
              "value": "Zh3pUMGAQa9kYBleX+bxQuGRetuqm2sDCnIUwpP0A4b5s5HJBZfl5jrsc1H+j/HB7Tz1kuJHrHKdhDhgVj37Bg=="
            }
          },
          {
            "validator_address": "E3B19738F7132F950668504D326C7660F159D170",
            "validator_index": "86",
            "height": "21881",
            "round": "1",
            "timestamp": "2018-07-31T18:04:59.757668059Z",
            "type": 2,
            "block_id": {
              "hash": "378BEE8F599A2F793966E69B6988D2EC08E3C240",
              "parts": {
                "total": "1",
                "hash": "C2C1BF0067BF5BA624E8B4D8E2BD0CA708373753"
              }
            },
            "signature": {
              "type": "tendermint/SignatureEd25519",
              "value": "rxtfP5sxwHGIPcl4XE+MQn2fFjJ+ICuQf+g0bW/rU2Irqj5c7rPV1Tsdr9P872X4LyXzRavApyEhcSnqIUyCCA=="
            }
          },
          {
            "validator_address": "E42F8AEABB685219F7027F54D2B0DBC7846F633A",
            "validator_index": "87",
            "height": "21881",
            "round": "1",
            "timestamp": "2018-07-31T18:04:58.890864721Z",
            "type": 2,
            "block_id": {
              "hash": "378BEE8F599A2F793966E69B6988D2EC08E3C240",
              "parts": {
                "total": "1",
                "hash": "C2C1BF0067BF5BA624E8B4D8E2BD0CA708373753"
              }
            },
            "signature": {
              "type": "tendermint/SignatureEd25519",
              "value": "WIOP5/PTIpQzNjjygYC+ANdRcCaNw1ct70qlk0utU/0gj4rL65kTiFI07oPkPVpRyV+7YM4pbbWyHPHKZfHtBQ=="
            }
          },
          {
            "validator_address": "E4E6C2E81269DFFA196C17F98240E491479A6008",
            "validator_index": "88",
            "height": "21881",
            "round": "1",
            "timestamp": "2018-07-31T18:04:59.884398628Z",
            "type": 2,
            "block_id": {
              "hash": "378BEE8F599A2F793966E69B6988D2EC08E3C240",
              "parts": {
                "total": "1",
                "hash": "C2C1BF0067BF5BA624E8B4D8E2BD0CA708373753"
              }
            },
            "signature": {
              "type": "tendermint/SignatureEd25519",
              "value": "M3IAMzc2qccqo4O64/OA8wXLpMJ92SrogYJ5SwrY+UXmO1I0aUMlg6GGYXG2g7scdd/wgoU60fJ/F/jPptRnAQ=="
            }
          },
          {
            "validator_address": "E4FEB2846F4F3B0ECDCBE9C9DCB2248248A5AF0F",
            "validator_index": "89",
            "height": "21881",
            "round": "1",
            "timestamp": "2018-07-31T18:05:00.028173355Z",
            "type": 2,
            "block_id": {
              "hash": "378BEE8F599A2F793966E69B6988D2EC08E3C240",
              "parts": {
                "total": "1",
                "hash": "C2C1BF0067BF5BA624E8B4D8E2BD0CA708373753"
              }
            },
            "signature": {
              "type": "tendermint/SignatureEd25519",
              "value": "Cgdl3wLyd4pSB0uoo3Y+ri+sonr/hXfXqApiyAWv4WNH5QCpcFHDQiLwwDiUH90FZeK8aMCSKHWidJrvZGtPBg=="
            }
          },
          {
            "validator_address": "E6A7079D584B163750BE0831227F6B685DEAF3C1",
            "validator_index": "90",
            "height": "21881",
            "round": "1",
            "timestamp": "2018-07-31T18:04:59.870554112Z",
            "type": 2,
            "block_id": {
              "hash": "378BEE8F599A2F793966E69B6988D2EC08E3C240",
              "parts": {
                "total": "1",
                "hash": "C2C1BF0067BF5BA624E8B4D8E2BD0CA708373753"
              }
            },
            "signature": {
              "type": "tendermint/SignatureEd25519",
              "value": "WSekBmfUJnzndIulUuKgB8ej2a/aqR/WCTsgACQgcd4vuofZHWbO+5xV4NwATNgG+yMNHc+ENAZl8D7YBc+qDQ=="
            }
          },
          {
            "validator_address": "E7A30077D5D11867D3EAF99ED45BFDC1EB834509",
            "validator_index": "91",
            "height": "21881",
            "round": "1",
            "timestamp": "2018-07-31T18:04:59.73386156Z",
            "type": 2,
            "block_id": {
              "hash": "378BEE8F599A2F793966E69B6988D2EC08E3C240",
              "parts": {
                "total": "1",
                "hash": "C2C1BF0067BF5BA624E8B4D8E2BD0CA708373753"
              }
            },
            "signature": {
              "type": "tendermint/SignatureEd25519",
              "value": "lPg5jKBDXEP+o9OTdSzIAA0qRJSepmpVef5t7vkT1QEH6wSBMXEBNhFrEclVCyP4bxEK6OZ++22NwCMSQVATCw=="
            }
          },
          {
            "validator_address": "EBC613967F66F4EC306852CDF58B4F151CF16738",
            "validator_index": "92",
            "height": "21881",
            "round": "1",
            "timestamp": "2018-07-31T18:04:59.846150011Z",
            "type": 2,
            "block_id": {
              "hash": "378BEE8F599A2F793966E69B6988D2EC08E3C240",
              "parts": {
                "total": "1",
                "hash": "C2C1BF0067BF5BA624E8B4D8E2BD0CA708373753"
              }
            },
            "signature": {
              "type": "tendermint/SignatureEd25519",
              "value": "3OZwX/O2uPk/FeFWRCiHiCCV8VaZ1ceSswQnkoeWaU/ELEvqRxPTD7b3td9gkSR+tsK9tkjteV6SsTzCVA7+Cw=="
            }
          },
          {
            "validator_address": "EC3401441726C40ECC7E51F744483B05BC6DE9BD",
            "validator_index": "93",
            "height": "21881",
            "round": "1",
            "timestamp": "2018-07-31T18:04:59.74388016Z",
            "type": 2,
            "block_id": {
              "hash": "378BEE8F599A2F793966E69B6988D2EC08E3C240",
              "parts": {
                "total": "1",
                "hash": "C2C1BF0067BF5BA624E8B4D8E2BD0CA708373753"
              }
            },
            "signature": {
              "type": "tendermint/SignatureEd25519",
              "value": "3HqAkgEjBAs6VU/E08j/5OgNLVEmFKiGkriCALgvdkr32YFgSDJAHg6bsB4763uQZw/MtBdo/4rTF38zjiKgAg=="
            }
          },
          {
            "validator_address": "EC95B111D032181E1EC3B5E8875C5BB8E4AE7140",
            "validator_index": "94",
            "height": "21881",
            "round": "1",
            "timestamp": "2018-07-31T18:04:59.64531128Z",
            "type": 2,
            "block_id": {
              "hash": "378BEE8F599A2F793966E69B6988D2EC08E3C240",
              "parts": {
                "total": "1",
                "hash": "C2C1BF0067BF5BA624E8B4D8E2BD0CA708373753"
              }
            },
            "signature": {
              "type": "tendermint/SignatureEd25519",
              "value": "ITtb3iUoMSz8C41u0YDxscJtwXZbVt/98Bx188FQXZNOGxcJPmOhYmpmA49f6ufxG8++YZfphX5BIz02Uye9BQ=="
            }
          },
          {
            "validator_address": "F13C1805E8131C9B47E2A46818F57D8A2841E578",
            "validator_index": "95",
            "height": "21881",
            "round": "1",
            "timestamp": "2018-07-31T18:04:59.821225834Z",
            "type": 2,
            "block_id": {
              "hash": "378BEE8F599A2F793966E69B6988D2EC08E3C240",
              "parts": {
                "total": "1",
                "hash": "C2C1BF0067BF5BA624E8B4D8E2BD0CA708373753"
              }
            },
            "signature": {
              "type": "tendermint/SignatureEd25519",
              "value": "lrwDMsi0cP21f6HTRNIhvhtIdysU1CeURg+D0nM987b7FoJkPuIztGPT2shTEtDLPRagwc7Kh3P2brveDVHxBg=="
            }
          },
          {
            "validator_address": "F23FF36BD5B90C33CE3A03ED72DBDCF5EC07D6AF",
            "validator_index": "96",
            "height": "21881",
            "round": "1",
            "timestamp": "2018-07-31T18:04:59.770309927Z",
            "type": 2,
            "block_id": {
              "hash": "378BEE8F599A2F793966E69B6988D2EC08E3C240",
              "parts": {
                "total": "1",
                "hash": "C2C1BF0067BF5BA624E8B4D8E2BD0CA708373753"
              }
            },
            "signature": {
              "type": "tendermint/SignatureEd25519",
              "value": "4be3lMKt3hJ+dnv69F5bJWHptQVnYTYbgHVI2DRNJNEd3FisWPB+rCFgJIfmKXpkIYYWXZsYHMmSaLcVg2OSDw=="
            }
          },
          {
            "validator_address": "F4268597DE93E3E2CED38845010F8AA34E2A879E",
            "validator_index": "97",
            "height": "21881",
            "round": "1",
            "timestamp": "2018-07-31T18:04:59.825530535Z",
            "type": 2,
            "block_id": {
              "hash": "378BEE8F599A2F793966E69B6988D2EC08E3C240",
              "parts": {
                "total": "1",
                "hash": "C2C1BF0067BF5BA624E8B4D8E2BD0CA708373753"
              }
            },
            "signature": {
              "type": "tendermint/SignatureEd25519",
              "value": "6nK937J4g1+WZ0tawOEmDNZhiLKdmgUcHM3FHdCId9iqFNOCLSytOyexYSp3brbGtG+B3+PBpjPdNa1qMkFTAA=="
            }
          },
          {
            "validator_address": "F4DEB417999B04BE2EFF9FFE03FA373D86011CC0",
            "validator_index": "98",
            "height": "21881",
            "round": "1",
            "timestamp": "2018-07-31T18:04:59.750531689Z",
            "type": 2,
            "block_id": {
              "hash": "378BEE8F599A2F793966E69B6988D2EC08E3C240",
              "parts": {
                "total": "1",
                "hash": "C2C1BF0067BF5BA624E8B4D8E2BD0CA708373753"
              }
            },
            "signature": {
              "type": "tendermint/SignatureEd25519",
              "value": "2D+U4O5ELp5IO6SZWkOT7qf8glaQnkqQtQGe2yG017qDUVdSHmaAe4lEgi8LoVDh0M9Q4Ss7gpqW5TGtU70jCQ=="
            }
          },
          {
            "validator_address": "F6738260186D33D9C14FC6E7017AFE6BB952A63D",
            "validator_index": "99",
            "height": "21881",
            "round": "1",
            "timestamp": "2018-07-31T18:04:59.744044304Z",
            "type": 2,
            "block_id": {
              "hash": "378BEE8F599A2F793966E69B6988D2EC08E3C240",
              "parts": {
                "total": "1",
                "hash": "C2C1BF0067BF5BA624E8B4D8E2BD0CA708373753"
              }
            },
            "signature": {
              "type": "tendermint/SignatureEd25519",
              "value": "zSoiPhZ5mOf/c1BATMDJGtNlvhnjCU8WMVsnKRlUuhthyNpruTzJSSNNTtT4Fzp8d+Y1Lqg7AM5HYCGKSpWpCQ=="
            }
          },
          null,
          {
            "validator_address": "FF3F3FCBCE7E62D7AD5506FF846EC4518D980515",
            "validator_index": "101",
            "height": "21881",
            "round": "1",
            "timestamp": "2018-07-31T18:04:59.68773864Z",
            "type": 2,
            "block_id": {
              "hash": "378BEE8F599A2F793966E69B6988D2EC08E3C240",
              "parts": {
                "total": "1",
                "hash": "C2C1BF0067BF5BA624E8B4D8E2BD0CA708373753"
              }
            },
            "signature": {
              "type": "tendermint/SignatureEd25519",
              "value": "r55CCFlAqJWJ5zSX2M+1LHVbo8SAXAbrFoT3dY0Z/5/4w1hqBXYJoQX5TZ8OAlGfkhW/fhX8nVQM/nhZCxGWCA=="
            }
          }
        ]
      }
    },
    "canonical": true
  }
}