{
  "jsonrpc": "2.0",
  "id": "",
  "result": {
    "SignedHeader": {
      "header": {
        "chain_id": "gaia-7004",
        "height": "22158",
        "time": "2018-07-31T18:32:23.220767437Z",
        "num_txs": "0",
        "last_block_id": {
          "hash": "1646CF14D755FDC7775018C555C1EC3E262792C4",
          "parts": {
            "total": "1",
            "hash": "FBF47267BD4DC0CE4577915EE45463DDA363F727"
          }
        },
        "total_txs": "601",
        "last_commit_hash": "C783BA2F246C0E0E8D4D81889B54365CB5F9D8E6",
        "data_hash": "",
        "validators_hash": "D6A3F6613E610F25B23165FC8FE948670816D5AE",
        "consensus_hash": "D6B74BB35BDFFD8392340F2A379173548AE188FE",
        "app_hash": "B5C93E01CBE8CC8A9AEAC53A18C44DFFE2F6BFF2",
        "last_results_hash": "",
        "evidence_hash": ""
      },
      "commit": {
        "block_id": {
          "hash": "9F4527BA76F66775A924EDED923B1CC38E0B42E7",
          "parts": {
            "total": "1",
            "hash": "49CD0E59A2ED258B5F58226F5484552C747EADE9"
          }
        },
        "precommits": [
          {
            "validator_address": "029359C0C768096273A68ABC902A6B17AC8D1D70",
            "validator_index": "0",
            "height": "22158",
            "round": "1",
            "timestamp": "2018-07-31T18:32:24.134135974Z",
            "type": 2,
            "block_id": {
              "hash": "9F4527BA76F66775A924EDED923B1CC38E0B42E7",
              "parts": {
                "total": "1",
                "hash": "49CD0E59A2ED258B5F58226F5484552C747EADE9"
              }
            },
            "signature": {
              "type": "tendermint/SignatureEd25519",
              "value": "pQCEiL5E1tlDa2/bnZdNlP5VuTygS9yA4QmPno3OJrMgwbe7EwZwqsqAkOj2WsdA9Ax+uz4cyD2LGbWcPwsWAQ=="
            }
          },
          {
            "validator_address": "02FE4B97A8387F39D1AC19E0C1702B3CC614812F",
            "validator_index": "1",
            "height": "22158",
            "round": "1",
            "timestamp": "2018-07-31T18:32:24.16311407Z",
            "type": 2,
            "block_id": {
              "hash": "9F4527BA76F66775A924EDED923B1CC38E0B42E7",
              "parts": {
                "total": "1",
                "hash": "49CD0E59A2ED258B5F58226F5484552C747EADE9"
              }
            },
            "signature": {
              "type": "tendermint/SignatureEd25519",
              "value": "0sDQNJ5XXCMDqqOh2s63OM/86XRA2BnoXVtGco654g2F5UAZAwYDsZoXDi+k4Hx8Lotjo9/F8alVsdnU/FeHCg=="
            }
          },
          {
            "validator_address": "0548261C50222FD710EB5EBDF03A0E6567B21D20",
            "validator_index": "2",
            "height": "22158",
            "round": "1",
            "timestamp": "2018-07-31T18:32:24.208885853Z",
            "type": 2,
            "block_id": {
              "hash": "9F4527BA76F66775A924EDED923B1CC38E0B42E7",
              "parts": {
                "total": "1",
                "hash": "49CD0E59A2ED258B5F58226F5484552C747EADE9"
              }
            },
            "signature": {
              "type": "tendermint/SignatureEd25519",
              "value": "aOKb6FEtpt5ofEUzwXkjdgQU2wolAQl2bQJFT6udR5og5jH1FqvB4jHCiLSHsQi/IM653wOnRjlcyLwGKDCIAQ=="
            }
          },
          {
            "validator_address": "09145E611CC27EEB944FC5A956DDF710F943B9EF",
            "validator_index": "3",
            "height": "22158",
            "round": "1",
            "timestamp": "2018-07-31T18:32:24.139855276Z",
            "type": 2,
            "block_id": {
              "hash": "9F4527BA76F66775A924EDED923B1CC38E0B42E7",
              "parts": {
                "total": "1",
                "hash": "49CD0E59A2ED258B5F58226F5484552C747EADE9"
              }
            },
            "signature": {
              "type": "tendermint/SignatureEd25519",
              "value": "WNNGi24caAe5OpSDY+cGyXctIYgLqJwzytGmYBOjCBph9hwu1gxQw2lE4xkODoi830Cl8SbDT2/w2sEK+VtSAg=="
            }
          },
          {
            "validator_address": "0989D0355A104B67AE0AE028C68FB610690E174B",
            "validator_index": "4",
            "height": "22158",
            "round": "1",
            "timestamp": "2018-07-31T18:32:24.192369167Z",
            "type": 2,
            "block_id": {
              "hash": "9F4527BA76F66775A924EDED923B1CC38E0B42E7",
              "parts": {
                "total": "1",
                "hash": "49CD0E59A2ED258B5F58226F5484552C747EADE9"
              }
            },
            "signature": {
              "type": "tendermint/SignatureEd25519",
              "value": "H4gjW1P0/zp++3FBh+pgUaLi3AsCUhrNdxtcLfJeq1ZTP1meWUIW7Oh8IhPmJSUCn4TLDuw29VSkQH097/BjAA=="
            }
          },
          {
            "validator_address": "0A692DBFFE9E5DD28E7DECC33CED1AEB4C0D014E",
            "validator_index": "5",
            "height": "22158",
            "round": "1",
            "timestamp": "2018-07-31T18:32:24.267952832Z",
            "type": 2,
            "block_id": {
              "hash": "9F4527BA76F66775A924EDED923B1CC38E0B42E7",
              "parts": {
                "total": "1",
                "hash": "49CD0E59A2ED258B5F58226F5484552C747EADE9"
              }
            },
            "signature": {
              "type": "tendermint/SignatureEd25519",
              "value": "v0MNZUMxpVwbmiTDAVdoDxHUI+ZGxcLWd5h4RGOxZi7rjlYN2kbGMHdtqiq2vAeXwks4zerzezmd1/X/D3sUBA=="
            }
          },
          {
            "validator_address": "0DDF97111D73DB825138EC15EC27DE5FE8536901",
            "validator_index": "6",
            "height": "22158",
            "round": "1",
            "timestamp": "2018-07-31T18:32:24.168033218Z",
            "type": 2,
            "block_id": {
              "hash": "9F4527BA76F66775A924EDED923B1CC38E0B42E7",
              "parts": {
                "total": "1",
                "hash": "49CD0E59A2ED258B5F58226F5484552C747EADE9"
              }
            },
            "signature": {
              "type": "tendermint/SignatureEd25519",
              "value": "C3U4ofuijbh4tcm0NQVdRkT3a9wc6GN+Ies7R5mr0k/vUOs6l3u5k3+l4hXr3CLK8mC54FZoPD5imX4p6ynICg=="
            }
          },
          {
            "validator_address": "1751786EFC085D5331C61168FFFC8202EA151B4E",
            "validator_index": "7",
            "height": "22158",
            "round": "1",
            "timestamp": "2018-07-31T18:32:23.718265503Z",
            "type": 2,
            "block_id": {
              "hash": "9F4527BA76F66775A924EDED923B1CC38E0B42E7",
              "parts": {
                "total": "1",
                "hash": "49CD0E59A2ED258B5F58226F5484552C747EADE9"
              }
            },
            "signature": {
              "type": "tendermint/SignatureEd25519",
              "value": "XgoTuRh6btSRO00n2ZUQC/hRVsPkvorNzKTsY1wGl3zfAHg86Pkwj9LcGGJ0CgO0c4ziAZyAdGRjyzrWjgANBQ=="
            }
          },
          {
            "validator_address": "17BB5CD01E8940FAFB948A04D5FA5A0645E5822E",
            "validator_index": "8",
            "height": "22158",
            "round": "1",
            "timestamp": "2018-07-31T18:32:24.156268998Z",
            "type": 2,
            "block_id": {
              "hash": "9F4527BA76F66775A924EDED923B1CC38E0B42E7",
              "parts": {
                "total": "1",
                "hash": "49CD0E59A2ED258B5F58226F5484552C747EADE9"
              }
            },
            "signature": {
              "type": "tendermint/SignatureEd25519",
              "value": "beF6LuRCRDuAQxc8dsAkIP1w/VVJrSbS5DKpe/NyaETz15kAncoNjEzUT+oV+ZBJo5hwBb9VX6HIQ3hB92XMBg=="
            }
          },
          {
            "validator_address": "1C683A87904BC38F05004FE83301A3A3E35447EB",
            "validator_index": "9",
            "height": "22158",
            "round": "1",
            "timestamp": "2018-07-31T18:32:24.128377701Z",
            "type": 2,
            "block_id": {
              "hash": "9F4527BA76F66775A924EDED923B1CC38E0B42E7",
              "parts": {
                "total": "1",
                "hash": "49CD0E59A2ED258B5F58226F5484552C747EADE9"
              }
            },
            "signature": {
              "type": "tendermint/SignatureEd25519",
              "value": "bocUEHrrjn0Mx3Djoy+kJAdEzcFlat/iPunA3KeAPcSkUbHpKS21p41sZgqgYxIvrXIzE24vSj8CS5mDAHxpDA=="
            }
          },
          {
            "validator_address": "1E9CE94FD0BA5CFEB901F90BC658D64D85B134D2",
            "validator_index": "10",
            "height": "22158",
            "round": "1",
            "timestamp": "2018-07-31T18:32:24.174459794Z",
            "type": 2,
            "block_id": {
              "hash": "9F4527BA76F66775A924EDED923B1CC38E0B42E7",
              "parts": {
                "total": "1",
                "hash": "49CD0E59A2ED258B5F58226F5484552C747EADE9"
              }
            },
            "signature": {
              "type": "tendermint/SignatureEd25519",
              "value": "iF7dlGc5tp1lgmMgfjrjp7PTSB5qcgVmKiF4i4CdmUCgB0+SR2e24ZtbM12yJWEC+t3F96643+OLw8sug1EuDA=="
            }
          },
          {
            "validator_address": "1ECD8C5FE1341D74CDC633A245DD56858DE2F9A2",
            "validator_index": "11",
            "height": "22158",
            "round": "1",
            "timestamp": "2018-07-31T18:32:24.279431462Z",
            "type": 2,
            "block_id": {
              "hash": "9F4527BA76F66775A924EDED923B1CC38E0B42E7",
              "parts": {
                "total": "1",
                "hash": "49CD0E59A2ED258B5F58226F5484552C747EADE9"
              }
            },
            "signature": {
              "type": "tendermint/SignatureEd25519",
              "value": "O6Ma7IHLCVZFxYlf4x1/9tr5E+NqqyYiQch/wtD5ovj7uHpoultoSEJwAAuuU59VVkh/ag/os4+oUPjPhJrkBg=="
            }
          },
          {
            "validator_address": "1F3A68CAAD483768AA2BF667DEF10F7104C89928",
            "validator_index": "12",
            "height": "22158",
            "round": "1",
            "timestamp": "2018-07-31T18:32:24.152039871Z",
            "type": 2,
            "block_id": {
              "hash": "9F4527BA76F66775A924EDED923B1CC38E0B42E7",
              "parts": {
                "total": "1",
                "hash": "49CD0E59A2ED258B5F58226F5484552C747EADE9"
              }
            },
            "signature": {
              "type": "tendermint/SignatureEd25519",
              "value": "rWRWppj2j1Ptf5+HBoPMpRQz6GJG8sKMhSBERmOKomAFvtQclijnVketMVz6lOZgHl7N0oUW1nJ/su6Y5X2QCQ=="
            }
          },
          {
            "validator_address": "23897586D68E2AC1C78E0EF5BB5DF5C8EAB18F50",
            "validator_index": "13",
            "height": "22158",
            "round": "1",
            "timestamp": "2018-07-31T18:32:24.150590516Z",
            "type": 2,
            "block_id": {
              "hash": "9F4527BA76F66775A924EDED923B1CC38E0B42E7",
              "parts": {
                "total": "1",
                "hash": "49CD0E59A2ED258B5F58226F5484552C747EADE9"
              }
            },
            "signature": {
              "type": "tendermint/SignatureEd25519",
              "value": "ox4LiFyJqDmX6eOYJCyd8eOBpV3ZqjlUgqDfBJzZpucgnVlvI+BKqwvkD66BMD9CCuY1GPgP6QXYk5i5yKY3BA=="
            }
          },
          {
            "validator_address": "28770D17E8530825E7310A0659308654B7EC9682",
            "validator_index": "14",
            "height": "22158",
            "round": "1",
            "timestamp": "2018-07-31T18:32:24.102515853Z",
            "type": 2,
            "block_id": {
              "hash": "9F4527BA76F66775A924EDED923B1CC38E0B42E7",
              "parts": {
                "total": "1",
                "hash": "49CD0E59A2ED258B5F58226F5484552C747EADE9"
              }
            },
            "signature": {
              "type": "tendermint/SignatureEd25519",
              "value": "tt+flGtwVEE/VWErMOmuGwafFNNNf+fQciTmMJr5OJF+TANg60d/1XJZI/ZzIkjrLnREptPqTzchu+yWPtuABg=="
            }
          },
          {
            "validator_address": "2A92EC3C642140202298D0E245095E0ECFC25228",
            "validator_index": "15",
            "height": "22158",
            "round": "1",
            "timestamp": "2018-07-31T18:32:24.113731959Z",
            "type": 2,
            "block_id": {
              "hash": "9F4527BA76F66775A924EDED923B1CC38E0B42E7",
              "parts": {
                "total": "1",
                "hash": "49CD0E59A2ED258B5F58226F5484552C747EADE9"
              }
            },
            "signature": {
              "type": "tendermint/SignatureEd25519",
              "value": "WG5CYgdBsFI32/XMjRM/uFI4RINKAeqSzA0RUYnLDa1wosToiQ+omPfhFxiYMrnyZd6lh7qNKcvw9fK3/qmCAw=="
            }
          },
          {
            "validator_address": "33412C9A69C60CB0FAA24A5C5B3A906DE24B47C2",
            "validator_index": "16",
            "height": "22158",
            "round": "1",
            "timestamp": "2018-07-31T18:32:24.082108372Z",
            "type": 2,
            "block_id": {
              "hash": "9F4527BA76F66775A924EDED923B1CC38E0B42E7",
              "parts": {
                "total": "1",
                "hash": "49CD0E59A2ED258B5F58226F5484552C747EADE9"
              }
            },
            "signature": {
              "type": "tendermint/SignatureEd25519",
              "value": "SsB+ll8BRqjg5AHrGpqu1pXVe0oBMoCqiFLfW3OAGk+eEjNxbHoqhSlOBU1M8vS5x/gYS6YueiEttW4mD6OeCQ=="
            }
          },
          {
            "validator_address": "3383EF2A13B160C41947AC30434B274B2FAF0617",
            "validator_index": "17",
            "height": "22158",
            "round": "1",
            "timestamp": "2018-07-31T18:32:24.132757072Z",
            "type": 2,
            "block_id": {
              "hash": "9F4527BA76F66775A924EDED923B1CC38E0B42E7",
              "parts": {
                "total": "1",
                "hash": "49CD0E59A2ED258B5F58226F5484552C747EADE9"
              }
            },
            "signature": {
              "type": "tendermint/SignatureEd25519",
              "value": "w4cGgF+X5aH/niGOF16AmCRZBDmExXXlFEHkdp3HPyF3Fr6WcnANUmrl5TOUqnVKLIHwS7jFm8l6QsmJtErUDQ=="
            }
          },
          {
            "validator_address": "36E9B7FAEC964F97D84C028ED62493E373AD0B38",
            "validator_index": "18",
            "height": "22158",
            "round": "1",
            "timestamp": "2018-07-31T18:32:24.278585328Z",
            "type": 2,
            "block_id": {
              "hash": "9F4527BA76F66775A924EDED923B1CC38E0B42E7",
              "parts": {
                "total": "1",
                "hash": "49CD0E59A2ED258B5F58226F5484552C747EADE9"
              }
            },
            "signature": {
              "type": "tendermint/SignatureEd25519",
              "value": "mx7wwVd2h8tOPytlDxKzl+qe1nin7JCnsaRKky1G0D6hZfZRRazA9ANe0F+83bER1mCIKmnzSaQR5AQ9HmlNBA=="
            }
          },
          {
            "validator_address": "38A8D85D36BEA2E5FCF8A1E778F53628E450EF13",
            "validator_index": "19",
            "height": "22158",
            "round": "1",
            "timestamp": "2018-07-31T18:32:24.256794842Z",
            "type": 2,
            "block_id": {
              "hash": "9F4527BA76F66775A924EDED923B1CC38E0B42E7",
              "parts": {
                "total": "1",
                "hash": "49CD0E59A2ED258B5F58226F5484552C747EADE9"
              }
            },
            "signature": {
              "type": "tendermint/SignatureEd25519",
              "value": "swbLofYG/Tpsi7ATxHOa6vv2EzfFEvLL9f5qCKSNmAjL9t4gxVLgWSyYce2kQK3VaR2rnZxinGwITaMEzx3FAg=="
            }
          },
          {
            "validator_address": "39DFDA0C5DB84B269642188B23253508537798E6",
            "validator_index": "20",
            "height": "22158",
            "round": "1",
            "timestamp": "2018-07-31T18:32:24.115852839Z",
            "type": 2,
            "block_id": {
              "hash": "9F4527BA76F66775A924EDED923B1CC38E0B42E7",
              "parts": {
                "total": "1",
                "hash": "49CD0E59A2ED258B5F58226F5484552C747EADE9"
              }
            },
            "signature": {
              "type": "tendermint/SignatureEd25519",
              "value": "lU5J4KJ/I/r74YjY63MgQBycfNsw+rh4zxMXin3V5ZTtdSSU/vrdZXuZ8Xnxs2bHway23z8mIySmaJb1yDnrBA=="
            }
          },
          {
            "validator_address": "3AC99B708404452366E0953A4BE849226DC86CBC",
            "validator_index": "21",
            "height": "22158",
            "round": "1",
            "timestamp": "2018-07-31T18:32:24.153522473Z",
            "type": 2,
            "block_id": {
              "hash": "9F4527BA76F66775A924EDED923B1CC38E0B42E7",
              "parts": {
                "total": "1",
                "hash": "49CD0E59A2ED258B5F58226F5484552C747EADE9"
              }
            },
            "signature": {
              "type": "tendermint/SignatureEd25519",
              "value": "gkmcKaBOHnbpiPHRBD1k6USn81IhiJFJevpIpcP5rp+55s9LsUvy4uZEobCyRgqieczprsckKL2D1Sx3wv9oBQ=="
            }
          },
          {
            "validator_address": "3DCB822A10ED319EC7C4393D8E3FD4A41B15AAF2",
            "validator_index": "22",
            "height": "22158",
            "round": "1",
            "timestamp": "2018-07-31T18:32:24.103143379Z",
            "type": 2,
            "block_id": {
              "hash": "9F4527BA76F66775A924EDED923B1CC38E0B42E7",
              "parts": {
                "total": "1",
                "hash": "49CD0E59A2ED258B5F58226F5484552C747EADE9"
              }
            },
            "signature": {
              "type": "tendermint/SignatureEd25519",
              "value": "6pc9zDzxRB7hLntme08tVy1sakbgQ893Yj7UsdB804S7E3/kH2y7sJ7XyTBp+4+dR81odv7SGo1IBwaEmTiqCA=="
            }
          },
          {
            "validator_address": "3E899BA36A93C7370347BD5FE85909F2ECD93F8C",
            "validator_index": "23",
            "height": "22158",
            "round": "1",
            "timestamp": "2018-07-31T18:32:24.127986257Z",
            "type": 2,
            "block_id": {
              "hash": "9F4527BA76F66775A924EDED923B1CC38E0B42E7",
              "parts": {
                "total": "1",
                "hash": "49CD0E59A2ED258B5F58226F5484552C747EADE9"
              }
            },
            "signature": {
              "type": "tendermint/SignatureEd25519",
              "value": "bzTZxS9iPWxYnRKPL3QqbzruYtPVLqomasHwrgWZPfvu7WHSV0K+JfIAPGlRbFU10pYjia6qDnDLUCVYOV3SDw=="
            }
          },
          {
            "validator_address": "41CAB2E29E7D0F2282E3275938F188FF9386B84C",
            "validator_index": "24",
            "height": "22158",
            "round": "1",
            "timestamp": "2018-07-31T18:32:24.142629528Z",
            "type": 2,
            "block_id": {
              "hash": "9F4527BA76F66775A924EDED923B1CC38E0B42E7",
              "parts": {
                "total": "1",
                "hash": "49CD0E59A2ED258B5F58226F5484552C747EADE9"
              }
            },
            "signature": {
              "type": "tendermint/SignatureEd25519",
              "value": "wxnki3OszLxqhZK0/TiDtWc0iJTPvrB7Oj9MYv7yArXOniEkECyRWzOyZCX7qfGWuBkT9BLiAs13hg2gyn0lAQ=="
            }
          },
          {
            "validator_address": "462B656869DB02A8FD1077E255F8CC7401DC37C6",
            "validator_index": "25",
            "height": "22158",
            "round": "1",
            "timestamp": "2018-07-31T18:32:24.114777545Z",
            "type": 2,
            "block_id": {
              "hash": "9F4527BA76F66775A924EDED923B1CC38E0B42E7",
              "parts": {
                "total": "1",
                "hash": "49CD0E59A2ED258B5F58226F5484552C747EADE9"
              }
            },
            "signature": {
              "type": "tendermint/SignatureEd25519",
              "value": "RrEj2vJGBK3nPwsPoDEuvFKU5yOHZ33hEA6RIgZnYaAaUwPjvFF6uy2ki1evBhN+VQcJRp22jqcsNRwdoqQeBA=="
            }
          },
          {
            "validator_address": "48E5118163E5442068A1B5A42D2EEDBB75724935",
            "validator_index": "26",
            "height": "22158",
            "round": "1",
            "timestamp": "2018-07-31T18:32:24.300421303Z",
            "type": 2,
            "block_id": {
              "hash": "9F4527BA76F66775A924EDED923B1CC38E0B42E7",
              "parts": {
                "total": "1",
                "hash": "49CD0E59A2ED258B5F58226F5484552C747EADE9"
              }
            },
            "signature": {
              "type": "tendermint/SignatureEd25519",
              "value": "Q616hcqyuOUA9KEsRn5HSqLquasop1X4MNm36gzoew9lBGpahKoY5jwtsTnvLMlc037ydoMN20bkx/wTUmI8Dw=="
            }
          },
          {
            "validator_address": "4944F8BBBB5303E17BC0607DF332320EDBC750EA",
            "validator_index": "27",
            "height": "22158",
            "round": "1",
            "timestamp": "2018-07-31T18:32:24.083633556Z",
            "type": 2,
            "block_id": {
              "hash": "9F4527BA76F66775A924EDED923B1CC38E0B42E7",
              "parts": {
                "total": "1",
                "hash": "49CD0E59A2ED258B5F58226F5484552C747EADE9"
              }
            },
            "signature": {
              "type": "tendermint/SignatureEd25519",
              "value": "tKpqYJQynpbTqUwo3nXmvdHzaaKEtlDcRwsQcLJMKaFTJOMChdVZw6iYagevque8RBwTYuDECwvgNyvX1F5SAQ=="
            }
          },
          {
            "validator_address": "49841599DE675157CBE1E7D6B35BF8FFC23BD5CB",
            "validator_index": "28",
            "height": "22158",
            "round": "1",
            "timestamp": "2018-07-31T18:32:24.108235278Z",
            "type": 2,
            "block_id": {
              "hash": "9F4527BA76F66775A924EDED923B1CC38E0B42E7",
              "parts": {
                "total": "1",
                "hash": "49CD0E59A2ED258B5F58226F5484552C747EADE9"
              }
            },
            "signature": {
              "type": "tendermint/SignatureEd25519",
              "value": "4A69P4/1e9nJ8D6gAwZJfVGe1JCuQQIOp/0UbE24x4jX0G+ibDU7wXA9KIfi0CNvnsbP60zsfIgCAgL7KMrcCA=="
            }
          },
          {
            "validator_address": "51386C2CF9556821D114D7E4945806802BADB28D",
            "validator_index": "29",
            "height": "22158",
            "round": "1",
            "timestamp": "2018-07-31T18:32:24.090946703Z",
            "type": 2,
            "block_id": {
              "hash": "9F4527BA76F66775A924EDED923B1CC38E0B42E7",
              "parts": {
                "total": "1",
                "hash": "49CD0E59A2ED258B5F58226F5484552C747EADE9"
              }
            },
            "signature": {
              "type": "tendermint/SignatureEd25519",
              "value": "X+uiMn26Ht+YUGUc5HMAxOeV96FP7JfLdA9xoGHmjd4MNdMV4nGWxmgd62hOIxvXZgLNV+87I4Z48z0v8IrwDg=="
            }
          },
          {
            "validator_address": "543564ECA3AFEFADC73EE8591AAC3A96F079BC8A",
            "validator_index": "30",
            "height": "22158",
            "round": "1",
            "timestamp": "2018-07-31T18:32:24.130714621Z",
            "type": 2,
            "block_id": {
              "hash": "9F4527BA76F66775A924EDED923B1CC38E0B42E7",
              "parts": {
                "total": "1",
                "hash": "49CD0E59A2ED258B5F58226F5484552C747EADE9"
              }
            },
            "signature": {
              "type": "tendermint/SignatureEd25519",
              "value": "YW8dqPcJsxZBxShBbhPly+n0VW+IEjtzIiL+WjlVVUiDFDqOlRbD2Q+DYXP+t3are2VjN+AJBOZacEah4wceCQ=="
            }
          },
          {
            "validator_address": "55D67B1A6DC13E96F8754A5A42EABC20F7F86664",
            "validator_index": "31",
            "height": "22158",
            "round": "1",
            "timestamp": "2018-07-31T18:32:24.108224822Z",
            "type": 2,
            "block_id": {
              "hash": "9F4527BA76F66775A924EDED923B1CC38E0B42E7",
              "parts": {
                "total": "1",
                "hash": "49CD0E59A2ED258B5F58226F5484552C747EADE9"
              }
            },
            "signature": {
              "type": "tendermint/SignatureEd25519",
              "value": "sDefpRSO0PPupvrvdECbNpucy7yfpdx1b6RNmz8JbGvFyqO6Ql1YreeDn6yx6iGR1YWdlu2I89Qo5Cyr5TnJAg=="
            }
          },
          {
            "validator_address": "570B6A755ED339EAC56BB3390A48069F6AC9449B",
            "validator_index": "32",
            "height": "22158",
            "round": "1",
            "timestamp": "2018-07-31T18:32:28.291789043Z",
            "type": 2,
            "block_id": {
              "hash": "9F4527BA76F66775A924EDED923B1CC38E0B42E7",
              "parts": {
                "total": "1",
                "hash": "49CD0E59A2ED258B5F58226F5484552C747EADE9"
              }
            },
            "signature": {
              "type": "tendermint/SignatureEd25519",
              "value": "A9cneTkq4pnrL6HHuHL92m2GD3xXakPG0YZ2L0kpIUDdSpezwHNW17RiJc7VwIg55U9jXtY0Maz1WRPLkp3RAg=="
            }
          },
          {
            "validator_address": "5BDF8EA41B1835FBAD865B181A2A4B23F511B5E4",
            "validator_index": "33",
            "height": "22158",
            "round": "1",
            "timestamp": "2018-07-31T18:32:24.099421651Z",
            "type": 2,
            "block_id": {
              "hash": "9F4527BA76F66775A924EDED923B1CC38E0B42E7",
              "parts": {
                "total": "1",
                "hash": "49CD0E59A2ED258B5F58226F5484552C747EADE9"
              }
            },
            "signature": {
              "type": "tendermint/SignatureEd25519",
              "value": "BUD/PpTwKLWrt28/Sbx15u/UrDsr1Mf0ycfTCLU2VV3y8+iyQHZSlLEaS1RGA4EMGufhJaQpY2JeNf0ZLzz/BA=="
            }
          },
          {
            "validator_address": "60229E2E273297FE00219E46DFFB8F76844CDEF9",
            "validator_index": "34",
            "height": "22158",
            "round": "1",
            "timestamp": "2018-07-31T18:32:22.724137602Z",
            "type": 2,
            "block_id": {
              "hash": "9F4527BA76F66775A924EDED923B1CC38E0B42E7",
              "parts": {
                "total": "1",
                "hash": "49CD0E59A2ED258B5F58226F5484552C747EADE9"
              }
            },
            "signature": {
              "type": "tendermint/SignatureEd25519",
              "value": "t1GZJnWFU5zHFFxumckN83fc3nBemqAGFZOvy/I3b/MoygbUP7DLvjRb2Kh0owXooJYYCICAf3J3cB+gFkVwAg=="
            }
          },
          {
            "validator_address": "62410D6D1CD98278136E4D0738AA0EA273CDFC54",
            "validator_index": "35",
            "height": "22158",
            "round": "1",
            "timestamp": "2018-07-31T18:32:24.143311572Z",
            "type": 2,
            "block_id": {
              "hash": "9F4527BA76F66775A924EDED923B1CC38E0B42E7",
              "parts": {
                "total": "1",
                "hash": "49CD0E59A2ED258B5F58226F5484552C747EADE9"
              }
            },
            "signature": {
              "type": "tendermint/SignatureEd25519",
              "value": "94SLPOpBceWe8Us87G7eiTDW8WCe8Id548xIWqjo1HpN9rarWFYno4UvfsszI/rZEJiKRnzMHC2yilg7P7g1DQ=="
            }
          },
          {
            "validator_address": "632F5C139A5A9DFBFE5111DEE29FCFB6157207DC",
            "validator_index": "36",
            "height": "22158",
            "round": "1",
            "timestamp": "2018-07-31T18:32:24.12405858Z",
            "type": 2,
            "block_id": {
              "hash": "9F4527BA76F66775A924EDED923B1CC38E0B42E7",
              "parts": {
                "total": "1",
                "hash": "49CD0E59A2ED258B5F58226F5484552C747EADE9"
              }
            },
            "signature": {
              "type": "tendermint/SignatureEd25519",
              "value": "oHa36PUI0aw8ZdGYsGaAnkbD0UUZrdSa83oXrnzLQ6wUBJa2oEeSw2v9Vma0Ymt+nOgo+83RElULZ1Z8hfEXAg=="
            }
          },
          {
            "validator_address": "64F57F8E796A9B7B590C1EFA4123988C86631D39",
            "validator_index": "37",
            "height": "22158",
            "round": "1",
            "timestamp": "2018-07-31T18:32:24.078539345Z",
            "type": 2,
            "block_id": {
              "hash": "9F4527BA76F66775A924EDED923B1CC38E0B42E7",
              "parts": {
                "total": "1",
                "hash": "49CD0E59A2ED258B5F58226F5484552C747EADE9"
              }
            },
            "signature": {
              "type": "tendermint/SignatureEd25519",
              "value": "L7PhNBW9SDr+chhCyD+G7C4N2qUXSXTCR5ogDvNk8eBGTy6PWYr32157npvPHbppls+LSoafb3ubyTFMf7AoBg=="
            }
          },
          {
            "validator_address": "69D99B2C66043ACBEAA8447525C356AFC6408E0C",
            "validator_index": "38",
            "height": "22158",
            "round": "1",
            "timestamp": "2018-07-31T18:32:24.204126362Z",
            "type": 2,
            "block_id": {
              "hash": "9F4527BA76F66775A924EDED923B1CC38E0B42E7",
              "parts": {
                "total": "1",
                "hash": "49CD0E59A2ED258B5F58226F5484552C747EADE9"
              }
            },
            "signature": {
              "type": "tendermint/SignatureEd25519",
              "value": "ZPmaHyKe7s4fX+KhD+dHko2jm66BMw/lQTjJ9QKWxxDchrN+pMshZE72j06SmWDtiHf5P4CIHLLJk4xpoGtcAA=="
            }
          },
          {
            "validator_address": "69EDADFA4A803E9DBF548C900D4A465E7D154262",
            "validator_index": "39",
            "height": "22158",
            "round": "1",
            "timestamp": "2018-07-31T18:32:24.248583083Z",
            "type": 2,
            "block_id": {
              "hash": "9F4527BA76F66775A924EDED923B1CC38E0B42E7",
              "parts": {
                "total": "1",
                "hash": "49CD0E59A2ED258B5F58226F5484552C747EADE9"
              }
            },
            "signature": {
              "type": "tendermint/SignatureEd25519",
              "value": "WvypBJpoA5tAROFgh+FHK1Cn32hhmOpJNHtsXZF21rvpkznUlk+UFVLbaF9mLi8vp8DtWfF9dVgIKYift0S6BA=="
            }
          },
          {
            "validator_address": "6D3AD380E398D8592B03AA124BAFED5F125DF863",
            "validator_index": "40",
            "height": "22158",
            "round": "1",
            "timestamp": "2018-07-31T18:31:22.128135303Z",
            "type": 2,
            "block_id": {
              "hash": "9F4527BA76F66775A924EDED923B1CC38E0B42E7",
              "parts": {
                "total": "1",
                "hash": "49CD0E59A2ED258B5F58226F5484552C747EADE9"
              }
            },
            "signature": {
              "type": "tendermint/SignatureEd25519",
              "value": "LbakdcL+jzsT3Qns1KL3YVrs2jWn4K9w6hUesAuvBLrUZFv/kwD/I2ATOaBiFR5AkjNvnOzprVkwDKE7/evsCg=="
            }
          },
          {
            "validator_address": "6F6C93B8BF3495063FEC9B5C771158607F4AE9D6",
            "validator_index": "41",
            "height": "22158",
            "round": "1",
            "timestamp": "2018-07-31T18:32:24.209002545Z",
            "type": 2,
            "block_id": {
              "hash": "9F4527BA76F66775A924EDED923B1CC38E0B42E7",
              "parts": {
                "total": "1",
                "hash": "49CD0E59A2ED258B5F58226F5484552C747EADE9"
              }
            },
            "signature": {
              "type": "tendermint/SignatureEd25519",
              "value": "QAH0fF1LOBlJiu7/8w+/kPBvT6m1+bEpkNbPjVO0UoxwtlUlcjvU3KikCkIj7EbEFTWMyp9exJoFNO//09MwDw=="
            }
          },
          {
            "validator_address": "732CEEF54C374DDC6ADECBFD707AEFD07FEDC143",
            "validator_index": "42",
            "height": "22158",
            "round": "1",
            "timestamp": "2018-07-31T18:32:24.322838263Z",
            "type": 2,
            "block_id": {
              "hash": "9F4527BA76F66775A924EDED923B1CC38E0B42E7",
              "parts": {
                "total": "1",
                "hash": "49CD0E59A2ED258B5F58226F5484552C747EADE9"
              }
            },
            "signature": {
              "type": "tendermint/SignatureEd25519",
              "value": "64SH8cnnYC8takCqmV4kmx+vImJjKf+f6/ezZfj4nsBinsFRsAPjHuoECrNQzZMQZ3rW3lYDyK0gY/W0H17GDA=="
            }
          },
          {
            "validator_address": "7393D691BFAE9661918C09932D4D9060AB40939B",
            "validator_index": "43",
            "height": "22158",
            "round": "1",
            "timestamp": "2018-07-31T18:32:24.284600418Z",
            "type": 2,
            "block_id": {
              "hash": "9F4527BA76F66775A924EDED923B1CC38E0B42E7",
              "parts": {
                "total": "1",
                "hash": "49CD0E59A2ED258B5F58226F5484552C747EADE9"
              }
            },
            "signature": {
              "type": "tendermint/SignatureEd25519",
              "value": "jiCWU5d9h7PF1StNdBTaenOebPqQsxPqy8H4myrzNbyRPHibNn+OX8gbxBMRl1OVK2+kF7jitkO/6FUG2r9VDA=="
            }
          },
          {
            "validator_address": "751E43437224E8BB6D1569B3E2B2616B6E7F4397",
            "validator_index": "44",
            "height": "22158",
            "round": "1",
            "timestamp": "2018-07-31T18:32:24.157750892Z",
            "type": 2,
            "block_id": {
              "hash": "9F4527BA76F66775A924EDED923B1CC38E0B42E7",
              "parts": {
                "total": "1",
                "hash": "49CD0E59A2ED258B5F58226F5484552C747EADE9"
              }
            },
            "signature": {
              "type": "tendermint/SignatureEd25519",
              "value": "SzvGFp9udkIUqP/+csNvrcamQFZBEWskYHUw47u9WXN+5Rhg0yc/UwsYM/Y6fltH41XKpqMJwK7kCsSaL+YQAQ=="
            }
          },
          {
            "validator_address": "7EB7593F519F1180C7E872D0494611464EDF03AE",
            "validator_index": "45",
            "height": "22158",
            "round": "1",
            "timestamp": "2018-07-31T18:32:24.220608661Z",
            "type": 2,
            "block_id": {
              "hash": "9F4527BA76F66775A924EDED923B1CC38E0B42E7",
              "parts": {
                "total": "1",
                "hash": "49CD0E59A2ED258B5F58226F5484552C747EADE9"
              }
            },
            "signature": {
              "type": "tendermint/SignatureEd25519",
              "value": "AGAA9ZqeawpIUxmNcGal1S6NjwHwY3GJ/v378aav/2rawy5TyAi8aKHKc0tFlpz5qMJKj8Zr2sPykCy683NxAw=="
            }
          },
          {
            "validator_address": "807CF675BA8479FC4FEC1047215DF07970040F1F",
            "validator_index": "46",
            "height": "22158",
            "round": "1",
            "timestamp": "2018-07-31T18:32:24.499884578Z",
            "type": 2,
            "block_id": {
              "hash": "9F4527BA76F66775A924EDED923B1CC38E0B42E7",
              "parts": {
                "total": "1",
                "hash": "49CD0E59A2ED258B5F58226F5484552C747EADE9"
              }
            },
            "signature": {
              "type": "tendermint/SignatureEd25519",
              "value": "b1BWkPx4pMrWbH4qs7kWVhYxXvuVZDimDOd0HeALMl67EQ04TbOvi02TnvYXGdY18CS1kVxHvzzRmP4iS23dCA=="
            }
          },
          {
            "validator_address": "8126192EA66E8ADE6B36924534721366B987A4C1",
            "validator_index": "47",
            "height": "22158",
            "round": "1",
            "timestamp": "2018-07-31T18:32:24.211828458Z",
            "type": 2,
            "block_id": {
              "hash": "9F4527BA76F66775A924EDED923B1CC38E0B42E7",
              "parts": {
                "total": "1",
                "hash": "49CD0E59A2ED258B5F58226F5484552C747EADE9"
              }
            },
            "signature": {
              "type": "tendermint/SignatureEd25519",
              "value": "t2FhohARzTOULcNcVJASwJL27xObQIJCKxjKkpCiYcpsINI2pZNDQMyVkkg56BJQ4ZV3teHz9jDe05QfkcoDDQ=="
            }
          },
          {
            "validator_address": "83AB321E012C57746689FED3A6064DF331F81007",
            "validator_index": "48",
            "height": "22158",
            "round": "1",
            "timestamp": "2018-07-31T18:32:24.147866934Z",
            "type": 2,
            "block_id": {
              "hash": "9F4527BA76F66775A924EDED923B1CC38E0B42E7",
              "parts": {
                "total": "1",
                "hash": "49CD0E59A2ED258B5F58226F5484552C747EADE9"
              }
            },
            "signature": {
              "type": "tendermint/SignatureEd25519",
              "value": "6GWvkdF9S6rS4SHsUTnfwUIqsUQxF2gKZ62rAD4XxJf5/bfwGHgoy47oksRGmVUe7sooVhWJ5vT5UYOI9MEHBw=="
            }
          },
          {
            "validator_address": "83BB1B88D3DBB20AD845FECA07749EBD87D3754D",
            "validator_index": "49",
            "height": "22158",
            "round": "1",
            "timestamp": "2018-07-31T18:32:24.272598553Z",
            "type": 2,
            "block_id": {
              "hash": "9F4527BA76F66775A924EDED923B1CC38E0B42E7",
              "parts": {
                "total": "1",
                "hash": "49CD0E59A2ED258B5F58226F5484552C747EADE9"
              }
            },
            "signature": {
              "type": "tendermint/SignatureEd25519",
              "value": "MYsNfpQuusU60e7vEpvNZvrN1VPufpEDBDQJU3Hgi9f2sf4KwAYGBkO7AThzTlLcQkGPSd9XXuRDw9KSZu87Dw=="
            }
          },
          {
            "validator_address": "8F06FE1FD042683C426137FBC4BBAA4288924217",
            "validator_index": "50",
            "height": "22158",
            "round": "1",
            "timestamp": "2018-07-31T18:32:24.176341201Z",
            "type": 2,
            "block_id": {
              "hash": "9F4527BA76F66775A924EDED923B1CC38E0B42E7",
              "parts": {
                "total": "1",
                "hash": "49CD0E59A2ED258B5F58226F5484552C747EADE9"
              }
            },
            "signature": {
              "type": "tendermint/SignatureEd25519",
              "value": "FA7t7D32JYTJQOuGBt030tf3UDWYGxnL3ZkoBTlm2Jx4HIS8czpUCvjIRoKMHGDfiQjG7hJWG9SYNVvsf19NDg=="
            }
          },
          {
            "validator_address": "8F45617BF45B10A3F8283DEBDB35E38C7CA43237",
            "validator_index": "51",
            "height": "22158",
            "round": "1",
            "timestamp": "2018-07-31T18:32:24.165297849Z",
            "type": 2,
            "block_id": {
              "hash": "9F4527BA76F66775A924EDED923B1CC38E0B42E7",
              "parts": {
                "total": "1",
                "hash": "49CD0E59A2ED258B5F58226F5484552C747EADE9"
              }
            },
            "signature": {
              "type": "tendermint/SignatureEd25519",
              "value": "SlFN9V33WQbFsG0AYs4wd/n2ITuVYcrGf1yWSizzYqZ5JAnDK8VpknlxPEqcv5p+LOGn+M9qyfpFHk3bXnLCDg=="
            }
          },
          {
            "validator_address": "95980831E186F2540F6E9FB6C8E74DE2401405AC",
            "validator_index": "52",
            "height": "22158",
            "round": "1",
            "timestamp": "2018-07-31T18:32:24.212534812Z",
            "type": 2,
            "block_id": {
              "hash": "9F4527BA76F66775A924EDED923B1CC38E0B42E7",
              "parts": {
                "total": "1",
                "hash": "49CD0E59A2ED258B5F58226F5484552C747EADE9"
              }
            },
            "signature": {
              "type": "tendermint/SignatureEd25519",
              "value": "YTpkMc2y6o1YrFRxyDgAQhnqG2I6vyzRFiErIsuAMbBq01PmGw+iKhTNiabmucrmWjzPe1K2X1uGz3VW177IDw=="
            }
          },
          {
            "validator_address": "95FAFBC1E0579C83D290A063020CE87C5334BD9B",
            "validator_index": "53",
            "height": "22158",
            "round": "1",
            "timestamp": "2018-07-31T18:32:24.134188462Z",
            "type": 2,
            "block_id": {
              "hash": "9F4527BA76F66775A924EDED923B1CC38E0B42E7",
              "parts": {
                "total": "1",
                "hash": "49CD0E59A2ED258B5F58226F5484552C747EADE9"
              }
            },
            "signature": {
              "type": "tendermint/SignatureEd25519",
              "value": "5sHyj4pGoLFkunNFKQrxCP72zNV4OYuHTaSL8tAA98dGPW/FXbVwasfi3dATQoJlsrmcp2qfjWj5ubiK3mVHCg=="
            }
          },
          {
            "validator_address": "96BDE45EC52606CF5CB59853097871AD60680549",
            "validator_index": "54",
            "height": "22158",
            "round": "1",
            "timestamp": "2018-07-31T18:32:24.154607274Z",
            "type": 2,
            "block_id": {
              "hash": "9F4527BA76F66775A924EDED923B1CC38E0B42E7",
              "parts": {
                "total": "1",
                "hash": "49CD0E59A2ED258B5F58226F5484552C747EADE9"
              }
            },
            "signature": {
              "type": "tendermint/SignatureEd25519",
              "value": "TIBDoLKDWkmRdHtb7UFlYwJVwK+yUl/RqALTl6pq1TOVH9RHVEHPNNF0NpzSiMXSbeIqzR23RaEoEDUyPG1bAw=="
            }
          },
          {
            "validator_address": "970CD321881185BF83DB2923C321B0E75FDBB2B8",
            "validator_index": "55",
            "height": "22158",
            "round": "1",
            "timestamp": "2018-07-31T18:32:24.204512048Z",
            "type": 2,
            "block_id": {
              "hash": "9F4527BA76F66775A924EDED923B1CC38E0B42E7",
              "parts": {
                "total": "1",
                "hash": "49CD0E59A2ED258B5F58226F5484552C747EADE9"
              }
            },
            "signature": {
              "type": "tendermint/SignatureEd25519",
              "value": "54C4LEEzZiQd2RoGjQbSGVy5YISbRFKWHffzaTOzBjESWEE2DbOSebtfg9hH+halok+9FZmTT1zew+4SVRFKDg=="
            }
          },
          {
            "validator_address": "97DBB3D4B3D6C29287244864448F651DD5B07390",
            "validator_index": "56",
            "height": "22158",
            "round": "1",
            "timestamp": "2018-07-31T18:32:24.263005272Z",
            "type": 2,
            "block_id": {
              "hash": "9F4527BA76F66775A924EDED923B1CC38E0B42E7",
              "parts": {
                "total": "1",
                "hash": "49CD0E59A2ED258B5F58226F5484552C747EADE9"
              }
            },
            "signature": {
              "type": "tendermint/SignatureEd25519",
              "value": "7ZmER38bnNpehufOQoGWxCLTc32FpDwY8s0/BugnLuB9ia9ZZl1O4SRguTE9ty5d2ggVT34O46JC4YC6BADRCw=="
            }
          },
          {
            "validator_address": "9C29C9B76D27586E4D9AD2AED0E943162645E55C",
            "validator_index": "57",
            "height": "22158",
            "round": "1",
            "timestamp": "2018-07-31T18:32:24.104952295Z",
            "type": 2,
            "block_id": {
              "hash": "9F4527BA76F66775A924EDED923B1CC38E0B42E7",
              "parts": {
                "total": "1",
                "hash": "49CD0E59A2ED258B5F58226F5484552C747EADE9"
              }
            },
            "signature": {
              "type": "tendermint/SignatureEd25519",
              "value": "T61Hv6JvLoV6K41zVKh7x2LKTuUhI7FBvtuemZPThN5eHJCoc73MqEQQXAFZmYp0kgsEMsIMS0TyDc88euhvDw=="
            }
          },
          {
            "validator_address": "9D93AD02FE1BD7E76B9E58D7EB461088EAD011E5",
            "validator_index": "58",
            "height": "22158",
            "round": "1",
            "timestamp": "2018-07-31T18:32:24.112573345Z",
            "type": 2,
            "block_id": {
              "hash": "9F4527BA76F66775A924EDED923B1CC38E0B42E7",
              "parts": {
                "total": "1",
                "hash": "49CD0E59A2ED258B5F58226F5484552C747EADE9"
              }
            },
            "signature": {
              "type": "tendermint/SignatureEd25519",
              "value": "A2El8HsYbMAZlNuN2L2PoCaMbhroWGj7m6u4Fbf3RqxlMH/dPM39vMYo7dEXAR+MxZPvrO6rU8E6lIG6sNS2Bw=="
            }
          },
          {
            "validator_address": "A0A6466F4ABEA09C3B55E3709AFDE217A103209F",
            "validator_index": "59",
            "height": "22158",
            "round": "1",
            "timestamp": "2018-07-31T18:32:24.082113841Z",
            "type": 2,
            "block_id": {
              "hash": "9F4527BA76F66775A924EDED923B1CC38E0B42E7",
              "parts": {
                "total": "1",
                "hash": "49CD0E59A2ED258B5F58226F5484552C747EADE9"
              }
            },
            "signature": {
              "type": "tendermint/SignatureEd25519",
              "value": "8v2H7jS7edQRJyXOLaIa+0FXBxJl/rCa055p/FO0J3Y7fnraHT9y6MewlsYj2jkQnSUcYZDSP4tXe4xJFRsqAg=="
            }
          },
          {
            "validator_address": "A5868971300F155020634D7BB49C7634F7AACCD3",
            "validator_index": "60",
            "height": "22158",
            "round": "1",
            "timestamp": "2018-07-31T18:32:24.151701819Z",
            "type": 2,
            "block_id": {
              "hash": "9F4527BA76F66775A924EDED923B1CC38E0B42E7",
              "parts": {
                "total": "1",
                "hash": "49CD0E59A2ED258B5F58226F5484552C747EADE9"
              }
            },
            "signature": {
              "type": "tendermint/SignatureEd25519",
              "value": "jCpzp/9+by+nm4DWmg/2VaPr7oBmQJWM8RmDYTVK1B36V0LQZj7jNEWLCN/0u7XMDpM2oNdKdXI+vs6+Zxj5CQ=="
            }
          },
          {
            "validator_address": "A6B3A5B5D982CFD7B5FDFA15CF5A720E7AE25E7F",
            "validator_index": "61",
            "height": "22158",
            "round": "1",
            "timestamp": "2018-07-31T18:32:24.100377048Z",
            "type": 2,
            "block_id": {
              "hash": "9F4527BA76F66775A924EDED923B1CC38E0B42E7",
              "parts": {
                "total": "1",
                "hash": "49CD0E59A2ED258B5F58226F5484552C747EADE9"
              }
            },
            "signature": {
              "type": "tendermint/SignatureEd25519",
              "value": "ejJZrGS4ecGTn4LAturGyAhErZRGUdh+erx6nPmor4dDJs5CJ7Efudjk8M66ESaIL47LDSdYSMCnC1GC4g9OBg=="
            }
          },
          {
            "validator_address": "AC96444A9083890B7C7B430DB17BF1D3EA5EED04",
            "validator_index": "62",
            "height": "22158",
            "round": "1",
            "timestamp": "2018-07-31T18:32:24.150420643Z",
            "type": 2,
            "block_id": {
              "hash": "9F4527BA76F66775A924EDED923B1CC38E0B42E7",
              "parts": {
                "total": "1",
                "hash": "49CD0E59A2ED258B5F58226F5484552C747EADE9"
              }
            },
            "signature": {
              "type": "tendermint/SignatureEd25519",
              "value": "3FIxvSoR6lpw+x4tGwwzu+g3tyCsFN/tgXMMuQkx2HPyxsS/XMObeo5qcK9S4umKF9FeW08aBPw62o2rLWuyCw=="
            }
          },
          {
            "validator_address": "ACB97FDA2D940AF0709B73537C458EB988AD2893",
            "validator_index": "63",
            "height": "22158",
            "round": "1",
            "timestamp": "2018-07-31T18:32:24.098182722Z",
            "type": 2,
            "block_id": {
              "hash": "9F4527BA76F66775A924EDED923B1CC38E0B42E7",
              "parts": {
                "total": "1",
                "hash": "49CD0E59A2ED258B5F58226F5484552C747EADE9"
              }
            },
            "signature": {
              "type": "tendermint/SignatureEd25519",
              "value": "NBplDGocBtzGX6AdTqAgxJ/wYTcMX5GGVXW+hLRv5LoDIQSGk6gwW+dfyWxGR30Nwg1okwvz2vcWyOEizfgRDQ=="
            }
          },
          {
            "validator_address": "B197425B3210375F211661DE02EF2AE36580EB0F",
            "validator_index": "64",
            "height": "22158",
            "round": "1",
            "timestamp": "2018-07-31T18:32:24.210232794Z",
            "type": 2,
            "block_id": {
              "hash": "9F4527BA76F66775A924EDED923B1CC38E0B42E7",
              "parts": {
                "total": "1",
                "hash": "49CD0E59A2ED258B5F58226F5484552C747EADE9"
              }
            },
            "signature": {
              "type": "tendermint/SignatureEd25519",
              "value": "J9LOi3ipPl6gWfq5/KJd1oky/2o83UJEPf6v4U/q+agAdkTrh0q1x2PQJdDJs6N4qwiQkSMZJNFG+Xyps4fxBA=="
            }
          },
          {
            "validator_address": "B45E54D2D1CB5A4CCD1D49016608C18E7C56B270",
            "validator_index": "65",
            "height": "22158",
            "round": "1",
            "timestamp": "2018-07-31T18:32:24.206109963Z",
            "type": 2,
            "block_id": {
              "hash": "9F4527BA76F66775A924EDED923B1CC38E0B42E7",
              "parts": {
                "total": "1",
                "hash": "49CD0E59A2ED258B5F58226F5484552C747EADE9"
              }
            },
            "signature": {
              "type": "tendermint/SignatureEd25519",
              "value": "wgs+qpeYDOnSnVUFnCEPtF55sNVUbt657hAvmfBXo5pD7F36BtqshGoDVH+QGNbpVQ6WDul9lNEG24yTw0vKDw=="
            }
          },
          {
            "validator_address": "B59A34C0BE4EC73AF6A67D274F1695C9259C237C",
            "validator_index": "66",
            "height": "22158",
            "round": "1",
            "timestamp": "2018-07-31T18:32:24.380757762Z",
            "type": 2,
            "block_id": {
              "hash": "9F4527BA76F66775A924EDED923B1CC38E0B42E7",
              "parts": {
                "total": "1",
                "hash": "49CD0E59A2ED258B5F58226F5484552C747EADE9"
              }
            },
            "signature": {
              "type": "tendermint/SignatureEd25519",
              "value": "erjAQ3HfrxJunypJy5GdTAZTxmroR8EtTVFKHTnGeglD4IS9dvbvhn5jhANtIF6UldeYtqI4S+3RI/L/Gw2uCA=="
            }
          },
          {
            "validator_address": "BB1276BE89834835428664408917649FEEF5D90C",
            "validator_index": "67",
            "height": "22158",
            "round": "1",
            "timestamp": "2018-07-31T18:32:24.229961573Z",
            "type": 2,
            "block_id": {
              "hash": "9F4527BA76F66775A924EDED923B1CC38E0B42E7",
              "parts": {
                "total": "1",
                "hash": "49CD0E59A2ED258B5F58226F5484552C747EADE9"
              }
            },
            "signature": {
              "type": "tendermint/SignatureEd25519",
              "value": "OZQfMtsSdP/u1SGMtiXgzZVSHCCu29vmbrAdKJGyLsWxzH4I1749zYDY+PpCgpUkYVNflWb3E1A7tddbPgvECw=="
            }
          },
          {
            "validator_address": "BC36FEDD6EF6071118A3E51859DF3831A2EC4782",
            "validator_index": "68",
            "height": "22158",
            "round": "1",
            "timestamp": "2018-07-31T18:32:24.110574837Z",
            "type": 2,
            "block_id": {
              "hash": "9F4527BA76F66775A924EDED923B1CC38E0B42E7",
              "parts": {
                "total": "1",
                "hash": "49CD0E59A2ED258B5F58226F5484552C747EADE9"
              }
            },
            "signature": {
              "type": "tendermint/SignatureEd25519",
              "value": "M33zuwAkkW5HJHZlJHzpSNKc8WLm9A7m+EySa7hcjEmpebNe35rEczxkWw54SXO/DP5EYBBDa2quZHp74EnGDA=="
            }
          },
          {
            "validator_address": "BD9D0DA513BF099DB4BB6E725A4E19832789882F",
            "validator_index": "69",
            "height": "22158",
            "round": "1",
            "timestamp": "2018-07-31T18:32:24.150883939Z",
            "type": 2,
            "block_id": {
              "hash": "9F4527BA76F66775A924EDED923B1CC38E0B42E7",
              "parts": {
                "total": "1",
                "hash": "49CD0E59A2ED258B5F58226F5484552C747EADE9"
              }
            },
            "signature": {
              "type": "tendermint/SignatureEd25519",
              "value": "Z8FVY71WQM1oST1gqaCxtMLn7Y/OdR7KkGTfMq8zaKMNdA3U9eIpZoXDRh7H9/uVzHlqePCO2friZhLtp4LmBQ=="
            }
          },
          {
            "validator_address": "C1134A2FF8F7338E7CDB3FE57DDD2A655DEB1E22",
            "validator_index": "70",
            "height": "22158",
            "round": "1",
            "timestamp": "2018-07-31T18:32:24.187020925Z",
            "type": 2,
            "block_id": {
              "hash": "9F4527BA76F66775A924EDED923B1CC38E0B42E7",
              "parts": {
                "total": "1",
                "hash": "49CD0E59A2ED258B5F58226F5484552C747EADE9"
              }
            },
            "signature": {
              "type": "tendermint/SignatureEd25519",
              "value": "KwvLxmR6Bz33q/9emOamEoedP8v0QSgsoqmlM+qeHridrKeDA5chmFQm1E0FSD88xmYCl5wXkK4iX+4yaPhGCA=="
            }
          },
          {
            "validator_address": "C39A8A2B85198DCB8F23AD1F6C198E2BA7AB5D60",
            "validator_index": "71",
            "height": "22158",
            "round": "1",
            "timestamp": "2018-07-31T18:32:24.090712356Z",
            "type": 2,
            "block_id": {
              "hash": "9F4527BA76F66775A924EDED923B1CC38E0B42E7",
              "parts": {
                "total": "1",
                "hash": "49CD0E59A2ED258B5F58226F5484552C747EADE9"
              }
            },
            "signature": {
              "type": "tendermint/SignatureEd25519",
              "value": "R16TpsUBAgrYNvzBruaOt/jxZsx01OeN9wJYWU+FY6itCJNrD0SXJvr9tX40xMb/MIZIAyOgNtWEF/KVbxvpAg=="
            }
          },
          {
            "validator_address": "C4335190C3B5BD4BA5568BC0F99C34162D940D08",
            "validator_index": "72",
            "height": "22158",
            "round": "1",
            "timestamp": "2018-07-31T18:32:24.2182124Z",
            "type": 2,
            "block_id": {
              "hash": "9F4527BA76F66775A924EDED923B1CC38E0B42E7",
              "parts": {
                "total": "1",
                "hash": "49CD0E59A2ED258B5F58226F5484552C747EADE9"
              }
            },
            "signature": {
              "type": "tendermint/SignatureEd25519",
              "value": "Rtk2A83jghDo/hfUfwFdGiag1VQKNHPsThunRHxbbaCEw+zm6CpGVXINUMGsRDdchCcEPujIIoQaAtnE77pYAg=="
            }
          },
          {
            "validator_address": "C561CFA081677046376396922E7576E5F7B316AD",
            "validator_index": "73",
            "height": "22158",
            "round": "1",
            "timestamp": "2018-07-31T18:32:24.239338935Z",
            "type": 2,
            "block_id": {
              "hash": "9F4527BA76F66775A924EDED923B1CC38E0B42E7",
              "parts": {
                "total": "1",
                "hash": "49CD0E59A2ED258B5F58226F5484552C747EADE9"
              }
            },
            "signature": {
              "type": "tendermint/SignatureEd25519",
              "value": "SZczQTaA5vDla4u8z4eb8nuxXod+6NaJ8waH3MTMxdTMgEkITP8YbsCoNYfMqW0gvxgbylTVp8BTq0Qdf5gFAw=="
            }
          },
          {
            "validator_address": "CE589EA77B056D268D30D1DC1D68A70E0F885E95",
            "validator_index": "74",
            "height": "22158",
            "round": "1",
            "timestamp": "2018-07-31T18:32:24.158054343Z",
            "type": 2,
            "block_id": {
              "hash": "9F4527BA76F66775A924EDED923B1CC38E0B42E7",
              "parts": {
                "total": "1",
                "hash": "49CD0E59A2ED258B5F58226F5484552C747EADE9"
              }
            },
            "signature": {
              "type": "tendermint/SignatureEd25519",
              "value": "7F/pLEDVcn7vtG+f1wXUxj7l5CaNoAL9Q1Yxq80hXGzIXJSde611aeMuptv8Y6eQYeVanoylnE52UqXExmQhDg=="
            }
          },
          {
            "validator_address": "CEB97DB5CB18270247ABDE6CF2F84F9AEE8A2904",
            "validator_index": "75",
            "height": "22158",
            "round": "1",
            "timestamp": "2018-07-31T18:32:24.44075826Z",
            "type": 2,
            "block_id": {
              "hash": "9F4527BA76F66775A924EDED923B1CC38E0B42E7",
              "parts": {
                "total": "1",
                "hash": "49CD0E59A2ED258B5F58226F5484552C747EADE9"
              }
            },
            "signature": {
              "type": "tendermint/SignatureEd25519",
              "value": "5qp1YzHnoE49zMVmiXqY3aY6hHIyAek57Y5H5Rhaq5b9A77tiq3mv5RGPhwY13xJqWTqTW3wEm2vB3nOafUVAQ=="
            }
          },
          {
            "validator_address": "CF205769734F5758CC39F907EFB73D6BAF915FB1",
            "validator_index": "76",
            "height": "22158",
            "round": "1",
            "timestamp": "2018-07-31T18:32:24.241401806Z",
            "type": 2,
            "block_id": {
              "hash": "9F4527BA76F66775A924EDED923B1CC38E0B42E7",
              "parts": {
                "total": "1",
                "hash": "49CD0E59A2ED258B5F58226F5484552C747EADE9"
              }
            },
            "signature": {
              "type": "tendermint/SignatureEd25519",
              "value": "4Gp25KR4VZQLUZOwB4NYwsJNqN6YIPhr8E7Cj/sK+c1tZnkonq80ZV83UBgB9wrvNy1oMxAHyNleire0hYsKBQ=="
            }
          },
          {
            "validator_address": "D2134B826A1E25A955905CB79A4D8731CAFA0CCE",
            "validator_index": "77",
            "height": "22158",
            "round": "1",
            "timestamp": "2018-07-31T18:32:24.295544597Z",
            "type": 2,
            "block_id": {
              "hash": "9F4527BA76F66775A924EDED923B1CC38E0B42E7",
              "parts": {
                "total": "1",
                "hash": "49CD0E59A2ED258B5F58226F5484552C747EADE9"
              }
            },
            "signature": {
              "type": "tendermint/SignatureEd25519",
              "value": "WGIX/LZvQImh4aVY3lIf+ND9lIbENgoQ0XDItNAVv0zgPZITwOeoSswgkVsAekrXxtkfFscQxCTooNm7fTf1BA=="
            }
          },
          {
            "validator_address": "D6285C3422C8886445D53757CBE12D2B91B5A9D0",
            "validator_index": "78",
            "height": "22158",
            "round": "1",
            "timestamp": "2018-07-31T18:32:06.808093858Z",
            "type": 2,
            "block_id": {
              "hash": "9F4527BA76F66775A924EDED923B1CC38E0B42E7",
              "parts": {
                "total": "1",
                "hash": "49CD0E59A2ED258B5F58226F5484552C747EADE9"
              }
            },
            "signature": {
              "type": "tendermint/SignatureEd25519",
              "value": "Y1T1kKRcEAljzPhvqbYQKlmp/NtOX1/b7mJYG1v2ociFFOjnnP9iFhC8xZKxK3N4Ifc5BGhdbi/S1JukCjVqDQ=="
            }
          },
          {
            "validator_address": "D77FB84A729972CD3E757C9BEB61561855832B92",
            "validator_index": "79",
            "height": "22158",
            "round": "1",
            "timestamp": "2018-07-31T18:32:24.233922655Z",
            "type": 2,
            "block_id": {
              "hash": "9F4527BA76F66775A924EDED923B1CC38E0B42E7",
              "parts": {
                "total": "1",
                "hash": "49CD0E59A2ED258B5F58226F5484552C747EADE9"
              }
            },
            "signature": {
              "type": "tendermint/SignatureEd25519",
              "value": "Mr3BLw7YTVi4+Bevy6jiTp7hSvRE2m1PHmJFy9CWFDdbBOwxaBeiEi/Zd7h3GNxu1z6Ii38jt1f9w1lxLPKWDw=="
            }
          },
          {
            "validator_address": "DB7E6732471D3EA5C90C17A9974D9F88AB45F2FB",
            "validator_index": "80",
            "height": "22158",
            "round": "1",
            "timestamp": "2018-07-31T18:32:24.170318484Z",
            "type": 2,
            "block_id": {
              "hash": "9F4527BA76F66775A924EDED923B1CC38E0B42E7",
              "parts": {
                "total": "1",
                "hash": "49CD0E59A2ED258B5F58226F5484552C747EADE9"
              }
            },
            "signature": {
              "type": "tendermint/SignatureEd25519",
              "value": "JByqymDrZzJ/DNN0XXW9RUbQSHgmEZgZh6Iyv6uVcFJ2wJjNTMj1HlWL9cwsrp3Cl/3+fWZ75AsE8LOefpp7BA=="
            }
          },
          {
            "validator_address": "DF54B862410BCD9B5C516FBB6C56BDC826ED6FA7",
            "validator_index": "81",
            "height": "22158",
            "round": "1",
            "timestamp": "2018-07-31T18:32:24.224849669Z",
            "type": 2,
            "block_id": {
              "hash": "9F4527BA76F66775A924EDED923B1CC38E0B42E7",
              "parts": {
                "total": "1",
                "hash": "49CD0E59A2ED258B5F58226F5484552C747EADE9"
              }
            },
            "signature": {
              "type": "tendermint/SignatureEd25519",
              "value": "niQxgsYMxceuZ/Db+satedm7ODTirbBNK3QB7kWG20G0xlfD0i4Xu9HWaSkz1sVbMwBhzzHEcGYnwaHatKtZCw=="
            }
          },
          {
            "validator_address": "DFAF0C8B1B78D6D552B0189DE3ACA351439A1319",
            "validator_index": "82",
            "height": "22158",
            "round": "1",
            "timestamp": "2018-07-31T18:32:24.126842665Z",
            "type": 2,
            "block_id": {
              "hash": "9F4527BA76F66775A924EDED923B1CC38E0B42E7",
              "parts": {
                "total": "1",
                "hash": "49CD0E59A2ED258B5F58226F5484552C747EADE9"
              }
            },
            "signature": {
              "type": "tendermint/SignatureEd25519",
              "value": "v3CPeSYFJfT99OFCoLmzRoVMel3ED8vaphJhbc+dcjESo1Bqt/2gRJskb5k14sGEw27F96lxpukjuUlF3HUQCw=="
            }
          },
          {
            "validator_address": "E1DBC77881161A5A3A8536A57536EAE546A75D69",
            "validator_index": "83",
            "height": "22158",
            "round": "1",
            "timestamp": "2018-07-31T18:32:24.111049232Z",
            "type": 2,
            "block_id": {
              "hash": "9F4527BA76F66775A924EDED923B1CC38E0B42E7",
              "parts": {
                "total": "1",
                "hash": "49CD0E59A2ED258B5F58226F5484552C747EADE9"
              }
            },
            "signature": {
              "type": "tendermint/SignatureEd25519",
              "value": "cXkhv12MU7C/w5dnCvxFbF6ba6MRvhbzI7mfcrt3923OQBDEXJuEswPKftxhKhwqdnwSPbWbVf3l2n5AkgyjCw=="
            }
          },
          {
            "validator_address": "E300E9D484374C1D3E97C1D93CAC3B160A056298",
            "validator_index": "84",
            "height": "22158",
            "round": "1",
            "timestamp": "2018-07-31T18:32:24.379853138Z",
            "type": 2,
            "block_id": {
              "hash": "9F4527BA76F66775A924EDED923B1CC38E0B42E7",
              "parts": {
                "total": "1",
                "hash": "49CD0E59A2ED258B5F58226F5484552C747EADE9"
              }
            },
            "signature": {
              "type": "tendermint/SignatureEd25519",
              "value": "aebfNgOiwzu1bf9pQA7q/dPgP4kS1LN1XZWlzyAYZ9PeoU4TBsbTyrL6B2PcbxR7OMIrymqRSst/qJensiqkBA=="
            }
          },
          {
            "validator_address": "E39B5778E0D4297A46F45CF6940B0A163A430FF8",
            "validator_index": "85",
            "height": "22158",
            "round": "1",
            "timestamp": "2018-07-31T18:32:24.13109921Z",
            "type": 2,
            "block_id": {
              "hash": "9F4527BA76F66775A924EDED923B1CC38E0B42E7",
              "parts": {
                "total": "1",
                "hash": "49CD0E59A2ED258B5F58226F5484552C747EADE9"
              }
            },
            "signature": {
              "type": "tendermint/SignatureEd25519",
              "value": "28Di/2MiF/nGG4xaBeO+j4aM5vaBjdnmXVr+n2d3vot4+5LaFj3FsSxSwfI24aT9ah1GD4brba4CACG0yeBNDw=="
            }
          },
          {
            "validator_address": "E3B19738F7132F950668504D326C7660F159D170",
            "validator_index": "86",
            "height": "22158",
            "round": "1",
            "timestamp": "2018-07-31T18:32:24.158915898Z",
            "type": 2,
            "block_id": {
              "hash": "9F4527BA76F66775A924EDED923B1CC38E0B42E7",
              "parts": {
                "total": "1",
                "hash": "49CD0E59A2ED258B5F58226F5484552C747EADE9"
              }
            },
            "signature": {
              "type": "tendermint/SignatureEd25519",
              "value": "A5RaF/ycg8Rbeh3Z1eu0kdba0snJspj+9lIfDtaI+vletskLd9boEGpn/bwk/JSdCkbpNz0av4xeogyl3TmEDg=="
            }
          },
          {
            "validator_address": "E42F8AEABB685219F7027F54D2B0DBC7846F633A",
            "validator_index": "87",
            "height": "22158",
            "round": "1",
            "timestamp": "2018-07-31T18:32:23.278399166Z",
            "type": 2,
            "block_id": {
              "hash": "9F4527BA76F66775A924EDED923B1CC38E0B42E7",
              "parts": {
                "total": "1",
                "hash": "49CD0E59A2ED258B5F58226F5484552C747EADE9"
              }
            },
            "signature": {
              "type": "tendermint/SignatureEd25519",
              "value": "6euhJlHvO/b8APblO33YuwSpa0xD+gHjBzBOkxcp3TO1PWW7IG19sDevmagfXP+3qNpjUzJHr76Per9zhI84Bg=="
            }
          },
          {
            "validator_address": "E4E6C2E81269DFFA196C17F98240E491479A6008",
            "validator_index": "88",
            "height": "22158",
            "round": "1",
            "timestamp": "2018-07-31T18:32:24.196405533Z",
            "type": 2,
            "block_id": {
              "hash": "9F4527BA76F66775A924EDED923B1CC38E0B42E7",
              "parts": {
                "total": "1",
                "hash": "49CD0E59A2ED258B5F58226F5484552C747EADE9"
              }
            },
            "signature": {
              "type": "tendermint/SignatureEd25519",
              "value": "hyraiopiA1xJyYQi6w6Q5s0G8ePCd4HKCmvNba7Df2pHbY9pJqhxjNTclClauijpIaUk09OfQTffrX7guBRTCQ=="
            }
          },
          {
            "validator_address": "E4FEB2846F4F3B0ECDCBE9C9DCB2248248A5AF0F",
            "validator_index": "89",
            "height": "22158",
            "round": "1",
            "timestamp": "2018-07-31T18:32:24.508788516Z",
            "type": 2,
            "block_id": {
              "hash": "9F4527BA76F66775A924EDED923B1CC38E0B42E7",
              "parts": {
                "total": "1",
                "hash": "49CD0E59A2ED258B5F58226F5484552C747EADE9"
              }
            },
            "signature": {
              "type": "tendermint/SignatureEd25519",
              "value": "WtBvuhF1jTLM02+o4bwQDtqLlu6PuCfNHYHzkEXqUVALdSbrzIiZOA+NtESX9hhOmRf5vqIh9YZfCKPqvUdwCw=="
            }
          },
          {
            "validator_address": "E6A7079D584B163750BE0831227F6B685DEAF3C1",
            "validator_index": "90",
            "height": "22158",
            "round": "1",
            "timestamp": "2018-07-31T18:32:24.215456053Z",
            "type": 2,
            "block_id": {
              "hash": "9F4527BA76F66775A924EDED923B1CC38E0B42E7",
              "parts": {
                "total": "1",
                "hash": "49CD0E59A2ED258B5F58226F5484552C747EADE9"
              }
            },
            "signature": {
              "type": "tendermint/SignatureEd25519",
              "value": "1osH5TufW4lzPG2vl6TD6UXbKig6fAZFjzklL+MPQ/PHCq3csvPGjxFfG2agDQQ+7uVwy+NTZKBMIZzVYqzSDA=="
            }
          },
          {
            "validator_address": "E7A30077D5D11867D3EAF99ED45BFDC1EB834509",
            "validator_index": "91",
            "height": "22158",
            "round": "1",
            "timestamp": "2018-07-31T18:32:24.190506521Z",
            "type": 2,
            "block_id": {
              "hash": "9F4527BA76F66775A924EDED923B1CC38E0B42E7",
              "parts": {
                "total": "1",
                "hash": "49CD0E59A2ED258B5F58226F5484552C747EADE9"
              }
            },
            "signature": {
              "type": "tendermint/SignatureEd25519",
              "value": "ZUQ2IGyzK8aojfZB0DdSvgav08wjdjtWTxTMSmtx5xogOQeVo1AHXvKCPC7WHeVcag4o+D/txBUdu1QiI+JLCQ=="
            }
          },
          {
            "validator_address": "EBC613967F66F4EC306852CDF58B4F151CF16738",
            "validator_index": "92",
            "height": "22158",
            "round": "1",
            "timestamp": "2018-07-31T18:32:24.297659622Z",
            "type": 2,
            "block_id": {
              "hash": "9F4527BA76F66775A924EDED923B1CC38E0B42E7",
              "parts": {
                "total": "1",
                "hash": "49CD0E59A2ED258B5F58226F5484552C747EADE9"
              }
            },
            "signature": {
              "type": "tendermint/SignatureEd25519",
              "value": "bkPwxZOw+1LwAlIL4gpyMxTIzEGY1PWVhyPhxv6csv5xwp4LRM+yFYReE18a5zZHKHdJk+x74W8GfUQdfmqNAQ=="
            }
          },
          {
            "validator_address": "EC3401441726C40ECC7E51F744483B05BC6DE9BD",
            "validator_index": "93",
            "height": "22158",
            "round": "1",
            "timestamp": "2018-07-31T18:32:24.160358614Z",
            "type": 2,
            "block_id": {
              "hash": "9F4527BA76F66775A924EDED923B1CC38E0B42E7",
              "parts": {
                "total": "1",
                "hash": "49CD0E59A2ED258B5F58226F5484552C747EADE9"
              }
            },
            "signature": {
              "type": "tendermint/SignatureEd25519",
              "value": "/YGBti57CCqZZMpaqx/kqirHRAFsidrT7fJrNdbVk45QS3Mrg96F1BtPsHIq0dDI+l4tW6DenalR2nQIMFE1Bw=="
            }
          },
          {
            "validator_address": "EC95B111D032181E1EC3B5E8875C5BB8E4AE7140",
            "validator_index": "94",
            "height": "22158",
            "round": "1",
            "timestamp": "2018-07-31T18:32:24.09960657Z",
            "type": 2,
            "block_id": {
              "hash": "9F4527BA76F66775A924EDED923B1CC38E0B42E7",
              "parts": {
                "total": "1",
                "hash": "49CD0E59A2ED258B5F58226F5484552C747EADE9"
              }
            },
            "signature": {
              "type": "tendermint/SignatureEd25519",
              "value": "A2UgCel5G8UJr2rtUjzwxdHb3esNI3RBjl0+tSqgq3nFfnVNBEI1YzIa+DtgyPeSler98iTQ2GB0dutfKwo/Cw=="
            }
          },
          {
            "validator_address": "F13C1805E8131C9B47E2A46818F57D8A2841E578",
            "validator_index": "95",
            "height": "22158",
            "round": "1",
            "timestamp": "2018-07-31T18:32:24.198965595Z",
            "type": 2,
            "block_id": {
              "hash": "9F4527BA76F66775A924EDED923B1CC38E0B42E7",
              "parts": {
                "total": "1",
                "hash": "49CD0E59A2ED258B5F58226F5484552C747EADE9"
              }
            },
            "signature": {
              "type": "tendermint/SignatureEd25519",
              "value": "eUeltWcKXGuhw9NVD9uwvOegGRWfOkHHyA8lsNS2T+0h1NkLOu4QpY7osoE+FcPKaupu/fQNTYN+OGLTabnWDw=="
            }
          },
          {
            "validator_address": "F23FF36BD5B90C33CE3A03ED72DBDCF5EC07D6AF",
            "validator_index": "96",
            "height": "22158",
            "round": "1",
            "timestamp": "2018-07-31T18:32:24.192331111Z",
            "type": 2,
            "block_id": {
              "hash": "9F4527BA76F66775A924EDED923B1CC38E0B42E7",
              "parts": {
                "total": "1",
                "hash": "49CD0E59A2ED258B5F58226F5484552C747EADE9"
              }
            },
            "signature": {
              "type": "tendermint/SignatureEd25519",
              "value": "JtQBhch1hx/FIyEVcS2ewEeNiL2ktQREmvc+rDLPBo13iVX8c4Ge0w3cx7W8CVS5irga3iMoFDndKB/v8nMKBg=="
            }
          },
          {
            "validator_address": "F4268597DE93E3E2CED38845010F8AA34E2A879E",
            "validator_index": "97",
            "height": "22158",
            "round": "1",
            "timestamp": "2018-07-31T18:32:24.207026337Z",
            "type": 2,
            "block_id": {
              "hash": "9F4527BA76F66775A924EDED923B1CC38E0B42E7",
              "parts": {
                "total": "1",
                "hash": "49CD0E59A2ED258B5F58226F5484552C747EADE9"
              }
            },
            "signature": {
              "type": "tendermint/SignatureEd25519",
              "value": "kB7gz5q6n5r24EmeRXuLToCRb9j3HY4yDkRf+2hVBqqv9Bj7ddd2Ew5aXB8sA7UlbU4ts1nepV9hxYSrOwYWDw=="
            }
          },
          {
            "validator_address": "F4DEB417999B04BE2EFF9FFE03FA373D86011CC0",
            "validator_index": "98",
            "height": "22158",
            "round": "1",
            "timestamp": "2018-07-31T18:32:24.150863197Z",
            "type": 2,
            "block_id": {
              "hash": "9F4527BA76F66775A924EDED923B1CC38E0B42E7",
              "parts": {
                "total": "1",
                "hash": "49CD0E59A2ED258B5F58226F5484552C747EADE9"
              }
            },
            "signature": {
              "type": "tendermint/SignatureEd25519",
              "value": "VTVJKvYt4kya9/wPlWdaZtGA0ERaBadc9YTinMQSStqnMCarNKIcpjgiRl1mmjxXGh5rt+1vo2ABdDm9OJuPBQ=="
            }
          },
          {
            "validator_address": "F6738260186D33D9C14FC6E7017AFE6BB952A63D",
            "validator_index": "99",
            "height": "22158",
            "round": "1",
            "timestamp": "2018-07-31T18:32:24.165375336Z",
            "type": 2,
            "block_id": {
              "hash": "9F4527BA76F66775A924EDED923B1CC38E0B42E7",
              "parts": {
                "total": "1",
                "hash": "49CD0E59A2ED258B5F58226F5484552C747EADE9"
              }
            },
            "signature": {
              "type": "tendermint/SignatureEd25519",
              "value": "mWVJWgwo84sFEOwnoMNJ9/gmMrN3T/8X4XF7wjeFjBprkf5OeUZxOkr7fMSmhJB1VlmqjF8i69XfgvLtBdnBDA=="
            }
          },
          null,
          {
            "validator_address": "FF3F3FCBCE7E62D7AD5506FF846EC4518D980515",
            "validator_index": "101",
            "height": "22158",
            "round": "1",
            "timestamp": "2018-07-31T18:32:24.132819211Z",
            "type": 2,
            "block_id": {
              "hash": "9F4527BA76F66775A924EDED923B1CC38E0B42E7",
              "parts": {
                "total": "1",
                "hash": "49CD0E59A2ED258B5F58226F5484552C747EADE9"
              }
            },
            "signature": {
              "type": "tendermint/SignatureEd25519",
              "value": "z1qXzhaY/U1bRXn5lmIXzwsFoUC7c46kXPHOsw3uU0JHnZ8HvnunTNRutEyk3QQsg/iRKOmErLy9rTGF+6JKAg=="
            }
          }
        ]
      }
    },
    "canonical": true
  }
}