{
  "jsonrpc": "2.0",
  "id": "",
  "result": {
    "SignedHeader": {
      "header": {
        "chain_id": "gaia-7004",
        "height": "22364",
        "time": "2018-07-31T18:52:59.879642007Z",
        "num_txs": "0",
        "last_block_id": {
          "hash": "9BD8767CF8AC8EE12CC4B54D92C89C5A91EB65D4",
          "parts": {
            "total": "1",
            "hash": "1016B60F4E50071186FAAB3EEF4D3B346585E91E"
          }
        },
        "total_txs": "603",
        "last_commit_hash": "B5312A34E63F96CBBB87F50631DE338E97DC9C8C",
        "data_hash": "",
        "validators_hash": "6FEC3966107424CCD01554D089F8E96A1158E077",
        "consensus_hash": "D6B74BB35BDFFD8392340F2A379173548AE188FE",
        "app_hash": "FE022945AF474FCF381C0746F37B7ED0214A9AF0",
        "last_results_hash": "",
        "evidence_hash": ""
      },
      "commit": {
        "block_id": {
          "hash": "DE331C0C684671588835293CBF7C497A0B589277",
          "parts": {
            "total": "1",
            "hash": "B3155AF5628ADE650BDF89CC3EBD46E2DA3EE687"
          }
        },
        "precommits": [
          {
            "validator_address": "029359C0C768096273A68ABC902A6B17AC8D1D70",
            "validator_index": "0",
            "height": "22364",
            "round": "1",
            "timestamp": "2018-07-31T18:53:00.825782004Z",
            "type": 2,
            "block_id": {
              "hash": "DE331C0C684671588835293CBF7C497A0B589277",
              "parts": {
                "total": "1",
                "hash": "B3155AF5628ADE650BDF89CC3EBD46E2DA3EE687"
              }
            },
            "signature": {
              "type": "tendermint/SignatureEd25519",
              "value": "a+otQDrjtwlSwIJGNPnj+WwD8TbW1aeeAp53ISnDMw9yn8GXkoh+rhlq9/OyV6hy4cKD4yHGFiftrkt2/VQnBw=="
            }
          },
          {
            "validator_address": "02FE4B97A8387F39D1AC19E0C1702B3CC614812F",
            "validator_index": "1",
            "height": "22364",
            "round": "1",
            "timestamp": "2018-07-31T18:53:00.779522016Z",
            "type": 2,
            "block_id": {
              "hash": "DE331C0C684671588835293CBF7C497A0B589277",
              "parts": {
                "total": "1",
                "hash": "B3155AF5628ADE650BDF89CC3EBD46E2DA3EE687"
              }
            },
            "signature": {
              "type": "tendermint/SignatureEd25519",
              "value": "Z6oO5hloLRfkTsRsXMIaiRJJpzu7zUzODlADc8zkbOIVuhyN84PFWtr+0urZUiiwn+B4hdoVygT4JcoZPzHgAw=="
            }
          },
          {
            "validator_address": "0548261C50222FD710EB5EBDF03A0E6567B21D20",
            "validator_index": "2",
            "height": "22364",
            "round": "1",
            "timestamp": "2018-07-31T18:53:00.818224049Z",
            "type": 2,
            "block_id": {
              "hash": "DE331C0C684671588835293CBF7C497A0B589277",
              "parts": {
                "total": "1",
                "hash": "B3155AF5628ADE650BDF89CC3EBD46E2DA3EE687"
              }
            },
            "signature": {
              "type": "tendermint/SignatureEd25519",
              "value": "1QnMwIxaviCTrncyjQCrwknitQqUZ3JQIK4KGxuConQsTWSimPo3WzZDpqYaMTCF1YY8RwV3DSWhQGyYi5kmAA=="
            }
          },
          {
            "validator_address": "09145E611CC27EEB944FC5A956DDF710F943B9EF",
            "validator_index": "3",
            "height": "22364",
            "round": "1",
            "timestamp": "2018-07-31T18:53:00.804282911Z",
            "type": 2,
            "block_id": {
              "hash": "DE331C0C684671588835293CBF7C497A0B589277",
              "parts": {
                "total": "1",
                "hash": "B3155AF5628ADE650BDF89CC3EBD46E2DA3EE687"
              }
            },
            "signature": {
              "type": "tendermint/SignatureEd25519",
              "value": "m8IL9VL76vL3Hufm0ATxKjn7rCXTmKCJ1cV4CU4KCDkSFMt9fjiuzM9l6sChlROxpKqSqndnoqOxUJnXl+5pAA=="
            }
          },
          {
            "validator_address": "0989D0355A104B67AE0AE028C68FB610690E174B",
            "validator_index": "4",
            "height": "22364",
            "round": "1",
            "timestamp": "2018-07-31T18:53:00.773166247Z",
            "type": 2,
            "block_id": {
              "hash": "DE331C0C684671588835293CBF7C497A0B589277",
              "parts": {
                "total": "1",
                "hash": "B3155AF5628ADE650BDF89CC3EBD46E2DA3EE687"
              }
            },
            "signature": {
              "type": "tendermint/SignatureEd25519",
              "value": "AzCVUCbFq3teyZv5WaRK7Tls3Lsnd4aePkP3tj0JxS3wukNUGdrpsbfvCz/fhJMAVc80sA238Iz41V56ctTqAg=="
            }
          },
          {
            "validator_address": "0A692DBFFE9E5DD28E7DECC33CED1AEB4C0D014E",
            "validator_index": "5",
            "height": "22364",
            "round": "1",
            "timestamp": "2018-07-31T18:53:00.946509704Z",
            "type": 2,
            "block_id": {
              "hash": "DE331C0C684671588835293CBF7C497A0B589277",
              "parts": {
                "total": "1",
                "hash": "B3155AF5628ADE650BDF89CC3EBD46E2DA3EE687"
              }
            },
            "signature": {
              "type": "tendermint/SignatureEd25519",
              "value": "G+emQtbXTZgruQYE94dCfEj60fJm7w5sUARU+vGcf0coz+CF+Zf3zubpzOZOlAAIEhhPJ6kdwGXsM4odfKa4BQ=="
            }
          },
          {
            "validator_address": "0DDF97111D73DB825138EC15EC27DE5FE8536901",
            "validator_index": "6",
            "height": "22364",
            "round": "1",
            "timestamp": "2018-07-31T18:53:00.836783917Z",
            "type": 2,
            "block_id": {
              "hash": "DE331C0C684671588835293CBF7C497A0B589277",
              "parts": {
                "total": "1",
                "hash": "B3155AF5628ADE650BDF89CC3EBD46E2DA3EE687"
              }
            },
            "signature": {
              "type": "tendermint/SignatureEd25519",
              "value": "AoeYgqR91i8mYpmXO2YDbgGyN5n+ltKnKLGro8YbNYFEAYSrQVH7tHx9qnQJgk6GabJOvWs4skDv0yLMqszwBg=="
            }
          },
          {
            "validator_address": "1751786EFC085D5331C61168FFFC8202EA151B4E",
            "validator_index": "7",
            "height": "22364",
            "round": "1",
            "timestamp": "2018-07-31T18:53:00.429079954Z",
            "type": 2,
            "block_id": {
              "hash": "DE331C0C684671588835293CBF7C497A0B589277",
              "parts": {
                "total": "1",
                "hash": "B3155AF5628ADE650BDF89CC3EBD46E2DA3EE687"
              }
            },
            "signature": {
              "type": "tendermint/SignatureEd25519",
              "value": "386Z6Y3p+QzptwavU/mmhsgBGHy46JGGrrnOJ7vxIiBpI4r3SmVvVRFCK0imWDAcH6lOaPIOTRTcxVeru+RFBQ=="
            }
          },
          {
            "validator_address": "17BB5CD01E8940FAFB948A04D5FA5A0645E5822E",
            "validator_index": "8",
            "height": "22364",
            "round": "1",
            "timestamp": "2018-07-31T18:53:00.758918815Z",
            "type": 2,
            "block_id": {
              "hash": "DE331C0C684671588835293CBF7C497A0B589277",
              "parts": {
                "total": "1",
                "hash": "B3155AF5628ADE650BDF89CC3EBD46E2DA3EE687"
              }
            },
            "signature": {
              "type": "tendermint/SignatureEd25519",
              "value": "0ayUEualGyj9M9GI8qKCxrvIvQJEr2kWnUOT7NcVhzJSwc80RYXujybfKBykDAYgjMfBEX+flOAf+ATErlsTCQ=="
            }
          },
          {
            "validator_address": "1C683A87904BC38F05004FE83301A3A3E35447EB",
            "validator_index": "9",
            "height": "22364",
            "round": "1",
            "timestamp": "2018-07-31T18:53:00.796013022Z",
            "type": 2,
            "block_id": {
              "hash": "DE331C0C684671588835293CBF7C497A0B589277",
              "parts": {
                "total": "1",
                "hash": "B3155AF5628ADE650BDF89CC3EBD46E2DA3EE687"
              }
            },
            "signature": {
              "type": "tendermint/SignatureEd25519",
              "value": "xYXhbWdIk4bMS3cN+PnLI+8TiC3g9I9QZB5tqd19VncH4iLkkTVdPQlAFEB3TEYCddKx8yKLkEJ+2Op+5lvLBQ=="
            }
          },
          {
            "validator_address": "1E9CE94FD0BA5CFEB901F90BC658D64D85B134D2",
            "validator_index": "10",
            "height": "22364",
            "round": "1",
            "timestamp": "2018-07-31T18:53:00.823233157Z",
            "type": 2,
            "block_id": {
              "hash": "DE331C0C684671588835293CBF7C497A0B589277",
              "parts": {
                "total": "1",
                "hash": "B3155AF5628ADE650BDF89CC3EBD46E2DA3EE687"
              }
            },
            "signature": {
              "type": "tendermint/SignatureEd25519",
              "value": "xNxrMnfQw7ImpoquZWBBx03vkyr3X15DxvzUqsVKy91LdsALQWo4Imxw99Pz+jdjgTAWj9WgfWmWAWtFAhnaAg=="
            }
          },
          {
            "validator_address": "1ECD8C5FE1341D74CDC633A245DD56858DE2F9A2",
            "validator_index": "11",
            "height": "22364",
            "round": "1",
            "timestamp": "2018-07-31T18:53:00.853793977Z",
            "type": 2,
            "block_id": {
              "hash": "DE331C0C684671588835293CBF7C497A0B589277",
              "parts": {
                "total": "1",
                "hash": "B3155AF5628ADE650BDF89CC3EBD46E2DA3EE687"
              }
            },
            "signature": {
              "type": "tendermint/SignatureEd25519",
              "value": "R6+M7sO1ZnziJCkqv98ZFyIy3KHJB3jB5slj66b+5MT1s7R2bpcb1U6m0eplUyEs2MAvequ2sTu6jDdKvH6dDw=="
            }
          },
          {
            "validator_address": "1F3A68CAAD483768AA2BF667DEF10F7104C89928",
            "validator_index": "12",
            "height": "22364",
            "round": "1",
            "timestamp": "2018-07-31T18:53:00.753981984Z",
            "type": 2,
            "block_id": {
              "hash": "DE331C0C684671588835293CBF7C497A0B589277",
              "parts": {
                "total": "1",
                "hash": "B3155AF5628ADE650BDF89CC3EBD46E2DA3EE687"
              }
            },
            "signature": {
              "type": "tendermint/SignatureEd25519",
              "value": "fnd54bJVTyzCFX26RxuLeG8xvZi5YVN1ygQQSj8tPV5Ai/9WIxtJ/m+BYDmWbl/gS7A2194BkGuiddMH7k8OCg=="
            }
          },
          {
            "validator_address": "23897586D68E2AC1C78E0EF5BB5DF5C8EAB18F50",
            "validator_index": "13",
            "height": "22364",
            "round": "1",
            "timestamp": "2018-07-31T18:53:00.808298613Z",
            "type": 2,
            "block_id": {
              "hash": "DE331C0C684671588835293CBF7C497A0B589277",
              "parts": {
                "total": "1",
                "hash": "B3155AF5628ADE650BDF89CC3EBD46E2DA3EE687"
              }
            },
            "signature": {
              "type": "tendermint/SignatureEd25519",
              "value": "hLY10T/5SOgy+RoH9O3WelOMz5VVwBsTLemHUER/d3CN5T6BJT5i2zuUQE0Q5uGCZCshj0pHqzqfA28rQC4ODg=="
            }
          },
          {
            "validator_address": "28770D17E8530825E7310A0659308654B7EC9682",
            "validator_index": "14",
            "height": "22364",
            "round": "1",
            "timestamp": "2018-07-31T18:53:00.761956256Z",
            "type": 2,
            "block_id": {
              "hash": "DE331C0C684671588835293CBF7C497A0B589277",
              "parts": {
                "total": "1",
                "hash": "B3155AF5628ADE650BDF89CC3EBD46E2DA3EE687"
              }
            },
            "signature": {
              "type": "tendermint/SignatureEd25519",
              "value": "Kda+LXdGzKIqKJ/JSPqbvgXWNPywZkRPsNPrb0E7ASByjFQqZ3C5fB0Cb2+gZ5o56ZLdXJaPpZFu+X0X2UIFCQ=="
            }
          },
          {
            "validator_address": "2A92EC3C642140202298D0E245095E0ECFC25228",
            "validator_index": "15",
            "height": "22364",
            "round": "1",
            "timestamp": "2018-07-31T18:53:00.813185936Z",
            "type": 2,
            "block_id": {
              "hash": "DE331C0C684671588835293CBF7C497A0B589277",
              "parts": {
                "total": "1",
                "hash": "B3155AF5628ADE650BDF89CC3EBD46E2DA3EE687"
              }
            },
            "signature": {
              "type": "tendermint/SignatureEd25519",
              "value": "RuiV+sRKAP3eyqWVbapRJB7rdNpvQgObT4vGeuopuuyEnqD7o6Z2014T+PK96qjjpGe5cMNdH02/SdDq+cqNAw=="
            }
          },
          {
            "validator_address": "33412C9A69C60CB0FAA24A5C5B3A906DE24B47C2",
            "validator_index": "16",
            "height": "22364",
            "round": "1",
            "timestamp": "2018-07-31T18:53:00.747939002Z",
            "type": 2,
            "block_id": {
              "hash": "DE331C0C684671588835293CBF7C497A0B589277",
              "parts": {
                "total": "1",
                "hash": "B3155AF5628ADE650BDF89CC3EBD46E2DA3EE687"
              }
            },
            "signature": {
              "type": "tendermint/SignatureEd25519",
              "value": "tjbjg1v8v3/EqzhY2rxRSI4kXrHZOFetH28Zs1eOEwbY9/v5Yo5avR36kpfH+DSZOz3NhznkuVLNjg0kdspdAg=="
            }
          },
          {
            "validator_address": "3383EF2A13B160C41947AC30434B274B2FAF0617",
            "validator_index": "17",
            "height": "22364",
            "round": "1",
            "timestamp": "2018-07-31T18:53:00.818015903Z",
            "type": 2,
            "block_id": {
              "hash": "DE331C0C684671588835293CBF7C497A0B589277",
              "parts": {
                "total": "1",
                "hash": "B3155AF5628ADE650BDF89CC3EBD46E2DA3EE687"
              }
            },
            "signature": {
              "type": "tendermint/SignatureEd25519",
              "value": "tkaIgY7WlIU55ctyLI2c+y+Za9KiJ+7U5W554fx188w8hQ24FIMivI3YKQYot6Lt01ndkrzs1rffU3lAXo7uCQ=="
            }
          },
          {
            "validator_address": "36E9B7FAEC964F97D84C028ED62493E373AD0B38",
            "validator_index": "18",
            "height": "22364",
            "round": "1",
            "timestamp": "2018-07-31T18:53:00.812580479Z",
            "type": 2,
            "block_id": {
              "hash": "DE331C0C684671588835293CBF7C497A0B589277",
              "parts": {
                "total": "1",
                "hash": "B3155AF5628ADE650BDF89CC3EBD46E2DA3EE687"
              }
            },
            "signature": {
              "type": "tendermint/SignatureEd25519",
              "value": "p//Fu5h7I6DWpUbFEA/6kfP59idnTcuzdeS1uUQxM/90zjJreZz6ZP3JkBiEGv8qNo0iQLCz8gHftWgezh2uDQ=="
            }
          },
          {
            "validator_address": "38A8D85D36BEA2E5FCF8A1E778F53628E450EF13",
            "validator_index": "19",
            "height": "22364",
            "round": "1",
            "timestamp": "2018-07-31T18:53:00.948429858Z",
            "type": 2,
            "block_id": {
              "hash": "DE331C0C684671588835293CBF7C497A0B589277",
              "parts": {
                "total": "1",
                "hash": "B3155AF5628ADE650BDF89CC3EBD46E2DA3EE687"
              }
            },
            "signature": {
              "type": "tendermint/SignatureEd25519",
              "value": "PmukKW/dybzykBRVjfsrSzDVhpMoEZAeTEcT8ua09ti+DB4yvZ28k6Kn41rMCfBfJ/MVdH8zzDpBsOdadPblDw=="
            }
          },
          {
            "validator_address": "39DFDA0C5DB84B269642188B23253508537798E6",
            "validator_index": "20",
            "height": "22364",
            "round": "1",
            "timestamp": "2018-07-31T18:53:00.789092148Z",
            "type": 2,
            "block_id": {
              "hash": "DE331C0C684671588835293CBF7C497A0B589277",
              "parts": {
                "total": "1",
                "hash": "B3155AF5628ADE650BDF89CC3EBD46E2DA3EE687"
              }
            },
            "signature": {
              "type": "tendermint/SignatureEd25519",
              "value": "ApzX70se7zozssOHNqed6Lj++JBWgfMBrfSSwedWdTYiTpVJZWW01tWBfb0gIKEgXvCj+aaiZgDK8OdT+1HtCA=="
            }
          },
          {
            "validator_address": "3AC99B708404452366E0953A4BE849226DC86CBC",
            "validator_index": "21",
            "height": "22364",
            "round": "1",
            "timestamp": "2018-07-31T18:53:00.900782255Z",
            "type": 2,
            "block_id": {
              "hash": "DE331C0C684671588835293CBF7C497A0B589277",
              "parts": {
                "total": "1",
                "hash": "B3155AF5628ADE650BDF89CC3EBD46E2DA3EE687"
              }
            },
            "signature": {
              "type": "tendermint/SignatureEd25519",
              "value": "9qSvxvAEhUEHN+iKRpwrXgzsT4AlijCJuLCLGHyVxQjvC6u+UvQCLto9PFy+Hu5PPuv70D9e29L0ZE/Ss8gSDQ=="
            }
          },
          {
            "validator_address": "3DCB822A10ED319EC7C4393D8E3FD4A41B15AAF2",
            "validator_index": "22",
            "height": "22364",
            "round": "1",
            "timestamp": "2018-07-31T18:53:00.753653597Z",
            "type": 2,
            "block_id": {
              "hash": "DE331C0C684671588835293CBF7C497A0B589277",
              "parts": {
                "total": "1",
                "hash": "B3155AF5628ADE650BDF89CC3EBD46E2DA3EE687"
              }
            },
            "signature": {
              "type": "tendermint/SignatureEd25519",
              "value": "lzpZU1qbnkL/ihdwAkrHre3HVzwBuiQZ5SFjGE11q8HzATNlbz9vPz2lmlovJQF9fIVEna/YYcslqwUR9KYLAQ=="
            }
          },
          {
            "validator_address": "3E899BA36A93C7370347BD5FE85909F2ECD93F8C",
            "validator_index": "23",
            "height": "22364",
            "round": "1",
            "timestamp": "2018-07-31T18:53:00.832245938Z",
            "type": 2,
            "block_id": {
              "hash": "DE331C0C684671588835293CBF7C497A0B589277",
              "parts": {
                "total": "1",
                "hash": "B3155AF5628ADE650BDF89CC3EBD46E2DA3EE687"
              }
            },
            "signature": {
              "type": "tendermint/SignatureEd25519",
              "value": "5NBqokVTQS8G1Mxgf9V8FlX3aWdBMMlrmYDeAEmQEjKV/4z6LU+PCnBM6SBdNnCQMoTaZWGEBzE/9r6+kOQ7Cg=="
            }
          },
          {
            "validator_address": "41CAB2E29E7D0F2282E3275938F188FF9386B84C",
            "validator_index": "24",
            "height": "22364",
            "round": "1",
            "timestamp": "2018-07-31T18:53:00.812425285Z",
            "type": 2,
            "block_id": {
              "hash": "DE331C0C684671588835293CBF7C497A0B589277",
              "parts": {
                "total": "1",
                "hash": "B3155AF5628ADE650BDF89CC3EBD46E2DA3EE687"
              }
            },
            "signature": {
              "type": "tendermint/SignatureEd25519",
              "value": "K8UtwStgfbBni1Z/ey8XtV4XNtSWmpMmiXX1A/eOTnKJGJ4p2+AG9yVdOBJOwLHiPXsVzzWcp4EmXAPvsHx5AQ=="
            }
          },
          {
            "validator_address": "462B656869DB02A8FD1077E255F8CC7401DC37C6",
            "validator_index": "25",
            "height": "22364",
            "round": "1",
            "timestamp": "2018-07-31T18:53:00.793998996Z",
            "type": 2,
            "block_id": {
              "hash": "DE331C0C684671588835293CBF7C497A0B589277",
              "parts": {
                "total": "1",
                "hash": "B3155AF5628ADE650BDF89CC3EBD46E2DA3EE687"
              }
            },
            "signature": {
              "type": "tendermint/SignatureEd25519",
              "value": "RItxt9U6CXiqFmJjqOLTi0BkAIVuDIa232obXsNfiddFtDGgLmr9vQMYOBjfMOlmo+ZqdtcPdTeWdlXly/9GAg=="
            }
          },
          {
            "validator_address": "48E5118163E5442068A1B5A42D2EEDBB75724935",
            "validator_index": "26",
            "height": "22364",
            "round": "1",
            "timestamp": "2018-07-31T18:53:00.914097593Z",
            "type": 2,
            "block_id": {
              "hash": "DE331C0C684671588835293CBF7C497A0B589277",
              "parts": {
                "total": "1",
                "hash": "B3155AF5628ADE650BDF89CC3EBD46E2DA3EE687"
              }
            },
            "signature": {
              "type": "tendermint/SignatureEd25519",
              "value": "9mT7kN1jCC9QMVkfkJayJiFypmWzABwwaVoTqY88/03sEV1TVz/X4DRvvUevxtnrVrfl3jP+3uL0Ogg8h/HJBw=="
            }
          },
          {
            "validator_address": "4944F8BBBB5303E17BC0607DF332320EDBC750EA",
            "validator_index": "27",
            "height": "22364",
            "round": "1",
            "timestamp": "2018-07-31T18:53:00.759357244Z",
            "type": 2,
            "block_id": {
              "hash": "DE331C0C684671588835293CBF7C497A0B589277",
              "parts": {
                "total": "1",
                "hash": "B3155AF5628ADE650BDF89CC3EBD46E2DA3EE687"
              }
            },
            "signature": {
              "type": "tendermint/SignatureEd25519",
              "value": "alAoLwEGd+AlvNsIGlbHGz5njJHERKuEwaq0p4bqtWZnoMUlyt3mdkxCjwZNP2LdZEiw97nAJYlys5CE6JP1Dg=="
            }
          },
          {
            "validator_address": "49841599DE675157CBE1E7D6B35BF8FFC23BD5CB",
            "validator_index": "28",
            "height": "22364",
            "round": "1",
            "timestamp": "2018-07-31T18:53:00.747732391Z",
            "type": 2,
            "block_id": {
              "hash": "DE331C0C684671588835293CBF7C497A0B589277",
              "parts": {
                "total": "1",
                "hash": "B3155AF5628ADE650BDF89CC3EBD46E2DA3EE687"
              }
            },
            "signature": {
              "type": "tendermint/SignatureEd25519",
              "value": "d537qrbrUoc9SNmVAgOoSBqgdfwrN2SA1TDoqwbI9DVJKMKkkhRTaQshR/yKscIsbr7QJOEe3qaY2sm2vl8VBw=="
            }
          },
          {
            "validator_address": "51386C2CF9556821D114D7E4945806802BADB28D",
            "validator_index": "29",
            "height": "22364",
            "round": "1",
            "timestamp": "2018-07-31T18:53:00.802348058Z",
            "type": 2,
            "block_id": {
              "hash": "DE331C0C684671588835293CBF7C497A0B589277",
              "parts": {
                "total": "1",
                "hash": "B3155AF5628ADE650BDF89CC3EBD46E2DA3EE687"
              }
            },
            "signature": {
              "type": "tendermint/SignatureEd25519",
              "value": "sWrGb6J4aJC3iIs4Y2Wic2b4r3YN7f8dlA58HmoViR8VExZfT2RYUUknocDnVz5mMl8ZyW6xruuASk0K6eLgDQ=="
            }
          },
          {
            "validator_address": "543564ECA3AFEFADC73EE8591AAC3A96F079BC8A",
            "validator_index": "30",
            "height": "22364",
            "round": "1",
            "timestamp": "2018-07-31T18:53:00.811095138Z",
            "type": 2,
            "block_id": {
              "hash": "DE331C0C684671588835293CBF7C497A0B589277",
              "parts": {
                "total": "1",
                "hash": "B3155AF5628ADE650BDF89CC3EBD46E2DA3EE687"
              }
            },
            "signature": {
              "type": "tendermint/SignatureEd25519",
              "value": "SxyQ7M0p+MSIfP21pSvpF7iyb9ixaHVdPfeDA2l+NpkUzE7UWvWcOk8kPDUfiuQRzjSCupBAVQSQvciFoAPRCw=="
            }
          },
          {
            "validator_address": "55D67B1A6DC13E96F8754A5A42EABC20F7F86664",
            "validator_index": "31",
            "height": "22364",
            "round": "1",
            "timestamp": "2018-07-31T18:53:00.744408761Z",
            "type": 2,
            "block_id": {
              "hash": "DE331C0C684671588835293CBF7C497A0B589277",
              "parts": {
                "total": "1",
                "hash": "B3155AF5628ADE650BDF89CC3EBD46E2DA3EE687"
              }
            },
            "signature": {
              "type": "tendermint/SignatureEd25519",
              "value": "CPMMKyFItQABvF6fEZtI3JT/MjXjz/66fHyjX/YLlD1Sn12THK4bB/C9g8XsNchmGWozZ2h20+2gPAzI8w1wDg=="
            }
          },
          {
            "validator_address": "570B6A755ED339EAC56BB3390A48069F6AC9449B",
            "validator_index": "32",
            "height": "22364",
            "round": "1",
            "timestamp": "2018-07-31T18:53:04.993469113Z",
            "type": 2,
            "block_id": {
              "hash": "DE331C0C684671588835293CBF7C497A0B589277",
              "parts": {
                "total": "1",
                "hash": "B3155AF5628ADE650BDF89CC3EBD46E2DA3EE687"
              }
            },
            "signature": {
              "type": "tendermint/SignatureEd25519",
              "value": "6YwuzpB9PBLhatfhTh9DSVj6wtr9YlX8JXb09u4LYgv8jvk3CdsA5sKvPgt2RTx0/qYtLwgHeTUbC48bwnbICA=="
            }
          },
          {
            "validator_address": "5BDF8EA41B1835FBAD865B181A2A4B23F511B5E4",
            "validator_index": "33",
            "height": "22364",
            "round": "1",
            "timestamp": "2018-07-31T18:53:00.734588212Z",
            "type": 2,
            "block_id": {
              "hash": "DE331C0C684671588835293CBF7C497A0B589277",
              "parts": {
                "total": "1",
                "hash": "B3155AF5628ADE650BDF89CC3EBD46E2DA3EE687"
              }
            },
            "signature": {
              "type": "tendermint/SignatureEd25519",
              "value": "5VZpXnrlA9XzBpi2hFVhrSkeczFB0NDYTHNEBBZDcelNJRPiRB/YICsbZsvI7q/8soNGh5RLWrEFoS5KEIfFBA=="
            }
          },
          {
            "validator_address": "60229E2E273297FE00219E46DFFB8F76844CDEF9",
            "validator_index": "34",
            "height": "22364",
            "round": "1",
            "timestamp": "2018-07-31T18:52:59.417723479Z",
            "type": 2,
            "block_id": {
              "hash": "DE331C0C684671588835293CBF7C497A0B589277",
              "parts": {
                "total": "1",
                "hash": "B3155AF5628ADE650BDF89CC3EBD46E2DA3EE687"
              }
            },
            "signature": {
              "type": "tendermint/SignatureEd25519",
              "value": "fbXX7c1C6WoE+byKLYTyYyZQIG+oWF+ERR6X4K5mLfqmyp0BSPbs1WYDqR09R4Eos1edGrcf5FXP7Je44jxtCQ=="
            }
          },
          {
            "validator_address": "62410D6D1CD98278136E4D0738AA0EA273CDFC54",
            "validator_index": "35",
            "height": "22364",
            "round": "1",
            "timestamp": "2018-07-31T18:53:00.846680743Z",
            "type": 2,
            "block_id": {
              "hash": "DE331C0C684671588835293CBF7C497A0B589277",
              "parts": {
                "total": "1",
                "hash": "B3155AF5628ADE650BDF89CC3EBD46E2DA3EE687"
              }
            },
            "signature": {
              "type": "tendermint/SignatureEd25519",
              "value": "PzJkYYyOY7JYasAVwwcoRIDw7oBTpxI9eOS4TumBhxx7IpnA2LDyXZwdqDYNeC3eF1Hp0r2HQ1xLx0tkDhmbCw=="
            }
          },
          {
            "validator_address": "632F5C139A5A9DFBFE5111DEE29FCFB6157207DC",
            "validator_index": "36",
            "height": "22364",
            "round": "1",
            "timestamp": "2018-07-31T18:53:00.815186715Z",
            "type": 2,
            "block_id": {
              "hash": "DE331C0C684671588835293CBF7C497A0B589277",
              "parts": {
                "total": "1",
                "hash": "B3155AF5628ADE650BDF89CC3EBD46E2DA3EE687"
              }
            },
            "signature": {
              "type": "tendermint/SignatureEd25519",
              "value": "5qnEOOvryWuKx0EkVX1f7rZogCoUrjo2CwpVRwFOWS+hIk6K1sWxo/c0hBgQFGIH3pxNSoDHyED2WM1bE1lpBA=="
            }
          },
          {
            "validator_address": "64F57F8E796A9B7B590C1EFA4123988C86631D39",
            "validator_index": "37",
            "height": "22364",
            "round": "1",
            "timestamp": "2018-07-31T18:53:00.770670063Z",
            "type": 2,
            "block_id": {
              "hash": "DE331C0C684671588835293CBF7C497A0B589277",
              "parts": {
                "total": "1",
                "hash": "B3155AF5628ADE650BDF89CC3EBD46E2DA3EE687"
              }
            },
            "signature": {
              "type": "tendermint/SignatureEd25519",
              "value": "iLJT/Ishok+0SKkEoaS5pEpWui5JbxPjMdCuR9+uEnlPy9OW8V3915SpTEtia+w5/bLpsW0txnRvR6k4n5dSDQ=="
            }
          },
          {
            "validator_address": "69D99B2C66043ACBEAA8447525C356AFC6408E0C",
            "validator_index": "38",
            "height": "22364",
            "round": "1",
            "timestamp": "2018-07-31T18:53:00.888485325Z",
            "type": 2,
            "block_id": {
              "hash": "DE331C0C684671588835293CBF7C497A0B589277",
              "parts": {
                "total": "1",
                "hash": "B3155AF5628ADE650BDF89CC3EBD46E2DA3EE687"
              }
            },
            "signature": {
              "type": "tendermint/SignatureEd25519",
              "value": "DNUmUOicZwohZHRHr14Uz1GBv1EcMtTTZjwL98yflqZB1TMogYrDaaeU8u4szBVSBqBqIsInLxBdfnEcj8duDQ=="
            }
          },
          {
            "validator_address": "69EDADFA4A803E9DBF548C900D4A465E7D154262",
            "validator_index": "39",
            "height": "22364",
            "round": "1",
            "timestamp": "2018-07-31T18:53:00.855333051Z",
            "type": 2,
            "block_id": {
              "hash": "DE331C0C684671588835293CBF7C497A0B589277",
              "parts": {
                "total": "1",
                "hash": "B3155AF5628ADE650BDF89CC3EBD46E2DA3EE687"
              }
            },
            "signature": {
              "type": "tendermint/SignatureEd25519",
              "value": "/V+XfxQpWhhvWMQGV3Jb7VhUnyDM+qSI6MFRcXWl+l+wetFtptwKDa2ln4TFO4hE9SzMdYjZKzKirWMaUE1TDQ=="
            }
          },
          {
            "validator_address": "6D3AD380E398D8592B03AA124BAFED5F125DF863",
            "validator_index": "40",
            "height": "22364",
            "round": "1",
            "timestamp": "2018-07-31T18:51:58.734738216Z",
            "type": 2,
            "block_id": {
              "hash": "DE331C0C684671588835293CBF7C497A0B589277",
              "parts": {
                "total": "1",
                "hash": "B3155AF5628ADE650BDF89CC3EBD46E2DA3EE687"
              }
            },
            "signature": {
              "type": "tendermint/SignatureEd25519",
              "value": "vfau9lTHxu/Nh6tpA+QCe5YTh/avPG8+NueT4WZqnOVyVQ/WLhcQ0lOXY0jTYPeWCiKS5Hs7UMPQH8iwzbVDCQ=="
            }
          },
          {
            "validator_address": "6F6C93B8BF3495063FEC9B5C771158607F4AE9D6",
            "validator_index": "41",
            "height": "22364",
            "round": "1",
            "timestamp": "2018-07-31T18:53:00.863859868Z",
            "type": 2,
            "block_id": {
              "hash": "DE331C0C684671588835293CBF7C497A0B589277",
              "parts": {
                "total": "1",
                "hash": "B3155AF5628ADE650BDF89CC3EBD46E2DA3EE687"
              }
            },
            "signature": {
              "type": "tendermint/SignatureEd25519",
              "value": "VgdrQo4dazzuH6WtXvf8vYhJslh6N4UOsXKiJVqLO7ZDSsPdgFmQuJimie+1oJdl3T1GO65pAYNTke9I21A1AA=="
            }
          },
          {
            "validator_address": "732CEEF54C374DDC6ADECBFD707AEFD07FEDC143",
            "validator_index": "42",
            "height": "22364",
            "round": "1",
            "timestamp": "2018-07-31T18:53:00.846482544Z",
            "type": 2,
            "block_id": {
              "hash": "DE331C0C684671588835293CBF7C497A0B589277",
              "parts": {
                "total": "1",
                "hash": "B3155AF5628ADE650BDF89CC3EBD46E2DA3EE687"
              }
            },
            "signature": {
              "type": "tendermint/SignatureEd25519",
              "value": "jgBte/Lg683KKN8BBrkkmxK/i16tV5qiDbFsfIWuGM6M5DPJKM6XlMTr6kGEcO4b238He0oAacYtMcyMjcqFBQ=="
            }
          },
          {
            "validator_address": "7393D691BFAE9661918C09932D4D9060AB40939B",
            "validator_index": "43",
            "height": "22364",
            "round": "1",
            "timestamp": "2018-07-31T18:53:00.949609297Z",
            "type": 2,
            "block_id": {
              "hash": "DE331C0C684671588835293CBF7C497A0B589277",
              "parts": {
                "total": "1",
                "hash": "B3155AF5628ADE650BDF89CC3EBD46E2DA3EE687"
              }
            },
            "signature": {
              "type": "tendermint/SignatureEd25519",
              "value": "BePEI4h+kTrb4BAy13QLycUVvGzBKehASca2YvkMOByGpr2HHbegLvGmfVpOtYKzKxAKj07+nvKk6pLovW4aAg=="
            }
          },
          {
            "validator_address": "751E43437224E8BB6D1569B3E2B2616B6E7F4397",
            "validator_index": "44",
            "height": "22364",
            "round": "1",
            "timestamp": "2018-07-31T18:53:00.819169228Z",
            "type": 2,
            "block_id": {
              "hash": "DE331C0C684671588835293CBF7C497A0B589277",
              "parts": {
                "total": "1",
                "hash": "B3155AF5628ADE650BDF89CC3EBD46E2DA3EE687"
              }
            },
            "signature": {
              "type": "tendermint/SignatureEd25519",
              "value": "cjVGmWVySF3X83VZ/MCYmWzelH8TgZIsV64Z5XP8AeUd3YXmeQW30CfSVHfGkS4YZEb8bfyFXFydiTCXOii6AQ=="
            }
          },
          {
            "validator_address": "7EB7593F519F1180C7E872D0494611464EDF03AE",
            "validator_index": "45",
            "height": "22364",
            "round": "1",
            "timestamp": "2018-07-31T18:53:00.865944817Z",
            "type": 2,
            "block_id": {
              "hash": "DE331C0C684671588835293CBF7C497A0B589277",
              "parts": {
                "total": "1",
                "hash": "B3155AF5628ADE650BDF89CC3EBD46E2DA3EE687"
              }
            },
            "signature": {
              "type": "tendermint/SignatureEd25519",
              "value": "ASJC/Koiz1+AKvWDusfhl+LD5jkEoMftDfPXvIapMBo/L3+FkZ22JkFUwVfcSToFLnJO2kT9vBFAm2Nxb7FiAg=="
            }
          },
          {
            "validator_address": "807CF675BA8479FC4FEC1047215DF07970040F1F",
            "validator_index": "46",
            "height": "22364",
            "round": "1",
            "timestamp": "2018-07-31T18:53:01.00937656Z",
            "type": 2,
            "block_id": {
              "hash": "DE331C0C684671588835293CBF7C497A0B589277",
              "parts": {
                "total": "1",
                "hash": "B3155AF5628ADE650BDF89CC3EBD46E2DA3EE687"
              }
            },
            "signature": {
              "type": "tendermint/SignatureEd25519",
              "value": "HkLkmy6G9SulwLOt4iyZbVAfvhsq3OwMDfFoU5L/QjWAZfxxRdjg8yq/Bdzg6YxFNFWGU9YL0GPsRFkq851KCw=="
            }
          },
          {
            "validator_address": "8126192EA66E8ADE6B36924534721366B987A4C1",
            "validator_index": "47",
            "height": "22364",
            "round": "1",
            "timestamp": "2018-07-31T18:53:00.857435673Z",
            "type": 2,
            "block_id": {
              "hash": "DE331C0C684671588835293CBF7C497A0B589277",
              "parts": {
                "total": "1",
                "hash": "B3155AF5628ADE650BDF89CC3EBD46E2DA3EE687"
              }
            },
            "signature": {
              "type": "tendermint/SignatureEd25519",
              "value": "G2f4tzKbaSfbfP22CbHUxHeMvMuSyB8mIs88Idt44nAM9YuYxMyXUuUJEcfkQHEA+GQxjBa6Gp5vHKznz07rDQ=="
            }
          },
          {
            "validator_address": "83AB321E012C57746689FED3A6064DF331F81007",
            "validator_index": "48",
            "height": "22364",
            "round": "1",
            "timestamp": "2018-07-31T18:53:00.789222863Z",
            "type": 2,
            "block_id": {
              "hash": "DE331C0C684671588835293CBF7C497A0B589277",
              "parts": {
                "total": "1",
                "hash": "B3155AF5628ADE650BDF89CC3EBD46E2DA3EE687"
              }
            },
            "signature": {
              "type": "tendermint/SignatureEd25519",
              "value": "VLriQ4L7Pevho8eHpz6MtBAnMNCKZDRcCoTOpNLI9OJaIhf18OUEj6BNyVoDduddUaF69qdcYqhGTF3InTNzAA=="
            }
          },
          {
            "validator_address": "83BB1B88D3DBB20AD845FECA07749EBD87D3754D",
            "validator_index": "49",
            "height": "22364",
            "round": "1",
            "timestamp": "2018-07-31T18:53:01.021860782Z",
            "type": 2,
            "block_id": {
              "hash": "DE331C0C684671588835293CBF7C497A0B589277",
              "parts": {
                "total": "1",
                "hash": "B3155AF5628ADE650BDF89CC3EBD46E2DA3EE687"
              }
            },
            "signature": {
              "type": "tendermint/SignatureEd25519",
              "value": "xx1tKBSMdRmrT7qaDoc9zZOTiqvybL6Ulw6P7T23JBuBIvtWHvuQedhGgghmwVobSvoHVZSLwztud6NjhvgNBg=="
            }
          },
          {
            "validator_address": "8F06FE1FD042683C426137FBC4BBAA4288924217",
            "validator_index": "50",
            "height": "22364",
            "round": "1",
            "timestamp": "2018-07-31T18:53:00.80345785Z",
            "type": 2,
            "block_id": {
              "hash": "DE331C0C684671588835293CBF7C497A0B589277",
              "parts": {
                "total": "1",
                "hash": "B3155AF5628ADE650BDF89CC3EBD46E2DA3EE687"
              }
            },
            "signature": {
              "type": "tendermint/SignatureEd25519",
              "value": "n/VBGvrMAIs28qbhRfYFNOOt6KtUCh31t0p4jTizd3XUEgjvC7t/+ZokQ8xjRHaHC2SBAa1ELn4AGQktaxF5CQ=="
            }
          },
          {
            "validator_address": "8F45617BF45B10A3F8283DEBDB35E38C7CA43237",
            "validator_index": "51",
            "height": "22364",
            "round": "1",
            "timestamp": "2018-07-31T18:53:00.806397718Z",
            "type": 2,
            "block_id": {
              "hash": "DE331C0C684671588835293CBF7C497A0B589277",
              "parts": {
                "total": "1",
                "hash": "B3155AF5628ADE650BDF89CC3EBD46E2DA3EE687"
              }
            },
            "signature": {
              "type": "tendermint/SignatureEd25519",
              "value": "ygaGqnqaGGw6QRFZmUpyIE3IUEJNjtoz1Ya1jNw/DCWis5D/hN/TP7LALTYllck2r0XrMmglpC16y9c02o2MBg=="
            }
          },
          {
            "validator_address": "95980831E186F2540F6E9FB6C8E74DE2401405AC",
            "validator_index": "52",
            "height": "22364",
            "round": "1",
            "timestamp": "2018-07-31T18:53:00.892288812Z",
            "type": 2,
            "block_id": {
              "hash": "DE331C0C684671588835293CBF7C497A0B589277",
              "parts": {
                "total": "1",
                "hash": "B3155AF5628ADE650BDF89CC3EBD46E2DA3EE687"
              }
            },
            "signature": {
              "type": "tendermint/SignatureEd25519",
              "value": "iBKBG37aI+KnOocU6N+VLk6m3lLuHmShkbvKYRSWHObUzdvxVPsDsstfJ2kqV0wIHEHJUhWD8s83bIiHVJmfDA=="
            }
          },
          {
            "validator_address": "95FAFBC1E0579C83D290A063020CE87C5334BD9B",
            "validator_index": "53",
            "height": "22364",
            "round": "1",
            "timestamp": "2018-07-31T18:53:00.806001647Z",
            "type": 2,
            "block_id": {
              "hash": "DE331C0C684671588835293CBF7C497A0B589277",
              "parts": {
                "total": "1",
                "hash": "B3155AF5628ADE650BDF89CC3EBD46E2DA3EE687"
              }
            },
            "signature": {
              "type": "tendermint/SignatureEd25519",
              "value": "Z1w6DiX0CurI8dYVTNZquySUW7y90HwO8IPcuaAZdRtzyBUfbm2dKDRMABcRI7cXLz9nRIwSqcsPaeCcRn+/Ag=="
            }
          },
          {
            "validator_address": "96BDE45EC52606CF5CB59853097871AD60680549",
            "validator_index": "54",
            "height": "22364",
            "round": "1",
            "timestamp": "2018-07-31T18:53:00.804671522Z",
            "type": 2,
            "block_id": {
              "hash": "DE331C0C684671588835293CBF7C497A0B589277",
              "parts": {
                "total": "1",
                "hash": "B3155AF5628ADE650BDF89CC3EBD46E2DA3EE687"
              }
            },
            "signature": {
              "type": "tendermint/SignatureEd25519",
              "value": "TKSZtLIT3V4XLWebMhfiPQ5PRDDNKBQTb0X4B88b1ytP2fhJDWb6iBioMQ95soMbYhvaRN2/vhdTfTtDDvRvAg=="
            }
          },
          {
            "validator_address": "970CD321881185BF83DB2923C321B0E75FDBB2B8",
            "validator_index": "55",
            "height": "22364",
            "round": "1",
            "timestamp": "2018-07-31T18:53:00.878722296Z",
            "type": 2,
            "block_id": {
              "hash": "DE331C0C684671588835293CBF7C497A0B589277",
              "parts": {
                "total": "1",
                "hash": "B3155AF5628ADE650BDF89CC3EBD46E2DA3EE687"
              }
            },
            "signature": {
              "type": "tendermint/SignatureEd25519",
              "value": "UOmXS8gv7WkLvDG9frWX8F5h35R3fFi1GTH8EAoLewzGB6DvZEId4UB82DsKAIHPx4eiAp8JRSy9NmQRSYkCCA=="
            }
          },
          {
            "validator_address": "97DBB3D4B3D6C29287244864448F651DD5B07390",
            "validator_index": "56",
            "height": "22364",
            "round": "1",
            "timestamp": "2018-07-31T18:53:00.860632376Z",
            "type": 2,
            "block_id": {
              "hash": "DE331C0C684671588835293CBF7C497A0B589277",
              "parts": {
                "total": "1",
                "hash": "B3155AF5628ADE650BDF89CC3EBD46E2DA3EE687"
              }
            },
            "signature": {
              "type": "tendermint/SignatureEd25519",
              "value": "k9ggCpGrAN6aKsHUIGAy86Pp6dTtHJM45U2wr0hVkAQqhhJbpW68KJ6SgI0iFi57ty6L7kug3a8+puOVOLGTAw=="
            }
          },
          {
            "validator_address": "9C29C9B76D27586E4D9AD2AED0E943162645E55C",
            "validator_index": "57",
            "height": "22364",
            "round": "1",
            "timestamp": "2018-07-31T18:53:00.754149581Z",
            "type": 2,
            "block_id": {
              "hash": "DE331C0C684671588835293CBF7C497A0B589277",
              "parts": {
                "total": "1",
                "hash": "B3155AF5628ADE650BDF89CC3EBD46E2DA3EE687"
              }
            },
            "signature": {
              "type": "tendermint/SignatureEd25519",
              "value": "RPrfBy3iq+mHM0llKLSVvsAI2lDTvVCiXGLLe2HR/YIOXUK8NzaZ8Bn05I1gW2GlyGHjhCicjis7Js92mMZHAw=="
            }
          },
          {
            "validator_address": "9D93AD02FE1BD7E76B9E58D7EB461088EAD011E5",
            "validator_index": "58",
            "height": "22364",
            "round": "1",
            "timestamp": "2018-07-31T18:53:00.767419778Z",
            "type": 2,
            "block_id": {
              "hash": "DE331C0C684671588835293CBF7C497A0B589277",
              "parts": {
                "total": "1",
                "hash": "B3155AF5628ADE650BDF89CC3EBD46E2DA3EE687"
              }
            },
            "signature": {
              "type": "tendermint/SignatureEd25519",
              "value": "9oVFbjseOMDsMIoGgXD6KSnv2Pbj8V47qIDa8GnhQNBJbIknv+3zYuM8HfR9JLQufFFpQAqsLJX3hIOg5R9pDQ=="
            }
          },
          {
            "validator_address": "A0A6466F4ABEA09C3B55E3709AFDE217A103209F",
            "validator_index": "59",
            "height": "22364",
            "round": "1",
            "timestamp": "2018-07-31T18:53:00.72796454Z",
            "type": 2,
            "block_id": {
              "hash": "DE331C0C684671588835293CBF7C497A0B589277",
              "parts": {
                "total": "1",
                "hash": "B3155AF5628ADE650BDF89CC3EBD46E2DA3EE687"
              }
            },
            "signature": {
              "type": "tendermint/SignatureEd25519",
              "value": "qSeann1MELrqrGLzm+kcgU/A2UIVrjwcZYPG30XRpJwa1Y44GBMiw9kXr4kKWJSOjXbv+9jdWCXw7WuurATACA=="
            }
          },
          {
            "validator_address": "A5868971300F155020634D7BB49C7634F7AACCD3",
            "validator_index": "60",
            "height": "22364",
            "round": "1",
            "timestamp": "2018-07-31T18:53:00.803592711Z",
            "type": 2,
            "block_id": {
              "hash": "DE331C0C684671588835293CBF7C497A0B589277",
              "parts": {
                "total": "1",
                "hash": "B3155AF5628ADE650BDF89CC3EBD46E2DA3EE687"
              }
            },
            "signature": {
              "type": "tendermint/SignatureEd25519",
              "value": "kF81lyoLyJuMB9woHdoD4sdD0I9ES9az31gj9F6lYsSPo6KzjwFSJ30ymuPRE1+cp2mCdEn1NeeAsE8ixJCzBQ=="
            }
          },
          {
            "validator_address": "A6B3A5B5D982CFD7B5FDFA15CF5A720E7AE25E7F",
            "validator_index": "61",
            "height": "22364",
            "round": "1",
            "timestamp": "2018-07-31T18:53:00.758934944Z",
            "type": 2,
            "block_id": {
              "hash": "DE331C0C684671588835293CBF7C497A0B589277",
              "parts": {
                "total": "1",
                "hash": "B3155AF5628ADE650BDF89CC3EBD46E2DA3EE687"
              }
            },
            "signature": {
              "type": "tendermint/SignatureEd25519",
              "value": "ui0cubozBv2k2P6zFV+bOA6sPWIKDVvxt9b3YgAGdOoEUblRnATe0wW1WxvIFe1BI9ukJikWij12MiUwEhjpCQ=="
            }
          },
          {
            "validator_address": "AC96444A9083890B7C7B430DB17BF1D3EA5EED04",
            "validator_index": "62",
            "height": "22364",
            "round": "1",
            "timestamp": "2018-07-31T18:53:00.856832933Z",
            "type": 2,
            "block_id": {
              "hash": "DE331C0C684671588835293CBF7C497A0B589277",
              "parts": {
                "total": "1",
                "hash": "B3155AF5628ADE650BDF89CC3EBD46E2DA3EE687"
              }
            },
            "signature": {
              "type": "tendermint/SignatureEd25519",
              "value": "PG7slGXhcX8HfXks3ByMnd6bcdc/LzXqnSihRJ6GrQ0NPZYG8BfPZ93tVt0XL/AlxJJgK4yITjihHslmyC6jDg=="
            }
          },
          {
            "validator_address": "ACB97FDA2D940AF0709B73537C458EB988AD2893",
            "validator_index": "63",
            "height": "22364",
            "round": "1",
            "timestamp": "2018-07-31T18:53:00.779979011Z",
            "type": 2,
            "block_id": {
              "hash": "DE331C0C684671588835293CBF7C497A0B589277",
              "parts": {
                "total": "1",
                "hash": "B3155AF5628ADE650BDF89CC3EBD46E2DA3EE687"
              }
            },
            "signature": {
              "type": "tendermint/SignatureEd25519",
              "value": "UZnaBJLkWYb27C105FeJg0qgbtYsw250zJy86YPTW4wCLs3ZR1+7Q6ewtfcnIDuw2szeLA3rqZxnJfDoGAw3Bg=="
            }
          },
          {
            "validator_address": "B197425B3210375F211661DE02EF2AE36580EB0F",
            "validator_index": "64",
            "height": "22364",
            "round": "1",
            "timestamp": "2018-07-31T18:53:00.887054907Z",
            "type": 2,
            "block_id": {
              "hash": "DE331C0C684671588835293CBF7C497A0B589277",
              "parts": {
                "total": "1",
                "hash": "B3155AF5628ADE650BDF89CC3EBD46E2DA3EE687"
              }
            },
            "signature": {
              "type": "tendermint/SignatureEd25519",
              "value": "xrrRmYxOt4nXTpWbZ+kVkfUTr6sal2gohSPCZcEs9kbPcQ33tdZ4yd1FoSv8rw2VK5cfTo7xp4jt4WeFkH8sCw=="
            }
          },
          {
            "validator_address": "B45E54D2D1CB5A4CCD1D49016608C18E7C56B270",
            "validator_index": "65",
            "height": "22364",
            "round": "1",
            "timestamp": "2018-07-31T18:53:00.830358788Z",
            "type": 2,
            "block_id": {
              "hash": "DE331C0C684671588835293CBF7C497A0B589277",
              "parts": {
                "total": "1",
                "hash": "B3155AF5628ADE650BDF89CC3EBD46E2DA3EE687"
              }
            },
            "signature": {
              "type": "tendermint/SignatureEd25519",
              "value": "5syHwuJvHpQNgNtmtDI7joRh3kX8LStJvpatXZHmazNpBvcc6FwEO4LYbHxDOltTNvYN98vEO686djyIwcc3Bg=="
            }
          },
          {
            "validator_address": "B59A34C0BE4EC73AF6A67D274F1695C9259C237C",
            "validator_index": "66",
            "height": "22364",
            "round": "1",
            "timestamp": "2018-07-31T18:53:00.970487312Z",
            "type": 2,
            "block_id": {
              "hash": "DE331C0C684671588835293CBF7C497A0B589277",
              "parts": {
                "total": "1",
                "hash": "B3155AF5628ADE650BDF89CC3EBD46E2DA3EE687"
              }
            },
            "signature": {
              "type": "tendermint/SignatureEd25519",
              "value": "z7z5iRCG39Mcb90p660PY7fVG8cwkHm3+fIZN1PEHyv75u+yXSYSN/6ElWmtWQIzSj4u56uepSIBJdzs7K0oBQ=="
            }
          },
          {
            "validator_address": "BB1276BE89834835428664408917649FEEF5D90C",
            "validator_index": "67",
            "height": "22364",
            "round": "1",
            "timestamp": "2018-07-31T18:53:00.912348102Z",
            "type": 2,
            "block_id": {
              "hash": "DE331C0C684671588835293CBF7C497A0B589277",
              "parts": {
                "total": "1",
                "hash": "B3155AF5628ADE650BDF89CC3EBD46E2DA3EE687"
              }
            },
            "signature": {
              "type": "tendermint/SignatureEd25519",
              "value": "IuRA23Q9A7X+LDtbbr4nNPZmo1ljvW5UNHWN38oMP7iWSn1pdf+uqq6YSFPPMXYUSeQBtWzP9FDbmup4fGc2Cg=="
            }
          },
          {
            "validator_address": "BC36FEDD6EF6071118A3E51859DF3831A2EC4782",
            "validator_index": "68",
            "height": "22364",
            "round": "1",
            "timestamp": "2018-07-31T18:53:00.761040127Z",
            "type": 2,
            "block_id": {
              "hash": "DE331C0C684671588835293CBF7C497A0B589277",
              "parts": {
                "total": "1",
                "hash": "B3155AF5628ADE650BDF89CC3EBD46E2DA3EE687"
              }
            },
            "signature": {
              "type": "tendermint/SignatureEd25519",
              "value": "C0dZljSjgmU90D04lSuyxTvp7mBgRVI2Br2cpzoA0S32qIw6sWtoygPi2JQLVwVWlU3OQKuF15Zr2NPdPOQcCg=="
            }
          },
          {
            "validator_address": "BD9D0DA513BF099DB4BB6E725A4E19832789882F",
            "validator_index": "69",
            "height": "22364",
            "round": "1",
            "timestamp": "2018-07-31T18:53:00.778398088Z",
            "type": 2,
            "block_id": {
              "hash": "DE331C0C684671588835293CBF7C497A0B589277",
              "parts": {
                "total": "1",
                "hash": "B3155AF5628ADE650BDF89CC3EBD46E2DA3EE687"
              }
            },
            "signature": {
              "type": "tendermint/SignatureEd25519",
              "value": "RAsEltSdY6tzlPeRr4g02FRDsUnpwoDiBkJBnz9NtfRco6UC08+h4YCsH00p3wvU69SBf3WUUvDp3eiN6fSYAg=="
            }
          },
          {
            "validator_address": "C1134A2FF8F7338E7CDB3FE57DDD2A655DEB1E22",
            "validator_index": "70",
            "height": "22364",
            "round": "1",
            "timestamp": "2018-07-31T18:53:00.876250551Z",
            "type": 2,
            "block_id": {
              "hash": "DE331C0C684671588835293CBF7C497A0B589277",
              "parts": {
                "total": "1",
                "hash": "B3155AF5628ADE650BDF89CC3EBD46E2DA3EE687"
              }
            },
            "signature": {
              "type": "tendermint/SignatureEd25519",
              "value": "KSijRi5e5nW/a0rXDd1+qC1T1UM1Iw6hLsySTeYTa9MEh7hlv+kLTTPp1IDF6XVwf/4Ff+Flthbxm3gwbqpwAw=="
            }
          },
          {
            "validator_address": "C39A8A2B85198DCB8F23AD1F6C198E2BA7AB5D60",
            "validator_index": "71",
            "height": "22364",
            "round": "1",
            "timestamp": "2018-07-31T18:53:00.793488191Z",
            "type": 2,
            "block_id": {
              "hash": "DE331C0C684671588835293CBF7C497A0B589277",
              "parts": {
                "total": "1",
                "hash": "B3155AF5628ADE650BDF89CC3EBD46E2DA3EE687"
              }
            },
            "signature": {
              "type": "tendermint/SignatureEd25519",
              "value": "0STx58b9s2wJORkMUZy3rCfO2nOZOP29L46JWUL5GZuZsR8icO5GetmpdgIj2MJDgwGrgyUMKyyv/s79QGPDAg=="
            }
          },
          {
            "validator_address": "C4335190C3B5BD4BA5568BC0F99C34162D940D08",
            "validator_index": "72",
            "height": "22364",
            "round": "1",
            "timestamp": "2018-07-31T18:53:00.868710934Z",
            "type": 2,
            "block_id": {
              "hash": "DE331C0C684671588835293CBF7C497A0B589277",
              "parts": {
                "total": "1",
                "hash": "B3155AF5628ADE650BDF89CC3EBD46E2DA3EE687"
              }
            },
            "signature": {
              "type": "tendermint/SignatureEd25519",
              "value": "JQUoZaJ7y5n8kIG1BxyrIgfwCYKLuK/RJNfOvr7k+lBtkZ3F1fopsobhAttsxme6Ax/STy4J4YteSpjekUlgAg=="
            }
          },
          {
            "validator_address": "C561CFA081677046376396922E7576E5F7B316AD",
            "validator_index": "73",
            "height": "22364",
            "round": "1",
            "timestamp": "2018-07-31T18:53:00.9083726Z",
            "type": 2,
            "block_id": {
              "hash": "DE331C0C684671588835293CBF7C497A0B589277",
              "parts": {
                "total": "1",
                "hash": "B3155AF5628ADE650BDF89CC3EBD46E2DA3EE687"
              }
            },
            "signature": {
              "type": "tendermint/SignatureEd25519",
              "value": "setuPSUoKfIto2aIrbiAZCwvJy+HjPs9yJsj/ayJFcCutXkxFkOLIkYUeVDC/kubM5tGTxAYkH60cYbNGeeCBQ=="
            }
          },
          {
            "validator_address": "CE589EA77B056D268D30D1DC1D68A70E0F885E95",
            "validator_index": "74",
            "height": "22364",
            "round": "1",
            "timestamp": "2018-07-31T18:53:00.859120488Z",
            "type": 2,
            "block_id": {
              "hash": "DE331C0C684671588835293CBF7C497A0B589277",
              "parts": {
                "total": "1",
                "hash": "B3155AF5628ADE650BDF89CC3EBD46E2DA3EE687"
              }
            },
            "signature": {
              "type": "tendermint/SignatureEd25519",
              "value": "QJleHqjV4K9nRTkX9B8cyhMVdaTuoIta7BHeJ+RG9vPIsBsBRHnNZo7s+MTLyhS7afwO7TA0QhekIcyCIWQ/CQ=="
            }
          },
          {
            "validator_address": "CEB97DB5CB18270247ABDE6CF2F84F9AEE8A2904",
            "validator_index": "75",
            "height": "22364",
            "round": "1",
            "timestamp": "2018-07-31T18:53:01.062561607Z",
            "type": 2,
            "block_id": {
              "hash": "DE331C0C684671588835293CBF7C497A0B589277",
              "parts": {
                "total": "1",
                "hash": "B3155AF5628ADE650BDF89CC3EBD46E2DA3EE687"
              }
            },
            "signature": {
              "type": "tendermint/SignatureEd25519",
              "value": "k/KT0McCzLfaf6+KbruMziK02VQEmdzS10KFL2UAhjmrWpYHFqeM3704oWhS0Dhlti813yq9fHBaVY7T1djHCg=="
            }
          },
          {
            "validator_address": "CF205769734F5758CC39F907EFB73D6BAF915FB1",
            "validator_index": "76",
            "height": "22364",
            "round": "1",
            "timestamp": "2018-07-31T18:53:00.894409121Z",
            "type": 2,
            "block_id": {
              "hash": "DE331C0C684671588835293CBF7C497A0B589277",
              "parts": {
                "total": "1",
                "hash": "B3155AF5628ADE650BDF89CC3EBD46E2DA3EE687"
              }
            },
            "signature": {
              "type": "tendermint/SignatureEd25519",
              "value": "87FbIuhA2dHyFGPq/LcW4ImAMVYlf5IwgRRdMyxtMMg6zpcfnDoJmgq3VNDZJn4lx4McaE7xFbYCED3i/gXWAg=="
            }
          },
          {
            "validator_address": "D2134B826A1E25A955905CB79A4D8731CAFA0CCE",
            "validator_index": "77",
            "height": "22364",
            "round": "1",
            "timestamp": "2018-07-31T18:53:00.976191417Z",
            "type": 2,
            "block_id": {
              "hash": "DE331C0C684671588835293CBF7C497A0B589277",
              "parts": {
                "total": "1",
                "hash": "B3155AF5628ADE650BDF89CC3EBD46E2DA3EE687"
              }
            },
            "signature": {
              "type": "tendermint/SignatureEd25519",
              "value": "BX+aslrdjcUrcwRMFeqcxhtJlbdWS1PiuDrA8Vv7ML5cIrgha0mGz+HBKWcFVkv84Mp8MBKm+XhUhfObckPAAw=="
            }
          },
          {
            "validator_address": "D6285C3422C8886445D53757CBE12D2B91B5A9D0",
            "validator_index": "78",
            "height": "22364",
            "round": "1",
            "timestamp": "2018-07-31T18:52:43.604571124Z",
            "type": 2,
            "block_id": {
              "hash": "DE331C0C684671588835293CBF7C497A0B589277",
              "parts": {
                "total": "1",
                "hash": "B3155AF5628ADE650BDF89CC3EBD46E2DA3EE687"
              }
            },
            "signature": {
              "type": "tendermint/SignatureEd25519",
              "value": "G///kBOQsdNoKy+ewJtE1JXDwrggltk36hYLbAQ34sJ6YonIMbFPatYbo1KjkwWgFSfrxW9mMlU8OfH6h+TnAQ=="
            }
          },
          {
            "validator_address": "D77FB84A729972CD3E757C9BEB61561855832B92",
            "validator_index": "79",
            "height": "22364",
            "round": "1",
            "timestamp": "2018-07-31T18:53:00.910133608Z",
            "type": 2,
            "block_id": {
              "hash": "DE331C0C684671588835293CBF7C497A0B589277",
              "parts": {
                "total": "1",
                "hash": "B3155AF5628ADE650BDF89CC3EBD46E2DA3EE687"
              }
            },
            "signature": {
              "type": "tendermint/SignatureEd25519",
              "value": "ehsQdV6orrd93eY3d4HewxmwWj8teIFyDsdzfpPFSyYqYIc407XgwkLd0jx8EI6nVizPWhVX+XXW21j0On+ICw=="
            }
          },
          {
            "validator_address": "DB7E6732471D3EA5C90C17A9974D9F88AB45F2FB",
            "validator_index": "80",
            "height": "22364",
            "round": "1",
            "timestamp": "2018-07-31T18:53:00.812354676Z",
            "type": 2,
            "block_id": {
              "hash": "DE331C0C684671588835293CBF7C497A0B589277",
              "parts": {
                "total": "1",
                "hash": "B3155AF5628ADE650BDF89CC3EBD46E2DA3EE687"
              }
            },
            "signature": {
              "type": "tendermint/SignatureEd25519",
              "value": "Rm70LeNMPRbccFsjdQ8qbpBgYrHzQQBwqjxcxlsh8qQfcHKmFjgLAln8jw6EYnnhMenOk814wEpEPpLZm0U1Cw=="
            }
          },
          {
            "validator_address": "DF54B862410BCD9B5C516FBB6C56BDC826ED6FA7",
            "validator_index": "81",
            "height": "22364",
            "round": "1",
            "timestamp": "2018-07-31T18:53:00.91116646Z",
            "type": 2,
            "block_id": {
              "hash": "DE331C0C684671588835293CBF7C497A0B589277",
              "parts": {
                "total": "1",
                "hash": "B3155AF5628ADE650BDF89CC3EBD46E2DA3EE687"
              }
            },
            "signature": {
              "type": "tendermint/SignatureEd25519",
              "value": "b2zuEIyXHvBp/9dsps5M4MD98t4ONRTqlOucg+iFZqwyBk0bhD8nHXRJJ5f7/n/sdYwaHvSY+tMMtZlHYGc4AQ=="
            }
          },
          {
            "validator_address": "DFAF0C8B1B78D6D552B0189DE3ACA351439A1319",
            "validator_index": "82",
            "height": "22364",
            "round": "1",
            "timestamp": "2018-07-31T18:53:00.748362301Z",
            "type": 2,
            "block_id": {
              "hash": "DE331C0C684671588835293CBF7C497A0B589277",
              "parts": {
                "total": "1",
                "hash": "B3155AF5628ADE650BDF89CC3EBD46E2DA3EE687"
              }
            },
            "signature": {
              "type": "tendermint/SignatureEd25519",
              "value": "VJixoUU48NwodEhAM3wvZtki3r6tXiQSZMoFpM9fcXlEBFN3zZWnRUfItWFlN1n9PR5aY2R/Ex6Imen3fR6eBg=="
            }
          },
          {
            "validator_address": "E1DBC77881161A5A3A8536A57536EAE546A75D69",
            "validator_index": "83",
            "height": "22364",
            "round": "1",
            "timestamp": "2018-07-31T18:53:00.766510841Z",
            "type": 2,
            "block_id": {
              "hash": "DE331C0C684671588835293CBF7C497A0B589277",
              "parts": {
                "total": "1",
                "hash": "B3155AF5628ADE650BDF89CC3EBD46E2DA3EE687"
              }
            },
            "signature": {
              "type": "tendermint/SignatureEd25519",
              "value": "xopgTxUSHRMo23AVCx5Am69iWOPv0G13gqvEfkumdnU9+9+niVC6QyEnzd5v3Dx6MFqisMn9CkZf6mANs5CPAA=="
            }
          },
          {
            "validator_address": "E300E9D484374C1D3E97C1D93CAC3B160A056298",
            "validator_index": "84",
            "height": "22364",
            "round": "1",
            "timestamp": "2018-07-31T18:53:01.028490657Z",
            "type": 2,
            "block_id": {
              "hash": "DE331C0C684671588835293CBF7C497A0B589277",
              "parts": {
                "total": "1",
                "hash": "B3155AF5628ADE650BDF89CC3EBD46E2DA3EE687"
              }
            },
            "signature": {
              "type": "tendermint/SignatureEd25519",
              "value": "224PRie4JG/qpj3YB2VF2rMvUF0lYGOIoOSJY0WoNkQLjZvG3EW/sGtlkNdcHb3t/DZHj0JZ5ouSeLrvc+SzAQ=="
            }
          },
          {
            "validator_address": "E39B5778E0D4297A46F45CF6940B0A163A430FF8",
            "validator_index": "85",
            "height": "22364",
            "round": "1",
            "timestamp": "2018-07-31T18:53:00.797903078Z",
            "type": 2,
            "block_id": {
              "hash": "DE331C0C684671588835293CBF7C497A0B589277",
              "parts": {
                "total": "1",
                "hash": "B3155AF5628ADE650BDF89CC3EBD46E2DA3EE687"
              }
            },
            "signature": {
              "type": "tendermint/SignatureEd25519",
              "value": "9j5yLoeJJZb60SXuOcjSRp10+rE2ajBodx3RB2Vt8gZ1gvaHJHrFU0ad4+oA2NieLldeqhibEpGfSaqoE/JfBA=="
            }
          },
          {
            "validator_address": "E3B19738F7132F950668504D326C7660F159D170",
            "validator_index": "86",
            "height": "22364",
            "round": "1",
            "timestamp": "2018-07-31T18:53:00.845522215Z",
            "type": 2,
            "block_id": {
              "hash": "DE331C0C684671588835293CBF7C497A0B589277",
              "parts": {
                "total": "1",
                "hash": "B3155AF5628ADE650BDF89CC3EBD46E2DA3EE687"
              }
            },
            "signature": {
              "type": "tendermint/SignatureEd25519",
              "value": "cmKcTGgOmUHfVaYkAs1JcQHEgIhgCYr0fxcL8HKZ/DRtX9HH2qbbE5s9Kf3NiTrBeok+A1AxGeuI3pPw4XRMAg=="
            }
          },
          {
            "validator_address": "E42F8AEABB685219F7027F54D2B0DBC7846F633A",
            "validator_index": "87",
            "height": "22364",
            "round": "1",
            "timestamp": "2018-07-31T18:52:59.964697502Z",
            "type": 2,
            "block_id": {
              "hash": "DE331C0C684671588835293CBF7C497A0B589277",
              "parts": {
                "total": "1",
                "hash": "B3155AF5628ADE650BDF89CC3EBD46E2DA3EE687"
              }
            },
            "signature": {
              "type": "tendermint/SignatureEd25519",
              "value": "RxMowu3TwNgWzxDTwjbHmxwaIVzaDvbpdJws2szr0VMAB4DUT3HP1Rxytw1wNjjHcWS8jbLu8S1aAuHxVbBMDw=="
            }
          },
          {
            "validator_address": "E4E6C2E81269DFFA196C17F98240E491479A6008",
            "validator_index": "88",
            "height": "22364",
            "round": "1",
            "timestamp": "2018-07-31T18:53:00.902601284Z",
            "type": 2,
            "block_id": {
              "hash": "DE331C0C684671588835293CBF7C497A0B589277",
              "parts": {
                "total": "1",
                "hash": "B3155AF5628ADE650BDF89CC3EBD46E2DA3EE687"
              }
            },
            "signature": {
              "type": "tendermint/SignatureEd25519",
              "value": "OdBQ/vPsqtZijVA2R+iU6N/zL5hbhSoPeMLfgh9mlS5osKEQrrWVvkR0DLj7YPRZrzdhqNSSQaIm+AOgddcLAA=="
            }
          },
          {
            "validator_address": "E4FEB2846F4F3B0ECDCBE9C9DCB2248248A5AF0F",
            "validator_index": "89",
            "height": "22364",
            "round": "1",
            "timestamp": "2018-07-31T18:53:01.356049075Z",
            "type": 2,
            "block_id": {
              "hash": "DE331C0C684671588835293CBF7C497A0B589277",
              "parts": {
                "total": "1",
                "hash": "B3155AF5628ADE650BDF89CC3EBD46E2DA3EE687"
              }
            },
            "signature": {
              "type": "tendermint/SignatureEd25519",
              "value": "kbREb41k/F1G3GpDHaLVII7j42nuPVs1hX/8fHcsT1+WVkBW8rJGTABCX37rg+qqnz+b1EBD59xZZCl3TiZqBw=="
            }
          },
          {
            "validator_address": "E6A7079D584B163750BE0831227F6B685DEAF3C1",
            "validator_index": "90",
            "height": "22364",
            "round": "1",
            "timestamp": "2018-07-31T18:53:00.861891022Z",
            "type": 2,
            "block_id": {
              "hash": "DE331C0C684671588835293CBF7C497A0B589277",
              "parts": {
                "total": "1",
                "hash": "B3155AF5628ADE650BDF89CC3EBD46E2DA3EE687"
              }
            },
            "signature": {
              "type": "tendermint/SignatureEd25519",
              "value": "wdkI9VNZ6HLhU/7/mAEH53PcjY0RqNmcLWDBLaES4reMFWIMDzqQj1zCoFOnVJlWsjk2ZbUoS4jx8/I9JOSqCA=="
            }
          },
          {
            "validator_address": "E7A30077D5D11867D3EAF99ED45BFDC1EB834509",
            "validator_index": "91",
            "height": "22364",
            "round": "1",
            "timestamp": "2018-07-31T18:53:00.782295194Z",
            "type": 2,
            "block_id": {
              "hash": "DE331C0C684671588835293CBF7C497A0B589277",
              "parts": {
                "total": "1",
                "hash": "B3155AF5628ADE650BDF89CC3EBD46E2DA3EE687"
              }
            },
            "signature": {
              "type": "tendermint/SignatureEd25519",
              "value": "cHL7MnZXs63tPfgcOs74H/Dt/IVIFZWX3KA+C7Fl9Qm+QuIU2LDRvql8JzF8UxfutT9jhneXnYWarztgoZW3Bw=="
            }
          },
          {
            "validator_address": "EBC613967F66F4EC306852CDF58B4F151CF16738",
            "validator_index": "92",
            "height": "22364",
            "round": "1",
            "timestamp": "2018-07-31T18:53:00.969028318Z",
            "type": 2,
            "block_id": {
              "hash": "DE331C0C684671588835293CBF7C497A0B589277",
              "parts": {
                "total": "1",
                "hash": "B3155AF5628ADE650BDF89CC3EBD46E2DA3EE687"
              }
            },
            "signature": {
              "type": "tendermint/SignatureEd25519",
              "value": "J2aP+KuX0LMzRDNZIRH4+xOtJy/4/00qm7TjAVFMGsCxMmxNNVaVLAig3N1w4+AYIG8G1syQI72qnwvux7bUBg=="
            }
          },
          {
            "validator_address": "EC3401441726C40ECC7E51F744483B05BC6DE9BD",
            "validator_index": "93",
            "height": "22364",
            "round": "1",
            "timestamp": "2018-07-31T18:53:00.808224414Z",
            "type": 2,
            "block_id": {
              "hash": "DE331C0C684671588835293CBF7C497A0B589277",
              "parts": {
                "total": "1",
                "hash": "B3155AF5628ADE650BDF89CC3EBD46E2DA3EE687"
              }
            },
            "signature": {
              "type": "tendermint/SignatureEd25519",
              "value": "72HsnPAo5ERz613jA3GSXkQ9MGbTJ0xhBawM+IIRk9ZzVBZl3f0e/LlW9m95530SpKlJbJOEb3en65XionHtDw=="
            }
          },
          {
            "validator_address": "EC95B111D032181E1EC3B5E8875C5BB8E4AE7140",
            "validator_index": "94",
            "height": "22364",
            "round": "1",
            "timestamp": "2018-07-31T18:53:00.770432721Z",
            "type": 2,
            "block_id": {
              "hash": "DE331C0C684671588835293CBF7C497A0B589277",
              "parts": {
                "total": "1",
                "hash": "B3155AF5628ADE650BDF89CC3EBD46E2DA3EE687"
              }
            },
            "signature": {
              "type": "tendermint/SignatureEd25519",
              "value": "5qdWZnr2PNEzAEsB4Z70KsHECAMHgo9OyZZNW34oMDo7FPi8FgrgU9WWD6dsU8JHQ2D0QZi+Upxyt1SLYygaBw=="
            }
          },
          {
            "validator_address": "F13C1805E8131C9B47E2A46818F57D8A2841E578",
            "validator_index": "95",
            "height": "22364",
            "round": "1",
            "timestamp": "2018-07-31T18:53:00.905787595Z",
            "type": 2,
            "block_id": {
              "hash": "DE331C0C684671588835293CBF7C497A0B589277",
              "parts": {
                "total": "1",
                "hash": "B3155AF5628ADE650BDF89CC3EBD46E2DA3EE687"
              }
            },
            "signature": {
              "type": "tendermint/SignatureEd25519",
              "value": "WFXwg8+v4yE1WlL73B4hqwP9tnE7fkENln9XhFZf6J7WAHCxqDJpbd6tgksfV5+TJniMmT6oyN5B5Cf+Z3esAQ=="
            }
          },
          {
            "validator_address": "F23FF36BD5B90C33CE3A03ED72DBDCF5EC07D6AF",
            "validator_index": "96",
            "height": "22364",
            "round": "1",
            "timestamp": "2018-07-31T18:53:00.864835745Z",
            "type": 2,
            "block_id": {
              "hash": "DE331C0C684671588835293CBF7C497A0B589277",
              "parts": {
                "total": "1",
                "hash": "B3155AF5628ADE650BDF89CC3EBD46E2DA3EE687"
              }
            },
            "signature": {
              "type": "tendermint/SignatureEd25519",
              "value": "yf5QaLjj+ZSKrbftRcKlAukItdvbPuCVurMrBkVWFFKH2/qPcs49DVavbGvT8sfWA3q5yhQYK9cVnWrmPHRGAg=="
            }
          },
          {
            "validator_address": "F4268597DE93E3E2CED38845010F8AA34E2A879E",
            "validator_index": "97",
            "height": "22364",
            "round": "1",
            "timestamp": "2018-07-31T18:53:00.897188494Z",
            "type": 2,
            "block_id": {
              "hash": "DE331C0C684671588835293CBF7C497A0B589277",
              "parts": {
                "total": "1",
                "hash": "B3155AF5628ADE650BDF89CC3EBD46E2DA3EE687"
              }
            },
            "signature": {
              "type": "tendermint/SignatureEd25519",
              "value": "vF+6gOfaoFgprwOt06lYhLAD2EKVzlgT4dCMiIJNn0KRFqFeRVdcHgdLVSXnSjndzLUq+soLZ2CPJAl2uwXRBw=="
            }
          },
          {
            "validator_address": "F4DEB417999B04BE2EFF9FFE03FA373D86011CC0",
            "validator_index": "98",
            "height": "22364",
            "round": "1",
            "timestamp": "2018-07-31T18:53:00.82313045Z",
            "type": 2,
            "block_id": {
              "hash": "DE331C0C684671588835293CBF7C497A0B589277",
              "parts": {
                "total": "1",
                "hash": "B3155AF5628ADE650BDF89CC3EBD46E2DA3EE687"
              }
            },
            "signature": {
              "type": "tendermint/SignatureEd25519",
              "value": "5SQWwJhP9wlTESbQLuOi7ZHcTXInqYzTV6X/Cc2UJbCVLqTHYzMjV6M1eHvnM5JXhoTT48XiVtoYs907ZvCwDQ=="
            }
          },
          {
            "validator_address": "F6738260186D33D9C14FC6E7017AFE6BB952A63D",
            "validator_index": "99",
            "height": "22364",
            "round": "1",
            "timestamp": "2018-07-31T18:53:00.837115778Z",
            "type": 2,
            "block_id": {
              "hash": "DE331C0C684671588835293CBF7C497A0B589277",
              "parts": {
                "total": "1",
                "hash": "B3155AF5628ADE650BDF89CC3EBD46E2DA3EE687"
              }
            },
            "signature": {
              "type": "tendermint/SignatureEd25519",
              "value": "4QAeQ7pONl1nMehKiGTDntgry+J686KyKuH0ASNNbEjYNQ2VTSXb9We0uzLFbUz1vggdvD1DLwbL910zaWHqBg=="
            }
          },
          null,
          {
            "validator_address": "FF3F3FCBCE7E62D7AD5506FF846EC4518D980515",
            "validator_index": "101",
            "height": "22364",
            "round": "1",
            "timestamp": "2018-07-31T18:53:00.811596885Z",
            "type": 2,
            "block_id": {
              "hash": "DE331C0C684671588835293CBF7C497A0B589277",
              "parts": {
                "total": "1",
                "hash": "B3155AF5628ADE650BDF89CC3EBD46E2DA3EE687"
              }
            },
            "signature": {
              "type": "tendermint/SignatureEd25519",
              "value": "cD1v2fd8aiGJqlT1EpkExmS1YCtjFIyZ24y6i9/HyJuW726GmCopLNNLvU8ZOoed/+nVs8IcTd5cV14jvgvTCw=="
            }
          }
        ]
      }
    },
    "canonical": true
  }
}