{
  "jsonrpc": "2.0",
  "id": "",
  "result": {
    "SignedHeader": {
      "header": {
        "chain_id": "gaia-7004",
        "height": "22960",
        "time": "2018-07-31T19:51:57.048898149Z",
        "num_txs": "0",
        "last_block_id": {
          "hash": "3F7F51BFE5FBCD6A5D4D57FD5783A08F15101D34",
          "parts": {
            "total": "1",
            "hash": "E24AF94CD8783EC994A71E3E5190B6CE2358E619"
          }
        },
        "total_txs": "615",
        "last_commit_hash": "5D10330E87FE44AF492A7B841B06DF7DBCBD9129",
        "data_hash": "",
        "validators_hash": "D97392D7F22973AA3D31D62A125934418C2341A1",
        "consensus_hash": "D6B74BB35BDFFD8392340F2A379173548AE188FE",
        "app_hash": "C7B907EDD50E36284CC81626BE1170248F305465",
        "last_results_hash": "",
        "evidence_hash": ""
      },
      "commit": {
        "block_id": {
          "hash": "3365554EF3D067119C96CF894FEC2C4FBC535023",
          "parts": {
            "total": "1",
            "hash": "E13D0E5BBE5C7EC7898C52704277D72E2E9DEC4D"
          }
        },
        "precommits": [
          {
            "validator_address": "029359C0C768096273A68ABC902A6B17AC8D1D70",
            "validator_index": "0",
            "height": "22960",
            "round": "1",
            "timestamp": "2018-07-31T19:51:58.187408198Z",
            "type": 2,
            "block_id": {
              "hash": "3365554EF3D067119C96CF894FEC2C4FBC535023",
              "parts": {
                "total": "1",
                "hash": "E13D0E5BBE5C7EC7898C52704277D72E2E9DEC4D"
              }
            },
            "signature": {
              "type": "tendermint/SignatureEd25519",
              "value": "hKtGikauMSM71E4LSiiKL+AV6U7CW9pC2efl6CRxi1PyoaxeKAYtTCOVovw0WwdOJVUfMgrfGN8nezuXtewQAw=="
            }
          },
          {
            "validator_address": "02FE4B97A8387F39D1AC19E0C1702B3CC614812F",
            "validator_index": "1",
            "height": "22960",
            "round": "1",
            "timestamp": "2018-07-31T19:51:58.192260456Z",
            "type": 2,
            "block_id": {
              "hash": "3365554EF3D067119C96CF894FEC2C4FBC535023",
              "parts": {
                "total": "1",
                "hash": "E13D0E5BBE5C7EC7898C52704277D72E2E9DEC4D"
              }
            },
            "signature": {
              "type": "tendermint/SignatureEd25519",
              "value": "vovJkurgyTSSyaaAf9zuKDIMq12HjjfUOjnH053/bNgf4xZgBTa9UI9+jBQBalYdo4QTkemGG+p1sj/68VZcCg=="
            }
          },
          {
            "validator_address": "0548261C50222FD710EB5EBDF03A0E6567B21D20",
            "validator_index": "2",
            "height": "22960",
            "round": "1",
            "timestamp": "2018-07-31T19:51:58.227236035Z",
            "type": 2,
            "block_id": {
              "hash": "3365554EF3D067119C96CF894FEC2C4FBC535023",
              "parts": {
                "total": "1",
                "hash": "E13D0E5BBE5C7EC7898C52704277D72E2E9DEC4D"
              }
            },
            "signature": {
              "type": "tendermint/SignatureEd25519",
              "value": "Y1DVAFWp7R8DV9KUAC8+Sd959aIRRMM1HgdVGKEktuC5aISTwEcyt3nTmxC/osdvfGvaVnWLQovrOvSU5LWkCA=="
            }
          },
          {
            "validator_address": "09145E611CC27EEB944FC5A956DDF710F943B9EF",
            "validator_index": "3",
            "height": "22960",
            "round": "1",
            "timestamp": "2018-07-31T19:51:58.187321714Z",
            "type": 2,
            "block_id": {
              "hash": "3365554EF3D067119C96CF894FEC2C4FBC535023",
              "parts": {
                "total": "1",
                "hash": "E13D0E5BBE5C7EC7898C52704277D72E2E9DEC4D"
              }
            },
            "signature": {
              "type": "tendermint/SignatureEd25519",
              "value": "xKQDiHzNds40NcdWDWBqpKiA3uIOpIjZsvmP7qxespjn3RWF3H3qkovsFJ3fhm3Uc1zkGKywEDufT0+t5FDpBA=="
            }
          },
          {
            "validator_address": "0989D0355A104B67AE0AE028C68FB610690E174B",
            "validator_index": "4",
            "height": "22960",
            "round": "1",
            "timestamp": "2018-07-31T19:51:58.206167532Z",
            "type": 2,
            "block_id": {
              "hash": "3365554EF3D067119C96CF894FEC2C4FBC535023",
              "parts": {
                "total": "1",
                "hash": "E13D0E5BBE5C7EC7898C52704277D72E2E9DEC4D"
              }
            },
            "signature": {
              "type": "tendermint/SignatureEd25519",
              "value": "WaeCZEPWlp6+0Bns7kyZf5smB1Yx/9OgArf2uYptQbbbrnq83EOr017F9NCrnr1ePMIO23vQTPA1x+Fsjx2vCA=="
            }
          },
          {
            "validator_address": "0A692DBFFE9E5DD28E7DECC33CED1AEB4C0D014E",
            "validator_index": "5",
            "height": "22960",
            "round": "1",
            "timestamp": "2018-07-31T19:51:58.323112273Z",
            "type": 2,
            "block_id": {
              "hash": "3365554EF3D067119C96CF894FEC2C4FBC535023",
              "parts": {
                "total": "1",
                "hash": "E13D0E5BBE5C7EC7898C52704277D72E2E9DEC4D"
              }
            },
            "signature": {
              "type": "tendermint/SignatureEd25519",
              "value": "eLnntJZVL8UcNHQtT+SGIjODkKuRpsW230DQrCJSX7t78ukXKe+/RkfqQTQCc7uoyAwPxFckVETz7jRqRyamCw=="
            }
          },
          {
            "validator_address": "0DDF97111D73DB825138EC15EC27DE5FE8536901",
            "validator_index": "6",
            "height": "22960",
            "round": "1",
            "timestamp": "2018-07-31T19:51:58.237182764Z",
            "type": 2,
            "block_id": {
              "hash": "3365554EF3D067119C96CF894FEC2C4FBC535023",
              "parts": {
                "total": "1",
                "hash": "E13D0E5BBE5C7EC7898C52704277D72E2E9DEC4D"
              }
            },
            "signature": {
              "type": "tendermint/SignatureEd25519",
              "value": "qbC0eJEjlfH/mQV+JVPCRIDuutfk3AWJ6jpTVDsKUxA/HYIUJZ0vyxX+UzIuXLqYM+9SvuVBkUnWRNDWK6O4Bw=="
            }
          },
          null,
          {
            "validator_address": "17BB5CD01E8940FAFB948A04D5FA5A0645E5822E",
            "validator_index": "8",
            "height": "22960",
            "round": "1",
            "timestamp": "2018-07-31T19:51:58.229931409Z",
            "type": 2,
            "block_id": {
              "hash": "3365554EF3D067119C96CF894FEC2C4FBC535023",
              "parts": {
                "total": "1",
                "hash": "E13D0E5BBE5C7EC7898C52704277D72E2E9DEC4D"
              }
            },
            "signature": {
              "type": "tendermint/SignatureEd25519",
              "value": "qbmGmc4eIqzoNaBKvjbz3LA82hBPrDT1BAHmO1lRsMGYOnom8PAXdDBiahBrwvuf62QI1IP29ZgPIooNUah8AA=="
            }
          },
          {
            "validator_address": "1C683A87904BC38F05004FE83301A3A3E35447EB",
            "validator_index": "9",
            "height": "22960",
            "round": "1",
            "timestamp": "2018-07-31T19:51:58.213913231Z",
            "type": 2,
            "block_id": {
              "hash": "3365554EF3D067119C96CF894FEC2C4FBC535023",
              "parts": {
                "total": "1",
                "hash": "E13D0E5BBE5C7EC7898C52704277D72E2E9DEC4D"
              }
            },
            "signature": {
              "type": "tendermint/SignatureEd25519",
              "value": "PxGcbGo3tY/QHbWB5jtcWfo/jVQZ+AHAYdg7+4U2o1ZBYk6neczyCHyHTBZkIqQv0m8B6nN8LdFnRC+M17wuDA=="
            }
          },
          {
            "validator_address": "1E9CE94FD0BA5CFEB901F90BC658D64D85B134D2",
            "validator_index": "10",
            "height": "22960",
            "round": "1",
            "timestamp": "2018-07-31T19:51:58.244262892Z",
            "type": 2,
            "block_id": {
              "hash": "3365554EF3D067119C96CF894FEC2C4FBC535023",
              "parts": {
                "total": "1",
                "hash": "E13D0E5BBE5C7EC7898C52704277D72E2E9DEC4D"
              }
            },
            "signature": {
              "type": "tendermint/SignatureEd25519",
              "value": "WaHV0Gqaf3B94UUyVBLUje9lztHrhAN6rdcAzjCW1uwKsEMGxYLKSjIPKUcedqMkvimjoHqxkN8AC4hNqqQ0AA=="
            }
          },
          {
            "validator_address": "1ECD8C5FE1341D74CDC633A245DD56858DE2F9A2",
            "validator_index": "11",
            "height": "22960",
            "round": "1",
            "timestamp": "2018-07-31T19:51:58.354747064Z",
            "type": 2,
            "block_id": {
              "hash": "3365554EF3D067119C96CF894FEC2C4FBC535023",
              "parts": {
                "total": "1",
                "hash": "E13D0E5BBE5C7EC7898C52704277D72E2E9DEC4D"
              }
            },
            "signature": {
              "type": "tendermint/SignatureEd25519",
              "value": "kNsWV4CrojU1dxTEWP/2LTFN0KAMLZssneHv1Fytc7MQaZIA1IebbwqwOl1xezqWdwLs3xmQv5vLG6dKn7/xDg=="
            }
          },
          {
            "validator_address": "1F3A68CAAD483768AA2BF667DEF10F7104C89928",
            "validator_index": "12",
            "height": "22960",
            "round": "1",
            "timestamp": "2018-07-31T19:51:58.189763074Z",
            "type": 2,
            "block_id": {
              "hash": "3365554EF3D067119C96CF894FEC2C4FBC535023",
              "parts": {
                "total": "1",
                "hash": "E13D0E5BBE5C7EC7898C52704277D72E2E9DEC4D"
              }
            },
            "signature": {
              "type": "tendermint/SignatureEd25519",
              "value": "2Fqx1Fs8XDzsGorGwyWLV25bwmZ5Cy5YtqEsNUYFl+DE4fYlAdKmXIuQMEf+4IXTKfdSI6qZECaAgAX7c2xUDA=="
            }
          },
          {
            "validator_address": "23897586D68E2AC1C78E0EF5BB5DF5C8EAB18F50",
            "validator_index": "13",
            "height": "22960",
            "round": "1",
            "timestamp": "2018-07-31T19:51:58.254893102Z",
            "type": 2,
            "block_id": {
              "hash": "3365554EF3D067119C96CF894FEC2C4FBC535023",
              "parts": {
                "total": "1",
                "hash": "E13D0E5BBE5C7EC7898C52704277D72E2E9DEC4D"
              }
            },
            "signature": {
              "type": "tendermint/SignatureEd25519",
              "value": "vrXc8NIBvXxO/sNWay1NJV2/raGqiAtTAxbSuWXlqSFgwryMbalvt70j6Jh+oXlB1EL+of+n3hbuIA5gzy0JBw=="
            }
          },
          {
            "validator_address": "28770D17E8530825E7310A0659308654B7EC9682",
            "validator_index": "14",
            "height": "22960",
            "round": "1",
            "timestamp": "2018-07-31T19:51:58.18538957Z",
            "type": 2,
            "block_id": {
              "hash": "3365554EF3D067119C96CF894FEC2C4FBC535023",
              "parts": {
                "total": "1",
                "hash": "E13D0E5BBE5C7EC7898C52704277D72E2E9DEC4D"
              }
            },
            "signature": {
              "type": "tendermint/SignatureEd25519",
              "value": "y8D6QwaNhx7aMtHus38NkdVpkYZNFFEteKMnWrHvnS8fCSzSmqlEmr0Nx5khIG1sdmByAvaZfykJmqS8sN2cAg=="
            }
          },
          {
            "validator_address": "2A92EC3C642140202298D0E245095E0ECFC25228",
            "validator_index": "15",
            "height": "22960",
            "round": "1",
            "timestamp": "2018-07-31T19:51:58.260234171Z",
            "type": 2,
            "block_id": {
              "hash": "3365554EF3D067119C96CF894FEC2C4FBC535023",
              "parts": {
                "total": "1",
                "hash": "E13D0E5BBE5C7EC7898C52704277D72E2E9DEC4D"
              }
            },
            "signature": {
              "type": "tendermint/SignatureEd25519",
              "value": "HEoehiJurhEJsuS9styHFXNspUDqn8+k8sQVWFAPy7WOT4exVKBliQKs1WqGQUmkUu73yF3i3wJU4PqHWdAUDw=="
            }
          },
          {
            "validator_address": "33412C9A69C60CB0FAA24A5C5B3A906DE24B47C2",
            "validator_index": "16",
            "height": "22960",
            "round": "1",
            "timestamp": "2018-07-31T19:51:58.168993961Z",
            "type": 2,
            "block_id": {
              "hash": "3365554EF3D067119C96CF894FEC2C4FBC535023",
              "parts": {
                "total": "1",
                "hash": "E13D0E5BBE5C7EC7898C52704277D72E2E9DEC4D"
              }
            },
            "signature": {
              "type": "tendermint/SignatureEd25519",
              "value": "7nuPRWdHP8DpV3VtRa61uRMU+jKNpDDK9itRTSk5E447YCLK62SMYkxShx3ubgcyoSOtb4DwqZrso/IvzJtTCQ=="
            }
          },
          {
            "validator_address": "3383EF2A13B160C41947AC30434B274B2FAF0617",
            "validator_index": "17",
            "height": "22960",
            "round": "1",
            "timestamp": "2018-07-31T19:51:58.20409898Z",
            "type": 2,
            "block_id": {
              "hash": "3365554EF3D067119C96CF894FEC2C4FBC535023",
              "parts": {
                "total": "1",
                "hash": "E13D0E5BBE5C7EC7898C52704277D72E2E9DEC4D"
              }
            },
            "signature": {
              "type": "tendermint/SignatureEd25519",
              "value": "Xc9uGjIyEOqY8CFXv/snZO7g6kArdJaNuoAQhQX70vyNfmeXp4zUnYpUdz465uy6CJNW8Np1XR2eDsYsrMDNBQ=="
            }
          },
          {
            "validator_address": "36E9B7FAEC964F97D84C028ED62493E373AD0B38",
            "validator_index": "18",
            "height": "22960",
            "round": "1",
            "timestamp": "2018-07-31T19:51:58.532231901Z",
            "type": 2,
            "block_id": {
              "hash": "3365554EF3D067119C96CF894FEC2C4FBC535023",
              "parts": {
                "total": "1",
                "hash": "E13D0E5BBE5C7EC7898C52704277D72E2E9DEC4D"
              }
            },
            "signature": {
              "type": "tendermint/SignatureEd25519",
              "value": "7C9GoHqJhxY4nTiLxl+HX1fJv6wC5aPZK9TkpbhsVqlwPj72r89LJbWRJH6aeX8Vm8rlWJ+lPTP2l0DufbG5AA=="
            }
          },
          {
            "validator_address": "38A8D85D36BEA2E5FCF8A1E778F53628E450EF13",
            "validator_index": "19",
            "height": "22960",
            "round": "1",
            "timestamp": "2018-07-31T19:51:58.361305596Z",
            "type": 2,
            "block_id": {
              "hash": "3365554EF3D067119C96CF894FEC2C4FBC535023",
              "parts": {
                "total": "1",
                "hash": "E13D0E5BBE5C7EC7898C52704277D72E2E9DEC4D"
              }
            },
            "signature": {
              "type": "tendermint/SignatureEd25519",
              "value": "Crs8wccN6g48JSrgICTNMWCwJicNZVLF569XXVpmcT9Kz6/nBzoZF3TZ68wg5QsaZHmGsPNKJIe9hb/bnSIkCw=="
            }
          },
          {
            "validator_address": "39DFDA0C5DB84B269642188B23253508537798E6",
            "validator_index": "20",
            "height": "22960",
            "round": "1",
            "timestamp": "2018-07-31T19:51:58.221004234Z",
            "type": 2,
            "block_id": {
              "hash": "3365554EF3D067119C96CF894FEC2C4FBC535023",
              "parts": {
                "total": "1",
                "hash": "E13D0E5BBE5C7EC7898C52704277D72E2E9DEC4D"
              }
            },
            "signature": {
              "type": "tendermint/SignatureEd25519",
              "value": "q0dGVQeLBM+5+aTehkPhIFMNG/dXeUejeM1F1AizL7TqEhpXbiCkIQx1P8w29uGAyOoYi88nxJEGvQPQBrt+Dw=="
            }
          },
          {
            "validator_address": "3AC99B708404452366E0953A4BE849226DC86CBC",
            "validator_index": "21",
            "height": "22960",
            "round": "1",
            "timestamp": "2018-07-31T19:51:58.279031693Z",
            "type": 2,
            "block_id": {
              "hash": "3365554EF3D067119C96CF894FEC2C4FBC535023",
              "parts": {
                "total": "1",
                "hash": "E13D0E5BBE5C7EC7898C52704277D72E2E9DEC4D"
              }
            },
            "signature": {
              "type": "tendermint/SignatureEd25519",
              "value": "NCkjkWPNQ5VRywvUkHTHbo0w4nPL69NnZ7pBSaGpfMu9E+E+8ZepffpCOfecO++DKckcck9sxAdaiKDSfgn6CA=="
            }
          },
          {
            "validator_address": "3DCB822A10ED319EC7C4393D8E3FD4A41B15AAF2",
            "validator_index": "22",
            "height": "22960",
            "round": "1",
            "timestamp": "2018-07-31T19:51:58.189170462Z",
            "type": 2,
            "block_id": {
              "hash": "3365554EF3D067119C96CF894FEC2C4FBC535023",
              "parts": {
                "total": "1",
                "hash": "E13D0E5BBE5C7EC7898C52704277D72E2E9DEC4D"
              }
            },
            "signature": {
              "type": "tendermint/SignatureEd25519",
              "value": "kquB94nxX4gD74KtTmXK2amGLVQHVIly/ep0XeMhgXyX7RdATODO4lS1RFNrwFAR8NrIZ36jrLsjEo3coDjgCQ=="
            }
          },
          {
            "validator_address": "3E899BA36A93C7370347BD5FE85909F2ECD93F8C",
            "validator_index": "23",
            "height": "22960",
            "round": "1",
            "timestamp": "2018-07-31T19:51:58.275206352Z",
            "type": 2,
            "block_id": {
              "hash": "3365554EF3D067119C96CF894FEC2C4FBC535023",
              "parts": {
                "total": "1",
                "hash": "E13D0E5BBE5C7EC7898C52704277D72E2E9DEC4D"
              }
            },
            "signature": {
              "type": "tendermint/SignatureEd25519",
              "value": "g8iQZ2Y6oCYy/GCCHx8XPcSUJiKYBXkbMf4PObzTWoT3jyo12aXrLx5UHD+1E+wTChsrsIbftImUZDbhd3obDQ=="
            }
          },
          {
            "validator_address": "41CAB2E29E7D0F2282E3275938F188FF9386B84C",
            "validator_index": "24",
            "height": "22960",
            "round": "1",
            "timestamp": "2018-07-31T19:51:58.16538631Z",
            "type": 2,
            "block_id": {
              "hash": "3365554EF3D067119C96CF894FEC2C4FBC535023",
              "parts": {
                "total": "1",
                "hash": "E13D0E5BBE5C7EC7898C52704277D72E2E9DEC4D"
              }
            },
            "signature": {
              "type": "tendermint/SignatureEd25519",
              "value": "pRN2gdPNHr2wRNr4GC3o98TWHRL/PqOxz6XJPq2FOpuBuJqVAQ/BEnsUulBLah+Jv5nU1M5Pp1J6PJMeAvLCDg=="
            }
          },
          {
            "validator_address": "462B656869DB02A8FD1077E255F8CC7401DC37C6",
            "validator_index": "25",
            "height": "22960",
            "round": "1",
            "timestamp": "2018-07-31T19:51:58.181437765Z",
            "type": 2,
            "block_id": {
              "hash": "3365554EF3D067119C96CF894FEC2C4FBC535023",
              "parts": {
                "total": "1",
                "hash": "E13D0E5BBE5C7EC7898C52704277D72E2E9DEC4D"
              }
            },
            "signature": {
              "type": "tendermint/SignatureEd25519",
              "value": "M9OgTAYOHCTtBdGHv/rpGPDPdxymzl8hs/582nzmZj2LO1gXiAU0kd75PYBRk5DCOpYxBCgGF4qbCGQRJpSbBA=="
            }
          },
          null,
          {
            "validator_address": "4944F8BBBB5303E17BC0607DF332320EDBC750EA",
            "validator_index": "27",
            "height": "22960",
            "round": "1",
            "timestamp": "2018-07-31T19:51:58.11195587Z",
            "type": 2,
            "block_id": {
              "hash": "3365554EF3D067119C96CF894FEC2C4FBC535023",
              "parts": {
                "total": "1",
                "hash": "E13D0E5BBE5C7EC7898C52704277D72E2E9DEC4D"
              }
            },
            "signature": {
              "type": "tendermint/SignatureEd25519",
              "value": "Cn4geG+5FYfus8c0jti515FsEBFCpnqzz1BqziP8RxEy5wZ0OJO2gYe5YpKs/P1SbL4I6sxvqNMAGoT1pyR/CQ=="
            }
          },
          {
            "validator_address": "49841599DE675157CBE1E7D6B35BF8FFC23BD5CB",
            "validator_index": "28",
            "height": "22960",
            "round": "1",
            "timestamp": "2018-07-31T19:51:58.129992037Z",
            "type": 2,
            "block_id": {
              "hash": "3365554EF3D067119C96CF894FEC2C4FBC535023",
              "parts": {
                "total": "1",
                "hash": "E13D0E5BBE5C7EC7898C52704277D72E2E9DEC4D"
              }
            },
            "signature": {
              "type": "tendermint/SignatureEd25519",
              "value": "K0w29BwVaIawFwR3UZiEXypWfcw5Glw4gLIpBT+jvV7e5TLlCpGOQ6xxkLTse9qoKV4qr5voUnyWK6AcOiahAA=="
            }
          },
          null,
          {
            "validator_address": "543564ECA3AFEFADC73EE8591AAC3A96F079BC8A",
            "validator_index": "30",
            "height": "22960",
            "round": "1",
            "timestamp": "2018-07-31T19:51:58.185142267Z",
            "type": 2,
            "block_id": {
              "hash": "3365554EF3D067119C96CF894FEC2C4FBC535023",
              "parts": {
                "total": "1",
                "hash": "E13D0E5BBE5C7EC7898C52704277D72E2E9DEC4D"
              }
            },
            "signature": {
              "type": "tendermint/SignatureEd25519",
              "value": "PXz3c34+RtJvQ8jKfjvsiWnErBCKJHY62YrVyfO1fxMXHRHWaJkhMbdkg9igKDzqn9WezlxXPR44F1mOtBhdBA=="
            }
          },
          {
            "validator_address": "55D67B1A6DC13E96F8754A5A42EABC20F7F86664",
            "validator_index": "31",
            "height": "22960",
            "round": "1",
            "timestamp": "2018-07-31T19:51:58.161740814Z",
            "type": 2,
            "block_id": {
              "hash": "3365554EF3D067119C96CF894FEC2C4FBC535023",
              "parts": {
                "total": "1",
                "hash": "E13D0E5BBE5C7EC7898C52704277D72E2E9DEC4D"
              }
            },
            "signature": {
              "type": "tendermint/SignatureEd25519",
              "value": "AkC8orW4P+MOIXkX19KlecRiUnhbEgB4nALw/p5swJmc+FShKJxrIcicVr0U8TksTvvP0yDcuYhJPfNOfevuDA=="
            }
          },
          null,
          {
            "validator_address": "5BDF8EA41B1835FBAD865B181A2A4B23F511B5E4",
            "validator_index": "33",
            "height": "22960",
            "round": "1",
            "timestamp": "2018-07-31T19:51:58.205751864Z",
            "type": 2,
            "block_id": {
              "hash": "3365554EF3D067119C96CF894FEC2C4FBC535023",
              "parts": {
                "total": "1",
                "hash": "E13D0E5BBE5C7EC7898C52704277D72E2E9DEC4D"
              }
            },
            "signature": {
              "type": "tendermint/SignatureEd25519",
              "value": "JLpTn2i+OJENsLjqlTa6nOuO5m/FidFyp6lsEQMAlMEktm14y4mTtYxKFXe05peGuu4KXwinZkiL85MN8z/6Dw=="
            }
          },
          {
            "validator_address": "60229E2E273297FE00219E46DFFB8F76844CDEF9",
            "validator_index": "34",
            "height": "22960",
            "round": "1",
            "timestamp": "2018-07-31T19:51:56.845033341Z",
            "type": 2,
            "block_id": {
              "hash": "3365554EF3D067119C96CF894FEC2C4FBC535023",
              "parts": {
                "total": "1",
                "hash": "E13D0E5BBE5C7EC7898C52704277D72E2E9DEC4D"
              }
            },
            "signature": {
              "type": "tendermint/SignatureEd25519",
              "value": "4LuHy/89dW0gpBfvlcmuth+Z6mGBroUhgBU1lK01a0RdS0CHRDW4vn2JANWZir8GTYc0IqNcD8TGIVaL1yuRDQ=="
            }
          },
          {
            "validator_address": "62410D6D1CD98278136E4D0738AA0EA273CDFC54",
            "validator_index": "35",
            "height": "22960",
            "round": "1",
            "timestamp": "2018-07-31T19:51:58.222904006Z",
            "type": 2,
            "block_id": {
              "hash": "3365554EF3D067119C96CF894FEC2C4FBC535023",
              "parts": {
                "total": "1",
                "hash": "E13D0E5BBE5C7EC7898C52704277D72E2E9DEC4D"
              }
            },
            "signature": {
              "type": "tendermint/SignatureEd25519",
              "value": "lyN9THQastk2GMB0+Wv4LgckNssRqyW2c1/NN4oQrQq9GpnDSVBTC/9i+ZLhWvH7HvdBk6JXsWSGUrFYQcTlBA=="
            }
          },
          {
            "validator_address": "632F5C139A5A9DFBFE5111DEE29FCFB6157207DC",
            "validator_index": "36",
            "height": "22960",
            "round": "1",
            "timestamp": "2018-07-31T19:51:58.219704755Z",
            "type": 2,
            "block_id": {
              "hash": "3365554EF3D067119C96CF894FEC2C4FBC535023",
              "parts": {
                "total": "1",
                "hash": "E13D0E5BBE5C7EC7898C52704277D72E2E9DEC4D"
              }
            },
            "signature": {
              "type": "tendermint/SignatureEd25519",
              "value": "jj0E4FyiYLIMTEnMZ6jawkW4uEUDCZJcYchdj+b65habF9XNlcwAFdRgQXm8HCBCSltVANSMwTZFGNTkWetGAA=="
            }
          },
          {
            "validator_address": "64F57F8E796A9B7B590C1EFA4123988C86631D39",
            "validator_index": "37",
            "height": "22960",
            "round": "1",
            "timestamp": "2018-07-31T19:51:58.14857025Z",
            "type": 2,
            "block_id": {
              "hash": "3365554EF3D067119C96CF894FEC2C4FBC535023",
              "parts": {
                "total": "1",
                "hash": "E13D0E5BBE5C7EC7898C52704277D72E2E9DEC4D"
              }
            },
            "signature": {
              "type": "tendermint/SignatureEd25519",
              "value": "igAldupO0R5kBQhNf6ko2A3W2cG09SA/a5Gg2BVkXp1gctoUS+sT7hQhrUebERCbHlKHq+B1jUoud73QfzHBDQ=="
            }
          },
          {
            "validator_address": "69D99B2C66043ACBEAA8447525C356AFC6408E0C",
            "validator_index": "38",
            "height": "22960",
            "round": "1",
            "timestamp": "2018-07-31T19:51:58.303756265Z",
            "type": 2,
            "block_id": {
              "hash": "3365554EF3D067119C96CF894FEC2C4FBC535023",
              "parts": {
                "total": "1",
                "hash": "E13D0E5BBE5C7EC7898C52704277D72E2E9DEC4D"
              }
            },
            "signature": {
              "type": "tendermint/SignatureEd25519",
              "value": "OnE+Tn3r480OgsZWBbSu8ZahZ4NPLsz/eUyCUdrfZUbYXr5M1cg8FI+mB7nkdx8bBLG9Zvt02O2JaBDKfKIfAA=="
            }
          },
          null,
          {
            "validator_address": "6D3AD380E398D8592B03AA124BAFED5F125DF863",
            "validator_index": "40",
            "height": "22960",
            "round": "1",
            "timestamp": "2018-07-31T19:50:56.271907985Z",
            "type": 2,
            "block_id": {
              "hash": "3365554EF3D067119C96CF894FEC2C4FBC535023",
              "parts": {
                "total": "1",
                "hash": "E13D0E5BBE5C7EC7898C52704277D72E2E9DEC4D"
              }
            },
            "signature": {
              "type": "tendermint/SignatureEd25519",
              "value": "7wEY7g832wYhxc4dDhy5c+rQ8XjZksN7qMn44MrCjHBJ7+0nPvC6MQvdcQV+FIT2hBazzvR8MTzHn3EkTXk8DQ=="
            }
          },
          {
            "validator_address": "6F6C93B8BF3495063FEC9B5C771158607F4AE9D6",
            "validator_index": "41",
            "height": "22960",
            "round": "1",
            "timestamp": "2018-07-31T19:51:58.234370065Z",
            "type": 2,
            "block_id": {
              "hash": "3365554EF3D067119C96CF894FEC2C4FBC535023",
              "parts": {
                "total": "1",
                "hash": "E13D0E5BBE5C7EC7898C52704277D72E2E9DEC4D"
              }
            },
            "signature": {
              "type": "tendermint/SignatureEd25519",
              "value": "/dWHXS9rLt6ru7RYc61Soters2hc2KjHG2c0n39q0CRynglGIZyQ4E6x51NklDmxqRnkVMMtvg42ExiMmUCECw=="
            }
          },
          {
            "validator_address": "732CEEF54C374DDC6ADECBFD707AEFD07FEDC143",
            "validator_index": "42",
            "height": "22960",
            "round": "1",
            "timestamp": "2018-07-31T19:51:58.301007079Z",
            "type": 2,
            "block_id": {
              "hash": "3365554EF3D067119C96CF894FEC2C4FBC535023",
              "parts": {
                "total": "1",
                "hash": "E13D0E5BBE5C7EC7898C52704277D72E2E9DEC4D"
              }
            },
            "signature": {
              "type": "tendermint/SignatureEd25519",
              "value": "Dtn+69kdWeU18SYvvtfTLcclU8/ON4hO0ji/m69E1QiNICQB2Ap0VXQmUWCtxo6YJK3cKE+jluTRcvdF+hqTAw=="
            }
          },
          null,
          {
            "validator_address": "751E43437224E8BB6D1569B3E2B2616B6E7F4397",
            "validator_index": "44",
            "height": "22960",
            "round": "1",
            "timestamp": "2018-07-31T19:51:58.231320259Z",
            "type": 2,
            "block_id": {
              "hash": "3365554EF3D067119C96CF894FEC2C4FBC535023",
              "parts": {
                "total": "1",
                "hash": "E13D0E5BBE5C7EC7898C52704277D72E2E9DEC4D"
              }
            },
            "signature": {
              "type": "tendermint/SignatureEd25519",
              "value": "KgNhTUvFm8Xr1nlc+KzaEdInv72VBJ7orDhwEjCNNlnwzSB8A0AyJtQYHBE6RC2ZshURJUqoEPMPAwIS909tCw=="
            }
          },
          {
            "validator_address": "7EB7593F519F1180C7E872D0494611464EDF03AE",
            "validator_index": "45",
            "height": "22960",
            "round": "1",
            "timestamp": "2018-07-31T19:51:58.228296631Z",
            "type": 2,
            "block_id": {
              "hash": "3365554EF3D067119C96CF894FEC2C4FBC535023",
              "parts": {
                "total": "1",
                "hash": "E13D0E5BBE5C7EC7898C52704277D72E2E9DEC4D"
              }
            },
            "signature": {
              "type": "tendermint/SignatureEd25519",
              "value": "2MF90FORkCQicPG0b5H/ShqbQkD+tibFPz+MZeZi3F5rnJuxJOYH31vLW6VRrHJlXw3e1uR77f3Gdx8mwyXYBA=="
            }
          },
          null,
          {
            "validator_address": "8126192EA66E8ADE6B36924534721366B987A4C1",
            "validator_index": "47",
            "height": "22960",
            "round": "1",
            "timestamp": "2018-07-31T19:51:58.196916137Z",
            "type": 2,
            "block_id": {
              "hash": "3365554EF3D067119C96CF894FEC2C4FBC535023",
              "parts": {
                "total": "1",
                "hash": "E13D0E5BBE5C7EC7898C52704277D72E2E9DEC4D"
              }
            },
            "signature": {
              "type": "tendermint/SignatureEd25519",
              "value": "2yafKG8gxhHI5WQOe9Z7wqieTaYvHcpCDhu2YBtCzkDDo0rwnGT3+gDuLsIlR4asNC5DHJPg7MyvuQZCyrxVAg=="
            }
          },
          {
            "validator_address": "83AB321E012C57746689FED3A6064DF331F81007",
            "validator_index": "48",
            "height": "22960",
            "round": "1",
            "timestamp": "2018-07-31T19:51:58.218136728Z",
            "type": 2,
            "block_id": {
              "hash": "3365554EF3D067119C96CF894FEC2C4FBC535023",
              "parts": {
                "total": "1",
                "hash": "E13D0E5BBE5C7EC7898C52704277D72E2E9DEC4D"
              }
            },
            "signature": {
              "type": "tendermint/SignatureEd25519",
              "value": "0tAtJUg9F6MhoIgdF3fx2rx+ODO952bIIkd+qZ96DAVyltUBMQWaCee7jD1wtpKrN04Pso0shMJgtNgwbz21Dg=="
            }
          },
          null,
          {
            "validator_address": "8F06FE1FD042683C426137FBC4BBAA4288924217",
            "validator_index": "50",
            "height": "22960",
            "round": "1",
            "timestamp": "2018-07-31T19:51:58.252865821Z",
            "type": 2,
            "block_id": {
              "hash": "3365554EF3D067119C96CF894FEC2C4FBC535023",
              "parts": {
                "total": "1",
                "hash": "E13D0E5BBE5C7EC7898C52704277D72E2E9DEC4D"
              }
            },
            "signature": {
              "type": "tendermint/SignatureEd25519",
              "value": "ijIOwInWaRY/q0+fYX083eVVCXccxA40Aieg9vqOdiYXMh7DyolzfSbuwpVcDS3PSlG8RFVQCdMmDc2oiuAxCQ=="
            }
          },
          {
            "validator_address": "8F45617BF45B10A3F8283DEBDB35E38C7CA43237",
            "validator_index": "51",
            "height": "22960",
            "round": "1",
            "timestamp": "2018-07-31T19:51:58.194744589Z",
            "type": 2,
            "block_id": {
              "hash": "3365554EF3D067119C96CF894FEC2C4FBC535023",
              "parts": {
                "total": "1",
                "hash": "E13D0E5BBE5C7EC7898C52704277D72E2E9DEC4D"
              }
            },
            "signature": {
              "type": "tendermint/SignatureEd25519",
              "value": "gmyEcDeptPeIiazHSQgcdkVr2UvSnrOv8/mIPBfrU08yXoOwxZ8WnDUM9ETfoi02N6s7yDAHX24Xit7tCnXlAA=="
            }
          },
          {
            "validator_address": "95980831E186F2540F6E9FB6C8E74DE2401405AC",
            "validator_index": "52",
            "height": "22960",
            "round": "1",
            "timestamp": "2018-07-31T19:51:58.27240812Z",
            "type": 2,
            "block_id": {
              "hash": "3365554EF3D067119C96CF894FEC2C4FBC535023",
              "parts": {
                "total": "1",
                "hash": "E13D0E5BBE5C7EC7898C52704277D72E2E9DEC4D"
              }
            },
            "signature": {
              "type": "tendermint/SignatureEd25519",
              "value": "ayPzxe2u2SYNemEKwcHWF7O9SG6wCS24aE3lKjX1ft2NcMlMUPmJT5Hrj4jJ25SMfKm4ksEXK+plhj7y7PCvCw=="
            }
          },
          {
            "validator_address": "95FAFBC1E0579C83D290A063020CE87C5334BD9B",
            "validator_index": "53",
            "height": "22960",
            "round": "1",
            "timestamp": "2018-07-31T19:51:58.234986715Z",
            "type": 2,
            "block_id": {
              "hash": "3365554EF3D067119C96CF894FEC2C4FBC535023",
              "parts": {
                "total": "1",
                "hash": "E13D0E5BBE5C7EC7898C52704277D72E2E9DEC4D"
              }
            },
            "signature": {
              "type": "tendermint/SignatureEd25519",
              "value": "1qGPJWnLqmD8R8m/S+HtyRNVF01z/D1+9se7AO9PCddPWAF8KsjdZ8yxZT2NnsMwvfGBd38SE7j4w3DEVrfnBw=="
            }
          },
          {
            "validator_address": "96BDE45EC52606CF5CB59853097871AD60680549",
            "validator_index": "54",
            "height": "22960",
            "round": "1",
            "timestamp": "2018-07-31T19:51:58.251506955Z",
            "type": 2,
            "block_id": {
              "hash": "3365554EF3D067119C96CF894FEC2C4FBC535023",
              "parts": {
                "total": "1",
                "hash": "E13D0E5BBE5C7EC7898C52704277D72E2E9DEC4D"
              }
            },
            "signature": {
              "type": "tendermint/SignatureEd25519",
              "value": "puPF1fNU53KPc/1ox2ISHhM7AOddjCyxk2yCbKpR4kUnhTgvjVu/iT1zc+1eumJRXCLF31e8POYyDQh3byZaBw=="
            }
          },
          {
            "validator_address": "970CD321881185BF83DB2923C321B0E75FDBB2B8",
            "validator_index": "55",
            "height": "22960",
            "round": "1",
            "timestamp": "2018-07-31T19:51:58.28193757Z",
            "type": 2,
            "block_id": {
              "hash": "3365554EF3D067119C96CF894FEC2C4FBC535023",
              "parts": {
                "total": "1",
                "hash": "E13D0E5BBE5C7EC7898C52704277D72E2E9DEC4D"
              }
            },
            "signature": {
              "type": "tendermint/SignatureEd25519",
              "value": "25KjsqQUJMD4FjZO6DDEDReToMKSjIRjQ9hNJbXoLQTS/6oylSU+4m9waSky/MKUSbzVtdgSeT0g0oFb8Hd9BA=="
            }
          },
          {
            "validator_address": "97DBB3D4B3D6C29287244864448F651DD5B07390",
            "validator_index": "56",
            "height": "22960",
            "round": "1",
            "timestamp": "2018-07-31T19:51:58.285669667Z",
            "type": 2,
            "block_id": {
              "hash": "3365554EF3D067119C96CF894FEC2C4FBC535023",
              "parts": {
                "total": "1",
                "hash": "E13D0E5BBE5C7EC7898C52704277D72E2E9DEC4D"
              }
            },
            "signature": {
              "type": "tendermint/SignatureEd25519",
              "value": "DJzJGbF1P1oAoIvJ3JrGh5PULn196gTVAWJ1T+A6Id3DQbuRjuyY16pYGtE3RChz1OyjbPAhoh7/vXXBiOc7AA=="
            }
          },
          {
            "validator_address": "9C29C9B76D27586E4D9AD2AED0E943162645E55C",
            "validator_index": "57",
            "height": "22960",
            "round": "1",
            "timestamp": "2018-07-31T19:51:58.159189919Z",
            "type": 2,
            "block_id": {
              "hash": "3365554EF3D067119C96CF894FEC2C4FBC535023",
              "parts": {
                "total": "1",
                "hash": "E13D0E5BBE5C7EC7898C52704277D72E2E9DEC4D"
              }
            },
            "signature": {
              "type": "tendermint/SignatureEd25519",
              "value": "CofNZACHl22mfDdcqEu+1NsJvlwDoOJ4/CqpHPrD2Dky9fQExrHV/axrAiE9psRvWOgX6fUMYpICdmynsM9nBQ=="
            }
          },
          {
            "validator_address": "9D93AD02FE1BD7E76B9E58D7EB461088EAD011E5",
            "validator_index": "58",
            "height": "22960",
            "round": "1",
            "timestamp": "2018-07-31T19:51:58.200963837Z",
            "type": 2,
            "block_id": {
              "hash": "3365554EF3D067119C96CF894FEC2C4FBC535023",
              "parts": {
                "total": "1",
                "hash": "E13D0E5BBE5C7EC7898C52704277D72E2E9DEC4D"
              }
            },
            "signature": {
              "type": "tendermint/SignatureEd25519",
              "value": "z4xrU3Lujh0d5RELeudRhmcNkuW7+zFpz+8jgX2Yo61VNSt6RkJfmkCv+wskIQU5XYJfgjr3XQGrS0YILip6Cw=="
            }
          },
          {
            "validator_address": "A0A6466F4ABEA09C3B55E3709AFDE217A103209F",
            "validator_index": "59",
            "height": "22960",
            "round": "1",
            "timestamp": "2018-07-31T19:51:58.149522177Z",
            "type": 2,
            "block_id": {
              "hash": "3365554EF3D067119C96CF894FEC2C4FBC535023",
              "parts": {
                "total": "1",
                "hash": "E13D0E5BBE5C7EC7898C52704277D72E2E9DEC4D"
              }
            },
            "signature": {
              "type": "tendermint/SignatureEd25519",
              "value": "w3B1V0Q21zNA6DEfd/JWkpy0MLUdxh0AyajLDVDywdsYaPjJF2qVuMPA9kQ1R8jBA7RbzdaoOTXvy9rYiZKFDQ=="
            }
          },
          {
            "validator_address": "A5868971300F155020634D7BB49C7634F7AACCD3",
            "validator_index": "60",
            "height": "22960",
            "round": "1",
            "timestamp": "2018-07-31T19:51:58.249525814Z",
            "type": 2,
            "block_id": {
              "hash": "3365554EF3D067119C96CF894FEC2C4FBC535023",
              "parts": {
                "total": "1",
                "hash": "E13D0E5BBE5C7EC7898C52704277D72E2E9DEC4D"
              }
            },
            "signature": {
              "type": "tendermint/SignatureEd25519",
              "value": "olUgeDg3h6VJVZeR76m4ouqQZFF2BxfZgNeFx3xruY9l1LSt+E3GyaR0b76y/AymsAiXZfvEfuhqVtxnVdpQDA=="
            }
          },
          {
            "validator_address": "A6B3A5B5D982CFD7B5FDFA15CF5A720E7AE25E7F",
            "validator_index": "61",
            "height": "22960",
            "round": "1",
            "timestamp": "2018-07-31T19:51:58.206690127Z",
            "type": 2,
            "block_id": {
              "hash": "3365554EF3D067119C96CF894FEC2C4FBC535023",
              "parts": {
                "total": "1",
                "hash": "E13D0E5BBE5C7EC7898C52704277D72E2E9DEC4D"
              }
            },
            "signature": {
              "type": "tendermint/SignatureEd25519",
              "value": "lJ+N6rFyLpwPSiAecPc9R4rIswKVsbFJ/fiP6DkqwPZUDixvwTiqjDswkQW5iPT9cigQTnbs7IKUp5mqhpJKCA=="
            }
          },
          {
            "validator_address": "AC96444A9083890B7C7B430DB17BF1D3EA5EED04",
            "validator_index": "62",
            "height": "22960",
            "round": "1",
            "timestamp": "2018-07-31T19:51:58.232639011Z",
            "type": 2,
            "block_id": {
              "hash": "3365554EF3D067119C96CF894FEC2C4FBC535023",
              "parts": {
                "total": "1",
                "hash": "E13D0E5BBE5C7EC7898C52704277D72E2E9DEC4D"
              }
            },
            "signature": {
              "type": "tendermint/SignatureEd25519",
              "value": "HFfpawh44XhMSVwk4z1ObJ7uKKnv2oNxVQ+NMAYNpszCO88GH7UNSxmstsqy8CAwyxgJL5UDGWRbUjXjPfMqCA=="
            }
          },
          {
            "validator_address": "ACB97FDA2D940AF0709B73537C458EB988AD2893",
            "validator_index": "63",
            "height": "22960",
            "round": "1",
            "timestamp": "2018-07-31T19:51:58.162449171Z",
            "type": 2,
            "block_id": {
              "hash": "3365554EF3D067119C96CF894FEC2C4FBC535023",
              "parts": {
                "total": "1",
                "hash": "E13D0E5BBE5C7EC7898C52704277D72E2E9DEC4D"
              }
            },
            "signature": {
              "type": "tendermint/SignatureEd25519",
              "value": "WrIzhtJUIjzFABz0nxmg32P5ju4set+mq3nwPRrteTxM/OMlcb5ySjK2kIl7XW4CuosHcO70quhx6DEtUla1Bw=="
            }
          },
          {
            "validator_address": "B197425B3210375F211661DE02EF2AE36580EB0F",
            "validator_index": "64",
            "height": "22960",
            "round": "1",
            "timestamp": "2018-07-31T19:51:58.228238006Z",
            "type": 2,
            "block_id": {
              "hash": "3365554EF3D067119C96CF894FEC2C4FBC535023",
              "parts": {
                "total": "1",
                "hash": "E13D0E5BBE5C7EC7898C52704277D72E2E9DEC4D"
              }
            },
            "signature": {
              "type": "tendermint/SignatureEd25519",
              "value": "DpwRHRfg1V4o6pELrR5jZIYEQDboJaBmjlziEUex3bf99jWjqkoCeCFvWB9nxPj25sA3C/Hjc9mzswuZnpIOBg=="
            }
          },
          {
            "validator_address": "B45E54D2D1CB5A4CCD1D49016608C18E7C56B270",
            "validator_index": "65",
            "height": "22960",
            "round": "1",
            "timestamp": "2018-07-31T19:51:58.33456982Z",
            "type": 2,
            "block_id": {
              "hash": "3365554EF3D067119C96CF894FEC2C4FBC535023",
              "parts": {
                "total": "1",
                "hash": "E13D0E5BBE5C7EC7898C52704277D72E2E9DEC4D"
              }
            },
            "signature": {
              "type": "tendermint/SignatureEd25519",
              "value": "bQFzds4tnn9yFXAdZF2MhQyIyjZtLqyU7MGltsR5roN8Fej8eK30KATTMHgk4l9+eVE9bP3Gl2G5meGlukhnBg=="
            }
          },
          null,
          {
            "validator_address": "BB1276BE89834835428664408917649FEEF5D90C",
            "validator_index": "67",
            "height": "22960",
            "round": "1",
            "timestamp": "2018-07-31T19:51:58.310532616Z",
            "type": 2,
            "block_id": {
              "hash": "3365554EF3D067119C96CF894FEC2C4FBC535023",
              "parts": {
                "total": "1",
                "hash": "E13D0E5BBE5C7EC7898C52704277D72E2E9DEC4D"
              }
            },
            "signature": {
              "type": "tendermint/SignatureEd25519",
              "value": "iZmFwElzQd7VNmLIhLLcCz1C3GqwSft6R9qss+pz2CqnU9L5GW7jeUA4RIt7+k1bONELV6yXOdvdvhpFfCjnBQ=="
            }
          },
          {
            "validator_address": "BC36FEDD6EF6071118A3E51859DF3831A2EC4782",
            "validator_index": "68",
            "height": "22960",
            "round": "1",
            "timestamp": "2018-07-31T19:51:58.22640939Z",
            "type": 2,
            "block_id": {
              "hash": "3365554EF3D067119C96CF894FEC2C4FBC535023",
              "parts": {
                "total": "1",
                "hash": "E13D0E5BBE5C7EC7898C52704277D72E2E9DEC4D"
              }
            },
            "signature": {
              "type": "tendermint/SignatureEd25519",
              "value": "sOFLSSlRb1/VKbeQLUrTlR7i9THHNr1igjq22YjdEhK1npa+oWYqBVpDaYBvAxIacZr4/jbn2uT3nR5PuZFEDQ=="
            }
          },
          {
            "validator_address": "BD9D0DA513BF099DB4BB6E725A4E19832789882F",
            "validator_index": "69",
            "height": "22960",
            "round": "1",
            "timestamp": "2018-07-31T19:51:58.213358902Z",
            "type": 2,
            "block_id": {
              "hash": "3365554EF3D067119C96CF894FEC2C4FBC535023",
              "parts": {
                "total": "1",
                "hash": "E13D0E5BBE5C7EC7898C52704277D72E2E9DEC4D"
              }
            },
            "signature": {
              "type": "tendermint/SignatureEd25519",
              "value": "uHTFvSFtTWpaQDLgudFDK5hopVRT4rDFA1TXIeos5bXHzXS+nfuGSWSGqDi7mQqFbaUZYIAjFcjBxm2KAjgeCg=="
            }
          },
          null,
          {
            "validator_address": "C39A8A2B85198DCB8F23AD1F6C198E2BA7AB5D60",
            "validator_index": "71",
            "height": "22960",
            "round": "1",
            "timestamp": "2018-07-31T19:51:58.184684317Z",
            "type": 2,
            "block_id": {
              "hash": "3365554EF3D067119C96CF894FEC2C4FBC535023",
              "parts": {
                "total": "1",
                "hash": "E13D0E5BBE5C7EC7898C52704277D72E2E9DEC4D"
              }
            },
            "signature": {
              "type": "tendermint/SignatureEd25519",
              "value": "0lBSZp7/mbtO57UJhRNSXRpmNFqk8AeMMXgwwTh5aHVP4gaRArrOeS3TzoLTD1j9jqHRrhx+oNOP+uAdEv8+Cg=="
            }
          },
          {
            "validator_address": "C4335190C3B5BD4BA5568BC0F99C34162D940D08",
            "validator_index": "72",
            "height": "22960",
            "round": "1",
            "timestamp": "2018-07-31T19:51:58.27321578Z",
            "type": 2,
            "block_id": {
              "hash": "3365554EF3D067119C96CF894FEC2C4FBC535023",
              "parts": {
                "total": "1",
                "hash": "E13D0E5BBE5C7EC7898C52704277D72E2E9DEC4D"
              }
            },
            "signature": {
              "type": "tendermint/SignatureEd25519",
              "value": "8eYxXAvCZtAbdqxgdlhRftfeOoa2f6X/xdCvYVfV4I7Kr0Gu5yf43Dc9Zk4tCoJp1OlFrLDUdECbxmaxwt/5Cg=="
            }
          },
          null,
          {
            "validator_address": "CE589EA77B056D268D30D1DC1D68A70E0F885E95",
            "validator_index": "74",
            "height": "22960",
            "round": "1",
            "timestamp": "2018-07-31T19:51:58.223337873Z",
            "type": 2,
            "block_id": {
              "hash": "3365554EF3D067119C96CF894FEC2C4FBC535023",
              "parts": {
                "total": "1",
                "hash": "E13D0E5BBE5C7EC7898C52704277D72E2E9DEC4D"
              }
            },
            "signature": {
              "type": "tendermint/SignatureEd25519",
              "value": "461/nqcIk8l20CrIINXiGbSO7yNA/FHwHTxFPeFKR0KhSJe22lrfPTdjw2omuUFxH+KFBVM04+VGjdP/+lSBCA=="
            }
          },
          {
            "validator_address": "CEB97DB5CB18270247ABDE6CF2F84F9AEE8A2904",
            "validator_index": "75",
            "height": "22960",
            "round": "1",
            "timestamp": "2018-07-31T19:51:58.54492964Z",
            "type": 2,
            "block_id": {
              "hash": "3365554EF3D067119C96CF894FEC2C4FBC535023",
              "parts": {
                "total": "1",
                "hash": "E13D0E5BBE5C7EC7898C52704277D72E2E9DEC4D"
              }
            },
            "signature": {
              "type": "tendermint/SignatureEd25519",
              "value": "PFptSBuM1Af7Uy6lCtMiAz8lFtz0SP45Cj7B1zYjQrXEJEwRFwrPwAoSFLaiM2jqkP4s8OWa/uA9GF8mUSEYAg=="
            }
          },
          null,
          null,
          null,
          {
            "validator_address": "D77FB84A729972CD3E757C9BEB61561855832B92",
            "validator_index": "79",
            "height": "22960",
            "round": "1",
            "timestamp": "2018-07-31T19:51:58.361388426Z",
            "type": 2,
            "block_id": {
              "hash": "3365554EF3D067119C96CF894FEC2C4FBC535023",
              "parts": {
                "total": "1",
                "hash": "E13D0E5BBE5C7EC7898C52704277D72E2E9DEC4D"
              }
            },
            "signature": {
              "type": "tendermint/SignatureEd25519",
              "value": "yI81GJxH7DX+wdu/c11wMSk2xQrywhzQFwfQalvE7nXan9EMV9rSb6nXxx0y/NkRpzs4QctDHfliTCLcsPegCQ=="
            }
          },
          {
            "validator_address": "DB7E6732471D3EA5C90C17A9974D9F88AB45F2FB",
            "validator_index": "80",
            "height": "22960",
            "round": "1",
            "timestamp": "2018-07-31T19:51:58.199403503Z",
            "type": 2,
            "block_id": {
              "hash": "3365554EF3D067119C96CF894FEC2C4FBC535023",
              "parts": {
                "total": "1",
                "hash": "E13D0E5BBE5C7EC7898C52704277D72E2E9DEC4D"
              }
            },
            "signature": {
              "type": "tendermint/SignatureEd25519",
              "value": "C55iEVe9CvfCyuY/MY8ffRXCWz5eVuz0A8chqOMO62R409Fj+YCeqbuPttALRD6OqwKl1mC8YnELbS6f5h5BAA=="
            }
          },
          null,
          {
            "validator_address": "DFAF0C8B1B78D6D552B0189DE3ACA351439A1319",
            "validator_index": "82",
            "height": "22960",
            "round": "1",
            "timestamp": "2018-07-31T19:51:58.170009569Z",
            "type": 2,
            "block_id": {
              "hash": "3365554EF3D067119C96CF894FEC2C4FBC535023",
              "parts": {
                "total": "1",
                "hash": "E13D0E5BBE5C7EC7898C52704277D72E2E9DEC4D"
              }
            },
            "signature": {
              "type": "tendermint/SignatureEd25519",
              "value": "nrqP4HlLkFQOfkXbvPxyKhd1tKvq3qp0FHhEjbniDAvRNTTvFskm8f4ijsxfmipu9+b/mYE+r6Wj7+zvbHHrCA=="
            }
          },
          {
            "validator_address": "E1DBC77881161A5A3A8536A57536EAE546A75D69",
            "validator_index": "83",
            "height": "22960",
            "round": "1",
            "timestamp": "2018-07-31T19:51:58.159713248Z",
            "type": 2,
            "block_id": {
              "hash": "3365554EF3D067119C96CF894FEC2C4FBC535023",
              "parts": {
                "total": "1",
                "hash": "E13D0E5BBE5C7EC7898C52704277D72E2E9DEC4D"
              }
            },
            "signature": {
              "type": "tendermint/SignatureEd25519",
              "value": "e7fcIJF8mQycwJcPZ/UzvZoAVwEpeW3L43+/wf3w/VZNbA5Qjekz/xHFDEfDupVPMZjdQLL6NtaGhFf6v/hvCQ=="
            }
          },
          null,
          {
            "validator_address": "E39B5778E0D4297A46F45CF6940B0A163A430FF8",
            "validator_index": "85",
            "height": "22960",
            "round": "1",
            "timestamp": "2018-07-31T19:51:58.23638Z",
            "type": 2,
            "block_id": {
              "hash": "3365554EF3D067119C96CF894FEC2C4FBC535023",
              "parts": {
                "total": "1",
                "hash": "E13D0E5BBE5C7EC7898C52704277D72E2E9DEC4D"
              }
            },
            "signature": {
              "type": "tendermint/SignatureEd25519",
              "value": "erMoI1k0s/1h7hJ/1PYPqqcVkh/+aud7XSUsm7K9Ys4OSG5jFrMQWvqgj+7gQf72y/YUeaZcSmp28A3sQr5OBQ=="
            }
          },
          {
            "validator_address": "E3B19738F7132F950668504D326C7660F159D170",
            "validator_index": "86",
            "height": "22960",
            "round": "1",
            "timestamp": "2018-07-31T19:51:58.160393556Z",
            "type": 2,
            "block_id": {
              "hash": "3365554EF3D067119C96CF894FEC2C4FBC535023",
              "parts": {
                "total": "1",
                "hash": "E13D0E5BBE5C7EC7898C52704277D72E2E9DEC4D"
              }
            },
            "signature": {
              "type": "tendermint/SignatureEd25519",
              "value": "3lntPsBg9coLgLqXNiZSewLF079lbJAE0DzglZ5fu9FJk6DAfV5so5zouagauAieq69zVoFsQK47/OdnHdLnBA=="
            }
          },
          {
            "validator_address": "E42F8AEABB685219F7027F54D2B0DBC7846F633A",
            "validator_index": "87",
            "height": "22960",
            "round": "1",
            "timestamp": "2018-07-31T19:51:57.384015154Z",
            "type": 2,
            "block_id": {
              "hash": "3365554EF3D067119C96CF894FEC2C4FBC535023",
              "parts": {
                "total": "1",
                "hash": "E13D0E5BBE5C7EC7898C52704277D72E2E9DEC4D"
              }
            },
            "signature": {
              "type": "tendermint/SignatureEd25519",
              "value": "21dAeJ8nBCAcI9tHhOcPOnwTMwrm/Vw9au/eTGkSLF3ahf4Noex+aIjwG60AdszswyHn8yR1kNgfpzaJ1BgNCQ=="
            }
          },
          {
            "validator_address": "E4E6C2E81269DFFA196C17F98240E491479A6008",
            "validator_index": "88",
            "height": "22960",
            "round": "1",
            "timestamp": "2018-07-31T19:51:58.255748184Z",
            "type": 2,
            "block_id": {
              "hash": "3365554EF3D067119C96CF894FEC2C4FBC535023",
              "parts": {
                "total": "1",
                "hash": "E13D0E5BBE5C7EC7898C52704277D72E2E9DEC4D"
              }
            },
            "signature": {
              "type": "tendermint/SignatureEd25519",
              "value": "UnH1bwMbiYoY2TTbYagIxjugIcxP5dm6Rba+0WuNo8tyqXjFUOJMCdOKPdIFz3HLniDoKiQ0IdUZZON6cE/gDw=="
            }
          },
          null,
          null,
          {
            "validator_address": "E7A30077D5D11867D3EAF99ED45BFDC1EB834509",
            "validator_index": "91",
            "height": "22960",
            "round": "1",
            "timestamp": "2018-07-31T19:51:58.172995013Z",
            "type": 2,
            "block_id": {
              "hash": "3365554EF3D067119C96CF894FEC2C4FBC535023",
              "parts": {
                "total": "1",
                "hash": "E13D0E5BBE5C7EC7898C52704277D72E2E9DEC4D"
              }
            },
            "signature": {
              "type": "tendermint/SignatureEd25519",
              "value": "KSVVnkp5m0D/+wntaz/NrXuEWXjyALNDcsWsPICFH5gNoRx59lFyltnXk3LdW8ntpVOiItQyZuWoWuvsJlwmDQ=="
            }
          },
          {
            "validator_address": "EBC613967F66F4EC306852CDF58B4F151CF16738",
            "validator_index": "92",
            "height": "22960",
            "round": "1",
            "timestamp": "2018-07-31T19:51:58.236672818Z",
            "type": 2,
            "block_id": {
              "hash": "3365554EF3D067119C96CF894FEC2C4FBC535023",
              "parts": {
                "total": "1",
                "hash": "E13D0E5BBE5C7EC7898C52704277D72E2E9DEC4D"
              }
            },
            "signature": {
              "type": "tendermint/SignatureEd25519",
              "value": "iOT7Q41Ery1AiOouwTCyQPQvgCS9K01dBCqEUBVZaVBqvs9fG3gstcroivbtr7lpvBl/ZxKUuVtWwd58FeXfDw=="
            }
          },
          {
            "validator_address": "EC3401441726C40ECC7E51F744483B05BC6DE9BD",
            "validator_index": "93",
            "height": "22960",
            "round": "1",
            "timestamp": "2018-07-31T19:51:58.264124894Z",
            "type": 2,
            "block_id": {
              "hash": "3365554EF3D067119C96CF894FEC2C4FBC535023",
              "parts": {
                "total": "1",
                "hash": "E13D0E5BBE5C7EC7898C52704277D72E2E9DEC4D"
              }
            },
            "signature": {
              "type": "tendermint/SignatureEd25519",
              "value": "UnvBHdn6x1v8+fXnAbQwTR4izalIgwDe+e40sVQ4NQzXeE2RzDnMd4MTnU9gUqKyglHXn+n60ph1mYanDIo3CQ=="
            }
          },
          {
            "validator_address": "EC95B111D032181E1EC3B5E8875C5BB8E4AE7140",
            "validator_index": "94",
            "height": "22960",
            "round": "1",
            "timestamp": "2018-07-31T19:51:58.190176913Z",
            "type": 2,
            "block_id": {
              "hash": "3365554EF3D067119C96CF894FEC2C4FBC535023",
              "parts": {
                "total": "1",
                "hash": "E13D0E5BBE5C7EC7898C52704277D72E2E9DEC4D"
              }
            },
            "signature": {
              "type": "tendermint/SignatureEd25519",
              "value": "dTVzfcQ38x2ewfSVMRgz70Yha1l2FRGdd7ShJcdnS+nPTiyVhVfiHApYCx/H/quAZFOR4T4mqMoR+f/A9eVJAQ=="
            }
          },
          {
            "validator_address": "F13C1805E8131C9B47E2A46818F57D8A2841E578",
            "validator_index": "95",
            "height": "22960",
            "round": "1",
            "timestamp": "2018-07-31T19:51:58.277408686Z",
            "type": 2,
            "block_id": {
              "hash": "3365554EF3D067119C96CF894FEC2C4FBC535023",
              "parts": {
                "total": "1",
                "hash": "E13D0E5BBE5C7EC7898C52704277D72E2E9DEC4D"
              }
            },
            "signature": {
              "type": "tendermint/SignatureEd25519",
              "value": "XbWSIsTEaAKCQhgJfFCvNjPPtRcA1ORsWlNDv0bEIJwkMOnP7f5nbABwoKX5FMJU/mFz1cMJYzCEhbZBg7q6Cg=="
            }
          },
          {
            "validator_address": "F23FF36BD5B90C33CE3A03ED72DBDCF5EC07D6AF",
            "validator_index": "96",
            "height": "22960",
            "round": "1",
            "timestamp": "2018-07-31T19:51:58.241096648Z",
            "type": 2,
            "block_id": {
              "hash": "3365554EF3D067119C96CF894FEC2C4FBC535023",
              "parts": {
                "total": "1",
                "hash": "E13D0E5BBE5C7EC7898C52704277D72E2E9DEC4D"
              }
            },
            "signature": {
              "type": "tendermint/SignatureEd25519",
              "value": "r61YAX2fuoerNn9Qmge24pzdwytkAhl+nHHYqmV6sM8OHKKMTYnEEFJBebMI+3q5fyQ5KMxWjZoJDfvuTs4aCw=="
            }
          },
          {
            "validator_address": "F4268597DE93E3E2CED38845010F8AA34E2A879E",
            "validator_index": "97",
            "height": "22960",
            "round": "1",
            "timestamp": "2018-07-31T19:51:58.2219884Z",
            "type": 2,
            "block_id": {
              "hash": "3365554EF3D067119C96CF894FEC2C4FBC535023",
              "parts": {
                "total": "1",
                "hash": "E13D0E5BBE5C7EC7898C52704277D72E2E9DEC4D"
              }
            },
            "signature": {
              "type": "tendermint/SignatureEd25519",
              "value": "I0HrWn+qBBLTsforX8lmaCszKrrVVwJh+toFbaYWqYuIF98Y0kG9kxmCPKzPR5lXMZShbg0gIfkvCpBw8PxjAg=="
            }
          },
          {
            "validator_address": "F4DEB417999B04BE2EFF9FFE03FA373D86011CC0",
            "validator_index": "98",
            "height": "22960",
            "round": "1",
            "timestamp": "2018-07-31T19:51:58.287478881Z",
            "type": 2,
            "block_id": {
              "hash": "3365554EF3D067119C96CF894FEC2C4FBC535023",
              "parts": {
                "total": "1",
                "hash": "E13D0E5BBE5C7EC7898C52704277D72E2E9DEC4D"
              }
            },
            "signature": {
              "type": "tendermint/SignatureEd25519",
              "value": "JUA0N01kc9wqndjWyz5Wd5ESRDkvfXgZN50ASbjBQifmd9vuSrc5aa6Dd+y4AcG7+Baxdi5nxTS5z5o+fau4AQ=="
            }
          },
          {
            "validator_address": "F6738260186D33D9C14FC6E7017AFE6BB952A63D",
            "validator_index": "99",
            "height": "22960",
            "round": "1",
            "timestamp": "2018-07-31T19:51:58.20060906Z",
            "type": 2,
            "block_id": {
              "hash": "3365554EF3D067119C96CF894FEC2C4FBC535023",
              "parts": {
                "total": "1",
                "hash": "E13D0E5BBE5C7EC7898C52704277D72E2E9DEC4D"
              }
            },
            "signature": {
              "type": "tendermint/SignatureEd25519",
              "value": "HqYl0VE/rlZWdsZ1WRl9rhseU/mtrOvwZZVdSdQ/Fd49/op+uneHQwJMmGaz8PgsxELpoiwTfnmzaH5SMQM4CQ=="
            }
          },
          {
            "validator_address": "FF3F3FCBCE7E62D7AD5506FF846EC4518D980515",
            "validator_index": "100",
            "height": "22960",
            "round": "1",
            "timestamp": "2018-07-31T19:51:58.149661566Z",
            "type": 2,
            "block_id": {
              "hash": "3365554EF3D067119C96CF894FEC2C4FBC535023",
              "parts": {
                "total": "1",
                "hash": "E13D0E5BBE5C7EC7898C52704277D72E2E9DEC4D"
              }
            },
            "signature": {
              "type": "tendermint/SignatureEd25519",
              "value": "kncnuFPPt+uIZ4p1F7ahwSlETB/E0vMTfuQrGnbGyRVhIk9fRQMybBB+xrdtdG0QX36+LkYnQHJ4G5XcBeLJBw=="
            }
          }
        ]
      }
    },
    "canonical": true
  }
}