{
  "jsonrpc": "2.0",
  "id": "",
  "result": {
    "SignedHeader": {
      "header": {
        "chain_id": "gaia-7004",
        "height": "23266",
        "time": "2018-07-31T20:21:59.892274792Z",
        "num_txs": "0",
        "last_block_id": {
          "hash": "AF05E105F0BC957BA54C85F67B6EA28359E10B26",
          "parts": {
            "total": "1",
            "hash": "AB1092852935D3C0BA774B474BC39F08A235CE3B"
          }
        },
        "total_txs": "675",
        "last_commit_hash": "C300694881B1C815E1CE747EC577235128659F4D",
        "data_hash": "",
        "validators_hash": "5EBCC9A2622640ACA18EB22287DFE2FE2599C2F5",
        "consensus_hash": "D6B74BB35BDFFD8392340F2A379173548AE188FE",
        "app_hash": "9805990A6A867C9128D7F7B3C691A1F9B0568090",
        "last_results_hash": "",
        "evidence_hash": ""
      },
      "commit": {
        "block_id": {
          "hash": "42314AC3A8676CFBF2C2D4ABDC2D4DA62058671D",
          "parts": {
            "total": "1",
            "hash": "C01F60486FDD949BB5517D05296020826FA46B32"
          }
        },
        "precommits": [
          {
            "validator_address": "029359C0C768096273A68ABC902A6B17AC8D1D70",
            "validator_index": "0",
            "height": "23266",
            "round": "1",
            "timestamp": "2018-07-31T20:22:00.71158082Z",
            "type": 2,
            "block_id": {
              "hash": "42314AC3A8676CFBF2C2D4ABDC2D4DA62058671D",
              "parts": {
                "total": "1",
                "hash": "C01F60486FDD949BB5517D05296020826FA46B32"
              }
            },
            "signature": {
              "type": "tendermint/SignatureEd25519",
              "value": "GtJxWl0X2UHK7vWaEQ2IdVeLDEUtpJ6/QkeSLUmDsDCfwh6zORH442aPeN/twHtmkxBIKqoifYDwjULYHLxDBg=="
            }
          },
          {
            "validator_address": "02FE4B97A8387F39D1AC19E0C1702B3CC614812F",
            "validator_index": "1",
            "height": "23266",
            "round": "1",
            "timestamp": "2018-07-31T20:22:00.704497498Z",
            "type": 2,
            "block_id": {
              "hash": "42314AC3A8676CFBF2C2D4ABDC2D4DA62058671D",
              "parts": {
                "total": "1",
                "hash": "C01F60486FDD949BB5517D05296020826FA46B32"
              }
            },
            "signature": {
              "type": "tendermint/SignatureEd25519",
              "value": "nGUOUbz9tlwsxgGoDl2FVTE9uEiJK2cHPRu/zy4FEJB5lMvWRe+VWMZSURE927I/OZYd1oaCUZlfbh1G2W4ODA=="
            }
          },
          {
            "validator_address": "0548261C50222FD710EB5EBDF03A0E6567B21D20",
            "validator_index": "2",
            "height": "23266",
            "round": "1",
            "timestamp": "2018-07-31T20:22:00.740427007Z",
            "type": 2,
            "block_id": {
              "hash": "42314AC3A8676CFBF2C2D4ABDC2D4DA62058671D",
              "parts": {
                "total": "1",
                "hash": "C01F60486FDD949BB5517D05296020826FA46B32"
              }
            },
            "signature": {
              "type": "tendermint/SignatureEd25519",
              "value": "yZrNJd7lP2bqEDb52sadOM1zsfjdtThnIo4929acUF3/hYx8UwQhg9DyniQId04It7r0S6p1UjPz805hkiqlBw=="
            }
          },
          {
            "validator_address": "09145E611CC27EEB944FC5A956DDF710F943B9EF",
            "validator_index": "3",
            "height": "23266",
            "round": "1",
            "timestamp": "2018-07-31T20:22:00.771950352Z",
            "type": 2,
            "block_id": {
              "hash": "42314AC3A8676CFBF2C2D4ABDC2D4DA62058671D",
              "parts": {
                "total": "1",
                "hash": "C01F60486FDD949BB5517D05296020826FA46B32"
              }
            },
            "signature": {
              "type": "tendermint/SignatureEd25519",
              "value": "qL2wSLYX14X4kjdi+126AbDUl89PJjhRk/H0was7mihy7902xw3SVYcFKU4vUqCQNroHtruNHonWgKkXsyKwBg=="
            }
          },
          {
            "validator_address": "0989D0355A104B67AE0AE028C68FB610690E174B",
            "validator_index": "4",
            "height": "23266",
            "round": "1",
            "timestamp": "2018-07-31T20:22:00.69672738Z",
            "type": 2,
            "block_id": {
              "hash": "42314AC3A8676CFBF2C2D4ABDC2D4DA62058671D",
              "parts": {
                "total": "1",
                "hash": "C01F60486FDD949BB5517D05296020826FA46B32"
              }
            },
            "signature": {
              "type": "tendermint/SignatureEd25519",
              "value": "NnW1l0ZzC2yFAmYPF3vdHKJwRkxybfuaOrF7czTjq2QmuKtemTsHjinG5TZS0mFX5NGAZNBala73szlrjxMhBA=="
            }
          },
          {
            "validator_address": "0A692DBFFE9E5DD28E7DECC33CED1AEB4C0D014E",
            "validator_index": "5",
            "height": "23266",
            "round": "1",
            "timestamp": "2018-07-31T20:22:00.804518116Z",
            "type": 2,
            "block_id": {
              "hash": "42314AC3A8676CFBF2C2D4ABDC2D4DA62058671D",
              "parts": {
                "total": "1",
                "hash": "C01F60486FDD949BB5517D05296020826FA46B32"
              }
            },
            "signature": {
              "type": "tendermint/SignatureEd25519",
              "value": "NKhX3FNUGVg3AE8WZ/lrRk5LPYSrLEEKzJCfelTVZEXuxa6grVpm4puzx2tDdqhqWBhv0WC+SmJTfTUV+3GDAg=="
            }
          },
          {
            "validator_address": "0DDF97111D73DB825138EC15EC27DE5FE8536901",
            "validator_index": "6",
            "height": "23266",
            "round": "1",
            "timestamp": "2018-07-31T20:22:00.759416563Z",
            "type": 2,
            "block_id": {
              "hash": "42314AC3A8676CFBF2C2D4ABDC2D4DA62058671D",
              "parts": {
                "total": "1",
                "hash": "C01F60486FDD949BB5517D05296020826FA46B32"
              }
            },
            "signature": {
              "type": "tendermint/SignatureEd25519",
              "value": "ZPAawV8y9naN2EQKWZoY7cxG+z7arhVtV0xo4+VcPgsGYk7WwsFOOWb+H4nWKjXDN9sWsXqUiP2EyfiBhHyqAQ=="
            }
          },
          {
            "validator_address": "1751786EFC085D5331C61168FFFC8202EA151B4E",
            "validator_index": "7",
            "height": "23266",
            "round": "1",
            "timestamp": "2018-07-31T20:22:00.3078687Z",
            "type": 2,
            "block_id": {
              "hash": "42314AC3A8676CFBF2C2D4ABDC2D4DA62058671D",
              "parts": {
                "total": "1",
                "hash": "C01F60486FDD949BB5517D05296020826FA46B32"
              }
            },
            "signature": {
              "type": "tendermint/SignatureEd25519",
              "value": "Y0lV4vGpeOjVb7dBfLvMtKC0Xn6UCPByworqVgzyUguCaQzLzXhbq6Hyse+MGczTGxrb5Epxmcb4y4B1ud5mBQ=="
            }
          },
          {
            "validator_address": "17BB5CD01E8940FAFB948A04D5FA5A0645E5822E",
            "validator_index": "8",
            "height": "23266",
            "round": "1",
            "timestamp": "2018-07-31T20:22:00.726171193Z",
            "type": 2,
            "block_id": {
              "hash": "42314AC3A8676CFBF2C2D4ABDC2D4DA62058671D",
              "parts": {
                "total": "1",
                "hash": "C01F60486FDD949BB5517D05296020826FA46B32"
              }
            },
            "signature": {
              "type": "tendermint/SignatureEd25519",
              "value": "cmZNsF7cSkgixIWYyTk9Pm6LqMLLysRUsDRT4o3E5g+b39/zU8afUsoRqj5KlozxAM7dYxJ6BTwrue1PBag6AA=="
            }
          },
          {
            "validator_address": "1C683A87904BC38F05004FE83301A3A3E35447EB",
            "validator_index": "9",
            "height": "23266",
            "round": "1",
            "timestamp": "2018-07-31T20:22:00.692996619Z",
            "type": 2,
            "block_id": {
              "hash": "42314AC3A8676CFBF2C2D4ABDC2D4DA62058671D",
              "parts": {
                "total": "1",
                "hash": "C01F60486FDD949BB5517D05296020826FA46B32"
              }
            },
            "signature": {
              "type": "tendermint/SignatureEd25519",
              "value": "kbXZrK1PsGWWJxpx+SQ52JyOMzVoJmLAMpdAgd6gQomjkWmzwhESXl52yzbpceDKpXYcMN5c5fuAaPLiQhrXCA=="
            }
          },
          {
            "validator_address": "1E9CE94FD0BA5CFEB901F90BC658D64D85B134D2",
            "validator_index": "10",
            "height": "23266",
            "round": "1",
            "timestamp": "2018-07-31T20:22:00.753496138Z",
            "type": 2,
            "block_id": {
              "hash": "42314AC3A8676CFBF2C2D4ABDC2D4DA62058671D",
              "parts": {
                "total": "1",
                "hash": "C01F60486FDD949BB5517D05296020826FA46B32"
              }
            },
            "signature": {
              "type": "tendermint/SignatureEd25519",
              "value": "AUWwMFo42GagYWvyejJLve/itnST1vONQ27iV2IT87+Kkze/mo8+0kWbPlUnsgj/YaM3KZqbEz0bldV2jt4aCQ=="
            }
          },
          {
            "validator_address": "1ECD8C5FE1341D74CDC633A245DD56858DE2F9A2",
            "validator_index": "11",
            "height": "23266",
            "round": "1",
            "timestamp": "2018-07-31T20:22:00.961634964Z",
            "type": 2,
            "block_id": {
              "hash": "42314AC3A8676CFBF2C2D4ABDC2D4DA62058671D",
              "parts": {
                "total": "1",
                "hash": "C01F60486FDD949BB5517D05296020826FA46B32"
              }
            },
            "signature": {
              "type": "tendermint/SignatureEd25519",
              "value": "myLw1rrk3uvnSamvBqrwcOJnrDSvDYG/kpf3AK7Gm5vc1mAu8Is761hEtzuoZkkZLbYBb4Mas0oa5C1xp0+sAw=="
            }
          },
          {
            "validator_address": "1F3A68CAAD483768AA2BF667DEF10F7104C89928",
            "validator_index": "12",
            "height": "23266",
            "round": "1",
            "timestamp": "2018-07-31T20:22:00.743422209Z",
            "type": 2,
            "block_id": {
              "hash": "42314AC3A8676CFBF2C2D4ABDC2D4DA62058671D",
              "parts": {
                "total": "1",
                "hash": "C01F60486FDD949BB5517D05296020826FA46B32"
              }
            },
            "signature": {
              "type": "tendermint/SignatureEd25519",
              "value": "uGNRk0tYUhVdDR/2uF/VWugIz8NWl8fdOg1DLEWLUBl5rPbmQhmllc4ZN3BL8jL7/hE2kVxnh+G6K52x0PFvCw=="
            }
          },
          {
            "validator_address": "23897586D68E2AC1C78E0EF5BB5DF5C8EAB18F50",
            "validator_index": "13",
            "height": "23266",
            "round": "1",
            "timestamp": "2018-07-31T20:22:00.763865125Z",
            "type": 2,
            "block_id": {
              "hash": "42314AC3A8676CFBF2C2D4ABDC2D4DA62058671D",
              "parts": {
                "total": "1",
                "hash": "C01F60486FDD949BB5517D05296020826FA46B32"
              }
            },
            "signature": {
              "type": "tendermint/SignatureEd25519",
              "value": "yhkQBfXxIupntVesTVJX8fzP52KAbXAdpBZeZ/mDANe7utWzO8utyTSOQDcNuW+5LsasrScUDvyiW8i10Mi/Aw=="
            }
          },
          {
            "validator_address": "28770D17E8530825E7310A0659308654B7EC9682",
            "validator_index": "14",
            "height": "23266",
            "round": "1",
            "timestamp": "2018-07-31T20:22:00.684565677Z",
            "type": 2,
            "block_id": {
              "hash": "42314AC3A8676CFBF2C2D4ABDC2D4DA62058671D",
              "parts": {
                "total": "1",
                "hash": "C01F60486FDD949BB5517D05296020826FA46B32"
              }
            },
            "signature": {
              "type": "tendermint/SignatureEd25519",
              "value": "8mQasAS+Ve+OIQqvYPmKfoACFlm506hqTq/0a5OhuRlZgLZbqaYxEYl8Vh9wUYfWnZwIn6zD59nadNeMzXvmBw=="
            }
          },
          {
            "validator_address": "2A92EC3C642140202298D0E245095E0ECFC25228",
            "validator_index": "15",
            "height": "23266",
            "round": "1",
            "timestamp": "2018-07-31T20:22:00.763080709Z",
            "type": 2,
            "block_id": {
              "hash": "42314AC3A8676CFBF2C2D4ABDC2D4DA62058671D",
              "parts": {
                "total": "1",
                "hash": "C01F60486FDD949BB5517D05296020826FA46B32"
              }
            },
            "signature": {
              "type": "tendermint/SignatureEd25519",
              "value": "ot6V6SJr6+SIt6kZmvrTGXz1/SgCMW020p6YloKbK/qiH1IqLYTTtw1yXaYSvtex9bFgI+SeSedDnjvAwkAVAw=="
            }
          },
          {
            "validator_address": "33412C9A69C60CB0FAA24A5C5B3A906DE24B47C2",
            "validator_index": "16",
            "height": "23266",
            "round": "1",
            "timestamp": "2018-07-31T20:22:00.681403881Z",
            "type": 2,
            "block_id": {
              "hash": "42314AC3A8676CFBF2C2D4ABDC2D4DA62058671D",
              "parts": {
                "total": "1",
                "hash": "C01F60486FDD949BB5517D05296020826FA46B32"
              }
            },
            "signature": {
              "type": "tendermint/SignatureEd25519",
              "value": "srxpmzocctp65w6fISKdY37STTSWsanY0/tqIM4eAOiAcClVSrvL7gke2fAAP/QcSx9yOHVekjxll/a9XfYwCg=="
            }
          },
          {
            "validator_address": "3383EF2A13B160C41947AC30434B274B2FAF0617",
            "validator_index": "17",
            "height": "23266",
            "round": "1",
            "timestamp": "2018-07-31T20:22:00.764672686Z",
            "type": 2,
            "block_id": {
              "hash": "42314AC3A8676CFBF2C2D4ABDC2D4DA62058671D",
              "parts": {
                "total": "1",
                "hash": "C01F60486FDD949BB5517D05296020826FA46B32"
              }
            },
            "signature": {
              "type": "tendermint/SignatureEd25519",
              "value": "rV7kRrepwvoKdpZz5dJFfaVMTkfqO3zdmygAVOmWK7QeWB7TCjR4cO5DOINp+kLRRrSfXzStg/TfXL0u3Wj4Cg=="
            }
          },
          {
            "validator_address": "36E9B7FAEC964F97D84C028ED62493E373AD0B38",
            "validator_index": "18",
            "height": "23266",
            "round": "1",
            "timestamp": "2018-07-31T20:22:00.825015178Z",
            "type": 2,
            "block_id": {
              "hash": "42314AC3A8676CFBF2C2D4ABDC2D4DA62058671D",
              "parts": {
                "total": "1",
                "hash": "C01F60486FDD949BB5517D05296020826FA46B32"
              }
            },
            "signature": {
              "type": "tendermint/SignatureEd25519",
              "value": "qeXgKKBHZU8rmtR0fKjqn0H1r5k7dEbpcz5rgzrjwZcE09eDVoUBkB00XfmQtdx1XZj5fEEUpk/u3NyBLwsaCw=="
            }
          },
          {
            "validator_address": "38A8D85D36BEA2E5FCF8A1E778F53628E450EF13",
            "validator_index": "19",
            "height": "23266",
            "round": "1",
            "timestamp": "2018-07-31T20:22:00.861940088Z",
            "type": 2,
            "block_id": {
              "hash": "42314AC3A8676CFBF2C2D4ABDC2D4DA62058671D",
              "parts": {
                "total": "1",
                "hash": "C01F60486FDD949BB5517D05296020826FA46B32"
              }
            },
            "signature": {
              "type": "tendermint/SignatureEd25519",
              "value": "VgZ4hahpjHwEjCLCMZUVAD+z6Ax4HZM27dhNZWrl2TSzJv/MCaOIisVEMpiSFRrf5FwZKCTsAD2GCtBLFvu+CA=="
            }
          },
          {
            "validator_address": "39DFDA0C5DB84B269642188B23253508537798E6",
            "validator_index": "20",
            "height": "23266",
            "round": "1",
            "timestamp": "2018-07-31T20:22:00.715653948Z",
            "type": 2,
            "block_id": {
              "hash": "42314AC3A8676CFBF2C2D4ABDC2D4DA62058671D",
              "parts": {
                "total": "1",
                "hash": "C01F60486FDD949BB5517D05296020826FA46B32"
              }
            },
            "signature": {
              "type": "tendermint/SignatureEd25519",
              "value": "tybjnt8h36c0nJ9rG9NDvPjN7d3by3HhPJL3+wfnmU0hnMUAU3rAxmAV65bJY1tbkvfYkYM1Rf1HsgMuADR5AQ=="
            }
          },
          {
            "validator_address": "3AC99B708404452366E0953A4BE849226DC86CBC",
            "validator_index": "21",
            "height": "23266",
            "round": "1",
            "timestamp": "2018-07-31T20:22:00.752203594Z",
            "type": 2,
            "block_id": {
              "hash": "42314AC3A8676CFBF2C2D4ABDC2D4DA62058671D",
              "parts": {
                "total": "1",
                "hash": "C01F60486FDD949BB5517D05296020826FA46B32"
              }
            },
            "signature": {
              "type": "tendermint/SignatureEd25519",
              "value": "R3SxtqetRnvkJoAyUCyY88U7JswBuclbC+U9aA14X7aif7d6aNzsUWOKMKGVmH63xQ/eqj6aLIVZ2whQcN9ICw=="
            }
          },
          {
            "validator_address": "3DCB822A10ED319EC7C4393D8E3FD4A41B15AAF2",
            "validator_index": "22",
            "height": "23266",
            "round": "1",
            "timestamp": "2018-07-31T20:22:00.707080049Z",
            "type": 2,
            "block_id": {
              "hash": "42314AC3A8676CFBF2C2D4ABDC2D4DA62058671D",
              "parts": {
                "total": "1",
                "hash": "C01F60486FDD949BB5517D05296020826FA46B32"
              }
            },
            "signature": {
              "type": "tendermint/SignatureEd25519",
              "value": "WVc2J6LX3WVqBxaDPWYUb/lzscwiCKEeM36z1Jp3JZfNaLEYSy5rucsKRFPKxGkpciyPRY0nI+tUsTmpg+dRCg=="
            }
          },
          {
            "validator_address": "3E899BA36A93C7370347BD5FE85909F2ECD93F8C",
            "validator_index": "23",
            "height": "23266",
            "round": "1",
            "timestamp": "2018-07-31T20:22:00.735524552Z",
            "type": 2,
            "block_id": {
              "hash": "42314AC3A8676CFBF2C2D4ABDC2D4DA62058671D",
              "parts": {
                "total": "1",
                "hash": "C01F60486FDD949BB5517D05296020826FA46B32"
              }
            },
            "signature": {
              "type": "tendermint/SignatureEd25519",
              "value": "rTJw2pUQjYvmbBWSAahzYP0+PbKgN0MQGPQgPdqpYyuauIPBgukjN7sH3aq8GnjWill5Ul+AHTbotIrS+Np0Ag=="
            }
          },
          {
            "validator_address": "41CAB2E29E7D0F2282E3275938F188FF9386B84C",
            "validator_index": "24",
            "height": "23266",
            "round": "1",
            "timestamp": "2018-07-31T20:22:00.762250855Z",
            "type": 2,
            "block_id": {
              "hash": "42314AC3A8676CFBF2C2D4ABDC2D4DA62058671D",
              "parts": {
                "total": "1",
                "hash": "C01F60486FDD949BB5517D05296020826FA46B32"
              }
            },
            "signature": {
              "type": "tendermint/SignatureEd25519",
              "value": "/HR6mn/bdefP1SC0WuXEkt0E0rTRNw2RSDx3cfSiTg0ut+LC1InYm7UcTQDOllrvImVb6kpBcYm6zmMoIysyAw=="
            }
          },
          {
            "validator_address": "462B656869DB02A8FD1077E255F8CC7401DC37C6",
            "validator_index": "25",
            "height": "23266",
            "round": "1",
            "timestamp": "2018-07-31T20:22:00.725098806Z",
            "type": 2,
            "block_id": {
              "hash": "42314AC3A8676CFBF2C2D4ABDC2D4DA62058671D",
              "parts": {
                "total": "1",
                "hash": "C01F60486FDD949BB5517D05296020826FA46B32"
              }
            },
            "signature": {
              "type": "tendermint/SignatureEd25519",
              "value": "rXFsHguLo0Hw+VU/7SF1QPEKItD9P/OwAncyA3dzdl/mDVUIOYmXQEBkkmnm53plHeeK/aq+WOVKT9yl1b8+BA=="
            }
          },
          {
            "validator_address": "48E5118163E5442068A1B5A42D2EEDBB75724935",
            "validator_index": "26",
            "height": "23266",
            "round": "1",
            "timestamp": "2018-07-31T20:22:00.872814244Z",
            "type": 2,
            "block_id": {
              "hash": "42314AC3A8676CFBF2C2D4ABDC2D4DA62058671D",
              "parts": {
                "total": "1",
                "hash": "C01F60486FDD949BB5517D05296020826FA46B32"
              }
            },
            "signature": {
              "type": "tendermint/SignatureEd25519",
              "value": "M1MpEDIoq9P1qBtR/wWiNHvF948l/g5X/XVazhG2zwfO6pP81eLeGaS1UwlfhC1BRGkl/SxFYiUuK++OL8lIBQ=="
            }
          },
          {
            "validator_address": "4944F8BBBB5303E17BC0607DF332320EDBC750EA",
            "validator_index": "27",
            "height": "23266",
            "round": "1",
            "timestamp": "2018-07-31T20:22:00.67938182Z",
            "type": 2,
            "block_id": {
              "hash": "42314AC3A8676CFBF2C2D4ABDC2D4DA62058671D",
              "parts": {
                "total": "1",
                "hash": "C01F60486FDD949BB5517D05296020826FA46B32"
              }
            },
            "signature": {
              "type": "tendermint/SignatureEd25519",
              "value": "AY0FLlp1Tcz8ZFTpUzqIwxFKG2UZqgg+VrK5Sy78zlQ+Uw8qjXG58QFmy/PgGZIEHRy8XUGgDruJJEKG3WZmCw=="
            }
          },
          {
            "validator_address": "49841599DE675157CBE1E7D6B35BF8FFC23BD5CB",
            "validator_index": "28",
            "height": "23266",
            "round": "1",
            "timestamp": "2018-07-31T20:22:00.727064929Z",
            "type": 2,
            "block_id": {
              "hash": "42314AC3A8676CFBF2C2D4ABDC2D4DA62058671D",
              "parts": {
                "total": "1",
                "hash": "C01F60486FDD949BB5517D05296020826FA46B32"
              }
            },
            "signature": {
              "type": "tendermint/SignatureEd25519",
              "value": "5TmlsNH9Jdax5X2HlfZNC6a2l1Fs2v4ghtqLS7AOM1/oC43U+E0qgqeWZukMiEon2m2lgpDcRKkKT11zJMUBDw=="
            }
          },
          {
            "validator_address": "51386C2CF9556821D114D7E4945806802BADB28D",
            "validator_index": "29",
            "height": "23266",
            "round": "1",
            "timestamp": "2018-07-31T20:22:00.751912981Z",
            "type": 2,
            "block_id": {
              "hash": "42314AC3A8676CFBF2C2D4ABDC2D4DA62058671D",
              "parts": {
                "total": "1",
                "hash": "C01F60486FDD949BB5517D05296020826FA46B32"
              }
            },
            "signature": {
              "type": "tendermint/SignatureEd25519",
              "value": "Kb126TrGG9kU/CUH6hqReW/e09zo64njBi5MFCuA8P1tIAtHs4DJSnPioOBsB9EJbEYcVpIH7WFzby77AMeCCw=="
            }
          },
          {
            "validator_address": "543564ECA3AFEFADC73EE8591AAC3A96F079BC8A",
            "validator_index": "30",
            "height": "23266",
            "round": "1",
            "timestamp": "2018-07-31T20:22:00.722678797Z",
            "type": 2,
            "block_id": {
              "hash": "42314AC3A8676CFBF2C2D4ABDC2D4DA62058671D",
              "parts": {
                "total": "1",
                "hash": "C01F60486FDD949BB5517D05296020826FA46B32"
              }
            },
            "signature": {
              "type": "tendermint/SignatureEd25519",
              "value": "rv09klShHVrDcWAl7NPLTK0XwDyZewZTm8s7+qrBiX49lxsInw3EABEs1ZjB2WYiSwJgxD6BMAt5gospagf2Ag=="
            }
          },
          {
            "validator_address": "55D67B1A6DC13E96F8754A5A42EABC20F7F86664",
            "validator_index": "31",
            "height": "23266",
            "round": "1",
            "timestamp": "2018-07-31T20:22:00.674676684Z",
            "type": 2,
            "block_id": {
              "hash": "42314AC3A8676CFBF2C2D4ABDC2D4DA62058671D",
              "parts": {
                "total": "1",
                "hash": "C01F60486FDD949BB5517D05296020826FA46B32"
              }
            },
            "signature": {
              "type": "tendermint/SignatureEd25519",
              "value": "EABITF8j+yd6wCkI/IaP7N6ouPcw6JEb8kF+7aJVwn5iqAD73qjK0hoRMCOWeBCunIdiS0xGp4Muas8dKMvbDw=="
            }
          },
          {
            "validator_address": "570B6A755ED339EAC56BB3390A48069F6AC9449B",
            "validator_index": "32",
            "height": "23266",
            "round": "1",
            "timestamp": "2018-07-31T20:22:05.046784077Z",
            "type": 2,
            "block_id": {
              "hash": "42314AC3A8676CFBF2C2D4ABDC2D4DA62058671D",
              "parts": {
                "total": "1",
                "hash": "C01F60486FDD949BB5517D05296020826FA46B32"
              }
            },
            "signature": {
              "type": "tendermint/SignatureEd25519",
              "value": "UJMkJzYCXbH0bO1JpsRulP8Utj0zZ0fFujNH7wKKQv6uftxmJLNJgA1Z27zfPagrPNRGvktnmRT+LjChnfnYCA=="
            }
          },
          {
            "validator_address": "5BDF8EA41B1835FBAD865B181A2A4B23F511B5E4",
            "validator_index": "33",
            "height": "23266",
            "round": "1",
            "timestamp": "2018-07-31T20:22:00.697967383Z",
            "type": 2,
            "block_id": {
              "hash": "42314AC3A8676CFBF2C2D4ABDC2D4DA62058671D",
              "parts": {
                "total": "1",
                "hash": "C01F60486FDD949BB5517D05296020826FA46B32"
              }
            },
            "signature": {
              "type": "tendermint/SignatureEd25519",
              "value": "50U/R1HEeIjrXaRIyD/4TXyWJqo/lOucxMMkLTb1QZz+VhqkJ8+kE+fa8iJU5LhrZPxL1pjfgdu2mLL99zENCw=="
            }
          },
          {
            "validator_address": "60229E2E273297FE00219E46DFFB8F76844CDEF9",
            "validator_index": "34",
            "height": "23266",
            "round": "1",
            "timestamp": "2018-07-31T20:21:59.291904406Z",
            "type": 2,
            "block_id": {
              "hash": "42314AC3A8676CFBF2C2D4ABDC2D4DA62058671D",
              "parts": {
                "total": "1",
                "hash": "C01F60486FDD949BB5517D05296020826FA46B32"
              }
            },
            "signature": {
              "type": "tendermint/SignatureEd25519",
              "value": "VWsHGpSzdsyskUSWYYKvUlJLB2fMe8ppd2PPbOuNecCehI90bbpAOEV4+vYt88+jYwaSDQZcyfFtQGZHzqzHAw=="
            }
          },
          {
            "validator_address": "62410D6D1CD98278136E4D0738AA0EA273CDFC54",
            "validator_index": "35",
            "height": "23266",
            "round": "1",
            "timestamp": "2018-07-31T20:22:00.67124085Z",
            "type": 2,
            "block_id": {
              "hash": "42314AC3A8676CFBF2C2D4ABDC2D4DA62058671D",
              "parts": {
                "total": "1",
                "hash": "C01F60486FDD949BB5517D05296020826FA46B32"
              }
            },
            "signature": {
              "type": "tendermint/SignatureEd25519",
              "value": "nVWnMis4cbySQCE6jKzJ/AXMikFq1UnR1Uw9aT9K6H1u9yTDfPXayydFxI3f2cCfnhJaBPVdSqVFGQuwcFlHDA=="
            }
          },
          {
            "validator_address": "632F5C139A5A9DFBFE5111DEE29FCFB6157207DC",
            "validator_index": "36",
            "height": "23266",
            "round": "1",
            "timestamp": "2018-07-31T20:22:00.757382429Z",
            "type": 2,
            "block_id": {
              "hash": "42314AC3A8676CFBF2C2D4ABDC2D4DA62058671D",
              "parts": {
                "total": "1",
                "hash": "C01F60486FDD949BB5517D05296020826FA46B32"
              }
            },
            "signature": {
              "type": "tendermint/SignatureEd25519",
              "value": "UyRLkkbnJNSJRprvlSMR9yJAK1cSewGMRGG9wVTQARIcSr+qCtZep1ON+T1eh1dMb4SZoE44+jXa2d8JGZYUDQ=="
            }
          },
          {
            "validator_address": "64F57F8E796A9B7B590C1EFA4123988C86631D39",
            "validator_index": "37",
            "height": "23266",
            "round": "1",
            "timestamp": "2018-07-31T20:22:00.677494496Z",
            "type": 2,
            "block_id": {
              "hash": "42314AC3A8676CFBF2C2D4ABDC2D4DA62058671D",
              "parts": {
                "total": "1",
                "hash": "C01F60486FDD949BB5517D05296020826FA46B32"
              }
            },
            "signature": {
              "type": "tendermint/SignatureEd25519",
              "value": "Ay+JTJTK10VoMEafj95ZAxIzFIrNv+16fXvDqaaTxT+9fwY3xvC+FcPUvJkrABHkZ5E4QMspLLFV705A8l7HAA=="
            }
          },
          {
            "validator_address": "69D99B2C66043ACBEAA8447525C356AFC6408E0C",
            "validator_index": "38",
            "height": "23266",
            "round": "1",
            "timestamp": "2018-07-31T20:22:00.927944531Z",
            "type": 2,
            "block_id": {
              "hash": "42314AC3A8676CFBF2C2D4ABDC2D4DA62058671D",
              "parts": {
                "total": "1",
                "hash": "C01F60486FDD949BB5517D05296020826FA46B32"
              }
            },
            "signature": {
              "type": "tendermint/SignatureEd25519",
              "value": "HSzv0KWH0QnJvCubSIbOf8Aif2RChmqH0qVZjpiIzSHzdaSopZ2E+ylO4HklZ3CNhNoQoAuDBhJKrIViB6K0DA=="
            }
          },
          {
            "validator_address": "69EDADFA4A803E9DBF548C900D4A465E7D154262",
            "validator_index": "39",
            "height": "23266",
            "round": "1",
            "timestamp": "2018-07-31T20:22:00.873996307Z",
            "type": 2,
            "block_id": {
              "hash": "42314AC3A8676CFBF2C2D4ABDC2D4DA62058671D",
              "parts": {
                "total": "1",
                "hash": "C01F60486FDD949BB5517D05296020826FA46B32"
              }
            },
            "signature": {
              "type": "tendermint/SignatureEd25519",
              "value": "SaaITlJVWTTVzGcrk3mHaV9EKp26fbKrNao5/JHMqcWXG6m7vmk4EtGGAi/WuJ67no3er3ltokLsStLoGTVjAQ=="
            }
          },
          {
            "validator_address": "6D3AD380E398D8592B03AA124BAFED5F125DF863",
            "validator_index": "40",
            "height": "23266",
            "round": "1",
            "timestamp": "2018-07-31T20:20:58.698583247Z",
            "type": 2,
            "block_id": {
              "hash": "42314AC3A8676CFBF2C2D4ABDC2D4DA62058671D",
              "parts": {
                "total": "1",
                "hash": "C01F60486FDD949BB5517D05296020826FA46B32"
              }
            },
            "signature": {
              "type": "tendermint/SignatureEd25519",
              "value": "mCLj4GKicgIyT9yRs2vmNf5gFNz0GxESugkmMjxzhtBysoYDyxu4wcGZnPFRgceiDEBKCKusS2t4wKNtD6GyDA=="
            }
          },
          {
            "validator_address": "6F6C93B8BF3495063FEC9B5C771158607F4AE9D6",
            "validator_index": "41",
            "height": "23266",
            "round": "1",
            "timestamp": "2018-07-31T20:22:00.841836529Z",
            "type": 2,
            "block_id": {
              "hash": "42314AC3A8676CFBF2C2D4ABDC2D4DA62058671D",
              "parts": {
                "total": "1",
                "hash": "C01F60486FDD949BB5517D05296020826FA46B32"
              }
            },
            "signature": {
              "type": "tendermint/SignatureEd25519",
              "value": "7UgSyw4mkbvrxTVQ12SuXaZMxntIM4xZMnmqoA9aZ04iOqJxbqf51kr0tqg+Oa9si/xEvWnjS8xtdy7ncFPlCw=="
            }
          },
          {
            "validator_address": "732CEEF54C374DDC6ADECBFD707AEFD07FEDC143",
            "validator_index": "42",
            "height": "23266",
            "round": "1",
            "timestamp": "2018-07-31T20:22:00.836127219Z",
            "type": 2,
            "block_id": {
              "hash": "42314AC3A8676CFBF2C2D4ABDC2D4DA62058671D",
              "parts": {
                "total": "1",
                "hash": "C01F60486FDD949BB5517D05296020826FA46B32"
              }
            },
            "signature": {
              "type": "tendermint/SignatureEd25519",
              "value": "RvEG1LhbNpKD0gKjHwicIeSAKo+VG8bmcY2mNgragAjzkm0gqgfvDAX+5OJowSb4pQgqLSS5bfwDFw1AOdB7Ag=="
            }
          },
          {
            "validator_address": "7393D691BFAE9661918C09932D4D9060AB40939B",
            "validator_index": "43",
            "height": "23266",
            "round": "1",
            "timestamp": "2018-07-31T20:22:00.875165353Z",
            "type": 2,
            "block_id": {
              "hash": "42314AC3A8676CFBF2C2D4ABDC2D4DA62058671D",
              "parts": {
                "total": "1",
                "hash": "C01F60486FDD949BB5517D05296020826FA46B32"
              }
            },
            "signature": {
              "type": "tendermint/SignatureEd25519",
              "value": "XV2eUmYczQICQk6RA+Tebi8DdX78zbpT8qXgAZfQyYo6M2Z7lDIQHFFqDS1tuJRTFcM4uAeZTK9kycqpTfiQBQ=="
            }
          },
          {
            "validator_address": "751E43437224E8BB6D1569B3E2B2616B6E7F4397",
            "validator_index": "44",
            "height": "23266",
            "round": "1",
            "timestamp": "2018-07-31T20:22:00.732820899Z",
            "type": 2,
            "block_id": {
              "hash": "42314AC3A8676CFBF2C2D4ABDC2D4DA62058671D",
              "parts": {
                "total": "1",
                "hash": "C01F60486FDD949BB5517D05296020826FA46B32"
              }
            },
            "signature": {
              "type": "tendermint/SignatureEd25519",
              "value": "qGdd86eOAPk1aV5MoP9r7au+i7tH8JDV1hsyXZ0KD/Z/KZ+ST+AS3+qB4HHGo41VmOQyMfyW1/ZLqPKXzlSNDg=="
            }
          },
          {
            "validator_address": "7EB7593F519F1180C7E872D0494611464EDF03AE",
            "validator_index": "45",
            "height": "23266",
            "round": "1",
            "timestamp": "2018-07-31T20:22:00.85773699Z",
            "type": 2,
            "block_id": {
              "hash": "42314AC3A8676CFBF2C2D4ABDC2D4DA62058671D",
              "parts": {
                "total": "1",
                "hash": "C01F60486FDD949BB5517D05296020826FA46B32"
              }
            },
            "signature": {
              "type": "tendermint/SignatureEd25519",
              "value": "xMdPnty6BwqMPgtPLCB/Ddos6iej+5bbdg1mmJtVTIgYWzN4cijtBBevoRiFa0pt6M4WPt1U6IwtkH9qhR6eCg=="
            }
          },
          null,
          {
            "validator_address": "8126192EA66E8ADE6B36924534721366B987A4C1",
            "validator_index": "47",
            "height": "23266",
            "round": "1",
            "timestamp": "2018-07-31T20:22:00.749818031Z",
            "type": 2,
            "block_id": {
              "hash": "42314AC3A8676CFBF2C2D4ABDC2D4DA62058671D",
              "parts": {
                "total": "1",
                "hash": "C01F60486FDD949BB5517D05296020826FA46B32"
              }
            },
            "signature": {
              "type": "tendermint/SignatureEd25519",
              "value": "oM/fJgwGMk8eeRZ33JHughFA7p0Nm6WMg2XGvzA2mE6ZNzzONAIsLWe4YlwOmUCUqb9eHAxGZjJ04ZN1WVPcBg=="
            }
          },
          {
            "validator_address": "83AB321E012C57746689FED3A6064DF331F81007",
            "validator_index": "48",
            "height": "23266",
            "round": "1",
            "timestamp": "2018-07-31T20:22:00.709346446Z",
            "type": 2,
            "block_id": {
              "hash": "42314AC3A8676CFBF2C2D4ABDC2D4DA62058671D",
              "parts": {
                "total": "1",
                "hash": "C01F60486FDD949BB5517D05296020826FA46B32"
              }
            },
            "signature": {
              "type": "tendermint/SignatureEd25519",
              "value": "/FOAAYy8t/1De4f+pO78dkgOFQd+94qH6rvlvOVTbJYgOsb3XG2qSSbmZkqb5Zy/39TM35lWdpgVBzMFrWg6DQ=="
            }
          },
          {
            "validator_address": "83BB1B88D3DBB20AD845FECA07749EBD87D3754D",
            "validator_index": "49",
            "height": "23266",
            "round": "1",
            "timestamp": "2018-07-31T20:22:00.845075182Z",
            "type": 2,
            "block_id": {
              "hash": "42314AC3A8676CFBF2C2D4ABDC2D4DA62058671D",
              "parts": {
                "total": "1",
                "hash": "C01F60486FDD949BB5517D05296020826FA46B32"
              }
            },
            "signature": {
              "type": "tendermint/SignatureEd25519",
              "value": "LCGiSI8juyPvjLUsJYG/Z3ekf14Igle0ncqMHyhMFqPW0mPxkxkYtezjlOBo5REQ8bqxEUfnKmDW76QPEVdMCw=="
            }
          },
          {
            "validator_address": "8F06FE1FD042683C426137FBC4BBAA4288924217",
            "validator_index": "50",
            "height": "23266",
            "round": "1",
            "timestamp": "2018-07-31T20:22:00.778965379Z",
            "type": 2,
            "block_id": {
              "hash": "42314AC3A8676CFBF2C2D4ABDC2D4DA62058671D",
              "parts": {
                "total": "1",
                "hash": "C01F60486FDD949BB5517D05296020826FA46B32"
              }
            },
            "signature": {
              "type": "tendermint/SignatureEd25519",
              "value": "01waWs2E2IkHURnwLBZPG7BsrpZovNNsqAJKuha/X/w9m5EjliLLBHb6cF5BxW07I6NdHsnazpySfFWizd/iCw=="
            }
          },
          {
            "validator_address": "8F45617BF45B10A3F8283DEBDB35E38C7CA43237",
            "validator_index": "51",
            "height": "23266",
            "round": "1",
            "timestamp": "2018-07-31T20:22:00.716893086Z",
            "type": 2,
            "block_id": {
              "hash": "42314AC3A8676CFBF2C2D4ABDC2D4DA62058671D",
              "parts": {
                "total": "1",
                "hash": "C01F60486FDD949BB5517D05296020826FA46B32"
              }
            },
            "signature": {
              "type": "tendermint/SignatureEd25519",
              "value": "g7nfHEZJAX05XA6M4+ZY58TWEWyvo3YS9Nf3XxX+L0lhN5s5LWchN00fPdP1Hu8DiYjVmDlZ177UD34/AdEqAQ=="
            }
          },
          {
            "validator_address": "95980831E186F2540F6E9FB6C8E74DE2401405AC",
            "validator_index": "52",
            "height": "23266",
            "round": "1",
            "timestamp": "2018-07-31T20:22:00.722048553Z",
            "type": 2,
            "block_id": {
              "hash": "42314AC3A8676CFBF2C2D4ABDC2D4DA62058671D",
              "parts": {
                "total": "1",
                "hash": "C01F60486FDD949BB5517D05296020826FA46B32"
              }
            },
            "signature": {
              "type": "tendermint/SignatureEd25519",
              "value": "wOjwUnvvNp+Upt3Qcg/NK4x5keYnj3LQJ/ApPaWl6liylaY3ZBWr4eJxdg2i85xq95yn6wj+7ol4n/fKSiUMDA=="
            }
          },
          {
            "validator_address": "95FAFBC1E0579C83D290A063020CE87C5334BD9B",
            "validator_index": "53",
            "height": "23266",
            "round": "1",
            "timestamp": "2018-07-31T20:22:00.735271382Z",
            "type": 2,
            "block_id": {
              "hash": "42314AC3A8676CFBF2C2D4ABDC2D4DA62058671D",
              "parts": {
                "total": "1",
                "hash": "C01F60486FDD949BB5517D05296020826FA46B32"
              }
            },
            "signature": {
              "type": "tendermint/SignatureEd25519",
              "value": "ZsLeq8WaxWU0r+YOFHaa34wEo7cJbE4lql43kIfgrtJEQI3489WYU81nLmTzUdgpbId2WNjTAvx5810fPLwDDA=="
            }
          },
          {
            "validator_address": "96BDE45EC52606CF5CB59853097871AD60680549",
            "validator_index": "54",
            "height": "23266",
            "round": "1",
            "timestamp": "2018-07-31T20:22:00.678090281Z",
            "type": 2,
            "block_id": {
              "hash": "42314AC3A8676CFBF2C2D4ABDC2D4DA62058671D",
              "parts": {
                "total": "1",
                "hash": "C01F60486FDD949BB5517D05296020826FA46B32"
              }
            },
            "signature": {
              "type": "tendermint/SignatureEd25519",
              "value": "OICn/ehgyJmSlv1OdVdH3R45xr/P/jPQ/SSzknIgO5gsuJorJCgzEiKVC09yD34Q+KBmMGflNURm8RdqcPWvCg=="
            }
          },
          {
            "validator_address": "970CD321881185BF83DB2923C321B0E75FDBB2B8",
            "validator_index": "55",
            "height": "23266",
            "round": "1",
            "timestamp": "2018-07-31T20:22:00.799676644Z",
            "type": 2,
            "block_id": {
              "hash": "42314AC3A8676CFBF2C2D4ABDC2D4DA62058671D",
              "parts": {
                "total": "1",
                "hash": "C01F60486FDD949BB5517D05296020826FA46B32"
              }
            },
            "signature": {
              "type": "tendermint/SignatureEd25519",
              "value": "K+RpPYIArXoh971GH4BEbmi3D5w9yIS7i2U2ks321MaAlFqICuGbj+z/Wlj/v0MZiBsmr3rXsXPSB6NjFfweBg=="
            }
          },
          {
            "validator_address": "97DBB3D4B3D6C29287244864448F651DD5B07390",
            "validator_index": "56",
            "height": "23266",
            "round": "1",
            "timestamp": "2018-07-31T20:22:00.825380531Z",
            "type": 2,
            "block_id": {
              "hash": "42314AC3A8676CFBF2C2D4ABDC2D4DA62058671D",
              "parts": {
                "total": "1",
                "hash": "C01F60486FDD949BB5517D05296020826FA46B32"
              }
            },
            "signature": {
              "type": "tendermint/SignatureEd25519",
              "value": "DYUVoRr+n/wz3wDDxGGgUfERYm9g2zHI5GMMdKmW7aIR0znOVar6MltmZpXqrlpXn3Na3bXL0RMau1xUrE4xAw=="
            }
          },
          {
            "validator_address": "9C29C9B76D27586E4D9AD2AED0E943162645E55C",
            "validator_index": "57",
            "height": "23266",
            "round": "1",
            "timestamp": "2018-07-31T20:22:00.65744143Z",
            "type": 2,
            "block_id": {
              "hash": "42314AC3A8676CFBF2C2D4ABDC2D4DA62058671D",
              "parts": {
                "total": "1",
                "hash": "C01F60486FDD949BB5517D05296020826FA46B32"
              }
            },
            "signature": {
              "type": "tendermint/SignatureEd25519",
              "value": "HL/47jnTk5HYoFNSc40U/VZLMQalxsjyvqmEWriePRIHBbM8L6Q3l8ZLdw2/T00hea7TcAQ9SEFr13+eujbGCQ=="
            }
          },
          {
            "validator_address": "9D93AD02FE1BD7E76B9E58D7EB461088EAD011E5",
            "validator_index": "58",
            "height": "23266",
            "round": "1",
            "timestamp": "2018-07-31T20:22:00.701714673Z",
            "type": 2,
            "block_id": {
              "hash": "42314AC3A8676CFBF2C2D4ABDC2D4DA62058671D",
              "parts": {
                "total": "1",
                "hash": "C01F60486FDD949BB5517D05296020826FA46B32"
              }
            },
            "signature": {
              "type": "tendermint/SignatureEd25519",
              "value": "XVvhgx8ikkir+GN7ELVQda1/QbGBDhMABc0DUzk7CTSqxj5ulZqL9fWyMCDt2zsiY4nmqPmWF/jC3cAr3EHVCA=="
            }
          },
          {
            "validator_address": "A0A6466F4ABEA09C3B55E3709AFDE217A103209F",
            "validator_index": "59",
            "height": "23266",
            "round": "1",
            "timestamp": "2018-07-31T20:22:00.6751807Z",
            "type": 2,
            "block_id": {
              "hash": "42314AC3A8676CFBF2C2D4ABDC2D4DA62058671D",
              "parts": {
                "total": "1",
                "hash": "C01F60486FDD949BB5517D05296020826FA46B32"
              }
            },
            "signature": {
              "type": "tendermint/SignatureEd25519",
              "value": "RfDDYaeP61H27EP05kZxSAPC1VaR7fU7JB19JFjdaYFVlUWPrXsKnIcGymgxhFeZTPaKQbGrS0EIhNvmRWuBDQ=="
            }
          },
          {
            "validator_address": "A5868971300F155020634D7BB49C7634F7AACCD3",
            "validator_index": "60",
            "height": "23266",
            "round": "1",
            "timestamp": "2018-07-31T20:22:00.701401728Z",
            "type": 2,
            "block_id": {
              "hash": "42314AC3A8676CFBF2C2D4ABDC2D4DA62058671D",
              "parts": {
                "total": "1",
                "hash": "C01F60486FDD949BB5517D05296020826FA46B32"
              }
            },
            "signature": {
              "type": "tendermint/SignatureEd25519",
              "value": "tSiqADq6eSi/V5avBWR52jjxsmak35Z93NQnQrVDoOJyqDe2ozsaySVB7ARvAKyysayP4CAVQi4K66TvFZEEBQ=="
            }
          },
          {
            "validator_address": "A6B3A5B5D982CFD7B5FDFA15CF5A720E7AE25E7F",
            "validator_index": "61",
            "height": "23266",
            "round": "1",
            "timestamp": "2018-07-31T20:22:00.754516812Z",
            "type": 2,
            "block_id": {
              "hash": "42314AC3A8676CFBF2C2D4ABDC2D4DA62058671D",
              "parts": {
                "total": "1",
                "hash": "C01F60486FDD949BB5517D05296020826FA46B32"
              }
            },
            "signature": {
              "type": "tendermint/SignatureEd25519",
              "value": "UvzY/Cd9cb1j9KFIxFaVi5J0ti2rGZHGYfFzCq6hzYIKqUb2FX9yAKfCNoq6S8x4++k9ajmDHZVtmA/HhTduBg=="
            }
          },
          {
            "validator_address": "AC96444A9083890B7C7B430DB17BF1D3EA5EED04",
            "validator_index": "62",
            "height": "23266",
            "round": "1",
            "timestamp": "2018-07-31T20:22:00.762477635Z",
            "type": 2,
            "block_id": {
              "hash": "42314AC3A8676CFBF2C2D4ABDC2D4DA62058671D",
              "parts": {
                "total": "1",
                "hash": "C01F60486FDD949BB5517D05296020826FA46B32"
              }
            },
            "signature": {
              "type": "tendermint/SignatureEd25519",
              "value": "FdjVjVnHj+OKTQ5d9DZEa7//PUkayCWS3Tzk6iwug5euaslepQ7skG63PXKY6iYCw9GUD5cU1X9EgzeMcSZtBw=="
            }
          },
          {
            "validator_address": "ACB97FDA2D940AF0709B73537C458EB988AD2893",
            "validator_index": "63",
            "height": "23266",
            "round": "1",
            "timestamp": "2018-07-31T20:22:00.79319545Z",
            "type": 2,
            "block_id": {
              "hash": "42314AC3A8676CFBF2C2D4ABDC2D4DA62058671D",
              "parts": {
                "total": "1",
                "hash": "C01F60486FDD949BB5517D05296020826FA46B32"
              }
            },
            "signature": {
              "type": "tendermint/SignatureEd25519",
              "value": "w0PGLlYdd8YMJZ06W0V2o0BQk50lZLyjTt0GTyph7krzkuKuybMaFhMk5ajdQla6/BLvSvnvbx+piZX20UH8Bw=="
            }
          },
          {
            "validator_address": "B197425B3210375F211661DE02EF2AE36580EB0F",
            "validator_index": "64",
            "height": "23266",
            "round": "1",
            "timestamp": "2018-07-31T20:22:00.760943826Z",
            "type": 2,
            "block_id": {
              "hash": "42314AC3A8676CFBF2C2D4ABDC2D4DA62058671D",
              "parts": {
                "total": "1",
                "hash": "C01F60486FDD949BB5517D05296020826FA46B32"
              }
            },
            "signature": {
              "type": "tendermint/SignatureEd25519",
              "value": "rA2NAcOm+26+VI9fSwRvQFRueG1nLE0E7LDTxJqnFkcx8zeYXiubmQnlvH89PgxwLcOlP5NCsWOhWtBwzBV8Aw=="
            }
          },
          {
            "validator_address": "B45E54D2D1CB5A4CCD1D49016608C18E7C56B270",
            "validator_index": "65",
            "height": "23266",
            "round": "1",
            "timestamp": "2018-07-31T20:22:00.848304476Z",
            "type": 2,
            "block_id": {
              "hash": "42314AC3A8676CFBF2C2D4ABDC2D4DA62058671D",
              "parts": {
                "total": "1",
                "hash": "C01F60486FDD949BB5517D05296020826FA46B32"
              }
            },
            "signature": {
              "type": "tendermint/SignatureEd25519",
              "value": "QnGFMUzMmt5c+mzXNhMpVur8k2SXs8UYhoPWKvnTocsxarTkmKd78EM0C0NVAXE8V/ZfhKgd7Rj06wP/sRR2Cg=="
            }
          },
          {
            "validator_address": "B59A34C0BE4EC73AF6A67D274F1695C9259C237C",
            "validator_index": "66",
            "height": "23266",
            "round": "1",
            "timestamp": "2018-07-31T20:22:00.89844178Z",
            "type": 2,
            "block_id": {
              "hash": "42314AC3A8676CFBF2C2D4ABDC2D4DA62058671D",
              "parts": {
                "total": "1",
                "hash": "C01F60486FDD949BB5517D05296020826FA46B32"
              }
            },
            "signature": {
              "type": "tendermint/SignatureEd25519",
              "value": "CjHkouKGiM7BhpuXUW9Gzicjqk81+nqfWiV3LlRI7YM6sHTRvr3YpwEQFshI21EfLccfryf3q7/xrFFjt+08CA=="
            }
          },
          {
            "validator_address": "BB1276BE89834835428664408917649FEEF5D90C",
            "validator_index": "67",
            "height": "23266",
            "round": "1",
            "timestamp": "2018-07-31T20:22:00.79850151Z",
            "type": 2,
            "block_id": {
              "hash": "42314AC3A8676CFBF2C2D4ABDC2D4DA62058671D",
              "parts": {
                "total": "1",
                "hash": "C01F60486FDD949BB5517D05296020826FA46B32"
              }
            },
            "signature": {
              "type": "tendermint/SignatureEd25519",
              "value": "f63TSVz+dKrd6NcKawvZauTyuCLPoiAPgOec/cknBcerIeFyrxqbmUyY6aRd8OHLdDFdbeNvYdG9JF9zQR6RBQ=="
            }
          },
          {
            "validator_address": "BC36FEDD6EF6071118A3E51859DF3831A2EC4782",
            "validator_index": "68",
            "height": "23266",
            "round": "1",
            "timestamp": "2018-07-31T20:22:00.797546237Z",
            "type": 2,
            "block_id": {
              "hash": "42314AC3A8676CFBF2C2D4ABDC2D4DA62058671D",
              "parts": {
                "total": "1",
                "hash": "C01F60486FDD949BB5517D05296020826FA46B32"
              }
            },
            "signature": {
              "type": "tendermint/SignatureEd25519",
              "value": "BZo5xxFpj7Zl4Tt+9E3tyjhjl2Y471OviVdsryzDJdgYlhCoQ/FEt7+GDAWDA5gN6pg0H4UpTjJmOAwTuIaXBQ=="
            }
          },
          {
            "validator_address": "BD9D0DA513BF099DB4BB6E725A4E19832789882F",
            "validator_index": "69",
            "height": "23266",
            "round": "1",
            "timestamp": "2018-07-31T20:22:00.732512557Z",
            "type": 2,
            "block_id": {
              "hash": "42314AC3A8676CFBF2C2D4ABDC2D4DA62058671D",
              "parts": {
                "total": "1",
                "hash": "C01F60486FDD949BB5517D05296020826FA46B32"
              }
            },
            "signature": {
              "type": "tendermint/SignatureEd25519",
              "value": "6pUS9uPAV4/PI0Bi/yhXJAt08s7igZNdvh3n0Lvv6mB4K/deIpSDdqK2FeLN2TGTL10GgtgV9iDbBctUs1+LAA=="
            }
          },
          {
            "validator_address": "C1134A2FF8F7338E7CDB3FE57DDD2A655DEB1E22",
            "validator_index": "70",
            "height": "23266",
            "round": "1",
            "timestamp": "2018-07-31T20:22:00.768621226Z",
            "type": 2,
            "block_id": {
              "hash": "42314AC3A8676CFBF2C2D4ABDC2D4DA62058671D",
              "parts": {
                "total": "1",
                "hash": "C01F60486FDD949BB5517D05296020826FA46B32"
              }
            },
            "signature": {
              "type": "tendermint/SignatureEd25519",
              "value": "Hnz7o1D+MIIvN6FxexyLYn1weoSXxUzm8eWlJXO+64Kw4YCL5CyjTJVnK84eCWAhLoyK9KZBINXbgoCvMatYDQ=="
            }
          },
          {
            "validator_address": "C39A8A2B85198DCB8F23AD1F6C198E2BA7AB5D60",
            "validator_index": "71",
            "height": "23266",
            "round": "1",
            "timestamp": "2018-07-31T20:22:00.739627443Z",
            "type": 2,
            "block_id": {
              "hash": "42314AC3A8676CFBF2C2D4ABDC2D4DA62058671D",
              "parts": {
                "total": "1",
                "hash": "C01F60486FDD949BB5517D05296020826FA46B32"
              }
            },
            "signature": {
              "type": "tendermint/SignatureEd25519",
              "value": "nRJa9xH/2m5D991m7s0+CdMODRQBCFrxo1yi6SqhXauSOjxUviUUu9PvqSrhaDyv9H7rpQXW8pQVDv/+wlaVBg=="
            }
          },
          {
            "validator_address": "C4335190C3B5BD4BA5568BC0F99C34162D940D08",
            "validator_index": "72",
            "height": "23266",
            "round": "1",
            "timestamp": "2018-07-31T20:22:00.726124782Z",
            "type": 2,
            "block_id": {
              "hash": "42314AC3A8676CFBF2C2D4ABDC2D4DA62058671D",
              "parts": {
                "total": "1",
                "hash": "C01F60486FDD949BB5517D05296020826FA46B32"
              }
            },
            "signature": {
              "type": "tendermint/SignatureEd25519",
              "value": "QDuRC1d6Zw8MQaaS8be7gKZ8wmJ0tnGj2H+LqA0v4jBjuTvVhH+Uh8Fb6ASCmNJXVfqMx2pLZIfLRtJoXulXDw=="
            }
          },
          {
            "validator_address": "C561CFA081677046376396922E7576E5F7B316AD",
            "validator_index": "73",
            "height": "23266",
            "round": "1",
            "timestamp": "2018-07-31T20:22:00.816342826Z",
            "type": 2,
            "block_id": {
              "hash": "42314AC3A8676CFBF2C2D4ABDC2D4DA62058671D",
              "parts": {
                "total": "1",
                "hash": "C01F60486FDD949BB5517D05296020826FA46B32"
              }
            },
            "signature": {
              "type": "tendermint/SignatureEd25519",
              "value": "9nzZw4J+zw42+Z/y924yPbQCRA1WlBynozmMX37L/4hOqisNH0iJgLqc520oFCvQ8pCCmFZCkRs9+iBKoQxbCQ=="
            }
          },
          {
            "validator_address": "CE589EA77B056D268D30D1DC1D68A70E0F885E95",
            "validator_index": "74",
            "height": "23266",
            "round": "1",
            "timestamp": "2018-07-31T20:22:00.797683903Z",
            "type": 2,
            "block_id": {
              "hash": "42314AC3A8676CFBF2C2D4ABDC2D4DA62058671D",
              "parts": {
                "total": "1",
                "hash": "C01F60486FDD949BB5517D05296020826FA46B32"
              }
            },
            "signature": {
              "type": "tendermint/SignatureEd25519",
              "value": "+Ql6ZWq76tSnFUliJwWt6ipsm35nIQuI37HDoZZg8+8D+u5dB/rZUW/0+FPjCGx7xKXpfE5h6heE5y4vPtuUDQ=="
            }
          },
          {
            "validator_address": "CEB97DB5CB18270247ABDE6CF2F84F9AEE8A2904",
            "validator_index": "75",
            "height": "23266",
            "round": "1",
            "timestamp": "2018-07-31T20:22:01.103168824Z",
            "type": 2,
            "block_id": {
              "hash": "42314AC3A8676CFBF2C2D4ABDC2D4DA62058671D",
              "parts": {
                "total": "1",
                "hash": "C01F60486FDD949BB5517D05296020826FA46B32"
              }
            },
            "signature": {
              "type": "tendermint/SignatureEd25519",
              "value": "XIQZkvlrpdGe/ZX+pM83ezk2uIecxr6BUSEz9fPLEKYdnUgP0wsNPB/Ik5s6DCTHfAGed9fwntf5iIx6F0bHCQ=="
            }
          },
          {
            "validator_address": "CF205769734F5758CC39F907EFB73D6BAF915FB1",
            "validator_index": "76",
            "height": "23266",
            "round": "1",
            "timestamp": "2018-07-31T20:22:01.051471035Z",
            "type": 2,
            "block_id": {
              "hash": "42314AC3A8676CFBF2C2D4ABDC2D4DA62058671D",
              "parts": {
                "total": "1",
                "hash": "C01F60486FDD949BB5517D05296020826FA46B32"
              }
            },
            "signature": {
              "type": "tendermint/SignatureEd25519",
              "value": "pQ2LV6Whxm7mXE9GFA3lRApWwKXcuVBfWimVJLEEea8kkJVrMl5Fp5vTwNDTbeJ3RCx6HuDZEXnF2bsta7EAAQ=="
            }
          },
          {
            "validator_address": "D2134B826A1E25A955905CB79A4D8731CAFA0CCE",
            "validator_index": "77",
            "height": "23266",
            "round": "1",
            "timestamp": "2018-07-31T20:22:00.811051238Z",
            "type": 2,
            "block_id": {
              "hash": "42314AC3A8676CFBF2C2D4ABDC2D4DA62058671D",
              "parts": {
                "total": "1",
                "hash": "C01F60486FDD949BB5517D05296020826FA46B32"
              }
            },
            "signature": {
              "type": "tendermint/SignatureEd25519",
              "value": "hI5gblk4TeQmIZT0r4Gt3FWQlM8AbKEcr4Qt+skoyHQL5TGK8eCWOGVlrgPb3YyZ9GwjcxU7OoSEkmYKSB+1Cw=="
            }
          },
          {
            "validator_address": "D6285C3422C8886445D53757CBE12D2B91B5A9D0",
            "validator_index": "78",
            "height": "23266",
            "round": "1",
            "timestamp": "2018-07-31T20:21:43.318953242Z",
            "type": 2,
            "block_id": {
              "hash": "42314AC3A8676CFBF2C2D4ABDC2D4DA62058671D",
              "parts": {
                "total": "1",
                "hash": "C01F60486FDD949BB5517D05296020826FA46B32"
              }
            },
            "signature": {
              "type": "tendermint/SignatureEd25519",
              "value": "M08eZsMsadbvN1muBHZ1UixePWU4eh8lOym0ELsUJThGzrvM0onDoVAoXQ5MBtAcPFVZ2bm94T2Q93AcJRXpDA=="
            }
          },
          {
            "validator_address": "D77FB84A729972CD3E757C9BEB61561855832B92",
            "validator_index": "79",
            "height": "23266",
            "round": "1",
            "timestamp": "2018-07-31T20:22:00.801005662Z",
            "type": 2,
            "block_id": {
              "hash": "42314AC3A8676CFBF2C2D4ABDC2D4DA62058671D",
              "parts": {
                "total": "1",
                "hash": "C01F60486FDD949BB5517D05296020826FA46B32"
              }
            },
            "signature": {
              "type": "tendermint/SignatureEd25519",
              "value": "8dybuFTHtFU2AkxdGnWIW76Fv7jamxhX+VftfwiGl5/QGQKXOytZUJZSiscUa04zTfI8LC50MoSRt4BbbYVvCQ=="
            }
          },
          {
            "validator_address": "DB7E6732471D3EA5C90C17A9974D9F88AB45F2FB",
            "validator_index": "80",
            "height": "23266",
            "round": "1",
            "timestamp": "2018-07-31T20:22:00.751549743Z",
            "type": 2,
            "block_id": {
              "hash": "42314AC3A8676CFBF2C2D4ABDC2D4DA62058671D",
              "parts": {
                "total": "1",
                "hash": "C01F60486FDD949BB5517D05296020826FA46B32"
              }
            },
            "signature": {
              "type": "tendermint/SignatureEd25519",
              "value": "mAMrj272OEPzyLoccOow5FfRWVdKXXYgWcEhK6HTyBR1R6XLDXDwcwb5CjGq4UIJP2Nw5oI8t0ScqFJxBFM7AA=="
            }
          },
          {
            "validator_address": "DF54B862410BCD9B5C516FBB6C56BDC826ED6FA7",
            "validator_index": "81",
            "height": "23266",
            "round": "1",
            "timestamp": "2018-07-31T20:22:00.841466731Z",
            "type": 2,
            "block_id": {
              "hash": "42314AC3A8676CFBF2C2D4ABDC2D4DA62058671D",
              "parts": {
                "total": "1",
                "hash": "C01F60486FDD949BB5517D05296020826FA46B32"
              }
            },
            "signature": {
              "type": "tendermint/SignatureEd25519",
              "value": "3y/8Q8LUaAEpMsMHEWxz1ricqd8sGxKhXCchAhruFuhrnQGW2sL7nXLNFAGo5N+dThp1Sd1NtHNq/fM4tc0HBg=="
            }
          },
          {
            "validator_address": "DFAF0C8B1B78D6D552B0189DE3ACA351439A1319",
            "validator_index": "82",
            "height": "23266",
            "round": "1",
            "timestamp": "2018-07-31T20:22:00.706220511Z",
            "type": 2,
            "block_id": {
              "hash": "42314AC3A8676CFBF2C2D4ABDC2D4DA62058671D",
              "parts": {
                "total": "1",
                "hash": "C01F60486FDD949BB5517D05296020826FA46B32"
              }
            },
            "signature": {
              "type": "tendermint/SignatureEd25519",
              "value": "s0GCvXTkZoCdqFfXy5IM4BQbAqsVWlWbulNJ8kO3fIrmdGdZezYdzDNLjWkWyZg50nJYsIyyM0tqIWghWdegCQ=="
            }
          },
          {
            "validator_address": "E1DBC77881161A5A3A8536A57536EAE546A75D69",
            "validator_index": "83",
            "height": "23266",
            "round": "1",
            "timestamp": "2018-07-31T20:22:00.65892227Z",
            "type": 2,
            "block_id": {
              "hash": "42314AC3A8676CFBF2C2D4ABDC2D4DA62058671D",
              "parts": {
                "total": "1",
                "hash": "C01F60486FDD949BB5517D05296020826FA46B32"
              }
            },
            "signature": {
              "type": "tendermint/SignatureEd25519",
              "value": "MIHGdBZcJSS9SEiGpSyvdJqm/jFQr+oB5mCrpAeRTaxq29/I7pDVlkhkqVu3U2n4/ld19pEEiIIIal6YBpAHBw=="
            }
          },
          {
            "validator_address": "E300E9D484374C1D3E97C1D93CAC3B160A056298",
            "validator_index": "84",
            "height": "23266",
            "round": "1",
            "timestamp": "2018-07-31T20:22:00.962756928Z",
            "type": 2,
            "block_id": {
              "hash": "42314AC3A8676CFBF2C2D4ABDC2D4DA62058671D",
              "parts": {
                "total": "1",
                "hash": "C01F60486FDD949BB5517D05296020826FA46B32"
              }
            },
            "signature": {
              "type": "tendermint/SignatureEd25519",
              "value": "qjqD80XfOxM9ucI9+vY1pmL9/TP3aCsiF5tkm5ypTXyW7pVKI4KFGKQWSqVvLf0zL18KgCSZcnNq7UadHoZODg=="
            }
          },
          {
            "validator_address": "E39B5778E0D4297A46F45CF6940B0A163A430FF8",
            "validator_index": "85",
            "height": "23266",
            "round": "1",
            "timestamp": "2018-07-31T20:22:00.756053726Z",
            "type": 2,
            "block_id": {
              "hash": "42314AC3A8676CFBF2C2D4ABDC2D4DA62058671D",
              "parts": {
                "total": "1",
                "hash": "C01F60486FDD949BB5517D05296020826FA46B32"
              }
            },
            "signature": {
              "type": "tendermint/SignatureEd25519",
              "value": "jb+cQ8FwhFoBlvcyDC8nFr8AGuswd+8KTjjyJvrxcXe+0k6F/Mdelpq1OJa19YU3suvSfVaWN4EXi1igavwkCQ=="
            }
          },
          {
            "validator_address": "E3B19738F7132F950668504D326C7660F159D170",
            "validator_index": "86",
            "height": "23266",
            "round": "1",
            "timestamp": "2018-07-31T20:22:00.699826613Z",
            "type": 2,
            "block_id": {
              "hash": "42314AC3A8676CFBF2C2D4ABDC2D4DA62058671D",
              "parts": {
                "total": "1",
                "hash": "C01F60486FDD949BB5517D05296020826FA46B32"
              }
            },
            "signature": {
              "type": "tendermint/SignatureEd25519",
              "value": "lWHWmK9UPzwXF9JimEaaKPVmcMZ4IC/19sQqPHnBKr8q6mGqSnLo1WhimxAq4TzDoqTM7+EfYM6LbUzh7zIZBg=="
            }
          },
          {
            "validator_address": "E42F8AEABB685219F7027F54D2B0DBC7846F633A",
            "validator_index": "87",
            "height": "23266",
            "round": "1",
            "timestamp": "2018-07-31T20:21:59.982124337Z",
            "type": 2,
            "block_id": {
              "hash": "42314AC3A8676CFBF2C2D4ABDC2D4DA62058671D",
              "parts": {
                "total": "1",
                "hash": "C01F60486FDD949BB5517D05296020826FA46B32"
              }
            },
            "signature": {
              "type": "tendermint/SignatureEd25519",
              "value": "TRiYYHwFCj1XNPucU8ImqQBP2tZ9+B1LTHJcWD2cXfY4BtWfWzkKCmryFAhXMmqFkMmu5UfdWuRKcL8HzchsAA=="
            }
          },
          {
            "validator_address": "E4E6C2E81269DFFA196C17F98240E491479A6008",
            "validator_index": "88",
            "height": "23266",
            "round": "1",
            "timestamp": "2018-07-31T20:22:00.782741133Z",
            "type": 2,
            "block_id": {
              "hash": "42314AC3A8676CFBF2C2D4ABDC2D4DA62058671D",
              "parts": {
                "total": "1",
                "hash": "C01F60486FDD949BB5517D05296020826FA46B32"
              }
            },
            "signature": {
              "type": "tendermint/SignatureEd25519",
              "value": "0Ib+M42GIyc2oIxs60ksO44vzHgWIakBwToaa5HAeIGiCJ6uNHZEKsh5D6bSaoQxz4KaZHly1ra2xLRt83iNCQ=="
            }
          },
          {
            "validator_address": "E4FEB2846F4F3B0ECDCBE9C9DCB2248248A5AF0F",
            "validator_index": "89",
            "height": "23266",
            "round": "1",
            "timestamp": "2018-07-31T20:22:00.972200984Z",
            "type": 2,
            "block_id": {
              "hash": "42314AC3A8676CFBF2C2D4ABDC2D4DA62058671D",
              "parts": {
                "total": "1",
                "hash": "C01F60486FDD949BB5517D05296020826FA46B32"
              }
            },
            "signature": {
              "type": "tendermint/SignatureEd25519",
              "value": "XL8D0Hi9WYDTBF7p+/hwuofk0egk03J4tMWu1QgIO2d3EkPwgqXwI35KMbMJ7GiZShAD4ixeSNktTo+J4iWZDg=="
            }
          },
          {
            "validator_address": "E6A7079D584B163750BE0831227F6B685DEAF3C1",
            "validator_index": "90",
            "height": "23266",
            "round": "1",
            "timestamp": "2018-07-31T20:22:00.828534806Z",
            "type": 2,
            "block_id": {
              "hash": "42314AC3A8676CFBF2C2D4ABDC2D4DA62058671D",
              "parts": {
                "total": "1",
                "hash": "C01F60486FDD949BB5517D05296020826FA46B32"
              }
            },
            "signature": {
              "type": "tendermint/SignatureEd25519",
              "value": "GqoIx809AUtBOilBJjPAfTgRV84y4xjjkw+p3YJObdaXlFkq8Whx86or7tQeuNtIdqqQ9toXUIzpY5ik0TSKCA=="
            }
          },
          {
            "validator_address": "E7A30077D5D11867D3EAF99ED45BFDC1EB834509",
            "validator_index": "91",
            "height": "23266",
            "round": "1",
            "timestamp": "2018-07-31T20:22:00.711483833Z",
            "type": 2,
            "block_id": {
              "hash": "42314AC3A8676CFBF2C2D4ABDC2D4DA62058671D",
              "parts": {
                "total": "1",
                "hash": "C01F60486FDD949BB5517D05296020826FA46B32"
              }
            },
            "signature": {
              "type": "tendermint/SignatureEd25519",
              "value": "udStE1lzdCCuvpZuHyAzjHqpTKVY8vCa7+1EA6qSi+qCnocV3GS9wf+69jp0vDzqWVnTxR0lpUVDcC6zoMTVDg=="
            }
          },
          {
            "validator_address": "EBC613967F66F4EC306852CDF58B4F151CF16738",
            "validator_index": "92",
            "height": "23266",
            "round": "1",
            "timestamp": "2018-07-31T20:22:00.778040878Z",
            "type": 2,
            "block_id": {
              "hash": "42314AC3A8676CFBF2C2D4ABDC2D4DA62058671D",
              "parts": {
                "total": "1",
                "hash": "C01F60486FDD949BB5517D05296020826FA46B32"
              }
            },
            "signature": {
              "type": "tendermint/SignatureEd25519",
              "value": "mySNel/kQfturf7SIdh0ksGQIg0R5D54pwafLVUWgO+mHqppsi24b0AlWCF8iAbb5/ZuiX1S/lep9hDq9MlgAw=="
            }
          },
          {
            "validator_address": "EC3401441726C40ECC7E51F744483B05BC6DE9BD",
            "validator_index": "93",
            "height": "23266",
            "round": "1",
            "timestamp": "2018-07-31T20:22:00.732095113Z",
            "type": 2,
            "block_id": {
              "hash": "42314AC3A8676CFBF2C2D4ABDC2D4DA62058671D",
              "parts": {
                "total": "1",
                "hash": "C01F60486FDD949BB5517D05296020826FA46B32"
              }
            },
            "signature": {
              "type": "tendermint/SignatureEd25519",
              "value": "bG0sgcSF0yBe1vnArFRnV/f51FYl+VeQTqQV95viFwtaxeXO65uFo02O2cPpAEOq/Jidv7SlwAfLgn2y/FQtDw=="
            }
          },
          {
            "validator_address": "EC95B111D032181E1EC3B5E8875C5BB8E4AE7140",
            "validator_index": "94",
            "height": "23266",
            "round": "1",
            "timestamp": "2018-07-31T20:22:00.628360742Z",
            "type": 2,
            "block_id": {
              "hash": "42314AC3A8676CFBF2C2D4ABDC2D4DA62058671D",
              "parts": {
                "total": "1",
                "hash": "C01F60486FDD949BB5517D05296020826FA46B32"
              }
            },
            "signature": {
              "type": "tendermint/SignatureEd25519",
              "value": "oaAscW6syqgVVuW2uezcAgaONzKRIGG+ZXBrXHeMWxK2bANF3TQstlqBho4nTeBff6O81Qh5yAoYm2yUftZHBQ=="
            }
          },
          {
            "validator_address": "F13C1805E8131C9B47E2A46818F57D8A2841E578",
            "validator_index": "95",
            "height": "23266",
            "round": "1",
            "timestamp": "2018-07-31T20:22:00.817161037Z",
            "type": 2,
            "block_id": {
              "hash": "42314AC3A8676CFBF2C2D4ABDC2D4DA62058671D",
              "parts": {
                "total": "1",
                "hash": "C01F60486FDD949BB5517D05296020826FA46B32"
              }
            },
            "signature": {
              "type": "tendermint/SignatureEd25519",
              "value": "uW0DW/q4slIf719mxaxBDSw0ug0G0/5lRn2VhhBW2htK5iw1xXeqRVYWeYrA/0Nq8FyFO//AdTgY0wzhbtg5AA=="
            }
          },
          {
            "validator_address": "F23FF36BD5B90C33CE3A03ED72DBDCF5EC07D6AF",
            "validator_index": "96",
            "height": "23266",
            "round": "1",
            "timestamp": "2018-07-31T20:22:00.786429282Z",
            "type": 2,
            "block_id": {
              "hash": "42314AC3A8676CFBF2C2D4ABDC2D4DA62058671D",
              "parts": {
                "total": "1",
                "hash": "C01F60486FDD949BB5517D05296020826FA46B32"
              }
            },
            "signature": {
              "type": "tendermint/SignatureEd25519",
              "value": "Ijy30jj2yU+8Ondem57zvoKkaDtmktzBuFfrC2awOu16SJrX+M4BwPVFWIowbdOUJNvTOQGSLJY+pjpTRDDvBA=="
            }
          },
          {
            "validator_address": "F4268597DE93E3E2CED38845010F8AA34E2A879E",
            "validator_index": "97",
            "height": "23266",
            "round": "1",
            "timestamp": "2018-07-31T20:22:00.750076662Z",
            "type": 2,
            "block_id": {
              "hash": "42314AC3A8676CFBF2C2D4ABDC2D4DA62058671D",
              "parts": {
                "total": "1",
                "hash": "C01F60486FDD949BB5517D05296020826FA46B32"
              }
            },
            "signature": {
              "type": "tendermint/SignatureEd25519",
              "value": "M7XgIgLwEBBgv7p/4UdcH7KOcJt/zmcHwFuGBO1TSjqt9KsrBs1m2G69JRDGKgrnMpVDfEpA88mKM63Gg8YqAQ=="
            }
          },
          {
            "validator_address": "F4DEB417999B04BE2EFF9FFE03FA373D86011CC0",
            "validator_index": "98",
            "height": "23266",
            "round": "1",
            "timestamp": "2018-07-31T20:22:00.870001884Z",
            "type": 2,
            "block_id": {
              "hash": "42314AC3A8676CFBF2C2D4ABDC2D4DA62058671D",
              "parts": {
                "total": "1",
                "hash": "C01F60486FDD949BB5517D05296020826FA46B32"
              }
            },
            "signature": {
              "type": "tendermint/SignatureEd25519",
              "value": "o6OkVqI+8o5gES8UvU+sQDtGJeXoPiF9HqToqj0xjlzaGNHs5Q0dpP+pQj92blAQkfLIDKfU8x+QvRoGrquOBQ=="
            }
          },
          {
            "validator_address": "F6738260186D33D9C14FC6E7017AFE6BB952A63D",
            "validator_index": "99",
            "height": "23266",
            "round": "1",
            "timestamp": "2018-07-31T20:22:00.690089011Z",
            "type": 2,
            "block_id": {
              "hash": "42314AC3A8676CFBF2C2D4ABDC2D4DA62058671D",
              "parts": {
                "total": "1",
                "hash": "C01F60486FDD949BB5517D05296020826FA46B32"
              }
            },
            "signature": {
              "type": "tendermint/SignatureEd25519",
              "value": "infbqVPxeYvX5nbmpDqdwjr4sfK2HlQsxJqCvOIYc4kuVz2FUUMpHLXh4LLkTtrbftcN3CeRkZDrRULQk8E5Dg=="
            }
          },
          {
            "validator_address": "FF3F3FCBCE7E62D7AD5506FF846EC4518D980515",
            "validator_index": "100",
            "height": "23266",
            "round": "1",
            "timestamp": "2018-07-31T20:22:00.68451912Z",
            "type": 2,
            "block_id": {
              "hash": "42314AC3A8676CFBF2C2D4ABDC2D4DA62058671D",
              "parts": {
                "total": "1",
                "hash": "C01F60486FDD949BB5517D05296020826FA46B32"
              }
            },
            "signature": {
              "type": "tendermint/SignatureEd25519",
              "value": "Vnv+gAlklw3VRQ2aTkZGWHZdE6JdF1gWe5TvHNuZ/EMcW/2M1/Yn7r4h7kjxI851TgDMYiBA+bjsgEwKRKY3CQ=="
            }
          }
        ]
      }
    },
    "canonical": true
  }
}