{
  "jsonrpc": "2.0",
  "id": "",
  "result": {
    "SignedHeader": {
      "header": {
        "chain_id": "gaia-7004",
        "height": "2354",
        "time": "2018-07-30T08:40:28.906076266Z",
        "num_txs": "0",
        "last_block_id": {
          "hash": "604B99B8861507C6A538F2EB4F3B884A88CFDB87",
          "parts": {
            "total": "1",
            "hash": "4FA0CCD3DFEEDB45E5A3141261571C399D6523F5"
          }
        },
        "total_txs": "47",
        "last_commit_hash": "C928B50FA7A8637BE64C068B6317D155D3EB5901",
        "data_hash": "",
        "validators_hash": "C7668E25739B3A7917DBA0C8B85DCC69CE584AB3",
        "consensus_hash": "D6B74BB35BDFFD8392340F2A379173548AE188FE",
        "app_hash": "FA0745D141CF70B4BC52A697F658FF0FABAC6D9D",
        "last_results_hash": "",
        "evidence_hash": ""
      },
      "commit": {
        "block_id": {
          "hash": "8AAE6A3EA58F037B5D0F113389AE08486EAE56CD",
          "parts": {
            "total": "1",
            "hash": "9AAD8CABE102EC6C4EB361652BB0A5A9CF288CD2"
          }
        },
        "precommits": [
          {
            "validator_address": "029359C0C768096273A68ABC902A6B17AC8D1D70",
            "validator_index": "0",
            "height": "2354",
            "round": "1",
            "timestamp": "2018-07-30T08:40:29.910880591Z",
            "type": 2,
            "block_id": {
              "hash": "8AAE6A3EA58F037B5D0F113389AE08486EAE56CD",
              "parts": {
                "total": "1",
                "hash": "9AAD8CABE102EC6C4EB361652BB0A5A9CF288CD2"
              }
            },
            "signature": {
              "type": "tendermint/SignatureEd25519",
              "value": "t5xJPpHarMs4Oah9HwEDMjHFgsZx04p9Rw9bbJe72dH4zylRNSCelh0zimjrRnsuJHhVMt68en0NNBt3tTh8Cg=="
            }
          },
          {
            "validator_address": "02FE4B97A8387F39D1AC19E0C1702B3CC614812F",
            "validator_index": "1",
            "height": "2354",
            "round": "1",
            "timestamp": "2018-07-30T08:40:29.878670835Z",
            "type": 2,
            "block_id": {
              "hash": "8AAE6A3EA58F037B5D0F113389AE08486EAE56CD",
              "parts": {
                "total": "1",
                "hash": "9AAD8CABE102EC6C4EB361652BB0A5A9CF288CD2"
              }
            },
            "signature": {
              "type": "tendermint/SignatureEd25519",
              "value": "bQ5JYWjocV98RxLAqkrdsBkd0PE8knNiaDfJAXRfF5HnVfn52WH/SohHs3fFhPwEjRMnDLwK6XzA2jUjMhZVCw=="
            }
          },
          {
            "validator_address": "0548261C50222FD710EB5EBDF03A0E6567B21D20",
            "validator_index": "2",
            "height": "2354",
            "round": "1",
            "timestamp": "2018-07-30T08:40:29.959930638Z",
            "type": 2,
            "block_id": {
              "hash": "8AAE6A3EA58F037B5D0F113389AE08486EAE56CD",
              "parts": {
                "total": "1",
                "hash": "9AAD8CABE102EC6C4EB361652BB0A5A9CF288CD2"
              }
            },
            "signature": {
              "type": "tendermint/SignatureEd25519",
              "value": "g23dsAPX56k9LaTyg4ux4ysYQ0W1Ibvq6xTL2uI1RI/XeW7dg69jDwLYj9/DJ/HsGPQR0p8UHSeIkuQ+xMS2Bg=="
            }
          },
          null,
          null,
          {
            "validator_address": "0989D0355A104B67AE0AE028C68FB610690E174B",
            "validator_index": "5",
            "height": "2354",
            "round": "1",
            "timestamp": "2018-07-30T08:40:29.885784025Z",
            "type": 2,
            "block_id": {
              "hash": "8AAE6A3EA58F037B5D0F113389AE08486EAE56CD",
              "parts": {
                "total": "1",
                "hash": "9AAD8CABE102EC6C4EB361652BB0A5A9CF288CD2"
              }
            },
            "signature": {
              "type": "tendermint/SignatureEd25519",
              "value": "ssij1VOaH8i6zh6k6ZsK+QAmIIUVB8ir7DPmKcFurCstgYZ3RVhfCaIaGOOjaiPHNnM2/7hXQ6GJRSWawRCYBw=="
            }
          },
          {
            "validator_address": "0A692DBFFE9E5DD28E7DECC33CED1AEB4C0D014E",
            "validator_index": "6",
            "height": "2354",
            "round": "1",
            "timestamp": "2018-07-30T08:40:30.036072871Z",
            "type": 2,
            "block_id": {
              "hash": "8AAE6A3EA58F037B5D0F113389AE08486EAE56CD",
              "parts": {
                "total": "1",
                "hash": "9AAD8CABE102EC6C4EB361652BB0A5A9CF288CD2"
              }
            },
            "signature": {
              "type": "tendermint/SignatureEd25519",
              "value": "X99bT4C9PqqrAd9/eSREjzKPneChBp2L5QHGCancgVW16pdhOpCYYKbmF4GjRNWLc4Vr0lx2bzHY9qa3wU7IDw=="
            }
          },
          {
            "validator_address": "0DDF97111D73DB825138EC15EC27DE5FE8536901",
            "validator_index": "7",
            "height": "2354",
            "round": "1",
            "timestamp": "2018-07-30T08:40:29.97824594Z",
            "type": 2,
            "block_id": {
              "hash": "8AAE6A3EA58F037B5D0F113389AE08486EAE56CD",
              "parts": {
                "total": "1",
                "hash": "9AAD8CABE102EC6C4EB361652BB0A5A9CF288CD2"
              }
            },
            "signature": {
              "type": "tendermint/SignatureEd25519",
              "value": "RfacNRC0o8pa62qCv1Yjln6QRD+lSMsBa/xV4X4BkPJQtR/nZmG4MLFq9FxfGBq+Nwo0nY8mnP2WNYY0aXDyCQ=="
            }
          },
          {
            "validator_address": "0F3FB8F818BE494E8F5597D9A8ACA57C8C5E72B7",
            "validator_index": "8",
            "height": "2354",
            "round": "1",
            "timestamp": "2018-07-30T08:40:30.07299307Z",
            "type": 2,
            "block_id": {
              "hash": "8AAE6A3EA58F037B5D0F113389AE08486EAE56CD",
              "parts": {
                "total": "1",
                "hash": "9AAD8CABE102EC6C4EB361652BB0A5A9CF288CD2"
              }
            },
            "signature": {
              "type": "tendermint/SignatureEd25519",
              "value": "mN7f798EhllEinFQkGjDO6iYIypy8Ms64HczQIG4xRotutokfjD5TULXIKcy6mKax5U2AS+CglrxQ+Ku5YY1Cg=="
            }
          },
          {
            "validator_address": "1751786EFC085D5331C61168FFFC8202EA151B4E",
            "validator_index": "9",
            "height": "2354",
            "round": "1",
            "timestamp": "2018-07-30T08:40:29.431000615Z",
            "type": 2,
            "block_id": {
              "hash": "8AAE6A3EA58F037B5D0F113389AE08486EAE56CD",
              "parts": {
                "total": "1",
                "hash": "9AAD8CABE102EC6C4EB361652BB0A5A9CF288CD2"
              }
            },
            "signature": {
              "type": "tendermint/SignatureEd25519",
              "value": "LbZZPNC1epvx/Il4Doqg86h+W6ihFNqVmL0ookR20V87smmHWPkua11gPNAOHYheUDPFiC0vdo9irdpbQhyvBA=="
            }
          },
          {
            "validator_address": "17BB5CD01E8940FAFB948A04D5FA5A0645E5822E",
            "validator_index": "10",
            "height": "2354",
            "round": "1",
            "timestamp": "2018-07-30T08:40:29.865308049Z",
            "type": 2,
            "block_id": {
              "hash": "8AAE6A3EA58F037B5D0F113389AE08486EAE56CD",
              "parts": {
                "total": "1",
                "hash": "9AAD8CABE102EC6C4EB361652BB0A5A9CF288CD2"
              }
            },
            "signature": {
              "type": "tendermint/SignatureEd25519",
              "value": "JItiTXXd+CrXKnvfoVMOs41ip9uqfVTlb2dcq5qMGjs6upKC/R38Z1nMsrCqpF1AAEftCaPNEXPeSSDqWZFXCA=="
            }
          },
          null,
          {
            "validator_address": "1E9CE94FD0BA5CFEB901F90BC658D64D85B134D2",
            "validator_index": "12",
            "height": "2354",
            "round": "1",
            "timestamp": "2018-07-30T08:40:29.971055417Z",
            "type": 2,
            "block_id": {
              "hash": "8AAE6A3EA58F037B5D0F113389AE08486EAE56CD",
              "parts": {
                "total": "1",
                "hash": "9AAD8CABE102EC6C4EB361652BB0A5A9CF288CD2"
              }
            },
            "signature": {
              "type": "tendermint/SignatureEd25519",
              "value": "C2VCm7JfUfrnIF7FqQei5u5WsKeJhO1BmUb9TGmxQJcnWDmz8r4HT1Ij/oywYqvcImKhCaPsRnqG5ujxChzMBQ=="
            }
          },
          {
            "validator_address": "1ECD8C5FE1341D74CDC633A245DD56858DE2F9A2",
            "validator_index": "13",
            "height": "2354",
            "round": "1",
            "timestamp": "2018-07-30T08:40:30.014007354Z",
            "type": 2,
            "block_id": {
              "hash": "8AAE6A3EA58F037B5D0F113389AE08486EAE56CD",
              "parts": {
                "total": "1",
                "hash": "9AAD8CABE102EC6C4EB361652BB0A5A9CF288CD2"
              }
            },
            "signature": {
              "type": "tendermint/SignatureEd25519",
              "value": "1bb+xGFdwj0aKVuedLamn18xqcjmgNwG2Pjv4fPJNoipt+oSdpQz9VntV++amGZOQyXZDuLY1gQ9eZHRH9mhBA=="
            }
          },
          null,
          null,
          {
            "validator_address": "23897586D68E2AC1C78E0EF5BB5DF5C8EAB18F50",
            "validator_index": "16",
            "height": "2354",
            "round": "1",
            "timestamp": "2018-07-30T08:40:29.903247786Z",
            "type": 2,
            "block_id": {
              "hash": "8AAE6A3EA58F037B5D0F113389AE08486EAE56CD",
              "parts": {
                "total": "1",
                "hash": "9AAD8CABE102EC6C4EB361652BB0A5A9CF288CD2"
              }
            },
            "signature": {
              "type": "tendermint/SignatureEd25519",
              "value": "PrfUQsxLfYnJil7bbg1xbRDpVM515EcShYODzdbJQncRzbrfzTpX/WXAaiVxvplxgxRUDQrNDqf7X2PgdbGgCA=="
            }
          },
          {
            "validator_address": "28770D17E8530825E7310A0659308654B7EC9682",
            "validator_index": "17",
            "height": "2354",
            "round": "1",
            "timestamp": "2018-07-30T08:40:29.870965931Z",
            "type": 2,
            "block_id": {
              "hash": "8AAE6A3EA58F037B5D0F113389AE08486EAE56CD",
              "parts": {
                "total": "1",
                "hash": "9AAD8CABE102EC6C4EB361652BB0A5A9CF288CD2"
              }
            },
            "signature": {
              "type": "tendermint/SignatureEd25519",
              "value": "76FbeP3wajG6prG9AUT064HcHFlEVmm4pkLiJTkf9OvTG67s5FL0STPmjZQuyzo3ZD7WqOrkHg/ZmMGY2kqsCQ=="
            }
          },
          null,
          {
            "validator_address": "2A92EC3C642140202298D0E245095E0ECFC25228",
            "validator_index": "19",
            "height": "2354",
            "round": "1",
            "timestamp": "2018-07-30T08:40:29.938094503Z",
            "type": 2,
            "block_id": {
              "hash": "8AAE6A3EA58F037B5D0F113389AE08486EAE56CD",
              "parts": {
                "total": "1",
                "hash": "9AAD8CABE102EC6C4EB361652BB0A5A9CF288CD2"
              }
            },
            "signature": {
              "type": "tendermint/SignatureEd25519",
              "value": "G5Tqgq6uCk0wp1uLEwhQtz3tq+i6+BiIrDBZ2LfAzl/8WiSvJT9esKZv7uklfFH9pIhcYHQ7M92XbfQhOldnBg=="
            }
          },
          null,
          null,
          {
            "validator_address": "33412C9A69C60CB0FAA24A5C5B3A906DE24B47C2",
            "validator_index": "22",
            "height": "2354",
            "round": "1",
            "timestamp": "2018-07-30T08:40:29.848014492Z",
            "type": 2,
            "block_id": {
              "hash": "8AAE6A3EA58F037B5D0F113389AE08486EAE56CD",
              "parts": {
                "total": "1",
                "hash": "9AAD8CABE102EC6C4EB361652BB0A5A9CF288CD2"
              }
            },
            "signature": {
              "type": "tendermint/SignatureEd25519",
              "value": "sjd2BEL8oNcVqTjfWwcupoonYwmGf7F1xdFhps9cFJ1HwwTODXzUQrIZUXITT5X7afDR1QrN6Fm4ndHjAGjECw=="
            }
          },
          null,
          {
            "validator_address": "36E9B7FAEC964F97D84C028ED62493E373AD0B38",
            "validator_index": "24",
            "height": "2354",
            "round": "1",
            "timestamp": "2018-07-30T08:40:30.092032014Z",
            "type": 2,
            "block_id": {
              "hash": "8AAE6A3EA58F037B5D0F113389AE08486EAE56CD",
              "parts": {
                "total": "1",
                "hash": "9AAD8CABE102EC6C4EB361652BB0A5A9CF288CD2"
              }
            },
            "signature": {
              "type": "tendermint/SignatureEd25519",
              "value": "VsOmK24rmj0NAqTOcfPUw6YSxknRjbuHi8XnrALtjawMGl5G6P8i6Nbbb4CYt0+AVay+kAMTu8lSnqIlKZzyCg=="
            }
          },
          {
            "validator_address": "38A8D85D36BEA2E5FCF8A1E778F53628E450EF13",
            "validator_index": "25",
            "height": "2354",
            "round": "1",
            "timestamp": "2018-07-30T08:40:30.017097724Z",
            "type": 2,
            "block_id": {
              "hash": "8AAE6A3EA58F037B5D0F113389AE08486EAE56CD",
              "parts": {
                "total": "1",
                "hash": "9AAD8CABE102EC6C4EB361652BB0A5A9CF288CD2"
              }
            },
            "signature": {
              "type": "tendermint/SignatureEd25519",
              "value": "1xM3zqkyENO+3pnmxEly0cJ+gbfBEArC+c3I9DZqO/6GRuAiXkI00KKSnlYLZdJ8vS1RxiSwj7sApXzQnssXAQ=="
            }
          },
          null,
          {
            "validator_address": "3AC99B708404452366E0953A4BE849226DC86CBC",
            "validator_index": "27",
            "height": "2354",
            "round": "1",
            "timestamp": "2018-07-30T08:40:30.001828491Z",
            "type": 2,
            "block_id": {
              "hash": "8AAE6A3EA58F037B5D0F113389AE08486EAE56CD",
              "parts": {
                "total": "1",
                "hash": "9AAD8CABE102EC6C4EB361652BB0A5A9CF288CD2"
              }
            },
            "signature": {
              "type": "tendermint/SignatureEd25519",
              "value": "Jl750wGdB8w/Zp7eZRqUnHsVqnwbQ7LkZZKF+Y2IfZUEhsm2r5Vt1gE+Nc5U3vqRUf/N61XL3PjSEz2mbfQqCg=="
            }
          },
          {
            "validator_address": "3DCB822A10ED319EC7C4393D8E3FD4A41B15AAF2",
            "validator_index": "28",
            "height": "2354",
            "round": "1",
            "timestamp": "2018-07-30T08:40:29.852580147Z",
            "type": 2,
            "block_id": {
              "hash": "8AAE6A3EA58F037B5D0F113389AE08486EAE56CD",
              "parts": {
                "total": "1",
                "hash": "9AAD8CABE102EC6C4EB361652BB0A5A9CF288CD2"
              }
            },
            "signature": {
              "type": "tendermint/SignatureEd25519",
              "value": "LoKuJcqVdqkbI2QXAiURXyYvD5fNaQcvEjXdRdEH/rD/6QC8eU4ZSztTzpJehZCGlvFgB7M2A7UTSprDFKqTCg=="
            }
          },
          {
            "validator_address": "3E899BA36A93C7370347BD5FE85909F2ECD93F8C",
            "validator_index": "29",
            "height": "2354",
            "round": "1",
            "timestamp": "2018-07-30T08:40:29.911577505Z",
            "type": 2,
            "block_id": {
              "hash": "8AAE6A3EA58F037B5D0F113389AE08486EAE56CD",
              "parts": {
                "total": "1",
                "hash": "9AAD8CABE102EC6C4EB361652BB0A5A9CF288CD2"
              }
            },
            "signature": {
              "type": "tendermint/SignatureEd25519",
              "value": "mZv4eqWw5uscoSqQgMEnnkZzqDclrn0hyVqtW1wC6tW3JYfraMYAYBE8QJ+qv5+j026joC9f7omCt0n0AsJFAg=="
            }
          },
          {
            "validator_address": "41CAB2E29E7D0F2282E3275938F188FF9386B84C",
            "validator_index": "30",
            "height": "2354",
            "round": "1",
            "timestamp": "2018-07-30T08:40:29.84297877Z",
            "type": 2,
            "block_id": {
              "hash": "8AAE6A3EA58F037B5D0F113389AE08486EAE56CD",
              "parts": {
                "total": "1",
                "hash": "9AAD8CABE102EC6C4EB361652BB0A5A9CF288CD2"
              }
            },
            "signature": {
              "type": "tendermint/SignatureEd25519",
              "value": "jHHpWbHsin0Jl4ij1+N9S2gV1iNCXZ2UmXfgZee/i85FHVSp6r2/gKV4HD8+hd9yIWrmi1igz3tDzXe+rs5lBw=="
            }
          },
          {
            "validator_address": "462B656869DB02A8FD1077E255F8CC7401DC37C6",
            "validator_index": "31",
            "height": "2354",
            "round": "1",
            "timestamp": "2018-07-30T08:40:29.933268127Z",
            "type": 2,
            "block_id": {
              "hash": "8AAE6A3EA58F037B5D0F113389AE08486EAE56CD",
              "parts": {
                "total": "1",
                "hash": "9AAD8CABE102EC6C4EB361652BB0A5A9CF288CD2"
              }
            },
            "signature": {
              "type": "tendermint/SignatureEd25519",
              "value": "oGUS2WR5nPy9ENBUppJhSNe6uSR8znz6MmFBRVSM5HA4FL5VG1juNH+AAdaQDCJ8troJw14Qj9PiPXBenVMYCw=="
            }
          },
          {
            "validator_address": "48E5118163E5442068A1B5A42D2EEDBB75724935",
            "validator_index": "32",
            "height": "2354",
            "round": "1",
            "timestamp": "2018-07-30T08:40:30.008661894Z",
            "type": 2,
            "block_id": {
              "hash": "8AAE6A3EA58F037B5D0F113389AE08486EAE56CD",
              "parts": {
                "total": "1",
                "hash": "9AAD8CABE102EC6C4EB361652BB0A5A9CF288CD2"
              }
            },
            "signature": {
              "type": "tendermint/SignatureEd25519",
              "value": "V+CDUkiwluCSmBkEwgXPui4xU6EsqndAmDfGdPVH8X79mu/ls9qJ6KCHdH5NM6SbrNEn+tXFRRMqDPiK2oDDAA=="
            }
          },
          null,
          {
            "validator_address": "4944F8BBBB5303E17BC0607DF332320EDBC750EA",
            "validator_index": "34",
            "height": "2354",
            "round": "1",
            "timestamp": "2018-07-30T08:40:29.821672031Z",
            "type": 2,
            "block_id": {
              "hash": "8AAE6A3EA58F037B5D0F113389AE08486EAE56CD",
              "parts": {
                "total": "1",
                "hash": "9AAD8CABE102EC6C4EB361652BB0A5A9CF288CD2"
              }
            },
            "signature": {
              "type": "tendermint/SignatureEd25519",
              "value": "u6ff4UqVP3RwdyT2ax2+yJk+NGsSPSxmL7rAr6tYS78gNoZHfMQ/+vspAz3vSdHGb8jnCmwTNiK54Ul5ZV8rCA=="
            }
          },
          {
            "validator_address": "49841599DE675157CBE1E7D6B35BF8FFC23BD5CB",
            "validator_index": "35",
            "height": "2354",
            "round": "1",
            "timestamp": "2018-07-30T08:40:29.866737749Z",
            "type": 2,
            "block_id": {
              "hash": "8AAE6A3EA58F037B5D0F113389AE08486EAE56CD",
              "parts": {
                "total": "1",
                "hash": "9AAD8CABE102EC6C4EB361652BB0A5A9CF288CD2"
              }
            },
            "signature": {
              "type": "tendermint/SignatureEd25519",
              "value": "4PECU+Hp3zi10y5bD/YafCuQSARt2fLuvL2ojQ2i8T14xYymLk30JC1jsAHV8rNi05OZfiPEG/KULk3WiuEABQ=="
            }
          },
          {
            "validator_address": "5104F488EA6B1E2C33CBDA3C18389C88104DBC72",
            "validator_index": "36",
            "height": "2354",
            "round": "1",
            "timestamp": "2018-07-30T08:40:29.912107239Z",
            "type": 2,
            "block_id": {
              "hash": "8AAE6A3EA58F037B5D0F113389AE08486EAE56CD",
              "parts": {
                "total": "1",
                "hash": "9AAD8CABE102EC6C4EB361652BB0A5A9CF288CD2"
              }
            },
            "signature": {
              "type": "tendermint/SignatureEd25519",
              "value": "TWx+rB3Y4wOiQ8CbsmoXCwMNEWctxjLfqw56Bp4WaRUeLAlquxWasdSHOWcItoTF6GjgilLVZF58/KqLmIPLCQ=="
            }
          },
          {
            "validator_address": "51386C2CF9556821D114D7E4945806802BADB28D",
            "validator_index": "37",
            "height": "2354",
            "round": "1",
            "timestamp": "2018-07-30T08:40:29.913819436Z",
            "type": 2,
            "block_id": {
              "hash": "8AAE6A3EA58F037B5D0F113389AE08486EAE56CD",
              "parts": {
                "total": "1",
                "hash": "9AAD8CABE102EC6C4EB361652BB0A5A9CF288CD2"
              }
            },
            "signature": {
              "type": "tendermint/SignatureEd25519",
              "value": "Inlm0Ba+7gBYZqh96OP5NYQX9dejxAfusr50P7MbFEM3QJGVI2qK0if93sWwjJ5aGMd8LuwYkgyEMbDnkgB4Bg=="
            }
          },
          {
            "validator_address": "543564ECA3AFEFADC73EE8591AAC3A96F079BC8A",
            "validator_index": "38",
            "height": "2354",
            "round": "1",
            "timestamp": "2018-07-30T08:40:29.894458968Z",
            "type": 2,
            "block_id": {
              "hash": "8AAE6A3EA58F037B5D0F113389AE08486EAE56CD",
              "parts": {
                "total": "1",
                "hash": "9AAD8CABE102EC6C4EB361652BB0A5A9CF288CD2"
              }
            },
            "signature": {
              "type": "tendermint/SignatureEd25519",
              "value": "E1R9T9Wu0PBCaAdW+CqBCfZ41YxkBjIOhbFoIzHN/PUcPF8kA7pfpHAtWA3DD4p7sjw8LaEhlahSgJSbzcTZBA=="
            }
          },
          {
            "validator_address": "55D67B1A6DC13E96F8754A5A42EABC20F7F86664",
            "validator_index": "39",
            "height": "2354",
            "round": "1",
            "timestamp": "2018-07-30T08:40:29.888239392Z",
            "type": 2,
            "block_id": {
              "hash": "8AAE6A3EA58F037B5D0F113389AE08486EAE56CD",
              "parts": {
                "total": "1",
                "hash": "9AAD8CABE102EC6C4EB361652BB0A5A9CF288CD2"
              }
            },
            "signature": {
              "type": "tendermint/SignatureEd25519",
              "value": "LagShJKyTvsCoDE+MXuB/iXe4vvWoRZHMjaXbNLPHuiTJ910EXPyma5GJOiMPit/ONOYmSpkjiHTS7+yZFMEAQ=="
            }
          },
          {
            "validator_address": "570B6A755ED339EAC56BB3390A48069F6AC9449B",
            "validator_index": "40",
            "height": "2354",
            "round": "1",
            "timestamp": "2018-07-30T08:40:32.276180885Z",
            "type": 2,
            "block_id": {
              "hash": "8AAE6A3EA58F037B5D0F113389AE08486EAE56CD",
              "parts": {
                "total": "1",
                "hash": "9AAD8CABE102EC6C4EB361652BB0A5A9CF288CD2"
              }
            },
            "signature": {
              "type": "tendermint/SignatureEd25519",
              "value": "MkLbuvurCAW7fHLivtOjzkIg0m1wlPzAqb3Fte6/661RCvq4+HyqLP9jioaqdKroOAorhZY6zZ8m/sZ0prX+BA=="
            }
          },
          {
            "validator_address": "5BDF8EA41B1835FBAD865B181A2A4B23F511B5E4",
            "validator_index": "41",
            "height": "2354",
            "round": "1",
            "timestamp": "2018-07-30T08:40:29.868342396Z",
            "type": 2,
            "block_id": {
              "hash": "8AAE6A3EA58F037B5D0F113389AE08486EAE56CD",
              "parts": {
                "total": "1",
                "hash": "9AAD8CABE102EC6C4EB361652BB0A5A9CF288CD2"
              }
            },
            "signature": {
              "type": "tendermint/SignatureEd25519",
              "value": "xxc9fEDGQS7IZuogRzGLktqeXYpsj76bKynuSj5MOuK81W/o1bn7XKRTs/9e/clZsYjFBYsiNqHA1qnlJ5c2Dw=="
            }
          },
          null,
          null,
          {
            "validator_address": "60229E2E273297FE00219E46DFFB8F76844CDEF9",
            "validator_index": "44",
            "height": "2354",
            "round": "1",
            "timestamp": "2018-07-30T08:40:29.473982272Z",
            "type": 2,
            "block_id": {
              "hash": "8AAE6A3EA58F037B5D0F113389AE08486EAE56CD",
              "parts": {
                "total": "1",
                "hash": "9AAD8CABE102EC6C4EB361652BB0A5A9CF288CD2"
              }
            },
            "signature": {
              "type": "tendermint/SignatureEd25519",
              "value": "DtznrPopAE+pszYqhmdd9VeZCieXO55S7tcorn9LUsKE002DwVkl4YOrOO0aVOpaEStLRIV4+YQPhjD38+OJCw=="
            }
          },
          {
            "validator_address": "62410D6D1CD98278136E4D0738AA0EA273CDFC54",
            "validator_index": "45",
            "height": "2354",
            "round": "1",
            "timestamp": "2018-07-30T08:40:29.877130124Z",
            "type": 2,
            "block_id": {
              "hash": "8AAE6A3EA58F037B5D0F113389AE08486EAE56CD",
              "parts": {
                "total": "1",
                "hash": "9AAD8CABE102EC6C4EB361652BB0A5A9CF288CD2"
              }
            },
            "signature": {
              "type": "tendermint/SignatureEd25519",
              "value": "1XVxx0Hk0ejABidDMwKwKrZC6XVkJVLAELbz4X34iwjPjNiXyQKb00d5WzycS+HlDGhlSecUuoZGayLXapBxBA=="
            }
          },
          {
            "validator_address": "632F5C139A5A9DFBFE5111DEE29FCFB6157207DC",
            "validator_index": "46",
            "height": "2354",
            "round": "1",
            "timestamp": "2018-07-30T08:40:29.908474278Z",
            "type": 2,
            "block_id": {
              "hash": "8AAE6A3EA58F037B5D0F113389AE08486EAE56CD",
              "parts": {
                "total": "1",
                "hash": "9AAD8CABE102EC6C4EB361652BB0A5A9CF288CD2"
              }
            },
            "signature": {
              "type": "tendermint/SignatureEd25519",
              "value": "4wv3vDlz2mKovpXjb6Pa6j9s78cxH03YCQMtae5YUS+kIy1L7ARPEpUlVJ5w4y5tsTk30IVXr/JpRNB6WBC8AA=="
            }
          },
          {
            "validator_address": "64F57F8E796A9B7B590C1EFA4123988C86631D39",
            "validator_index": "47",
            "height": "2354",
            "round": "1",
            "timestamp": "2018-07-30T08:40:29.87440099Z",
            "type": 2,
            "block_id": {
              "hash": "8AAE6A3EA58F037B5D0F113389AE08486EAE56CD",
              "parts": {
                "total": "1",
                "hash": "9AAD8CABE102EC6C4EB361652BB0A5A9CF288CD2"
              }
            },
            "signature": {
              "type": "tendermint/SignatureEd25519",
              "value": "kwfZuABWlPUATMP4lwYrFxnKaygrQSqtCQQGNcCrLsJNvP856fmQd3Ym5xWw85FU1lN9WlPkJbeIXR6WIgUPCA=="
            }
          },
          {
            "validator_address": "69D99B2C66043ACBEAA8447525C356AFC6408E0C",
            "validator_index": "48",
            "height": "2354",
            "round": "1",
            "timestamp": "2018-07-30T08:40:30.047231093Z",
            "type": 2,
            "block_id": {
              "hash": "8AAE6A3EA58F037B5D0F113389AE08486EAE56CD",
              "parts": {
                "total": "1",
                "hash": "9AAD8CABE102EC6C4EB361652BB0A5A9CF288CD2"
              }
            },
            "signature": {
              "type": "tendermint/SignatureEd25519",
              "value": "rs8G7oEwq9XLDgMjzF6XBrKFkGKDtFlOrkk7oCMJlTCE88ji54NZHa3z7xQQ/8vPis/Lnrk4NPIebCwrdrd0Dg=="
            }
          },
          {
            "validator_address": "6D3AD380E398D8592B03AA124BAFED5F125DF863",
            "validator_index": "49",
            "height": "2354",
            "round": "1",
            "timestamp": "2018-07-30T08:39:28.502549246Z",
            "type": 2,
            "block_id": {
              "hash": "8AAE6A3EA58F037B5D0F113389AE08486EAE56CD",
              "parts": {
                "total": "1",
                "hash": "9AAD8CABE102EC6C4EB361652BB0A5A9CF288CD2"
              }
            },
            "signature": {
              "type": "tendermint/SignatureEd25519",
              "value": "c8BgrTNmM9LCTUU1ne5ICVNiLJ3NvMd7jf59G55DLaSh+c+E6bmp7iwOKvz6fkyFg+LnfPelmOTLtasirCeWDw=="
            }
          },
          {
            "validator_address": "6F6C93B8BF3495063FEC9B5C771158607F4AE9D6",
            "validator_index": "50",
            "height": "2354",
            "round": "1",
            "timestamp": "2018-07-30T08:40:29.971117804Z",
            "type": 2,
            "block_id": {
              "hash": "8AAE6A3EA58F037B5D0F113389AE08486EAE56CD",
              "parts": {
                "total": "1",
                "hash": "9AAD8CABE102EC6C4EB361652BB0A5A9CF288CD2"
              }
            },
            "signature": {
              "type": "tendermint/SignatureEd25519",
              "value": "qIUN+N7PYuh/LKbFUCV3VKxnvVcWKc1AXBND79mYUxXcoZeWEBqkTG0KqAw50YWIoLRTY+CIrPoJYcmr8rDFDA=="
            }
          },
          {
            "validator_address": "732CEEF54C374DDC6ADECBFD707AEFD07FEDC143",
            "validator_index": "51",
            "height": "2354",
            "round": "1",
            "timestamp": "2018-07-30T08:40:30.080634512Z",
            "type": 2,
            "block_id": {
              "hash": "8AAE6A3EA58F037B5D0F113389AE08486EAE56CD",
              "parts": {
                "total": "1",
                "hash": "9AAD8CABE102EC6C4EB361652BB0A5A9CF288CD2"
              }
            },
            "signature": {
              "type": "tendermint/SignatureEd25519",
              "value": "EKu79JLhPS4qgJ55OgVGF7W27y9YM5RkDoxj9Cb6GkSwijEnaG5hq5uBuxhx/gnWXSwqveq1UGQ9VtI3N1fJAQ=="
            }
          },
          {
            "validator_address": "7393D691BFAE9661918C09932D4D9060AB40939B",
            "validator_index": "52",
            "height": "2354",
            "round": "1",
            "timestamp": "2018-07-30T08:40:29.93213306Z",
            "type": 2,
            "block_id": {
              "hash": "8AAE6A3EA58F037B5D0F113389AE08486EAE56CD",
              "parts": {
                "total": "1",
                "hash": "9AAD8CABE102EC6C4EB361652BB0A5A9CF288CD2"
              }
            },
            "signature": {
              "type": "tendermint/SignatureEd25519",
              "value": "UExGA0Voa/Z6jbBYEC3gZZZulVb5PcSMEYGSnNm+/BnAFDWs8jcf83jTvRXfQrhahEgR2kO1OMZ0wETfCFTLCw=="
            }
          },
          {
            "validator_address": "751E43437224E8BB6D1569B3E2B2616B6E7F4397",
            "validator_index": "53",
            "height": "2354",
            "round": "1",
            "timestamp": "2018-07-30T08:40:29.877479287Z",
            "type": 2,
            "block_id": {
              "hash": "8AAE6A3EA58F037B5D0F113389AE08486EAE56CD",
              "parts": {
                "total": "1",
                "hash": "9AAD8CABE102EC6C4EB361652BB0A5A9CF288CD2"
              }
            },
            "signature": {
              "type": "tendermint/SignatureEd25519",
              "value": "3lQRWVjQaJ3TlmDA1VURbwKgxICKhv3tJgntQgMO8UVkW/4ayxD9qBuCjoKvKUHg1fFWBQ4kvv73dbaBep0gCw=="
            }
          },
          {
            "validator_address": "7EB7593F519F1180C7E872D0494611464EDF03AE",
            "validator_index": "54",
            "height": "2354",
            "round": "1",
            "timestamp": "2018-07-30T08:40:30.007947718Z",
            "type": 2,
            "block_id": {
              "hash": "8AAE6A3EA58F037B5D0F113389AE08486EAE56CD",
              "parts": {
                "total": "1",
                "hash": "9AAD8CABE102EC6C4EB361652BB0A5A9CF288CD2"
              }
            },
            "signature": {
              "type": "tendermint/SignatureEd25519",
              "value": "iv+pA5YxU20s30fWSOM95WVuVzy06mCfuRNiYN/RmXt7B6+Rs82N2ZKS89YPFG//KChVLLi4dw78hLrG+Dv+DA=="
            }
          },
          {
            "validator_address": "807CF675BA8479FC4FEC1047215DF07970040F1F",
            "validator_index": "55",
            "height": "2354",
            "round": "1",
            "timestamp": "2018-07-30T08:40:30.145917332Z",
            "type": 2,
            "block_id": {
              "hash": "8AAE6A3EA58F037B5D0F113389AE08486EAE56CD",
              "parts": {
                "total": "1",
                "hash": "9AAD8CABE102EC6C4EB361652BB0A5A9CF288CD2"
              }
            },
            "signature": {
              "type": "tendermint/SignatureEd25519",
              "value": "hQS2ZRVEmlIoqiC6t3RPMpfoY+EMG7Mfw3qE+JLgMnPUVmoupd/lzirlWy4XH/iEo7S7VnE9plzqMglW8OgSDg=="
            }
          },
          {
            "validator_address": "8126192EA66E8ADE6B36924534721366B987A4C1",
            "validator_index": "56",
            "height": "2354",
            "round": "1",
            "timestamp": "2018-07-30T08:40:29.989470374Z",
            "type": 2,
            "block_id": {
              "hash": "8AAE6A3EA58F037B5D0F113389AE08486EAE56CD",
              "parts": {
                "total": "1",
                "hash": "9AAD8CABE102EC6C4EB361652BB0A5A9CF288CD2"
              }
            },
            "signature": {
              "type": "tendermint/SignatureEd25519",
              "value": "LWS3bPEzzyzSBaaUFIbvW2tyiX2dElRV43S/AnCi0xAjKyuGmfRvdEaFJhHCjY4WBPjOMgzWKkdk9TM1gecHAA=="
            }
          },
          null,
          {
            "validator_address": "83AB321E012C57746689FED3A6064DF331F81007",
            "validator_index": "58",
            "height": "2354",
            "round": "1",
            "timestamp": "2018-07-30T08:40:29.921339896Z",
            "type": 2,
            "block_id": {
              "hash": "8AAE6A3EA58F037B5D0F113389AE08486EAE56CD",
              "parts": {
                "total": "1",
                "hash": "9AAD8CABE102EC6C4EB361652BB0A5A9CF288CD2"
              }
            },
            "signature": {
              "type": "tendermint/SignatureEd25519",
              "value": "TkNuSCz3NhCsl7Fnp70J+l+ANnfj52NofQeyP3/v0LEHzMrpBDnENsXg9QEEnXnMouqbGAxBCpZ1ORLNqBsODQ=="
            }
          },
          {
            "validator_address": "83BB1B88D3DBB20AD845FECA07749EBD87D3754D",
            "validator_index": "59",
            "height": "2354",
            "round": "1",
            "timestamp": "2018-07-30T08:40:30.112586153Z",
            "type": 2,
            "block_id": {
              "hash": "8AAE6A3EA58F037B5D0F113389AE08486EAE56CD",
              "parts": {
                "total": "1",
                "hash": "9AAD8CABE102EC6C4EB361652BB0A5A9CF288CD2"
              }
            },
            "signature": {
              "type": "tendermint/SignatureEd25519",
              "value": "riEOgVDwYljIwteMa12XkMDPjocD7JLej1ar5uVDszSAK6M3jKOb+rtzMr0z7tcTEGqqlOnIk8jNZJEhftGkCQ=="
            }
          },
          null,
          null,
          {
            "validator_address": "8F45617BF45B10A3F8283DEBDB35E38C7CA43237",
            "validator_index": "62",
            "height": "2354",
            "round": "1",
            "timestamp": "2018-07-30T08:40:29.941784802Z",
            "type": 2,
            "block_id": {
              "hash": "8AAE6A3EA58F037B5D0F113389AE08486EAE56CD",
              "parts": {
                "total": "1",
                "hash": "9AAD8CABE102EC6C4EB361652BB0A5A9CF288CD2"
              }
            },
            "signature": {
              "type": "tendermint/SignatureEd25519",
              "value": "uPh6S+Jmr4CA9U+6ldSi46LK9rm7vgp+8C1x7JKoRjizdrJVriWkzBqXisin6aZvltySenMCS3IQeeAfH0xiBA=="
            }
          },
          {
            "validator_address": "90130588383502829D439E2E85C0B5F971ECF39E",
            "validator_index": "63",
            "height": "2354",
            "round": "1",
            "timestamp": "2018-07-30T08:40:30.008951562Z",
            "type": 2,
            "block_id": {
              "hash": "8AAE6A3EA58F037B5D0F113389AE08486EAE56CD",
              "parts": {
                "total": "1",
                "hash": "9AAD8CABE102EC6C4EB361652BB0A5A9CF288CD2"
              }
            },
            "signature": {
              "type": "tendermint/SignatureEd25519",
              "value": "UdTAdixkRhrUXYi9047hAfPLBz+/29bWlDD5xi8OPgEyI6UOZtGNe27HcVs0qUAAWUuGkKfTCrVGSx7sMY10AA=="
            }
          },
          null,
          {
            "validator_address": "95FAFBC1E0579C83D290A063020CE87C5334BD9B",
            "validator_index": "65",
            "height": "2354",
            "round": "1",
            "timestamp": "2018-07-30T08:40:29.899667466Z",
            "type": 2,
            "block_id": {
              "hash": "8AAE6A3EA58F037B5D0F113389AE08486EAE56CD",
              "parts": {
                "total": "1",
                "hash": "9AAD8CABE102EC6C4EB361652BB0A5A9CF288CD2"
              }
            },
            "signature": {
              "type": "tendermint/SignatureEd25519",
              "value": "uPuwgoW3Rmk74aJb8UMpWbXKTLGTt3YSVtTxryQcmqw+8cRTedejD7BH0BrOp/H0Cpj4wtGJrj8sQLrs7cPvCg=="
            }
          },
          {
            "validator_address": "96BDE45EC52606CF5CB59853097871AD60680549",
            "validator_index": "66",
            "height": "2354",
            "round": "1",
            "timestamp": "2018-07-30T08:40:29.883981044Z",
            "type": 2,
            "block_id": {
              "hash": "8AAE6A3EA58F037B5D0F113389AE08486EAE56CD",
              "parts": {
                "total": "1",
                "hash": "9AAD8CABE102EC6C4EB361652BB0A5A9CF288CD2"
              }
            },
            "signature": {
              "type": "tendermint/SignatureEd25519",
              "value": "V9/p/aTkw715XD87kiehYzgQbLHTB0FBbjHf/1VhhmSU15W8e1nSk7B8w3XT9TY+tWebFAEoxzmseTVs/XJDCw=="
            }
          },
          {
            "validator_address": "970CD321881185BF83DB2923C321B0E75FDBB2B8",
            "validator_index": "67",
            "height": "2354",
            "round": "1",
            "timestamp": "2018-07-30T08:40:30.000371339Z",
            "type": 2,
            "block_id": {
              "hash": "8AAE6A3EA58F037B5D0F113389AE08486EAE56CD",
              "parts": {
                "total": "1",
                "hash": "9AAD8CABE102EC6C4EB361652BB0A5A9CF288CD2"
              }
            },
            "signature": {
              "type": "tendermint/SignatureEd25519",
              "value": "Ua5dKY6zSEA3v4+E3p2uJ0oCYn3BiticEsPa9LUwkzXEzOZUHLtxNnTp+WGlZunneuw0RyEcwjZQslLMmYcGAQ=="
            }
          },
          null,
          {
            "validator_address": "9C29C9B76D27586E4D9AD2AED0E943162645E55C",
            "validator_index": "69",
            "height": "2354",
            "round": "1",
            "timestamp": "2018-07-30T08:40:29.844880943Z",
            "type": 2,
            "block_id": {
              "hash": "8AAE6A3EA58F037B5D0F113389AE08486EAE56CD",
              "parts": {
                "total": "1",
                "hash": "9AAD8CABE102EC6C4EB361652BB0A5A9CF288CD2"
              }
            },
            "signature": {
              "type": "tendermint/SignatureEd25519",
              "value": "ErY6oVifvVJnKBcwN8NYnPrm4OjgeJZUJWpj82nbYmVWEHhJM9qrOVK9LOEm1mTTrg1afmY4rtsx7sXftt/NAw=="
            }
          },
          {
            "validator_address": "9D93AD02FE1BD7E76B9E58D7EB461088EAD011E5",
            "validator_index": "70",
            "height": "2354",
            "round": "1",
            "timestamp": "2018-07-30T08:40:29.850682292Z",
            "type": 2,
            "block_id": {
              "hash": "8AAE6A3EA58F037B5D0F113389AE08486EAE56CD",
              "parts": {
                "total": "1",
                "hash": "9AAD8CABE102EC6C4EB361652BB0A5A9CF288CD2"
              }
            },
            "signature": {
              "type": "tendermint/SignatureEd25519",
              "value": "cPmpvIPP8cGa2dDfGJ+QWiiMRkqzOaQTBKic1H2XOf9MXkf2dFfDQ5KXf2yvASL8q5qJvRkCtmbpB4jPt07MCw=="
            }
          },
          null,
          {
            "validator_address": "A0A6466F4ABEA09C3B55E3709AFDE217A103209F",
            "validator_index": "72",
            "height": "2354",
            "round": "1",
            "timestamp": "2018-07-30T08:40:29.852641041Z",
            "type": 2,
            "block_id": {
              "hash": "8AAE6A3EA58F037B5D0F113389AE08486EAE56CD",
              "parts": {
                "total": "1",
                "hash": "9AAD8CABE102EC6C4EB361652BB0A5A9CF288CD2"
              }
            },
            "signature": {
              "type": "tendermint/SignatureEd25519",
              "value": "62KnBNiVJoOARJHy6iWZju2dk6OmeUmpnQsnjOw/D/+v5aDTZ9arZWEw3bBDim8PbrRWDk/t01La2rx++81WCw=="
            }
          },
          {
            "validator_address": "A5868971300F155020634D7BB49C7634F7AACCD3",
            "validator_index": "73",
            "height": "2354",
            "round": "1",
            "timestamp": "2018-07-30T08:40:29.901206668Z",
            "type": 2,
            "block_id": {
              "hash": "8AAE6A3EA58F037B5D0F113389AE08486EAE56CD",
              "parts": {
                "total": "1",
                "hash": "9AAD8CABE102EC6C4EB361652BB0A5A9CF288CD2"
              }
            },
            "signature": {
              "type": "tendermint/SignatureEd25519",
              "value": "022Io8v4hSJkCY293d1/4U/TUKZjznmNpq81vMt2CbJ79BV/WFP2rpQTftZqXAYKeBbV2pbio54ZJTVlo64TCA=="
            }
          },
          {
            "validator_address": "A6B3A5B5D982CFD7B5FDFA15CF5A720E7AE25E7F",
            "validator_index": "74",
            "height": "2354",
            "round": "1",
            "timestamp": "2018-07-30T08:40:29.880838578Z",
            "type": 2,
            "block_id": {
              "hash": "8AAE6A3EA58F037B5D0F113389AE08486EAE56CD",
              "parts": {
                "total": "1",
                "hash": "9AAD8CABE102EC6C4EB361652BB0A5A9CF288CD2"
              }
            },
            "signature": {
              "type": "tendermint/SignatureEd25519",
              "value": "gJ8Kj8Xe1u4ybAwYnzQllpmwXmqAkh9OmVasfaG8IZcwyZuu6xP2pTIUryHrT41bUXlVrjkuXr/GDXhzn56+Dw=="
            }
          },
          {
            "validator_address": "AC96444A9083890B7C7B430DB17BF1D3EA5EED04",
            "validator_index": "75",
            "height": "2354",
            "round": "1",
            "timestamp": "2018-07-30T08:40:29.994366323Z",
            "type": 2,
            "block_id": {
              "hash": "8AAE6A3EA58F037B5D0F113389AE08486EAE56CD",
              "parts": {
                "total": "1",
                "hash": "9AAD8CABE102EC6C4EB361652BB0A5A9CF288CD2"
              }
            },
            "signature": {
              "type": "tendermint/SignatureEd25519",
              "value": "IxtLjbujBAIiD8OZWvHovg73J+Qp4+1SYFyKovye71GcMP3tvBb51lAWWxVsN/aDUQTfvdrutJfvzU3+vqFpBQ=="
            }
          },
          {
            "validator_address": "ACB97FDA2D940AF0709B73537C458EB988AD2893",
            "validator_index": "76",
            "height": "2354",
            "round": "1",
            "timestamp": "2018-07-30T08:40:29.848026085Z",
            "type": 2,
            "block_id": {
              "hash": "8AAE6A3EA58F037B5D0F113389AE08486EAE56CD",
              "parts": {
                "total": "1",
                "hash": "9AAD8CABE102EC6C4EB361652BB0A5A9CF288CD2"
              }
            },
            "signature": {
              "type": "tendermint/SignatureEd25519",
              "value": "4fNYTEPlx0yXF/PJQtGi1mfJqW9lMqCyHV04uJVEyeK7I7rOEFRB+GuKM60QstIo66d+452MznqyNn3hU2gTBg=="
            }
          },
          {
            "validator_address": "B119AEA58588AECA2B86F5A9681629959934698A",
            "validator_index": "77",
            "height": "2354",
            "round": "1",
            "timestamp": "2018-07-30T08:40:29.93143538Z",
            "type": 2,
            "block_id": {
              "hash": "8AAE6A3EA58F037B5D0F113389AE08486EAE56CD",
              "parts": {
                "total": "1",
                "hash": "9AAD8CABE102EC6C4EB361652BB0A5A9CF288CD2"
              }
            },
            "signature": {
              "type": "tendermint/SignatureEd25519",
              "value": "PyQCHnAB/2rUP1nlzDSsNld6zt6SbYU4qXFaeFN+gPhvm2otrGwwZ3wKzg9qVB5aHPDfRZS1iqY3+9qcLRgSCQ=="
            }
          },
          {
            "validator_address": "B197425B3210375F211661DE02EF2AE36580EB0F",
            "validator_index": "78",
            "height": "2354",
            "round": "1",
            "timestamp": "2018-07-30T08:40:29.917869179Z",
            "type": 2,
            "block_id": {
              "hash": "8AAE6A3EA58F037B5D0F113389AE08486EAE56CD",
              "parts": {
                "total": "1",
                "hash": "9AAD8CABE102EC6C4EB361652BB0A5A9CF288CD2"
              }
            },
            "signature": {
              "type": "tendermint/SignatureEd25519",
              "value": "E6oVpOlapNC5j5p2SxLPXXpDQ4+92PG5uganwFp5eSG2j4t2WpqcR08tDixvyNZvmLR8rzKq4E11pyt9lDV1Aw=="
            }
          },
          {
            "validator_address": "B45E54D2D1CB5A4CCD1D49016608C18E7C56B270",
            "validator_index": "79",
            "height": "2354",
            "round": "1",
            "timestamp": "2018-07-30T08:40:30.060216241Z",
            "type": 2,
            "block_id": {
              "hash": "8AAE6A3EA58F037B5D0F113389AE08486EAE56CD",
              "parts": {
                "total": "1",
                "hash": "9AAD8CABE102EC6C4EB361652BB0A5A9CF288CD2"
              }
            },
            "signature": {
              "type": "tendermint/SignatureEd25519",
              "value": "RMRaBaXEzRrXS7Ytz3vPZOqzjnrC/Nxkx3ftWGEWSwRdszhMCRd2kH12GCn5JsOhk93c0ECJ5DxrMpLJxLwHAg=="
            }
          },
          {
            "validator_address": "B59A34C0BE4EC73AF6A67D274F1695C9259C237C",
            "validator_index": "80",
            "height": "2354",
            "round": "1",
            "timestamp": "2018-07-30T08:40:29.944059815Z",
            "type": 2,
            "block_id": {
              "hash": "8AAE6A3EA58F037B5D0F113389AE08486EAE56CD",
              "parts": {
                "total": "1",
                "hash": "9AAD8CABE102EC6C4EB361652BB0A5A9CF288CD2"
              }
            },
            "signature": {
              "type": "tendermint/SignatureEd25519",
              "value": "h0GOFjDVfov3JC0b7hK9+hlhwAGPEHYpZcxoRBeEl1WGajaN5Wts+JWuxiGlFsZuiUMzjZy4Kr+pnnLZ2j4eAg=="
            }
          },
          {
            "validator_address": "BC36FEDD6EF6071118A3E51859DF3831A2EC4782",
            "validator_index": "81",
            "height": "2354",
            "round": "1",
            "timestamp": "2018-07-30T08:40:29.944386283Z",
            "type": 2,
            "block_id": {
              "hash": "8AAE6A3EA58F037B5D0F113389AE08486EAE56CD",
              "parts": {
                "total": "1",
                "hash": "9AAD8CABE102EC6C4EB361652BB0A5A9CF288CD2"
              }
            },
            "signature": {
              "type": "tendermint/SignatureEd25519",
              "value": "qLaTc+azX8jpUPcXNl86gKhBXXaFWNfzY0wWNdaZWi5+ByopwgFO0Nm9lbjlxSHEt5Xl8GgYNMTMAFAa8gXzDQ=="
            }
          },
          null,
          null,
          {
            "validator_address": "C39A8A2B85198DCB8F23AD1F6C198E2BA7AB5D60",
            "validator_index": "84",
            "height": "2354",
            "round": "1",
            "timestamp": "2018-07-30T08:40:29.912529418Z",
            "type": 2,
            "block_id": {
              "hash": "8AAE6A3EA58F037B5D0F113389AE08486EAE56CD",
              "parts": {
                "total": "1",
                "hash": "9AAD8CABE102EC6C4EB361652BB0A5A9CF288CD2"
              }
            },
            "signature": {
              "type": "tendermint/SignatureEd25519",
              "value": "NDp187xFhfXuSjvpy4AAKPrQv1nFdQy078uyyXdpMsLw+jq3dvaFpA90pwG/Enx4SER6lMrg0iP8urLUCd34DQ=="
            }
          },
          {
            "validator_address": "C4335190C3B5BD4BA5568BC0F99C34162D940D08",
            "validator_index": "85",
            "height": "2354",
            "round": "1",
            "timestamp": "2018-07-30T08:40:29.990820825Z",
            "type": 2,
            "block_id": {
              "hash": "8AAE6A3EA58F037B5D0F113389AE08486EAE56CD",
              "parts": {
                "total": "1",
                "hash": "9AAD8CABE102EC6C4EB361652BB0A5A9CF288CD2"
              }
            },
            "signature": {
              "type": "tendermint/SignatureEd25519",
              "value": "ckDBA4gPGU1Mxc/HRw9QFs2j4If8eeJzIuJROPrCXF5nuIF1Q6Lb9GZipJnTEm/FfvIlqbEGub282+kby1RdCw=="
            }
          },
          null,
          null,
          {
            "validator_address": "D2134B826A1E25A955905CB79A4D8731CAFA0CCE",
            "validator_index": "88",
            "height": "2354",
            "round": "1",
            "timestamp": "2018-07-30T08:40:30.019068436Z",
            "type": 2,
            "block_id": {
              "hash": "8AAE6A3EA58F037B5D0F113389AE08486EAE56CD",
              "parts": {
                "total": "1",
                "hash": "9AAD8CABE102EC6C4EB361652BB0A5A9CF288CD2"
              }
            },
            "signature": {
              "type": "tendermint/SignatureEd25519",
              "value": "pM8jRaBWG7hMLxmmT+TK7xXIGIBcqwQfQveOvZEuwRjS/eCRcFvqlGPJYzj9aAOf3lKgTOIf9T05P/LVhom6CA=="
            }
          },
          null,
          {
            "validator_address": "D6285C3422C8886445D53757CBE12D2B91B5A9D0",
            "validator_index": "90",
            "height": "2354",
            "round": "1",
            "timestamp": "2018-07-30T08:40:12.095290172Z",
            "type": 2,
            "block_id": {
              "hash": "8AAE6A3EA58F037B5D0F113389AE08486EAE56CD",
              "parts": {
                "total": "1",
                "hash": "9AAD8CABE102EC6C4EB361652BB0A5A9CF288CD2"
              }
            },
            "signature": {
              "type": "tendermint/SignatureEd25519",
              "value": "Biwd9HZ6JXMpL9ira1uV0xaQ6+pLVzYIJRlBBHz05OE8x+VW5XFR+OuA5G+PCA88KFqcf2yULqVVMV2UndhpBg=="
            }
          },
          null,
          null,
          {
            "validator_address": "DB7E6732471D3EA5C90C17A9974D9F88AB45F2FB",
            "validator_index": "93",
            "height": "2354",
            "round": "1",
            "timestamp": "2018-07-30T08:40:29.940330697Z",
            "type": 2,
            "block_id": {
              "hash": "8AAE6A3EA58F037B5D0F113389AE08486EAE56CD",
              "parts": {
                "total": "1",
                "hash": "9AAD8CABE102EC6C4EB361652BB0A5A9CF288CD2"
              }
            },
            "signature": {
              "type": "tendermint/SignatureEd25519",
              "value": "TBEkvNk6xzjhZJ98oNrVv4W8dwhbor548AEkycnPM/LqX9cyL1mD1HuKioM9EooWg8+NzNVfOnyoGhX3qisFCw=="
            }
          },
          {
            "validator_address": "DF54B862410BCD9B5C516FBB6C56BDC826ED6FA7",
            "validator_index": "94",
            "height": "2354",
            "round": "1",
            "timestamp": "2018-07-30T08:40:30.164302116Z",
            "type": 2,
            "block_id": {
              "hash": "8AAE6A3EA58F037B5D0F113389AE08486EAE56CD",
              "parts": {
                "total": "1",
                "hash": "9AAD8CABE102EC6C4EB361652BB0A5A9CF288CD2"
              }
            },
            "signature": {
              "type": "tendermint/SignatureEd25519",
              "value": "IVOF4E78aTfBCi6wIKY3r2OsVjR3l3R6qvtpWSqo2r3SMkJB7teo7Zx/vYrfENnY9Ewc5/igV4USow0MmuG9CA=="
            }
          },
          {
            "validator_address": "DFAF0C8B1B78D6D552B0189DE3ACA351439A1319",
            "validator_index": "95",
            "height": "2354",
            "round": "1",
            "timestamp": "2018-07-30T08:40:29.84301387Z",
            "type": 2,
            "block_id": {
              "hash": "8AAE6A3EA58F037B5D0F113389AE08486EAE56CD",
              "parts": {
                "total": "1",
                "hash": "9AAD8CABE102EC6C4EB361652BB0A5A9CF288CD2"
              }
            },
            "signature": {
              "type": "tendermint/SignatureEd25519",
              "value": "2BjaDfbT0Kyyd13pG/5Snw4oXfwUvnt5uu1j3DhFjMq8w0au0deCTiEg6Z0OrVxOynSK8Ki6gub8A5Jl3ah1Aw=="
            }
          },
          {
            "validator_address": "E1DBC77881161A5A3A8536A57536EAE546A75D69",
            "validator_index": "96",
            "height": "2354",
            "round": "1",
            "timestamp": "2018-07-30T08:40:29.872575493Z",
            "type": 2,
            "block_id": {
              "hash": "8AAE6A3EA58F037B5D0F113389AE08486EAE56CD",
              "parts": {
                "total": "1",
                "hash": "9AAD8CABE102EC6C4EB361652BB0A5A9CF288CD2"
              }
            },
            "signature": {
              "type": "tendermint/SignatureEd25519",
              "value": "qOtLNy5IRDpUFlXVsA1OxHUnY9BxwEd8JdMXpUgtrTXt01HXOHqtULo00J81h5zmG1yk9n/YAujghDdN4uekBg=="
            }
          },
          {
            "validator_address": "E300E9D484374C1D3E97C1D93CAC3B160A056298",
            "validator_index": "97",
            "height": "2354",
            "round": "1",
            "timestamp": "2018-07-30T08:40:30.084532402Z",
            "type": 2,
            "block_id": {
              "hash": "8AAE6A3EA58F037B5D0F113389AE08486EAE56CD",
              "parts": {
                "total": "1",
                "hash": "9AAD8CABE102EC6C4EB361652BB0A5A9CF288CD2"
              }
            },
            "signature": {
              "type": "tendermint/SignatureEd25519",
              "value": "0ulTdZthU0nPNCZQJNjq73mf2saPuwLeYr7tsGuy5RCurL5jTIZOMkykr31I3lv6GjhJAjEA9nG1Xphr3zglAQ=="
            }
          },
          {
            "validator_address": "E39B5778E0D4297A46F45CF6940B0A163A430FF8",
            "validator_index": "98",
            "height": "2354",
            "round": "1",
            "timestamp": "2018-07-30T08:40:29.913453121Z",
            "type": 2,
            "block_id": {
              "hash": "8AAE6A3EA58F037B5D0F113389AE08486EAE56CD",
              "parts": {
                "total": "1",
                "hash": "9AAD8CABE102EC6C4EB361652BB0A5A9CF288CD2"
              }
            },
            "signature": {
              "type": "tendermint/SignatureEd25519",
              "value": "lPaLzjuNApVUin6/it48u43pHNJ87xOknrglqva9pZSX0q24B5E1zSFbP52NFFTAFGAIUTTW4T2EZCUnUIsnBQ=="
            }
          },
          null,
          {
            "validator_address": "E42F8AEABB685219F7027F54D2B0DBC7846F633A",
            "validator_index": "100",
            "height": "2354",
            "round": "1",
            "timestamp": "2018-07-30T08:40:29.378519014Z",
            "type": 2,
            "block_id": {
              "hash": "8AAE6A3EA58F037B5D0F113389AE08486EAE56CD",
              "parts": {
                "total": "1",
                "hash": "9AAD8CABE102EC6C4EB361652BB0A5A9CF288CD2"
              }
            },
            "signature": {
              "type": "tendermint/SignatureEd25519",
              "value": "N1l4ObKEH5w0r6rJ6NkoL5/g59+VAuL9uDTrnOSzAzYYlpavzAz5wDu5rNBMdN3B13BG/OphvlJnUAk/e6qOAQ=="
            }
          },
          {
            "validator_address": "E4E6C2E81269DFFA196C17F98240E491479A6008",
            "validator_index": "101",
            "height": "2354",
            "round": "1",
            "timestamp": "2018-07-30T08:40:29.996203941Z",
            "type": 2,
            "block_id": {
              "hash": "8AAE6A3EA58F037B5D0F113389AE08486EAE56CD",
              "parts": {
                "total": "1",
                "hash": "9AAD8CABE102EC6C4EB361652BB0A5A9CF288CD2"
              }
            },
            "signature": {
              "type": "tendermint/SignatureEd25519",
              "value": "jOzL2Uy9LCaz514WXyirlJ1DDEeNV50PCMzfpi67cvZEbJqpsg35sFQTk3dyH9lj82sQ/Db3xIX/Us6G16T6DA=="
            }
          },
          null,
          {
            "validator_address": "E6A7079D584B163750BE0831227F6B685DEAF3C1",
            "validator_index": "103",
            "height": "2354",
            "round": "1",
            "timestamp": "2018-07-30T08:40:29.984400194Z",
            "type": 2,
            "block_id": {
              "hash": "8AAE6A3EA58F037B5D0F113389AE08486EAE56CD",
              "parts": {
                "total": "1",
                "hash": "9AAD8CABE102EC6C4EB361652BB0A5A9CF288CD2"
              }
            },
            "signature": {
              "type": "tendermint/SignatureEd25519",
              "value": "9Cs1N9aGQMGoeNvgK0kzBuL1FwXU6XqsRQlZ5KPXdKk6Bzz4ZKocLPr8gUj8/2IIYrRFQ3dyBioDGMtx1K4cAQ=="
            }
          },
          {
            "validator_address": "E7A30077D5D11867D3EAF99ED45BFDC1EB834509",
            "validator_index": "104",
            "height": "2354",
            "round": "1",
            "timestamp": "2018-07-30T08:40:29.990530953Z",
            "type": 2,
            "block_id": {
              "hash": "8AAE6A3EA58F037B5D0F113389AE08486EAE56CD",
              "parts": {
                "total": "1",
                "hash": "9AAD8CABE102EC6C4EB361652BB0A5A9CF288CD2"
              }
            },
            "signature": {
              "type": "tendermint/SignatureEd25519",
              "value": "g7qFoVv7tWSf1bowlI2d5Fjdu4pzkEUdK/wr+jsNs/U/ek5+abMdkfL0ZYNfuLDOIiEytufN2Ek9Cz8V6YJ7Dg=="
            }
          },
          {
            "validator_address": "EBC613967F66F4EC306852CDF58B4F151CF16738",
            "validator_index": "105",
            "height": "2354",
            "round": "1",
            "timestamp": "2018-07-30T08:40:30.074864469Z",
            "type": 2,
            "block_id": {
              "hash": "8AAE6A3EA58F037B5D0F113389AE08486EAE56CD",
              "parts": {
                "total": "1",
                "hash": "9AAD8CABE102EC6C4EB361652BB0A5A9CF288CD2"
              }
            },
            "signature": {
              "type": "tendermint/SignatureEd25519",
              "value": "qi+x/k4K6CDzYAn0H7FIXyGsZQm8oV7l5OndlMwMqEzGG4cLjR4f6Dx3PsSDFPMr87OP932KabohR1mneSBXAw=="
            }
          },
          null,
          {
            "validator_address": "EC95B111D032181E1EC3B5E8875C5BB8E4AE7140",
            "validator_index": "107",
            "height": "2354",
            "round": "1",
            "timestamp": "2018-07-30T08:40:29.865250776Z",
            "type": 2,
            "block_id": {
              "hash": "8AAE6A3EA58F037B5D0F113389AE08486EAE56CD",
              "parts": {
                "total": "1",
                "hash": "9AAD8CABE102EC6C4EB361652BB0A5A9CF288CD2"
              }
            },
            "signature": {
              "type": "tendermint/SignatureEd25519",
              "value": "WLe3w3TtS2yx9kF+iD53sKrrMw1rxxGY0ohPrrPApKT5T9K/MfRH+zZhY1gL8Oq3+RK3nF08ooXj8UDBI3UGDA=="
            }
          },
          {
            "validator_address": "F13C1805E8131C9B47E2A46818F57D8A2841E578",
            "validator_index": "108",
            "height": "2354",
            "round": "1",
            "timestamp": "2018-07-30T08:40:30.012596223Z",
            "type": 2,
            "block_id": {
              "hash": "8AAE6A3EA58F037B5D0F113389AE08486EAE56CD",
              "parts": {
                "total": "1",
                "hash": "9AAD8CABE102EC6C4EB361652BB0A5A9CF288CD2"
              }
            },
            "signature": {
              "type": "tendermint/SignatureEd25519",
              "value": "5oN+ZuQkjwoVb1ABrkheoHVJsV0Qm/T5gSIyxDGI72XUq8QrrUAMxI0fkSCmIhzy2wrYDAzGjWEvw6EKCxbbBg=="
            }
          },
          {
            "validator_address": "F23FF36BD5B90C33CE3A03ED72DBDCF5EC07D6AF",
            "validator_index": "109",
            "height": "2354",
            "round": "1",
            "timestamp": "2018-07-30T08:40:29.987180866Z",
            "type": 2,
            "block_id": {
              "hash": "8AAE6A3EA58F037B5D0F113389AE08486EAE56CD",
              "parts": {
                "total": "1",
                "hash": "9AAD8CABE102EC6C4EB361652BB0A5A9CF288CD2"
              }
            },
            "signature": {
              "type": "tendermint/SignatureEd25519",
              "value": "VZkd5cnUoYMC5aE8NQkWL2T+QoQeJXm3k92/aWWyK9u/fq+6kenBJBGlaphqL857VXMsEV4Qqhq1M+B/6cgEDw=="
            }
          },
          {
            "validator_address": "F4268597DE93E3E2CED38845010F8AA34E2A879E",
            "validator_index": "110",
            "height": "2354",
            "round": "1",
            "timestamp": "2018-07-30T08:40:30.03944694Z",
            "type": 2,
            "block_id": {
              "hash": "8AAE6A3EA58F037B5D0F113389AE08486EAE56CD",
              "parts": {
                "total": "1",
                "hash": "9AAD8CABE102EC6C4EB361652BB0A5A9CF288CD2"
              }
            },
            "signature": {
              "type": "tendermint/SignatureEd25519",
              "value": "mBrnS+clNEDUO8Wv42nK8nbLqqRb7U4OCMjBjYf7RPv8qIzWj4e+/da8fhHepccb/tmEuBKfWHvXa9fcSsC4DQ=="
            }
          },
          {
            "validator_address": "F4DEB417999B04BE2EFF9FFE03FA373D86011CC0",
            "validator_index": "111",
            "height": "2354",
            "round": "1",
            "timestamp": "2018-07-30T08:40:29.918040113Z",
            "type": 2,
            "block_id": {
              "hash": "8AAE6A3EA58F037B5D0F113389AE08486EAE56CD",
              "parts": {
                "total": "1",
                "hash": "9AAD8CABE102EC6C4EB361652BB0A5A9CF288CD2"
              }
            },
            "signature": {
              "type": "tendermint/SignatureEd25519",
              "value": "Z83ymwilSrVYfDtY/Tg5nJ1aYz+NZfuIB/ccx2u20fbqKZk83/IapqnO9sXBTuknxXEN73HBhVxv1Ggc+PShAg=="
            }
          },
          null,
          {
            "validator_address": "FB6AC8B89A1C585F26410FF259952A432A7A3FDB",
            "validator_index": "113",
            "height": "2354",
            "round": "1",
            "timestamp": "2018-07-30T08:40:29.910046954Z",
            "type": 2,
            "block_id": {
              "hash": "8AAE6A3EA58F037B5D0F113389AE08486EAE56CD",
              "parts": {
                "total": "1",
                "hash": "9AAD8CABE102EC6C4EB361652BB0A5A9CF288CD2"
              }
            },
            "signature": {
              "type": "tendermint/SignatureEd25519",
              "value": "bke7wIUDN6GyKawqhyiEPy1PSkaD0+dTGDIW6ODP4+qyZWmlEUr/Ml6VrrgVhUGozWGfzcfQl6od9GsY1oWyBg=="
            }
          },
          null,
          {
            "validator_address": "FF3F3FCBCE7E62D7AD5506FF846EC4518D980515",
            "validator_index": "115",
            "height": "2354",
            "round": "1",
            "timestamp": "2018-07-30T08:40:29.880655171Z",
            "type": 2,
            "block_id": {
              "hash": "8AAE6A3EA58F037B5D0F113389AE08486EAE56CD",
              "parts": {
                "total": "1",
                "hash": "9AAD8CABE102EC6C4EB361652BB0A5A9CF288CD2"
              }
            },
            "signature": {
              "type": "tendermint/SignatureEd25519",
              "value": "Bvyn4ktiUb4blMH9uXiA1eWbXD/fy/Zy41V6YAkxVNy1rGPd9JzkVZJ6HO+9krjoEbydpeHCc0VYejUsFsEjAQ=="
            }
          }
        ]
      }
    },
    "canonical": true
  }
}