{
  "jsonrpc": "2.0",
  "id": "",
  "result": {
    "SignedHeader": {
      "header": {
        "chain_id": "gaia-7004",
        "height": "23560",
        "time": "2018-07-31T20:51:17.15533822Z",
        "num_txs": "0",
        "last_block_id": {
          "hash": "3D5FFEA775F90B148E90B2573C036B4507DD7483",
          "parts": {
            "total": "1",
            "hash": "78E8276778097A61E762B47F318E02E2A9F3833C"
          }
        },
        "total_txs": "705",
        "last_commit_hash": "B4033CBA01C463B3BC45532406B449C459CC4A1D",
        "data_hash": "",
        "validators_hash": "BAC635A3500BEEE9DBB7F25A034B3C5DA6751E38",
        "consensus_hash": "D6B74BB35BDFFD8392340F2A379173548AE188FE",
        "app_hash": "284E7A60F1E5C2BEFE0153255C81C0DE2FBF703A",
        "last_results_hash": "",
        "evidence_hash": ""
      },
      "commit": {
        "block_id": {
          "hash": "C2B1198D1F242C662EF49051A665E128B0FD9EBE",
          "parts": {
            "total": "1",
            "hash": "FD542402A108B1B2DFF819BA97B98E8CB7EF6229"
          }
        },
        "precommits": [
          {
            "validator_address": "029359C0C768096273A68ABC902A6B17AC8D1D70",
            "validator_index": "0",
            "height": "23560",
            "round": "0",
            "timestamp": "2018-07-31T20:51:17.97735607Z",
            "type": 2,
            "block_id": {
              "hash": "C2B1198D1F242C662EF49051A665E128B0FD9EBE",
              "parts": {
                "total": "1",
                "hash": "FD542402A108B1B2DFF819BA97B98E8CB7EF6229"
              }
            },
            "signature": {
              "type": "tendermint/SignatureEd25519",
              "value": "qq2zpmYU6OTAX0YGLUkHf0MGB+sb/68br0s6rUZBjqv4c3culvIRBSwHaMsO1/Bk7JsVS/KOgyrxSrgle+dXAg=="
            }
          },
          {
            "validator_address": "02FE4B97A8387F39D1AC19E0C1702B3CC614812F",
            "validator_index": "1",
            "height": "23560",
            "round": "0",
            "timestamp": "2018-07-31T20:51:18.000166825Z",
            "type": 2,
            "block_id": {
              "hash": "C2B1198D1F242C662EF49051A665E128B0FD9EBE",
              "parts": {
                "total": "1",
                "hash": "FD542402A108B1B2DFF819BA97B98E8CB7EF6229"
              }
            },
            "signature": {
              "type": "tendermint/SignatureEd25519",
              "value": "7STThyOLF4dyyA++hWW9aSaZ0l9ec20HMKFRCQgjJcV7zPlbnzQu/5ieStrLPzhJ5JgNHjzXQN/ZGEqtRKQtCA=="
            }
          },
          {
            "validator_address": "0548261C50222FD710EB5EBDF03A0E6567B21D20",
            "validator_index": "2",
            "height": "23560",
            "round": "0",
            "timestamp": "2018-07-31T20:51:18.063526067Z",
            "type": 2,
            "block_id": {
              "hash": "C2B1198D1F242C662EF49051A665E128B0FD9EBE",
              "parts": {
                "total": "1",
                "hash": "FD542402A108B1B2DFF819BA97B98E8CB7EF6229"
              }
            },
            "signature": {
              "type": "tendermint/SignatureEd25519",
              "value": "+E+ivjdwoEtXsoPS0372l2eUBp9Ynejekr69nkAPgx69ninTPc0yV7/u92FgYoC2MwErJohSs19V4qDb8tfuBg=="
            }
          },
          {
            "validator_address": "09145E611CC27EEB944FC5A956DDF710F943B9EF",
            "validator_index": "3",
            "height": "23560",
            "round": "0",
            "timestamp": "2018-07-31T20:51:17.967332606Z",
            "type": 2,
            "block_id": {
              "hash": "C2B1198D1F242C662EF49051A665E128B0FD9EBE",
              "parts": {
                "total": "1",
                "hash": "FD542402A108B1B2DFF819BA97B98E8CB7EF6229"
              }
            },
            "signature": {
              "type": "tendermint/SignatureEd25519",
              "value": "BbPakMceCBdslS/RyrLO0IW+IhBjrkvA+DFp26EPm2qGZESTpTtmhU3OYozxc4V4r0wEN1jfJZ9N9H9D2k8CCg=="
            }
          },
          {
            "validator_address": "0989D0355A104B67AE0AE028C68FB610690E174B",
            "validator_index": "4",
            "height": "23560",
            "round": "0",
            "timestamp": "2018-07-31T20:51:17.967764651Z",
            "type": 2,
            "block_id": {
              "hash": "C2B1198D1F242C662EF49051A665E128B0FD9EBE",
              "parts": {
                "total": "1",
                "hash": "FD542402A108B1B2DFF819BA97B98E8CB7EF6229"
              }
            },
            "signature": {
              "type": "tendermint/SignatureEd25519",
              "value": "QmeXqGZruB0zONfxBTVSRmbxtJh2RakmxAyVbtZoSD1u3zDnbckXk/gdDjinkzwFLkXBD6GZ9l3Lx+WwaC6HCw=="
            }
          },
          {
            "validator_address": "0A692DBFFE9E5DD28E7DECC33CED1AEB4C0D014E",
            "validator_index": "5",
            "height": "23560",
            "round": "0",
            "timestamp": "2018-07-31T20:51:18.019298191Z",
            "type": 2,
            "block_id": {
              "hash": "C2B1198D1F242C662EF49051A665E128B0FD9EBE",
              "parts": {
                "total": "1",
                "hash": "FD542402A108B1B2DFF819BA97B98E8CB7EF6229"
              }
            },
            "signature": {
              "type": "tendermint/SignatureEd25519",
              "value": "tN2ir1uoOfUkTcsH2D+djc4JkSq1xoui3x3OTYlBcE/a+mJOYwaN2ieOanviYG1rtNhtLkcEn1+c0iiewOJyAw=="
            }
          },
          {
            "validator_address": "0DDF97111D73DB825138EC15EC27DE5FE8536901",
            "validator_index": "6",
            "height": "23560",
            "round": "0",
            "timestamp": "2018-07-31T20:51:18.007332918Z",
            "type": 2,
            "block_id": {
              "hash": "C2B1198D1F242C662EF49051A665E128B0FD9EBE",
              "parts": {
                "total": "1",
                "hash": "FD542402A108B1B2DFF819BA97B98E8CB7EF6229"
              }
            },
            "signature": {
              "type": "tendermint/SignatureEd25519",
              "value": "zuDl1BjTjxJZ+fE5vC+O4DTxF6OOusIr3P3bBnBYutYZXyOmdgxmtBktu76wFnuLMjxGNuvRZ1kVhfRjoAdEBA=="
            }
          },
          {
            "validator_address": "1751786EFC085D5331C61168FFFC8202EA151B4E",
            "validator_index": "7",
            "height": "23560",
            "round": "0",
            "timestamp": "2018-07-31T20:51:17.584268207Z",
            "type": 2,
            "block_id": {
              "hash": "C2B1198D1F242C662EF49051A665E128B0FD9EBE",
              "parts": {
                "total": "1",
                "hash": "FD542402A108B1B2DFF819BA97B98E8CB7EF6229"
              }
            },
            "signature": {
              "type": "tendermint/SignatureEd25519",
              "value": "r9mamKeCrbjKA7suA5UzLrTdCh4nF6GBB5UuUoxmfcyhe15S8HIpjJG9Y+/jaEGzpZuRKfWk7hmBuj0gZGBODg=="
            }
          },
          {
            "validator_address": "17BB5CD01E8940FAFB948A04D5FA5A0645E5822E",
            "validator_index": "8",
            "height": "23560",
            "round": "0",
            "timestamp": "2018-07-31T20:51:18.026831975Z",
            "type": 2,
            "block_id": {
              "hash": "C2B1198D1F242C662EF49051A665E128B0FD9EBE",
              "parts": {
                "total": "1",
                "hash": "FD542402A108B1B2DFF819BA97B98E8CB7EF6229"
              }
            },
            "signature": {
              "type": "tendermint/SignatureEd25519",
              "value": "D4dQHgLzz1p0opc+TkXMtaF4K8MZlGU+edh+2SxD+RNzA14gBOvovdwa7WPDYFJn+dBXZsTcjI5dLC0O91vqCw=="
            }
          },
          {
            "validator_address": "1C683A87904BC38F05004FE83301A3A3E35447EB",
            "validator_index": "9",
            "height": "23560",
            "round": "0",
            "timestamp": "2018-07-31T20:51:17.960210766Z",
            "type": 2,
            "block_id": {
              "hash": "C2B1198D1F242C662EF49051A665E128B0FD9EBE",
              "parts": {
                "total": "1",
                "hash": "FD542402A108B1B2DFF819BA97B98E8CB7EF6229"
              }
            },
            "signature": {
              "type": "tendermint/SignatureEd25519",
              "value": "vbABBZb+KEqUByAdieYn8+huAuFxYHEB9TWquaxckZqBlwvWY6DAQUPs56ActjlWNfQteEDoJDO5Ec3ATB9ICg=="
            }
          },
          {
            "validator_address": "1E9CE94FD0BA5CFEB901F90BC658D64D85B134D2",
            "validator_index": "10",
            "height": "23560",
            "round": "0",
            "timestamp": "2018-07-31T20:51:17.994255881Z",
            "type": 2,
            "block_id": {
              "hash": "C2B1198D1F242C662EF49051A665E128B0FD9EBE",
              "parts": {
                "total": "1",
                "hash": "FD542402A108B1B2DFF819BA97B98E8CB7EF6229"
              }
            },
            "signature": {
              "type": "tendermint/SignatureEd25519",
              "value": "WH7V1JiV7ri2VSKLskcUYOoKJtG6ihQc+xthgzrgAX/f94ltbKuWimOKaLk8TNk2j4UAbGZDMz8NxvsJfBbJBQ=="
            }
          },
          {
            "validator_address": "1ECD8C5FE1341D74CDC633A245DD56858DE2F9A2",
            "validator_index": "11",
            "height": "23560",
            "round": "0",
            "timestamp": "2018-07-31T20:51:18.111663758Z",
            "type": 2,
            "block_id": {
              "hash": "C2B1198D1F242C662EF49051A665E128B0FD9EBE",
              "parts": {
                "total": "1",
                "hash": "FD542402A108B1B2DFF819BA97B98E8CB7EF6229"
              }
            },
            "signature": {
              "type": "tendermint/SignatureEd25519",
              "value": "rjYSvuhi5A94mMa3kvUJkqaG5n3x+58M+XbzPmTJ5TKtK4P32ZtVScPSKjqpFf7iPCwAKO0Jl1v7bHrOCDU2DA=="
            }
          },
          {
            "validator_address": "1F3A68CAAD483768AA2BF667DEF10F7104C89928",
            "validator_index": "12",
            "height": "23560",
            "round": "0",
            "timestamp": "2018-07-31T20:51:18.020038674Z",
            "type": 2,
            "block_id": {
              "hash": "C2B1198D1F242C662EF49051A665E128B0FD9EBE",
              "parts": {
                "total": "1",
                "hash": "FD542402A108B1B2DFF819BA97B98E8CB7EF6229"
              }
            },
            "signature": {
              "type": "tendermint/SignatureEd25519",
              "value": "xTBV4ILcku8DcQib9pucvE1dsIj1ubR59Px2zgpTV/ykaTyWdzteE220bNsRbemTB/MBzQVi/cncZJMs+lfCDw=="
            }
          },
          {
            "validator_address": "23897586D68E2AC1C78E0EF5BB5DF5C8EAB18F50",
            "validator_index": "13",
            "height": "23560",
            "round": "0",
            "timestamp": "2018-07-31T20:51:18.034510915Z",
            "type": 2,
            "block_id": {
              "hash": "C2B1198D1F242C662EF49051A665E128B0FD9EBE",
              "parts": {
                "total": "1",
                "hash": "FD542402A108B1B2DFF819BA97B98E8CB7EF6229"
              }
            },
            "signature": {
              "type": "tendermint/SignatureEd25519",
              "value": "NIK85WU0RP7oHrCjNXMZPbpwC8KzO5nWe3hEtgrTtDtOzvikCDOvygzPPLoVHok6E87d+4uEY9QhLIhX634MDA=="
            }
          },
          {
            "validator_address": "28770D17E8530825E7310A0659308654B7EC9682",
            "validator_index": "14",
            "height": "23560",
            "round": "0",
            "timestamp": "2018-07-31T20:51:17.962618639Z",
            "type": 2,
            "block_id": {
              "hash": "C2B1198D1F242C662EF49051A665E128B0FD9EBE",
              "parts": {
                "total": "1",
                "hash": "FD542402A108B1B2DFF819BA97B98E8CB7EF6229"
              }
            },
            "signature": {
              "type": "tendermint/SignatureEd25519",
              "value": "FAvWLOpIiv6KxEMmSJe2co1CwwlG9FbThpaqVdZ3n4cv2OXDJgMZSdwEMoY2eoc37LjGyZ1HkRuKTt6RN5jNDw=="
            }
          },
          {
            "validator_address": "2A92EC3C642140202298D0E245095E0ECFC25228",
            "validator_index": "15",
            "height": "23560",
            "round": "0",
            "timestamp": "2018-07-31T20:51:18.029578972Z",
            "type": 2,
            "block_id": {
              "hash": "C2B1198D1F242C662EF49051A665E128B0FD9EBE",
              "parts": {
                "total": "1",
                "hash": "FD542402A108B1B2DFF819BA97B98E8CB7EF6229"
              }
            },
            "signature": {
              "type": "tendermint/SignatureEd25519",
              "value": "F5ubYT0xheVtbmp25D8sujibfOLQ4LOnPXea9TKctluBXB8SDb+HfjJSP7olwqWuyBSgpdNya6NWLnJOfRFeCw=="
            }
          },
          {
            "validator_address": "33412C9A69C60CB0FAA24A5C5B3A906DE24B47C2",
            "validator_index": "16",
            "height": "23560",
            "round": "0",
            "timestamp": "2018-07-31T20:51:17.96092753Z",
            "type": 2,
            "block_id": {
              "hash": "C2B1198D1F242C662EF49051A665E128B0FD9EBE",
              "parts": {
                "total": "1",
                "hash": "FD542402A108B1B2DFF819BA97B98E8CB7EF6229"
              }
            },
            "signature": {
              "type": "tendermint/SignatureEd25519",
              "value": "arCTwOVNbCq7+jZJSCiSg0+yMaOkjzb5DvQLI3bRIM0KodX0uMp72gQIjXv1cF2IAjMQFgE5Eup2I5/L+djbAA=="
            }
          },
          {
            "validator_address": "3383EF2A13B160C41947AC30434B274B2FAF0617",
            "validator_index": "17",
            "height": "23560",
            "round": "0",
            "timestamp": "2018-07-31T20:51:17.964801512Z",
            "type": 2,
            "block_id": {
              "hash": "C2B1198D1F242C662EF49051A665E128B0FD9EBE",
              "parts": {
                "total": "1",
                "hash": "FD542402A108B1B2DFF819BA97B98E8CB7EF6229"
              }
            },
            "signature": {
              "type": "tendermint/SignatureEd25519",
              "value": "B5pLsY1asAvWQZwX8f7tYxPj8s31UQEi8LKm8RyW1YZ2XT/2Z7M1sCcsnB3wSCBubUGrNdk0TIi9IAdrlVUOCw=="
            }
          },
          {
            "validator_address": "36E9B7FAEC964F97D84C028ED62493E373AD0B38",
            "validator_index": "18",
            "height": "23560",
            "round": "0",
            "timestamp": "2018-07-31T20:51:18.113907588Z",
            "type": 2,
            "block_id": {
              "hash": "C2B1198D1F242C662EF49051A665E128B0FD9EBE",
              "parts": {
                "total": "1",
                "hash": "FD542402A108B1B2DFF819BA97B98E8CB7EF6229"
              }
            },
            "signature": {
              "type": "tendermint/SignatureEd25519",
              "value": "HOA0wAwFb93Rr0UehwLqLcCTDlYXRrJVD8T563ln6bEjQd/t7eLZWwBxdtf1gpBWftsHgFvix+Q/FM9pB2jGCA=="
            }
          },
          {
            "validator_address": "38A8D85D36BEA2E5FCF8A1E778F53628E450EF13",
            "validator_index": "19",
            "height": "23560",
            "round": "0",
            "timestamp": "2018-07-31T20:51:18.121516405Z",
            "type": 2,
            "block_id": {
              "hash": "C2B1198D1F242C662EF49051A665E128B0FD9EBE",
              "parts": {
                "total": "1",
                "hash": "FD542402A108B1B2DFF819BA97B98E8CB7EF6229"
              }
            },
            "signature": {
              "type": "tendermint/SignatureEd25519",
              "value": "KThEVOl+ZU/pWk+eW3TkLEhBEkryjr06+0fxugc9dzpyMQQd4YRtHqIBpNzcrYB+5NOlof2aORnFeUErnZhrCA=="
            }
          },
          {
            "validator_address": "39DFDA0C5DB84B269642188B23253508537798E6",
            "validator_index": "20",
            "height": "23560",
            "round": "0",
            "timestamp": "2018-07-31T20:51:17.963740858Z",
            "type": 2,
            "block_id": {
              "hash": "C2B1198D1F242C662EF49051A665E128B0FD9EBE",
              "parts": {
                "total": "1",
                "hash": "FD542402A108B1B2DFF819BA97B98E8CB7EF6229"
              }
            },
            "signature": {
              "type": "tendermint/SignatureEd25519",
              "value": "JpBMsW0hzvZQMkzOR9zycYnJugN1rRKZFDpOYJM+sEkWSx0dbzypFz4tPH/ZgcymEgBhp2fpFECrIWeL5H9GBA=="
            }
          },
          {
            "validator_address": "3AC99B708404452366E0953A4BE849226DC86CBC",
            "validator_index": "21",
            "height": "23560",
            "round": "0",
            "timestamp": "2018-07-31T20:51:18.041551416Z",
            "type": 2,
            "block_id": {
              "hash": "C2B1198D1F242C662EF49051A665E128B0FD9EBE",
              "parts": {
                "total": "1",
                "hash": "FD542402A108B1B2DFF819BA97B98E8CB7EF6229"
              }
            },
            "signature": {
              "type": "tendermint/SignatureEd25519",
              "value": "F0dE4ehjdQbY0qa3/lGLC2gadIYyUVqghxSZeXSeNBwFVtSgakyt9/WCiuyJN2eGouQ41HRJsLAQzqiDFzS8AQ=="
            }
          },
          {
            "validator_address": "3DCB822A10ED319EC7C4393D8E3FD4A41B15AAF2",
            "validator_index": "22",
            "height": "23560",
            "round": "0",
            "timestamp": "2018-07-31T20:51:17.96778735Z",
            "type": 2,
            "block_id": {
              "hash": "C2B1198D1F242C662EF49051A665E128B0FD9EBE",
              "parts": {
                "total": "1",
                "hash": "FD542402A108B1B2DFF819BA97B98E8CB7EF6229"
              }
            },
            "signature": {
              "type": "tendermint/SignatureEd25519",
              "value": "OOmq+ylN48E2g1GTehAmDb+4xtaqRUeLu/UYHee6+KdkFEAbylUNNyPP9yjfYBjegC8T8a3n7m683stEe06NCw=="
            }
          },
          {
            "validator_address": "3E899BA36A93C7370347BD5FE85909F2ECD93F8C",
            "validator_index": "23",
            "height": "23560",
            "round": "0",
            "timestamp": "2018-07-31T20:51:18.002690886Z",
            "type": 2,
            "block_id": {
              "hash": "C2B1198D1F242C662EF49051A665E128B0FD9EBE",
              "parts": {
                "total": "1",
                "hash": "FD542402A108B1B2DFF819BA97B98E8CB7EF6229"
              }
            },
            "signature": {
              "type": "tendermint/SignatureEd25519",
              "value": "hQgJdnCFNOWOwncW1evn0CVrqYdM3uS3pBYJPne5XTeqaPDB9m5uta2uwzEpvTgupDnejhJ86cvMtICjJp39BQ=="
            }
          },
          {
            "validator_address": "41CAB2E29E7D0F2282E3275938F188FF9386B84C",
            "validator_index": "24",
            "height": "23560",
            "round": "0",
            "timestamp": "2018-07-31T20:51:18.078112504Z",
            "type": 2,
            "block_id": {
              "hash": "C2B1198D1F242C662EF49051A665E128B0FD9EBE",
              "parts": {
                "total": "1",
                "hash": "FD542402A108B1B2DFF819BA97B98E8CB7EF6229"
              }
            },
            "signature": {
              "type": "tendermint/SignatureEd25519",
              "value": "bJs8bAraq6WKYIK5UyFLgPHEULjhQ32CPpM7e2rAecA6CfwVYJigK5xjuFUOR3wbXsLcw97fm0hS0H//IDbbBQ=="
            }
          },
          {
            "validator_address": "462B656869DB02A8FD1077E255F8CC7401DC37C6",
            "validator_index": "25",
            "height": "23560",
            "round": "0",
            "timestamp": "2018-07-31T20:51:17.975292146Z",
            "type": 2,
            "block_id": {
              "hash": "C2B1198D1F242C662EF49051A665E128B0FD9EBE",
              "parts": {
                "total": "1",
                "hash": "FD542402A108B1B2DFF819BA97B98E8CB7EF6229"
              }
            },
            "signature": {
              "type": "tendermint/SignatureEd25519",
              "value": "UTK8XaI6Fa/JERuUBEXzIByS5wbyRyNdqtZc15uHntde3nYR4q93AhFxLZs+ihGmte+Q20kovNc4j8wVvZz0Ag=="
            }
          },
          {
            "validator_address": "48E5118163E5442068A1B5A42D2EEDBB75724935",
            "validator_index": "26",
            "height": "23560",
            "round": "0",
            "timestamp": "2018-07-31T20:51:18.095909413Z",
            "type": 2,
            "block_id": {
              "hash": "C2B1198D1F242C662EF49051A665E128B0FD9EBE",
              "parts": {
                "total": "1",
                "hash": "FD542402A108B1B2DFF819BA97B98E8CB7EF6229"
              }
            },
            "signature": {
              "type": "tendermint/SignatureEd25519",
              "value": "na6Q5dqeIju7kLPdGnuKmwLp7l4OZ6yR/tIll3pLFCwak9fCDejlQ/+KUVhQvTSYEVK16cyzw3seaMMG3ht/Cg=="
            }
          },
          {
            "validator_address": "49103C58AFD9C7C069F55EBA218F3DFD9AEA74F9",
            "validator_index": "27",
            "height": "23560",
            "round": "0",
            "timestamp": "2018-07-31T20:51:18.033394023Z",
            "type": 2,
            "block_id": {
              "hash": "C2B1198D1F242C662EF49051A665E128B0FD9EBE",
              "parts": {
                "total": "1",
                "hash": "FD542402A108B1B2DFF819BA97B98E8CB7EF6229"
              }
            },
            "signature": {
              "type": "tendermint/SignatureEd25519",
              "value": "KxyzKCy2D+1dUVkZ/w+UsOXLa8tWJeUt5GQWKpSBHf4ucTsdvOgb3mJMjOAe0m7DgIPPLJa6KyigXAN6imimCg=="
            }
          },
          {
            "validator_address": "4944F8BBBB5303E17BC0607DF332320EDBC750EA",
            "validator_index": "28",
            "height": "23560",
            "round": "0",
            "timestamp": "2018-07-31T20:51:18.021746649Z",
            "type": 2,
            "block_id": {
              "hash": "C2B1198D1F242C662EF49051A665E128B0FD9EBE",
              "parts": {
                "total": "1",
                "hash": "FD542402A108B1B2DFF819BA97B98E8CB7EF6229"
              }
            },
            "signature": {
              "type": "tendermint/SignatureEd25519",
              "value": "EptXMTG4klywNvkzi9tZuYNzZZUVTS3S6tMReeDKBVJmsqT1R3ukpudz77gxTLshAGgY0PK9QSccUkzbh9fBBg=="
            }
          },
          {
            "validator_address": "49841599DE675157CBE1E7D6B35BF8FFC23BD5CB",
            "validator_index": "29",
            "height": "23560",
            "round": "0",
            "timestamp": "2018-07-31T20:51:17.94166258Z",
            "type": 2,
            "block_id": {
              "hash": "C2B1198D1F242C662EF49051A665E128B0FD9EBE",
              "parts": {
                "total": "1",
                "hash": "FD542402A108B1B2DFF819BA97B98E8CB7EF6229"
              }
            },
            "signature": {
              "type": "tendermint/SignatureEd25519",
              "value": "ZUPlq7FObUeWyjL2s5baU62yq8NDl7v5NCuW73TkWrDJeCPeIbW/gQGPzHlUeRtJwNHNTNtsDh+ywcAbrKCfCQ=="
            }
          },
          {
            "validator_address": "51386C2CF9556821D114D7E4945806802BADB28D",
            "validator_index": "30",
            "height": "23560",
            "round": "0",
            "timestamp": "2018-07-31T20:51:17.96554829Z",
            "type": 2,
            "block_id": {
              "hash": "C2B1198D1F242C662EF49051A665E128B0FD9EBE",
              "parts": {
                "total": "1",
                "hash": "FD542402A108B1B2DFF819BA97B98E8CB7EF6229"
              }
            },
            "signature": {
              "type": "tendermint/SignatureEd25519",
              "value": "2+IHbwycFhprdVhVafduJnDTS3ZldOD7ryc+RsVX8Swf+HhDWgVi7MS6N1GwVCOS6lPbuiExThjFbLZFE9uwDA=="
            }
          },
          {
            "validator_address": "543564ECA3AFEFADC73EE8591AAC3A96F079BC8A",
            "validator_index": "31",
            "height": "23560",
            "round": "0",
            "timestamp": "2018-07-31T20:51:17.969113393Z",
            "type": 2,
            "block_id": {
              "hash": "C2B1198D1F242C662EF49051A665E128B0FD9EBE",
              "parts": {
                "total": "1",
                "hash": "FD542402A108B1B2DFF819BA97B98E8CB7EF6229"
              }
            },
            "signature": {
              "type": "tendermint/SignatureEd25519",
              "value": "9BVwln1giQmxOqqvdiBScM7n5HsPDN62tHsfESX7Qr+0tXqfEPaKJIbFPRQiGw9+lQiC95rep4lnEEh3lousCw=="
            }
          },
          {
            "validator_address": "55D67B1A6DC13E96F8754A5A42EABC20F7F86664",
            "validator_index": "32",
            "height": "23560",
            "round": "0",
            "timestamp": "2018-07-31T20:51:17.959858905Z",
            "type": 2,
            "block_id": {
              "hash": "C2B1198D1F242C662EF49051A665E128B0FD9EBE",
              "parts": {
                "total": "1",
                "hash": "FD542402A108B1B2DFF819BA97B98E8CB7EF6229"
              }
            },
            "signature": {
              "type": "tendermint/SignatureEd25519",
              "value": "vmT1/pKp/YODkMfx/bmYNp4D7/MBFPuy/OnkiIOALT82HyW94N7lLAoUK9m/sagYlFZX88kLoMv/cLJrc3XGBw=="
            }
          },
          {
            "validator_address": "570B6A755ED339EAC56BB3390A48069F6AC9449B",
            "validator_index": "33",
            "height": "23560",
            "round": "0",
            "timestamp": "2018-07-31T20:51:22.419185219Z",
            "type": 2,
            "block_id": {
              "hash": "C2B1198D1F242C662EF49051A665E128B0FD9EBE",
              "parts": {
                "total": "1",
                "hash": "FD542402A108B1B2DFF819BA97B98E8CB7EF6229"
              }
            },
            "signature": {
              "type": "tendermint/SignatureEd25519",
              "value": "5qwhTQpS6M7B9xHsPJwleSRG93olvLMvECxb14iW8uENC/jQG+kJlUfqPKt/b7E5h/Dc1lckxqCVq1idEe7vDw=="
            }
          },
          {
            "validator_address": "5BDF8EA41B1835FBAD865B181A2A4B23F511B5E4",
            "validator_index": "34",
            "height": "23560",
            "round": "0",
            "timestamp": "2018-07-31T20:51:17.952050808Z",
            "type": 2,
            "block_id": {
              "hash": "C2B1198D1F242C662EF49051A665E128B0FD9EBE",
              "parts": {
                "total": "1",
                "hash": "FD542402A108B1B2DFF819BA97B98E8CB7EF6229"
              }
            },
            "signature": {
              "type": "tendermint/SignatureEd25519",
              "value": "wm3IddIFXZjuHvsAdGNSUK9gBCz2kW57sVylmbw/abKzXxduOL23QlFOlVsYhGsakU0fbr7gMlIZ78KpZaLGCg=="
            }
          },
          {
            "validator_address": "60229E2E273297FE00219E46DFFB8F76844CDEF9",
            "validator_index": "35",
            "height": "23560",
            "round": "0",
            "timestamp": "2018-07-31T20:51:16.51880557Z",
            "type": 2,
            "block_id": {
              "hash": "C2B1198D1F242C662EF49051A665E128B0FD9EBE",
              "parts": {
                "total": "1",
                "hash": "FD542402A108B1B2DFF819BA97B98E8CB7EF6229"
              }
            },
            "signature": {
              "type": "tendermint/SignatureEd25519",
              "value": "FGmTBLeSQXYmo7bzPSIliADW/tkEbqwVXpSf7Ab+R9zBAUFWLGjJrQlwBHkkg9Gj6X2gOiOSUwYD0d3jlkfMDA=="
            }
          },
          {
            "validator_address": "62410D6D1CD98278136E4D0738AA0EA273CDFC54",
            "validator_index": "36",
            "height": "23560",
            "round": "0",
            "timestamp": "2018-07-31T20:51:17.974114021Z",
            "type": 2,
            "block_id": {
              "hash": "C2B1198D1F242C662EF49051A665E128B0FD9EBE",
              "parts": {
                "total": "1",
                "hash": "FD542402A108B1B2DFF819BA97B98E8CB7EF6229"
              }
            },
            "signature": {
              "type": "tendermint/SignatureEd25519",
              "value": "6n47OiLEd21d2LsyzNo5YNOBx5GQKR3fgu+FmOCstwhpizhsBAKlHD1mPXK5rzF2CvBum5TtPNxTnDpzTHZ3Aw=="
            }
          },
          {
            "validator_address": "632F5C139A5A9DFBFE5111DEE29FCFB6157207DC",
            "validator_index": "37",
            "height": "23560",
            "round": "0",
            "timestamp": "2018-07-31T20:51:17.988498335Z",
            "type": 2,
            "block_id": {
              "hash": "C2B1198D1F242C662EF49051A665E128B0FD9EBE",
              "parts": {
                "total": "1",
                "hash": "FD542402A108B1B2DFF819BA97B98E8CB7EF6229"
              }
            },
            "signature": {
              "type": "tendermint/SignatureEd25519",
              "value": "NlGXcso8juR4q/yz5QUcobWescrHtayunP/1hDmUwEfI90MDy1lnVwzJC9OuTzzvxRV1N+wkb3OlE3afBSTMAw=="
            }
          },
          {
            "validator_address": "64F57F8E796A9B7B590C1EFA4123988C86631D39",
            "validator_index": "38",
            "height": "23560",
            "round": "0",
            "timestamp": "2018-07-31T20:51:17.945972105Z",
            "type": 2,
            "block_id": {
              "hash": "C2B1198D1F242C662EF49051A665E128B0FD9EBE",
              "parts": {
                "total": "1",
                "hash": "FD542402A108B1B2DFF819BA97B98E8CB7EF6229"
              }
            },
            "signature": {
              "type": "tendermint/SignatureEd25519",
              "value": "jWyVkFCzdQYlePfcx/XD4TvcrBE4nJDNOD+WT0yaA1eUvKJnXstpm8zo4VAWDpzpsFN0EM0NoKMfN9lL6YVoAA=="
            }
          },
          {
            "validator_address": "69D99B2C66043ACBEAA8447525C356AFC6408E0C",
            "validator_index": "39",
            "height": "23560",
            "round": "0",
            "timestamp": "2018-07-31T20:51:18.021325209Z",
            "type": 2,
            "block_id": {
              "hash": "C2B1198D1F242C662EF49051A665E128B0FD9EBE",
              "parts": {
                "total": "1",
                "hash": "FD542402A108B1B2DFF819BA97B98E8CB7EF6229"
              }
            },
            "signature": {
              "type": "tendermint/SignatureEd25519",
              "value": "cO4ksPHH7qK8+67SGqpGdttqz0DCT4J2lIBeylhkWuCdmPbE/0m8+lXVz3119XXG1Spfa67OpUgMfVCyoTFYCg=="
            }
          },
          {
            "validator_address": "69EDADFA4A803E9DBF548C900D4A465E7D154262",
            "validator_index": "40",
            "height": "23560",
            "round": "0",
            "timestamp": "2018-07-31T20:51:18.011980645Z",
            "type": 2,
            "block_id": {
              "hash": "C2B1198D1F242C662EF49051A665E128B0FD9EBE",
              "parts": {
                "total": "1",
                "hash": "FD542402A108B1B2DFF819BA97B98E8CB7EF6229"
              }
            },
            "signature": {
              "type": "tendermint/SignatureEd25519",
              "value": "ikpcJkWGGquqXVhBfEvowpf+GHSIpACP2qFN/UUZ8jvtqo+H0UzKO7HVDOfY8lYWFJ/FM+c8RWuPBrA91h6LCA=="
            }
          },
          {
            "validator_address": "6D3AD380E398D8592B03AA124BAFED5F125DF863",
            "validator_index": "41",
            "height": "23560",
            "round": "0",
            "timestamp": "2018-07-31T20:50:15.93993297Z",
            "type": 2,
            "block_id": {
              "hash": "C2B1198D1F242C662EF49051A665E128B0FD9EBE",
              "parts": {
                "total": "1",
                "hash": "FD542402A108B1B2DFF819BA97B98E8CB7EF6229"
              }
            },
            "signature": {
              "type": "tendermint/SignatureEd25519",
              "value": "ug2lsa+6OsNwhGXK4iBfjcrxZNbPsh2orS4NmWuwbkDEY+HRY7X85GbMeSANb7B7prPiWYTipPXGex0vrUyFCA=="
            }
          },
          {
            "validator_address": "6F6C93B8BF3495063FEC9B5C771158607F4AE9D6",
            "validator_index": "42",
            "height": "23560",
            "round": "0",
            "timestamp": "2018-07-31T20:51:18.020102656Z",
            "type": 2,
            "block_id": {
              "hash": "C2B1198D1F242C662EF49051A665E128B0FD9EBE",
              "parts": {
                "total": "1",
                "hash": "FD542402A108B1B2DFF819BA97B98E8CB7EF6229"
              }
            },
            "signature": {
              "type": "tendermint/SignatureEd25519",
              "value": "V1kTEIzD9LoI5JdPJ/stcb1U52yAseo5I+IfnWxSLct0NfSqiavIFVgkuNPt2tuwdrlJUJoHMn/pLA7ZqhAACA=="
            }
          },
          {
            "validator_address": "732CEEF54C374DDC6ADECBFD707AEFD07FEDC143",
            "validator_index": "43",
            "height": "23560",
            "round": "0",
            "timestamp": "2018-07-31T20:51:18.030931934Z",
            "type": 2,
            "block_id": {
              "hash": "C2B1198D1F242C662EF49051A665E128B0FD9EBE",
              "parts": {
                "total": "1",
                "hash": "FD542402A108B1B2DFF819BA97B98E8CB7EF6229"
              }
            },
            "signature": {
              "type": "tendermint/SignatureEd25519",
              "value": "MEqBYc/D69akS1M8RHh8KK7zJQew68Bh50ioYjN4BnvtFg7Uktok6hzb4Md/4hhBnlNSZrsWv7tvhwze9wnqBQ=="
            }
          },
          {
            "validator_address": "7393D691BFAE9661918C09932D4D9060AB40939B",
            "validator_index": "44",
            "height": "23560",
            "round": "0",
            "timestamp": "2018-07-31T20:51:18.177371304Z",
            "type": 2,
            "block_id": {
              "hash": "C2B1198D1F242C662EF49051A665E128B0FD9EBE",
              "parts": {
                "total": "1",
                "hash": "FD542402A108B1B2DFF819BA97B98E8CB7EF6229"
              }
            },
            "signature": {
              "type": "tendermint/SignatureEd25519",
              "value": "9iW/VYo5vak7nkGaC1tXI4bNN0LIvoZrK5cl+sEjBk8PitCTiJBygKbobfdXHrR6ZPjwmnyMaqi7La+tpS9MDQ=="
            }
          },
          {
            "validator_address": "751E43437224E8BB6D1569B3E2B2616B6E7F4397",
            "validator_index": "45",
            "height": "23560",
            "round": "0",
            "timestamp": "2018-07-31T20:51:17.983316533Z",
            "type": 2,
            "block_id": {
              "hash": "C2B1198D1F242C662EF49051A665E128B0FD9EBE",
              "parts": {
                "total": "1",
                "hash": "FD542402A108B1B2DFF819BA97B98E8CB7EF6229"
              }
            },
            "signature": {
              "type": "tendermint/SignatureEd25519",
              "value": "hez0EoJ1YjJ/ZhfBhUfrgU9T8ppeLdHpljYEQZ8hFd5SojwuPzE10ROcr00PRZCa0xbWfECVtDrhAcd73kUbAQ=="
            }
          },
          {
            "validator_address": "7EB7593F519F1180C7E872D0494611464EDF03AE",
            "validator_index": "46",
            "height": "23560",
            "round": "0",
            "timestamp": "2018-07-31T20:51:18.00035099Z",
            "type": 2,
            "block_id": {
              "hash": "C2B1198D1F242C662EF49051A665E128B0FD9EBE",
              "parts": {
                "total": "1",
                "hash": "FD542402A108B1B2DFF819BA97B98E8CB7EF6229"
              }
            },
            "signature": {
              "type": "tendermint/SignatureEd25519",
              "value": "wgh3/2z+wdLJGE+bSpEXp43IOaPbpCVYDl8OT56HOjrYf5D6YMfGqp5GJY2mMWKv1nEvPnH3ebzudXqNqrBbAg=="
            }
          },
          {
            "validator_address": "807CF675BA8479FC4FEC1047215DF07970040F1F",
            "validator_index": "47",
            "height": "23560",
            "round": "0",
            "timestamp": "2018-07-31T20:51:18.227622133Z",
            "type": 2,
            "block_id": {
              "hash": "C2B1198D1F242C662EF49051A665E128B0FD9EBE",
              "parts": {
                "total": "1",
                "hash": "FD542402A108B1B2DFF819BA97B98E8CB7EF6229"
              }
            },
            "signature": {
              "type": "tendermint/SignatureEd25519",
              "value": "xkdPEO/IFhEOWjqbdkko+se9pHDqKdeFhMb7SEWJpwUJlzuL7D3Zfk06c5xTYMyu5QbHJskpE67jAerwRtmsDQ=="
            }
          },
          {
            "validator_address": "83AB321E012C57746689FED3A6064DF331F81007",
            "validator_index": "48",
            "height": "23560",
            "round": "0",
            "timestamp": "2018-07-31T20:51:18.005043385Z",
            "type": 2,
            "block_id": {
              "hash": "C2B1198D1F242C662EF49051A665E128B0FD9EBE",
              "parts": {
                "total": "1",
                "hash": "FD542402A108B1B2DFF819BA97B98E8CB7EF6229"
              }
            },
            "signature": {
              "type": "tendermint/SignatureEd25519",
              "value": "qLAgSwZzC2PUGVi9d5ueDWzC0eyiJYR7Envv3RZT1JTAbIjNncLcYhFOfoaO+tQa8750ZlEGWCrjSm9nBY7/Cw=="
            }
          },
          {
            "validator_address": "83BB1B88D3DBB20AD845FECA07749EBD87D3754D",
            "validator_index": "49",
            "height": "23560",
            "round": "0",
            "timestamp": "2018-07-31T20:51:18.15104361Z",
            "type": 2,
            "block_id": {
              "hash": "C2B1198D1F242C662EF49051A665E128B0FD9EBE",
              "parts": {
                "total": "1",
                "hash": "FD542402A108B1B2DFF819BA97B98E8CB7EF6229"
              }
            },
            "signature": {
              "type": "tendermint/SignatureEd25519",
              "value": "Vu5CNNi2pZ8LFGv7exCnUC3mzECfOpW7LBeKpTWyuuU6dEsnhh9sHEI5fpCx1Dp9wqqfbVLGKfrPvDBjk+wbCA=="
            }
          },
          {
            "validator_address": "8F06FE1FD042683C426137FBC4BBAA4288924217",
            "validator_index": "50",
            "height": "23560",
            "round": "0",
            "timestamp": "2018-07-31T20:51:18.042420566Z",
            "type": 2,
            "block_id": {
              "hash": "C2B1198D1F242C662EF49051A665E128B0FD9EBE",
              "parts": {
                "total": "1",
                "hash": "FD542402A108B1B2DFF819BA97B98E8CB7EF6229"
              }
            },
            "signature": {
              "type": "tendermint/SignatureEd25519",
              "value": "886koMpqdIg/dSS1kf9jVULmEKMx5vqLloqI+DmVkIPPr9s3GW7ZDAXpDMhWoJfngG37FEUrul4laUA/mWQ3CQ=="
            }
          },
          {
            "validator_address": "8F45617BF45B10A3F8283DEBDB35E38C7CA43237",
            "validator_index": "51",
            "height": "23560",
            "round": "0",
            "timestamp": "2018-07-31T20:51:17.961877768Z",
            "type": 2,
            "block_id": {
              "hash": "C2B1198D1F242C662EF49051A665E128B0FD9EBE",
              "parts": {
                "total": "1",
                "hash": "FD542402A108B1B2DFF819BA97B98E8CB7EF6229"
              }
            },
            "signature": {
              "type": "tendermint/SignatureEd25519",
              "value": "Fk9GdS/s05SILPIngSxyvq9gGANNYXwEg1mrJc+nuLB6QahbYntvK5PwzPBotXwmM56LE4CmLHR72f1YtleMDg=="
            }
          },
          {
            "validator_address": "95980831E186F2540F6E9FB6C8E74DE2401405AC",
            "validator_index": "52",
            "height": "23560",
            "round": "0",
            "timestamp": "2018-07-31T20:51:17.989709385Z",
            "type": 2,
            "block_id": {
              "hash": "C2B1198D1F242C662EF49051A665E128B0FD9EBE",
              "parts": {
                "total": "1",
                "hash": "FD542402A108B1B2DFF819BA97B98E8CB7EF6229"
              }
            },
            "signature": {
              "type": "tendermint/SignatureEd25519",
              "value": "fYgOCCq/LRFJNZM2DTU7QuMxQ4tFLn8VnZL3Y1mQWgPegFkQNs5ke0R5H8eVID3xh5COpgWXgtWZ7g2djdobAQ=="
            }
          },
          {
            "validator_address": "95FAFBC1E0579C83D290A063020CE87C5334BD9B",
            "validator_index": "53",
            "height": "23560",
            "round": "0",
            "timestamp": "2018-07-31T20:51:17.951896381Z",
            "type": 2,
            "block_id": {
              "hash": "C2B1198D1F242C662EF49051A665E128B0FD9EBE",
              "parts": {
                "total": "1",
                "hash": "FD542402A108B1B2DFF819BA97B98E8CB7EF6229"
              }
            },
            "signature": {
              "type": "tendermint/SignatureEd25519",
              "value": "UmXVZPrTUrTZCvSNuv/ptVCqMuxBg8gmJhV5Q/MCFKGQ+XI7QYfjlVjZf8rPSsKxrEz1m650yVRVkQ/z61GwBg=="
            }
          },
          {
            "validator_address": "96BDE45EC52606CF5CB59853097871AD60680549",
            "validator_index": "54",
            "height": "23560",
            "round": "0",
            "timestamp": "2018-07-31T20:51:18.033544376Z",
            "type": 2,
            "block_id": {
              "hash": "C2B1198D1F242C662EF49051A665E128B0FD9EBE",
              "parts": {
                "total": "1",
                "hash": "FD542402A108B1B2DFF819BA97B98E8CB7EF6229"
              }
            },
            "signature": {
              "type": "tendermint/SignatureEd25519",
              "value": "GMlNGN/0nwk+vxbgdGRZXVTJaXd9KbXvGc7gV9HkNw9nZOXBS8vjQCXbmzqsU3Tc7TSxL4AhjmDewPRLtUTBBw=="
            }
          },
          {
            "validator_address": "970CD321881185BF83DB2923C321B0E75FDBB2B8",
            "validator_index": "55",
            "height": "23560",
            "round": "0",
            "timestamp": "2018-07-31T20:51:18.050733134Z",
            "type": 2,
            "block_id": {
              "hash": "C2B1198D1F242C662EF49051A665E128B0FD9EBE",
              "parts": {
                "total": "1",
                "hash": "FD542402A108B1B2DFF819BA97B98E8CB7EF6229"
              }
            },
            "signature": {
              "type": "tendermint/SignatureEd25519",
              "value": "IRZ2MSSB0xNegctXzTbbNi9+5UGUkk6dvitb665vKzjN20B1D3NLwusbNpwlRaxBbqHzwOHsmG6UvyJFt2EXCg=="
            }
          },
          {
            "validator_address": "97DBB3D4B3D6C29287244864448F651DD5B07390",
            "validator_index": "56",
            "height": "23560",
            "round": "0",
            "timestamp": "2018-07-31T20:51:18.153553875Z",
            "type": 2,
            "block_id": {
              "hash": "C2B1198D1F242C662EF49051A665E128B0FD9EBE",
              "parts": {
                "total": "1",
                "hash": "FD542402A108B1B2DFF819BA97B98E8CB7EF6229"
              }
            },
            "signature": {
              "type": "tendermint/SignatureEd25519",
              "value": "yJjo+bRwqMwFYXmGm3+V/uLZ2rly9OK+5CfhwyPqG5g37EpL/oeqF2a1NFz6n8aZOoCgIEjWBSeVhUuhMp1JCA=="
            }
          },
          {
            "validator_address": "9C29C9B76D27586E4D9AD2AED0E943162645E55C",
            "validator_index": "57",
            "height": "23560",
            "round": "0",
            "timestamp": "2018-07-31T20:51:17.946636745Z",
            "type": 2,
            "block_id": {
              "hash": "C2B1198D1F242C662EF49051A665E128B0FD9EBE",
              "parts": {
                "total": "1",
                "hash": "FD542402A108B1B2DFF819BA97B98E8CB7EF6229"
              }
            },
            "signature": {
              "type": "tendermint/SignatureEd25519",
              "value": "KzPyNs/ldBYfQRigEpUijDK6eN+XaEfHY3LAl4uHr+Ky0uol8KnOX5Z9cUDfeHbamDGrr35dVrZB15KQH+QkAg=="
            }
          },
          {
            "validator_address": "9D93AD02FE1BD7E76B9E58D7EB461088EAD011E5",
            "validator_index": "58",
            "height": "23560",
            "round": "0",
            "timestamp": "2018-07-31T20:51:17.918389647Z",
            "type": 2,
            "block_id": {
              "hash": "C2B1198D1F242C662EF49051A665E128B0FD9EBE",
              "parts": {
                "total": "1",
                "hash": "FD542402A108B1B2DFF819BA97B98E8CB7EF6229"
              }
            },
            "signature": {
              "type": "tendermint/SignatureEd25519",
              "value": "O+ipgN3ZwE4r6GZOlgRnPgKgZNjV+3wu/2IArCIlaREND03Zamkcg9YAgbi+YDJqv8CLHSgpxbioMrcAe1rTCw=="
            }
          },
          {
            "validator_address": "A0A6466F4ABEA09C3B55E3709AFDE217A103209F",
            "validator_index": "59",
            "height": "23560",
            "round": "0",
            "timestamp": "2018-07-31T20:51:17.941702475Z",
            "type": 2,
            "block_id": {
              "hash": "C2B1198D1F242C662EF49051A665E128B0FD9EBE",
              "parts": {
                "total": "1",
                "hash": "FD542402A108B1B2DFF819BA97B98E8CB7EF6229"
              }
            },
            "signature": {
              "type": "tendermint/SignatureEd25519",
              "value": "nssy1x0iezPXspBJygwMg24zsB4Zz/dWyp4/Wz95Ln6iocDI5ODmuySozKvsdMnRkulKHY08ogLt460Ky3KwBA=="
            }
          },
          {
            "validator_address": "A5868971300F155020634D7BB49C7634F7AACCD3",
            "validator_index": "60",
            "height": "23560",
            "round": "0",
            "timestamp": "2018-07-31T20:51:17.986349486Z",
            "type": 2,
            "block_id": {
              "hash": "C2B1198D1F242C662EF49051A665E128B0FD9EBE",
              "parts": {
                "total": "1",
                "hash": "FD542402A108B1B2DFF819BA97B98E8CB7EF6229"
              }
            },
            "signature": {
              "type": "tendermint/SignatureEd25519",
              "value": "aiTFlkOMQDGHQD9dUHTfLceyQlluaGM5jsYKezqb7Ko2KgwbjP4Eg88kxaTXaFgXY/bxZA7t3boU8t9I6WlRBQ=="
            }
          },
          {
            "validator_address": "A6B3A5B5D982CFD7B5FDFA15CF5A720E7AE25E7F",
            "validator_index": "61",
            "height": "23560",
            "round": "0",
            "timestamp": "2018-07-31T20:51:18.011636042Z",
            "type": 2,
            "block_id": {
              "hash": "C2B1198D1F242C662EF49051A665E128B0FD9EBE",
              "parts": {
                "total": "1",
                "hash": "FD542402A108B1B2DFF819BA97B98E8CB7EF6229"
              }
            },
            "signature": {
              "type": "tendermint/SignatureEd25519",
              "value": "0tWpp1Ia7+BwWqTFjXMhNZBXeWCngQKR5mcqKdIJF4nVUObcC5MBJpGUzxNSNycoAnS2SjuXuVGTwQ5nmkOADw=="
            }
          },
          {
            "validator_address": "AC96444A9083890B7C7B430DB17BF1D3EA5EED04",
            "validator_index": "62",
            "height": "23560",
            "round": "0",
            "timestamp": "2018-07-31T20:51:17.953024299Z",
            "type": 2,
            "block_id": {
              "hash": "C2B1198D1F242C662EF49051A665E128B0FD9EBE",
              "parts": {
                "total": "1",
                "hash": "FD542402A108B1B2DFF819BA97B98E8CB7EF6229"
              }
            },
            "signature": {
              "type": "tendermint/SignatureEd25519",
              "value": "++FSyM4t6pfQ7OSKZoM7GIlQ9ZN9ZwVxIXlMd3Opu8tc0dckUuX48uU/viqIrafvAI7/+kOwHcfMgMf07Ym9DA=="
            }
          },
          {
            "validator_address": "ACB97FDA2D940AF0709B73537C458EB988AD2893",
            "validator_index": "63",
            "height": "23560",
            "round": "0",
            "timestamp": "2018-07-31T20:51:18.050778186Z",
            "type": 2,
            "block_id": {
              "hash": "C2B1198D1F242C662EF49051A665E128B0FD9EBE",
              "parts": {
                "total": "1",
                "hash": "FD542402A108B1B2DFF819BA97B98E8CB7EF6229"
              }
            },
            "signature": {
              "type": "tendermint/SignatureEd25519",
              "value": "bEPKVfKAOPo7IOTBFtI0dfB+HF3wzpL6ngYbDT9lmDcG2gbrNgvvch7jPjVGdYyH/Y0aBcruoWsfe5xVXPeQAQ=="
            }
          },
          {
            "validator_address": "B197425B3210375F211661DE02EF2AE36580EB0F",
            "validator_index": "64",
            "height": "23560",
            "round": "0",
            "timestamp": "2018-07-31T20:51:18.076391571Z",
            "type": 2,
            "block_id": {
              "hash": "C2B1198D1F242C662EF49051A665E128B0FD9EBE",
              "parts": {
                "total": "1",
                "hash": "FD542402A108B1B2DFF819BA97B98E8CB7EF6229"
              }
            },
            "signature": {
              "type": "tendermint/SignatureEd25519",
              "value": "zvEdxLW94Gm4PrKuXL3umKoffpAooTqTu23aO7oVjB3WtU8kLjhjEopnVdx3DlvlxZGCw+UolgjtpI7D9QM6AA=="
            }
          },
          {
            "validator_address": "B45E54D2D1CB5A4CCD1D49016608C18E7C56B270",
            "validator_index": "65",
            "height": "23560",
            "round": "0",
            "timestamp": "2018-07-31T20:51:18.099312569Z",
            "type": 2,
            "block_id": {
              "hash": "C2B1198D1F242C662EF49051A665E128B0FD9EBE",
              "parts": {
                "total": "1",
                "hash": "FD542402A108B1B2DFF819BA97B98E8CB7EF6229"
              }
            },
            "signature": {
              "type": "tendermint/SignatureEd25519",
              "value": "eROvwsgSlxiZb0bsBAFwoRzNXfwdCf4WgLngGHbaNR7mzmsEUxdPWioWgWsVcYw3uwLTKYCdSeL+atzzlEe8Cg=="
            }
          },
          {
            "validator_address": "B59A34C0BE4EC73AF6A67D274F1695C9259C237C",
            "validator_index": "66",
            "height": "23560",
            "round": "0",
            "timestamp": "2018-07-31T20:51:18.12675393Z",
            "type": 2,
            "block_id": {
              "hash": "C2B1198D1F242C662EF49051A665E128B0FD9EBE",
              "parts": {
                "total": "1",
                "hash": "FD542402A108B1B2DFF819BA97B98E8CB7EF6229"
              }
            },
            "signature": {
              "type": "tendermint/SignatureEd25519",
              "value": "5JqT1u4xbnSico+ux7pxuwIMfthXJLF16kpUluH5BQar0LjqpxhDFcwUj8F7Igo0HZVjBLzWJtSlW0rVz2j0Dg=="
            }
          },
          {
            "validator_address": "BB1276BE89834835428664408917649FEEF5D90C",
            "validator_index": "67",
            "height": "23560",
            "round": "0",
            "timestamp": "2018-07-31T20:51:18.062467466Z",
            "type": 2,
            "block_id": {
              "hash": "C2B1198D1F242C662EF49051A665E128B0FD9EBE",
              "parts": {
                "total": "1",
                "hash": "FD542402A108B1B2DFF819BA97B98E8CB7EF6229"
              }
            },
            "signature": {
              "type": "tendermint/SignatureEd25519",
              "value": "iTr5Up4T8aN4w3fuh979t0Q5uEmu2c52F2AJoOJjeJO7c9N8sVlGSHmRrAiDrb41uGLHjcYzvHDFRTU68lAbBg=="
            }
          },
          {
            "validator_address": "BC36FEDD6EF6071118A3E51859DF3831A2EC4782",
            "validator_index": "68",
            "height": "23560",
            "round": "0",
            "timestamp": "2018-07-31T20:51:18.027249099Z",
            "type": 2,
            "block_id": {
              "hash": "C2B1198D1F242C662EF49051A665E128B0FD9EBE",
              "parts": {
                "total": "1",
                "hash": "FD542402A108B1B2DFF819BA97B98E8CB7EF6229"
              }
            },
            "signature": {
              "type": "tendermint/SignatureEd25519",
              "value": "IuMzOs5K/CS7HesWD3Zz0nnOcQuUOvnUwW28SrHMeNKxcTGTc+6K9G+JAsIdpEsBxScgiJ06hzjzK5OFhNSjCA=="
            }
          },
          {
            "validator_address": "BD9D0DA513BF099DB4BB6E725A4E19832789882F",
            "validator_index": "69",
            "height": "23560",
            "round": "0",
            "timestamp": "2018-07-31T20:51:17.946760292Z",
            "type": 2,
            "block_id": {
              "hash": "C2B1198D1F242C662EF49051A665E128B0FD9EBE",
              "parts": {
                "total": "1",
                "hash": "FD542402A108B1B2DFF819BA97B98E8CB7EF6229"
              }
            },
            "signature": {
              "type": "tendermint/SignatureEd25519",
              "value": "hrwBLl2eMu7HtB+lzURQnb7CHHrzeZT1dTKdVdJ9aAsVMk+JkWlHT5fS+l47kufOfTjuRzFiJEgEFU/P+aEPCg=="
            }
          },
          {
            "validator_address": "C1134A2FF8F7338E7CDB3FE57DDD2A655DEB1E22",
            "validator_index": "70",
            "height": "23560",
            "round": "0",
            "timestamp": "2018-07-31T20:51:17.763423694Z",
            "type": 2,
            "block_id": {
              "hash": "C2B1198D1F242C662EF49051A665E128B0FD9EBE",
              "parts": {
                "total": "1",
                "hash": "FD542402A108B1B2DFF819BA97B98E8CB7EF6229"
              }
            },
            "signature": {
              "type": "tendermint/SignatureEd25519",
              "value": "pgWXiRyvvr7CYhImGaSD8Hdft/VTdU2Jji3wC9MADnwZArWKreD2FRzQ+ymUC1fGf8qGtRMDMeKAaMOkjifMCA=="
            }
          },
          {
            "validator_address": "C39A8A2B85198DCB8F23AD1F6C198E2BA7AB5D60",
            "validator_index": "71",
            "height": "23560",
            "round": "0",
            "timestamp": "2018-07-31T20:51:17.948633861Z",
            "type": 2,
            "block_id": {
              "hash": "C2B1198D1F242C662EF49051A665E128B0FD9EBE",
              "parts": {
                "total": "1",
                "hash": "FD542402A108B1B2DFF819BA97B98E8CB7EF6229"
              }
            },
            "signature": {
              "type": "tendermint/SignatureEd25519",
              "value": "nM7fZOs61iOx00Ju8BWwZJ8WCwxWgGntXbds0mllMbFHMtOaXm0WpMSertUrU7FcXPOOKdwPoVGSQLZPjmtuBw=="
            }
          },
          {
            "validator_address": "C4335190C3B5BD4BA5568BC0F99C34162D940D08",
            "validator_index": "72",
            "height": "23560",
            "round": "0",
            "timestamp": "2018-07-31T20:51:18.005889627Z",
            "type": 2,
            "block_id": {
              "hash": "C2B1198D1F242C662EF49051A665E128B0FD9EBE",
              "parts": {
                "total": "1",
                "hash": "FD542402A108B1B2DFF819BA97B98E8CB7EF6229"
              }
            },
            "signature": {
              "type": "tendermint/SignatureEd25519",
              "value": "sdlhffxzkvGpPpTajhCbfaoGmaaU6VUUnb6QXtAT7Nw5rTO4Cgnp2PurgkiSbEIoEMIva0s+j2oBHacKo5WzDw=="
            }
          },
          {
            "validator_address": "C561CFA081677046376396922E7576E5F7B316AD",
            "validator_index": "73",
            "height": "23560",
            "round": "0",
            "timestamp": "2018-07-31T20:51:18.028946156Z",
            "type": 2,
            "block_id": {
              "hash": "C2B1198D1F242C662EF49051A665E128B0FD9EBE",
              "parts": {
                "total": "1",
                "hash": "FD542402A108B1B2DFF819BA97B98E8CB7EF6229"
              }
            },
            "signature": {
              "type": "tendermint/SignatureEd25519",
              "value": "CHMAhFfUJg88kAabV0cVSFHFlpbG4IiYn2qZjVdEkQ9TWP1yukGon5qkR6HqElI5FTfE3SNRLGwbkcZ/eI+tBg=="
            }
          },
          {
            "validator_address": "CE589EA77B056D268D30D1DC1D68A70E0F885E95",
            "validator_index": "74",
            "height": "23560",
            "round": "0",
            "timestamp": "2018-07-31T20:51:17.977809316Z",
            "type": 2,
            "block_id": {
              "hash": "C2B1198D1F242C662EF49051A665E128B0FD9EBE",
              "parts": {
                "total": "1",
                "hash": "FD542402A108B1B2DFF819BA97B98E8CB7EF6229"
              }
            },
            "signature": {
              "type": "tendermint/SignatureEd25519",
              "value": "Zep7EeQn64SkGSrOKxMNzVHgTYsnUAV68b11SQMwuztCddQueJO3VR2puEGJsvpkFMMFXfqj6zneNdyciesyAQ=="
            }
          },
          {
            "validator_address": "CEB97DB5CB18270247ABDE6CF2F84F9AEE8A2904",
            "validator_index": "75",
            "height": "23560",
            "round": "0",
            "timestamp": "2018-07-31T20:51:18.387407058Z",
            "type": 2,
            "block_id": {
              "hash": "C2B1198D1F242C662EF49051A665E128B0FD9EBE",
              "parts": {
                "total": "1",
                "hash": "FD542402A108B1B2DFF819BA97B98E8CB7EF6229"
              }
            },
            "signature": {
              "type": "tendermint/SignatureEd25519",
              "value": "OUOUxW9epAIDNhUl6YSyb7WTvmzxj7/tn0CxHLEWRSymIiwx8EpUP8x7ZaUmnaC8OK86pbl4IhLhBVn1MO6pCA=="
            }
          },
          {
            "validator_address": "CF205769734F5758CC39F907EFB73D6BAF915FB1",
            "validator_index": "76",
            "height": "23560",
            "round": "0",
            "timestamp": "2018-07-31T20:51:19.131165781Z",
            "type": 2,
            "block_id": {
              "hash": "C2B1198D1F242C662EF49051A665E128B0FD9EBE",
              "parts": {
                "total": "1",
                "hash": "FD542402A108B1B2DFF819BA97B98E8CB7EF6229"
              }
            },
            "signature": {
              "type": "tendermint/SignatureEd25519",
              "value": "YUPgvj70Dtnva6pZ7H3vaBuPNCyK+StaE5byDiCxZgw4WHHmYJUNPpbfMqYIsO5+doJrwzLw1VSauKzBDF/5Cg=="
            }
          },
          {
            "validator_address": "D2134B826A1E25A955905CB79A4D8731CAFA0CCE",
            "validator_index": "77",
            "height": "23560",
            "round": "0",
            "timestamp": "2018-07-31T20:51:18.44439715Z",
            "type": 2,
            "block_id": {
              "hash": "",
              "parts": {
                "total": "0",
                "hash": ""
              }
            },
            "signature": {
              "type": "tendermint/SignatureEd25519",
              "value": "9gIusCYj0ZQBb+iWFc+KzwiLWlg8eg4MhL78KBmpy2Wdl+3nn+9Xq8gf4Z4NEuv02G0HOz6ljsfvICrdJzC2Bw=="
            }
          },
          {
            "validator_address": "D6285C3422C8886445D53757CBE12D2B91B5A9D0",
            "validator_index": "78",
            "height": "23560",
            "round": "0",
            "timestamp": "2018-07-31T20:51:00.71892753Z",
            "type": 2,
            "block_id": {
              "hash": "C2B1198D1F242C662EF49051A665E128B0FD9EBE",
              "parts": {
                "total": "1",
                "hash": "FD542402A108B1B2DFF819BA97B98E8CB7EF6229"
              }
            },
            "signature": {
              "type": "tendermint/SignatureEd25519",
              "value": "zEvGKpGGnvvZXQSWYg4xY5bc824mtFvVwaQL9HjTRAsdkFOxV/DfMO4+d7X7EU/3zPk7wr5BUEjAFRdAwCfbDQ=="
            }
          },
          {
            "validator_address": "D77FB84A729972CD3E757C9BEB61561855832B92",
            "validator_index": "79",
            "height": "23560",
            "round": "0",
            "timestamp": "2018-07-31T20:51:18.138935371Z",
            "type": 2,
            "block_id": {
              "hash": "C2B1198D1F242C662EF49051A665E128B0FD9EBE",
              "parts": {
                "total": "1",
                "hash": "FD542402A108B1B2DFF819BA97B98E8CB7EF6229"
              }
            },
            "signature": {
              "type": "tendermint/SignatureEd25519",
              "value": "TTHzjONGMZ4wff7m7gWIxrhbCkS7nMPowZcCqlZ/YwIb1uH7J/7eyzbD6GdQ4NKVmWzqmCGgGSE3Qfx5SVZuDA=="
            }
          },
          {
            "validator_address": "DB7E6732471D3EA5C90C17A9974D9F88AB45F2FB",
            "validator_index": "80",
            "height": "23560",
            "round": "0",
            "timestamp": "2018-07-31T20:51:17.971799215Z",
            "type": 2,
            "block_id": {
              "hash": "C2B1198D1F242C662EF49051A665E128B0FD9EBE",
              "parts": {
                "total": "1",
                "hash": "FD542402A108B1B2DFF819BA97B98E8CB7EF6229"
              }
            },
            "signature": {
              "type": "tendermint/SignatureEd25519",
              "value": "GqnPK8F1k0/qFoCz28nsez9y3G929Y5uPLBOqE0xTwFAxWvWKU2bf69+1yOFwnPcv8mTQVOOKa8v+liCZoqdCw=="
            }
          },
          {
            "validator_address": "DF54B862410BCD9B5C516FBB6C56BDC826ED6FA7",
            "validator_index": "81",
            "height": "23560",
            "round": "0",
            "timestamp": "2018-07-31T20:51:18.061631511Z",
            "type": 2,
            "block_id": {
              "hash": "C2B1198D1F242C662EF49051A665E128B0FD9EBE",
              "parts": {
                "total": "1",
                "hash": "FD542402A108B1B2DFF819BA97B98E8CB7EF6229"
              }
            },
            "signature": {
              "type": "tendermint/SignatureEd25519",
              "value": "hJsaJKOQMNbQJcRpkTTqwj9Ots7jI1hyC+HmhlT57y+Xx7Tpr+2hPZF5hNf7M1NSAzrF00lhPex6OsDv+ntzBA=="
            }
          },
          {
            "validator_address": "DFAF0C8B1B78D6D552B0189DE3ACA351439A1319",
            "validator_index": "82",
            "height": "23560",
            "round": "0",
            "timestamp": "2018-07-31T20:51:17.953251781Z",
            "type": 2,
            "block_id": {
              "hash": "C2B1198D1F242C662EF49051A665E128B0FD9EBE",
              "parts": {
                "total": "1",
                "hash": "FD542402A108B1B2DFF819BA97B98E8CB7EF6229"
              }
            },
            "signature": {
              "type": "tendermint/SignatureEd25519",
              "value": "Iud2CnTc8XqLIb7MP5IWWgzbXA0zwGm+jialnVOx5b57+No3qjyleRYZPmf9gK9v3EWctvE7MLjzcqKYjoCUAQ=="
            }
          },
          {
            "validator_address": "E1DBC77881161A5A3A8536A57536EAE546A75D69",
            "validator_index": "83",
            "height": "23560",
            "round": "0",
            "timestamp": "2018-07-31T20:51:17.901557095Z",
            "type": 2,
            "block_id": {
              "hash": "C2B1198D1F242C662EF49051A665E128B0FD9EBE",
              "parts": {
                "total": "1",
                "hash": "FD542402A108B1B2DFF819BA97B98E8CB7EF6229"
              }
            },
            "signature": {
              "type": "tendermint/SignatureEd25519",
              "value": "uxptXV3aC2UZr/9dvazOXdQ5/jvD8EataPnps6e78V2oZ0sFWTxDZ8OcTfMDooxM2vESstihwyl8kdFpPpIeCQ=="
            }
          },
          {
            "validator_address": "E300E9D484374C1D3E97C1D93CAC3B160A056298",
            "validator_index": "84",
            "height": "23560",
            "round": "0",
            "timestamp": "2018-07-31T20:51:18.209945003Z",
            "type": 2,
            "block_id": {
              "hash": "C2B1198D1F242C662EF49051A665E128B0FD9EBE",
              "parts": {
                "total": "1",
                "hash": "FD542402A108B1B2DFF819BA97B98E8CB7EF6229"
              }
            },
            "signature": {
              "type": "tendermint/SignatureEd25519",
              "value": "S5t73ewTCSnRn3JY9mHHvRUx4vLmbUIFk+vvVs6xAI9Clzr99Il1VssikopFfYsi7r94d87Tn7iQiO2S6wWTCw=="
            }
          },
          {
            "validator_address": "E39B5778E0D4297A46F45CF6940B0A163A430FF8",
            "validator_index": "85",
            "height": "23560",
            "round": "0",
            "timestamp": "2018-07-31T20:51:18.044527896Z",
            "type": 2,
            "block_id": {
              "hash": "C2B1198D1F242C662EF49051A665E128B0FD9EBE",
              "parts": {
                "total": "1",
                "hash": "FD542402A108B1B2DFF819BA97B98E8CB7EF6229"
              }
            },
            "signature": {
              "type": "tendermint/SignatureEd25519",
              "value": "ks7GJDUr+MTEmqR5YgjvePsQnnECkmcHhwdCGzkfj+0X5AXQyzi2Hf5lClQzgEE/FgHCyhNrzgoOGEQp/qQPDg=="
            }
          },
          {
            "validator_address": "E3B19738F7132F950668504D326C7660F159D170",
            "validator_index": "86",
            "height": "23560",
            "round": "0",
            "timestamp": "2018-07-31T20:51:17.943861959Z",
            "type": 2,
            "block_id": {
              "hash": "C2B1198D1F242C662EF49051A665E128B0FD9EBE",
              "parts": {
                "total": "1",
                "hash": "FD542402A108B1B2DFF819BA97B98E8CB7EF6229"
              }
            },
            "signature": {
              "type": "tendermint/SignatureEd25519",
              "value": "0YNjLqx3sk2wpWVtx7zWiolItPw34VlGk2RUXmTqE/sMI61qpvcIsr2OmdZW2veo6JITkrc08KER2fq1yen4Dw=="
            }
          },
          {
            "validator_address": "E42F8AEABB685219F7027F54D2B0DBC7846F633A",
            "validator_index": "87",
            "height": "23560",
            "round": "0",
            "timestamp": "2018-07-31T20:51:17.132985628Z",
            "type": 2,
            "block_id": {
              "hash": "C2B1198D1F242C662EF49051A665E128B0FD9EBE",
              "parts": {
                "total": "1",
                "hash": "FD542402A108B1B2DFF819BA97B98E8CB7EF6229"
              }
            },
            "signature": {
              "type": "tendermint/SignatureEd25519",
              "value": "EjaAM6kqJhYqgdBcb5TOmZeA9onJs83e3WX9WCU7xwY0AuS+JEGuvS1xpLO9FUv4YRIHDVUZNkn38x07Y9DjDg=="
            }
          },
          {
            "validator_address": "E4E6C2E81269DFFA196C17F98240E491479A6008",
            "validator_index": "88",
            "height": "23560",
            "round": "0",
            "timestamp": "2018-07-31T20:51:18.057603849Z",
            "type": 2,
            "block_id": {
              "hash": "C2B1198D1F242C662EF49051A665E128B0FD9EBE",
              "parts": {
                "total": "1",
                "hash": "FD542402A108B1B2DFF819BA97B98E8CB7EF6229"
              }
            },
            "signature": {
              "type": "tendermint/SignatureEd25519",
              "value": "gFDJaJELmKost5+vAeO+p/60IQGvtgr5HVEJXy5tzCAXDoIsoiPt0f/glBTFJ6Yn5kSfLv5V4dOqCFKJY2svCw=="
            }
          },
          {
            "validator_address": "E4FEB2846F4F3B0ECDCBE9C9DCB2248248A5AF0F",
            "validator_index": "89",
            "height": "23560",
            "round": "0",
            "timestamp": "2018-07-31T20:51:18.240400102Z",
            "type": 2,
            "block_id": {
              "hash": "C2B1198D1F242C662EF49051A665E128B0FD9EBE",
              "parts": {
                "total": "1",
                "hash": "FD542402A108B1B2DFF819BA97B98E8CB7EF6229"
              }
            },
            "signature": {
              "type": "tendermint/SignatureEd25519",
              "value": "4Y/jsdFvMOdUBJglS2qxvFpkv31/VDq+fvGUYbPdCZgfosM9qoRvpjIXJCSPe9YZgCf0i06Y495te2BuNBrRDw=="
            }
          },
          {
            "validator_address": "E6A7079D584B163750BE0831227F6B685DEAF3C1",
            "validator_index": "90",
            "height": "23560",
            "round": "0",
            "timestamp": "2018-07-31T20:51:18.089244582Z",
            "type": 2,
            "block_id": {
              "hash": "C2B1198D1F242C662EF49051A665E128B0FD9EBE",
              "parts": {
                "total": "1",
                "hash": "FD542402A108B1B2DFF819BA97B98E8CB7EF6229"
              }
            },
            "signature": {
              "type": "tendermint/SignatureEd25519",
              "value": "EYJF04Mm+0cI3YEBJijk2S6+UfP5DqZQfH5nHfZJG6sRtm5ueBmP0scjuufj8F+ioaKNalPT+358b2vtL0cXBw=="
            }
          },
          {
            "validator_address": "E7A30077D5D11867D3EAF99ED45BFDC1EB834509",
            "validator_index": "91",
            "height": "23560",
            "round": "0",
            "timestamp": "2018-07-31T20:51:17.973350706Z",
            "type": 2,
            "block_id": {
              "hash": "C2B1198D1F242C662EF49051A665E128B0FD9EBE",
              "parts": {
                "total": "1",
                "hash": "FD542402A108B1B2DFF819BA97B98E8CB7EF6229"
              }
            },
            "signature": {
              "type": "tendermint/SignatureEd25519",
              "value": "Mv1q9gyk6maOkMxvGW4r3W6lCVoRs1nWn+5UjoOQMA1WIZjo82O/zWRl2UJNl8JyrHoudOcAyH5SIzgZMersBQ=="
            }
          },
          {
            "validator_address": "EBC613967F66F4EC306852CDF58B4F151CF16738",
            "validator_index": "92",
            "height": "23560",
            "round": "0",
            "timestamp": "2018-07-31T20:51:18.089607732Z",
            "type": 2,
            "block_id": {
              "hash": "C2B1198D1F242C662EF49051A665E128B0FD9EBE",
              "parts": {
                "total": "1",
                "hash": "FD542402A108B1B2DFF819BA97B98E8CB7EF6229"
              }
            },
            "signature": {
              "type": "tendermint/SignatureEd25519",
              "value": "HG2Fk13WV9JtjhGlRqVoGD3p0mhPRFcTuv4kSlGHbo8cUcKe5eC3wKmk3kNkHOp1NZIII7+GRO6EUVmGFnUVCw=="
            }
          },
          {
            "validator_address": "EC3401441726C40ECC7E51F744483B05BC6DE9BD",
            "validator_index": "93",
            "height": "23560",
            "round": "0",
            "timestamp": "2018-07-31T20:51:17.997974908Z",
            "type": 2,
            "block_id": {
              "hash": "C2B1198D1F242C662EF49051A665E128B0FD9EBE",
              "parts": {
                "total": "1",
                "hash": "FD542402A108B1B2DFF819BA97B98E8CB7EF6229"
              }
            },
            "signature": {
              "type": "tendermint/SignatureEd25519",
              "value": "y54s/llDmll2mYBWo46NoyNKFDkD1oplou+0WvOxr8wtjwoRmcqdhEkOBw6g79vUyBDdsx/TY8BwMx+6NJMOCg=="
            }
          },
          {
            "validator_address": "EC95B111D032181E1EC3B5E8875C5BB8E4AE7140",
            "validator_index": "94",
            "height": "23560",
            "round": "0",
            "timestamp": "2018-07-31T20:51:17.92952966Z",
            "type": 2,
            "block_id": {
              "hash": "C2B1198D1F242C662EF49051A665E128B0FD9EBE",
              "parts": {
                "total": "1",
                "hash": "FD542402A108B1B2DFF819BA97B98E8CB7EF6229"
              }
            },
            "signature": {
              "type": "tendermint/SignatureEd25519",
              "value": "/kF7eHpmptmPcWQK3md/xaH+YRuap4C2DuTycPmP9Z4xMQfgmNR2TVlcmKRsU4rL94XOTeHxjq+A9cbbV5+xAw=="
            }
          },
          {
            "validator_address": "F13C1805E8131C9B47E2A46818F57D8A2841E578",
            "validator_index": "95",
            "height": "23560",
            "round": "0",
            "timestamp": "2018-07-31T20:51:18.068475342Z",
            "type": 2,
            "block_id": {
              "hash": "C2B1198D1F242C662EF49051A665E128B0FD9EBE",
              "parts": {
                "total": "1",
                "hash": "FD542402A108B1B2DFF819BA97B98E8CB7EF6229"
              }
            },
            "signature": {
              "type": "tendermint/SignatureEd25519",
              "value": "bL9wboPkWjk2sN8j9Djhgp3QfsI+xsr8ayJMsGEiKn5vJ2i25PtkGzsF7tFS1hfuTXZ9n+cfsqlJEzc4E/i+Bg=="
            }
          },
          {
            "validator_address": "F23FF36BD5B90C33CE3A03ED72DBDCF5EC07D6AF",
            "validator_index": "96",
            "height": "23560",
            "round": "0",
            "timestamp": "2018-07-31T20:51:17.981489833Z",
            "type": 2,
            "block_id": {
              "hash": "C2B1198D1F242C662EF49051A665E128B0FD9EBE",
              "parts": {
                "total": "1",
                "hash": "FD542402A108B1B2DFF819BA97B98E8CB7EF6229"
              }
            },
            "signature": {
              "type": "tendermint/SignatureEd25519",
              "value": "g3v+ZVs8ebLn4DRUt/kk7u1oAGyLAkUii3Hmw7k8fHeOfH5ASc1atjBEGKitYNe8LcklsAmN7NSvE+74QTSlDw=="
            }
          },
          {
            "validator_address": "F4268597DE93E3E2CED38845010F8AA34E2A879E",
            "validator_index": "97",
            "height": "23560",
            "round": "0",
            "timestamp": "2018-07-31T20:51:18.07339277Z",
            "type": 2,
            "block_id": {
              "hash": "C2B1198D1F242C662EF49051A665E128B0FD9EBE",
              "parts": {
                "total": "1",
                "hash": "FD542402A108B1B2DFF819BA97B98E8CB7EF6229"
              }
            },
            "signature": {
              "type": "tendermint/SignatureEd25519",
              "value": "UdVOTVlppyjBfmEy/ECX7GPG4vmi83xvEQ9+SfoP3DT3QyaLFP4MfWlnknFkkF8eMEJnBNtCAaUeV8YLiJPaDw=="
            }
          },
          {
            "validator_address": "F4DEB417999B04BE2EFF9FFE03FA373D86011CC0",
            "validator_index": "98",
            "height": "23560",
            "round": "0",
            "timestamp": "2018-07-31T20:51:17.990769847Z",
            "type": 2,
            "block_id": {
              "hash": "C2B1198D1F242C662EF49051A665E128B0FD9EBE",
              "parts": {
                "total": "1",
                "hash": "FD542402A108B1B2DFF819BA97B98E8CB7EF6229"
              }
            },
            "signature": {
              "type": "tendermint/SignatureEd25519",
              "value": "ac+jLyHGExBhIBXA6IooU10MRa/6VnusveriNpo1NHsfkjTQGoSNqhuSOs5NnRBWe1WcNfrOcr0rQbvXT4CWCA=="
            }
          },
          {
            "validator_address": "F6738260186D33D9C14FC6E7017AFE6BB952A63D",
            "validator_index": "99",
            "height": "23560",
            "round": "0",
            "timestamp": "2018-07-31T20:51:18.00653379Z",
            "type": 2,
            "block_id": {
              "hash": "C2B1198D1F242C662EF49051A665E128B0FD9EBE",
              "parts": {
                "total": "1",
                "hash": "FD542402A108B1B2DFF819BA97B98E8CB7EF6229"
              }
            },
            "signature": {
              "type": "tendermint/SignatureEd25519",
              "value": "oo8PxWzKyowFYaLGykcQXKXgE6Wdvyfe/tJeW2K4/LGiQimKB/PJHGid35eqHEfJeYMEguhClkef6yi9t5KzCQ=="
            }
          },
          {
            "validator_address": "FF3F3FCBCE7E62D7AD5506FF846EC4518D980515",
            "validator_index": "100",
            "height": "23560",
            "round": "0",
            "timestamp": "2018-07-31T20:51:17.901122572Z",
            "type": 2,
            "block_id": {
              "hash": "C2B1198D1F242C662EF49051A665E128B0FD9EBE",
              "parts": {
                "total": "1",
                "hash": "FD542402A108B1B2DFF819BA97B98E8CB7EF6229"
              }
            },
            "signature": {
              "type": "tendermint/SignatureEd25519",
              "value": "u9D4Pq7IUszuQTuTg9uSw0clle2ludlxkGCLohWjHQRybkcBKKQKyiWeCxDZDeTZFqSStOkgRJcXxEbkKhryCw=="
            }
          }
        ]
      }
    },
    "canonical": true
  }
}