{
  "jsonrpc": "2.0",
  "id": "",
  "result": {
    "SignedHeader": {
      "header": {
        "chain_id": "gaia-7004",
        "height": "23715",
        "time": "2018-07-31T21:06:55.777882094Z",
        "num_txs": "0",
        "last_block_id": {
          "hash": "7DECAE19FAD78C57ADF83ADFD1604FD1886CE3C1",
          "parts": {
            "total": "1",
            "hash": "D9692FFF82A472F1E9E3FA838FF4A76B1D08DD9B"
          }
        },
        "total_txs": "705",
        "last_commit_hash": "0E82234B95E0F3D5DBB11AABBF8ACC36BE16D60A",
        "data_hash": "",
        "validators_hash": "BAC635A3500BEEE9DBB7F25A034B3C5DA6751E38",
        "consensus_hash": "D6B74BB35BDFFD8392340F2A379173548AE188FE",
        "app_hash": "ECAF050A9A2758431F73A90844E072CE1E019F35",
        "last_results_hash": "",
        "evidence_hash": ""
      },
      "commit": {
        "block_id": {
          "hash": "0027E919486AF508D3BE09AAC2B2DDF0B07FA2B7",
          "parts": {
            "total": "1",
            "hash": "E1D7269B437C98372B3545DCCE34BBE89770CBFD"
          }
        },
        "precommits": [
          {
            "validator_address": "029359C0C768096273A68ABC902A6B17AC8D1D70",
            "validator_index": "0",
            "height": "23715",
            "round": "0",
            "timestamp": "2018-07-31T21:06:56.671387558Z",
            "type": 2,
            "block_id": {
              "hash": "0027E919486AF508D3BE09AAC2B2DDF0B07FA2B7",
              "parts": {
                "total": "1",
                "hash": "E1D7269B437C98372B3545DCCE34BBE89770CBFD"
              }
            },
            "signature": {
              "type": "tendermint/SignatureEd25519",
              "value": "F79nAhTAgthUCTDiUE7pemiLfouRbTn0nlmj4cWTn08kRh2Hk/TshhrElm5cU4XYURaOnj6+AwXxCdl1HovPDQ=="
            }
          },
          {
            "validator_address": "02FE4B97A8387F39D1AC19E0C1702B3CC614812F",
            "validator_index": "1",
            "height": "23715",
            "round": "0",
            "timestamp": "2018-07-31T21:06:56.668064895Z",
            "type": 2,
            "block_id": {
              "hash": "0027E919486AF508D3BE09AAC2B2DDF0B07FA2B7",
              "parts": {
                "total": "1",
                "hash": "E1D7269B437C98372B3545DCCE34BBE89770CBFD"
              }
            },
            "signature": {
              "type": "tendermint/SignatureEd25519",
              "value": "/hIr1b0HRNLAhZkcD2kGXEX1u1KAikXMtLTxzB0zntGUugG92yTsQLc4PpxV5+08n6/bGViSn5PW9KOJFtMdDA=="
            }
          },
          {
            "validator_address": "0548261C50222FD710EB5EBDF03A0E6567B21D20",
            "validator_index": "2",
            "height": "23715",
            "round": "0",
            "timestamp": "2018-07-31T21:06:56.829560063Z",
            "type": 2,
            "block_id": {
              "hash": "0027E919486AF508D3BE09AAC2B2DDF0B07FA2B7",
              "parts": {
                "total": "1",
                "hash": "E1D7269B437C98372B3545DCCE34BBE89770CBFD"
              }
            },
            "signature": {
              "type": "tendermint/SignatureEd25519",
              "value": "TC5V9kLOeOinsIf6TyOuQFgcUoV24mT9P9FSGo/f39hDNvXB0xYR2L2W070bYuEcfzdPHvgH1EbDFdN4ss/2CA=="
            }
          },
          {
            "validator_address": "09145E611CC27EEB944FC5A956DDF710F943B9EF",
            "validator_index": "3",
            "height": "23715",
            "round": "0",
            "timestamp": "2018-07-31T21:06:56.767953205Z",
            "type": 2,
            "block_id": {
              "hash": "0027E919486AF508D3BE09AAC2B2DDF0B07FA2B7",
              "parts": {
                "total": "1",
                "hash": "E1D7269B437C98372B3545DCCE34BBE89770CBFD"
              }
            },
            "signature": {
              "type": "tendermint/SignatureEd25519",
              "value": "0WkJPECE2DwgxeMcHjaZFUCTLgzutFbraO0ZpkNxXokISBvFtGyGJMQm3UWJlOu0B8tuD9Qv9zsW0lTnTHnyDw=="
            }
          },
          {
            "validator_address": "0989D0355A104B67AE0AE028C68FB610690E174B",
            "validator_index": "4",
            "height": "23715",
            "round": "0",
            "timestamp": "2018-07-31T21:06:56.710979576Z",
            "type": 2,
            "block_id": {
              "hash": "0027E919486AF508D3BE09AAC2B2DDF0B07FA2B7",
              "parts": {
                "total": "1",
                "hash": "E1D7269B437C98372B3545DCCE34BBE89770CBFD"
              }
            },
            "signature": {
              "type": "tendermint/SignatureEd25519",
              "value": "EYXuVm70NtQCVuyUeIFvX9lOIz+K1Uj+ENKCjxnu+JWAS5DE6iIgcIrQsM84pROXuMqtJC4TqWHT/d2M7b6xDA=="
            }
          },
          {
            "validator_address": "0A692DBFFE9E5DD28E7DECC33CED1AEB4C0D014E",
            "validator_index": "5",
            "height": "23715",
            "round": "0",
            "timestamp": "2018-07-31T21:06:56.796550699Z",
            "type": 2,
            "block_id": {
              "hash": "0027E919486AF508D3BE09AAC2B2DDF0B07FA2B7",
              "parts": {
                "total": "1",
                "hash": "E1D7269B437C98372B3545DCCE34BBE89770CBFD"
              }
            },
            "signature": {
              "type": "tendermint/SignatureEd25519",
              "value": "MUnnbVK3lgVDGk7E1R+3I1ItQLByJUycSbkwZQ+Cl49HFkem7COvOmOXRhpxcDzYg24eratmth9IGPFErORVAA=="
            }
          },
          {
            "validator_address": "0DDF97111D73DB825138EC15EC27DE5FE8536901",
            "validator_index": "6",
            "height": "23715",
            "round": "0",
            "timestamp": "2018-07-31T21:06:57.11808425Z",
            "type": 2,
            "block_id": {
              "hash": "0027E919486AF508D3BE09AAC2B2DDF0B07FA2B7",
              "parts": {
                "total": "1",
                "hash": "E1D7269B437C98372B3545DCCE34BBE89770CBFD"
              }
            },
            "signature": {
              "type": "tendermint/SignatureEd25519",
              "value": "YUZlqispVqc4aA/DY/ENHf1jTQ7o556QNnACNZp1iC3o6t14gldANCnd/v1eDvYLK1xTF7z9hqFwq6Fq/AV9Bg=="
            }
          },
          {
            "validator_address": "1751786EFC085D5331C61168FFFC8202EA151B4E",
            "validator_index": "7",
            "height": "23715",
            "round": "0",
            "timestamp": "2018-07-31T21:06:56.365113085Z",
            "type": 2,
            "block_id": {
              "hash": "0027E919486AF508D3BE09AAC2B2DDF0B07FA2B7",
              "parts": {
                "total": "1",
                "hash": "E1D7269B437C98372B3545DCCE34BBE89770CBFD"
              }
            },
            "signature": {
              "type": "tendermint/SignatureEd25519",
              "value": "Psdyf0Uua7bHmMxSa3lIGqqeuCK6UyK5obP4BkD0O5QFHCsBsCoIzj2xtFqB9EOLmSZooCIQtfNgTP3LiNLEBw=="
            }
          },
          {
            "validator_address": "17BB5CD01E8940FAFB948A04D5FA5A0645E5822E",
            "validator_index": "8",
            "height": "23715",
            "round": "0",
            "timestamp": "2018-07-31T21:06:56.698402135Z",
            "type": 2,
            "block_id": {
              "hash": "0027E919486AF508D3BE09AAC2B2DDF0B07FA2B7",
              "parts": {
                "total": "1",
                "hash": "E1D7269B437C98372B3545DCCE34BBE89770CBFD"
              }
            },
            "signature": {
              "type": "tendermint/SignatureEd25519",
              "value": "GDP7uA0uFL0MFdw1ZRpRJRdZNuVhPMm9n+++THSPZa62W99WxY3a2W+tMazTAGjJ+V+Fkq+NgIrvqudHlwcgCQ=="
            }
          },
          {
            "validator_address": "1C683A87904BC38F05004FE83301A3A3E35447EB",
            "validator_index": "9",
            "height": "23715",
            "round": "0",
            "timestamp": "2018-07-31T21:06:56.700299278Z",
            "type": 2,
            "block_id": {
              "hash": "0027E919486AF508D3BE09AAC2B2DDF0B07FA2B7",
              "parts": {
                "total": "1",
                "hash": "E1D7269B437C98372B3545DCCE34BBE89770CBFD"
              }
            },
            "signature": {
              "type": "tendermint/SignatureEd25519",
              "value": "NyyfaoepY3CS/v5TT/Tg4rY8ThU/iDDQk3FjHjOXG6t5pVIAwirfuh4vqM9/lFw7uQR35Shi7tjWk2j9AhosCQ=="
            }
          },
          {
            "validator_address": "1E9CE94FD0BA5CFEB901F90BC658D64D85B134D2",
            "validator_index": "10",
            "height": "23715",
            "round": "0",
            "timestamp": "2018-07-31T21:06:56.787184239Z",
            "type": 2,
            "block_id": {
              "hash": "0027E919486AF508D3BE09AAC2B2DDF0B07FA2B7",
              "parts": {
                "total": "1",
                "hash": "E1D7269B437C98372B3545DCCE34BBE89770CBFD"
              }
            },
            "signature": {
              "type": "tendermint/SignatureEd25519",
              "value": "Mz19IxQmqRRc42aN9bHfA3ySLAikCtNLuAySKDJbtYuSbD/eCoGH9SVE9694/jmk1+x4YfPexG2iHSJFwovIDg=="
            }
          },
          {
            "validator_address": "1ECD8C5FE1341D74CDC633A245DD56858DE2F9A2",
            "validator_index": "11",
            "height": "23715",
            "round": "0",
            "timestamp": "2018-07-31T21:06:56.882392534Z",
            "type": 2,
            "block_id": {
              "hash": "0027E919486AF508D3BE09AAC2B2DDF0B07FA2B7",
              "parts": {
                "total": "1",
                "hash": "E1D7269B437C98372B3545DCCE34BBE89770CBFD"
              }
            },
            "signature": {
              "type": "tendermint/SignatureEd25519",
              "value": "E18ow1sq+YuhIQr1nMo6BwpYl5seSQ8m2vpVxkmYLd4D60m2JmScDwkpv03CALzg/vaxpXT6chmiQ4IeLLDaDQ=="
            }
          },
          {
            "validator_address": "1F3A68CAAD483768AA2BF667DEF10F7104C89928",
            "validator_index": "12",
            "height": "23715",
            "round": "0",
            "timestamp": "2018-07-31T21:06:56.730879666Z",
            "type": 2,
            "block_id": {
              "hash": "0027E919486AF508D3BE09AAC2B2DDF0B07FA2B7",
              "parts": {
                "total": "1",
                "hash": "E1D7269B437C98372B3545DCCE34BBE89770CBFD"
              }
            },
            "signature": {
              "type": "tendermint/SignatureEd25519",
              "value": "UK42P1B9XeRgtUwdrZWhs6qF2y3WAsH7WXrSTZccsjGjBtjzPhRIR2zEV+BQWuhcRsad/OyNtgjcFkJ87PT5DQ=="
            }
          },
          {
            "validator_address": "23897586D68E2AC1C78E0EF5BB5DF5C8EAB18F50",
            "validator_index": "13",
            "height": "23715",
            "round": "0",
            "timestamp": "2018-07-31T21:06:56.711761041Z",
            "type": 2,
            "block_id": {
              "hash": "0027E919486AF508D3BE09AAC2B2DDF0B07FA2B7",
              "parts": {
                "total": "1",
                "hash": "E1D7269B437C98372B3545DCCE34BBE89770CBFD"
              }
            },
            "signature": {
              "type": "tendermint/SignatureEd25519",
              "value": "BdEv5vt7Cj4B7Ovk3QUu50aqopv8L8Aok9BT+p0xdIrEoRvytVQdELcXDpr/qcbs6fxsazcOonK0iQ89PPPHBA=="
            }
          },
          {
            "validator_address": "28770D17E8530825E7310A0659308654B7EC9682",
            "validator_index": "14",
            "height": "23715",
            "round": "0",
            "timestamp": "2018-07-31T21:06:56.647970515Z",
            "type": 2,
            "block_id": {
              "hash": "0027E919486AF508D3BE09AAC2B2DDF0B07FA2B7",
              "parts": {
                "total": "1",
                "hash": "E1D7269B437C98372B3545DCCE34BBE89770CBFD"
              }
            },
            "signature": {
              "type": "tendermint/SignatureEd25519",
              "value": "/T8KedxNJ8GDturYExrrdeGdKcXD4dvmfwtOFCjBW+tnmMLx6TmyfIAsuCwS0a7RKAvdeVnjDLRXnKc6iLenCg=="
            }
          },
          {
            "validator_address": "2A92EC3C642140202298D0E245095E0ECFC25228",
            "validator_index": "15",
            "height": "23715",
            "round": "0",
            "timestamp": "2018-07-31T21:06:56.74716189Z",
            "type": 2,
            "block_id": {
              "hash": "0027E919486AF508D3BE09AAC2B2DDF0B07FA2B7",
              "parts": {
                "total": "1",
                "hash": "E1D7269B437C98372B3545DCCE34BBE89770CBFD"
              }
            },
            "signature": {
              "type": "tendermint/SignatureEd25519",
              "value": "QXW25W2ZkVpM+1iTCHJrNYaVm98JhHID8F8Q8drpdGChPFqSHzBEpkbAZ+qmEENh4sXMnWG3YSQZMrtoyS2PDw=="
            }
          },
          {
            "validator_address": "33412C9A69C60CB0FAA24A5C5B3A906DE24B47C2",
            "validator_index": "16",
            "height": "23715",
            "round": "0",
            "timestamp": "2018-07-31T21:06:56.700436876Z",
            "type": 2,
            "block_id": {
              "hash": "0027E919486AF508D3BE09AAC2B2DDF0B07FA2B7",
              "parts": {
                "total": "1",
                "hash": "E1D7269B437C98372B3545DCCE34BBE89770CBFD"
              }
            },
            "signature": {
              "type": "tendermint/SignatureEd25519",
              "value": "rYK4b2UCl6zk3xRG95jxlLLZd0+9HohXyiMQLqv9JCQaJZM1DtJJMdgpsQwn5n2gwWBZbDTrthViU/eMocYcCA=="
            }
          },
          {
            "validator_address": "3383EF2A13B160C41947AC30434B274B2FAF0617",
            "validator_index": "17",
            "height": "23715",
            "round": "0",
            "timestamp": "2018-07-31T21:06:56.688257797Z",
            "type": 2,
            "block_id": {
              "hash": "0027E919486AF508D3BE09AAC2B2DDF0B07FA2B7",
              "parts": {
                "total": "1",
                "hash": "E1D7269B437C98372B3545DCCE34BBE89770CBFD"
              }
            },
            "signature": {
              "type": "tendermint/SignatureEd25519",
              "value": "nOQplF763CZYB997PFwvyT8gAPgj+RPWHrZ2ANCMg1BHNYiySOfsTqlEcjMmO9J4kB//M/+h32vXTIYM6tkCAQ=="
            }
          },
          {
            "validator_address": "36E9B7FAEC964F97D84C028ED62493E373AD0B38",
            "validator_index": "18",
            "height": "23715",
            "round": "0",
            "timestamp": "2018-07-31T21:06:56.765958232Z",
            "type": 2,
            "block_id": {
              "hash": "0027E919486AF508D3BE09AAC2B2DDF0B07FA2B7",
              "parts": {
                "total": "1",
                "hash": "E1D7269B437C98372B3545DCCE34BBE89770CBFD"
              }
            },
            "signature": {
              "type": "tendermint/SignatureEd25519",
              "value": "qKyY/Au307Zxohk05k3QA8VT/gKc9VoSROqo5qstSoseV+QDoCped5XkD9PXY8vQ9wgNKsqRXfkPscdIuqGADQ=="
            }
          },
          {
            "validator_address": "38A8D85D36BEA2E5FCF8A1E778F53628E450EF13",
            "validator_index": "19",
            "height": "23715",
            "round": "0",
            "timestamp": "2018-07-31T21:06:56.901317561Z",
            "type": 2,
            "block_id": {
              "hash": "0027E919486AF508D3BE09AAC2B2DDF0B07FA2B7",
              "parts": {
                "total": "1",
                "hash": "E1D7269B437C98372B3545DCCE34BBE89770CBFD"
              }
            },
            "signature": {
              "type": "tendermint/SignatureEd25519",
              "value": "BUP0XrfCEjLayIVEN+LWYpy/8GlKBhyFjzBWVf+lpggGoTFRBrRtpGUoc/Q9hsXLFhC4IFzobvDrUUCwEyRODQ=="
            }
          },
          {
            "validator_address": "39DFDA0C5DB84B269642188B23253508537798E6",
            "validator_index": "20",
            "height": "23715",
            "round": "0",
            "timestamp": "2018-07-31T21:06:56.704611483Z",
            "type": 2,
            "block_id": {
              "hash": "0027E919486AF508D3BE09AAC2B2DDF0B07FA2B7",
              "parts": {
                "total": "1",
                "hash": "E1D7269B437C98372B3545DCCE34BBE89770CBFD"
              }
            },
            "signature": {
              "type": "tendermint/SignatureEd25519",
              "value": "rY9P0qrg94uAPjVE5eM/zsWETGqIIWm2gO0WPBdFgIE6X165+BkKKQE1M58eEWI+7feQ9l0fzrcByATb6QthDw=="
            }
          },
          {
            "validator_address": "3AC99B708404452366E0953A4BE849226DC86CBC",
            "validator_index": "21",
            "height": "23715",
            "round": "0",
            "timestamp": "2018-07-31T21:06:56.728614591Z",
            "type": 2,
            "block_id": {
              "hash": "0027E919486AF508D3BE09AAC2B2DDF0B07FA2B7",
              "parts": {
                "total": "1",
                "hash": "E1D7269B437C98372B3545DCCE34BBE89770CBFD"
              }
            },
            "signature": {
              "type": "tendermint/SignatureEd25519",
              "value": "RZsfaE+WhrW65/Z+wfL7S6VLxXnIHp0whySLNfRWRuqQk5TRljXOTET5iOVt/H5gVXqgl4EFvRTv+vDKUDVzCA=="
            }
          },
          {
            "validator_address": "3DCB822A10ED319EC7C4393D8E3FD4A41B15AAF2",
            "validator_index": "22",
            "height": "23715",
            "round": "0",
            "timestamp": "2018-07-31T21:06:56.68787091Z",
            "type": 2,
            "block_id": {
              "hash": "0027E919486AF508D3BE09AAC2B2DDF0B07FA2B7",
              "parts": {
                "total": "1",
                "hash": "E1D7269B437C98372B3545DCCE34BBE89770CBFD"
              }
            },
            "signature": {
              "type": "tendermint/SignatureEd25519",
              "value": "QGJNkDicNdLt1ZFpahrwuWaTmRkGaMSU9c/iuGPRG3yBUAb/PbbZaAiZYDkuQhl3M/eSIboMZ6tbZrd2GsbOCA=="
            }
          },
          {
            "validator_address": "3E899BA36A93C7370347BD5FE85909F2ECD93F8C",
            "validator_index": "23",
            "height": "23715",
            "round": "0",
            "timestamp": "2018-07-31T21:06:56.680517296Z",
            "type": 2,
            "block_id": {
              "hash": "0027E919486AF508D3BE09AAC2B2DDF0B07FA2B7",
              "parts": {
                "total": "1",
                "hash": "E1D7269B437C98372B3545DCCE34BBE89770CBFD"
              }
            },
            "signature": {
              "type": "tendermint/SignatureEd25519",
              "value": "TlBMHZrP8LOjAbVM92BFVSo1W8tb2DvcA2vy95tW4VFdsnTZtCIUl8JRLMCi1DRPHA5mwK4Ew76OVDNUze/xDw=="
            }
          },
          {
            "validator_address": "41CAB2E29E7D0F2282E3275938F188FF9386B84C",
            "validator_index": "24",
            "height": "23715",
            "round": "0",
            "timestamp": "2018-07-31T21:06:56.763022462Z",
            "type": 2,
            "block_id": {
              "hash": "0027E919486AF508D3BE09AAC2B2DDF0B07FA2B7",
              "parts": {
                "total": "1",
                "hash": "E1D7269B437C98372B3545DCCE34BBE89770CBFD"
              }
            },
            "signature": {
              "type": "tendermint/SignatureEd25519",
              "value": "PbBxWsk+u5pjoyp1ONZk1gVfpU4UxtlX6olQIX53psfgZXrdeZ+fzxXkqL2x4GZZj4B0Drww5Gpzt/2a2dHqCQ=="
            }
          },
          {
            "validator_address": "462B656869DB02A8FD1077E255F8CC7401DC37C6",
            "validator_index": "25",
            "height": "23715",
            "round": "0",
            "timestamp": "2018-07-31T21:06:56.687163069Z",
            "type": 2,
            "block_id": {
              "hash": "0027E919486AF508D3BE09AAC2B2DDF0B07FA2B7",
              "parts": {
                "total": "1",
                "hash": "E1D7269B437C98372B3545DCCE34BBE89770CBFD"
              }
            },
            "signature": {
              "type": "tendermint/SignatureEd25519",
              "value": "WbnzoNPkTjLaOD2j9Xig1mbWA3zMNshuRkhUTUcPm+NVl+C9QhGIXu4MCrVqhd0hZOTZoSl4A1UijaxGkJWiBw=="
            }
          },
          {
            "validator_address": "48E5118163E5442068A1B5A42D2EEDBB75724935",
            "validator_index": "26",
            "height": "23715",
            "round": "0",
            "timestamp": "2018-07-31T21:06:56.86874593Z",
            "type": 2,
            "block_id": {
              "hash": "0027E919486AF508D3BE09AAC2B2DDF0B07FA2B7",
              "parts": {
                "total": "1",
                "hash": "E1D7269B437C98372B3545DCCE34BBE89770CBFD"
              }
            },
            "signature": {
              "type": "tendermint/SignatureEd25519",
              "value": "qccGZiCpc+X8KtD6n7AIDWvaCvpZchbIMFJgI2RrUVBpiATEhWpdch4Xq5Hpy4stLuCdNLe/jRDDL/jSa6FzAw=="
            }
          },
          {
            "validator_address": "49103C58AFD9C7C069F55EBA218F3DFD9AEA74F9",
            "validator_index": "27",
            "height": "23715",
            "round": "0",
            "timestamp": "2018-07-31T21:06:56.760759158Z",
            "type": 2,
            "block_id": {
              "hash": "0027E919486AF508D3BE09AAC2B2DDF0B07FA2B7",
              "parts": {
                "total": "1",
                "hash": "E1D7269B437C98372B3545DCCE34BBE89770CBFD"
              }
            },
            "signature": {
              "type": "tendermint/SignatureEd25519",
              "value": "nrfctg2NLXzA9Ltpd6p7EsBOZ/Z16AhDI5/KCsVi2f+DsANyJHGqlZy//HqXQHrkuxD9qDXoxDoksV8fbxHKBw=="
            }
          },
          {
            "validator_address": "4944F8BBBB5303E17BC0607DF332320EDBC750EA",
            "validator_index": "28",
            "height": "23715",
            "round": "0",
            "timestamp": "2018-07-31T21:06:56.693620794Z",
            "type": 2,
            "block_id": {
              "hash": "0027E919486AF508D3BE09AAC2B2DDF0B07FA2B7",
              "parts": {
                "total": "1",
                "hash": "E1D7269B437C98372B3545DCCE34BBE89770CBFD"
              }
            },
            "signature": {
              "type": "tendermint/SignatureEd25519",
              "value": "Up//FA/xBy/AGJlk7+GjR+p4UJtod5k9owBay+83vpd7OxvolGKL8zF/aGSr6XecUvPiq4e44btOpIKgqgzACw=="
            }
          },
          {
            "validator_address": "49841599DE675157CBE1E7D6B35BF8FFC23BD5CB",
            "validator_index": "29",
            "height": "23715",
            "round": "0",
            "timestamp": "2018-07-31T21:06:56.650556329Z",
            "type": 2,
            "block_id": {
              "hash": "0027E919486AF508D3BE09AAC2B2DDF0B07FA2B7",
              "parts": {
                "total": "1",
                "hash": "E1D7269B437C98372B3545DCCE34BBE89770CBFD"
              }
            },
            "signature": {
              "type": "tendermint/SignatureEd25519",
              "value": "Ek38JPtWJQUGZ71OwFBPdYvjSBNxdgq5uXcl6uBbxetHWF2TMIKLU9Ck5m4c7Dgxs7QhL8c7ORnMkBEsJ+TQCg=="
            }
          },
          {
            "validator_address": "51386C2CF9556821D114D7E4945806802BADB28D",
            "validator_index": "30",
            "height": "23715",
            "round": "0",
            "timestamp": "2018-07-31T21:06:56.740421856Z",
            "type": 2,
            "block_id": {
              "hash": "0027E919486AF508D3BE09AAC2B2DDF0B07FA2B7",
              "parts": {
                "total": "1",
                "hash": "E1D7269B437C98372B3545DCCE34BBE89770CBFD"
              }
            },
            "signature": {
              "type": "tendermint/SignatureEd25519",
              "value": "pUo8jW5Tj1qvRI0UoH85dIq1j5vBZGb+qiz7HuURyYCYVHG6vsknuNSyCz63fnsbOZwtCFz76LhxOjh/21fsBQ=="
            }
          },
          {
            "validator_address": "543564ECA3AFEFADC73EE8591AAC3A96F079BC8A",
            "validator_index": "31",
            "height": "23715",
            "round": "0",
            "timestamp": "2018-07-31T21:06:56.701377426Z",
            "type": 2,
            "block_id": {
              "hash": "0027E919486AF508D3BE09AAC2B2DDF0B07FA2B7",
              "parts": {
                "total": "1",
                "hash": "E1D7269B437C98372B3545DCCE34BBE89770CBFD"
              }
            },
            "signature": {
              "type": "tendermint/SignatureEd25519",
              "value": "+EgZPw2CX755vie74zRdSOrXdpDb/AuQwIwyjKbbtSpwYn1zWtYpgwOOgbhG0q7R50nLrYTaQc9sg5R9c058DQ=="
            }
          },
          {
            "validator_address": "55D67B1A6DC13E96F8754A5A42EABC20F7F86664",
            "validator_index": "32",
            "height": "23715",
            "round": "0",
            "timestamp": "2018-07-31T21:06:56.720807899Z",
            "type": 2,
            "block_id": {
              "hash": "0027E919486AF508D3BE09AAC2B2DDF0B07FA2B7",
              "parts": {
                "total": "1",
                "hash": "E1D7269B437C98372B3545DCCE34BBE89770CBFD"
              }
            },
            "signature": {
              "type": "tendermint/SignatureEd25519",
              "value": "09gIUbayihh1cQsPAchf3ntKzpp6FUJkJjohN+UHc+4HShpwZjy7Tx6EgutgxW3IoRrOlfsfKhoYAYg5nc1GBw=="
            }
          },
          {
            "validator_address": "570B6A755ED339EAC56BB3390A48069F6AC9449B",
            "validator_index": "33",
            "height": "23715",
            "round": "0",
            "timestamp": "2018-07-31T21:07:01.181840646Z",
            "type": 2,
            "block_id": {
              "hash": "0027E919486AF508D3BE09AAC2B2DDF0B07FA2B7",
              "parts": {
                "total": "1",
                "hash": "E1D7269B437C98372B3545DCCE34BBE89770CBFD"
              }
            },
            "signature": {
              "type": "tendermint/SignatureEd25519",
              "value": "9fEEqhUY4HH3qKK78Q14xq7tVqv9Sxb2p4yitr4mAOiC7I4WRPvdIrazBmI3Y7rYmN2LcTn6Y4laXF00CmnKCg=="
            }
          },
          {
            "validator_address": "5BDF8EA41B1835FBAD865B181A2A4B23F511B5E4",
            "validator_index": "34",
            "height": "23715",
            "round": "0",
            "timestamp": "2018-07-31T21:06:56.682393744Z",
            "type": 2,
            "block_id": {
              "hash": "0027E919486AF508D3BE09AAC2B2DDF0B07FA2B7",
              "parts": {
                "total": "1",
                "hash": "E1D7269B437C98372B3545DCCE34BBE89770CBFD"
              }
            },
            "signature": {
              "type": "tendermint/SignatureEd25519",
              "value": "8bDXS+yGecbNmiQ20nBnFrRW86eVT78aLMpDE+Mvx/zUKcXjW+H8/fNEak1pmQ4DltxtRtZp+dwm6W+8xfPgAw=="
            }
          },
          {
            "validator_address": "60229E2E273297FE00219E46DFFB8F76844CDEF9",
            "validator_index": "35",
            "height": "23715",
            "round": "0",
            "timestamp": "2018-07-31T21:06:55.310170938Z",
            "type": 2,
            "block_id": {
              "hash": "0027E919486AF508D3BE09AAC2B2DDF0B07FA2B7",
              "parts": {
                "total": "1",
                "hash": "E1D7269B437C98372B3545DCCE34BBE89770CBFD"
              }
            },
            "signature": {
              "type": "tendermint/SignatureEd25519",
              "value": "SqWId/MqrSp+pGIVDm9NLUKCGPQcV/HVaPeG1L3MThpBiz8KddTxGWvrO7enW4f7E3XwCnSyjoF+qEqiBpO4Aw=="
            }
          },
          {
            "validator_address": "62410D6D1CD98278136E4D0738AA0EA273CDFC54",
            "validator_index": "36",
            "height": "23715",
            "round": "0",
            "timestamp": "2018-07-31T21:06:56.66564128Z",
            "type": 2,
            "block_id": {
              "hash": "0027E919486AF508D3BE09AAC2B2DDF0B07FA2B7",
              "parts": {
                "total": "1",
                "hash": "E1D7269B437C98372B3545DCCE34BBE89770CBFD"
              }
            },
            "signature": {
              "type": "tendermint/SignatureEd25519",
              "value": "r0U04WalHkYBBU2FXU5sOVIqjsVdubPNycw3iRa6+XrQ0Ye/tB7vg6oCoJpAYAnfa7zBWNk9L/R06XVOPjd8DQ=="
            }
          },
          {
            "validator_address": "632F5C139A5A9DFBFE5111DEE29FCFB6157207DC",
            "validator_index": "37",
            "height": "23715",
            "round": "0",
            "timestamp": "2018-07-31T21:06:56.74314259Z",
            "type": 2,
            "block_id": {
              "hash": "0027E919486AF508D3BE09AAC2B2DDF0B07FA2B7",
              "parts": {
                "total": "1",
                "hash": "E1D7269B437C98372B3545DCCE34BBE89770CBFD"
              }
            },
            "signature": {
              "type": "tendermint/SignatureEd25519",
              "value": "FFxCOiuKpBxPpcx6Yic/v4+LYVPciQFaYgJzYqGC0T4ESWEckXiTQ8CdCybUIdOoZ0cQ+SVlQrXjkkTrq9suBg=="
            }
          },
          {
            "validator_address": "64F57F8E796A9B7B590C1EFA4123988C86631D39",
            "validator_index": "38",
            "height": "23715",
            "round": "0",
            "timestamp": "2018-07-31T21:06:56.680310334Z",
            "type": 2,
            "block_id": {
              "hash": "0027E919486AF508D3BE09AAC2B2DDF0B07FA2B7",
              "parts": {
                "total": "1",
                "hash": "E1D7269B437C98372B3545DCCE34BBE89770CBFD"
              }
            },
            "signature": {
              "type": "tendermint/SignatureEd25519",
              "value": "bnjaE3jNXbvNPYSTXRfhdWfZdDopmdjhjEeaj/ofq4P1uZD7PjlniH4fb5PSQNoAvw9CnWqezyymXaXeegpIBw=="
            }
          },
          {
            "validator_address": "69D99B2C66043ACBEAA8447525C356AFC6408E0C",
            "validator_index": "39",
            "height": "23715",
            "round": "0",
            "timestamp": "2018-07-31T21:06:56.828995206Z",
            "type": 2,
            "block_id": {
              "hash": "0027E919486AF508D3BE09AAC2B2DDF0B07FA2B7",
              "parts": {
                "total": "1",
                "hash": "E1D7269B437C98372B3545DCCE34BBE89770CBFD"
              }
            },
            "signature": {
              "type": "tendermint/SignatureEd25519",
              "value": "okLMraoeHguxsbglx5mDFJ6N++mr93FiZsOcnTNTOFWLtUAqr8wZuPhMSnbRXP9vrzbIOR7KhgvdzJVoYj5zAQ=="
            }
          },
          {
            "validator_address": "69EDADFA4A803E9DBF548C900D4A465E7D154262",
            "validator_index": "40",
            "height": "23715",
            "round": "0",
            "timestamp": "2018-07-31T21:06:56.749475113Z",
            "type": 2,
            "block_id": {
              "hash": "0027E919486AF508D3BE09AAC2B2DDF0B07FA2B7",
              "parts": {
                "total": "1",
                "hash": "E1D7269B437C98372B3545DCCE34BBE89770CBFD"
              }
            },
            "signature": {
              "type": "tendermint/SignatureEd25519",
              "value": "3UNkE3FUokgY36ofkA8cxHvu6XylsUUGiyc5I2HP4x85GL6Aq07Hi4kMtyCvE8bSH0Q0IsJB8lHwDN74Hu+mAg=="
            }
          },
          {
            "validator_address": "6D3AD380E398D8592B03AA124BAFED5F125DF863",
            "validator_index": "41",
            "height": "23715",
            "round": "0",
            "timestamp": "2018-07-31T21:05:54.669496333Z",
            "type": 2,
            "block_id": {
              "hash": "0027E919486AF508D3BE09AAC2B2DDF0B07FA2B7",
              "parts": {
                "total": "1",
                "hash": "E1D7269B437C98372B3545DCCE34BBE89770CBFD"
              }
            },
            "signature": {
              "type": "tendermint/SignatureEd25519",
              "value": "UpuaKnbepBilS8RdVRoBX9dGeHso6zkCe9Apk3ly8rp7mCWz6HXxKbXkKfwJWAgtZsyC6WOQRVzClDXXCRzmDA=="
            }
          },
          {
            "validator_address": "6F6C93B8BF3495063FEC9B5C771158607F4AE9D6",
            "validator_index": "42",
            "height": "23715",
            "round": "0",
            "timestamp": "2018-07-31T21:06:56.852033162Z",
            "type": 2,
            "block_id": {
              "hash": "0027E919486AF508D3BE09AAC2B2DDF0B07FA2B7",
              "parts": {
                "total": "1",
                "hash": "E1D7269B437C98372B3545DCCE34BBE89770CBFD"
              }
            },
            "signature": {
              "type": "tendermint/SignatureEd25519",
              "value": "xClAR6S3i9lxtE74xvwPmpZBZYq502Ne/+FEoXPvWacrxWDT/jhljO4bHb2uFP2HgIyTGnxoaz8U7pVbbNITDQ=="
            }
          },
          {
            "validator_address": "732CEEF54C374DDC6ADECBFD707AEFD07FEDC143",
            "validator_index": "43",
            "height": "23715",
            "round": "0",
            "timestamp": "2018-07-31T21:06:56.777349702Z",
            "type": 2,
            "block_id": {
              "hash": "0027E919486AF508D3BE09AAC2B2DDF0B07FA2B7",
              "parts": {
                "total": "1",
                "hash": "E1D7269B437C98372B3545DCCE34BBE89770CBFD"
              }
            },
            "signature": {
              "type": "tendermint/SignatureEd25519",
              "value": "p6B6kJCwVNQbQFyTLnHTv1oj3qgjSuzSHDFK6+WZC9krDUiwZqLrxZQuxhGAX/qybnMul0toy0IU7jT4zgw2CA=="
            }
          },
          {
            "validator_address": "7393D691BFAE9661918C09932D4D9060AB40939B",
            "validator_index": "44",
            "height": "23715",
            "round": "0",
            "timestamp": "2018-07-31T21:06:56.859813589Z",
            "type": 2,
            "block_id": {
              "hash": "0027E919486AF508D3BE09AAC2B2DDF0B07FA2B7",
              "parts": {
                "total": "1",
                "hash": "E1D7269B437C98372B3545DCCE34BBE89770CBFD"
              }
            },
            "signature": {
              "type": "tendermint/SignatureEd25519",
              "value": "ocTuujvkF8BVa8acjcmRuffNa9ASHwOFT6HXyJfto5s38hbd3POHok/uwACOiAQBkmsKvmdF644OmThf7uizCA=="
            }
          },
          {
            "validator_address": "751E43437224E8BB6D1569B3E2B2616B6E7F4397",
            "validator_index": "45",
            "height": "23715",
            "round": "0",
            "timestamp": "2018-07-31T21:06:56.759184037Z",
            "type": 2,
            "block_id": {
              "hash": "0027E919486AF508D3BE09AAC2B2DDF0B07FA2B7",
              "parts": {
                "total": "1",
                "hash": "E1D7269B437C98372B3545DCCE34BBE89770CBFD"
              }
            },
            "signature": {
              "type": "tendermint/SignatureEd25519",
              "value": "ydVnPJSZ34jer22oRPh7xaoJsbhW9k2NAMEkfLYrZUIg8HIJgv/frwZTxQUitPvIDAW0BAxGd0miUKBe874JCw=="
            }
          },
          {
            "validator_address": "7EB7593F519F1180C7E872D0494611464EDF03AE",
            "validator_index": "46",
            "height": "23715",
            "round": "0",
            "timestamp": "2018-07-31T21:06:56.792306967Z",
            "type": 2,
            "block_id": {
              "hash": "0027E919486AF508D3BE09AAC2B2DDF0B07FA2B7",
              "parts": {
                "total": "1",
                "hash": "E1D7269B437C98372B3545DCCE34BBE89770CBFD"
              }
            },
            "signature": {
              "type": "tendermint/SignatureEd25519",
              "value": "2JNCUVOMR6Vli/1QR2h3O61sKmi/aSpkIg/6RIHB1fY2Ua/+uRPmoroJqLK7ySIy1jh+wdjSamTuEN4azQ43DQ=="
            }
          },
          {
            "validator_address": "807CF675BA8479FC4FEC1047215DF07970040F1F",
            "validator_index": "47",
            "height": "23715",
            "round": "0",
            "timestamp": "2018-07-31T21:06:57.087556734Z",
            "type": 2,
            "block_id": {
              "hash": "0027E919486AF508D3BE09AAC2B2DDF0B07FA2B7",
              "parts": {
                "total": "1",
                "hash": "E1D7269B437C98372B3545DCCE34BBE89770CBFD"
              }
            },
            "signature": {
              "type": "tendermint/SignatureEd25519",
              "value": "MhWNtphtBMxKuCtYHuffpcNzk8z2FaX0F+sfUC1q601Ms4sLuUV3PAygXn+QFOn1A46jWdVldCdqTf56rTP3BA=="
            }
          },
          {
            "validator_address": "83AB321E012C57746689FED3A6064DF331F81007",
            "validator_index": "48",
            "height": "23715",
            "round": "0",
            "timestamp": "2018-07-31T21:06:56.678908929Z",
            "type": 2,
            "block_id": {
              "hash": "0027E919486AF508D3BE09AAC2B2DDF0B07FA2B7",
              "parts": {
                "total": "1",
                "hash": "E1D7269B437C98372B3545DCCE34BBE89770CBFD"
              }
            },
            "signature": {
              "type": "tendermint/SignatureEd25519",
              "value": "NlL51/aZIF6kfVGaHb7ahBV5WQpfu9b1OASPmfUqHePX3bc7kGdVnS8U1r/W8MNfqBAeuGGGVEZhxkQyWf20CQ=="
            }
          },
          {
            "validator_address": "83BB1B88D3DBB20AD845FECA07749EBD87D3754D",
            "validator_index": "49",
            "height": "23715",
            "round": "0",
            "timestamp": "2018-07-31T21:06:56.934460673Z",
            "type": 2,
            "block_id": {
              "hash": "0027E919486AF508D3BE09AAC2B2DDF0B07FA2B7",
              "parts": {
                "total": "1",
                "hash": "E1D7269B437C98372B3545DCCE34BBE89770CBFD"
              }
            },
            "signature": {
              "type": "tendermint/SignatureEd25519",
              "value": "Ju44TA1rqDjY1NQbq8mVN7Y09zhgiVK179z9ut+SHu4hnhwGkYm1yjzOh/ccyGB1rW+muIKG5K1Pd8Qyeq3XBA=="
            }
          },
          {
            "validator_address": "8F06FE1FD042683C426137FBC4BBAA4288924217",
            "validator_index": "50",
            "height": "23715",
            "round": "0",
            "timestamp": "2018-07-31T21:06:56.719450802Z",
            "type": 2,
            "block_id": {
              "hash": "0027E919486AF508D3BE09AAC2B2DDF0B07FA2B7",
              "parts": {
                "total": "1",
                "hash": "E1D7269B437C98372B3545DCCE34BBE89770CBFD"
              }
            },
            "signature": {
              "type": "tendermint/SignatureEd25519",
              "value": "51qyeAqnyRSPh7FsjNOB0Iw4gfii4bzUwLshjnBi5SFIOmLKflw027YNP+FNKVXETtkXJe3U04dYHrMW+JBDAA=="
            }
          },
          {
            "validator_address": "8F45617BF45B10A3F8283DEBDB35E38C7CA43237",
            "validator_index": "51",
            "height": "23715",
            "round": "0",
            "timestamp": "2018-07-31T21:06:56.692871331Z",
            "type": 2,
            "block_id": {
              "hash": "0027E919486AF508D3BE09AAC2B2DDF0B07FA2B7",
              "parts": {
                "total": "1",
                "hash": "E1D7269B437C98372B3545DCCE34BBE89770CBFD"
              }
            },
            "signature": {
              "type": "tendermint/SignatureEd25519",
              "value": "DLQtUX4Gn4zIETZcED8svIVSzAybqeMPbI6tMiPIkqIZl5/mUV5kgMpTdc6eNYFio3p/jzh0NLsvNrntPxa7Cg=="
            }
          },
          {
            "validator_address": "95980831E186F2540F6E9FB6C8E74DE2401405AC",
            "validator_index": "52",
            "height": "23715",
            "round": "0",
            "timestamp": "2018-07-31T21:06:56.780197209Z",
            "type": 2,
            "block_id": {
              "hash": "0027E919486AF508D3BE09AAC2B2DDF0B07FA2B7",
              "parts": {
                "total": "1",
                "hash": "E1D7269B437C98372B3545DCCE34BBE89770CBFD"
              }
            },
            "signature": {
              "type": "tendermint/SignatureEd25519",
              "value": "/2Ly0VySm8Z0bY3ap/0ebMW/YZF1yaxBn6U2KOzjoS6e64jiDlavuC3ZY24Qdc8QZaDI8taUImC64a1dhEyFAQ=="
            }
          },
          {
            "validator_address": "95FAFBC1E0579C83D290A063020CE87C5334BD9B",
            "validator_index": "53",
            "height": "23715",
            "round": "0",
            "timestamp": "2018-07-31T21:06:56.736930461Z",
            "type": 2,
            "block_id": {
              "hash": "0027E919486AF508D3BE09AAC2B2DDF0B07FA2B7",
              "parts": {
                "total": "1",
                "hash": "E1D7269B437C98372B3545DCCE34BBE89770CBFD"
              }
            },
            "signature": {
              "type": "tendermint/SignatureEd25519",
              "value": "lxO+YU4aK42UNR+q5eQDKWUbPTZuee2lrR244YaBBAyqzNf3w0EXK+vE/yKn7bGdWY/hP/SwMdF0aVm5wFZhDg=="
            }
          },
          {
            "validator_address": "96BDE45EC52606CF5CB59853097871AD60680549",
            "validator_index": "54",
            "height": "23715",
            "round": "0",
            "timestamp": "2018-07-31T21:06:56.682662768Z",
            "type": 2,
            "block_id": {
              "hash": "0027E919486AF508D3BE09AAC2B2DDF0B07FA2B7",
              "parts": {
                "total": "1",
                "hash": "E1D7269B437C98372B3545DCCE34BBE89770CBFD"
              }
            },
            "signature": {
              "type": "tendermint/SignatureEd25519",
              "value": "4q+ycjcrZBEu42qoowWp6rSe5rJuyFyRGdBJA1CHbTDbR7/qXrfB0QwFnS7+1eoJ2VCqgLGL7yCrE152PoGIAw=="
            }
          },
          {
            "validator_address": "970CD321881185BF83DB2923C321B0E75FDBB2B8",
            "validator_index": "55",
            "height": "23715",
            "round": "0",
            "timestamp": "2018-07-31T21:06:56.824836641Z",
            "type": 2,
            "block_id": {
              "hash": "0027E919486AF508D3BE09AAC2B2DDF0B07FA2B7",
              "parts": {
                "total": "1",
                "hash": "E1D7269B437C98372B3545DCCE34BBE89770CBFD"
              }
            },
            "signature": {
              "type": "tendermint/SignatureEd25519",
              "value": "6B94g7FxO2QpgntYH0QOGIBCXmYVE2HWtd9tEkLRfT2hky1H5+OlZStMGr6QR5+lD96cNf47LxR9Ol61vrwrCA=="
            }
          },
          {
            "validator_address": "97DBB3D4B3D6C29287244864448F651DD5B07390",
            "validator_index": "56",
            "height": "23715",
            "round": "0",
            "timestamp": "2018-07-31T21:06:56.969478554Z",
            "type": 2,
            "block_id": {
              "hash": "0027E919486AF508D3BE09AAC2B2DDF0B07FA2B7",
              "parts": {
                "total": "1",
                "hash": "E1D7269B437C98372B3545DCCE34BBE89770CBFD"
              }
            },
            "signature": {
              "type": "tendermint/SignatureEd25519",
              "value": "wl7CSdwDSDGYQOkFdfgoRm3LTD/X2N1R/Zi4z3lT5dPI+WrkIgGqZrAHbU6TIAM6L00UqPvYdw7ugjy0rFwcCw=="
            }
          },
          {
            "validator_address": "9C29C9B76D27586E4D9AD2AED0E943162645E55C",
            "validator_index": "57",
            "height": "23715",
            "round": "0",
            "timestamp": "2018-07-31T21:06:56.646771235Z",
            "type": 2,
            "block_id": {
              "hash": "0027E919486AF508D3BE09AAC2B2DDF0B07FA2B7",
              "parts": {
                "total": "1",
                "hash": "E1D7269B437C98372B3545DCCE34BBE89770CBFD"
              }
            },
            "signature": {
              "type": "tendermint/SignatureEd25519",
              "value": "9TGu6+IndCRko1aVYZzTeRVwX/W6G6andaoNky7rf/Hl0b7J7HhVEasEcbfaMtjUa1exThtlXQAaBcfN1vj+Bg=="
            }
          },
          {
            "validator_address": "9D93AD02FE1BD7E76B9E58D7EB461088EAD011E5",
            "validator_index": "58",
            "height": "23715",
            "round": "0",
            "timestamp": "2018-07-31T21:06:56.684235471Z",
            "type": 2,
            "block_id": {
              "hash": "0027E919486AF508D3BE09AAC2B2DDF0B07FA2B7",
              "parts": {
                "total": "1",
                "hash": "E1D7269B437C98372B3545DCCE34BBE89770CBFD"
              }
            },
            "signature": {
              "type": "tendermint/SignatureEd25519",
              "value": "EVj8VOY1GF+UngajeQBzVtM6RdJmkUpXGE2A0/jCneWvo1zWaufp5DkB/vmn7K9k34OWG1dCFuBYKnzb6iLrBg=="
            }
          },
          {
            "validator_address": "A0A6466F4ABEA09C3B55E3709AFDE217A103209F",
            "validator_index": "59",
            "height": "23715",
            "round": "0",
            "timestamp": "2018-07-31T21:06:56.675078676Z",
            "type": 2,
            "block_id": {
              "hash": "0027E919486AF508D3BE09AAC2B2DDF0B07FA2B7",
              "parts": {
                "total": "1",
                "hash": "E1D7269B437C98372B3545DCCE34BBE89770CBFD"
              }
            },
            "signature": {
              "type": "tendermint/SignatureEd25519",
              "value": "+VtUGhYZ3fAq4o+uSMI3T+8mXf0XGrZXaT8zb5uMg8m+G3wdhpgk2G/HuB5zVOqb0JUdFrszE7Z72KeMkOy3BQ=="
            }
          },
          {
            "validator_address": "A5868971300F155020634D7BB49C7634F7AACCD3",
            "validator_index": "60",
            "height": "23715",
            "round": "0",
            "timestamp": "2018-07-31T21:06:56.746972802Z",
            "type": 2,
            "block_id": {
              "hash": "0027E919486AF508D3BE09AAC2B2DDF0B07FA2B7",
              "parts": {
                "total": "1",
                "hash": "E1D7269B437C98372B3545DCCE34BBE89770CBFD"
              }
            },
            "signature": {
              "type": "tendermint/SignatureEd25519",
              "value": "hkWO1mnsvtieceGpcVsdh8q3CXwv1bMb8O2d1sw2PFU2NDeOz9nlDJ/lv8uj9/Mxtw3wp1ZL+mIC+PH+5ehMDw=="
            }
          },
          {
            "validator_address": "A6B3A5B5D982CFD7B5FDFA15CF5A720E7AE25E7F",
            "validator_index": "61",
            "height": "23715",
            "round": "0",
            "timestamp": "2018-07-31T21:06:56.717353757Z",
            "type": 2,
            "block_id": {
              "hash": "0027E919486AF508D3BE09AAC2B2DDF0B07FA2B7",
              "parts": {
                "total": "1",
                "hash": "E1D7269B437C98372B3545DCCE34BBE89770CBFD"
              }
            },
            "signature": {
              "type": "tendermint/SignatureEd25519",
              "value": "43QISeRyENMK8QHZgjF1zkuBTMVCdzr1HjEEeynOO9+ntzLDZW730rgRNQu2+7sAQ2/MhhijB3KxCPGOZm25Bg=="
            }
          },
          {
            "validator_address": "AC96444A9083890B7C7B430DB17BF1D3EA5EED04",
            "validator_index": "62",
            "height": "23715",
            "round": "0",
            "timestamp": "2018-07-31T21:06:56.730476277Z",
            "type": 2,
            "block_id": {
              "hash": "0027E919486AF508D3BE09AAC2B2DDF0B07FA2B7",
              "parts": {
                "total": "1",
                "hash": "E1D7269B437C98372B3545DCCE34BBE89770CBFD"
              }
            },
            "signature": {
              "type": "tendermint/SignatureEd25519",
              "value": "/tY1qCrEd+JW4f/EweStbLAhYyMVkB3nxWsip5nLBfGSyzt65e48h8GGVOIiMImiuwqxcAPM5g9UJ9AtxxJsDg=="
            }
          },
          {
            "validator_address": "ACB97FDA2D940AF0709B73537C458EB988AD2893",
            "validator_index": "63",
            "height": "23715",
            "round": "0",
            "timestamp": "2018-07-31T21:06:56.656272291Z",
            "type": 2,
            "block_id": {
              "hash": "0027E919486AF508D3BE09AAC2B2DDF0B07FA2B7",
              "parts": {
                "total": "1",
                "hash": "E1D7269B437C98372B3545DCCE34BBE89770CBFD"
              }
            },
            "signature": {
              "type": "tendermint/SignatureEd25519",
              "value": "1fq0sgiRJ8F6yAcvcy/DqnKnvJZhsjt0v9531tLaBeF0deNXDSmFPb+AmccnKLcsN6rKRRgjnVWVKpGcNutvCA=="
            }
          },
          {
            "validator_address": "B197425B3210375F211661DE02EF2AE36580EB0F",
            "validator_index": "64",
            "height": "23715",
            "round": "0",
            "timestamp": "2018-07-31T21:06:56.782776276Z",
            "type": 2,
            "block_id": {
              "hash": "0027E919486AF508D3BE09AAC2B2DDF0B07FA2B7",
              "parts": {
                "total": "1",
                "hash": "E1D7269B437C98372B3545DCCE34BBE89770CBFD"
              }
            },
            "signature": {
              "type": "tendermint/SignatureEd25519",
              "value": "XdfpjqRiJmpfIGBJ3zZueIYF98/RLzVZHuAqowYkb6uPYNNzoR2fjMWzgcwcIxtwlaYd3mzceub+9eii1KxgCg=="
            }
          },
          {
            "validator_address": "B45E54D2D1CB5A4CCD1D49016608C18E7C56B270",
            "validator_index": "65",
            "height": "23715",
            "round": "0",
            "timestamp": "2018-07-31T21:06:56.831058132Z",
            "type": 2,
            "block_id": {
              "hash": "0027E919486AF508D3BE09AAC2B2DDF0B07FA2B7",
              "parts": {
                "total": "1",
                "hash": "E1D7269B437C98372B3545DCCE34BBE89770CBFD"
              }
            },
            "signature": {
              "type": "tendermint/SignatureEd25519",
              "value": "PMBFrToHbA6qp9WBRhC0syEnMmyfg/dAZJw2DKv6MbiiJ7VivwpweHNdGLVEdnbuTw3aw7zQQsWnVqXNKCL5Bw=="
            }
          },
          {
            "validator_address": "B59A34C0BE4EC73AF6A67D274F1695C9259C237C",
            "validator_index": "66",
            "height": "23715",
            "round": "0",
            "timestamp": "2018-07-31T21:06:56.958899515Z",
            "type": 2,
            "block_id": {
              "hash": "0027E919486AF508D3BE09AAC2B2DDF0B07FA2B7",
              "parts": {
                "total": "1",
                "hash": "E1D7269B437C98372B3545DCCE34BBE89770CBFD"
              }
            },
            "signature": {
              "type": "tendermint/SignatureEd25519",
              "value": "adeqSL6B3IV05VZbXldenZ7djAgLPZzHZX1OouU7V0njoncHQy0V/POR8h1QCcd8qQuZDnFkbU61WMfqX8mMBA=="
            }
          },
          {
            "validator_address": "BB1276BE89834835428664408917649FEEF5D90C",
            "validator_index": "67",
            "height": "23715",
            "round": "0",
            "timestamp": "2018-07-31T21:06:56.798739095Z",
            "type": 2,
            "block_id": {
              "hash": "0027E919486AF508D3BE09AAC2B2DDF0B07FA2B7",
              "parts": {
                "total": "1",
                "hash": "E1D7269B437C98372B3545DCCE34BBE89770CBFD"
              }
            },
            "signature": {
              "type": "tendermint/SignatureEd25519",
              "value": "CJJj5hL4RulN6S0nv9l79HR7KvOX1Gxtz0N0NKPFK2txznlozShR2Ot23MXoMjUHPpn/64KncdNY4HPNxY3+AQ=="
            }
          },
          {
            "validator_address": "BC36FEDD6EF6071118A3E51859DF3831A2EC4782",
            "validator_index": "68",
            "height": "23715",
            "round": "0",
            "timestamp": "2018-07-31T21:06:56.744837741Z",
            "type": 2,
            "block_id": {
              "hash": "0027E919486AF508D3BE09AAC2B2DDF0B07FA2B7",
              "parts": {
                "total": "1",
                "hash": "E1D7269B437C98372B3545DCCE34BBE89770CBFD"
              }
            },
            "signature": {
              "type": "tendermint/SignatureEd25519",
              "value": "42XNEWKzEqJGsTdqo2DY9QS3VTpO3bNupk6hGBSmmYHWXRoompj4bxnTcjEt+0Plzbxb2sPtVu6iaLeNQMAbDA=="
            }
          },
          {
            "validator_address": "BD9D0DA513BF099DB4BB6E725A4E19832789882F",
            "validator_index": "69",
            "height": "23715",
            "round": "0",
            "timestamp": "2018-07-31T21:06:56.720871391Z",
            "type": 2,
            "block_id": {
              "hash": "0027E919486AF508D3BE09AAC2B2DDF0B07FA2B7",
              "parts": {
                "total": "1",
                "hash": "E1D7269B437C98372B3545DCCE34BBE89770CBFD"
              }
            },
            "signature": {
              "type": "tendermint/SignatureEd25519",
              "value": "Gpe0q+j7FBVsGqPNGfzXpJsg5iY6tsbFDvA4NmbijgdyQLGp0xUtautL6NDoVMMewM6DOT0Bm8NLwtrzLZj4Aw=="
            }
          },
          {
            "validator_address": "C1134A2FF8F7338E7CDB3FE57DDD2A655DEB1E22",
            "validator_index": "70",
            "height": "23715",
            "round": "0",
            "timestamp": "2018-07-31T21:06:55.830698126Z",
            "type": 2,
            "block_id": {
              "hash": "0027E919486AF508D3BE09AAC2B2DDF0B07FA2B7",
              "parts": {
                "total": "1",
                "hash": "E1D7269B437C98372B3545DCCE34BBE89770CBFD"
              }
            },
            "signature": {
              "type": "tendermint/SignatureEd25519",
              "value": "Sq3T19FJS+CzAw87LQFgHhRbCCzaE2Ir6dvKlV2N9K/tzE/9wmRfsU1jqKF/ZTL3+GwK6rVRvKXRL71KFL30Dw=="
            }
          },
          {
            "validator_address": "C39A8A2B85198DCB8F23AD1F6C198E2BA7AB5D60",
            "validator_index": "71",
            "height": "23715",
            "round": "0",
            "timestamp": "2018-07-31T21:06:56.857345649Z",
            "type": 2,
            "block_id": {
              "hash": "0027E919486AF508D3BE09AAC2B2DDF0B07FA2B7",
              "parts": {
                "total": "1",
                "hash": "E1D7269B437C98372B3545DCCE34BBE89770CBFD"
              }
            },
            "signature": {
              "type": "tendermint/SignatureEd25519",
              "value": "iyK7VV1DFVD7uqqSRQeKWpg8V7v8B+8IFZgKVMUHlqnBadt6G7DiUoFgBVtt2yr/Z0nvv5s1L0Q3YKMtec1ZBw=="
            }
          },
          {
            "validator_address": "C4335190C3B5BD4BA5568BC0F99C34162D940D08",
            "validator_index": "72",
            "height": "23715",
            "round": "0",
            "timestamp": "2018-07-31T21:06:56.80367644Z",
            "type": 2,
            "block_id": {
              "hash": "0027E919486AF508D3BE09AAC2B2DDF0B07FA2B7",
              "parts": {
                "total": "1",
                "hash": "E1D7269B437C98372B3545DCCE34BBE89770CBFD"
              }
            },
            "signature": {
              "type": "tendermint/SignatureEd25519",
              "value": "VsoCILtGADRpQasKhg2+yo0mjZ5QRy51L8LKf4O6IBjOOSL1rjG+TIHu4LEY/T0F6Px0RUpt8C2HaECrH0uDAQ=="
            }
          },
          {
            "validator_address": "C561CFA081677046376396922E7576E5F7B316AD",
            "validator_index": "73",
            "height": "23715",
            "round": "0",
            "timestamp": "2018-07-31T21:06:56.844462541Z",
            "type": 2,
            "block_id": {
              "hash": "0027E919486AF508D3BE09AAC2B2DDF0B07FA2B7",
              "parts": {
                "total": "1",
                "hash": "E1D7269B437C98372B3545DCCE34BBE89770CBFD"
              }
            },
            "signature": {
              "type": "tendermint/SignatureEd25519",
              "value": "CAwiTZu5rfvXx/GCJG8doG2Y26LXinyaq/yPpJ9ihk+onRs40TXNgAQViiFwmHo9sOGcmtX23YWmTzKvfq+OBA=="
            }
          },
          {
            "validator_address": "CE589EA77B056D268D30D1DC1D68A70E0F885E95",
            "validator_index": "74",
            "height": "23715",
            "round": "0",
            "timestamp": "2018-07-31T21:06:56.796773311Z",
            "type": 2,
            "block_id": {
              "hash": "0027E919486AF508D3BE09AAC2B2DDF0B07FA2B7",
              "parts": {
                "total": "1",
                "hash": "E1D7269B437C98372B3545DCCE34BBE89770CBFD"
              }
            },
            "signature": {
              "type": "tendermint/SignatureEd25519",
              "value": "Vj30a6jVdHF4ugxIDSq0lAjkCbLncbv2BpdjK03Io5d3VgbzNOAFkRb0zg7bggkuP8emp+wUO9QZ27dJUiq/CA=="
            }
          },
          {
            "validator_address": "CEB97DB5CB18270247ABDE6CF2F84F9AEE8A2904",
            "validator_index": "75",
            "height": "23715",
            "round": "0",
            "timestamp": "2018-07-31T21:06:57.089672881Z",
            "type": 2,
            "block_id": {
              "hash": "0027E919486AF508D3BE09AAC2B2DDF0B07FA2B7",
              "parts": {
                "total": "1",
                "hash": "E1D7269B437C98372B3545DCCE34BBE89770CBFD"
              }
            },
            "signature": {
              "type": "tendermint/SignatureEd25519",
              "value": "YQAcyen/Z3BOVCqNT69WUp/2U+689dvCWo11Hg9wSGcOy3XTaoZspjhQrvAAJTC1289FTDOf1Jbva7W5ThEwCA=="
            }
          },
          {
            "validator_address": "CF205769734F5758CC39F907EFB73D6BAF915FB1",
            "validator_index": "76",
            "height": "23715",
            "round": "0",
            "timestamp": "2018-07-31T21:06:56.812708578Z",
            "type": 2,
            "block_id": {
              "hash": "0027E919486AF508D3BE09AAC2B2DDF0B07FA2B7",
              "parts": {
                "total": "1",
                "hash": "E1D7269B437C98372B3545DCCE34BBE89770CBFD"
              }
            },
            "signature": {
              "type": "tendermint/SignatureEd25519",
              "value": "2j800A0NNi8GsqazksKIT7qpyzMEQ72KrXHpKHMlkAkFFXRNRJBu+ZvmPFauR1ERWdISXaDyFGSxI/UQBhj9Ag=="
            }
          },
          null,
          {
            "validator_address": "D6285C3422C8886445D53757CBE12D2B91B5A9D0",
            "validator_index": "78",
            "height": "23715",
            "round": "0",
            "timestamp": "2018-07-31T21:06:39.432653699Z",
            "type": 2,
            "block_id": {
              "hash": "0027E919486AF508D3BE09AAC2B2DDF0B07FA2B7",
              "parts": {
                "total": "1",
                "hash": "E1D7269B437C98372B3545DCCE34BBE89770CBFD"
              }
            },
            "signature": {
              "type": "tendermint/SignatureEd25519",
              "value": "+NCOltZ+Up0UvvOi3sLuLIeR+vlhQFwmyBiNdDNPcUXPrItsGk3h7Qzlmq3bCksfxqIK8gg6ZVbUP9XuCJERAw=="
            }
          },
          {
            "validator_address": "D77FB84A729972CD3E757C9BEB61561855832B92",
            "validator_index": "79",
            "height": "23715",
            "round": "0",
            "timestamp": "2018-07-31T21:06:56.840666791Z",
            "type": 2,
            "block_id": {
              "hash": "0027E919486AF508D3BE09AAC2B2DDF0B07FA2B7",
              "parts": {
                "total": "1",
                "hash": "E1D7269B437C98372B3545DCCE34BBE89770CBFD"
              }
            },
            "signature": {
              "type": "tendermint/SignatureEd25519",
              "value": "U8Jk/uj5n3uxyd3t+dRqKyZBsNaU3IbbvKOtDI3MijuWnZ//rCwa2Y37akV4GJoKo45FSiG2WYEtVLZBw3ZCBQ=="
            }
          },
          {
            "validator_address": "DB7E6732471D3EA5C90C17A9974D9F88AB45F2FB",
            "validator_index": "80",
            "height": "23715",
            "round": "0",
            "timestamp": "2018-07-31T21:06:56.763723392Z",
            "type": 2,
            "block_id": {
              "hash": "0027E919486AF508D3BE09AAC2B2DDF0B07FA2B7",
              "parts": {
                "total": "1",
                "hash": "E1D7269B437C98372B3545DCCE34BBE89770CBFD"
              }
            },
            "signature": {
              "type": "tendermint/SignatureEd25519",
              "value": "FqsdQbIBwaWTA06yDw0v/uNehsUB6iy/DIVZk4ypTp7cxTJfqJIAuVnajSvio9cI3RpiGuNL1MlisBLIluUvDA=="
            }
          },
          {
            "validator_address": "DF54B862410BCD9B5C516FBB6C56BDC826ED6FA7",
            "validator_index": "81",
            "height": "23715",
            "round": "0",
            "timestamp": "2018-07-31T21:06:56.811820117Z",
            "type": 2,
            "block_id": {
              "hash": "0027E919486AF508D3BE09AAC2B2DDF0B07FA2B7",
              "parts": {
                "total": "1",
                "hash": "E1D7269B437C98372B3545DCCE34BBE89770CBFD"
              }
            },
            "signature": {
              "type": "tendermint/SignatureEd25519",
              "value": "uu2VzelMOVqO8YW85RMCU5KhFuuZlRicrLcrJcFUt25b2pHj0HWqKP+IGk+NF1TzjAxDIkC14imNSMcZPRDvCg=="
            }
          },
          {
            "validator_address": "DFAF0C8B1B78D6D552B0189DE3ACA351439A1319",
            "validator_index": "82",
            "height": "23715",
            "round": "0",
            "timestamp": "2018-07-31T21:06:56.705318564Z",
            "type": 2,
            "block_id": {
              "hash": "0027E919486AF508D3BE09AAC2B2DDF0B07FA2B7",
              "parts": {
                "total": "1",
                "hash": "E1D7269B437C98372B3545DCCE34BBE89770CBFD"
              }
            },
            "signature": {
              "type": "tendermint/SignatureEd25519",
              "value": "MCW3TXA77obsvzD4DauiYSPpBgV9XJ0cJOwOZaHuinBCS+9cu0jvKD+PrkKzR8+MS5jlVLiB2b0/6VtHyz9yAA=="
            }
          },
          {
            "validator_address": "E1DBC77881161A5A3A8536A57536EAE546A75D69",
            "validator_index": "83",
            "height": "23715",
            "round": "0",
            "timestamp": "2018-07-31T21:06:56.626696892Z",
            "type": 2,
            "block_id": {
              "hash": "0027E919486AF508D3BE09AAC2B2DDF0B07FA2B7",
              "parts": {
                "total": "1",
                "hash": "E1D7269B437C98372B3545DCCE34BBE89770CBFD"
              }
            },
            "signature": {
              "type": "tendermint/SignatureEd25519",
              "value": "1Gx+kyoLgmEOYWddKIpx4lkg7pqW1Hv2pLqU/2ymAcDzAc++QFIbBCUQeuH9LzOnRIm+8xGa2wwcOfZF/1FEAg=="
            }
          },
          {
            "validator_address": "E300E9D484374C1D3E97C1D93CAC3B160A056298",
            "validator_index": "84",
            "height": "23715",
            "round": "0",
            "timestamp": "2018-07-31T21:06:57.066207254Z",
            "type": 2,
            "block_id": {
              "hash": "0027E919486AF508D3BE09AAC2B2DDF0B07FA2B7",
              "parts": {
                "total": "1",
                "hash": "E1D7269B437C98372B3545DCCE34BBE89770CBFD"
              }
            },
            "signature": {
              "type": "tendermint/SignatureEd25519",
              "value": "6g9lcroPkldslMRGnn5ykAlBMbxHTl+5Ni+wfjzSoUYcGcdTjHVAB1HKADMYska0jfTrznm53ZTT4Z5MIV1KAQ=="
            }
          },
          {
            "validator_address": "E39B5778E0D4297A46F45CF6940B0A163A430FF8",
            "validator_index": "85",
            "height": "23715",
            "round": "0",
            "timestamp": "2018-07-31T21:06:56.712740323Z",
            "type": 2,
            "block_id": {
              "hash": "0027E919486AF508D3BE09AAC2B2DDF0B07FA2B7",
              "parts": {
                "total": "1",
                "hash": "E1D7269B437C98372B3545DCCE34BBE89770CBFD"
              }
            },
            "signature": {
              "type": "tendermint/SignatureEd25519",
              "value": "caE5ntVzvSjzH1o3Sb4Vt6W5zB0tihp+Mj3JuN5XlBdODmChae+8a8L1QuuNfcmCuVqS9tEDy62IK8EdCa4FBQ=="
            }
          },
          {
            "validator_address": "E3B19738F7132F950668504D326C7660F159D170",
            "validator_index": "86",
            "height": "23715",
            "round": "0",
            "timestamp": "2018-07-31T21:06:56.693650257Z",
            "type": 2,
            "block_id": {
              "hash": "0027E919486AF508D3BE09AAC2B2DDF0B07FA2B7",
              "parts": {
                "total": "1",
                "hash": "E1D7269B437C98372B3545DCCE34BBE89770CBFD"
              }
            },
            "signature": {
              "type": "tendermint/SignatureEd25519",
              "value": "BzcfY5pCqDXMXRq0getnhWqYljmVtDCR0hToRpTr6zNLbBfmlYB/1dVL+C8PXRQ8ymEeFNva9OPa/uMYR/ZNCg=="
            }
          },
          {
            "validator_address": "E42F8AEABB685219F7027F54D2B0DBC7846F633A",
            "validator_index": "87",
            "height": "23715",
            "round": "0",
            "timestamp": "2018-07-31T21:06:55.869276189Z",
            "type": 2,
            "block_id": {
              "hash": "0027E919486AF508D3BE09AAC2B2DDF0B07FA2B7",
              "parts": {
                "total": "1",
                "hash": "E1D7269B437C98372B3545DCCE34BBE89770CBFD"
              }
            },
            "signature": {
              "type": "tendermint/SignatureEd25519",
              "value": "Zd2qWn5CHmoc16O+vLvWhEScJE8Wzok5xKt5Fx1+v7m7U6KLdWP0p1eiSjS5wYjqNv9YlCGvjdceChe2v2plBg=="
            }
          },
          {
            "validator_address": "E4E6C2E81269DFFA196C17F98240E491479A6008",
            "validator_index": "88",
            "height": "23715",
            "round": "0",
            "timestamp": "2018-07-31T21:06:56.776412315Z",
            "type": 2,
            "block_id": {
              "hash": "0027E919486AF508D3BE09AAC2B2DDF0B07FA2B7",
              "parts": {
                "total": "1",
                "hash": "E1D7269B437C98372B3545DCCE34BBE89770CBFD"
              }
            },
            "signature": {
              "type": "tendermint/SignatureEd25519",
              "value": "EKNMFkJRVKL9uvhZJDX8+oAQPvQCNo9idcJIV54Kqx/z1OFvTfbvVycGo60E6Wmt3bDS3UbEaHnQHp6X65O9DA=="
            }
          },
          {
            "validator_address": "E4FEB2846F4F3B0ECDCBE9C9DCB2248248A5AF0F",
            "validator_index": "89",
            "height": "23715",
            "round": "0",
            "timestamp": "2018-07-31T21:06:57.014293268Z",
            "type": 2,
            "block_id": {
              "hash": "0027E919486AF508D3BE09AAC2B2DDF0B07FA2B7",
              "parts": {
                "total": "1",
                "hash": "E1D7269B437C98372B3545DCCE34BBE89770CBFD"
              }
            },
            "signature": {
              "type": "tendermint/SignatureEd25519",
              "value": "obtOXQowyYkOdRVRrzM0ZSZSIbfQ7Lyjo5ItvQeasIBhw1pODUFbzUztbqzO7St0zKcmgmez/hDGwdGbBnHJBQ=="
            }
          },
          {
            "validator_address": "E6A7079D584B163750BE0831227F6B685DEAF3C1",
            "validator_index": "90",
            "height": "23715",
            "round": "0",
            "timestamp": "2018-07-31T21:06:56.877968032Z",
            "type": 2,
            "block_id": {
              "hash": "0027E919486AF508D3BE09AAC2B2DDF0B07FA2B7",
              "parts": {
                "total": "1",
                "hash": "E1D7269B437C98372B3545DCCE34BBE89770CBFD"
              }
            },
            "signature": {
              "type": "tendermint/SignatureEd25519",
              "value": "TYyLjhZJbVE/t2+Cgp8mL3gWDODIebUtOm0N8HSERIRcphSZa+8TiEauW7aD2oh/sewKtfNpD+P5FL3jXd4PAw=="
            }
          },
          {
            "validator_address": "E7A30077D5D11867D3EAF99ED45BFDC1EB834509",
            "validator_index": "91",
            "height": "23715",
            "round": "0",
            "timestamp": "2018-07-31T21:06:56.742760116Z",
            "type": 2,
            "block_id": {
              "hash": "0027E919486AF508D3BE09AAC2B2DDF0B07FA2B7",
              "parts": {
                "total": "1",
                "hash": "E1D7269B437C98372B3545DCCE34BBE89770CBFD"
              }
            },
            "signature": {
              "type": "tendermint/SignatureEd25519",
              "value": "TNaJP9laSsNRoLc5HdozjIpwLfAwucqjS4LJg06mo5BxwqnDks3OLoVwfND1euYNL5iO9Kl48BolC4wv0GbVAQ=="
            }
          },
          {
            "validator_address": "EBC613967F66F4EC306852CDF58B4F151CF16738",
            "validator_index": "92",
            "height": "23715",
            "round": "0",
            "timestamp": "2018-07-31T21:06:56.826805772Z",
            "type": 2,
            "block_id": {
              "hash": "0027E919486AF508D3BE09AAC2B2DDF0B07FA2B7",
              "parts": {
                "total": "1",
                "hash": "E1D7269B437C98372B3545DCCE34BBE89770CBFD"
              }
            },
            "signature": {
              "type": "tendermint/SignatureEd25519",
              "value": "S8y9AM1pqorpEeJLRP08doIlu3doo/AyTqLcuqgTNtDFtoOzK2J4YrksepJJzv54+ImpknteUSEePjsImI7YCA=="
            }
          },
          {
            "validator_address": "EC3401441726C40ECC7E51F744483B05BC6DE9BD",
            "validator_index": "93",
            "height": "23715",
            "round": "0",
            "timestamp": "2018-07-31T21:06:56.762092016Z",
            "type": 2,
            "block_id": {
              "hash": "0027E919486AF508D3BE09AAC2B2DDF0B07FA2B7",
              "parts": {
                "total": "1",
                "hash": "E1D7269B437C98372B3545DCCE34BBE89770CBFD"
              }
            },
            "signature": {
              "type": "tendermint/SignatureEd25519",
              "value": "n3C7J6/k5dfvS9L9McZq3bDOc1byaQYN3q4v6m0a2xmyaiBA8oedCd6Nu6QmTVJo6Hcf0ygnpjBn0BVBsRfYDw=="
            }
          },
          {
            "validator_address": "EC95B111D032181E1EC3B5E8875C5BB8E4AE7140",
            "validator_index": "94",
            "height": "23715",
            "round": "0",
            "timestamp": "2018-07-31T21:06:56.685465609Z",
            "type": 2,
            "block_id": {
              "hash": "0027E919486AF508D3BE09AAC2B2DDF0B07FA2B7",
              "parts": {
                "total": "1",
                "hash": "E1D7269B437C98372B3545DCCE34BBE89770CBFD"
              }
            },
            "signature": {
              "type": "tendermint/SignatureEd25519",
              "value": "ArCLUivNwiBR9mn7UuNKz2vlTk//k4mOpIhVPmk0+TcWsC52uSfGp2BPcILPJNAZcyigBEklpZZADCk9vJs7Dw=="
            }
          },
          {
            "validator_address": "F13C1805E8131C9B47E2A46818F57D8A2841E578",
            "validator_index": "95",
            "height": "23715",
            "round": "0",
            "timestamp": "2018-07-31T21:06:56.7766266Z",
            "type": 2,
            "block_id": {
              "hash": "0027E919486AF508D3BE09AAC2B2DDF0B07FA2B7",
              "parts": {
                "total": "1",
                "hash": "E1D7269B437C98372B3545DCCE34BBE89770CBFD"
              }
            },
            "signature": {
              "type": "tendermint/SignatureEd25519",
              "value": "Ea4vW2F5Xhb99iCQxMt0mqEZmfeZ5IW0pGanqx3aQhCWFQX/MPKJb8lhmVxJUolki1gheF+yUz4uAyoVJ/R0Bw=="
            }
          },
          {
            "validator_address": "F23FF36BD5B90C33CE3A03ED72DBDCF5EC07D6AF",
            "validator_index": "96",
            "height": "23715",
            "round": "0",
            "timestamp": "2018-07-31T21:06:56.693016602Z",
            "type": 2,
            "block_id": {
              "hash": "0027E919486AF508D3BE09AAC2B2DDF0B07FA2B7",
              "parts": {
                "total": "1",
                "hash": "E1D7269B437C98372B3545DCCE34BBE89770CBFD"
              }
            },
            "signature": {
              "type": "tendermint/SignatureEd25519",
              "value": "FVHxpxIHX7rASPq36wqzyS+B0WvQMhIpzUWvcG1M4ApNx+A76zQMek3hrR/XLuo/mHHPgWqX6C0zpqfk/nIXDg=="
            }
          },
          {
            "validator_address": "F4268597DE93E3E2CED38845010F8AA34E2A879E",
            "validator_index": "97",
            "height": "23715",
            "round": "0",
            "timestamp": "2018-07-31T21:06:56.782054815Z",
            "type": 2,
            "block_id": {
              "hash": "0027E919486AF508D3BE09AAC2B2DDF0B07FA2B7",
              "parts": {
                "total": "1",
                "hash": "E1D7269B437C98372B3545DCCE34BBE89770CBFD"
              }
            },
            "signature": {
              "type": "tendermint/SignatureEd25519",
              "value": "f4idRV1dx3xYofXxn+ti0gFuiVTEp9Ru0ZPBMp24a7TbRVhTRdMgjsZVgOJ4VvQ7ME1oTNGm8jka1DpBR4OaDg=="
            }
          },
          {
            "validator_address": "F4DEB417999B04BE2EFF9FFE03FA373D86011CC0",
            "validator_index": "98",
            "height": "23715",
            "round": "0",
            "timestamp": "2018-07-31T21:06:56.77108958Z",
            "type": 2,
            "block_id": {
              "hash": "0027E919486AF508D3BE09AAC2B2DDF0B07FA2B7",
              "parts": {
                "total": "1",
                "hash": "E1D7269B437C98372B3545DCCE34BBE89770CBFD"
              }
            },
            "signature": {
              "type": "tendermint/SignatureEd25519",
              "value": "daFbl8upLSpWUY+u+d5dUmKt3xzKBuYCmYLlQPI83WTk8w0JnyWn5cP1/WXPCWG095o2+C6gLbrB4/7fUvyGCA=="
            }
          },
          {
            "validator_address": "F6738260186D33D9C14FC6E7017AFE6BB952A63D",
            "validator_index": "99",
            "height": "23715",
            "round": "0",
            "timestamp": "2018-07-31T21:06:56.752844044Z",
            "type": 2,
            "block_id": {
              "hash": "0027E919486AF508D3BE09AAC2B2DDF0B07FA2B7",
              "parts": {
                "total": "1",
                "hash": "E1D7269B437C98372B3545DCCE34BBE89770CBFD"
              }
            },
            "signature": {
              "type": "tendermint/SignatureEd25519",
              "value": "vV5HD1HCAh0E3f7zay8udHyDNguk0VrWpauRTxvxUgDhT9pGVdnpKjPUW54WJunncoM0QVYWa53/5BbpUozHDQ=="
            }
          },
          {
            "validator_address": "FF3F3FCBCE7E62D7AD5506FF846EC4518D980515",
            "validator_index": "100",
            "height": "23715",
            "round": "0",
            "timestamp": "2018-07-31T21:06:56.662902675Z",
            "type": 2,
            "block_id": {
              "hash": "0027E919486AF508D3BE09AAC2B2DDF0B07FA2B7",
              "parts": {
                "total": "1",
                "hash": "E1D7269B437C98372B3545DCCE34BBE89770CBFD"
              }
            },
            "signature": {
              "type": "tendermint/SignatureEd25519",
              "value": "nX+pI4EPCWZWgRA1JOX9znejYYt2bxgwPFrbW2jRKUScwxgu2gEfVSH6nLNXCi1tLI8+BOK04ms3oXapzjEEDw=="
            }
          }
        ]
      }
    },
    "canonical": true
  }
}