{
  "jsonrpc": "2.0",
  "id": "",
  "result": {
    "SignedHeader": {
      "header": {
        "chain_id": "gaia-7004",
        "height": "24557",
        "time": "2018-07-31T22:32:11.691863425Z",
        "num_txs": "0",
        "last_block_id": {
          "hash": "B428D4ED9B2FBA05D4A138640BDEC252B88324E4",
          "parts": {
            "total": "1",
            "hash": "F0F70ABF390DCDC4B833AC842D063767082B0D0C"
          }
        },
        "total_txs": "710",
        "last_commit_hash": "360F73DDB2CFDAA62D896DA9B20962733EEBF525",
        "data_hash": "",
        "validators_hash": "BAC635A3500BEEE9DBB7F25A034B3C5DA6751E38",
        "consensus_hash": "D6B74BB35BDFFD8392340F2A379173548AE188FE",
        "app_hash": "14B414917E989212847F08CC360E3E83BD51D1DE",
        "last_results_hash": "",
        "evidence_hash": ""
      },
      "commit": {
        "block_id": {
          "hash": "07ACFA782070C36B2FC0154762A1B537CB2ED840",
          "parts": {
            "total": "1",
            "hash": "D8849E26AE96CB1C5792FA377E1CFAA951473538"
          }
        },
        "precommits": [
          {
            "validator_address": "029359C0C768096273A68ABC902A6B17AC8D1D70",
            "validator_index": "0",
            "height": "24557",
            "round": "1",
            "timestamp": "2018-07-31T22:32:12.900991687Z",
            "type": 2,
            "block_id": {
              "hash": "07ACFA782070C36B2FC0154762A1B537CB2ED840",
              "parts": {
                "total": "1",
                "hash": "D8849E26AE96CB1C5792FA377E1CFAA951473538"
              }
            },
            "signature": {
              "type": "tendermint/SignatureEd25519",
              "value": "3AkmyCaDBKlXxsdHV6z5Oxtt6S8AxmTzWPmIeFfy5nO2qRmBAcXxMzogpfzJzeTA/qwMJKc5Gzo813UMZE2qDA=="
            }
          },
          {
            "validator_address": "02FE4B97A8387F39D1AC19E0C1702B3CC614812F",
            "validator_index": "1",
            "height": "24557",
            "round": "1",
            "timestamp": "2018-07-31T22:32:12.940668609Z",
            "type": 2,
            "block_id": {
              "hash": "07ACFA782070C36B2FC0154762A1B537CB2ED840",
              "parts": {
                "total": "1",
                "hash": "D8849E26AE96CB1C5792FA377E1CFAA951473538"
              }
            },
            "signature": {
              "type": "tendermint/SignatureEd25519",
              "value": "mNyb8jEytrr6C9wUt0OwU18+XertwjGyPImRDd7q2KCHEwB2V1LWiNqJrSl2zerUJPhi3EbUberjbRuqtTAWCQ=="
            }
          },
          {
            "validator_address": "0548261C50222FD710EB5EBDF03A0E6567B21D20",
            "validator_index": "2",
            "height": "24557",
            "round": "1",
            "timestamp": "2018-07-31T22:32:12.952648Z",
            "type": 2,
            "block_id": {
              "hash": "07ACFA782070C36B2FC0154762A1B537CB2ED840",
              "parts": {
                "total": "1",
                "hash": "D8849E26AE96CB1C5792FA377E1CFAA951473538"
              }
            },
            "signature": {
              "type": "tendermint/SignatureEd25519",
              "value": "e8QoRyNEpdnLuOkBB+7/vxJHHsWNgDQQtL51zhELuuiId3P8fqLDeiC/h3y6PEKGQDwvC7Diif95n5gdfyMwCA=="
            }
          },
          {
            "validator_address": "09145E611CC27EEB944FC5A956DDF710F943B9EF",
            "validator_index": "3",
            "height": "24557",
            "round": "1",
            "timestamp": "2018-07-31T22:32:12.881801036Z",
            "type": 2,
            "block_id": {
              "hash": "07ACFA782070C36B2FC0154762A1B537CB2ED840",
              "parts": {
                "total": "1",
                "hash": "D8849E26AE96CB1C5792FA377E1CFAA951473538"
              }
            },
            "signature": {
              "type": "tendermint/SignatureEd25519",
              "value": "S6HkGWW/R4Hocxo7+jS9rYyrvihwVZDHmC658U1Pj1TSnXMzTiWLfRmUU37Qk0bUD7ztjtPJw5f+Sfc8ZUaxAA=="
            }
          },
          {
            "validator_address": "0989D0355A104B67AE0AE028C68FB610690E174B",
            "validator_index": "4",
            "height": "24557",
            "round": "1",
            "timestamp": "2018-07-31T22:32:12.858665738Z",
            "type": 2,
            "block_id": {
              "hash": "07ACFA782070C36B2FC0154762A1B537CB2ED840",
              "parts": {
                "total": "1",
                "hash": "D8849E26AE96CB1C5792FA377E1CFAA951473538"
              }
            },
            "signature": {
              "type": "tendermint/SignatureEd25519",
              "value": "ngHERarKpIdyp9GORYSEE/DpFp7brwJnF+53WmTGFjsi4/tZfeOWeBeM23rQ8qnT6rE9zeuJif14E1TcffUeDA=="
            }
          },
          {
            "validator_address": "0A692DBFFE9E5DD28E7DECC33CED1AEB4C0D014E",
            "validator_index": "5",
            "height": "24557",
            "round": "1",
            "timestamp": "2018-07-31T22:32:12.98771708Z",
            "type": 2,
            "block_id": {
              "hash": "07ACFA782070C36B2FC0154762A1B537CB2ED840",
              "parts": {
                "total": "1",
                "hash": "D8849E26AE96CB1C5792FA377E1CFAA951473538"
              }
            },
            "signature": {
              "type": "tendermint/SignatureEd25519",
              "value": "MhzcuJPx2BFJLthOIo6qQyeoQJeMhISai7ik9/Vb/bqjgel2aHfJGiNBpPO0SC08372Exelbz9JoLpWgasJGBw=="
            }
          },
          {
            "validator_address": "0DDF97111D73DB825138EC15EC27DE5FE8536901",
            "validator_index": "6",
            "height": "24557",
            "round": "1",
            "timestamp": "2018-07-31T22:32:12.924605225Z",
            "type": 2,
            "block_id": {
              "hash": "07ACFA782070C36B2FC0154762A1B537CB2ED840",
              "parts": {
                "total": "1",
                "hash": "D8849E26AE96CB1C5792FA377E1CFAA951473538"
              }
            },
            "signature": {
              "type": "tendermint/SignatureEd25519",
              "value": "M/JWFsLcRebeJba39sO6U4B1dejlbYsApCR8uiqHxPF/RnpwPS9FLHcqK+Nl/Fa+kpp8d+krgvNZpmu/wdJSDw=="
            }
          },
          {
            "validator_address": "1751786EFC085D5331C61168FFFC8202EA151B4E",
            "validator_index": "7",
            "height": "24557",
            "round": "1",
            "timestamp": "2018-07-31T22:32:12.467619716Z",
            "type": 2,
            "block_id": {
              "hash": "07ACFA782070C36B2FC0154762A1B537CB2ED840",
              "parts": {
                "total": "1",
                "hash": "D8849E26AE96CB1C5792FA377E1CFAA951473538"
              }
            },
            "signature": {
              "type": "tendermint/SignatureEd25519",
              "value": "yA3pAKmTKWjrPjiDuyKG1kSgJ3Sh77wDKwIeBtPwe61QfItmL5wJauABM9TtRosedyPxAILndRrzy6H9wyKUCQ=="
            }
          },
          {
            "validator_address": "17BB5CD01E8940FAFB948A04D5FA5A0645E5822E",
            "validator_index": "8",
            "height": "24557",
            "round": "1",
            "timestamp": "2018-07-31T22:32:12.857568106Z",
            "type": 2,
            "block_id": {
              "hash": "07ACFA782070C36B2FC0154762A1B537CB2ED840",
              "parts": {
                "total": "1",
                "hash": "D8849E26AE96CB1C5792FA377E1CFAA951473538"
              }
            },
            "signature": {
              "type": "tendermint/SignatureEd25519",
              "value": "TpoToGjOMd+ssDet0ANznsEaz5PO9wtQVzhXRcqO5tdcjQx8wMP/WYkeC7JZM0g9UdAokjgvKQt2S+hlntuPDA=="
            }
          },
          {
            "validator_address": "1C683A87904BC38F05004FE83301A3A3E35447EB",
            "validator_index": "9",
            "height": "24557",
            "round": "1",
            "timestamp": "2018-07-31T22:32:12.884954446Z",
            "type": 2,
            "block_id": {
              "hash": "07ACFA782070C36B2FC0154762A1B537CB2ED840",
              "parts": {
                "total": "1",
                "hash": "D8849E26AE96CB1C5792FA377E1CFAA951473538"
              }
            },
            "signature": {
              "type": "tendermint/SignatureEd25519",
              "value": "c/5SatEjA1/SC8x85kErp/lH/pjVnB2CqPoX1/ZGjv8v9u+OazQKJiWNBLlx9U+NcPCKUrJsHlXdeRsizwkGAQ=="
            }
          },
          {
            "validator_address": "1E9CE94FD0BA5CFEB901F90BC658D64D85B134D2",
            "validator_index": "10",
            "height": "24557",
            "round": "1",
            "timestamp": "2018-07-31T22:32:12.943953004Z",
            "type": 2,
            "block_id": {
              "hash": "07ACFA782070C36B2FC0154762A1B537CB2ED840",
              "parts": {
                "total": "1",
                "hash": "D8849E26AE96CB1C5792FA377E1CFAA951473538"
              }
            },
            "signature": {
              "type": "tendermint/SignatureEd25519",
              "value": "9tDbe7BBw/M6zjvPUE9Y8EzMWq0/ZaV0hC3gQlEMmjZghT2yTXD+MgPaYNLTqM+fQdnD/EhjVuIh2XNpv+vnCg=="
            }
          },
          {
            "validator_address": "1ECD8C5FE1341D74CDC633A245DD56858DE2F9A2",
            "validator_index": "11",
            "height": "24557",
            "round": "1",
            "timestamp": "2018-07-31T22:32:13.03773886Z",
            "type": 2,
            "block_id": {
              "hash": "07ACFA782070C36B2FC0154762A1B537CB2ED840",
              "parts": {
                "total": "1",
                "hash": "D8849E26AE96CB1C5792FA377E1CFAA951473538"
              }
            },
            "signature": {
              "type": "tendermint/SignatureEd25519",
              "value": "UzFJtzf1lxajxmGc729bJjHYGnAlQ9823srQDoBP7DB6onp0Ri740Rv4ynENWGYuz2YZlg33+BtPOZVRANvHBQ=="
            }
          },
          {
            "validator_address": "1F3A68CAAD483768AA2BF667DEF10F7104C89928",
            "validator_index": "12",
            "height": "24557",
            "round": "1",
            "timestamp": "2018-07-31T22:32:12.880575607Z",
            "type": 2,
            "block_id": {
              "hash": "07ACFA782070C36B2FC0154762A1B537CB2ED840",
              "parts": {
                "total": "1",
                "hash": "D8849E26AE96CB1C5792FA377E1CFAA951473538"
              }
            },
            "signature": {
              "type": "tendermint/SignatureEd25519",
              "value": "2kXgt8xFAs4Ew+4qRAUxJtxsVHp+o0IfOqRVVvWUjpTRy8ox6Jv4wzjdvSM7V+y3H1ziUoFtOit9ZCKpw0tPCQ=="
            }
          },
          {
            "validator_address": "23897586D68E2AC1C78E0EF5BB5DF5C8EAB18F50",
            "validator_index": "13",
            "height": "24557",
            "round": "1",
            "timestamp": "2018-07-31T22:32:12.934197746Z",
            "type": 2,
            "block_id": {
              "hash": "07ACFA782070C36B2FC0154762A1B537CB2ED840",
              "parts": {
                "total": "1",
                "hash": "D8849E26AE96CB1C5792FA377E1CFAA951473538"
              }
            },
            "signature": {
              "type": "tendermint/SignatureEd25519",
              "value": "+rcpuDyaSgxrZBgrogYYoE+nmTcOIFIrOpcECcMtIv+j0gOfVXQgmbXeFNoLGpPK5QUjucG5MOGe6NI4CEaXDw=="
            }
          },
          {
            "validator_address": "28770D17E8530825E7310A0659308654B7EC9682",
            "validator_index": "14",
            "height": "24557",
            "round": "1",
            "timestamp": "2018-07-31T22:32:12.842912273Z",
            "type": 2,
            "block_id": {
              "hash": "07ACFA782070C36B2FC0154762A1B537CB2ED840",
              "parts": {
                "total": "1",
                "hash": "D8849E26AE96CB1C5792FA377E1CFAA951473538"
              }
            },
            "signature": {
              "type": "tendermint/SignatureEd25519",
              "value": "kORbSTESrIcgLRv2lzibseeO79AmMe14qhGTy1fR4WtJDQvxRkJQ18fWpmhM/9b4/7F2e33x+l5OuO9pZTV0Dw=="
            }
          },
          {
            "validator_address": "2A92EC3C642140202298D0E245095E0ECFC25228",
            "validator_index": "15",
            "height": "24557",
            "round": "1",
            "timestamp": "2018-07-31T22:32:12.923008006Z",
            "type": 2,
            "block_id": {
              "hash": "07ACFA782070C36B2FC0154762A1B537CB2ED840",
              "parts": {
                "total": "1",
                "hash": "D8849E26AE96CB1C5792FA377E1CFAA951473538"
              }
            },
            "signature": {
              "type": "tendermint/SignatureEd25519",
              "value": "80kbM863JaACzl7bpMO0WjajprXYDmgEwCwLPJiPobhm2OIB0Jmkmz/rMdVDaYPhrEv6fOkiEmRCvMBzZ99nAw=="
            }
          },
          {
            "validator_address": "33412C9A69C60CB0FAA24A5C5B3A906DE24B47C2",
            "validator_index": "16",
            "height": "24557",
            "round": "1",
            "timestamp": "2018-07-31T22:32:12.869496214Z",
            "type": 2,
            "block_id": {
              "hash": "07ACFA782070C36B2FC0154762A1B537CB2ED840",
              "parts": {
                "total": "1",
                "hash": "D8849E26AE96CB1C5792FA377E1CFAA951473538"
              }
            },
            "signature": {
              "type": "tendermint/SignatureEd25519",
              "value": "LjzCFLOKWyr65jFkD85Kwhp08RkVUSxUR2v/GvRvc7D+6miFFJEXPDZFydTKvW+LyLPPnL9DLqomaUeZEkZ5Dg=="
            }
          },
          {
            "validator_address": "3383EF2A13B160C41947AC30434B274B2FAF0617",
            "validator_index": "17",
            "height": "24557",
            "round": "1",
            "timestamp": "2018-07-31T22:32:12.902780259Z",
            "type": 2,
            "block_id": {
              "hash": "07ACFA782070C36B2FC0154762A1B537CB2ED840",
              "parts": {
                "total": "1",
                "hash": "D8849E26AE96CB1C5792FA377E1CFAA951473538"
              }
            },
            "signature": {
              "type": "tendermint/SignatureEd25519",
              "value": "/GFWEQ/c6yDIU8X2QpsDgKlALf3+xFdselO4MWqtw8FvgnuRxFRiUFR2gfDvz2zKk2STUd/6mq1OsfO2ROwyBQ=="
            }
          },
          {
            "validator_address": "36E9B7FAEC964F97D84C028ED62493E373AD0B38",
            "validator_index": "18",
            "height": "24557",
            "round": "1",
            "timestamp": "2018-07-31T22:32:12.924237659Z",
            "type": 2,
            "block_id": {
              "hash": "07ACFA782070C36B2FC0154762A1B537CB2ED840",
              "parts": {
                "total": "1",
                "hash": "D8849E26AE96CB1C5792FA377E1CFAA951473538"
              }
            },
            "signature": {
              "type": "tendermint/SignatureEd25519",
              "value": "Y2Teij69gGU6zU8iIpcwvWXxSGe0qTZVU6gi/VQHkaNRaPxeDEKf5mjajII1wf4eUdufu6d/QN2dXwRcuNktBA=="
            }
          },
          {
            "validator_address": "38A8D85D36BEA2E5FCF8A1E778F53628E450EF13",
            "validator_index": "19",
            "height": "24557",
            "round": "1",
            "timestamp": "2018-07-31T22:32:13.184131731Z",
            "type": 2,
            "block_id": {
              "hash": "07ACFA782070C36B2FC0154762A1B537CB2ED840",
              "parts": {
                "total": "1",
                "hash": "D8849E26AE96CB1C5792FA377E1CFAA951473538"
              }
            },
            "signature": {
              "type": "tendermint/SignatureEd25519",
              "value": "bEFmtW6zo1Sys6exclAMTlMQ6iI2Xp4nPU2X6O0imoCUV7Rel7ivySTt+ZIjr7tOKsKTtb+E7UMadWA/e1pmDw=="
            }
          },
          {
            "validator_address": "39DFDA0C5DB84B269642188B23253508537798E6",
            "validator_index": "20",
            "height": "24557",
            "round": "1",
            "timestamp": "2018-07-31T22:32:12.835512403Z",
            "type": 2,
            "block_id": {
              "hash": "07ACFA782070C36B2FC0154762A1B537CB2ED840",
              "parts": {
                "total": "1",
                "hash": "D8849E26AE96CB1C5792FA377E1CFAA951473538"
              }
            },
            "signature": {
              "type": "tendermint/SignatureEd25519",
              "value": "c5mT83fFXVyGde4enXA6aUW3aJNbCD1d3DSshpAw/+iYg3Sr5Sl8kyMWmmEVNqGKga+vQWt9dR3jON7r6bDOBA=="
            }
          },
          {
            "validator_address": "3AC99B708404452366E0953A4BE849226DC86CBC",
            "validator_index": "21",
            "height": "24557",
            "round": "1",
            "timestamp": "2018-07-31T22:32:12.925155272Z",
            "type": 2,
            "block_id": {
              "hash": "07ACFA782070C36B2FC0154762A1B537CB2ED840",
              "parts": {
                "total": "1",
                "hash": "D8849E26AE96CB1C5792FA377E1CFAA951473538"
              }
            },
            "signature": {
              "type": "tendermint/SignatureEd25519",
              "value": "ATTuBz3ZJNvmDHHg6D5Te9DinouuVUhSzkJSL9A9Bq0rA55i54hpzb3nxviTirY3+wdrFU41L19PunGJvc+WDQ=="
            }
          },
          {
            "validator_address": "3DCB822A10ED319EC7C4393D8E3FD4A41B15AAF2",
            "validator_index": "22",
            "height": "24557",
            "round": "1",
            "timestamp": "2018-07-31T22:32:12.866970727Z",
            "type": 2,
            "block_id": {
              "hash": "07ACFA782070C36B2FC0154762A1B537CB2ED840",
              "parts": {
                "total": "1",
                "hash": "D8849E26AE96CB1C5792FA377E1CFAA951473538"
              }
            },
            "signature": {
              "type": "tendermint/SignatureEd25519",
              "value": "leKyWxYkygldiuMITwaO0aKgHXrB7zUNAw/expg6AdPSogJ0x+S98e/b/falzws89fF0HH9TQCanpO59t/8vDw=="
            }
          },
          {
            "validator_address": "3E899BA36A93C7370347BD5FE85909F2ECD93F8C",
            "validator_index": "23",
            "height": "24557",
            "round": "1",
            "timestamp": "2018-07-31T22:32:12.882411573Z",
            "type": 2,
            "block_id": {
              "hash": "07ACFA782070C36B2FC0154762A1B537CB2ED840",
              "parts": {
                "total": "1",
                "hash": "D8849E26AE96CB1C5792FA377E1CFAA951473538"
              }
            },
            "signature": {
              "type": "tendermint/SignatureEd25519",
              "value": "7YzVDu7PcwoPvPvIzgM+Ih5W5/5BWgH7LkGYd3LInIgCumi6DISdfdoNyg1eV4Zie4keRczLXaTKlnSS5idACg=="
            }
          },
          {
            "validator_address": "41CAB2E29E7D0F2282E3275938F188FF9386B84C",
            "validator_index": "24",
            "height": "24557",
            "round": "1",
            "timestamp": "2018-07-31T22:32:12.92801633Z",
            "type": 2,
            "block_id": {
              "hash": "07ACFA782070C36B2FC0154762A1B537CB2ED840",
              "parts": {
                "total": "1",
                "hash": "D8849E26AE96CB1C5792FA377E1CFAA951473538"
              }
            },
            "signature": {
              "type": "tendermint/SignatureEd25519",
              "value": "8ZZxIr66lQi3SJjE4UlB+jRrisR45b/WoPvfndAQn0oSBDk+PpMmnyZKADI9JNeVU3+X4Neeuewa8h0OV0ptBw=="
            }
          },
          {
            "validator_address": "462B656869DB02A8FD1077E255F8CC7401DC37C6",
            "validator_index": "25",
            "height": "24557",
            "round": "1",
            "timestamp": "2018-07-31T22:32:12.908364816Z",
            "type": 2,
            "block_id": {
              "hash": "07ACFA782070C36B2FC0154762A1B537CB2ED840",
              "parts": {
                "total": "1",
                "hash": "D8849E26AE96CB1C5792FA377E1CFAA951473538"
              }
            },
            "signature": {
              "type": "tendermint/SignatureEd25519",
              "value": "Xp1y+ypQlZSdesHIyH619YxY947G9EZ9mvThuzH4PTyZaQpajMk6QV1nnHBN9J395qRV6+xjIcCc5Zt71CGlAA=="
            }
          },
          {
            "validator_address": "48E5118163E5442068A1B5A42D2EEDBB75724935",
            "validator_index": "26",
            "height": "24557",
            "round": "1",
            "timestamp": "2018-07-31T22:32:12.944533952Z",
            "type": 2,
            "block_id": {
              "hash": "07ACFA782070C36B2FC0154762A1B537CB2ED840",
              "parts": {
                "total": "1",
                "hash": "D8849E26AE96CB1C5792FA377E1CFAA951473538"
              }
            },
            "signature": {
              "type": "tendermint/SignatureEd25519",
              "value": "0vhwEu8RJoPqU59csYuZm4+2kWs1+HGjik/+PkFcZbFBX+TdBtgwCvqDMxgjvgd9ZhAQoaiE0OLjNNe2xzqIBQ=="
            }
          },
          {
            "validator_address": "49103C58AFD9C7C069F55EBA218F3DFD9AEA74F9",
            "validator_index": "27",
            "height": "24557",
            "round": "1",
            "timestamp": "2018-07-31T22:32:12.855401042Z",
            "type": 2,
            "block_id": {
              "hash": "07ACFA782070C36B2FC0154762A1B537CB2ED840",
              "parts": {
                "total": "1",
                "hash": "D8849E26AE96CB1C5792FA377E1CFAA951473538"
              }
            },
            "signature": {
              "type": "tendermint/SignatureEd25519",
              "value": "S5YC0uH/s+fl/UY1jcVeU+6S0POktCmedw/UYXU/LSo1t+MSzSGN0fORoX9CxPu15rEEHlcoN0K0ddo5cybrBQ=="
            }
          },
          null,
          {
            "validator_address": "49841599DE675157CBE1E7D6B35BF8FFC23BD5CB",
            "validator_index": "29",
            "height": "24557",
            "round": "1",
            "timestamp": "2018-07-31T22:32:12.881556943Z",
            "type": 2,
            "block_id": {
              "hash": "07ACFA782070C36B2FC0154762A1B537CB2ED840",
              "parts": {
                "total": "1",
                "hash": "D8849E26AE96CB1C5792FA377E1CFAA951473538"
              }
            },
            "signature": {
              "type": "tendermint/SignatureEd25519",
              "value": "eVlGcMjPnaIZZ989zvZlHfg145b4jDpXu/L/GnQdyBxJhve+ZmPw6p6D/namA4HPXUD9s3y9jt+g8uRZDU71Cg=="
            }
          },
          {
            "validator_address": "51386C2CF9556821D114D7E4945806802BADB28D",
            "validator_index": "30",
            "height": "24557",
            "round": "1",
            "timestamp": "2018-07-31T22:32:12.924398246Z",
            "type": 2,
            "block_id": {
              "hash": "07ACFA782070C36B2FC0154762A1B537CB2ED840",
              "parts": {
                "total": "1",
                "hash": "D8849E26AE96CB1C5792FA377E1CFAA951473538"
              }
            },
            "signature": {
              "type": "tendermint/SignatureEd25519",
              "value": "uOQLaANX8YSfTRl6cnzNlrB84cQ9J5aRf5By13kJJBFt5wGvSFnmwt605U6d5pa2m8UCVGiIf327opmcLhxjDA=="
            }
          },
          {
            "validator_address": "543564ECA3AFEFADC73EE8591AAC3A96F079BC8A",
            "validator_index": "31",
            "height": "24557",
            "round": "1",
            "timestamp": "2018-07-31T22:32:12.896698437Z",
            "type": 2,
            "block_id": {
              "hash": "07ACFA782070C36B2FC0154762A1B537CB2ED840",
              "parts": {
                "total": "1",
                "hash": "D8849E26AE96CB1C5792FA377E1CFAA951473538"
              }
            },
            "signature": {
              "type": "tendermint/SignatureEd25519",
              "value": "z8t/0mc0oDlqvJAKF1QGdhIu3K+L0b/SSieuFmE6DpOJnTrg8W0oBWKbCyiilgQrzfWeLwF76xGL7mL2l1gnAA=="
            }
          },
          {
            "validator_address": "55D67B1A6DC13E96F8754A5A42EABC20F7F86664",
            "validator_index": "32",
            "height": "24557",
            "round": "1",
            "timestamp": "2018-07-31T22:32:12.865064719Z",
            "type": 2,
            "block_id": {
              "hash": "07ACFA782070C36B2FC0154762A1B537CB2ED840",
              "parts": {
                "total": "1",
                "hash": "D8849E26AE96CB1C5792FA377E1CFAA951473538"
              }
            },
            "signature": {
              "type": "tendermint/SignatureEd25519",
              "value": "30s4L/aLjkZ6GV21yWB7B2J+sGFRMEIIc6NtGi9JETLg7tEM2Rfxst6uO9saAkpMIy0keQ0B99ijKcvWnAaIBA=="
            }
          },
          {
            "validator_address": "570B6A755ED339EAC56BB3390A48069F6AC9449B",
            "validator_index": "33",
            "height": "24557",
            "round": "1",
            "timestamp": "2018-07-31T22:32:17.593357218Z",
            "type": 2,
            "block_id": {
              "hash": "07ACFA782070C36B2FC0154762A1B537CB2ED840",
              "parts": {
                "total": "1",
                "hash": "D8849E26AE96CB1C5792FA377E1CFAA951473538"
              }
            },
            "signature": {
              "type": "tendermint/SignatureEd25519",
              "value": "xYSx08SjoKhxBP3BaLE5jblo7DIMvWjO++Ij0/VQU4g21Jm0uUH4yWYwHqcBv9TctQLoYl+UpRfdn3UslRoZBQ=="
            }
          },
          {
            "validator_address": "5BDF8EA41B1835FBAD865B181A2A4B23F511B5E4",
            "validator_index": "34",
            "height": "24557",
            "round": "1",
            "timestamp": "2018-07-31T22:32:12.845545174Z",
            "type": 2,
            "block_id": {
              "hash": "07ACFA782070C36B2FC0154762A1B537CB2ED840",
              "parts": {
                "total": "1",
                "hash": "D8849E26AE96CB1C5792FA377E1CFAA951473538"
              }
            },
            "signature": {
              "type": "tendermint/SignatureEd25519",
              "value": "4wFzlsI6VRQGXmBU8FDEaKOGAfQaCyfLIS0gmChZ4G+rg9VEz6nSXqq5O3kTQubMwKShFJG4FWuvCNxudMWwDw=="
            }
          },
          {
            "validator_address": "60229E2E273297FE00219E46DFFB8F76844CDEF9",
            "validator_index": "35",
            "height": "24557",
            "round": "1",
            "timestamp": "2018-07-31T22:32:11.426598668Z",
            "type": 2,
            "block_id": {
              "hash": "07ACFA782070C36B2FC0154762A1B537CB2ED840",
              "parts": {
                "total": "1",
                "hash": "D8849E26AE96CB1C5792FA377E1CFAA951473538"
              }
            },
            "signature": {
              "type": "tendermint/SignatureEd25519",
              "value": "OeIGpPCGEXCru6N9G0mxHoCz+gSe0acBAUrR2rhK13g0tRYVixEnpJiOTRhcVkVCd+zxV95D4Jxcc5FRUWneAg=="
            }
          },
          {
            "validator_address": "62410D6D1CD98278136E4D0738AA0EA273CDFC54",
            "validator_index": "36",
            "height": "24557",
            "round": "1",
            "timestamp": "2018-07-31T22:32:12.912403955Z",
            "type": 2,
            "block_id": {
              "hash": "07ACFA782070C36B2FC0154762A1B537CB2ED840",
              "parts": {
                "total": "1",
                "hash": "D8849E26AE96CB1C5792FA377E1CFAA951473538"
              }
            },
            "signature": {
              "type": "tendermint/SignatureEd25519",
              "value": "/nLsauLK+XKAbCG+bBpE5L7S9PC5sRe4FDL4xhvulQ59VUWcmsV0PUpUQfJ7dNPhSobJypqZpxdEpCXpjF4TBw=="
            }
          },
          {
            "validator_address": "632F5C139A5A9DFBFE5111DEE29FCFB6157207DC",
            "validator_index": "37",
            "height": "24557",
            "round": "1",
            "timestamp": "2018-07-31T22:32:12.944256155Z",
            "type": 2,
            "block_id": {
              "hash": "07ACFA782070C36B2FC0154762A1B537CB2ED840",
              "parts": {
                "total": "1",
                "hash": "D8849E26AE96CB1C5792FA377E1CFAA951473538"
              }
            },
            "signature": {
              "type": "tendermint/SignatureEd25519",
              "value": "LZSaLKVQzHKSgwXvWGUCIrtZ+vgDm8nzBXJyBV7ZZW4Zzb7yEXcMjlKdlnlfCP7nG3xTiPA4+BM80ddZQkHdDQ=="
            }
          },
          {
            "validator_address": "64F57F8E796A9B7B590C1EFA4123988C86631D39",
            "validator_index": "38",
            "height": "24557",
            "round": "1",
            "timestamp": "2018-07-31T22:32:12.850082242Z",
            "type": 2,
            "block_id": {
              "hash": "07ACFA782070C36B2FC0154762A1B537CB2ED840",
              "parts": {
                "total": "1",
                "hash": "D8849E26AE96CB1C5792FA377E1CFAA951473538"
              }
            },
            "signature": {
              "type": "tendermint/SignatureEd25519",
              "value": "AEvn6IPx6ZlG87GqORxXo3t1bGuI6+UncaJPtEFqDGmaxs0dTcYZBgPmYP8Iq7WOUq8Ivpoc326sEHNP/A9DCg=="
            }
          },
          {
            "validator_address": "69D99B2C66043ACBEAA8447525C356AFC6408E0C",
            "validator_index": "39",
            "height": "24557",
            "round": "1",
            "timestamp": "2018-07-31T22:32:12.994642804Z",
            "type": 2,
            "block_id": {
              "hash": "07ACFA782070C36B2FC0154762A1B537CB2ED840",
              "parts": {
                "total": "1",
                "hash": "D8849E26AE96CB1C5792FA377E1CFAA951473538"
              }
            },
            "signature": {
              "type": "tendermint/SignatureEd25519",
              "value": "gTABtFdMPc+E8p/AAe7DSdJa4aHLAYZzxG1tE14K2jfJGx8QOjhjZcMoPb0r6Jf9P5rNHh4rJu776AuxxT6sCA=="
            }
          },
          {
            "validator_address": "69EDADFA4A803E9DBF548C900D4A465E7D154262",
            "validator_index": "40",
            "height": "24557",
            "round": "1",
            "timestamp": "2018-07-31T22:32:13.039178705Z",
            "type": 2,
            "block_id": {
              "hash": "07ACFA782070C36B2FC0154762A1B537CB2ED840",
              "parts": {
                "total": "1",
                "hash": "D8849E26AE96CB1C5792FA377E1CFAA951473538"
              }
            },
            "signature": {
              "type": "tendermint/SignatureEd25519",
              "value": "evkVBOdg4vWzlLNJ+qJSlOKdB8TJtf3+q4MJWWSGHvGvxjYdKY5KImisON59Di2l67PUB2GAoNWtKqLlqssxCQ=="
            }
          },
          {
            "validator_address": "6D3AD380E398D8592B03AA124BAFED5F125DF863",
            "validator_index": "41",
            "height": "24557",
            "round": "1",
            "timestamp": "2018-07-31T22:31:11.008616009Z",
            "type": 2,
            "block_id": {
              "hash": "07ACFA782070C36B2FC0154762A1B537CB2ED840",
              "parts": {
                "total": "1",
                "hash": "D8849E26AE96CB1C5792FA377E1CFAA951473538"
              }
            },
            "signature": {
              "type": "tendermint/SignatureEd25519",
              "value": "v/osYmNFfphjwNCQwe/aRnVd2FaR4dC+ClZkRCy47GEmUDEw3mJ02scPTtrdgEJDQxHMGpTMNe8+0CKPfHiVCQ=="
            }
          },
          {
            "validator_address": "6F6C93B8BF3495063FEC9B5C771158607F4AE9D6",
            "validator_index": "42",
            "height": "24557",
            "round": "1",
            "timestamp": "2018-07-31T22:32:12.996173379Z",
            "type": 2,
            "block_id": {
              "hash": "07ACFA782070C36B2FC0154762A1B537CB2ED840",
              "parts": {
                "total": "1",
                "hash": "D8849E26AE96CB1C5792FA377E1CFAA951473538"
              }
            },
            "signature": {
              "type": "tendermint/SignatureEd25519",
              "value": "KgCeTA0NTuld29JC4psxMmIPi8B1zXXLG1/+omUT7eWeq12sZDzTUHZivgzBol1C+Anj4xz60+rJLp9P4B//CQ=="
            }
          },
          {
            "validator_address": "732CEEF54C374DDC6ADECBFD707AEFD07FEDC143",
            "validator_index": "43",
            "height": "24557",
            "round": "1",
            "timestamp": "2018-07-31T22:32:13.017295929Z",
            "type": 2,
            "block_id": {
              "hash": "07ACFA782070C36B2FC0154762A1B537CB2ED840",
              "parts": {
                "total": "1",
                "hash": "D8849E26AE96CB1C5792FA377E1CFAA951473538"
              }
            },
            "signature": {
              "type": "tendermint/SignatureEd25519",
              "value": "ZqQwZAxhzoCfMxbEQgTzaCDJexuPSJaT8LitgiM3yxg0DpilNXOvaeXX2CfEdSPyJ57eKzKCTlvDjZ2wpkQQCw=="
            }
          },
          {
            "validator_address": "7393D691BFAE9661918C09932D4D9060AB40939B",
            "validator_index": "44",
            "height": "24557",
            "round": "1",
            "timestamp": "2018-07-31T22:32:13.065737202Z",
            "type": 2,
            "block_id": {
              "hash": "07ACFA782070C36B2FC0154762A1B537CB2ED840",
              "parts": {
                "total": "1",
                "hash": "D8849E26AE96CB1C5792FA377E1CFAA951473538"
              }
            },
            "signature": {
              "type": "tendermint/SignatureEd25519",
              "value": "ew66QSuaaxc6fMHQY58P9TAbPPKaMapgdfdSumHR5zReJQHkFuqYccwDKKB+RiQpmnC+VQ+JyLfTR1dByclUAw=="
            }
          },
          {
            "validator_address": "751E43437224E8BB6D1569B3E2B2616B6E7F4397",
            "validator_index": "45",
            "height": "24557",
            "round": "1",
            "timestamp": "2018-07-31T22:32:12.901801558Z",
            "type": 2,
            "block_id": {
              "hash": "07ACFA782070C36B2FC0154762A1B537CB2ED840",
              "parts": {
                "total": "1",
                "hash": "D8849E26AE96CB1C5792FA377E1CFAA951473538"
              }
            },
            "signature": {
              "type": "tendermint/SignatureEd25519",
              "value": "0k900JRPo/RNuC85JR7DIaITTmuI/xmWbpDMCVaA+Nc3U0Ib5NWblCKHwfaxqtUN3kVJHVwc1O7BAKO5YdXZAA=="
            }
          },
          {
            "validator_address": "7EB7593F519F1180C7E872D0494611464EDF03AE",
            "validator_index": "46",
            "height": "24557",
            "round": "1",
            "timestamp": "2018-07-31T22:32:13.029478606Z",
            "type": 2,
            "block_id": {
              "hash": "07ACFA782070C36B2FC0154762A1B537CB2ED840",
              "parts": {
                "total": "1",
                "hash": "D8849E26AE96CB1C5792FA377E1CFAA951473538"
              }
            },
            "signature": {
              "type": "tendermint/SignatureEd25519",
              "value": "FIXHTD8qEO1Gt3igT6YG9adJAClF82fqkUf0Iw6HNnRaUy5oaULvtCS7SL1m9hEVeQH/o0hyXZgRi2m5g9+aCg=="
            }
          },
          {
            "validator_address": "807CF675BA8479FC4FEC1047215DF07970040F1F",
            "validator_index": "47",
            "height": "24557",
            "round": "1",
            "timestamp": "2018-07-31T22:32:13.243226632Z",
            "type": 2,
            "block_id": {
              "hash": "07ACFA782070C36B2FC0154762A1B537CB2ED840",
              "parts": {
                "total": "1",
                "hash": "D8849E26AE96CB1C5792FA377E1CFAA951473538"
              }
            },
            "signature": {
              "type": "tendermint/SignatureEd25519",
              "value": "8MVTPT0zadftk5j4pAWMdfSe9QIotSyY3x6u3vt6tARfAtx3qu+KFW1nRNuXQn+KhmLV0RWLxHuK8Ws/5iGIDA=="
            }
          },
          {
            "validator_address": "83AB321E012C57746689FED3A6064DF331F81007",
            "validator_index": "48",
            "height": "24557",
            "round": "1",
            "timestamp": "2018-07-31T22:32:12.907035559Z",
            "type": 2,
            "block_id": {
              "hash": "07ACFA782070C36B2FC0154762A1B537CB2ED840",
              "parts": {
                "total": "1",
                "hash": "D8849E26AE96CB1C5792FA377E1CFAA951473538"
              }
            },
            "signature": {
              "type": "tendermint/SignatureEd25519",
              "value": "p9p3w+Wuw71OFCuAp/cw4YL/Y9xNYIz89rJkh+4jTcw/fM97olOf1KKRqPjFudcSobUFufT/HOVstUw9m6kRBQ=="
            }
          },
          {
            "validator_address": "83BB1B88D3DBB20AD845FECA07749EBD87D3754D",
            "validator_index": "49",
            "height": "24557",
            "round": "1",
            "timestamp": "2018-07-31T22:32:13.019806416Z",
            "type": 2,
            "block_id": {
              "hash": "07ACFA782070C36B2FC0154762A1B537CB2ED840",
              "parts": {
                "total": "1",
                "hash": "D8849E26AE96CB1C5792FA377E1CFAA951473538"
              }
            },
            "signature": {
              "type": "tendermint/SignatureEd25519",
              "value": "T44GSqYBUxR/OZSYH6G3lcTgBykRc8Imgg3adn3lKfbSQxKzgneNgDpIb/83j+aC0MgL0l4paBc4dh/+kbtLCQ=="
            }
          },
          {
            "validator_address": "8F06FE1FD042683C426137FBC4BBAA4288924217",
            "validator_index": "50",
            "height": "24557",
            "round": "1",
            "timestamp": "2018-07-31T22:32:12.908534082Z",
            "type": 2,
            "block_id": {
              "hash": "07ACFA782070C36B2FC0154762A1B537CB2ED840",
              "parts": {
                "total": "1",
                "hash": "D8849E26AE96CB1C5792FA377E1CFAA951473538"
              }
            },
            "signature": {
              "type": "tendermint/SignatureEd25519",
              "value": "8gr3rxdS2dRUXLwkdtfDKWEKRtdGW42VFFaSMdRHoz6AB2dkmFfLTMxXzMeAii/VnayXPlh7RbvGshD9sWFJDg=="
            }
          },
          {
            "validator_address": "8F45617BF45B10A3F8283DEBDB35E38C7CA43237",
            "validator_index": "51",
            "height": "24557",
            "round": "1",
            "timestamp": "2018-07-31T22:32:13.073136124Z",
            "type": 2,
            "block_id": {
              "hash": "07ACFA782070C36B2FC0154762A1B537CB2ED840",
              "parts": {
                "total": "1",
                "hash": "D8849E26AE96CB1C5792FA377E1CFAA951473538"
              }
            },
            "signature": {
              "type": "tendermint/SignatureEd25519",
              "value": "8d0VNiKxmqiGPPvIljqC4ibo1hg7YCPt5aptU2zjwomjFgJz9EeSJU+n3zkDA2hupgq13Jpl+4qpyBSzPYCOAQ=="
            }
          },
          {
            "validator_address": "95980831E186F2540F6E9FB6C8E74DE2401405AC",
            "validator_index": "52",
            "height": "24557",
            "round": "1",
            "timestamp": "2018-07-31T22:32:12.869028914Z",
            "type": 2,
            "block_id": {
              "hash": "07ACFA782070C36B2FC0154762A1B537CB2ED840",
              "parts": {
                "total": "1",
                "hash": "D8849E26AE96CB1C5792FA377E1CFAA951473538"
              }
            },
            "signature": {
              "type": "tendermint/SignatureEd25519",
              "value": "YDGu57FUCXN47ZKP2jmgOBYVLLVpl1wK+52iaRwlkFzlh3hRH2IcnoCoLFmuXHpSRkG+u7Umzz0cWobRBmWUDA=="
            }
          },
          {
            "validator_address": "95FAFBC1E0579C83D290A063020CE87C5334BD9B",
            "validator_index": "53",
            "height": "24557",
            "round": "1",
            "timestamp": "2018-07-31T22:32:12.911813012Z",
            "type": 2,
            "block_id": {
              "hash": "07ACFA782070C36B2FC0154762A1B537CB2ED840",
              "parts": {
                "total": "1",
                "hash": "D8849E26AE96CB1C5792FA377E1CFAA951473538"
              }
            },
            "signature": {
              "type": "tendermint/SignatureEd25519",
              "value": "dRw8BbJ82+8FGlfbRP5wLKA7PY/k9a1riwlRIytcrzdBKY4A7a+h7RjPeVQ+JErsJauQHhalEvl8jpKeZUfLBQ=="
            }
          },
          {
            "validator_address": "96BDE45EC52606CF5CB59853097871AD60680549",
            "validator_index": "54",
            "height": "24557",
            "round": "1",
            "timestamp": "2018-07-31T22:32:12.865879893Z",
            "type": 2,
            "block_id": {
              "hash": "07ACFA782070C36B2FC0154762A1B537CB2ED840",
              "parts": {
                "total": "1",
                "hash": "D8849E26AE96CB1C5792FA377E1CFAA951473538"
              }
            },
            "signature": {
              "type": "tendermint/SignatureEd25519",
              "value": "POSVH7xlUVAzbIWyAXXUgGmZ0YL0yhV1zcabWhTMoWDFWGAb7+Oj/mhbi6TOUCiOvu2walQWit5hCycXiWyMAA=="
            }
          },
          {
            "validator_address": "970CD321881185BF83DB2923C321B0E75FDBB2B8",
            "validator_index": "55",
            "height": "24557",
            "round": "1",
            "timestamp": "2018-07-31T22:32:12.956031748Z",
            "type": 2,
            "block_id": {
              "hash": "07ACFA782070C36B2FC0154762A1B537CB2ED840",
              "parts": {
                "total": "1",
                "hash": "D8849E26AE96CB1C5792FA377E1CFAA951473538"
              }
            },
            "signature": {
              "type": "tendermint/SignatureEd25519",
              "value": "PK45sH1zRFiWtpqzi/25V/9LvBizINO+0nFeW91TmvuoyWe6ILntFWiBzNeBoDoNaSIg4JSqm1or1Z69s6TEAA=="
            }
          },
          {
            "validator_address": "97DBB3D4B3D6C29287244864448F651DD5B07390",
            "validator_index": "56",
            "height": "24557",
            "round": "1",
            "timestamp": "2018-07-31T22:32:13.00474116Z",
            "type": 2,
            "block_id": {
              "hash": "07ACFA782070C36B2FC0154762A1B537CB2ED840",
              "parts": {
                "total": "1",
                "hash": "D8849E26AE96CB1C5792FA377E1CFAA951473538"
              }
            },
            "signature": {
              "type": "tendermint/SignatureEd25519",
              "value": "kIPj1x+TU7TTnBq5qncGf2KIHOmBCKCVIW3qU+MDgOWCzl2f4rHL+ovv7qpoWdHCte8qj0P7KL7vyXhs0SQYBQ=="
            }
          },
          {
            "validator_address": "9C29C9B76D27586E4D9AD2AED0E943162645E55C",
            "validator_index": "57",
            "height": "24557",
            "round": "1",
            "timestamp": "2018-07-31T22:32:12.850700715Z",
            "type": 2,
            "block_id": {
              "hash": "07ACFA782070C36B2FC0154762A1B537CB2ED840",
              "parts": {
                "total": "1",
                "hash": "D8849E26AE96CB1C5792FA377E1CFAA951473538"
              }
            },
            "signature": {
              "type": "tendermint/SignatureEd25519",
              "value": "FEVgVlopv1hSytS5EkgoAVTaMK3/JI2myUdM8Diq4JXACiDvKfgbohHES9Zmqm3yBngw9K5Lmsgz2LrT8p0VDg=="
            }
          },
          {
            "validator_address": "9D93AD02FE1BD7E76B9E58D7EB461088EAD011E5",
            "validator_index": "58",
            "height": "24557",
            "round": "1",
            "timestamp": "2018-07-31T22:32:12.877226984Z",
            "type": 2,
            "block_id": {
              "hash": "07ACFA782070C36B2FC0154762A1B537CB2ED840",
              "parts": {
                "total": "1",
                "hash": "D8849E26AE96CB1C5792FA377E1CFAA951473538"
              }
            },
            "signature": {
              "type": "tendermint/SignatureEd25519",
              "value": "Od3WhYAdgUMM2h6cp23kue+vc6jUBFphoD8njTYWvXVwZrIV+uo2Eu6uyt6+DYChVyaZsdgqxlQtt0HBagBaCQ=="
            }
          },
          {
            "validator_address": "A0A6466F4ABEA09C3B55E3709AFDE217A103209F",
            "validator_index": "59",
            "height": "24557",
            "round": "1",
            "timestamp": "2018-07-31T22:32:12.835629998Z",
            "type": 2,
            "block_id": {
              "hash": "07ACFA782070C36B2FC0154762A1B537CB2ED840",
              "parts": {
                "total": "1",
                "hash": "D8849E26AE96CB1C5792FA377E1CFAA951473538"
              }
            },
            "signature": {
              "type": "tendermint/SignatureEd25519",
              "value": "Xf/i0QU8qEjbDCzIoUPO0LtGXuOtpaVDsbU72dmXW85Ll7W3G3rTMFCWOMcqQPB9DFw3bc3Fk6CfB+clBRZSCw=="
            }
          },
          {
            "validator_address": "A5868971300F155020634D7BB49C7634F7AACCD3",
            "validator_index": "60",
            "height": "24557",
            "round": "1",
            "timestamp": "2018-07-31T22:32:12.843466717Z",
            "type": 2,
            "block_id": {
              "hash": "07ACFA782070C36B2FC0154762A1B537CB2ED840",
              "parts": {
                "total": "1",
                "hash": "D8849E26AE96CB1C5792FA377E1CFAA951473538"
              }
            },
            "signature": {
              "type": "tendermint/SignatureEd25519",
              "value": "8I9AbBUYlqTUfEsB8gNkECos2DPjru+ZtKrFcuo4uDcydOTa31UqOEq1/85MBcO0MQx9IP53l6ioPdLAaCmdCg=="
            }
          },
          {
            "validator_address": "A6B3A5B5D982CFD7B5FDFA15CF5A720E7AE25E7F",
            "validator_index": "61",
            "height": "24557",
            "round": "1",
            "timestamp": "2018-07-31T22:32:12.959763469Z",
            "type": 2,
            "block_id": {
              "hash": "07ACFA782070C36B2FC0154762A1B537CB2ED840",
              "parts": {
                "total": "1",
                "hash": "D8849E26AE96CB1C5792FA377E1CFAA951473538"
              }
            },
            "signature": {
              "type": "tendermint/SignatureEd25519",
              "value": "DbGUlk8yZbvzxc8h0uJ4Lk8hQzeCUpQxpN5H1ZrFTobnOdKDyutoAjnb0+q1NtaeVvmfgoczevazZEyBtRbPAw=="
            }
          },
          {
            "validator_address": "AC96444A9083890B7C7B430DB17BF1D3EA5EED04",
            "validator_index": "62",
            "height": "24557",
            "round": "1",
            "timestamp": "2018-07-31T22:32:12.921569594Z",
            "type": 2,
            "block_id": {
              "hash": "07ACFA782070C36B2FC0154762A1B537CB2ED840",
              "parts": {
                "total": "1",
                "hash": "D8849E26AE96CB1C5792FA377E1CFAA951473538"
              }
            },
            "signature": {
              "type": "tendermint/SignatureEd25519",
              "value": "3WKUUvJBInjzBzfyIUYBTKZsz8SODXmvWrRcScNJZOKlLUDd2Xu4yW7ODoWpOBkyqxHEHamkMBlOyJbf7ZxyCQ=="
            }
          },
          {
            "validator_address": "ACB97FDA2D940AF0709B73537C458EB988AD2893",
            "validator_index": "63",
            "height": "24557",
            "round": "1",
            "timestamp": "2018-07-31T22:32:12.865628182Z",
            "type": 2,
            "block_id": {
              "hash": "07ACFA782070C36B2FC0154762A1B537CB2ED840",
              "parts": {
                "total": "1",
                "hash": "D8849E26AE96CB1C5792FA377E1CFAA951473538"
              }
            },
            "signature": {
              "type": "tendermint/SignatureEd25519",
              "value": "ZbIZkJhOee25pXOZniVJE0Th5ec9pIN/9nhbpUdoFQjMGEaSwsP0NijvX+WdCPof9EmW+ZOSAp9EUDmsiaS2BQ=="
            }
          },
          {
            "validator_address": "B197425B3210375F211661DE02EF2AE36580EB0F",
            "validator_index": "64",
            "height": "24557",
            "round": "1",
            "timestamp": "2018-07-31T22:32:12.91850828Z",
            "type": 2,
            "block_id": {
              "hash": "07ACFA782070C36B2FC0154762A1B537CB2ED840",
              "parts": {
                "total": "1",
                "hash": "D8849E26AE96CB1C5792FA377E1CFAA951473538"
              }
            },
            "signature": {
              "type": "tendermint/SignatureEd25519",
              "value": "a9vOBg9eNjZzJT97XOWfEto17phRtM/4O5VlCE2BpHrBiO2NHhM83JVejyx5kK69UQNFAUUUDzOHGRWD+R2oCQ=="
            }
          },
          {
            "validator_address": "B45E54D2D1CB5A4CCD1D49016608C18E7C56B270",
            "validator_index": "65",
            "height": "24557",
            "round": "1",
            "timestamp": "2018-07-31T22:32:12.968590125Z",
            "type": 2,
            "block_id": {
              "hash": "07ACFA782070C36B2FC0154762A1B537CB2ED840",
              "parts": {
                "total": "1",
                "hash": "D8849E26AE96CB1C5792FA377E1CFAA951473538"
              }
            },
            "signature": {
              "type": "tendermint/SignatureEd25519",
              "value": "8mX66rcxHVRohJcSC5sx9pD+1sUEAJUrtCDgil5XPHUEFfneFkZxOzvlT4fwbsJ1NEpizo2mHFIX7sNbXxUeBQ=="
            }
          },
          {
            "validator_address": "B59A34C0BE4EC73AF6A67D274F1695C9259C237C",
            "validator_index": "66",
            "height": "24557",
            "round": "1",
            "timestamp": "2018-07-31T22:32:13.162829971Z",
            "type": 2,
            "block_id": {
              "hash": "07ACFA782070C36B2FC0154762A1B537CB2ED840",
              "parts": {
                "total": "1",
                "hash": "D8849E26AE96CB1C5792FA377E1CFAA951473538"
              }
            },
            "signature": {
              "type": "tendermint/SignatureEd25519",
              "value": "zou1J23LuncIwGYppwPhA1KWE00HUxmt879Uo6EHmd2dTCPXNxdxGmPUwaKbXD36t5rnkT5yRsxfbgKfb032Dg=="
            }
          },
          {
            "validator_address": "BB1276BE89834835428664408917649FEEF5D90C",
            "validator_index": "67",
            "height": "24557",
            "round": "1",
            "timestamp": "2018-07-31T22:32:12.974421407Z",
            "type": 2,
            "block_id": {
              "hash": "07ACFA782070C36B2FC0154762A1B537CB2ED840",
              "parts": {
                "total": "1",
                "hash": "D8849E26AE96CB1C5792FA377E1CFAA951473538"
              }
            },
            "signature": {
              "type": "tendermint/SignatureEd25519",
              "value": "QXqL/Llat/dwB83I6cFdyhMg/tV2neCPHd0ejYHg/kIC5ZBwwlFhAyL77IbeST/3HokIZ522VQ6qsTwnui9fCw=="
            }
          },
          {
            "validator_address": "BC36FEDD6EF6071118A3E51859DF3831A2EC4782",
            "validator_index": "68",
            "height": "24557",
            "round": "1",
            "timestamp": "2018-07-31T22:32:12.88164342Z",
            "type": 2,
            "block_id": {
              "hash": "07ACFA782070C36B2FC0154762A1B537CB2ED840",
              "parts": {
                "total": "1",
                "hash": "D8849E26AE96CB1C5792FA377E1CFAA951473538"
              }
            },
            "signature": {
              "type": "tendermint/SignatureEd25519",
              "value": "5+DV0xM49dM1n+P9Xxx7LT+choiPiTQOQctt67RCp3nTdGVUedtlQHzm81Uchmj056qOQdfEd+ytwx1WyLKKDw=="
            }
          },
          {
            "validator_address": "BD9D0DA513BF099DB4BB6E725A4E19832789882F",
            "validator_index": "69",
            "height": "24557",
            "round": "1",
            "timestamp": "2018-07-31T22:32:12.826520929Z",
            "type": 2,
            "block_id": {
              "hash": "07ACFA782070C36B2FC0154762A1B537CB2ED840",
              "parts": {
                "total": "1",
                "hash": "D8849E26AE96CB1C5792FA377E1CFAA951473538"
              }
            },
            "signature": {
              "type": "tendermint/SignatureEd25519",
              "value": "duEUmr5uhEjWNKEDCSPNRRhtADI1GzWV0KdZDTHmlMYxrPoqv386V8GXu5WPBqHIManBSIWVn5t/Ooa4BLrEDA=="
            }
          },
          {
            "validator_address": "C1134A2FF8F7338E7CDB3FE57DDD2A655DEB1E22",
            "validator_index": "70",
            "height": "24557",
            "round": "1",
            "timestamp": "2018-07-31T22:32:12.568926099Z",
            "type": 2,
            "block_id": {
              "hash": "07ACFA782070C36B2FC0154762A1B537CB2ED840",
              "parts": {
                "total": "1",
                "hash": "D8849E26AE96CB1C5792FA377E1CFAA951473538"
              }
            },
            "signature": {
              "type": "tendermint/SignatureEd25519",
              "value": "ynhsRZc+/Wfu+b5jD3qVg2IBpHdyssIjJSs7jAnAnfUC75HtAwv5DZfK5yQsJxIsLXWptPtAIjYilzJfWAQDAw=="
            }
          },
          {
            "validator_address": "C39A8A2B85198DCB8F23AD1F6C198E2BA7AB5D60",
            "validator_index": "71",
            "height": "24557",
            "round": "1",
            "timestamp": "2018-07-31T22:32:12.928083805Z",
            "type": 2,
            "block_id": {
              "hash": "07ACFA782070C36B2FC0154762A1B537CB2ED840",
              "parts": {
                "total": "1",
                "hash": "D8849E26AE96CB1C5792FA377E1CFAA951473538"
              }
            },
            "signature": {
              "type": "tendermint/SignatureEd25519",
              "value": "OkNIniHHqQiAF2agXh/ZGFPz7TG3NQmaBPlOMZUW8q1r/Lay5CJSKlZpmZHwTzH99PUj/T4azyDgU33uUjFZDw=="
            }
          },
          {
            "validator_address": "C4335190C3B5BD4BA5568BC0F99C34162D940D08",
            "validator_index": "72",
            "height": "24557",
            "round": "1",
            "timestamp": "2018-07-31T22:32:12.925047804Z",
            "type": 2,
            "block_id": {
              "hash": "07ACFA782070C36B2FC0154762A1B537CB2ED840",
              "parts": {
                "total": "1",
                "hash": "D8849E26AE96CB1C5792FA377E1CFAA951473538"
              }
            },
            "signature": {
              "type": "tendermint/SignatureEd25519",
              "value": "7CzIn+Fa7k3QrLVSHNxicZuCauLPDgPVjPlzHXS+9JLzltH/o++UNR3++uNJIXDEXiGd6LvD0DkeGC9agLu6Cw=="
            }
          },
          {
            "validator_address": "C561CFA081677046376396922E7576E5F7B316AD",
            "validator_index": "73",
            "height": "24557",
            "round": "1",
            "timestamp": "2018-07-31T22:32:13.037098006Z",
            "type": 2,
            "block_id": {
              "hash": "07ACFA782070C36B2FC0154762A1B537CB2ED840",
              "parts": {
                "total": "1",
                "hash": "D8849E26AE96CB1C5792FA377E1CFAA951473538"
              }
            },
            "signature": {
              "type": "tendermint/SignatureEd25519",
              "value": "bIAZvHo7ZYMEs6l2FMOX3dW/xAGjexqov4LUcrF5BGMwBctTqFwgXbnBjSArOKpAV3z9i61EvLZaFa1IVkxSAA=="
            }
          },
          {
            "validator_address": "CE589EA77B056D268D30D1DC1D68A70E0F885E95",
            "validator_index": "74",
            "height": "24557",
            "round": "1",
            "timestamp": "2018-07-31T22:32:12.875261058Z",
            "type": 2,
            "block_id": {
              "hash": "07ACFA782070C36B2FC0154762A1B537CB2ED840",
              "parts": {
                "total": "1",
                "hash": "D8849E26AE96CB1C5792FA377E1CFAA951473538"
              }
            },
            "signature": {
              "type": "tendermint/SignatureEd25519",
              "value": "JRJWbT3Xr+1bfuARjORFUzz+ukCmchFMCmKo0fU5Jy/X+fpLOi97yRAlW0TSqU1tHf8An0YHilUb5GZYusekAw=="
            }
          },
          {
            "validator_address": "CEB97DB5CB18270247ABDE6CF2F84F9AEE8A2904",
            "validator_index": "75",
            "height": "24557",
            "round": "1",
            "timestamp": "2018-07-31T22:32:13.303053155Z",
            "type": 2,
            "block_id": {
              "hash": "07ACFA782070C36B2FC0154762A1B537CB2ED840",
              "parts": {
                "total": "1",
                "hash": "D8849E26AE96CB1C5792FA377E1CFAA951473538"
              }
            },
            "signature": {
              "type": "tendermint/SignatureEd25519",
              "value": "Jqmq2ZHAfhm4qcKfSlUZrlTCEN2VSsvrf5p+MHzew7nQ/FLIjmeMFBEUY0fsh1Ii64iue53qY5T88+MgeTE5CA=="
            }
          },
          {
            "validator_address": "CF205769734F5758CC39F907EFB73D6BAF915FB1",
            "validator_index": "76",
            "height": "24557",
            "round": "1",
            "timestamp": "2018-07-31T22:32:12.937492819Z",
            "type": 2,
            "block_id": {
              "hash": "07ACFA782070C36B2FC0154762A1B537CB2ED840",
              "parts": {
                "total": "1",
                "hash": "D8849E26AE96CB1C5792FA377E1CFAA951473538"
              }
            },
            "signature": {
              "type": "tendermint/SignatureEd25519",
              "value": "vvPoC5X6Mr3LAf/mJdK39BgSWt+Ej6KVghxofavHquuAlnodsf5LAD4Km4ef9CpvBmvSj7Ic3aqn/Cy/CR+XAg=="
            }
          },
          null,
          {
            "validator_address": "D6285C3422C8886445D53757CBE12D2B91B5A9D0",
            "validator_index": "78",
            "height": "24557",
            "round": "1",
            "timestamp": "2018-07-31T22:31:55.669330138Z",
            "type": 2,
            "block_id": {
              "hash": "07ACFA782070C36B2FC0154762A1B537CB2ED840",
              "parts": {
                "total": "1",
                "hash": "D8849E26AE96CB1C5792FA377E1CFAA951473538"
              }
            },
            "signature": {
              "type": "tendermint/SignatureEd25519",
              "value": "gPsjx/rwr7CKOo9FDVSrLHSVG6VK30AWnGDzed8mRfGIcIHvRFg7gDixKq1lq6to46kqdq5UjO5MIje1x/ycCQ=="
            }
          },
          {
            "validator_address": "D77FB84A729972CD3E757C9BEB61561855832B92",
            "validator_index": "79",
            "height": "24557",
            "round": "1",
            "timestamp": "2018-07-31T22:32:13.025130816Z",
            "type": 2,
            "block_id": {
              "hash": "07ACFA782070C36B2FC0154762A1B537CB2ED840",
              "parts": {
                "total": "1",
                "hash": "D8849E26AE96CB1C5792FA377E1CFAA951473538"
              }
            },
            "signature": {
              "type": "tendermint/SignatureEd25519",
              "value": "PsvlZRidTV7O8pb8NdTTTE4iQDfAjgR05YUexZxX/bbq86UyS4sNytT0NexSW9wQrtzeCwwx075cVG4ezfgsDQ=="
            }
          },
          {
            "validator_address": "DB7E6732471D3EA5C90C17A9974D9F88AB45F2FB",
            "validator_index": "80",
            "height": "24557",
            "round": "1",
            "timestamp": "2018-07-31T22:32:12.884886096Z",
            "type": 2,
            "block_id": {
              "hash": "07ACFA782070C36B2FC0154762A1B537CB2ED840",
              "parts": {
                "total": "1",
                "hash": "D8849E26AE96CB1C5792FA377E1CFAA951473538"
              }
            },
            "signature": {
              "type": "tendermint/SignatureEd25519",
              "value": "9jzX/iYuHUM8V5NI0qQpctb8P+HtOi4qSK25BTb+aGeQeX6GwKfHi+Zp2Cfp0quA1cbTT4WVaZ6aRToDUQYeAA=="
            }
          },
          {
            "validator_address": "DF54B862410BCD9B5C516FBB6C56BDC826ED6FA7",
            "validator_index": "81",
            "height": "24557",
            "round": "1",
            "timestamp": "2018-07-31T22:32:12.991304395Z",
            "type": 2,
            "block_id": {
              "hash": "07ACFA782070C36B2FC0154762A1B537CB2ED840",
              "parts": {
                "total": "1",
                "hash": "D8849E26AE96CB1C5792FA377E1CFAA951473538"
              }
            },
            "signature": {
              "type": "tendermint/SignatureEd25519",
              "value": "dzk2leJmbHxgippQp5GZP7OVQ3oXDj2Ex1v7G6yd+W9Zj1hVWxCnoZpsnuncI7JuwH4Huw/PZcXsqD5FLvsEBQ=="
            }
          },
          {
            "validator_address": "DFAF0C8B1B78D6D552B0189DE3ACA351439A1319",
            "validator_index": "82",
            "height": "24557",
            "round": "1",
            "timestamp": "2018-07-31T22:32:12.861665309Z",
            "type": 2,
            "block_id": {
              "hash": "07ACFA782070C36B2FC0154762A1B537CB2ED840",
              "parts": {
                "total": "1",
                "hash": "D8849E26AE96CB1C5792FA377E1CFAA951473538"
              }
            },
            "signature": {
              "type": "tendermint/SignatureEd25519",
              "value": "mPstnGT5ubH7dqyYJs3vEOvyfi+e6OyxHjJoALWtVGh/bqK5I4aIFccL+ANWl+KKRvVxYar4jkYeStU9pwuICQ=="
            }
          },
          {
            "validator_address": "E1DBC77881161A5A3A8536A57536EAE546A75D69",
            "validator_index": "83",
            "height": "24557",
            "round": "1",
            "timestamp": "2018-07-31T22:32:12.834804872Z",
            "type": 2,
            "block_id": {
              "hash": "07ACFA782070C36B2FC0154762A1B537CB2ED840",
              "parts": {
                "total": "1",
                "hash": "D8849E26AE96CB1C5792FA377E1CFAA951473538"
              }
            },
            "signature": {
              "type": "tendermint/SignatureEd25519",
              "value": "lv6a8br+1n2ZlSRXVqpWS6ha2ehlsguPytfeUrTFDzMiueRu23v0zLoEQZI3McdOfQci6ulftgNZh6MlN4GsAQ=="
            }
          },
          {
            "validator_address": "E300E9D484374C1D3E97C1D93CAC3B160A056298",
            "validator_index": "84",
            "height": "24557",
            "round": "1",
            "timestamp": "2018-07-31T22:32:13.130531053Z",
            "type": 2,
            "block_id": {
              "hash": "07ACFA782070C36B2FC0154762A1B537CB2ED840",
              "parts": {
                "total": "1",
                "hash": "D8849E26AE96CB1C5792FA377E1CFAA951473538"
              }
            },
            "signature": {
              "type": "tendermint/SignatureEd25519",
              "value": "97BhWiT/+Nugzk87SPFvGWzW8obN40o0SMkXCx9adFOTN1mRdsGjgCaKYr7Z04hWNuN7wZK0Pn/TdsyBvHa8Cw=="
            }
          },
          {
            "validator_address": "E39B5778E0D4297A46F45CF6940B0A163A430FF8",
            "validator_index": "85",
            "height": "24557",
            "round": "1",
            "timestamp": "2018-07-31T22:32:12.904176338Z",
            "type": 2,
            "block_id": {
              "hash": "07ACFA782070C36B2FC0154762A1B537CB2ED840",
              "parts": {
                "total": "1",
                "hash": "D8849E26AE96CB1C5792FA377E1CFAA951473538"
              }
            },
            "signature": {
              "type": "tendermint/SignatureEd25519",
              "value": "zc9u/8YOc87IiiWvrrmA9JM6ZATsFeoGCSvOchQoixYW+2Qdtg7mC3jzHPQyauuMoBwcnl6hdc7o25+7V4C0DA=="
            }
          },
          {
            "validator_address": "E3B19738F7132F950668504D326C7660F159D170",
            "validator_index": "86",
            "height": "24557",
            "round": "1",
            "timestamp": "2018-07-31T22:32:12.8910324Z",
            "type": 2,
            "block_id": {
              "hash": "07ACFA782070C36B2FC0154762A1B537CB2ED840",
              "parts": {
                "total": "1",
                "hash": "D8849E26AE96CB1C5792FA377E1CFAA951473538"
              }
            },
            "signature": {
              "type": "tendermint/SignatureEd25519",
              "value": "mzUQMRYcbuK/S0APZ/PlLwH3ujQ9x++srtXIMcvmlcX93qVdlfLe3kWN2y3dyDAsObZ6ZOsNyPQVtFz815ttAA=="
            }
          },
          {
            "validator_address": "E42F8AEABB685219F7027F54D2B0DBC7846F633A",
            "validator_index": "87",
            "height": "24557",
            "round": "1",
            "timestamp": "2018-07-31T22:32:12.011759922Z",
            "type": 2,
            "block_id": {
              "hash": "07ACFA782070C36B2FC0154762A1B537CB2ED840",
              "parts": {
                "total": "1",
                "hash": "D8849E26AE96CB1C5792FA377E1CFAA951473538"
              }
            },
            "signature": {
              "type": "tendermint/SignatureEd25519",
              "value": "e6HKM62CRLRTSAS5fhWV2sfnwc+9fg7rPzbW9FItq/ClliGaxmVIgBHu4NcS1vEgdEFIFxDw+bEoqZZjULeKCQ=="
            }
          },
          {
            "validator_address": "E4E6C2E81269DFFA196C17F98240E491479A6008",
            "validator_index": "88",
            "height": "24557",
            "round": "1",
            "timestamp": "2018-07-31T22:32:12.99661467Z",
            "type": 2,
            "block_id": {
              "hash": "07ACFA782070C36B2FC0154762A1B537CB2ED840",
              "parts": {
                "total": "1",
                "hash": "D8849E26AE96CB1C5792FA377E1CFAA951473538"
              }
            },
            "signature": {
              "type": "tendermint/SignatureEd25519",
              "value": "qG3WDH/QU2i6lWMx5ffN86LWByyLS+DfKKl/Fcb2pkY0YYH4HoI7PKpxGci5fgXmc7MEOxs3hyiSbqTtlfMAAA=="
            }
          },
          {
            "validator_address": "E4FEB2846F4F3B0ECDCBE9C9DCB2248248A5AF0F",
            "validator_index": "89",
            "height": "24557",
            "round": "1",
            "timestamp": "2018-07-31T22:32:13.298654722Z",
            "type": 2,
            "block_id": {
              "hash": "07ACFA782070C36B2FC0154762A1B537CB2ED840",
              "parts": {
                "total": "1",
                "hash": "D8849E26AE96CB1C5792FA377E1CFAA951473538"
              }
            },
            "signature": {
              "type": "tendermint/SignatureEd25519",
              "value": "SSR5hsksfaK+duuyAsjXYoRRMvRWTbXJFNIa5W0wZ/KKB1FQpSnHWzoN5TZ/icJMlQM1aAaAZAScwp4NNyl/Bw=="
            }
          },
          {
            "validator_address": "E6A7079D584B163750BE0831227F6B685DEAF3C1",
            "validator_index": "90",
            "height": "24557",
            "round": "1",
            "timestamp": "2018-07-31T22:32:12.987549754Z",
            "type": 2,
            "block_id": {
              "hash": "07ACFA782070C36B2FC0154762A1B537CB2ED840",
              "parts": {
                "total": "1",
                "hash": "D8849E26AE96CB1C5792FA377E1CFAA951473538"
              }
            },
            "signature": {
              "type": "tendermint/SignatureEd25519",
              "value": "x9laHWciIBszMdATup8Xo85FCpY92422WbXrcv9nuKsr51ZtN/TjVsPs1jM8Wty30XYIMtqFG5XCogYzI50YBQ=="
            }
          },
          {
            "validator_address": "E7A30077D5D11867D3EAF99ED45BFDC1EB834509",
            "validator_index": "91",
            "height": "24557",
            "round": "1",
            "timestamp": "2018-07-31T22:32:12.870583184Z",
            "type": 2,
            "block_id": {
              "hash": "07ACFA782070C36B2FC0154762A1B537CB2ED840",
              "parts": {
                "total": "1",
                "hash": "D8849E26AE96CB1C5792FA377E1CFAA951473538"
              }
            },
            "signature": {
              "type": "tendermint/SignatureEd25519",
              "value": "LKgulRqX0x9cspAx+VF611WDhNhxO/9HjsdXe58UbqY05QFhyHGe+wRwrTCBKqu9tHVqShiqPHwTgBRWiinwBQ=="
            }
          },
          {
            "validator_address": "EBC613967F66F4EC306852CDF58B4F151CF16738",
            "validator_index": "92",
            "height": "24557",
            "round": "1",
            "timestamp": "2018-07-31T22:32:13.011667161Z",
            "type": 2,
            "block_id": {
              "hash": "07ACFA782070C36B2FC0154762A1B537CB2ED840",
              "parts": {
                "total": "1",
                "hash": "D8849E26AE96CB1C5792FA377E1CFAA951473538"
              }
            },
            "signature": {
              "type": "tendermint/SignatureEd25519",
              "value": "LVPc79+UoKgDAJMFFV3xhd7ydxHoU1G3tN+RLcdRrG7S9Q2s/1pOirtQ9gcdC815YvY/RtDSQVmAM+vZoPMOBQ=="
            }
          },
          {
            "validator_address": "EC3401441726C40ECC7E51F744483B05BC6DE9BD",
            "validator_index": "93",
            "height": "24557",
            "round": "1",
            "timestamp": "2018-07-31T22:32:12.915304835Z",
            "type": 2,
            "block_id": {
              "hash": "07ACFA782070C36B2FC0154762A1B537CB2ED840",
              "parts": {
                "total": "1",
                "hash": "D8849E26AE96CB1C5792FA377E1CFAA951473538"
              }
            },
            "signature": {
              "type": "tendermint/SignatureEd25519",
              "value": "tWQ+eUwuNTRrNeojAD6Ht2nWf08GoAtZbWySsf6V0PRlEivwmS9ydX8Sm+Kzh+Cc/y8B50qu5hzsXvKNTe+YBw=="
            }
          },
          {
            "validator_address": "EC95B111D032181E1EC3B5E8875C5BB8E4AE7140",
            "validator_index": "94",
            "height": "24557",
            "round": "1",
            "timestamp": "2018-07-31T22:32:12.83782004Z",
            "type": 2,
            "block_id": {
              "hash": "07ACFA782070C36B2FC0154762A1B537CB2ED840",
              "parts": {
                "total": "1",
                "hash": "D8849E26AE96CB1C5792FA377E1CFAA951473538"
              }
            },
            "signature": {
              "type": "tendermint/SignatureEd25519",
              "value": "+mv5OL8Q78qYsiWHc/hlemCo83KFb2nusDZw7MmK5y5omjF7Pu5fv+XTbLtyCoKzH5dV8G7SP3/l9VICoPXbCg=="
            }
          },
          {
            "validator_address": "F13C1805E8131C9B47E2A46818F57D8A2841E578",
            "validator_index": "95",
            "height": "24557",
            "round": "1",
            "timestamp": "2018-07-31T22:32:12.929909733Z",
            "type": 2,
            "block_id": {
              "hash": "07ACFA782070C36B2FC0154762A1B537CB2ED840",
              "parts": {
                "total": "1",
                "hash": "D8849E26AE96CB1C5792FA377E1CFAA951473538"
              }
            },
            "signature": {
              "type": "tendermint/SignatureEd25519",
              "value": "Z3n1Xh8ZzTj01OcFlfdcRUaxoz18/H8vjJ2o0sQDMrxBM8RtYBW3WPkmfc17MZMrEQ8EWmfpo+4eIUb219qWCg=="
            }
          },
          {
            "validator_address": "F23FF36BD5B90C33CE3A03ED72DBDCF5EC07D6AF",
            "validator_index": "96",
            "height": "24557",
            "round": "1",
            "timestamp": "2018-07-31T22:32:12.972370352Z",
            "type": 2,
            "block_id": {
              "hash": "07ACFA782070C36B2FC0154762A1B537CB2ED840",
              "parts": {
                "total": "1",
                "hash": "D8849E26AE96CB1C5792FA377E1CFAA951473538"
              }
            },
            "signature": {
              "type": "tendermint/SignatureEd25519",
              "value": "f16i9Ynjb62w4R721e+U2KxXminFr9PXT8QgvuHdDPwaj/qdZ06ppJ5Fk+dp3BBefkQfdHNA3ZL2AcCrPLocAw=="
            }
          },
          {
            "validator_address": "F4268597DE93E3E2CED38845010F8AA34E2A879E",
            "validator_index": "97",
            "height": "24557",
            "round": "1",
            "timestamp": "2018-07-31T22:32:12.96835642Z",
            "type": 2,
            "block_id": {
              "hash": "07ACFA782070C36B2FC0154762A1B537CB2ED840",
              "parts": {
                "total": "1",
                "hash": "D8849E26AE96CB1C5792FA377E1CFAA951473538"
              }
            },
            "signature": {
              "type": "tendermint/SignatureEd25519",
              "value": "Hq0gNiePKN/1YWD/aipXD3RysHLajMZWrLu9YHAec68aPiyj+n2YZ/Tw8Mt2JjUuCt9KtBF+2QFfEe/ytRrLBw=="
            }
          },
          {
            "validator_address": "F4DEB417999B04BE2EFF9FFE03FA373D86011CC0",
            "validator_index": "98",
            "height": "24557",
            "round": "1",
            "timestamp": "2018-07-31T22:32:12.905027013Z",
            "type": 2,
            "block_id": {
              "hash": "07ACFA782070C36B2FC0154762A1B537CB2ED840",
              "parts": {
                "total": "1",
                "hash": "D8849E26AE96CB1C5792FA377E1CFAA951473538"
              }
            },
            "signature": {
              "type": "tendermint/SignatureEd25519",
              "value": "1M6Fdb8FUhEI1Cf3yaji/AvPOFe1mHGrCMvZTCxvChNK/boR1gi/GGx3xbF3o+MaAPIYQz6On52uXk0DesKzBw=="
            }
          },
          {
            "validator_address": "F6738260186D33D9C14FC6E7017AFE6BB952A63D",
            "validator_index": "99",
            "height": "24557",
            "round": "1",
            "timestamp": "2018-07-31T22:32:12.883965729Z",
            "type": 2,
            "block_id": {
              "hash": "07ACFA782070C36B2FC0154762A1B537CB2ED840",
              "parts": {
                "total": "1",
                "hash": "D8849E26AE96CB1C5792FA377E1CFAA951473538"
              }
            },
            "signature": {
              "type": "tendermint/SignatureEd25519",
              "value": "dNPGWCjbzF+W/gheX+AsIiZeiQL287AUTAs/Yt1lMQDPBUmDiF9zZTdyu7zOCK+Ts2UGsWDC8YWhL+/nm2S1Cg=="
            }
          },
          {
            "validator_address": "FF3F3FCBCE7E62D7AD5506FF846EC4518D980515",
            "validator_index": "100",
            "height": "24557",
            "round": "1",
            "timestamp": "2018-07-31T22:32:12.873838352Z",
            "type": 2,
            "block_id": {
              "hash": "07ACFA782070C36B2FC0154762A1B537CB2ED840",
              "parts": {
                "total": "1",
                "hash": "D8849E26AE96CB1C5792FA377E1CFAA951473538"
              }
            },
            "signature": {
              "type": "tendermint/SignatureEd25519",
              "value": "FsUmOLiy0c5fKcOKMZr/djJLiBb2qi2EO1KdxJ1wR2DnQqV6Zx+raZWyr9VQ53MvjOV9GezYOyCvh9KXcStuAA=="
            }
          }
        ]
      }
    },
    "canonical": true
  }
}