{
  "jsonrpc": "2.0",
  "id": "",
  "result": {
    "SignedHeader": {
      "header": {
        "chain_id": "gaia-7004",
        "height": "24698",
        "time": "2018-07-31T22:46:49.963505834Z",
        "num_txs": "0",
        "last_block_id": {
          "hash": "1023A016E42D78F9D2858B3982A934022BD61610",
          "parts": {
            "total": "1",
            "hash": "5884B76DE62518CF964BB44A86C7F6D06A2F83BE"
          }
        },
        "total_txs": "710",
        "last_commit_hash": "E270B2C7728DD2A366F8E832CC950B855D0D8AE1",
        "data_hash": "",
        "validators_hash": "BAC635A3500BEEE9DBB7F25A034B3C5DA6751E38",
        "consensus_hash": "D6B74BB35BDFFD8392340F2A379173548AE188FE",
        "app_hash": "B15734F56D5DC6E5EC2F28965505F15AD61CE98B",
        "last_results_hash": "",
        "evidence_hash": ""
      },
      "commit": {
        "block_id": {
          "hash": "11FFA5D77E2374EA4E6130C461E5508A2C584F74",
          "parts": {
            "total": "1",
            "hash": "FC1DD23BF8C60D5E820516C9C6913F49D6A8D369"
          }
        },
        "precommits": [
          {
            "validator_address": "029359C0C768096273A68ABC902A6B17AC8D1D70",
            "validator_index": "0",
            "height": "24698",
            "round": "0",
            "timestamp": "2018-07-31T22:46:50.815930551Z",
            "type": 2,
            "block_id": {
              "hash": "11FFA5D77E2374EA4E6130C461E5508A2C584F74",
              "parts": {
                "total": "1",
                "hash": "FC1DD23BF8C60D5E820516C9C6913F49D6A8D369"
              }
            },
            "signature": {
              "type": "tendermint/SignatureEd25519",
              "value": "Hi5y/IxhWNgQlZLRSoKqSy7QY8nuIB3LvUetfzDPikZrNqE9A1LNFOf8n+Nmy+XM3ZH8XDHvFAK8TojNmXrcBQ=="
            }
          },
          {
            "validator_address": "02FE4B97A8387F39D1AC19E0C1702B3CC614812F",
            "validator_index": "1",
            "height": "24698",
            "round": "0",
            "timestamp": "2018-07-31T22:46:50.839213091Z",
            "type": 2,
            "block_id": {
              "hash": "11FFA5D77E2374EA4E6130C461E5508A2C584F74",
              "parts": {
                "total": "1",
                "hash": "FC1DD23BF8C60D5E820516C9C6913F49D6A8D369"
              }
            },
            "signature": {
              "type": "tendermint/SignatureEd25519",
              "value": "x3AYbLkKARivxQoAcFSefRsNiXTvHCbFWX/b7nUdKzJKSI0vn9LViADyQRk3JayTC8V/cdT7aAQCIeDdX9toBw=="
            }
          },
          {
            "validator_address": "0548261C50222FD710EB5EBDF03A0E6567B21D20",
            "validator_index": "2",
            "height": "24698",
            "round": "0",
            "timestamp": "2018-07-31T22:46:50.929928181Z",
            "type": 2,
            "block_id": {
              "hash": "11FFA5D77E2374EA4E6130C461E5508A2C584F74",
              "parts": {
                "total": "1",
                "hash": "FC1DD23BF8C60D5E820516C9C6913F49D6A8D369"
              }
            },
            "signature": {
              "type": "tendermint/SignatureEd25519",
              "value": "ZVMAVlhcGRQaucrC63ZVT1dMaQPpt+0TOL7BWPtiPzUd4zd8L3z+M1+8YPC4WYf6uRPaHniH1kdH7Y21ACj1DA=="
            }
          },
          {
            "validator_address": "09145E611CC27EEB944FC5A956DDF710F943B9EF",
            "validator_index": "3",
            "height": "24698",
            "round": "0",
            "timestamp": "2018-07-31T22:46:50.832842107Z",
            "type": 2,
            "block_id": {
              "hash": "11FFA5D77E2374EA4E6130C461E5508A2C584F74",
              "parts": {
                "total": "1",
                "hash": "FC1DD23BF8C60D5E820516C9C6913F49D6A8D369"
              }
            },
            "signature": {
              "type": "tendermint/SignatureEd25519",
              "value": "SSwuR/ivFyI7vKENgqhmO3LrTdrkjpNWdBLBEQecy47wWjDVvgdgkV2AkeMCKIezzIqf6DzGMk2GYr0LSnwBCg=="
            }
          },
          {
            "validator_address": "0989D0355A104B67AE0AE028C68FB610690E174B",
            "validator_index": "4",
            "height": "24698",
            "round": "0",
            "timestamp": "2018-07-31T22:46:50.796560968Z",
            "type": 2,
            "block_id": {
              "hash": "11FFA5D77E2374EA4E6130C461E5508A2C584F74",
              "parts": {
                "total": "1",
                "hash": "FC1DD23BF8C60D5E820516C9C6913F49D6A8D369"
              }
            },
            "signature": {
              "type": "tendermint/SignatureEd25519",
              "value": "AosixNIhxZlZj6nRhn3zS91gudfIA/QbKDJHTZEAWGdRfT/JcScs6w7reEwq6iCG6Q7EYimyLM5sNdcoorW3AQ=="
            }
          },
          {
            "validator_address": "0A692DBFFE9E5DD28E7DECC33CED1AEB4C0D014E",
            "validator_index": "5",
            "height": "24698",
            "round": "0",
            "timestamp": "2018-07-31T22:46:50.98973059Z",
            "type": 2,
            "block_id": {
              "hash": "11FFA5D77E2374EA4E6130C461E5508A2C584F74",
              "parts": {
                "total": "1",
                "hash": "FC1DD23BF8C60D5E820516C9C6913F49D6A8D369"
              }
            },
            "signature": {
              "type": "tendermint/SignatureEd25519",
              "value": "ZBUsX3wJwQZP03SdwY10ZYso/vlD3BVfVnlcb6rx59VGPN6mESyKwaVeAJjy+wwnqwHP/oDUlkINsyDJ8dlSBQ=="
            }
          },
          {
            "validator_address": "0DDF97111D73DB825138EC15EC27DE5FE8536901",
            "validator_index": "6",
            "height": "24698",
            "round": "0",
            "timestamp": "2018-07-31T22:46:50.841570103Z",
            "type": 2,
            "block_id": {
              "hash": "11FFA5D77E2374EA4E6130C461E5508A2C584F74",
              "parts": {
                "total": "1",
                "hash": "FC1DD23BF8C60D5E820516C9C6913F49D6A8D369"
              }
            },
            "signature": {
              "type": "tendermint/SignatureEd25519",
              "value": "+6AZIRih0C2ZC/Buc6Fo90/Z64mcLhnsB2z2E2nXEEqTbJuWI/yIuPjsLp+w4vRSCo0ZEG88R8FnpGc8kFOgCg=="
            }
          },
          {
            "validator_address": "1751786EFC085D5331C61168FFFC8202EA151B4E",
            "validator_index": "7",
            "height": "24698",
            "round": "0",
            "timestamp": "2018-07-31T22:46:50.397646581Z",
            "type": 2,
            "block_id": {
              "hash": "11FFA5D77E2374EA4E6130C461E5508A2C584F74",
              "parts": {
                "total": "1",
                "hash": "FC1DD23BF8C60D5E820516C9C6913F49D6A8D369"
              }
            },
            "signature": {
              "type": "tendermint/SignatureEd25519",
              "value": "7TPeS8My8MD5JijN2cPXfZp7fHmfuwfJLbdq6F8ZEyzXGLG5qO7vYSKqu6xAUD+V1z8tgdgcK9j627rAhLcRBw=="
            }
          },
          {
            "validator_address": "17BB5CD01E8940FAFB948A04D5FA5A0645E5822E",
            "validator_index": "8",
            "height": "24698",
            "round": "0",
            "timestamp": "2018-07-31T22:46:50.830511822Z",
            "type": 2,
            "block_id": {
              "hash": "11FFA5D77E2374EA4E6130C461E5508A2C584F74",
              "parts": {
                "total": "1",
                "hash": "FC1DD23BF8C60D5E820516C9C6913F49D6A8D369"
              }
            },
            "signature": {
              "type": "tendermint/SignatureEd25519",
              "value": "PBlwYwwu7sHtTIeXI4LyLnatant5TdMtQJof4MlvcXnL9bwCjWMIxjhy2zqEDqIsEKkDFX2UPlc6dH6bmhR4Cw=="
            }
          },
          {
            "validator_address": "1C683A87904BC38F05004FE83301A3A3E35447EB",
            "validator_index": "9",
            "height": "24698",
            "round": "0",
            "timestamp": "2018-07-31T22:46:50.762340755Z",
            "type": 2,
            "block_id": {
              "hash": "11FFA5D77E2374EA4E6130C461E5508A2C584F74",
              "parts": {
                "total": "1",
                "hash": "FC1DD23BF8C60D5E820516C9C6913F49D6A8D369"
              }
            },
            "signature": {
              "type": "tendermint/SignatureEd25519",
              "value": "e7k1TJT8JVEQELlVJfp1CykdkkYwdO2KHdevyaVKf/UBWCVtv8Oc/UOD70xA9Pjjz3FgVq309vCNaSPuFeRgAA=="
            }
          },
          {
            "validator_address": "1E9CE94FD0BA5CFEB901F90BC658D64D85B134D2",
            "validator_index": "10",
            "height": "24698",
            "round": "0",
            "timestamp": "2018-07-31T22:46:50.860769758Z",
            "type": 2,
            "block_id": {
              "hash": "11FFA5D77E2374EA4E6130C461E5508A2C584F74",
              "parts": {
                "total": "1",
                "hash": "FC1DD23BF8C60D5E820516C9C6913F49D6A8D369"
              }
            },
            "signature": {
              "type": "tendermint/SignatureEd25519",
              "value": "kndjxT0xBhNM2bzU9vC2RURhEdenBW/RzqiaxcyojsaDujh7oWZB4LFgVWcZOKrCNr9XXTnaMvwj1fKrCQxmBw=="
            }
          },
          {
            "validator_address": "1ECD8C5FE1341D74CDC633A245DD56858DE2F9A2",
            "validator_index": "11",
            "height": "24698",
            "round": "0",
            "timestamp": "2018-07-31T22:46:50.917773773Z",
            "type": 2,
            "block_id": {
              "hash": "11FFA5D77E2374EA4E6130C461E5508A2C584F74",
              "parts": {
                "total": "1",
                "hash": "FC1DD23BF8C60D5E820516C9C6913F49D6A8D369"
              }
            },
            "signature": {
              "type": "tendermint/SignatureEd25519",
              "value": "tD6UdJ/KzpVtg3OxpcpBxj8v8c53i/eS7PGZDeysdYhXZECTLJbtQ6Zi4AL74k1HQiJuWQGCzoFl4mUuW/cbDw=="
            }
          },
          {
            "validator_address": "1F3A68CAAD483768AA2BF667DEF10F7104C89928",
            "validator_index": "12",
            "height": "24698",
            "round": "0",
            "timestamp": "2018-07-31T22:46:50.803698414Z",
            "type": 2,
            "block_id": {
              "hash": "11FFA5D77E2374EA4E6130C461E5508A2C584F74",
              "parts": {
                "total": "1",
                "hash": "FC1DD23BF8C60D5E820516C9C6913F49D6A8D369"
              }
            },
            "signature": {
              "type": "tendermint/SignatureEd25519",
              "value": "61kGlRYit2jRIAAw7zDxQk//V9JHy4NlcXuoNHr8LnZMuJlAcS8hOwBkDrN46GJa4Dr62E6c0Kf8LOHyg49QAg=="
            }
          },
          {
            "validator_address": "23897586D68E2AC1C78E0EF5BB5DF5C8EAB18F50",
            "validator_index": "13",
            "height": "24698",
            "round": "0",
            "timestamp": "2018-07-31T22:46:50.834666239Z",
            "type": 2,
            "block_id": {
              "hash": "11FFA5D77E2374EA4E6130C461E5508A2C584F74",
              "parts": {
                "total": "1",
                "hash": "FC1DD23BF8C60D5E820516C9C6913F49D6A8D369"
              }
            },
            "signature": {
              "type": "tendermint/SignatureEd25519",
              "value": "Pe/pCtRikg4/pYYl2fn/WGPx4jwh02y5jqyNdq66erXVTpgLrQM7gB7Af3wcFcw7sGpAGBrA/iWNGIuF9eF+CA=="
            }
          },
          {
            "validator_address": "28770D17E8530825E7310A0659308654B7EC9682",
            "validator_index": "14",
            "height": "24698",
            "round": "0",
            "timestamp": "2018-07-31T22:46:50.793000698Z",
            "type": 2,
            "block_id": {
              "hash": "11FFA5D77E2374EA4E6130C461E5508A2C584F74",
              "parts": {
                "total": "1",
                "hash": "FC1DD23BF8C60D5E820516C9C6913F49D6A8D369"
              }
            },
            "signature": {
              "type": "tendermint/SignatureEd25519",
              "value": "3p5u2Yc29bpKPqW1fVUDbbnJw77v+oVYKjz7ZojmBzQRhXygQEN0f4Q6SsqbHEuLEU1yyPJq5LK0Q7c5CBCZCQ=="
            }
          },
          {
            "validator_address": "2A92EC3C642140202298D0E245095E0ECFC25228",
            "validator_index": "15",
            "height": "24698",
            "round": "0",
            "timestamp": "2018-07-31T22:46:50.865285641Z",
            "type": 2,
            "block_id": {
              "hash": "11FFA5D77E2374EA4E6130C461E5508A2C584F74",
              "parts": {
                "total": "1",
                "hash": "FC1DD23BF8C60D5E820516C9C6913F49D6A8D369"
              }
            },
            "signature": {
              "type": "tendermint/SignatureEd25519",
              "value": "FGRyK9Qq7XgqTh4FqmuLgnn038CAtHvEnsiXymXolHLCQdxakNszmgXj0yLBEMTOJgRkXY3jGxY3dLFLBw7mDg=="
            }
          },
          {
            "validator_address": "33412C9A69C60CB0FAA24A5C5B3A906DE24B47C2",
            "validator_index": "16",
            "height": "24698",
            "round": "0",
            "timestamp": "2018-07-31T22:46:50.742765293Z",
            "type": 2,
            "block_id": {
              "hash": "11FFA5D77E2374EA4E6130C461E5508A2C584F74",
              "parts": {
                "total": "1",
                "hash": "FC1DD23BF8C60D5E820516C9C6913F49D6A8D369"
              }
            },
            "signature": {
              "type": "tendermint/SignatureEd25519",
              "value": "2oTyqmnBJrUSaqltZ9orIhv4Uw4+OTqF2qnjZM7OzFFeDuP9PPFGNkDAk4JbFx/uvxWPSnb6jFaq1yqTdmz7AA=="
            }
          },
          {
            "validator_address": "3383EF2A13B160C41947AC30434B274B2FAF0617",
            "validator_index": "17",
            "height": "24698",
            "round": "0",
            "timestamp": "2018-07-31T22:46:50.809773618Z",
            "type": 2,
            "block_id": {
              "hash": "11FFA5D77E2374EA4E6130C461E5508A2C584F74",
              "parts": {
                "total": "1",
                "hash": "FC1DD23BF8C60D5E820516C9C6913F49D6A8D369"
              }
            },
            "signature": {
              "type": "tendermint/SignatureEd25519",
              "value": "+8imd+LWejynN4RXAVzBQ1cP+zE583uR2fzVAhJQgWeyXg7oxfHz+qey/qa4ap1e1wU/JxDQmhId/wnm4ajaAg=="
            }
          },
          {
            "validator_address": "36E9B7FAEC964F97D84C028ED62493E373AD0B38",
            "validator_index": "18",
            "height": "24698",
            "round": "0",
            "timestamp": "2018-07-31T22:46:50.967573808Z",
            "type": 2,
            "block_id": {
              "hash": "11FFA5D77E2374EA4E6130C461E5508A2C584F74",
              "parts": {
                "total": "1",
                "hash": "FC1DD23BF8C60D5E820516C9C6913F49D6A8D369"
              }
            },
            "signature": {
              "type": "tendermint/SignatureEd25519",
              "value": "gsyiZOkk89AI2TiLV3WqEYgjUAmvU+ewzwuT+lJSJ3SyTrghGcN43F54rxgSKyoU+/8KQUNTl1hchTSOWfizBQ=="
            }
          },
          {
            "validator_address": "38A8D85D36BEA2E5FCF8A1E778F53628E450EF13",
            "validator_index": "19",
            "height": "24698",
            "round": "0",
            "timestamp": "2018-07-31T22:46:50.936867353Z",
            "type": 2,
            "block_id": {
              "hash": "11FFA5D77E2374EA4E6130C461E5508A2C584F74",
              "parts": {
                "total": "1",
                "hash": "FC1DD23BF8C60D5E820516C9C6913F49D6A8D369"
              }
            },
            "signature": {
              "type": "tendermint/SignatureEd25519",
              "value": "HEFmAswWfFyT2r5cmTFsTmAlgiGnlGpR5LhR2OMjmkDPIUmPZExsY5IU87a0TsBczyURaD+dtMeT0NpEdNVYDQ=="
            }
          },
          {
            "validator_address": "39DFDA0C5DB84B269642188B23253508537798E6",
            "validator_index": "20",
            "height": "24698",
            "round": "0",
            "timestamp": "2018-07-31T22:46:50.744369427Z",
            "type": 2,
            "block_id": {
              "hash": "11FFA5D77E2374EA4E6130C461E5508A2C584F74",
              "parts": {
                "total": "1",
                "hash": "FC1DD23BF8C60D5E820516C9C6913F49D6A8D369"
              }
            },
            "signature": {
              "type": "tendermint/SignatureEd25519",
              "value": "s1KvIKoKL1GdIspKGVMB2Yl+j8pDDp5vQj1z9C1XHe5tS2EarMQmg27Hn6HIhzuSLVp4htWjOrj5OcaWaioRBw=="
            }
          },
          {
            "validator_address": "3AC99B708404452366E0953A4BE849226DC86CBC",
            "validator_index": "21",
            "height": "24698",
            "round": "0",
            "timestamp": "2018-07-31T22:46:50.886926622Z",
            "type": 2,
            "block_id": {
              "hash": "11FFA5D77E2374EA4E6130C461E5508A2C584F74",
              "parts": {
                "total": "1",
                "hash": "FC1DD23BF8C60D5E820516C9C6913F49D6A8D369"
              }
            },
            "signature": {
              "type": "tendermint/SignatureEd25519",
              "value": "PFD9mL7i5W5OxLu5NXhpyc5Jmc1RV7fLY2jUE4/8juzuEJvtaslblbO7X2mcgVneTMcyi28/xWWswm0I0CtUCg=="
            }
          },
          {
            "validator_address": "3DCB822A10ED319EC7C4393D8E3FD4A41B15AAF2",
            "validator_index": "22",
            "height": "24698",
            "round": "0",
            "timestamp": "2018-07-31T22:46:50.788232787Z",
            "type": 2,
            "block_id": {
              "hash": "11FFA5D77E2374EA4E6130C461E5508A2C584F74",
              "parts": {
                "total": "1",
                "hash": "FC1DD23BF8C60D5E820516C9C6913F49D6A8D369"
              }
            },
            "signature": {
              "type": "tendermint/SignatureEd25519",
              "value": "nc9ZmasxT46ebOgmH+U8eBn2p9uSlxXgDuiJCK6tZuQRS+mWHhlcDG3o46TQfvwqtRbMqu0rveBhOPOkwkFvBQ=="
            }
          },
          {
            "validator_address": "3E899BA36A93C7370347BD5FE85909F2ECD93F8C",
            "validator_index": "23",
            "height": "24698",
            "round": "0",
            "timestamp": "2018-07-31T22:46:50.857721078Z",
            "type": 2,
            "block_id": {
              "hash": "11FFA5D77E2374EA4E6130C461E5508A2C584F74",
              "parts": {
                "total": "1",
                "hash": "FC1DD23BF8C60D5E820516C9C6913F49D6A8D369"
              }
            },
            "signature": {
              "type": "tendermint/SignatureEd25519",
              "value": "LXeUFzmX3kGolfYk1xHCqxafOBE1vRr+EMCom9o2yuAAiJg4m0SieJfYvEwHpz4lUhcLmYR3lAKP8TR7zA2rBA=="
            }
          },
          {
            "validator_address": "41CAB2E29E7D0F2282E3275938F188FF9386B84C",
            "validator_index": "24",
            "height": "24698",
            "round": "0",
            "timestamp": "2018-07-31T22:46:50.857580931Z",
            "type": 2,
            "block_id": {
              "hash": "11FFA5D77E2374EA4E6130C461E5508A2C584F74",
              "parts": {
                "total": "1",
                "hash": "FC1DD23BF8C60D5E820516C9C6913F49D6A8D369"
              }
            },
            "signature": {
              "type": "tendermint/SignatureEd25519",
              "value": "I+riuj1sTZWN92s1bVJpZyKxgVy9kxVHl/BxCTt+wYyzdLtJu0qoCKFxA97zR7RbbL7MvTPuMdZrgIx3sdkJBg=="
            }
          },
          {
            "validator_address": "462B656869DB02A8FD1077E255F8CC7401DC37C6",
            "validator_index": "25",
            "height": "24698",
            "round": "0",
            "timestamp": "2018-07-31T22:46:50.806190477Z",
            "type": 2,
            "block_id": {
              "hash": "11FFA5D77E2374EA4E6130C461E5508A2C584F74",
              "parts": {
                "total": "1",
                "hash": "FC1DD23BF8C60D5E820516C9C6913F49D6A8D369"
              }
            },
            "signature": {
              "type": "tendermint/SignatureEd25519",
              "value": "ZW/k+WUWYLrz9L9+GLcttO0FDGxDyu5mIKhVv+vIdEHDb2IXKja4D3YLgBN3RZkhhPrOSNNq46ACP99+E906AA=="
            }
          },
          {
            "validator_address": "48E5118163E5442068A1B5A42D2EEDBB75724935",
            "validator_index": "26",
            "height": "24698",
            "round": "0",
            "timestamp": "2018-07-31T22:46:50.942320854Z",
            "type": 2,
            "block_id": {
              "hash": "11FFA5D77E2374EA4E6130C461E5508A2C584F74",
              "parts": {
                "total": "1",
                "hash": "FC1DD23BF8C60D5E820516C9C6913F49D6A8D369"
              }
            },
            "signature": {
              "type": "tendermint/SignatureEd25519",
              "value": "OQhbdKUOusAicewYx3q0Ju7eYUC9Go/dkvwmVB4nOc/xCXnjtmFStuc0aSZj/jm/zG/7mUxJvbSkBFV01UVfAw=="
            }
          },
          {
            "validator_address": "49103C58AFD9C7C069F55EBA218F3DFD9AEA74F9",
            "validator_index": "27",
            "height": "24698",
            "round": "0",
            "timestamp": "2018-07-31T22:46:50.843536555Z",
            "type": 2,
            "block_id": {
              "hash": "11FFA5D77E2374EA4E6130C461E5508A2C584F74",
              "parts": {
                "total": "1",
                "hash": "FC1DD23BF8C60D5E820516C9C6913F49D6A8D369"
              }
            },
            "signature": {
              "type": "tendermint/SignatureEd25519",
              "value": "OwcflaSC8ohqUSHJ1uEcr48QRTkIM2o5h3JI/WzCV3HvvDMRQAk6o5As/woBZNqg9xzAepJrcXqfs9hnH18uAg=="
            }
          },
          null,
          {
            "validator_address": "49841599DE675157CBE1E7D6B35BF8FFC23BD5CB",
            "validator_index": "29",
            "height": "24698",
            "round": "0",
            "timestamp": "2018-07-31T22:46:50.784595303Z",
            "type": 2,
            "block_id": {
              "hash": "11FFA5D77E2374EA4E6130C461E5508A2C584F74",
              "parts": {
                "total": "1",
                "hash": "FC1DD23BF8C60D5E820516C9C6913F49D6A8D369"
              }
            },
            "signature": {
              "type": "tendermint/SignatureEd25519",
              "value": "Fu2Yk+SqCHQ1Ij4edILUKDKzG1HDm1oWchUamO7QvFWis5CqJ2v4am2+Daeq9knn7FYsvEBDioqsedzAKUrbCQ=="
            }
          },
          {
            "validator_address": "51386C2CF9556821D114D7E4945806802BADB28D",
            "validator_index": "30",
            "height": "24698",
            "round": "0",
            "timestamp": "2018-07-31T22:46:50.81928005Z",
            "type": 2,
            "block_id": {
              "hash": "11FFA5D77E2374EA4E6130C461E5508A2C584F74",
              "parts": {
                "total": "1",
                "hash": "FC1DD23BF8C60D5E820516C9C6913F49D6A8D369"
              }
            },
            "signature": {
              "type": "tendermint/SignatureEd25519",
              "value": "KQWpMFnVG3ZD/n/84fkVV+4VXqeV8/37O8qOkPTWfwpFAiYUSeDe8bwnlxwsVFKCK1oEowN1qL0GuMsHJw+tBg=="
            }
          },
          {
            "validator_address": "543564ECA3AFEFADC73EE8591AAC3A96F079BC8A",
            "validator_index": "31",
            "height": "24698",
            "round": "0",
            "timestamp": "2018-07-31T22:46:50.80963503Z",
            "type": 2,
            "block_id": {
              "hash": "11FFA5D77E2374EA4E6130C461E5508A2C584F74",
              "parts": {
                "total": "1",
                "hash": "FC1DD23BF8C60D5E820516C9C6913F49D6A8D369"
              }
            },
            "signature": {
              "type": "tendermint/SignatureEd25519",
              "value": "rCrLGlTfgXLfqclRvbfZgBquwDvKKfYXQC/423mwCn3G1YOD5k6sETPWG4771z3ZYUgSDUlw+hJLQzvzCNHIDw=="
            }
          },
          {
            "validator_address": "55D67B1A6DC13E96F8754A5A42EABC20F7F86664",
            "validator_index": "32",
            "height": "24698",
            "round": "0",
            "timestamp": "2018-07-31T22:46:50.782717783Z",
            "type": 2,
            "block_id": {
              "hash": "11FFA5D77E2374EA4E6130C461E5508A2C584F74",
              "parts": {
                "total": "1",
                "hash": "FC1DD23BF8C60D5E820516C9C6913F49D6A8D369"
              }
            },
            "signature": {
              "type": "tendermint/SignatureEd25519",
              "value": "WUruQCXwa/DwI206f2mUUMeM/wBPtv3Jy2lbQ2AhRNbsiuCKDRpNppWUY5oxm5BTZjNl+XpCV3/Xiq3F1YeGDA=="
            }
          },
          {
            "validator_address": "570B6A755ED339EAC56BB3390A48069F6AC9449B",
            "validator_index": "33",
            "height": "24698",
            "round": "0",
            "timestamp": "2018-07-31T22:46:55.546841594Z",
            "type": 2,
            "block_id": {
              "hash": "11FFA5D77E2374EA4E6130C461E5508A2C584F74",
              "parts": {
                "total": "1",
                "hash": "FC1DD23BF8C60D5E820516C9C6913F49D6A8D369"
              }
            },
            "signature": {
              "type": "tendermint/SignatureEd25519",
              "value": "AmHgGqfqs8ZbCT39LQErkeBcqTOBr14ERrZIx+v6+VdR2Xy9sx2O8kntk4FWcrcXsUurIhm5Ggmc4cP3UnYQDQ=="
            }
          },
          {
            "validator_address": "5BDF8EA41B1835FBAD865B181A2A4B23F511B5E4",
            "validator_index": "34",
            "height": "24698",
            "round": "0",
            "timestamp": "2018-07-31T22:46:50.828804218Z",
            "type": 2,
            "block_id": {
              "hash": "11FFA5D77E2374EA4E6130C461E5508A2C584F74",
              "parts": {
                "total": "1",
                "hash": "FC1DD23BF8C60D5E820516C9C6913F49D6A8D369"
              }
            },
            "signature": {
              "type": "tendermint/SignatureEd25519",
              "value": "+uFnbj8YTAwCN3bZVfhxJbAAaeWEaWTv2VzKiuTgb+TCyBMxRY5FIuo+QKlNNruwugpxYZKPZqoQ4GX3EyUYAg=="
            }
          },
          {
            "validator_address": "60229E2E273297FE00219E46DFFB8F76844CDEF9",
            "validator_index": "35",
            "height": "24698",
            "round": "0",
            "timestamp": "2018-07-31T22:46:49.280039149Z",
            "type": 2,
            "block_id": {
              "hash": "11FFA5D77E2374EA4E6130C461E5508A2C584F74",
              "parts": {
                "total": "1",
                "hash": "FC1DD23BF8C60D5E820516C9C6913F49D6A8D369"
              }
            },
            "signature": {
              "type": "tendermint/SignatureEd25519",
              "value": "hlvN9GlrIThAiGpN7dhTAPhyPWlRrCzpgYl1suN4tZfXe5M5QQDQCvMsyZOHBkZMOGkAjFxtUrfxtKDphE3LAA=="
            }
          },
          {
            "validator_address": "62410D6D1CD98278136E4D0738AA0EA273CDFC54",
            "validator_index": "36",
            "height": "24698",
            "round": "0",
            "timestamp": "2018-07-31T22:46:50.835703233Z",
            "type": 2,
            "block_id": {
              "hash": "11FFA5D77E2374EA4E6130C461E5508A2C584F74",
              "parts": {
                "total": "1",
                "hash": "FC1DD23BF8C60D5E820516C9C6913F49D6A8D369"
              }
            },
            "signature": {
              "type": "tendermint/SignatureEd25519",
              "value": "cjbLm/OC5EHvKjc1EFNFrZYR4HZaObrWUSq/g7nZ7zMIIvMMok0NHl+olxtUmaP4tE+s//Iv8Ll/6UXYkZCjDw=="
            }
          },
          {
            "validator_address": "632F5C139A5A9DFBFE5111DEE29FCFB6157207DC",
            "validator_index": "37",
            "height": "24698",
            "round": "0",
            "timestamp": "2018-07-31T22:46:50.882079585Z",
            "type": 2,
            "block_id": {
              "hash": "11FFA5D77E2374EA4E6130C461E5508A2C584F74",
              "parts": {
                "total": "1",
                "hash": "FC1DD23BF8C60D5E820516C9C6913F49D6A8D369"
              }
            },
            "signature": {
              "type": "tendermint/SignatureEd25519",
              "value": "3tRrJ5QAjE5uPIzV0pOGxbF8+Y4YwsYZIPmGLHAB1Xd8Y7KE5rmUfcvyf6e5QWpycWdfg+MJJv0oSr4xegLKBw=="
            }
          },
          {
            "validator_address": "64F57F8E796A9B7B590C1EFA4123988C86631D39",
            "validator_index": "38",
            "height": "24698",
            "round": "0",
            "timestamp": "2018-07-31T22:46:50.787506215Z",
            "type": 2,
            "block_id": {
              "hash": "11FFA5D77E2374EA4E6130C461E5508A2C584F74",
              "parts": {
                "total": "1",
                "hash": "FC1DD23BF8C60D5E820516C9C6913F49D6A8D369"
              }
            },
            "signature": {
              "type": "tendermint/SignatureEd25519",
              "value": "vI5VqNkvadV0dhFmCfVX+o5x7QqnPw+wOKX52tR497ZmlZVAwyErPw/Llz8lgLBG7Fa99rZ2aHFm8v3EavtnCw=="
            }
          },
          {
            "validator_address": "69D99B2C66043ACBEAA8447525C356AFC6408E0C",
            "validator_index": "39",
            "height": "24698",
            "round": "0",
            "timestamp": "2018-07-31T22:46:50.897618054Z",
            "type": 2,
            "block_id": {
              "hash": "11FFA5D77E2374EA4E6130C461E5508A2C584F74",
              "parts": {
                "total": "1",
                "hash": "FC1DD23BF8C60D5E820516C9C6913F49D6A8D369"
              }
            },
            "signature": {
              "type": "tendermint/SignatureEd25519",
              "value": "oRpxHK5uNtnzOLCbXgzls3jbIvW7TKIQmi5+lDHqiM6fEuGoEBmO0pKQXNPLbIzknO0Q00saMNIVjQmUfXPVCA=="
            }
          },
          {
            "validator_address": "69EDADFA4A803E9DBF548C900D4A465E7D154262",
            "validator_index": "40",
            "height": "24698",
            "round": "0",
            "timestamp": "2018-07-31T22:46:50.839491683Z",
            "type": 2,
            "block_id": {
              "hash": "11FFA5D77E2374EA4E6130C461E5508A2C584F74",
              "parts": {
                "total": "1",
                "hash": "FC1DD23BF8C60D5E820516C9C6913F49D6A8D369"
              }
            },
            "signature": {
              "type": "tendermint/SignatureEd25519",
              "value": "AqLEVCxGtYvM4aoMhivCVdZOZL18Rh3L0QaE7sbFTu46i/sHU+vIy5YQsD5yG5FtkNOtUJvkuRwrbia0Sq/zBg=="
            }
          },
          {
            "validator_address": "6D3AD380E398D8592B03AA124BAFED5F125DF863",
            "validator_index": "41",
            "height": "24698",
            "round": "0",
            "timestamp": "2018-07-31T22:45:48.78808407Z",
            "type": 2,
            "block_id": {
              "hash": "11FFA5D77E2374EA4E6130C461E5508A2C584F74",
              "parts": {
                "total": "1",
                "hash": "FC1DD23BF8C60D5E820516C9C6913F49D6A8D369"
              }
            },
            "signature": {
              "type": "tendermint/SignatureEd25519",
              "value": "FXfrLTrySobu7K1t5XFBpwsNTtCC/9HT/ht0u5wZXIt6XudeVXe3aNdMGSMBC/gB4UVdursvdAsczXiDc8eSAw=="
            }
          },
          {
            "validator_address": "6F6C93B8BF3495063FEC9B5C771158607F4AE9D6",
            "validator_index": "42",
            "height": "24698",
            "round": "0",
            "timestamp": "2018-07-31T22:46:50.982177063Z",
            "type": 2,
            "block_id": {
              "hash": "11FFA5D77E2374EA4E6130C461E5508A2C584F74",
              "parts": {
                "total": "1",
                "hash": "FC1DD23BF8C60D5E820516C9C6913F49D6A8D369"
              }
            },
            "signature": {
              "type": "tendermint/SignatureEd25519",
              "value": "uPV8xXHeDd2G87PUee/Z2Dq1ys8yyyI352Ks15nw0aBIdazs6iEmZCAqExMKcNd7gYaPo6ni1acftvRAA/+4CQ=="
            }
          },
          {
            "validator_address": "732CEEF54C374DDC6ADECBFD707AEFD07FEDC143",
            "validator_index": "43",
            "height": "24698",
            "round": "0",
            "timestamp": "2018-07-31T22:46:50.963047352Z",
            "type": 2,
            "block_id": {
              "hash": "11FFA5D77E2374EA4E6130C461E5508A2C584F74",
              "parts": {
                "total": "1",
                "hash": "FC1DD23BF8C60D5E820516C9C6913F49D6A8D369"
              }
            },
            "signature": {
              "type": "tendermint/SignatureEd25519",
              "value": "Frhn5UTeRZBiCxP7z4nxWt1F8BdHqwIbOQHJuXAEzTHsl7YyLqke+k81hkyjXi2To513JYoXQQfdoDmydV5iCw=="
            }
          },
          {
            "validator_address": "7393D691BFAE9661918C09932D4D9060AB40939B",
            "validator_index": "44",
            "height": "24698",
            "round": "0",
            "timestamp": "2018-07-31T22:46:50.935998779Z",
            "type": 2,
            "block_id": {
              "hash": "11FFA5D77E2374EA4E6130C461E5508A2C584F74",
              "parts": {
                "total": "1",
                "hash": "FC1DD23BF8C60D5E820516C9C6913F49D6A8D369"
              }
            },
            "signature": {
              "type": "tendermint/SignatureEd25519",
              "value": "lY+yKRzeLm/ai6C6euUuY8yZi6A4FY2LPehvAxJYZhKDdioNSQ7o/rR9lOEanS+4apdQChMnCt2seUekTzOrCQ=="
            }
          },
          {
            "validator_address": "751E43437224E8BB6D1569B3E2B2616B6E7F4397",
            "validator_index": "45",
            "height": "24698",
            "round": "0",
            "timestamp": "2018-07-31T22:46:50.862753442Z",
            "type": 2,
            "block_id": {
              "hash": "11FFA5D77E2374EA4E6130C461E5508A2C584F74",
              "parts": {
                "total": "1",
                "hash": "FC1DD23BF8C60D5E820516C9C6913F49D6A8D369"
              }
            },
            "signature": {
              "type": "tendermint/SignatureEd25519",
              "value": "UZFMDWm6zx4e1rHXU5TsDJcjl7vlBJAp1hhP9cVBefU5bu1w95ypLtlR2rMILYf9KOChYix0a79etZ9OuUCkDg=="
            }
          },
          {
            "validator_address": "7EB7593F519F1180C7E872D0494611464EDF03AE",
            "validator_index": "46",
            "height": "24698",
            "round": "0",
            "timestamp": "2018-07-31T22:46:50.957106986Z",
            "type": 2,
            "block_id": {
              "hash": "11FFA5D77E2374EA4E6130C461E5508A2C584F74",
              "parts": {
                "total": "1",
                "hash": "FC1DD23BF8C60D5E820516C9C6913F49D6A8D369"
              }
            },
            "signature": {
              "type": "tendermint/SignatureEd25519",
              "value": "oKiigYPuxSFzjDfjJkEZwfe3tc2ds+y9th+SnlHrkzbVBpS9RStk0uz+tFmPxQMlaY/nAMSZqEjlBTBB4JvpAQ=="
            }
          },
          {
            "validator_address": "807CF675BA8479FC4FEC1047215DF07970040F1F",
            "validator_index": "47",
            "height": "24698",
            "round": "0",
            "timestamp": "2018-07-31T22:46:51.213253524Z",
            "type": 2,
            "block_id": {
              "hash": "11FFA5D77E2374EA4E6130C461E5508A2C584F74",
              "parts": {
                "total": "1",
                "hash": "FC1DD23BF8C60D5E820516C9C6913F49D6A8D369"
              }
            },
            "signature": {
              "type": "tendermint/SignatureEd25519",
              "value": "i5TvlJC5JirZ+C6QFipGCc4t8QfbVSl4SM4qRstNV/iMFSB10M4ZQ4P7Idwfw6LtiOFWywHojyXePj5Yq1/wBQ=="
            }
          },
          {
            "validator_address": "83AB321E012C57746689FED3A6064DF331F81007",
            "validator_index": "48",
            "height": "24698",
            "round": "0",
            "timestamp": "2018-07-31T22:46:50.812223232Z",
            "type": 2,
            "block_id": {
              "hash": "11FFA5D77E2374EA4E6130C461E5508A2C584F74",
              "parts": {
                "total": "1",
                "hash": "FC1DD23BF8C60D5E820516C9C6913F49D6A8D369"
              }
            },
            "signature": {
              "type": "tendermint/SignatureEd25519",
              "value": "1wyMkCe+VPNfdnfbJd5Zb1Cwv/qTdJRgCBCis/OlIcvOsUPacZ/UW0flL1tNjQYe9LsWXUcp6leXd+1j2P22CA=="
            }
          },
          {
            "validator_address": "83BB1B88D3DBB20AD845FECA07749EBD87D3754D",
            "validator_index": "49",
            "height": "24698",
            "round": "0",
            "timestamp": "2018-07-31T22:46:51.072391698Z",
            "type": 2,
            "block_id": {
              "hash": "11FFA5D77E2374EA4E6130C461E5508A2C584F74",
              "parts": {
                "total": "1",
                "hash": "FC1DD23BF8C60D5E820516C9C6913F49D6A8D369"
              }
            },
            "signature": {
              "type": "tendermint/SignatureEd25519",
              "value": "Ndpkr8mg/hmt9WlrHfrgLbjYH07fTOtdso1Km2Yw8ZjdMFm+Ski7AXZXbPKL94d1vHImdUsyCo8lpJr6otp0Ag=="
            }
          },
          {
            "validator_address": "8F06FE1FD042683C426137FBC4BBAA4288924217",
            "validator_index": "50",
            "height": "24698",
            "round": "0",
            "timestamp": "2018-07-31T22:46:50.845748114Z",
            "type": 2,
            "block_id": {
              "hash": "11FFA5D77E2374EA4E6130C461E5508A2C584F74",
              "parts": {
                "total": "1",
                "hash": "FC1DD23BF8C60D5E820516C9C6913F49D6A8D369"
              }
            },
            "signature": {
              "type": "tendermint/SignatureEd25519",
              "value": "q80vT/oxkIXegmBqDQrBmOO8sAiTm6S89ece0NWL6IqPMKooVR+YwQbFj9QwG9wX5bpiSaBOzhzTjTpTdd2CDA=="
            }
          },
          {
            "validator_address": "8F45617BF45B10A3F8283DEBDB35E38C7CA43237",
            "validator_index": "51",
            "height": "24698",
            "round": "0",
            "timestamp": "2018-07-31T22:46:50.766386844Z",
            "type": 2,
            "block_id": {
              "hash": "11FFA5D77E2374EA4E6130C461E5508A2C584F74",
              "parts": {
                "total": "1",
                "hash": "FC1DD23BF8C60D5E820516C9C6913F49D6A8D369"
              }
            },
            "signature": {
              "type": "tendermint/SignatureEd25519",
              "value": "iOyyyav/NN4YJ3BUTZAUnX1PSu5DYirDHuzi4KeZRs2iseM9PmYtVqziZ5tCAmPZ+WrQfKtyN/qe6MZWLaWUBQ=="
            }
          },
          {
            "validator_address": "95980831E186F2540F6E9FB6C8E74DE2401405AC",
            "validator_index": "52",
            "height": "24698",
            "round": "0",
            "timestamp": "2018-07-31T22:46:50.817426273Z",
            "type": 2,
            "block_id": {
              "hash": "11FFA5D77E2374EA4E6130C461E5508A2C584F74",
              "parts": {
                "total": "1",
                "hash": "FC1DD23BF8C60D5E820516C9C6913F49D6A8D369"
              }
            },
            "signature": {
              "type": "tendermint/SignatureEd25519",
              "value": "bnEAconCAiFhFZlx+50zOcvGY79nTb7fedd9nYCiPWg3RT2YACNqkmZ1zcKCgJ0VH2bqK0nx3qgp1w+F77QiAA=="
            }
          },
          {
            "validator_address": "95FAFBC1E0579C83D290A063020CE87C5334BD9B",
            "validator_index": "53",
            "height": "24698",
            "round": "0",
            "timestamp": "2018-07-31T22:46:50.861365101Z",
            "type": 2,
            "block_id": {
              "hash": "11FFA5D77E2374EA4E6130C461E5508A2C584F74",
              "parts": {
                "total": "1",
                "hash": "FC1DD23BF8C60D5E820516C9C6913F49D6A8D369"
              }
            },
            "signature": {
              "type": "tendermint/SignatureEd25519",
              "value": "5DABzVuTxfnUtUzxI7G0J/SDW3oVA78nWY0ie4+53p4Zaxy/7aviydQeYGR09rASc4ZtwXBeiTZlJ3KIe1scCg=="
            }
          },
          {
            "validator_address": "96BDE45EC52606CF5CB59853097871AD60680549",
            "validator_index": "54",
            "height": "24698",
            "round": "0",
            "timestamp": "2018-07-31T22:46:50.803705776Z",
            "type": 2,
            "block_id": {
              "hash": "11FFA5D77E2374EA4E6130C461E5508A2C584F74",
              "parts": {
                "total": "1",
                "hash": "FC1DD23BF8C60D5E820516C9C6913F49D6A8D369"
              }
            },
            "signature": {
              "type": "tendermint/SignatureEd25519",
              "value": "TNFA/4Op0NxKcw7vGLj3qkNzMmBnVmm3so/OILru+Ab7dELnQ1E46hNNH1q+V/YU8RM/EtHRVJzVBINV8F1JCg=="
            }
          },
          {
            "validator_address": "970CD321881185BF83DB2923C321B0E75FDBB2B8",
            "validator_index": "55",
            "height": "24698",
            "round": "0",
            "timestamp": "2018-07-31T22:46:50.924578552Z",
            "type": 2,
            "block_id": {
              "hash": "11FFA5D77E2374EA4E6130C461E5508A2C584F74",
              "parts": {
                "total": "1",
                "hash": "FC1DD23BF8C60D5E820516C9C6913F49D6A8D369"
              }
            },
            "signature": {
              "type": "tendermint/SignatureEd25519",
              "value": "lBkBAjGtLt3kAdIlh/rK4qekn1/V38D1b5AVrurAC94tilU/sF4SnmTxTDqqHCVkZzbhE5Lig82JmBffjmyPBA=="
            }
          },
          {
            "validator_address": "97DBB3D4B3D6C29287244864448F651DD5B07390",
            "validator_index": "56",
            "height": "24698",
            "round": "0",
            "timestamp": "2018-07-31T22:46:50.919592685Z",
            "type": 2,
            "block_id": {
              "hash": "11FFA5D77E2374EA4E6130C461E5508A2C584F74",
              "parts": {
                "total": "1",
                "hash": "FC1DD23BF8C60D5E820516C9C6913F49D6A8D369"
              }
            },
            "signature": {
              "type": "tendermint/SignatureEd25519",
              "value": "9FWPyRxFikl7wxfI/nMtLhX2eQHAWDVxAT3JORtuwpkLqOHPknNNLRDFYisBqgg2OfuZBLVHVgshsWLNhxw6Bw=="
            }
          },
          {
            "validator_address": "9C29C9B76D27586E4D9AD2AED0E943162645E55C",
            "validator_index": "57",
            "height": "24698",
            "round": "0",
            "timestamp": "2018-07-31T22:46:50.785844646Z",
            "type": 2,
            "block_id": {
              "hash": "11FFA5D77E2374EA4E6130C461E5508A2C584F74",
              "parts": {
                "total": "1",
                "hash": "FC1DD23BF8C60D5E820516C9C6913F49D6A8D369"
              }
            },
            "signature": {
              "type": "tendermint/SignatureEd25519",
              "value": "/zIHqylS9EPs0Ac9nffXXBJ2c+JMJxqv9XYeDYbm9bIC8o4vCsgUIYQQ1kFaiWGKKrRdc0WieQ+/JS9f3NlTAg=="
            }
          },
          {
            "validator_address": "9D93AD02FE1BD7E76B9E58D7EB461088EAD011E5",
            "validator_index": "58",
            "height": "24698",
            "round": "0",
            "timestamp": "2018-07-31T22:46:50.820203533Z",
            "type": 2,
            "block_id": {
              "hash": "11FFA5D77E2374EA4E6130C461E5508A2C584F74",
              "parts": {
                "total": "1",
                "hash": "FC1DD23BF8C60D5E820516C9C6913F49D6A8D369"
              }
            },
            "signature": {
              "type": "tendermint/SignatureEd25519",
              "value": "BpBoIxddf8V5Dbv3aUDSIhXrPmmVkLvKDckBe/Il0TMUBuIPMhbeDnQ/WTQxXcIqUBkJ7qMCHEWhvq4ujk7iBA=="
            }
          },
          {
            "validator_address": "A0A6466F4ABEA09C3B55E3709AFDE217A103209F",
            "validator_index": "59",
            "height": "24698",
            "round": "0",
            "timestamp": "2018-07-31T22:46:50.784605426Z",
            "type": 2,
            "block_id": {
              "hash": "11FFA5D77E2374EA4E6130C461E5508A2C584F74",
              "parts": {
                "total": "1",
                "hash": "FC1DD23BF8C60D5E820516C9C6913F49D6A8D369"
              }
            },
            "signature": {
              "type": "tendermint/SignatureEd25519",
              "value": "Wu7mKjanMZLHvb9YE5uCkU2OHDu11zjIBeR0/H33tm8mqg0Lybm2Y5M1osnDT7cF52UVhdiuL+p/OAFTJgc8Cg=="
            }
          },
          {
            "validator_address": "A5868971300F155020634D7BB49C7634F7AACCD3",
            "validator_index": "60",
            "height": "24698",
            "round": "0",
            "timestamp": "2018-07-31T22:46:50.822643319Z",
            "type": 2,
            "block_id": {
              "hash": "11FFA5D77E2374EA4E6130C461E5508A2C584F74",
              "parts": {
                "total": "1",
                "hash": "FC1DD23BF8C60D5E820516C9C6913F49D6A8D369"
              }
            },
            "signature": {
              "type": "tendermint/SignatureEd25519",
              "value": "TsakVfHKNGT8vEVhjPI+t5tpiYZJBlH63714Gpsn/p9jVkZBZQm3MRokN8hQltBCZGJRutHvq/QqghHCqNz/Cw=="
            }
          },
          {
            "validator_address": "A6B3A5B5D982CFD7B5FDFA15CF5A720E7AE25E7F",
            "validator_index": "61",
            "height": "24698",
            "round": "0",
            "timestamp": "2018-07-31T22:46:50.787702274Z",
            "type": 2,
            "block_id": {
              "hash": "11FFA5D77E2374EA4E6130C461E5508A2C584F74",
              "parts": {
                "total": "1",
                "hash": "FC1DD23BF8C60D5E820516C9C6913F49D6A8D369"
              }
            },
            "signature": {
              "type": "tendermint/SignatureEd25519",
              "value": "HNcoFtFGk7skGCCBZxhDRU8fFP90uREdALwbLUOj/Q0OrrLb4GtseQCSS03kVsCLLuVxi1nICvKsiMDnEH8mAQ=="
            }
          },
          {
            "validator_address": "AC96444A9083890B7C7B430DB17BF1D3EA5EED04",
            "validator_index": "62",
            "height": "24698",
            "round": "0",
            "timestamp": "2018-07-31T22:46:50.884427199Z",
            "type": 2,
            "block_id": {
              "hash": "11FFA5D77E2374EA4E6130C461E5508A2C584F74",
              "parts": {
                "total": "1",
                "hash": "FC1DD23BF8C60D5E820516C9C6913F49D6A8D369"
              }
            },
            "signature": {
              "type": "tendermint/SignatureEd25519",
              "value": "oW5Wo5bVmOf/KcUOozK4X4VgmU4HjFgvm4ZrxYs7U3cqKJXxZcfVGK8akachwdE2CvZIiRALf1T7gnC6XL9OCA=="
            }
          },
          {
            "validator_address": "ACB97FDA2D940AF0709B73537C458EB988AD2893",
            "validator_index": "63",
            "height": "24698",
            "round": "0",
            "timestamp": "2018-07-31T22:46:50.803251452Z",
            "type": 2,
            "block_id": {
              "hash": "11FFA5D77E2374EA4E6130C461E5508A2C584F74",
              "parts": {
                "total": "1",
                "hash": "FC1DD23BF8C60D5E820516C9C6913F49D6A8D369"
              }
            },
            "signature": {
              "type": "tendermint/SignatureEd25519",
              "value": "cJSR7JDK/wgp4ALnqiAspVqtwBdtsglRN1NYrbtQeurUbHT+/S0E7ebzWvYPq/67QNWv6By7tWDAkHcfGer1CQ=="
            }
          },
          {
            "validator_address": "B197425B3210375F211661DE02EF2AE36580EB0F",
            "validator_index": "64",
            "height": "24698",
            "round": "0",
            "timestamp": "2018-07-31T22:46:50.903916361Z",
            "type": 2,
            "block_id": {
              "hash": "11FFA5D77E2374EA4E6130C461E5508A2C584F74",
              "parts": {
                "total": "1",
                "hash": "FC1DD23BF8C60D5E820516C9C6913F49D6A8D369"
              }
            },
            "signature": {
              "type": "tendermint/SignatureEd25519",
              "value": "fCVtl9b7xODzc/VLzuW11rlCkeIxAoyk96E35y/jJbUSXsCcsmG1Z86Moq4D/j/MEMdbcWPTnZpyifk8hsj7AA=="
            }
          },
          {
            "validator_address": "B45E54D2D1CB5A4CCD1D49016608C18E7C56B270",
            "validator_index": "65",
            "height": "24698",
            "round": "0",
            "timestamp": "2018-07-31T22:46:50.918306939Z",
            "type": 2,
            "block_id": {
              "hash": "11FFA5D77E2374EA4E6130C461E5508A2C584F74",
              "parts": {
                "total": "1",
                "hash": "FC1DD23BF8C60D5E820516C9C6913F49D6A8D369"
              }
            },
            "signature": {
              "type": "tendermint/SignatureEd25519",
              "value": "8dUIz7Z17wBWa+hj/ybGbiIFuBDSTdwBsTeYHFRMIuJ3om8X+t18mswSolD+H+aic3Lnb0O1Pj+k49++t1mbBA=="
            }
          },
          {
            "validator_address": "B59A34C0BE4EC73AF6A67D274F1695C9259C237C",
            "validator_index": "66",
            "height": "24698",
            "round": "0",
            "timestamp": "2018-07-31T22:46:51.044286006Z",
            "type": 2,
            "block_id": {
              "hash": "11FFA5D77E2374EA4E6130C461E5508A2C584F74",
              "parts": {
                "total": "1",
                "hash": "FC1DD23BF8C60D5E820516C9C6913F49D6A8D369"
              }
            },
            "signature": {
              "type": "tendermint/SignatureEd25519",
              "value": "fylhV9kBXggiyldkCFimA195aY9WhaZ+JlWozZzGamF4ieRKVEDgqvmWFmYfmz8FfI/y5nLppakHphb3JfJZCQ=="
            }
          },
          {
            "validator_address": "BB1276BE89834835428664408917649FEEF5D90C",
            "validator_index": "67",
            "height": "24698",
            "round": "0",
            "timestamp": "2018-07-31T22:46:50.925340777Z",
            "type": 2,
            "block_id": {
              "hash": "11FFA5D77E2374EA4E6130C461E5508A2C584F74",
              "parts": {
                "total": "1",
                "hash": "FC1DD23BF8C60D5E820516C9C6913F49D6A8D369"
              }
            },
            "signature": {
              "type": "tendermint/SignatureEd25519",
              "value": "7nIK1Rm6Lr8FfGvNB+ZmWEfHu6asmWZmcrVnHseyliW8a9/KEDqAkQqgWwRut9Wyuoo5a1IIfjapmImzGMTPAQ=="
            }
          },
          {
            "validator_address": "BC36FEDD6EF6071118A3E51859DF3831A2EC4782",
            "validator_index": "68",
            "height": "24698",
            "round": "0",
            "timestamp": "2018-07-31T22:46:50.825764426Z",
            "type": 2,
            "block_id": {
              "hash": "11FFA5D77E2374EA4E6130C461E5508A2C584F74",
              "parts": {
                "total": "1",
                "hash": "FC1DD23BF8C60D5E820516C9C6913F49D6A8D369"
              }
            },
            "signature": {
              "type": "tendermint/SignatureEd25519",
              "value": "Jop/PmfktH7WJJjnGUbfjcRpV1fVGqNLZ6Zdnt/EFthwt7dTdKGu07vmFEoZ2qraWUM7mrkd/h2CMwSbWl9JBA=="
            }
          },
          {
            "validator_address": "BD9D0DA513BF099DB4BB6E725A4E19832789882F",
            "validator_index": "69",
            "height": "24698",
            "round": "0",
            "timestamp": "2018-07-31T22:46:50.805613545Z",
            "type": 2,
            "block_id": {
              "hash": "11FFA5D77E2374EA4E6130C461E5508A2C584F74",
              "parts": {
                "total": "1",
                "hash": "FC1DD23BF8C60D5E820516C9C6913F49D6A8D369"
              }
            },
            "signature": {
              "type": "tendermint/SignatureEd25519",
              "value": "JHprVD1XgBpcxiDrl7xnUc3sfsyr0krmSupqCQYrV5PBaysMM7jIlgqWxhRGWGYwZw5HHWXRcah1Ygwik4QpAw=="
            }
          },
          {
            "validator_address": "C1134A2FF8F7338E7CDB3FE57DDD2A655DEB1E22",
            "validator_index": "70",
            "height": "24698",
            "round": "0",
            "timestamp": "2018-07-31T22:46:50.264329746Z",
            "type": 2,
            "block_id": {
              "hash": "11FFA5D77E2374EA4E6130C461E5508A2C584F74",
              "parts": {
                "total": "1",
                "hash": "FC1DD23BF8C60D5E820516C9C6913F49D6A8D369"
              }
            },
            "signature": {
              "type": "tendermint/SignatureEd25519",
              "value": "Nul3zeuCtzu2pDT9M+JGRqq3cEc1bibFcvNJDdXr+rGvsR6Bt9cTiQG727rdhdjizWpvWXwVnzdOc65/+aN2Dg=="
            }
          },
          {
            "validator_address": "C39A8A2B85198DCB8F23AD1F6C198E2BA7AB5D60",
            "validator_index": "71",
            "height": "24698",
            "round": "0",
            "timestamp": "2018-07-31T22:46:50.786601004Z",
            "type": 2,
            "block_id": {
              "hash": "11FFA5D77E2374EA4E6130C461E5508A2C584F74",
              "parts": {
                "total": "1",
                "hash": "FC1DD23BF8C60D5E820516C9C6913F49D6A8D369"
              }
            },
            "signature": {
              "type": "tendermint/SignatureEd25519",
              "value": "rSSMm0kIjOff5VN20MTx+iJp5lsGcq3KftaKzbm10ZkT/S3oXjSYasMrXMNN35HQ8H3ZZW+2Arul2w1RWbMbDQ=="
            }
          },
          {
            "validator_address": "C4335190C3B5BD4BA5568BC0F99C34162D940D08",
            "validator_index": "72",
            "height": "24698",
            "round": "0",
            "timestamp": "2018-07-31T22:46:50.875580443Z",
            "type": 2,
            "block_id": {
              "hash": "11FFA5D77E2374EA4E6130C461E5508A2C584F74",
              "parts": {
                "total": "1",
                "hash": "FC1DD23BF8C60D5E820516C9C6913F49D6A8D369"
              }
            },
            "signature": {
              "type": "tendermint/SignatureEd25519",
              "value": "o2b4djrkchjGxZEPX6tvGBXYGoUqSMUBwG9H1txlTz1emtya5mro7bRhVZLcJpYokayo/lYKc41xCbVC23NsBQ=="
            }
          },
          {
            "validator_address": "C561CFA081677046376396922E7576E5F7B316AD",
            "validator_index": "73",
            "height": "24698",
            "round": "0",
            "timestamp": "2018-07-31T22:46:51.012589596Z",
            "type": 2,
            "block_id": {
              "hash": "11FFA5D77E2374EA4E6130C461E5508A2C584F74",
              "parts": {
                "total": "1",
                "hash": "FC1DD23BF8C60D5E820516C9C6913F49D6A8D369"
              }
            },
            "signature": {
              "type": "tendermint/SignatureEd25519",
              "value": "L1eRDGsTHLZyP8c0SJWu0OpuT6ncesR4MmD9esnqN5kUZ+jUXcki9GF7sif0Moo/FsTbhcnPaOCPDUWNVLpPDw=="
            }
          },
          {
            "validator_address": "CE589EA77B056D268D30D1DC1D68A70E0F885E95",
            "validator_index": "74",
            "height": "24698",
            "round": "0",
            "timestamp": "2018-07-31T22:46:50.791200144Z",
            "type": 2,
            "block_id": {
              "hash": "11FFA5D77E2374EA4E6130C461E5508A2C584F74",
              "parts": {
                "total": "1",
                "hash": "FC1DD23BF8C60D5E820516C9C6913F49D6A8D369"
              }
            },
            "signature": {
              "type": "tendermint/SignatureEd25519",
              "value": "qZHl/UEQYam6QEOSb6gq7Sb6EU3UaRxkgOUUzbTuK3OAWSv00FCIB0atVqAsr330M2bsYlNZM0xd9x11D05EAA=="
            }
          },
          {
            "validator_address": "CEB97DB5CB18270247ABDE6CF2F84F9AEE8A2904",
            "validator_index": "75",
            "height": "24698",
            "round": "0",
            "timestamp": "2018-07-31T22:46:51.195611873Z",
            "type": 2,
            "block_id": {
              "hash": "11FFA5D77E2374EA4E6130C461E5508A2C584F74",
              "parts": {
                "total": "1",
                "hash": "FC1DD23BF8C60D5E820516C9C6913F49D6A8D369"
              }
            },
            "signature": {
              "type": "tendermint/SignatureEd25519",
              "value": "Ui3iuVFJVCaLN74NCuKamBtxiiDi9VpDDJzPh1IQIPqJEoE/Yqs2y/2TskrSQGrQaWEyNVX5+yoPrJDaJLIUDA=="
            }
          },
          {
            "validator_address": "CF205769734F5758CC39F907EFB73D6BAF915FB1",
            "validator_index": "76",
            "height": "24698",
            "round": "0",
            "timestamp": "2018-07-31T22:46:50.93147803Z",
            "type": 2,
            "block_id": {
              "hash": "11FFA5D77E2374EA4E6130C461E5508A2C584F74",
              "parts": {
                "total": "1",
                "hash": "FC1DD23BF8C60D5E820516C9C6913F49D6A8D369"
              }
            },
            "signature": {
              "type": "tendermint/SignatureEd25519",
              "value": "DIJ6c+Q7yBpOtl0iDzdSiekJJLg4FSamXzj/9zYvmygv3HWNHzlZA5ndOmpy6ko8o6HgTmkvPmX5asFnMScgBw=="
            }
          },
          null,
          {
            "validator_address": "D6285C3422C8886445D53757CBE12D2B91B5A9D0",
            "validator_index": "78",
            "height": "24698",
            "round": "0",
            "timestamp": "2018-07-31T22:46:33.564541618Z",
            "type": 2,
            "block_id": {
              "hash": "11FFA5D77E2374EA4E6130C461E5508A2C584F74",
              "parts": {
                "total": "1",
                "hash": "FC1DD23BF8C60D5E820516C9C6913F49D6A8D369"
              }
            },
            "signature": {
              "type": "tendermint/SignatureEd25519",
              "value": "bbrNN/Vi0wsiqLo1WpDfYOx9oSVFM1z3x1m2s/Eo7Lt9E/zdQDw46TRJPVDngq6L+GUHsXNJgsRlWAWW3msaBQ=="
            }
          },
          {
            "validator_address": "D77FB84A729972CD3E757C9BEB61561855832B92",
            "validator_index": "79",
            "height": "24698",
            "round": "0",
            "timestamp": "2018-07-31T22:46:50.894233004Z",
            "type": 2,
            "block_id": {
              "hash": "11FFA5D77E2374EA4E6130C461E5508A2C584F74",
              "parts": {
                "total": "1",
                "hash": "FC1DD23BF8C60D5E820516C9C6913F49D6A8D369"
              }
            },
            "signature": {
              "type": "tendermint/SignatureEd25519",
              "value": "/+f85zKiAs8i6MFRDvdIoAapDJr0fpaUkFNjPgCPw9DUQqRKqkGelyejizbt4hWrQaTvIwu0lDyHA/NijObEAA=="
            }
          },
          {
            "validator_address": "DB7E6732471D3EA5C90C17A9974D9F88AB45F2FB",
            "validator_index": "80",
            "height": "24698",
            "round": "0",
            "timestamp": "2018-07-31T22:46:50.857324693Z",
            "type": 2,
            "block_id": {
              "hash": "11FFA5D77E2374EA4E6130C461E5508A2C584F74",
              "parts": {
                "total": "1",
                "hash": "FC1DD23BF8C60D5E820516C9C6913F49D6A8D369"
              }
            },
            "signature": {
              "type": "tendermint/SignatureEd25519",
              "value": "/AilK9GRJMb/oTSckVSXZ94L0mgdC9SSeO6K4/i0++g2O1jjTvpV/ZqQsyj6h5pPP4Dc3ueBijNhfaRdOsoMCw=="
            }
          },
          {
            "validator_address": "DF54B862410BCD9B5C516FBB6C56BDC826ED6FA7",
            "validator_index": "81",
            "height": "24698",
            "round": "0",
            "timestamp": "2018-07-31T22:46:50.946539352Z",
            "type": 2,
            "block_id": {
              "hash": "11FFA5D77E2374EA4E6130C461E5508A2C584F74",
              "parts": {
                "total": "1",
                "hash": "FC1DD23BF8C60D5E820516C9C6913F49D6A8D369"
              }
            },
            "signature": {
              "type": "tendermint/SignatureEd25519",
              "value": "gCIf2E6eoCyJaVSF8v62VfBg0s5Hi0uKXECWyHRtb3fsnmQ2GnFjfiXrABCuVcjeoNx5flqR+8uclehfOkGoCA=="
            }
          },
          {
            "validator_address": "DFAF0C8B1B78D6D552B0189DE3ACA351439A1319",
            "validator_index": "82",
            "height": "24698",
            "round": "0",
            "timestamp": "2018-07-31T22:46:50.786795027Z",
            "type": 2,
            "block_id": {
              "hash": "11FFA5D77E2374EA4E6130C461E5508A2C584F74",
              "parts": {
                "total": "1",
                "hash": "FC1DD23BF8C60D5E820516C9C6913F49D6A8D369"
              }
            },
            "signature": {
              "type": "tendermint/SignatureEd25519",
              "value": "GMbZ+g43UiHOGkaa5Kecv14kmKEu6qbicztQAXPSkEn32nJefJjazgCnBvgHHJKnU5Gms7wW40on3z0tzDVsBg=="
            }
          },
          {
            "validator_address": "E1DBC77881161A5A3A8536A57536EAE546A75D69",
            "validator_index": "83",
            "height": "24698",
            "round": "0",
            "timestamp": "2018-07-31T22:46:50.789990038Z",
            "type": 2,
            "block_id": {
              "hash": "11FFA5D77E2374EA4E6130C461E5508A2C584F74",
              "parts": {
                "total": "1",
                "hash": "FC1DD23BF8C60D5E820516C9C6913F49D6A8D369"
              }
            },
            "signature": {
              "type": "tendermint/SignatureEd25519",
              "value": "xY1cGmwBXJ4e0sOZbr5ItKMCwWIAt96G5mgn4UDguMEQmjGa94GIeVxOColA20YHtYSvQ6qbn/oDr3aF9qpeBA=="
            }
          },
          {
            "validator_address": "E300E9D484374C1D3E97C1D93CAC3B160A056298",
            "validator_index": "84",
            "height": "24698",
            "round": "0",
            "timestamp": "2018-07-31T22:46:51.150917317Z",
            "type": 2,
            "block_id": {
              "hash": "11FFA5D77E2374EA4E6130C461E5508A2C584F74",
              "parts": {
                "total": "1",
                "hash": "FC1DD23BF8C60D5E820516C9C6913F49D6A8D369"
              }
            },
            "signature": {
              "type": "tendermint/SignatureEd25519",
              "value": "7oK/J70JmVj3fxpxBKQ+9tpD8ZiEqKFXZTyVv3ig8MCIwdbB15c+rUd3L5b+hX29Cu9a+8xH68DS/mdt52bAAA=="
            }
          },
          {
            "validator_address": "E39B5778E0D4297A46F45CF6940B0A163A430FF8",
            "validator_index": "85",
            "height": "24698",
            "round": "0",
            "timestamp": "2018-07-31T22:46:50.850736493Z",
            "type": 2,
            "block_id": {
              "hash": "11FFA5D77E2374EA4E6130C461E5508A2C584F74",
              "parts": {
                "total": "1",
                "hash": "FC1DD23BF8C60D5E820516C9C6913F49D6A8D369"
              }
            },
            "signature": {
              "type": "tendermint/SignatureEd25519",
              "value": "oVoc1RI/qpOn4GvZ8wJaJqm/iWUCUUqXBUCgCgVSfoc4VzHaeS1FDWEywOCuIEY4Quj48g/MQBAIYD/vGJXgAw=="
            }
          },
          {
            "validator_address": "E3B19738F7132F950668504D326C7660F159D170",
            "validator_index": "86",
            "height": "24698",
            "round": "0",
            "timestamp": "2018-07-31T22:46:50.827032994Z",
            "type": 2,
            "block_id": {
              "hash": "11FFA5D77E2374EA4E6130C461E5508A2C584F74",
              "parts": {
                "total": "1",
                "hash": "FC1DD23BF8C60D5E820516C9C6913F49D6A8D369"
              }
            },
            "signature": {
              "type": "tendermint/SignatureEd25519",
              "value": "OqzwYwYRqTCLwFxt0hWGmTHLFdPtJ3ELcFdLtYcoDHbxuMPDU84W8qllKabpmoX1mEZIu3GwKKrdDb6GrfI4Cw=="
            }
          },
          {
            "validator_address": "E42F8AEABB685219F7027F54D2B0DBC7846F633A",
            "validator_index": "87",
            "height": "24698",
            "round": "0",
            "timestamp": "2018-07-31T22:46:49.932769038Z",
            "type": 2,
            "block_id": {
              "hash": "11FFA5D77E2374EA4E6130C461E5508A2C584F74",
              "parts": {
                "total": "1",
                "hash": "FC1DD23BF8C60D5E820516C9C6913F49D6A8D369"
              }
            },
            "signature": {
              "type": "tendermint/SignatureEd25519",
              "value": "q+f3iCagL1UukSGaeAP+0oEmWoFUWEfSL77TcRUTJwUUhDeQBE4a5J0ZE6y1nNnsbd49QLzsBJ4ASDCWa0IJAw=="
            }
          },
          {
            "validator_address": "E4E6C2E81269DFFA196C17F98240E491479A6008",
            "validator_index": "88",
            "height": "24698",
            "round": "0",
            "timestamp": "2018-07-31T22:46:50.888991136Z",
            "type": 2,
            "block_id": {
              "hash": "11FFA5D77E2374EA4E6130C461E5508A2C584F74",
              "parts": {
                "total": "1",
                "hash": "FC1DD23BF8C60D5E820516C9C6913F49D6A8D369"
              }
            },
            "signature": {
              "type": "tendermint/SignatureEd25519",
              "value": "qFylYG8m1evDDZr+sMzL7WqxDFScSYUOFrmqTYTy39A9/+FE2aC/PyH/mkvefiYD0Xp+uVGtTbrK9WhyQUsdAA=="
            }
          },
          {
            "validator_address": "E4FEB2846F4F3B0ECDCBE9C9DCB2248248A5AF0F",
            "validator_index": "89",
            "height": "24698",
            "round": "0",
            "timestamp": "2018-07-31T22:46:51.070419729Z",
            "type": 2,
            "block_id": {
              "hash": "11FFA5D77E2374EA4E6130C461E5508A2C584F74",
              "parts": {
                "total": "1",
                "hash": "FC1DD23BF8C60D5E820516C9C6913F49D6A8D369"
              }
            },
            "signature": {
              "type": "tendermint/SignatureEd25519",
              "value": "e+BAGb25BdCnMp0/tkw4tLBjHfC11O2GcRdKAOwfm7W0OFfklVzmjOJdX+wfUGUQgRoQYkwxAfM31gt9ioErBg=="
            }
          },
          {
            "validator_address": "E6A7079D584B163750BE0831227F6B685DEAF3C1",
            "validator_index": "90",
            "height": "24698",
            "round": "0",
            "timestamp": "2018-07-31T22:46:50.96107913Z",
            "type": 2,
            "block_id": {
              "hash": "11FFA5D77E2374EA4E6130C461E5508A2C584F74",
              "parts": {
                "total": "1",
                "hash": "FC1DD23BF8C60D5E820516C9C6913F49D6A8D369"
              }
            },
            "signature": {
              "type": "tendermint/SignatureEd25519",
              "value": "enAnH6SHOdLK8H6g8KzAaHDnRLnYlLtCn2a2GFhzU1jfzgc3Cv5oqGfF4EukrG2GyvfMSyMLIkSlF4qIN60ICw=="
            }
          },
          {
            "validator_address": "E7A30077D5D11867D3EAF99ED45BFDC1EB834509",
            "validator_index": "91",
            "height": "24698",
            "round": "0",
            "timestamp": "2018-07-31T22:46:50.828903525Z",
            "type": 2,
            "block_id": {
              "hash": "11FFA5D77E2374EA4E6130C461E5508A2C584F74",
              "parts": {
                "total": "1",
                "hash": "FC1DD23BF8C60D5E820516C9C6913F49D6A8D369"
              }
            },
            "signature": {
              "type": "tendermint/SignatureEd25519",
              "value": "t2iyz4XvCMdPlnAtVMRZH0ZdNru6B4Y+V1/O/rJyyAdy0kauaw5g9WIMWzYdO7bPzhYRw+mHzRS2AySzeCcBBg=="
            }
          },
          {
            "validator_address": "EBC613967F66F4EC306852CDF58B4F151CF16738",
            "validator_index": "92",
            "height": "24698",
            "round": "0",
            "timestamp": "2018-07-31T22:46:50.964079485Z",
            "type": 2,
            "block_id": {
              "hash": "11FFA5D77E2374EA4E6130C461E5508A2C584F74",
              "parts": {
                "total": "1",
                "hash": "FC1DD23BF8C60D5E820516C9C6913F49D6A8D369"
              }
            },
            "signature": {
              "type": "tendermint/SignatureEd25519",
              "value": "b6dFoWiS3usLoKgaO6+fahyeMYoDqijBeapY/IXnJiNMlgrQ7l59v4YBDBm92Nvenhv4eNfNBxt1VSJEVyBECA=="
            }
          },
          {
            "validator_address": "EC3401441726C40ECC7E51F744483B05BC6DE9BD",
            "validator_index": "93",
            "height": "24698",
            "round": "0",
            "timestamp": "2018-07-31T22:46:50.891408207Z",
            "type": 2,
            "block_id": {
              "hash": "11FFA5D77E2374EA4E6130C461E5508A2C584F74",
              "parts": {
                "total": "1",
                "hash": "FC1DD23BF8C60D5E820516C9C6913F49D6A8D369"
              }
            },
            "signature": {
              "type": "tendermint/SignatureEd25519",
              "value": "wKxDaCTs+nEzatf0T4gECPDC7+YeMrCkiTtCsU/tTrv5H8RGqho8wk2DkKNh524m0UhnRiXPFYtcfHSMSA5XCA=="
            }
          },
          {
            "validator_address": "EC95B111D032181E1EC3B5E8875C5BB8E4AE7140",
            "validator_index": "94",
            "height": "24698",
            "round": "0",
            "timestamp": "2018-07-31T22:46:50.757670252Z",
            "type": 2,
            "block_id": {
              "hash": "11FFA5D77E2374EA4E6130C461E5508A2C584F74",
              "parts": {
                "total": "1",
                "hash": "FC1DD23BF8C60D5E820516C9C6913F49D6A8D369"
              }
            },
            "signature": {
              "type": "tendermint/SignatureEd25519",
              "value": "lXWnQbBjEja2UqtGFjeJx/PcilblEqevmKeAdBRi1MIfh317Q1oQ5aZkki8uoE7ZULcythV2hpRpBS94i8fiDA=="
            }
          },
          {
            "validator_address": "F13C1805E8131C9B47E2A46818F57D8A2841E578",
            "validator_index": "95",
            "height": "24698",
            "round": "0",
            "timestamp": "2018-07-31T22:46:50.871486058Z",
            "type": 2,
            "block_id": {
              "hash": "11FFA5D77E2374EA4E6130C461E5508A2C584F74",
              "parts": {
                "total": "1",
                "hash": "FC1DD23BF8C60D5E820516C9C6913F49D6A8D369"
              }
            },
            "signature": {
              "type": "tendermint/SignatureEd25519",
              "value": "/0WwxyKom0y9CoKbZ3lcYjPIdyvPAqwHIJL+GhErLs0RvLw/wbj6vNr11XYGuAWJu3+qCs/XXp1xTi1zGjtwCQ=="
            }
          },
          {
            "validator_address": "F23FF36BD5B90C33CE3A03ED72DBDCF5EC07D6AF",
            "validator_index": "96",
            "height": "24698",
            "round": "0",
            "timestamp": "2018-07-31T22:46:50.889155915Z",
            "type": 2,
            "block_id": {
              "hash": "11FFA5D77E2374EA4E6130C461E5508A2C584F74",
              "parts": {
                "total": "1",
                "hash": "FC1DD23BF8C60D5E820516C9C6913F49D6A8D369"
              }
            },
            "signature": {
              "type": "tendermint/SignatureEd25519",
              "value": "WvfoPZUhZtLoURsWbMf2jwXAQKTNS2OFFDJzb7WxTKIK1AjXiuKJ50Tn0h8GFIx5TBvNNeSPw+gK4QU+tk4JBA=="
            }
          },
          {
            "validator_address": "F4268597DE93E3E2CED38845010F8AA34E2A879E",
            "validator_index": "97",
            "height": "24698",
            "round": "0",
            "timestamp": "2018-07-31T22:46:50.854585011Z",
            "type": 2,
            "block_id": {
              "hash": "11FFA5D77E2374EA4E6130C461E5508A2C584F74",
              "parts": {
                "total": "1",
                "hash": "FC1DD23BF8C60D5E820516C9C6913F49D6A8D369"
              }
            },
            "signature": {
              "type": "tendermint/SignatureEd25519",
              "value": "2RYlVoAcQyOC1Zi4iA3JHjfdLOm5DutB+zb4n4WLuAgQgRal3uxJa5jyluwgXLoAm3nK7q8dbDyHpmq8mnytBQ=="
            }
          },
          {
            "validator_address": "F4DEB417999B04BE2EFF9FFE03FA373D86011CC0",
            "validator_index": "98",
            "height": "24698",
            "round": "0",
            "timestamp": "2018-07-31T22:46:50.854699269Z",
            "type": 2,
            "block_id": {
              "hash": "11FFA5D77E2374EA4E6130C461E5508A2C584F74",
              "parts": {
                "total": "1",
                "hash": "FC1DD23BF8C60D5E820516C9C6913F49D6A8D369"
              }
            },
            "signature": {
              "type": "tendermint/SignatureEd25519",
              "value": "Gj5jbuhao+9eqHW9ff8xCJPSzXZnrOkW/1An6wutjesM12IOd21lsuhASXz2FiYC85GuVxliECzy+738DKh8Ag=="
            }
          },
          {
            "validator_address": "F6738260186D33D9C14FC6E7017AFE6BB952A63D",
            "validator_index": "99",
            "height": "24698",
            "round": "0",
            "timestamp": "2018-07-31T22:46:50.877545851Z",
            "type": 2,
            "block_id": {
              "hash": "11FFA5D77E2374EA4E6130C461E5508A2C584F74",
              "parts": {
                "total": "1",
                "hash": "FC1DD23BF8C60D5E820516C9C6913F49D6A8D369"
              }
            },
            "signature": {
              "type": "tendermint/SignatureEd25519",
              "value": "9VIP9xw97asNGlS5H8fdZSGFGVrDsC6x1ObpTIYcE/0SNNibdU10+WLZdWzB2SaALN1zRTNF4MwYMjl6FJmWBg=="
            }
          },
          {
            "validator_address": "FF3F3FCBCE7E62D7AD5506FF846EC4518D980515",
            "validator_index": "100",
            "height": "24698",
            "round": "0",
            "timestamp": "2018-07-31T22:46:50.851187076Z",
            "type": 2,
            "block_id": {
              "hash": "11FFA5D77E2374EA4E6130C461E5508A2C584F74",
              "parts": {
                "total": "1",
                "hash": "FC1DD23BF8C60D5E820516C9C6913F49D6A8D369"
              }
            },
            "signature": {
              "type": "tendermint/SignatureEd25519",
              "value": "MV+IXD30XImnazYVHyqZY3OwH0cMMzBqiN02wG+tifvV8PBtH+GvJxV3yCkaBd6DGYE/SJMuBwtdL3HUtoO9Dw=="
            }
          }
        ]
      }
    },
    "canonical": true
  }
}