{
  "jsonrpc": "2.0",
  "id": "",
  "result": {
    "SignedHeader": {
      "header": {
        "chain_id": "gaia-7004",
        "height": "24811",
        "time": "2018-07-31T22:58:43.771377516Z",
        "num_txs": "0",
        "last_block_id": {
          "hash": "53EFD3F7EC7BAFD4A9436D9F0965342CCAD0340E",
          "parts": {
            "total": "1",
            "hash": "5834C09B133792FAA80B2DD4891880A3DB2DFA63"
          }
        },
        "total_txs": "710",
        "last_commit_hash": "F3AC949B8123CB8B95F2E2457EDF4BE2D8A08225",
        "data_hash": "",
        "validators_hash": "BAC635A3500BEEE9DBB7F25A034B3C5DA6751E38",
        "consensus_hash": "D6B74BB35BDFFD8392340F2A379173548AE188FE",
        "app_hash": "098B123D9888590DD8703C1B0E33924245AD5B44",
        "last_results_hash": "",
        "evidence_hash": ""
      },
      "commit": {
        "block_id": {
          "hash": "61A6C62F181157ED3104A11578DE71C75C313059",
          "parts": {
            "total": "1",
            "hash": "013ABA5613C9B191C632566FC116D7B20C8DB7E1"
          }
        },
        "precommits": [
          {
            "validator_address": "029359C0C768096273A68ABC902A6B17AC8D1D70",
            "validator_index": "0",
            "height": "24811",
            "round": "1",
            "timestamp": "2018-07-31T22:58:45.550342882Z",
            "type": 2,
            "block_id": {
              "hash": "61A6C62F181157ED3104A11578DE71C75C313059",
              "parts": {
                "total": "1",
                "hash": "013ABA5613C9B191C632566FC116D7B20C8DB7E1"
              }
            },
            "signature": {
              "type": "tendermint/SignatureEd25519",
              "value": "S8p/U2YgC3/Ziyv+wkXlYSsiR47w6nj7tZbE2EowAsmXIgV3WxFEzE9NdXKcJbLl5PZ/8fahFDIldtzfPrk8Dg=="
            }
          },
          {
            "validator_address": "02FE4B97A8387F39D1AC19E0C1702B3CC614812F",
            "validator_index": "1",
            "height": "24811",
            "round": "1",
            "timestamp": "2018-07-31T22:58:45.549284898Z",
            "type": 2,
            "block_id": {
              "hash": "61A6C62F181157ED3104A11578DE71C75C313059",
              "parts": {
                "total": "1",
                "hash": "013ABA5613C9B191C632566FC116D7B20C8DB7E1"
              }
            },
            "signature": {
              "type": "tendermint/SignatureEd25519",
              "value": "APAbynvUymeF8g7aQXGRVWrFA1UG09t6b1bLLwMnKomqc98YRiU80kdn+w3hh7R2QpsikrFacR3BKKSOAs8iAA=="
            }
          },
          {
            "validator_address": "0548261C50222FD710EB5EBDF03A0E6567B21D20",
            "validator_index": "2",
            "height": "24811",
            "round": "1",
            "timestamp": "2018-07-31T22:58:45.609123153Z",
            "type": 2,
            "block_id": {
              "hash": "61A6C62F181157ED3104A11578DE71C75C313059",
              "parts": {
                "total": "1",
                "hash": "013ABA5613C9B191C632566FC116D7B20C8DB7E1"
              }
            },
            "signature": {
              "type": "tendermint/SignatureEd25519",
              "value": "vyuSP9pD68X1fyLyknt4GT7UVFgx5c5J8F9xcHBNGQF0eEIuek7Aout+83FQagGcxW6Ivf9kiSCMHx+K79hUAg=="
            }
          },
          {
            "validator_address": "09145E611CC27EEB944FC5A956DDF710F943B9EF",
            "validator_index": "3",
            "height": "24811",
            "round": "1",
            "timestamp": "2018-07-31T22:58:45.535560611Z",
            "type": 2,
            "block_id": {
              "hash": "61A6C62F181157ED3104A11578DE71C75C313059",
              "parts": {
                "total": "1",
                "hash": "013ABA5613C9B191C632566FC116D7B20C8DB7E1"
              }
            },
            "signature": {
              "type": "tendermint/SignatureEd25519",
              "value": "dRZilNEoJItQLdjo3Ofx/VBD7L1q8ng7sF3jsiCDBpqYDzzJKQNu6KS0QyyNYZHu15OGIsOcRyg0R07kR3WqCg=="
            }
          },
          {
            "validator_address": "0989D0355A104B67AE0AE028C68FB610690E174B",
            "validator_index": "4",
            "height": "24811",
            "round": "1",
            "timestamp": "2018-07-31T22:58:45.55942193Z",
            "type": 2,
            "block_id": {
              "hash": "61A6C62F181157ED3104A11578DE71C75C313059",
              "parts": {
                "total": "1",
                "hash": "013ABA5613C9B191C632566FC116D7B20C8DB7E1"
              }
            },
            "signature": {
              "type": "tendermint/SignatureEd25519",
              "value": "X+kkBfKK0Qv4xzP6bKTBDjtG/tgtg0IKk+CI3DiMQGxBq7kr2V3EQPPbzM8oNV6Weyrzbwhsw8a3+5uRD3o0Bg=="
            }
          },
          {
            "validator_address": "0A692DBFFE9E5DD28E7DECC33CED1AEB4C0D014E",
            "validator_index": "5",
            "height": "24811",
            "round": "1",
            "timestamp": "2018-07-31T22:58:45.621259278Z",
            "type": 2,
            "block_id": {
              "hash": "61A6C62F181157ED3104A11578DE71C75C313059",
              "parts": {
                "total": "1",
                "hash": "013ABA5613C9B191C632566FC116D7B20C8DB7E1"
              }
            },
            "signature": {
              "type": "tendermint/SignatureEd25519",
              "value": "i1nMXbKFZ/12aLjGN1pFvX8BOXo1fBOKiU6v7oNQcbumlHr+S20pYuzam/q2vTFmV9+qmeXBp76a4u2HdhebAA=="
            }
          },
          {
            "validator_address": "0DDF97111D73DB825138EC15EC27DE5FE8536901",
            "validator_index": "6",
            "height": "24811",
            "round": "1",
            "timestamp": "2018-07-31T22:58:45.550423846Z",
            "type": 2,
            "block_id": {
              "hash": "61A6C62F181157ED3104A11578DE71C75C313059",
              "parts": {
                "total": "1",
                "hash": "013ABA5613C9B191C632566FC116D7B20C8DB7E1"
              }
            },
            "signature": {
              "type": "tendermint/SignatureEd25519",
              "value": "T65bVCq5IM7R8aX2rjKzWWUgmdT4N3QVzyqOt8HUPSygpFRoFONndv8S6AKMFOfslNPMA2BJmnE+6MpSgICkDg=="
            }
          },
          {
            "validator_address": "1751786EFC085D5331C61168FFFC8202EA151B4E",
            "validator_index": "7",
            "height": "24811",
            "round": "1",
            "timestamp": "2018-07-31T22:58:45.176899424Z",
            "type": 2,
            "block_id": {
              "hash": "61A6C62F181157ED3104A11578DE71C75C313059",
              "parts": {
                "total": "1",
                "hash": "013ABA5613C9B191C632566FC116D7B20C8DB7E1"
              }
            },
            "signature": {
              "type": "tendermint/SignatureEd25519",
              "value": "R1oLq99h24RgqLXf0ZvHQoUIhtgDk8nS4T6lx7vualF15NiRjnGAv3JBt8LmE3ZGhlkYI5Y7IFJQfipmR0+OAg=="
            }
          },
          {
            "validator_address": "17BB5CD01E8940FAFB948A04D5FA5A0645E5822E",
            "validator_index": "8",
            "height": "24811",
            "round": "1",
            "timestamp": "2018-07-31T22:58:45.544515095Z",
            "type": 2,
            "block_id": {
              "hash": "61A6C62F181157ED3104A11578DE71C75C313059",
              "parts": {
                "total": "1",
                "hash": "013ABA5613C9B191C632566FC116D7B20C8DB7E1"
              }
            },
            "signature": {
              "type": "tendermint/SignatureEd25519",
              "value": "CpzVPbQR89c5lT0T6EFVPS69Gf49Lwx8wMzAcXJ8rpXxHhkOUORSit7m+JHl5xTxZgoxOpbZoTpQGemRhzlBCQ=="
            }
          },
          {
            "validator_address": "1C683A87904BC38F05004FE83301A3A3E35447EB",
            "validator_index": "9",
            "height": "24811",
            "round": "1",
            "timestamp": "2018-07-31T22:58:45.524210412Z",
            "type": 2,
            "block_id": {
              "hash": "61A6C62F181157ED3104A11578DE71C75C313059",
              "parts": {
                "total": "1",
                "hash": "013ABA5613C9B191C632566FC116D7B20C8DB7E1"
              }
            },
            "signature": {
              "type": "tendermint/SignatureEd25519",
              "value": "G8MWp0qFUMhvvj4CrNqZb+WTVgJ1D6c25ttxzk6kCL4OykC7qwbFLnq6yFivmRwiKz7U0vYYked5oHQIzU4FAQ=="
            }
          },
          {
            "validator_address": "1E9CE94FD0BA5CFEB901F90BC658D64D85B134D2",
            "validator_index": "10",
            "height": "24811",
            "round": "1",
            "timestamp": "2018-07-31T22:58:45.574154124Z",
            "type": 2,
            "block_id": {
              "hash": "61A6C62F181157ED3104A11578DE71C75C313059",
              "parts": {
                "total": "1",
                "hash": "013ABA5613C9B191C632566FC116D7B20C8DB7E1"
              }
            },
            "signature": {
              "type": "tendermint/SignatureEd25519",
              "value": "55o1qg2I+lF+azibyuE89PcWu7kpfmx2DU8sBfGTuXHxp0HOVE57QrY+mSNQM/79cWpUZmQehYKKieuP6r1eDA=="
            }
          },
          {
            "validator_address": "1ECD8C5FE1341D74CDC633A245DD56858DE2F9A2",
            "validator_index": "11",
            "height": "24811",
            "round": "1",
            "timestamp": "2018-07-31T22:58:45.719669669Z",
            "type": 2,
            "block_id": {
              "hash": "61A6C62F181157ED3104A11578DE71C75C313059",
              "parts": {
                "total": "1",
                "hash": "013ABA5613C9B191C632566FC116D7B20C8DB7E1"
              }
            },
            "signature": {
              "type": "tendermint/SignatureEd25519",
              "value": "P0+rOn8P8vfQxx3gdj7I7qHUewnVYiWVYskAZZmtXhfPDKiEAPqTDsUsUPPuNNhc1KqvJWaxk/GIvJ3eaP7CBg=="
            }
          },
          {
            "validator_address": "1F3A68CAAD483768AA2BF667DEF10F7104C89928",
            "validator_index": "12",
            "height": "24811",
            "round": "1",
            "timestamp": "2018-07-31T22:58:45.55389157Z",
            "type": 2,
            "block_id": {
              "hash": "61A6C62F181157ED3104A11578DE71C75C313059",
              "parts": {
                "total": "1",
                "hash": "013ABA5613C9B191C632566FC116D7B20C8DB7E1"
              }
            },
            "signature": {
              "type": "tendermint/SignatureEd25519",
              "value": "c/2iNfMCDMPZFmvJD3WftCklrUg9MuKITZwqynNmwlsGHb6xduAH6FWO2IllNJsNVnD/yE42plB4z2tZMJbvAA=="
            }
          },
          {
            "validator_address": "23897586D68E2AC1C78E0EF5BB5DF5C8EAB18F50",
            "validator_index": "13",
            "height": "24811",
            "round": "1",
            "timestamp": "2018-07-31T22:58:45.515784413Z",
            "type": 2,
            "block_id": {
              "hash": "61A6C62F181157ED3104A11578DE71C75C313059",
              "parts": {
                "total": "1",
                "hash": "013ABA5613C9B191C632566FC116D7B20C8DB7E1"
              }
            },
            "signature": {
              "type": "tendermint/SignatureEd25519",
              "value": "it48XOW0p1VYH9C8QDtkA3q9vKpnjv0JSKWRhCZl1Mq9oUbQpct938IlR0hgH9mjcpJ4CU/N4mJzxY2q4mpaBA=="
            }
          },
          {
            "validator_address": "28770D17E8530825E7310A0659308654B7EC9682",
            "validator_index": "14",
            "height": "24811",
            "round": "1",
            "timestamp": "2018-07-31T22:58:45.556656521Z",
            "type": 2,
            "block_id": {
              "hash": "61A6C62F181157ED3104A11578DE71C75C313059",
              "parts": {
                "total": "1",
                "hash": "013ABA5613C9B191C632566FC116D7B20C8DB7E1"
              }
            },
            "signature": {
              "type": "tendermint/SignatureEd25519",
              "value": "cZn9nVo0m/To6tductqgD9wSe5/3wYJ3oMbkTnrWC9ZtkYEkMYisIPlugCiU510nBgtxKK0OYfs2crAATlwaAQ=="
            }
          },
          {
            "validator_address": "2A92EC3C642140202298D0E245095E0ECFC25228",
            "validator_index": "15",
            "height": "24811",
            "round": "1",
            "timestamp": "2018-07-31T22:58:45.684965401Z",
            "type": 2,
            "block_id": {
              "hash": "61A6C62F181157ED3104A11578DE71C75C313059",
              "parts": {
                "total": "1",
                "hash": "013ABA5613C9B191C632566FC116D7B20C8DB7E1"
              }
            },
            "signature": {
              "type": "tendermint/SignatureEd25519",
              "value": "14uyLHcMqU3orBMHqJgpJ125MfgJKy26atu8+KkPys58t8/xMYGSFFRVghtA5HBsmNEUyE7gzguRuVF/R3ZmDw=="
            }
          },
          {
            "validator_address": "33412C9A69C60CB0FAA24A5C5B3A906DE24B47C2",
            "validator_index": "16",
            "height": "24811",
            "round": "1",
            "timestamp": "2018-07-31T22:58:45.53924886Z",
            "type": 2,
            "block_id": {
              "hash": "61A6C62F181157ED3104A11578DE71C75C313059",
              "parts": {
                "total": "1",
                "hash": "013ABA5613C9B191C632566FC116D7B20C8DB7E1"
              }
            },
            "signature": {
              "type": "tendermint/SignatureEd25519",
              "value": "SdSww9t0B1kSG2HYYQkakpCXyh5gRcH5BsfpN9IICiaWZijCg4pd88qJ0lJl8gckE/lOobko3l4i0/2U12bmDQ=="
            }
          },
          {
            "validator_address": "3383EF2A13B160C41947AC30434B274B2FAF0617",
            "validator_index": "17",
            "height": "24811",
            "round": "1",
            "timestamp": "2018-07-31T22:58:45.55277967Z",
            "type": 2,
            "block_id": {
              "hash": "61A6C62F181157ED3104A11578DE71C75C313059",
              "parts": {
                "total": "1",
                "hash": "013ABA5613C9B191C632566FC116D7B20C8DB7E1"
              }
            },
            "signature": {
              "type": "tendermint/SignatureEd25519",
              "value": "P6xhe7hkfBjhCxj1XT5UUr3Y9V7/cxAfByIo2KZV+SPLoa2Z2ehyg90U8u+w9Ekn1i3EFfUPG+0nBtdMwhPXAQ=="
            }
          },
          {
            "validator_address": "36E9B7FAEC964F97D84C028ED62493E373AD0B38",
            "validator_index": "18",
            "height": "24811",
            "round": "1",
            "timestamp": "2018-07-31T22:58:45.585714186Z",
            "type": 2,
            "block_id": {
              "hash": "61A6C62F181157ED3104A11578DE71C75C313059",
              "parts": {
                "total": "1",
                "hash": "013ABA5613C9B191C632566FC116D7B20C8DB7E1"
              }
            },
            "signature": {
              "type": "tendermint/SignatureEd25519",
              "value": "iBN2Rq64FrhhOY/EozveJ2pZ/TbAMWt6j7y0lvAaqDi72J70vbMtRIHodiuXhmCVAnHVxK90/8Ax3nsxgWGBAw=="
            }
          },
          {
            "validator_address": "38A8D85D36BEA2E5FCF8A1E778F53628E450EF13",
            "validator_index": "19",
            "height": "24811",
            "round": "1",
            "timestamp": "2018-07-31T22:58:45.651733711Z",
            "type": 2,
            "block_id": {
              "hash": "61A6C62F181157ED3104A11578DE71C75C313059",
              "parts": {
                "total": "1",
                "hash": "013ABA5613C9B191C632566FC116D7B20C8DB7E1"
              }
            },
            "signature": {
              "type": "tendermint/SignatureEd25519",
              "value": "68EXQwmXpQxuBFbYe0fEn/tsvmAxa1aZj47NtPfJeWxPgaKT24L9nH0y0VpSixbLDtXt5lWtjHNzOOhWCQN2DA=="
            }
          },
          {
            "validator_address": "39DFDA0C5DB84B269642188B23253508537798E6",
            "validator_index": "20",
            "height": "24811",
            "round": "1",
            "timestamp": "2018-07-31T22:58:45.526350051Z",
            "type": 2,
            "block_id": {
              "hash": "61A6C62F181157ED3104A11578DE71C75C313059",
              "parts": {
                "total": "1",
                "hash": "013ABA5613C9B191C632566FC116D7B20C8DB7E1"
              }
            },
            "signature": {
              "type": "tendermint/SignatureEd25519",
              "value": "C2PKR1Jvnor7aL3DiyytFYsDLmQ9klAf19d4KA90O5ydjBwli9ZRIhDuO3IFCEP1ElPy+c+punlTnSqEjtVJDg=="
            }
          },
          {
            "validator_address": "3AC99B708404452366E0953A4BE849226DC86CBC",
            "validator_index": "21",
            "height": "24811",
            "round": "1",
            "timestamp": "2018-07-31T22:58:45.580660999Z",
            "type": 2,
            "block_id": {
              "hash": "61A6C62F181157ED3104A11578DE71C75C313059",
              "parts": {
                "total": "1",
                "hash": "013ABA5613C9B191C632566FC116D7B20C8DB7E1"
              }
            },
            "signature": {
              "type": "tendermint/SignatureEd25519",
              "value": "fPcrokJNcuFA+Pts9CDFr5vqgFiDXjP+Ntuyp6VOXfL1BPewJPaJC9tnRgnuLo1GMUGLQvEH2Pwt1OPg0AxHCQ=="
            }
          },
          {
            "validator_address": "3DCB822A10ED319EC7C4393D8E3FD4A41B15AAF2",
            "validator_index": "22",
            "height": "24811",
            "round": "1",
            "timestamp": "2018-07-31T22:58:45.485700169Z",
            "type": 2,
            "block_id": {
              "hash": "61A6C62F181157ED3104A11578DE71C75C313059",
              "parts": {
                "total": "1",
                "hash": "013ABA5613C9B191C632566FC116D7B20C8DB7E1"
              }
            },
            "signature": {
              "type": "tendermint/SignatureEd25519",
              "value": "mNyxImW9gxWCxDHcT51INNXf8bIoopo7Lfe0F/b6+GqsDe5AZwCkiirmGZvahcENJRgpyqiqIQn+ka6bsp0IBA=="
            }
          },
          {
            "validator_address": "3E899BA36A93C7370347BD5FE85909F2ECD93F8C",
            "validator_index": "23",
            "height": "24811",
            "round": "1",
            "timestamp": "2018-07-31T22:58:45.572346698Z",
            "type": 2,
            "block_id": {
              "hash": "61A6C62F181157ED3104A11578DE71C75C313059",
              "parts": {
                "total": "1",
                "hash": "013ABA5613C9B191C632566FC116D7B20C8DB7E1"
              }
            },
            "signature": {
              "type": "tendermint/SignatureEd25519",
              "value": "c+IhnyJbi6U+oD960Z7qXv/fQ/13O+Ujy+zxTvkr7nFHhTQZhc8eBTjJfd/EGMiKONdNik7q7jWvaJgBJvLBCQ=="
            }
          },
          {
            "validator_address": "41CAB2E29E7D0F2282E3275938F188FF9386B84C",
            "validator_index": "24",
            "height": "24811",
            "round": "1",
            "timestamp": "2018-07-31T22:58:45.581320589Z",
            "type": 2,
            "block_id": {
              "hash": "61A6C62F181157ED3104A11578DE71C75C313059",
              "parts": {
                "total": "1",
                "hash": "013ABA5613C9B191C632566FC116D7B20C8DB7E1"
              }
            },
            "signature": {
              "type": "tendermint/SignatureEd25519",
              "value": "EYnjPH6YFoUn5zyDwgjQcUW0Tx6IIFzaVVPo0WI+UX869UB00yEr4yqq0+HcuFPVh1NFfkiJh3Vl03MjUvbSCQ=="
            }
          },
          {
            "validator_address": "462B656869DB02A8FD1077E255F8CC7401DC37C6",
            "validator_index": "25",
            "height": "24811",
            "round": "1",
            "timestamp": "2018-07-31T22:58:45.530088661Z",
            "type": 2,
            "block_id": {
              "hash": "61A6C62F181157ED3104A11578DE71C75C313059",
              "parts": {
                "total": "1",
                "hash": "013ABA5613C9B191C632566FC116D7B20C8DB7E1"
              }
            },
            "signature": {
              "type": "tendermint/SignatureEd25519",
              "value": "N90P3DBTiY4gb50Vf/8knUmqAaE+Tg32A7yfV630YGGavL2oa+jkOy0iZi9+xcwgDupljHkcH11xuZuZIY0jDg=="
            }
          },
          {
            "validator_address": "48E5118163E5442068A1B5A42D2EEDBB75724935",
            "validator_index": "26",
            "height": "24811",
            "round": "1",
            "timestamp": "2018-07-31T22:58:45.698262833Z",
            "type": 2,
            "block_id": {
              "hash": "61A6C62F181157ED3104A11578DE71C75C313059",
              "parts": {
                "total": "1",
                "hash": "013ABA5613C9B191C632566FC116D7B20C8DB7E1"
              }
            },
            "signature": {
              "type": "tendermint/SignatureEd25519",
              "value": "j+dYd4W6JVNjgNR2xtDnQxl4iZVg513EyNnVZ5jxrNWv2Xljf4oVDwrRBOrd37Nq2KA9b5JO1kVp2EgZr8FgBA=="
            }
          },
          {
            "validator_address": "49103C58AFD9C7C069F55EBA218F3DFD9AEA74F9",
            "validator_index": "27",
            "height": "24811",
            "round": "1",
            "timestamp": "2018-07-31T22:58:45.583708686Z",
            "type": 2,
            "block_id": {
              "hash": "61A6C62F181157ED3104A11578DE71C75C313059",
              "parts": {
                "total": "1",
                "hash": "013ABA5613C9B191C632566FC116D7B20C8DB7E1"
              }
            },
            "signature": {
              "type": "tendermint/SignatureEd25519",
              "value": "sYd+PSAgCNpAEDJsMBHF/bLy69ZxHKCQGDQJ4FnOOsnVaFeIeG31J7hNEtOQ+Jei0VuRHsbCSMHcZuhUTWpPCQ=="
            }
          },
          null,
          {
            "validator_address": "49841599DE675157CBE1E7D6B35BF8FFC23BD5CB",
            "validator_index": "29",
            "height": "24811",
            "round": "1",
            "timestamp": "2018-07-31T22:58:45.498005731Z",
            "type": 2,
            "block_id": {
              "hash": "61A6C62F181157ED3104A11578DE71C75C313059",
              "parts": {
                "total": "1",
                "hash": "013ABA5613C9B191C632566FC116D7B20C8DB7E1"
              }
            },
            "signature": {
              "type": "tendermint/SignatureEd25519",
              "value": "qxYFbEj2Pk9twpDOyW0VeIdjDB5QuDTrVMoSWUZ9RCdQLS5MJ8QwFfuIBsX9cOQMK3HDxYlXNhrbu9n4f/lHBA=="
            }
          },
          {
            "validator_address": "51386C2CF9556821D114D7E4945806802BADB28D",
            "validator_index": "30",
            "height": "24811",
            "round": "1",
            "timestamp": "2018-07-31T22:58:45.628009964Z",
            "type": 2,
            "block_id": {
              "hash": "61A6C62F181157ED3104A11578DE71C75C313059",
              "parts": {
                "total": "1",
                "hash": "013ABA5613C9B191C632566FC116D7B20C8DB7E1"
              }
            },
            "signature": {
              "type": "tendermint/SignatureEd25519",
              "value": "lfaIFX3d0UpCwANHoJXw/1fPx0DfWi1IR0I4EHyHJck4fvTJzFpsXPOAUnZJhTO/cIYw1mApqbm/ZtKQDLSLBQ=="
            }
          },
          {
            "validator_address": "543564ECA3AFEFADC73EE8591AAC3A96F079BC8A",
            "validator_index": "31",
            "height": "24811",
            "round": "1",
            "timestamp": "2018-07-31T22:58:45.539949408Z",
            "type": 2,
            "block_id": {
              "hash": "61A6C62F181157ED3104A11578DE71C75C313059",
              "parts": {
                "total": "1",
                "hash": "013ABA5613C9B191C632566FC116D7B20C8DB7E1"
              }
            },
            "signature": {
              "type": "tendermint/SignatureEd25519",
              "value": "Vkc/Ao14eYXb/2CMJebQfHfDRBXSfZ3mC6G+MAC69snQwQ6XtJS1gIok3ytgsOOYcPJfupwFKAeEylQ4gCrXDg=="
            }
          },
          {
            "validator_address": "55D67B1A6DC13E96F8754A5A42EABC20F7F86664",
            "validator_index": "32",
            "height": "24811",
            "round": "1",
            "timestamp": "2018-07-31T22:58:45.527599724Z",
            "type": 2,
            "block_id": {
              "hash": "61A6C62F181157ED3104A11578DE71C75C313059",
              "parts": {
                "total": "1",
                "hash": "013ABA5613C9B191C632566FC116D7B20C8DB7E1"
              }
            },
            "signature": {
              "type": "tendermint/SignatureEd25519",
              "value": "hhsCztQzE4m0nUg9nPBrHEmfdBUTZCmtwbIpRnGKh/q5AhwRCIPdfNkpjBRlD90ohrykjSZknjxjCeA9CbbIBA=="
            }
          },
          {
            "validator_address": "570B6A755ED339EAC56BB3390A48069F6AC9449B",
            "validator_index": "33",
            "height": "24811",
            "round": "1",
            "timestamp": "2018-07-31T22:58:50.141563864Z",
            "type": 2,
            "block_id": {
              "hash": "61A6C62F181157ED3104A11578DE71C75C313059",
              "parts": {
                "total": "1",
                "hash": "013ABA5613C9B191C632566FC116D7B20C8DB7E1"
              }
            },
            "signature": {
              "type": "tendermint/SignatureEd25519",
              "value": "9lQCVJe6uOYYhXh9YJ4bVH2ZKtZsO9AeKjLAHzmt+NE9++thMC9IcAtjy2F+bzugpeboViLAKANiwMQoSDExDw=="
            }
          },
          {
            "validator_address": "5BDF8EA41B1835FBAD865B181A2A4B23F511B5E4",
            "validator_index": "34",
            "height": "24811",
            "round": "1",
            "timestamp": "2018-07-31T22:58:45.51158345Z",
            "type": 2,
            "block_id": {
              "hash": "61A6C62F181157ED3104A11578DE71C75C313059",
              "parts": {
                "total": "1",
                "hash": "013ABA5613C9B191C632566FC116D7B20C8DB7E1"
              }
            },
            "signature": {
              "type": "tendermint/SignatureEd25519",
              "value": "Mox6P2ZTbkQQF/W26y9QRyjx25dtlTU8UM9vORPBdHEkPaPaaPuWKzMKhhhWEc+cZrPTMA6Gs1NcO7EEfAjbDA=="
            }
          },
          {
            "validator_address": "60229E2E273297FE00219E46DFFB8F76844CDEF9",
            "validator_index": "35",
            "height": "24811",
            "round": "1",
            "timestamp": "2018-07-31T22:58:44.079607183Z",
            "type": 2,
            "block_id": {
              "hash": "61A6C62F181157ED3104A11578DE71C75C313059",
              "parts": {
                "total": "1",
                "hash": "013ABA5613C9B191C632566FC116D7B20C8DB7E1"
              }
            },
            "signature": {
              "type": "tendermint/SignatureEd25519",
              "value": "vaM3LHlQyVIQaNzDx0C3rAwilSp/y1RzvAO+Qv23BHt2TFADwCkBnJcbsNLe+s5JCmuoXpLDgIjCboaTP9AxAw=="
            }
          },
          {
            "validator_address": "62410D6D1CD98278136E4D0738AA0EA273CDFC54",
            "validator_index": "36",
            "height": "24811",
            "round": "1",
            "timestamp": "2018-07-31T22:58:45.508326553Z",
            "type": 2,
            "block_id": {
              "hash": "61A6C62F181157ED3104A11578DE71C75C313059",
              "parts": {
                "total": "1",
                "hash": "013ABA5613C9B191C632566FC116D7B20C8DB7E1"
              }
            },
            "signature": {
              "type": "tendermint/SignatureEd25519",
              "value": "qCLXu4kOidjsLhvXZdA0tpP4+hIGr7j/zlwEjVpwm2BH3SaOY3/Yrn79jgrAxtc49m4WeaTXt8QJ+DqeRSeeCg=="
            }
          },
          {
            "validator_address": "632F5C139A5A9DFBFE5111DEE29FCFB6157207DC",
            "validator_index": "37",
            "height": "24811",
            "round": "1",
            "timestamp": "2018-07-31T22:58:45.588487895Z",
            "type": 2,
            "block_id": {
              "hash": "61A6C62F181157ED3104A11578DE71C75C313059",
              "parts": {
                "total": "1",
                "hash": "013ABA5613C9B191C632566FC116D7B20C8DB7E1"
              }
            },
            "signature": {
              "type": "tendermint/SignatureEd25519",
              "value": "Z0MbitCTnf2adbOkXV2WQf4TrzZKKBHoy4mgjDClO3WR9PjSdnQgxkBoC1VT/v7BlHCvJ5MhGCe3kvrd5EuZDg=="
            }
          },
          {
            "validator_address": "64F57F8E796A9B7B590C1EFA4123988C86631D39",
            "validator_index": "38",
            "height": "24811",
            "round": "1",
            "timestamp": "2018-07-31T22:58:45.495540364Z",
            "type": 2,
            "block_id": {
              "hash": "61A6C62F181157ED3104A11578DE71C75C313059",
              "parts": {
                "total": "1",
                "hash": "013ABA5613C9B191C632566FC116D7B20C8DB7E1"
              }
            },
            "signature": {
              "type": "tendermint/SignatureEd25519",
              "value": "5o6KkdJBovajfKl9IutB4Dl8cGt9fv0dBchNL2XeEEiXuvwD9wdfvwR+cIcwKGNnLzduKMflcjobZ7Z3JePXDQ=="
            }
          },
          {
            "validator_address": "69D99B2C66043ACBEAA8447525C356AFC6408E0C",
            "validator_index": "39",
            "height": "24811",
            "round": "1",
            "timestamp": "2018-07-31T22:58:45.634612496Z",
            "type": 2,
            "block_id": {
              "hash": "61A6C62F181157ED3104A11578DE71C75C313059",
              "parts": {
                "total": "1",
                "hash": "013ABA5613C9B191C632566FC116D7B20C8DB7E1"
              }
            },
            "signature": {
              "type": "tendermint/SignatureEd25519",
              "value": "z298wTb9CbNsuHIG89eFU3rdP37b5pNq9VzpWcbOCj7ASYUZnF70fZT/1KK58Og/skKDq7zRddbSgCxCAnrWBA=="
            }
          },
          {
            "validator_address": "69EDADFA4A803E9DBF548C900D4A465E7D154262",
            "validator_index": "40",
            "height": "24811",
            "round": "1",
            "timestamp": "2018-07-31T22:58:45.663832713Z",
            "type": 2,
            "block_id": {
              "hash": "61A6C62F181157ED3104A11578DE71C75C313059",
              "parts": {
                "total": "1",
                "hash": "013ABA5613C9B191C632566FC116D7B20C8DB7E1"
              }
            },
            "signature": {
              "type": "tendermint/SignatureEd25519",
              "value": "8t0kSf7PbzIb8I8fm73Pang/mTKceBv4hoKiO2NbVqUXXHxlHjdbMtDrnd19aFOpGF62gbENrhLMQpqYA8BgBQ=="
            }
          },
          {
            "validator_address": "6D3AD380E398D8592B03AA124BAFED5F125DF863",
            "validator_index": "41",
            "height": "24811",
            "round": "1",
            "timestamp": "2018-07-31T22:57:43.469464439Z",
            "type": 2,
            "block_id": {
              "hash": "61A6C62F181157ED3104A11578DE71C75C313059",
              "parts": {
                "total": "1",
                "hash": "013ABA5613C9B191C632566FC116D7B20C8DB7E1"
              }
            },
            "signature": {
              "type": "tendermint/SignatureEd25519",
              "value": "Mc76MDtXwIOFnGdA07L7mtj7dGrXM7r2M2S/zM4gsPm4MyWUQMxcPMWosOs6eR42w5cVURu+Mzsd4X5u3Aa2Cg=="
            }
          },
          {
            "validator_address": "6F6C93B8BF3495063FEC9B5C771158607F4AE9D6",
            "validator_index": "42",
            "height": "24811",
            "round": "1",
            "timestamp": "2018-07-31T22:58:45.694652136Z",
            "type": 2,
            "block_id": {
              "hash": "61A6C62F181157ED3104A11578DE71C75C313059",
              "parts": {
                "total": "1",
                "hash": "013ABA5613C9B191C632566FC116D7B20C8DB7E1"
              }
            },
            "signature": {
              "type": "tendermint/SignatureEd25519",
              "value": "lskWiKmLdUYVaiD2/gkX7xsCshPFNnYPHmPZBby0WwX3885xRhOD7ZbyMr9n6jDSN/DWM4Xo044AYggQK5lrAQ=="
            }
          },
          {
            "validator_address": "732CEEF54C374DDC6ADECBFD707AEFD07FEDC143",
            "validator_index": "43",
            "height": "24811",
            "round": "1",
            "timestamp": "2018-07-31T22:58:45.69033006Z",
            "type": 2,
            "block_id": {
              "hash": "61A6C62F181157ED3104A11578DE71C75C313059",
              "parts": {
                "total": "1",
                "hash": "013ABA5613C9B191C632566FC116D7B20C8DB7E1"
              }
            },
            "signature": {
              "type": "tendermint/SignatureEd25519",
              "value": "TzQ3wGl7Rr+zLBy27Hyplw4FtJoWVBbrMSzYnqHpBNKfswLSNnlR5VRweWofXcu0DkhkvajsvW48fXDiPwIODQ=="
            }
          },
          {
            "validator_address": "7393D691BFAE9661918C09932D4D9060AB40939B",
            "validator_index": "44",
            "height": "24811",
            "round": "1",
            "timestamp": "2018-07-31T22:58:45.622974678Z",
            "type": 2,
            "block_id": {
              "hash": "61A6C62F181157ED3104A11578DE71C75C313059",
              "parts": {
                "total": "1",
                "hash": "013ABA5613C9B191C632566FC116D7B20C8DB7E1"
              }
            },
            "signature": {
              "type": "tendermint/SignatureEd25519",
              "value": "gsNPju8fEgFWmAg5MyQdqLArlSTC2mNP3FzgyaJTomR4njygeQPPTE1xBTqyIHfLfMZMJuNIUHBwgK28V2ccAw=="
            }
          },
          {
            "validator_address": "751E43437224E8BB6D1569B3E2B2616B6E7F4397",
            "validator_index": "45",
            "height": "24811",
            "round": "1",
            "timestamp": "2018-07-31T22:58:45.580950293Z",
            "type": 2,
            "block_id": {
              "hash": "61A6C62F181157ED3104A11578DE71C75C313059",
              "parts": {
                "total": "1",
                "hash": "013ABA5613C9B191C632566FC116D7B20C8DB7E1"
              }
            },
            "signature": {
              "type": "tendermint/SignatureEd25519",
              "value": "ZffM7XtwujfsFJR8aEQElBAA3Wq4M7B0yv+uW8yQ5dv6mj1vAFAupzBHLbnW8jcAadsbECI82lmrkAWkRmCDAQ=="
            }
          },
          {
            "validator_address": "7EB7593F519F1180C7E872D0494611464EDF03AE",
            "validator_index": "46",
            "height": "24811",
            "round": "1",
            "timestamp": "2018-07-31T22:58:45.730077831Z",
            "type": 2,
            "block_id": {
              "hash": "61A6C62F181157ED3104A11578DE71C75C313059",
              "parts": {
                "total": "1",
                "hash": "013ABA5613C9B191C632566FC116D7B20C8DB7E1"
              }
            },
            "signature": {
              "type": "tendermint/SignatureEd25519",
              "value": "xH68rhz69v3ixsHHCaIMoDAAE0+6tsZXn0yr9+CoKkeM0hlO1eoAN0zKsRAfGVLTbe1PBI9qmOTIBD1PjjoEAw=="
            }
          },
          {
            "validator_address": "807CF675BA8479FC4FEC1047215DF07970040F1F",
            "validator_index": "47",
            "height": "24811",
            "round": "1",
            "timestamp": "2018-07-31T22:58:45.796581122Z",
            "type": 2,
            "block_id": {
              "hash": "61A6C62F181157ED3104A11578DE71C75C313059",
              "parts": {
                "total": "1",
                "hash": "013ABA5613C9B191C632566FC116D7B20C8DB7E1"
              }
            },
            "signature": {
              "type": "tendermint/SignatureEd25519",
              "value": "7zUhdns8TPzXe5l/oRVHAYRCOA3hxVtmmpJIcQQGkXcrTz4zdog8Y+yFgqo5JyY7vtLSisIWMEun3AXNN/ANCQ=="
            }
          },
          {
            "validator_address": "83AB321E012C57746689FED3A6064DF331F81007",
            "validator_index": "48",
            "height": "24811",
            "round": "1",
            "timestamp": "2018-07-31T22:58:45.601549031Z",
            "type": 2,
            "block_id": {
              "hash": "61A6C62F181157ED3104A11578DE71C75C313059",
              "parts": {
                "total": "1",
                "hash": "013ABA5613C9B191C632566FC116D7B20C8DB7E1"
              }
            },
            "signature": {
              "type": "tendermint/SignatureEd25519",
              "value": "CoJndFDb1oIW92C9EmU7QFTjnDDm8h7djnvxaugE6bAt2H5Qm7urGnzR1lR/7bXSU0z4TSkB3VX2h7FV/fcJAQ=="
            }
          },
          {
            "validator_address": "83BB1B88D3DBB20AD845FECA07749EBD87D3754D",
            "validator_index": "49",
            "height": "24811",
            "round": "1",
            "timestamp": "2018-07-31T22:58:45.749939296Z",
            "type": 2,
            "block_id": {
              "hash": "61A6C62F181157ED3104A11578DE71C75C313059",
              "parts": {
                "total": "1",
                "hash": "013ABA5613C9B191C632566FC116D7B20C8DB7E1"
              }
            },
            "signature": {
              "type": "tendermint/SignatureEd25519",
              "value": "zGcXM8tcJR+K7rB6OZHznOud9zUsupBC6QXY9SEeBYG9TBasNg5RIc4gAhuxg0H5/Dg0PKH96heacliXXZbsCA=="
            }
          },
          {
            "validator_address": "8F06FE1FD042683C426137FBC4BBAA4288924217",
            "validator_index": "50",
            "height": "24811",
            "round": "1",
            "timestamp": "2018-07-31T22:58:45.538936536Z",
            "type": 2,
            "block_id": {
              "hash": "61A6C62F181157ED3104A11578DE71C75C313059",
              "parts": {
                "total": "1",
                "hash": "013ABA5613C9B191C632566FC116D7B20C8DB7E1"
              }
            },
            "signature": {
              "type": "tendermint/SignatureEd25519",
              "value": "fB6UfwhEGLDolpf78ZpTHvxg6gANvhn4aDPd9ez25HZyVGRZtmYfk0q+kqlBhkD9bfoYGzb3N26dfjWQI3EcDA=="
            }
          },
          {
            "validator_address": "8F45617BF45B10A3F8283DEBDB35E38C7CA43237",
            "validator_index": "51",
            "height": "24811",
            "round": "1",
            "timestamp": "2018-07-31T22:58:45.644510391Z",
            "type": 2,
            "block_id": {
              "hash": "61A6C62F181157ED3104A11578DE71C75C313059",
              "parts": {
                "total": "1",
                "hash": "013ABA5613C9B191C632566FC116D7B20C8DB7E1"
              }
            },
            "signature": {
              "type": "tendermint/SignatureEd25519",
              "value": "3/F/0KnrpKhSQJCHcKSwX23CI4S4K102YPZusEgwfU2RBIBB2waF3E6oVV0VwnRWkGRFlHbt8Ndu4IOdlNwhCw=="
            }
          },
          {
            "validator_address": "95980831E186F2540F6E9FB6C8E74DE2401405AC",
            "validator_index": "52",
            "height": "24811",
            "round": "1",
            "timestamp": "2018-07-31T22:58:45.529473679Z",
            "type": 2,
            "block_id": {
              "hash": "61A6C62F181157ED3104A11578DE71C75C313059",
              "parts": {
                "total": "1",
                "hash": "013ABA5613C9B191C632566FC116D7B20C8DB7E1"
              }
            },
            "signature": {
              "type": "tendermint/SignatureEd25519",
              "value": "vfPyMuh+QD2a6rg5samH82lojYvUFI1Kyv+qJLuznlX1rRjGKiWAoS7QYQXPL7XUEh8JJz6UKQB2pc7Tsq5WAA=="
            }
          },
          {
            "validator_address": "95FAFBC1E0579C83D290A063020CE87C5334BD9B",
            "validator_index": "53",
            "height": "24811",
            "round": "1",
            "timestamp": "2018-07-31T22:58:45.548208669Z",
            "type": 2,
            "block_id": {
              "hash": "61A6C62F181157ED3104A11578DE71C75C313059",
              "parts": {
                "total": "1",
                "hash": "013ABA5613C9B191C632566FC116D7B20C8DB7E1"
              }
            },
            "signature": {
              "type": "tendermint/SignatureEd25519",
              "value": "scW8oUVCMosvf+TivIw8+iM7Brhr8Y6m3mOrz1QDMpMa/DQQhOtMX1QiH+fX6cQUOTY74jHgoWMf4laR+LpQDw=="
            }
          },
          {
            "validator_address": "96BDE45EC52606CF5CB59853097871AD60680549",
            "validator_index": "54",
            "height": "24811",
            "round": "1",
            "timestamp": "2018-07-31T22:58:45.51432867Z",
            "type": 2,
            "block_id": {
              "hash": "61A6C62F181157ED3104A11578DE71C75C313059",
              "parts": {
                "total": "1",
                "hash": "013ABA5613C9B191C632566FC116D7B20C8DB7E1"
              }
            },
            "signature": {
              "type": "tendermint/SignatureEd25519",
              "value": "NEdg8cMa3nnB2q6IdpcgK1/fR2ZbmxDX0kQ9eKA61NUHxDey/UNH3MqWDERwmPJaN2kDyYk+uvB3p7YnyDxGDQ=="
            }
          },
          {
            "validator_address": "970CD321881185BF83DB2923C321B0E75FDBB2B8",
            "validator_index": "55",
            "height": "24811",
            "round": "1",
            "timestamp": "2018-07-31T22:58:45.675425577Z",
            "type": 2,
            "block_id": {
              "hash": "61A6C62F181157ED3104A11578DE71C75C313059",
              "parts": {
                "total": "1",
                "hash": "013ABA5613C9B191C632566FC116D7B20C8DB7E1"
              }
            },
            "signature": {
              "type": "tendermint/SignatureEd25519",
              "value": "MkQHsN+nNxv9svYeUUk9SEj07p7ByuHV/5AQK1mc7JEz2EPIhlPVORZhYwlFOJhy1ac641+yOUiCE2QvFHS7Bg=="
            }
          },
          {
            "validator_address": "97DBB3D4B3D6C29287244864448F651DD5B07390",
            "validator_index": "56",
            "height": "24811",
            "round": "1",
            "timestamp": "2018-07-31T22:58:45.575194847Z",
            "type": 2,
            "block_id": {
              "hash": "61A6C62F181157ED3104A11578DE71C75C313059",
              "parts": {
                "total": "1",
                "hash": "013ABA5613C9B191C632566FC116D7B20C8DB7E1"
              }
            },
            "signature": {
              "type": "tendermint/SignatureEd25519",
              "value": "5MiayhuBhcrOx92/7CKzqtrR8l/2z43lpCakT1l9VizLBN85lPrHkclli8xMbzpdz5AzkJnSgBBJvtL0Y5TBDw=="
            }
          },
          {
            "validator_address": "9C29C9B76D27586E4D9AD2AED0E943162645E55C",
            "validator_index": "57",
            "height": "24811",
            "round": "1",
            "timestamp": "2018-07-31T22:58:45.498577334Z",
            "type": 2,
            "block_id": {
              "hash": "61A6C62F181157ED3104A11578DE71C75C313059",
              "parts": {
                "total": "1",
                "hash": "013ABA5613C9B191C632566FC116D7B20C8DB7E1"
              }
            },
            "signature": {
              "type": "tendermint/SignatureEd25519",
              "value": "njg0jGC7Yh23vTOAaVGah8KLZfkKiuy/rfmyFAhtWcxpVn8gQcUNqBe7AmzU44I6YeXD4kVk91PEE/V+d+vfCw=="
            }
          },
          {
            "validator_address": "9D93AD02FE1BD7E76B9E58D7EB461088EAD011E5",
            "validator_index": "58",
            "height": "24811",
            "round": "1",
            "timestamp": "2018-07-31T22:58:45.556428383Z",
            "type": 2,
            "block_id": {
              "hash": "61A6C62F181157ED3104A11578DE71C75C313059",
              "parts": {
                "total": "1",
                "hash": "013ABA5613C9B191C632566FC116D7B20C8DB7E1"
              }
            },
            "signature": {
              "type": "tendermint/SignatureEd25519",
              "value": "NOXv7R8gSqMohJzekfnSA6G2EHaB53RafJh8mrS708lrTarWptbrUa+eQksSGQCsAm7PyToSFTmUfOuRB/QDBA=="
            }
          },
          {
            "validator_address": "A0A6466F4ABEA09C3B55E3709AFDE217A103209F",
            "validator_index": "59",
            "height": "24811",
            "round": "1",
            "timestamp": "2018-07-31T22:58:45.496370073Z",
            "type": 2,
            "block_id": {
              "hash": "61A6C62F181157ED3104A11578DE71C75C313059",
              "parts": {
                "total": "1",
                "hash": "013ABA5613C9B191C632566FC116D7B20C8DB7E1"
              }
            },
            "signature": {
              "type": "tendermint/SignatureEd25519",
              "value": "c+atUqnlPBpjDUypCZIZVR9Pt56T4+/Q1tmjd+WNYgQVWfQg25RlZwdaGM9X97dOXoiYiIDFkSrbMDH/41JuCg=="
            }
          },
          {
            "validator_address": "A5868971300F155020634D7BB49C7634F7AACCD3",
            "validator_index": "60",
            "height": "24811",
            "round": "1",
            "timestamp": "2018-07-31T22:58:45.538180199Z",
            "type": 2,
            "block_id": {
              "hash": "61A6C62F181157ED3104A11578DE71C75C313059",
              "parts": {
                "total": "1",
                "hash": "013ABA5613C9B191C632566FC116D7B20C8DB7E1"
              }
            },
            "signature": {
              "type": "tendermint/SignatureEd25519",
              "value": "fOXRb13MhlhSh/yGc3+WNUTwiiADiTxgndvvo2/I2XtqIYFHgph71mpZQtNWiazWL63COzx6N+iraCgYOKfHAQ=="
            }
          },
          {
            "validator_address": "A6B3A5B5D982CFD7B5FDFA15CF5A720E7AE25E7F",
            "validator_index": "61",
            "height": "24811",
            "round": "1",
            "timestamp": "2018-07-31T22:58:45.48768479Z",
            "type": 2,
            "block_id": {
              "hash": "61A6C62F181157ED3104A11578DE71C75C313059",
              "parts": {
                "total": "1",
                "hash": "013ABA5613C9B191C632566FC116D7B20C8DB7E1"
              }
            },
            "signature": {
              "type": "tendermint/SignatureEd25519",
              "value": "5qYTw++hfWrVp4PLeezb7vW2GlwsNwlqSDwiZmMUdlSGqIwQ388i9WJHxEXWi78Ezzm+V0Wm1UPbHRU5NcVDBQ=="
            }
          },
          {
            "validator_address": "AC96444A9083890B7C7B430DB17BF1D3EA5EED04",
            "validator_index": "62",
            "height": "24811",
            "round": "1",
            "timestamp": "2018-07-31T22:58:45.57603503Z",
            "type": 2,
            "block_id": {
              "hash": "61A6C62F181157ED3104A11578DE71C75C313059",
              "parts": {
                "total": "1",
                "hash": "013ABA5613C9B191C632566FC116D7B20C8DB7E1"
              }
            },
            "signature": {
              "type": "tendermint/SignatureEd25519",
              "value": "+ZS2kMYdhDTvdTTEyuwHZq2fHAGvjt60S1UBrr7UPqgiUzMi8UXl1bp+DzT4hRMAOOXc9K5KFUCURds9jeNVDA=="
            }
          },
          {
            "validator_address": "ACB97FDA2D940AF0709B73537C458EB988AD2893",
            "validator_index": "63",
            "height": "24811",
            "round": "1",
            "timestamp": "2018-07-31T22:58:45.467812491Z",
            "type": 2,
            "block_id": {
              "hash": "61A6C62F181157ED3104A11578DE71C75C313059",
              "parts": {
                "total": "1",
                "hash": "013ABA5613C9B191C632566FC116D7B20C8DB7E1"
              }
            },
            "signature": {
              "type": "tendermint/SignatureEd25519",
              "value": "9EQV3Z9pxIAjeFV/MhxXJR+PyFAmry1OzbRS0hkksK2SCVHK8QWfjgEVmTEkssad04L3Gu4Zh6DLJe5yXaugBA=="
            }
          },
          {
            "validator_address": "B197425B3210375F211661DE02EF2AE36580EB0F",
            "validator_index": "64",
            "height": "24811",
            "round": "1",
            "timestamp": "2018-07-31T22:58:45.654389497Z",
            "type": 2,
            "block_id": {
              "hash": "61A6C62F181157ED3104A11578DE71C75C313059",
              "parts": {
                "total": "1",
                "hash": "013ABA5613C9B191C632566FC116D7B20C8DB7E1"
              }
            },
            "signature": {
              "type": "tendermint/SignatureEd25519",
              "value": "8XNuCmM6cswsP0VHSHM1KKAThjWW0ugt9YJTvGxZhBASwQVFYgrEFzjPC9aS+mmCGWVbdXkfr/UKw7HbLkAGCw=="
            }
          },
          {
            "validator_address": "B45E54D2D1CB5A4CCD1D49016608C18E7C56B270",
            "validator_index": "65",
            "height": "24811",
            "round": "1",
            "timestamp": "2018-07-31T22:58:45.653053646Z",
            "type": 2,
            "block_id": {
              "hash": "61A6C62F181157ED3104A11578DE71C75C313059",
              "parts": {
                "total": "1",
                "hash": "013ABA5613C9B191C632566FC116D7B20C8DB7E1"
              }
            },
            "signature": {
              "type": "tendermint/SignatureEd25519",
              "value": "w+Mkf+iixevq+hNPF94wr2D/tWXu2s7KP7Ny3GUmYrjZ9RI4TM4Cik2jtXthx3iJOlNrBbwYkuJ28Y+KuziaBg=="
            }
          },
          {
            "validator_address": "B59A34C0BE4EC73AF6A67D274F1695C9259C237C",
            "validator_index": "66",
            "height": "24811",
            "round": "1",
            "timestamp": "2018-07-31T22:58:45.813243803Z",
            "type": 2,
            "block_id": {
              "hash": "61A6C62F181157ED3104A11578DE71C75C313059",
              "parts": {
                "total": "1",
                "hash": "013ABA5613C9B191C632566FC116D7B20C8DB7E1"
              }
            },
            "signature": {
              "type": "tendermint/SignatureEd25519",
              "value": "W9QtYfkaNav8CEgn5frPH+QjR4XKucaUdMfh/ncAtNbB4YrzmkGuA70aWVRwS1xEA1+dUhwmWB2+/Fjf+5lECA=="
            }
          },
          {
            "validator_address": "BB1276BE89834835428664408917649FEEF5D90C",
            "validator_index": "67",
            "height": "24811",
            "round": "1",
            "timestamp": "2018-07-31T22:58:45.677183155Z",
            "type": 2,
            "block_id": {
              "hash": "61A6C62F181157ED3104A11578DE71C75C313059",
              "parts": {
                "total": "1",
                "hash": "013ABA5613C9B191C632566FC116D7B20C8DB7E1"
              }
            },
            "signature": {
              "type": "tendermint/SignatureEd25519",
              "value": "muhQVkcud0MLQybTqhg4/tKOPXpz7R//oMK0b73YVN23xtB1LFRUWGhmOgaikGSdtImD1txTr2vJwJqfnHmHBQ=="
            }
          },
          {
            "validator_address": "BC36FEDD6EF6071118A3E51859DF3831A2EC4782",
            "validator_index": "68",
            "height": "24811",
            "round": "1",
            "timestamp": "2018-07-31T22:58:45.567528117Z",
            "type": 2,
            "block_id": {
              "hash": "61A6C62F181157ED3104A11578DE71C75C313059",
              "parts": {
                "total": "1",
                "hash": "013ABA5613C9B191C632566FC116D7B20C8DB7E1"
              }
            },
            "signature": {
              "type": "tendermint/SignatureEd25519",
              "value": "ywaD2zVcGfRtJA/xByXZpJIOj/xtcPOJCstTfHoWLUwfOcKo8emedhjYhHKoaqWAJX0Uo15tLFScxQtNpZbXAA=="
            }
          },
          {
            "validator_address": "BD9D0DA513BF099DB4BB6E725A4E19832789882F",
            "validator_index": "69",
            "height": "24811",
            "round": "1",
            "timestamp": "2018-07-31T22:58:45.550760952Z",
            "type": 2,
            "block_id": {
              "hash": "61A6C62F181157ED3104A11578DE71C75C313059",
              "parts": {
                "total": "1",
                "hash": "013ABA5613C9B191C632566FC116D7B20C8DB7E1"
              }
            },
            "signature": {
              "type": "tendermint/SignatureEd25519",
              "value": "Dhu2cw2Ez7MTGsNGH6O9v2hBddExx4p3XpUfGxAnhohxCLIm5dSlzJ+NRp15llcDOjmNla5eLBE2XNlyqT9QDQ=="
            }
          },
          {
            "validator_address": "C1134A2FF8F7338E7CDB3FE57DDD2A655DEB1E22",
            "validator_index": "70",
            "height": "24811",
            "round": "1",
            "timestamp": "2018-07-31T22:58:45.638373977Z",
            "type": 2,
            "block_id": {
              "hash": "61A6C62F181157ED3104A11578DE71C75C313059",
              "parts": {
                "total": "1",
                "hash": "013ABA5613C9B191C632566FC116D7B20C8DB7E1"
              }
            },
            "signature": {
              "type": "tendermint/SignatureEd25519",
              "value": "0EkG6nL2y8Hokl73ssMVrNoLlPyIg1iKM+XMbt1tU6OKuuNMhH05aab5vI+Aze9HeDXByLI8gogZb0+1Fl19AA=="
            }
          },
          {
            "validator_address": "C39A8A2B85198DCB8F23AD1F6C198E2BA7AB5D60",
            "validator_index": "71",
            "height": "24811",
            "round": "1",
            "timestamp": "2018-07-31T22:58:45.488064531Z",
            "type": 2,
            "block_id": {
              "hash": "61A6C62F181157ED3104A11578DE71C75C313059",
              "parts": {
                "total": "1",
                "hash": "013ABA5613C9B191C632566FC116D7B20C8DB7E1"
              }
            },
            "signature": {
              "type": "tendermint/SignatureEd25519",
              "value": "QITm5xmP/no21misy+6JdMH8PHt3vhdol7KMznzpQMlbSYigWj5aQmbpKPZLdgcjRQjk0xsrZeKbzDBFQeKlAA=="
            }
          },
          {
            "validator_address": "C4335190C3B5BD4BA5568BC0F99C34162D940D08",
            "validator_index": "72",
            "height": "24811",
            "round": "1",
            "timestamp": "2018-07-31T22:58:45.651892188Z",
            "type": 2,
            "block_id": {
              "hash": "61A6C62F181157ED3104A11578DE71C75C313059",
              "parts": {
                "total": "1",
                "hash": "013ABA5613C9B191C632566FC116D7B20C8DB7E1"
              }
            },
            "signature": {
              "type": "tendermint/SignatureEd25519",
              "value": "92a9ehofQJb8vhbr5JUPkdffKdGXffrLrMN5SGFN2tyZl6o506U3KNbw4iP0DFrfobmEJpVKIBgiAzaRw6S8CA=="
            }
          },
          {
            "validator_address": "C561CFA081677046376396922E7576E5F7B316AD",
            "validator_index": "73",
            "height": "24811",
            "round": "1",
            "timestamp": "2018-07-31T22:58:45.633049115Z",
            "type": 2,
            "block_id": {
              "hash": "61A6C62F181157ED3104A11578DE71C75C313059",
              "parts": {
                "total": "1",
                "hash": "013ABA5613C9B191C632566FC116D7B20C8DB7E1"
              }
            },
            "signature": {
              "type": "tendermint/SignatureEd25519",
              "value": "LVphN87z2d+YeQbdf+8tK6S5CDijLU7Qgkc4KXbU0bdNmhv7oTK2orLEBdz0Gq+O883ZbGsoguMIHGfGrEalBQ=="
            }
          },
          {
            "validator_address": "CE589EA77B056D268D30D1DC1D68A70E0F885E95",
            "validator_index": "74",
            "height": "24811",
            "round": "1",
            "timestamp": "2018-07-31T22:58:45.601914413Z",
            "type": 2,
            "block_id": {
              "hash": "61A6C62F181157ED3104A11578DE71C75C313059",
              "parts": {
                "total": "1",
                "hash": "013ABA5613C9B191C632566FC116D7B20C8DB7E1"
              }
            },
            "signature": {
              "type": "tendermint/SignatureEd25519",
              "value": "+PXdo99lGmtABW24No9XRuxDBR86DznHBcyGAdjhaQP/2TASyjaQ1YD8aaQ8koT4IcJBgF7jikGfHSHMXqTlDA=="
            }
          },
          {
            "validator_address": "CEB97DB5CB18270247ABDE6CF2F84F9AEE8A2904",
            "validator_index": "75",
            "height": "24811",
            "round": "1",
            "timestamp": "2018-07-31T22:58:45.948233847Z",
            "type": 2,
            "block_id": {
              "hash": "61A6C62F181157ED3104A11578DE71C75C313059",
              "parts": {
                "total": "1",
                "hash": "013ABA5613C9B191C632566FC116D7B20C8DB7E1"
              }
            },
            "signature": {
              "type": "tendermint/SignatureEd25519",
              "value": "aXmfcJ9lH72UEgejCYLiqOJi8H3ZT6ECPO0Oo804EBAi/6nMTIZIjg6hfbDkKdteaXtqxwUkrkKl+Ds3Z173Bg=="
            }
          },
          {
            "validator_address": "CF205769734F5758CC39F907EFB73D6BAF915FB1",
            "validator_index": "76",
            "height": "24811",
            "round": "1",
            "timestamp": "2018-07-31T22:58:45.621769371Z",
            "type": 2,
            "block_id": {
              "hash": "61A6C62F181157ED3104A11578DE71C75C313059",
              "parts": {
                "total": "1",
                "hash": "013ABA5613C9B191C632566FC116D7B20C8DB7E1"
              }
            },
            "signature": {
              "type": "tendermint/SignatureEd25519",
              "value": "1Ze8oRyeHxzx3cFY/762lf49g7wVGJR2KQmYdJw2sfAz3X1MdoYqVAUrGTApPpxJ6S11DCZ9bF8AxmA9p/HYBw=="
            }
          },
          null,
          {
            "validator_address": "D6285C3422C8886445D53757CBE12D2B91B5A9D0",
            "validator_index": "78",
            "height": "24811",
            "round": "1",
            "timestamp": "2018-07-31T22:58:28.27384012Z",
            "type": 2,
            "block_id": {
              "hash": "61A6C62F181157ED3104A11578DE71C75C313059",
              "parts": {
                "total": "1",
                "hash": "013ABA5613C9B191C632566FC116D7B20C8DB7E1"
              }
            },
            "signature": {
              "type": "tendermint/SignatureEd25519",
              "value": "c50APn3KQlyzVDrMQTqr3D7z+w68DBWllLt1gf9ezarSCCw6x8qy9lwco2+FzlckMbHTptirI6G2LGmQg3mtDQ=="
            }
          },
          {
            "validator_address": "D77FB84A729972CD3E757C9BEB61561855832B92",
            "validator_index": "79",
            "height": "24811",
            "round": "1",
            "timestamp": "2018-07-31T22:58:45.699185531Z",
            "type": 2,
            "block_id": {
              "hash": "61A6C62F181157ED3104A11578DE71C75C313059",
              "parts": {
                "total": "1",
                "hash": "013ABA5613C9B191C632566FC116D7B20C8DB7E1"
              }
            },
            "signature": {
              "type": "tendermint/SignatureEd25519",
              "value": "fYfMul9ujZhb4Ve43KoxkCB0xkDp/UaD/ZS8KaFYtI1Z+BugR5WNVPm1lSLSePeDZDQlCBEjClebyxnTdZMjAQ=="
            }
          },
          {
            "validator_address": "DB7E6732471D3EA5C90C17A9974D9F88AB45F2FB",
            "validator_index": "80",
            "height": "24811",
            "round": "1",
            "timestamp": "2018-07-31T22:58:45.583704058Z",
            "type": 2,
            "block_id": {
              "hash": "61A6C62F181157ED3104A11578DE71C75C313059",
              "parts": {
                "total": "1",
                "hash": "013ABA5613C9B191C632566FC116D7B20C8DB7E1"
              }
            },
            "signature": {
              "type": "tendermint/SignatureEd25519",
              "value": "MFo537ii8o865mGz4Vnvns0EGRmSk/+HjOz7MBrzbIcVnfdszNSb93ykgilkho/6mRmLxdCyQP+1tuTyHRvjCA=="
            }
          },
          {
            "validator_address": "DF54B862410BCD9B5C516FBB6C56BDC826ED6FA7",
            "validator_index": "81",
            "height": "24811",
            "round": "1",
            "timestamp": "2018-07-31T22:58:45.6305038Z",
            "type": 2,
            "block_id": {
              "hash": "61A6C62F181157ED3104A11578DE71C75C313059",
              "parts": {
                "total": "1",
                "hash": "013ABA5613C9B191C632566FC116D7B20C8DB7E1"
              }
            },
            "signature": {
              "type": "tendermint/SignatureEd25519",
              "value": "xBxo4ODpmIqzzQg4s8SbgazLG93kahkWPZgokHzoFF7WjkAuYtefCH+uNt7u5RS9kMS4CfQaJPQETsbOx16bAg=="
            }
          },
          {
            "validator_address": "DFAF0C8B1B78D6D552B0189DE3ACA351439A1319",
            "validator_index": "82",
            "height": "24811",
            "round": "1",
            "timestamp": "2018-07-31T22:58:45.495116336Z",
            "type": 2,
            "block_id": {
              "hash": "61A6C62F181157ED3104A11578DE71C75C313059",
              "parts": {
                "total": "1",
                "hash": "013ABA5613C9B191C632566FC116D7B20C8DB7E1"
              }
            },
            "signature": {
              "type": "tendermint/SignatureEd25519",
              "value": "A9E3zcsfXpzJAa1vsT0N8UXcXy2a7hfoYLPSTW0IUiaFtTJdBRnsCQz9btdCQEE7ZUm5MiwkoVrjZhpvpsXgAQ=="
            }
          },
          {
            "validator_address": "E1DBC77881161A5A3A8536A57536EAE546A75D69",
            "validator_index": "83",
            "height": "24811",
            "round": "1",
            "timestamp": "2018-07-31T22:58:45.499271251Z",
            "type": 2,
            "block_id": {
              "hash": "61A6C62F181157ED3104A11578DE71C75C313059",
              "parts": {
                "total": "1",
                "hash": "013ABA5613C9B191C632566FC116D7B20C8DB7E1"
              }
            },
            "signature": {
              "type": "tendermint/SignatureEd25519",
              "value": "6tp8hNx9XW1dGPH1nnzm1iTorrc06yAIbZDkmisH340DwZun/m4TZs7CwiIT2Sh6qLyuWOZEaxgHOzToVVTjDQ=="
            }
          },
          {
            "validator_address": "E300E9D484374C1D3E97C1D93CAC3B160A056298",
            "validator_index": "84",
            "height": "24811",
            "round": "1",
            "timestamp": "2018-07-31T22:58:45.756036453Z",
            "type": 2,
            "block_id": {
              "hash": "61A6C62F181157ED3104A11578DE71C75C313059",
              "parts": {
                "total": "1",
                "hash": "013ABA5613C9B191C632566FC116D7B20C8DB7E1"
              }
            },
            "signature": {
              "type": "tendermint/SignatureEd25519",
              "value": "7/KxlB4kOZbg/3cyQV8FmEe8h9w6anCRD5fhW9V0BkQ4yrsc/dXFsDL+W8pUhKGOG3QuFfOXJb091/uDTxJvCw=="
            }
          },
          {
            "validator_address": "E39B5778E0D4297A46F45CF6940B0A163A430FF8",
            "validator_index": "85",
            "height": "24811",
            "round": "1",
            "timestamp": "2018-07-31T22:58:45.563532459Z",
            "type": 2,
            "block_id": {
              "hash": "61A6C62F181157ED3104A11578DE71C75C313059",
              "parts": {
                "total": "1",
                "hash": "013ABA5613C9B191C632566FC116D7B20C8DB7E1"
              }
            },
            "signature": {
              "type": "tendermint/SignatureEd25519",
              "value": "Qnw6AAbfrjCQGrdpdCZUSJhqCUXrBj3JTGjCfatDh1AeXNRZbi5lZGs0COtl3pr74jdJhkdESr90pCRGB9uMBg=="
            }
          },
          {
            "validator_address": "E3B19738F7132F950668504D326C7660F159D170",
            "validator_index": "86",
            "height": "24811",
            "round": "1",
            "timestamp": "2018-07-31T22:58:45.544021281Z",
            "type": 2,
            "block_id": {
              "hash": "61A6C62F181157ED3104A11578DE71C75C313059",
              "parts": {
                "total": "1",
                "hash": "013ABA5613C9B191C632566FC116D7B20C8DB7E1"
              }
            },
            "signature": {
              "type": "tendermint/SignatureEd25519",
              "value": "LcowaDS4DZgv4AjFNY0oRta9tnzePRE9SdepS3z3H+k7T9w1BZ4TO78Mn4rLxjkWvxloPOUVQrWF8vEuTK2PBw=="
            }
          },
          {
            "validator_address": "E42F8AEABB685219F7027F54D2B0DBC7846F633A",
            "validator_index": "87",
            "height": "24811",
            "round": "1",
            "timestamp": "2018-07-31T22:58:44.678847295Z",
            "type": 2,
            "block_id": {
              "hash": "61A6C62F181157ED3104A11578DE71C75C313059",
              "parts": {
                "total": "1",
                "hash": "013ABA5613C9B191C632566FC116D7B20C8DB7E1"
              }
            },
            "signature": {
              "type": "tendermint/SignatureEd25519",
              "value": "PkwbqcopQ6BIIA3Am0BigWIqFlX6HDM0a+WVpg4ALfYibRbQL68JSJXhvJQi0CSPlgPuFIh7chG5C+LRdSiACw=="
            }
          },
          {
            "validator_address": "E4E6C2E81269DFFA196C17F98240E491479A6008",
            "validator_index": "88",
            "height": "24811",
            "round": "1",
            "timestamp": "2018-07-31T22:58:45.598701515Z",
            "type": 2,
            "block_id": {
              "hash": "61A6C62F181157ED3104A11578DE71C75C313059",
              "parts": {
                "total": "1",
                "hash": "013ABA5613C9B191C632566FC116D7B20C8DB7E1"
              }
            },
            "signature": {
              "type": "tendermint/SignatureEd25519",
              "value": "WNNkhD6KAwTJEx1iKu1yuNfZ3tlL6gxfDdv08LeM/TXeGjfGam51Ql08vK3WkA+IC8w72X47KUODNngXJtohBA=="
            }
          },
          {
            "validator_address": "E4FEB2846F4F3B0ECDCBE9C9DCB2248248A5AF0F",
            "validator_index": "89",
            "height": "24811",
            "round": "1",
            "timestamp": "2018-07-31T22:58:45.851476617Z",
            "type": 2,
            "block_id": {
              "hash": "61A6C62F181157ED3104A11578DE71C75C313059",
              "parts": {
                "total": "1",
                "hash": "013ABA5613C9B191C632566FC116D7B20C8DB7E1"
              }
            },
            "signature": {
              "type": "tendermint/SignatureEd25519",
              "value": "HaMGU+8bkMvqOZ4N5Oeq9tsh1jz3j5oGc5rVV93bvQD0tNGfmEis2z8zQnXQozC44pTMXdb7Xxj5b5wYl2nUDg=="
            }
          },
          {
            "validator_address": "E6A7079D584B163750BE0831227F6B685DEAF3C1",
            "validator_index": "90",
            "height": "24811",
            "round": "1",
            "timestamp": "2018-07-31T22:58:45.63545518Z",
            "type": 2,
            "block_id": {
              "hash": "61A6C62F181157ED3104A11578DE71C75C313059",
              "parts": {
                "total": "1",
                "hash": "013ABA5613C9B191C632566FC116D7B20C8DB7E1"
              }
            },
            "signature": {
              "type": "tendermint/SignatureEd25519",
              "value": "vZMzdekSFaJ3NXmydjvRnmzfBh/XyZEgJT8cWW16FViPJjgO2U/RhDj0h+49NEck6kgYtv5hKXwg9eQTC2vYAg=="
            }
          },
          {
            "validator_address": "E7A30077D5D11867D3EAF99ED45BFDC1EB834509",
            "validator_index": "91",
            "height": "24811",
            "round": "1",
            "timestamp": "2018-07-31T22:58:45.595734603Z",
            "type": 2,
            "block_id": {
              "hash": "61A6C62F181157ED3104A11578DE71C75C313059",
              "parts": {
                "total": "1",
                "hash": "013ABA5613C9B191C632566FC116D7B20C8DB7E1"
              }
            },
            "signature": {
              "type": "tendermint/SignatureEd25519",
              "value": "nUl2Q6j68ZMmVV8A0gdm06wkL1y8EqtfVGy5kOTRuduvD4lGg8v8xAsivG1ugVmhjqqwDrbGfjL6q21CsVfnBQ=="
            }
          },
          {
            "validator_address": "EBC613967F66F4EC306852CDF58B4F151CF16738",
            "validator_index": "92",
            "height": "24811",
            "round": "1",
            "timestamp": "2018-07-31T22:58:45.621832812Z",
            "type": 2,
            "block_id": {
              "hash": "61A6C62F181157ED3104A11578DE71C75C313059",
              "parts": {
                "total": "1",
                "hash": "013ABA5613C9B191C632566FC116D7B20C8DB7E1"
              }
            },
            "signature": {
              "type": "tendermint/SignatureEd25519",
              "value": "vnKF1Cvzl5iKbcg8l7CoBxvy7ygPKjEYWo22gqPPhwz5KRya0S68kjkuzoFWmj3J2xpcGYg7TbaThUJZO64RCQ=="
            }
          },
          {
            "validator_address": "EC3401441726C40ECC7E51F744483B05BC6DE9BD",
            "validator_index": "93",
            "height": "24811",
            "round": "1",
            "timestamp": "2018-07-31T22:58:45.591220083Z",
            "type": 2,
            "block_id": {
              "hash": "61A6C62F181157ED3104A11578DE71C75C313059",
              "parts": {
                "total": "1",
                "hash": "013ABA5613C9B191C632566FC116D7B20C8DB7E1"
              }
            },
            "signature": {
              "type": "tendermint/SignatureEd25519",
              "value": "eZZ3Y8pjSDSdCKPtUnYqFMGkTvrgcSLnHe1Ewz5dBGiAKoZZpJ02AXwuC3fJoSt3YVmq1KSzKHmg2WvYB5peBw=="
            }
          },
          {
            "validator_address": "EC95B111D032181E1EC3B5E8875C5BB8E4AE7140",
            "validator_index": "94",
            "height": "24811",
            "round": "1",
            "timestamp": "2018-07-31T22:58:45.485712463Z",
            "type": 2,
            "block_id": {
              "hash": "61A6C62F181157ED3104A11578DE71C75C313059",
              "parts": {
                "total": "1",
                "hash": "013ABA5613C9B191C632566FC116D7B20C8DB7E1"
              }
            },
            "signature": {
              "type": "tendermint/SignatureEd25519",
              "value": "ypNJzwQAikaslDCoxMB879X+eZI5OmuX5Tie3FRLFB9nOq/Ct3Jy6R72R0PnRRG+jg9caED0Ai84FUQjBDDbAw=="
            }
          },
          {
            "validator_address": "F13C1805E8131C9B47E2A46818F57D8A2841E578",
            "validator_index": "95",
            "height": "24811",
            "round": "1",
            "timestamp": "2018-07-31T22:58:45.609045053Z",
            "type": 2,
            "block_id": {
              "hash": "61A6C62F181157ED3104A11578DE71C75C313059",
              "parts": {
                "total": "1",
                "hash": "013ABA5613C9B191C632566FC116D7B20C8DB7E1"
              }
            },
            "signature": {
              "type": "tendermint/SignatureEd25519",
              "value": "kwwAlunsmwTVOVQpQLBkhprUq+zX2Z11BtKfX3ZWBRT3UHduQUI8xOss+6F2pHKqkaIZsJsbISFz9Wof7y11Cw=="
            }
          },
          {
            "validator_address": "F23FF36BD5B90C33CE3A03ED72DBDCF5EC07D6AF",
            "validator_index": "96",
            "height": "24811",
            "round": "1",
            "timestamp": "2018-07-31T22:58:45.607036387Z",
            "type": 2,
            "block_id": {
              "hash": "61A6C62F181157ED3104A11578DE71C75C313059",
              "parts": {
                "total": "1",
                "hash": "013ABA5613C9B191C632566FC116D7B20C8DB7E1"
              }
            },
            "signature": {
              "type": "tendermint/SignatureEd25519",
              "value": "soTR6rBvRY3+arwS+F+9uHK41AmfMbZwVZpm8heIvUVJE1sJ7nNytgNUeauvzltHgFO4LNhwXQNarKxwk/JwBw=="
            }
          },
          {
            "validator_address": "F4268597DE93E3E2CED38845010F8AA34E2A879E",
            "validator_index": "97",
            "height": "24811",
            "round": "1",
            "timestamp": "2018-07-31T22:58:45.599572725Z",
            "type": 2,
            "block_id": {
              "hash": "61A6C62F181157ED3104A11578DE71C75C313059",
              "parts": {
                "total": "1",
                "hash": "013ABA5613C9B191C632566FC116D7B20C8DB7E1"
              }
            },
            "signature": {
              "type": "tendermint/SignatureEd25519",
              "value": "MfJIj5NQn335ADCmMj24s61HCBo53BPeG9QL35o5ugTYl0cRaqCCj3jTt6RooLwumcgFGTESSXkOOKNZeO3YAw=="
            }
          },
          {
            "validator_address": "F4DEB417999B04BE2EFF9FFE03FA373D86011CC0",
            "validator_index": "98",
            "height": "24811",
            "round": "1",
            "timestamp": "2018-07-31T22:58:45.590446449Z",
            "type": 2,
            "block_id": {
              "hash": "61A6C62F181157ED3104A11578DE71C75C313059",
              "parts": {
                "total": "1",
                "hash": "013ABA5613C9B191C632566FC116D7B20C8DB7E1"
              }
            },
            "signature": {
              "type": "tendermint/SignatureEd25519",
              "value": "YBPLOT3UzLXI7SQXtqCMffW38DHN0TCzlF7NSRI8ZBaLqU1EM6h8u5qyBydXLyM8fkf0MxTTWFH8ma9h/p7BDw=="
            }
          },
          {
            "validator_address": "F6738260186D33D9C14FC6E7017AFE6BB952A63D",
            "validator_index": "99",
            "height": "24811",
            "round": "1",
            "timestamp": "2018-07-31T22:58:45.541261443Z",
            "type": 2,
            "block_id": {
              "hash": "61A6C62F181157ED3104A11578DE71C75C313059",
              "parts": {
                "total": "1",
                "hash": "013ABA5613C9B191C632566FC116D7B20C8DB7E1"
              }
            },
            "signature": {
              "type": "tendermint/SignatureEd25519",
              "value": "DIAdIlcj+d1W7Tf2x0hviG2+F8L68Eom+z954jHfXsL/MJWrnArKuxYF+SZemBGJSiOkYvXA8YXNlzk1wxHwDA=="
            }
          },
          {
            "validator_address": "FF3F3FCBCE7E62D7AD5506FF846EC4518D980515",
            "validator_index": "100",
            "height": "24811",
            "round": "1",
            "timestamp": "2018-07-31T22:58:45.530379267Z",
            "type": 2,
            "block_id": {
              "hash": "61A6C62F181157ED3104A11578DE71C75C313059",
              "parts": {
                "total": "1",
                "hash": "013ABA5613C9B191C632566FC116D7B20C8DB7E1"
              }
            },
            "signature": {
              "type": "tendermint/SignatureEd25519",
              "value": "MRpAZr/Ft3Vqh1Sfc34jihgSUzBvHjazgqMpD53yPXjO87zueqiEgXKs3vCc/6Rp2NNIWtc0G8AX/S0yR1uKAw=="
            }
          }
        ]
      }
    },
    "canonical": true
  }
}