{
  "jsonrpc": "2.0",
  "id": "",
  "result": {
    "SignedHeader": {
      "header": {
        "chain_id": "gaia-7004",
        "height": "2493",
        "time": "2018-07-30T08:56:35.967519689Z",
        "num_txs": "0",
        "last_block_id": {
          "hash": "3665202C476131B84C06CB0EA940C58CA5535DD1",
          "parts": {
            "total": "1",
            "hash": "44C591395911FF0BA30DF51BBD4767C20729E801"
          }
        },
        "total_txs": "48",
        "last_commit_hash": "5A5E5E665D0A7CF7999485358097D990C6CA4FEF",
        "data_hash": "",
        "validators_hash": "C7668E25739B3A7917DBA0C8B85DCC69CE584AB3",
        "consensus_hash": "D6B74BB35BDFFD8392340F2A379173548AE188FE",
        "app_hash": "5035E820DB7C8A79EB0F69AE3E95CA3B59526A36",
        "last_results_hash": "",
        "evidence_hash": ""
      },
      "commit": {
        "block_id": {
          "hash": "05ACF89F3B1771F434841468E89FB693E00DD788",
          "parts": {
            "total": "1",
            "hash": "8EFD982FED783DC637CC304BF961BA04C646DED2"
          }
        },
        "precommits": [
          {
            "validator_address": "029359C0C768096273A68ABC902A6B17AC8D1D70",
            "validator_index": "0",
            "height": "2493",
            "round": "0",
            "timestamp": "2018-07-30T08:56:36.867750167Z",
            "type": 2,
            "block_id": {
              "hash": "05ACF89F3B1771F434841468E89FB693E00DD788",
              "parts": {
                "total": "1",
                "hash": "8EFD982FED783DC637CC304BF961BA04C646DED2"
              }
            },
            "signature": {
              "type": "tendermint/SignatureEd25519",
              "value": "KdyBx3cw7rg3LBEuweg2PGYbHWLcf5UbcCSSkpiJtFNMA4QzSRRjzq6PVE2o3MvC0pnH9BkSBpPhUkE6AakACQ=="
            }
          },
          {
            "validator_address": "02FE4B97A8387F39D1AC19E0C1702B3CC614812F",
            "validator_index": "1",
            "height": "2493",
            "round": "0",
            "timestamp": "2018-07-30T08:56:36.866040754Z",
            "type": 2,
            "block_id": {
              "hash": "05ACF89F3B1771F434841468E89FB693E00DD788",
              "parts": {
                "total": "1",
                "hash": "8EFD982FED783DC637CC304BF961BA04C646DED2"
              }
            },
            "signature": {
              "type": "tendermint/SignatureEd25519",
              "value": "vGl0OQXsWJkc2fuuNkw/TqGizAcgpQNDiiz58Uezv+lYUfgWokt6GLyOBP3tpgUkDYYoesieIOVqo5zsg1BvCA=="
            }
          },
          {
            "validator_address": "0548261C50222FD710EB5EBDF03A0E6567B21D20",
            "validator_index": "2",
            "height": "2493",
            "round": "0",
            "timestamp": "2018-07-30T08:56:36.934035824Z",
            "type": 2,
            "block_id": {
              "hash": "05ACF89F3B1771F434841468E89FB693E00DD788",
              "parts": {
                "total": "1",
                "hash": "8EFD982FED783DC637CC304BF961BA04C646DED2"
              }
            },
            "signature": {
              "type": "tendermint/SignatureEd25519",
              "value": "SlCjMpLgaMdSnBdwFwnV4TRALHmCbxzxj75scgsIYDowppoWziI0SAcA8hfrqlQB4HQDhPqtlMzTMr5LS2P6DQ=="
            }
          },
          null,
          null,
          {
            "validator_address": "0989D0355A104B67AE0AE028C68FB610690E174B",
            "validator_index": "5",
            "height": "2493",
            "round": "0",
            "timestamp": "2018-07-30T08:56:36.897498939Z",
            "type": 2,
            "block_id": {
              "hash": "05ACF89F3B1771F434841468E89FB693E00DD788",
              "parts": {
                "total": "1",
                "hash": "8EFD982FED783DC637CC304BF961BA04C646DED2"
              }
            },
            "signature": {
              "type": "tendermint/SignatureEd25519",
              "value": "lAfLoI7PBwum4Aq+yqUriLqVsz2bdbMlz4oS6tyhyWoj85i/5om3w1E7F9Y+yEBsYkdmrAXMdCX7SLArsXW6CQ=="
            }
          },
          {
            "validator_address": "0A692DBFFE9E5DD28E7DECC33CED1AEB4C0D014E",
            "validator_index": "6",
            "height": "2493",
            "round": "0",
            "timestamp": "2018-07-30T08:56:37.055635593Z",
            "type": 2,
            "block_id": {
              "hash": "05ACF89F3B1771F434841468E89FB693E00DD788",
              "parts": {
                "total": "1",
                "hash": "8EFD982FED783DC637CC304BF961BA04C646DED2"
              }
            },
            "signature": {
              "type": "tendermint/SignatureEd25519",
              "value": "fGKJnQGxiGAw795kfSyr90aUlGH0HgaF/SsROEVHW9rdZGDM1sKRXKRjGNVZKuaAbdrKBiwrCg/RF7Zv4A6cBA=="
            }
          },
          {
            "validator_address": "0DDF97111D73DB825138EC15EC27DE5FE8536901",
            "validator_index": "7",
            "height": "2493",
            "round": "0",
            "timestamp": "2018-07-30T08:56:36.946768916Z",
            "type": 2,
            "block_id": {
              "hash": "05ACF89F3B1771F434841468E89FB693E00DD788",
              "parts": {
                "total": "1",
                "hash": "8EFD982FED783DC637CC304BF961BA04C646DED2"
              }
            },
            "signature": {
              "type": "tendermint/SignatureEd25519",
              "value": "hyyAWhtbqe6YoJZbVk6zZBNL4EMEW+Z2LAnQ7KaRq6jSrHFZDIdavZm8fMUjkcskr6Dno4Smw5vniT5/cczLAA=="
            }
          },
          {
            "validator_address": "0F3FB8F818BE494E8F5597D9A8ACA57C8C5E72B7",
            "validator_index": "8",
            "height": "2493",
            "round": "0",
            "timestamp": "2018-07-30T08:56:37.309770044Z",
            "type": 2,
            "block_id": {
              "hash": "05ACF89F3B1771F434841468E89FB693E00DD788",
              "parts": {
                "total": "1",
                "hash": "8EFD982FED783DC637CC304BF961BA04C646DED2"
              }
            },
            "signature": {
              "type": "tendermint/SignatureEd25519",
              "value": "ev8AN+LCADW4b/bQcOl/eeVC4i7O+DSYrV2K1nkelKh8bmAUAJc5AjM6t7zm3vn9/ZVDVBvhTiwI4ftdSTlbBg=="
            }
          },
          {
            "validator_address": "1751786EFC085D5331C61168FFFC8202EA151B4E",
            "validator_index": "9",
            "height": "2493",
            "round": "0",
            "timestamp": "2018-07-30T08:56:36.310311587Z",
            "type": 2,
            "block_id": {
              "hash": "05ACF89F3B1771F434841468E89FB693E00DD788",
              "parts": {
                "total": "1",
                "hash": "8EFD982FED783DC637CC304BF961BA04C646DED2"
              }
            },
            "signature": {
              "type": "tendermint/SignatureEd25519",
              "value": "YITdZb/27GqKT1vvjNDjtC5JBivZ6H9uOx+8NCjgyDz3mOzZqb1AfplNQszgFJD9xJAo6Wm2ONc0MJR378CvDw=="
            }
          },
          {
            "validator_address": "17BB5CD01E8940FAFB948A04D5FA5A0645E5822E",
            "validator_index": "10",
            "height": "2493",
            "round": "0",
            "timestamp": "2018-07-30T08:56:36.861220116Z",
            "type": 2,
            "block_id": {
              "hash": "05ACF89F3B1771F434841468E89FB693E00DD788",
              "parts": {
                "total": "1",
                "hash": "8EFD982FED783DC637CC304BF961BA04C646DED2"
              }
            },
            "signature": {
              "type": "tendermint/SignatureEd25519",
              "value": "MEWTzDgKQDxAgMrM3pUuqL9jtSepNialh0K7w8gdgvBcaKQwHyZzT1CtFHvilYEDQiib7OS//z+iSB9Xr8zFBA=="
            }
          },
          null,
          {
            "validator_address": "1E9CE94FD0BA5CFEB901F90BC658D64D85B134D2",
            "validator_index": "12",
            "height": "2493",
            "round": "0",
            "timestamp": "2018-07-30T08:56:36.916164341Z",
            "type": 2,
            "block_id": {
              "hash": "05ACF89F3B1771F434841468E89FB693E00DD788",
              "parts": {
                "total": "1",
                "hash": "8EFD982FED783DC637CC304BF961BA04C646DED2"
              }
            },
            "signature": {
              "type": "tendermint/SignatureEd25519",
              "value": "Tch/cEHSrbLeoc+fQhgOmjeplJCr+PoTMniV3Hi1xV9cITvtvL4+5fCav82TVoaU/PIqf3pTUTeqoNpinZ4XCw=="
            }
          },
          {
            "validator_address": "1ECD8C5FE1341D74CDC633A245DD56858DE2F9A2",
            "validator_index": "13",
            "height": "2493",
            "round": "0",
            "timestamp": "2018-07-30T08:56:36.962649914Z",
            "type": 2,
            "block_id": {
              "hash": "05ACF89F3B1771F434841468E89FB693E00DD788",
              "parts": {
                "total": "1",
                "hash": "8EFD982FED783DC637CC304BF961BA04C646DED2"
              }
            },
            "signature": {
              "type": "tendermint/SignatureEd25519",
              "value": "NxTFuN/XnGPcvW+FG37N2h+k+419iGddxTOuiZdssbNHOLjOrt4nrQ0gEFpacJ7DBCCJCkh9ykXXxjiQe2CkCQ=="
            }
          },
          null,
          null,
          {
            "validator_address": "23897586D68E2AC1C78E0EF5BB5DF5C8EAB18F50",
            "validator_index": "16",
            "height": "2493",
            "round": "0",
            "timestamp": "2018-07-30T08:56:36.931586694Z",
            "type": 2,
            "block_id": {
              "hash": "05ACF89F3B1771F434841468E89FB693E00DD788",
              "parts": {
                "total": "1",
                "hash": "8EFD982FED783DC637CC304BF961BA04C646DED2"
              }
            },
            "signature": {
              "type": "tendermint/SignatureEd25519",
              "value": "AJq38xAkNUbesLrGliQutStQk79Rzjs7HLosR2B3v43kZoILAV7qZY+AJY0tpka7pvJHjLIbrsEOW1P1doz/Cg=="
            }
          },
          {
            "validator_address": "28770D17E8530825E7310A0659308654B7EC9682",
            "validator_index": "17",
            "height": "2493",
            "round": "0",
            "timestamp": "2018-07-30T08:56:36.891361594Z",
            "type": 2,
            "block_id": {
              "hash": "05ACF89F3B1771F434841468E89FB693E00DD788",
              "parts": {
                "total": "1",
                "hash": "8EFD982FED783DC637CC304BF961BA04C646DED2"
              }
            },
            "signature": {
              "type": "tendermint/SignatureEd25519",
              "value": "4mvlD9BMM4JJrclUIA4q/ztqf27fWfYxv0SZH9BVNDANCf9EOaK12nQsj6XYsQCGOg8i98kEbn6WqlIgkd6HDg=="
            }
          },
          null,
          {
            "validator_address": "2A92EC3C642140202298D0E245095E0ECFC25228",
            "validator_index": "19",
            "height": "2493",
            "round": "0",
            "timestamp": "2018-07-30T08:56:36.993234218Z",
            "type": 2,
            "block_id": {
              "hash": "05ACF89F3B1771F434841468E89FB693E00DD788",
              "parts": {
                "total": "1",
                "hash": "8EFD982FED783DC637CC304BF961BA04C646DED2"
              }
            },
            "signature": {
              "type": "tendermint/SignatureEd25519",
              "value": "4MMiMkK3fviyUdzqFY+oIuYPapsh+76vhv3j8nECMZLYbkVO999bnVDSxYUfb3nE0VI9vsEA4b/Yxa76I9KnBw=="
            }
          },
          null,
          null,
          {
            "validator_address": "33412C9A69C60CB0FAA24A5C5B3A906DE24B47C2",
            "validator_index": "22",
            "height": "2493",
            "round": "0",
            "timestamp": "2018-07-30T08:56:36.833709209Z",
            "type": 2,
            "block_id": {
              "hash": "05ACF89F3B1771F434841468E89FB693E00DD788",
              "parts": {
                "total": "1",
                "hash": "8EFD982FED783DC637CC304BF961BA04C646DED2"
              }
            },
            "signature": {
              "type": "tendermint/SignatureEd25519",
              "value": "1NYQXSk80xk84MNv4ibDl8jLXo3HL2Xh6T6imOhIQki38Ls0gMMdT0SqPMMN9rhM0zyprAY468bqAcIBQJgCAA=="
            }
          },
          null,
          {
            "validator_address": "36E9B7FAEC964F97D84C028ED62493E373AD0B38",
            "validator_index": "24",
            "height": "2493",
            "round": "0",
            "timestamp": "2018-07-30T08:56:37.006091148Z",
            "type": 2,
            "block_id": {
              "hash": "05ACF89F3B1771F434841468E89FB693E00DD788",
              "parts": {
                "total": "1",
                "hash": "8EFD982FED783DC637CC304BF961BA04C646DED2"
              }
            },
            "signature": {
              "type": "tendermint/SignatureEd25519",
              "value": "JJiMDUyxxFl74cc4IkgC+2MmSTeFh8ld0ACs/hBYxIels0seBXa1Rp9drWiXccg42hkyYFXg8785Lzd3pDwrBg=="
            }
          },
          {
            "validator_address": "38A8D85D36BEA2E5FCF8A1E778F53628E450EF13",
            "validator_index": "25",
            "height": "2493",
            "round": "0",
            "timestamp": "2018-07-30T08:56:37.084419169Z",
            "type": 2,
            "block_id": {
              "hash": "05ACF89F3B1771F434841468E89FB693E00DD788",
              "parts": {
                "total": "1",
                "hash": "8EFD982FED783DC637CC304BF961BA04C646DED2"
              }
            },
            "signature": {
              "type": "tendermint/SignatureEd25519",
              "value": "elnei5lOToUdvgyAy+wxWQdQjx9GA8/e+J0ok6ErPQwg4T70l8o2GHkEIAe73fkQARuBxj3OQh+UQuHp2QvKCw=="
            }
          },
          null,
          {
            "validator_address": "3AC99B708404452366E0953A4BE849226DC86CBC",
            "validator_index": "27",
            "height": "2493",
            "round": "0",
            "timestamp": "2018-07-30T08:56:37.057960334Z",
            "type": 2,
            "block_id": {
              "hash": "05ACF89F3B1771F434841468E89FB693E00DD788",
              "parts": {
                "total": "1",
                "hash": "8EFD982FED783DC637CC304BF961BA04C646DED2"
              }
            },
            "signature": {
              "type": "tendermint/SignatureEd25519",
              "value": "jdAxzY9CRI15WTzwVcqUfahiQXWB0D1PWw9H3vAG1K+eZyGzuLTlBWg3qA34W7cZX0q14+3fNDRdA7RXu3iPAA=="
            }
          },
          {
            "validator_address": "3DCB822A10ED319EC7C4393D8E3FD4A41B15AAF2",
            "validator_index": "28",
            "height": "2493",
            "round": "0",
            "timestamp": "2018-07-30T08:56:36.854954001Z",
            "type": 2,
            "block_id": {
              "hash": "05ACF89F3B1771F434841468E89FB693E00DD788",
              "parts": {
                "total": "1",
                "hash": "8EFD982FED783DC637CC304BF961BA04C646DED2"
              }
            },
            "signature": {
              "type": "tendermint/SignatureEd25519",
              "value": "HVBam7tod5VcdT07pWgdzFQ4Ju8buUdmZxC3FfX+FuTpj/Y0c93v1YUyrC6matTj59H5mjg7BPHy/jKIAGEgCg=="
            }
          },
          {
            "validator_address": "3E899BA36A93C7370347BD5FE85909F2ECD93F8C",
            "validator_index": "29",
            "height": "2493",
            "round": "0",
            "timestamp": "2018-07-30T08:56:36.93793423Z",
            "type": 2,
            "block_id": {
              "hash": "05ACF89F3B1771F434841468E89FB693E00DD788",
              "parts": {
                "total": "1",
                "hash": "8EFD982FED783DC637CC304BF961BA04C646DED2"
              }
            },
            "signature": {
              "type": "tendermint/SignatureEd25519",
              "value": "Ue4byHGd3u091XYjY4LF1GvPZ5pb85WnvFqByR9LwqhoYcsJh4w645QzkM3V3SXfpYfQ0yRs7o8Z1J2Eays/CA=="
            }
          },
          {
            "validator_address": "41CAB2E29E7D0F2282E3275938F188FF9386B84C",
            "validator_index": "30",
            "height": "2493",
            "round": "0",
            "timestamp": "2018-07-30T08:56:36.897691439Z",
            "type": 2,
            "block_id": {
              "hash": "05ACF89F3B1771F434841468E89FB693E00DD788",
              "parts": {
                "total": "1",
                "hash": "8EFD982FED783DC637CC304BF961BA04C646DED2"
              }
            },
            "signature": {
              "type": "tendermint/SignatureEd25519",
              "value": "c/4ZwF8YjIFYFLr9kvNQonr5brY4xQeNgzsxeuynw2XBQWOI7iq6jhiqlUNzpLzZJSsR2XWp9MshxMGukmKHDg=="
            }
          },
          {
            "validator_address": "462B656869DB02A8FD1077E255F8CC7401DC37C6",
            "validator_index": "31",
            "height": "2493",
            "round": "0",
            "timestamp": "2018-07-30T08:56:36.906932972Z",
            "type": 2,
            "block_id": {
              "hash": "05ACF89F3B1771F434841468E89FB693E00DD788",
              "parts": {
                "total": "1",
                "hash": "8EFD982FED783DC637CC304BF961BA04C646DED2"
              }
            },
            "signature": {
              "type": "tendermint/SignatureEd25519",
              "value": "VPKaymsVuGD/6JdCjUS34Q4JZSK6u0xs3NrSUYEyw3Sf1hqLcy710FOmpeYLItU2VsxAQ17MRTkv9lCrVJKpAg=="
            }
          },
          {
            "validator_address": "48E5118163E5442068A1B5A42D2EEDBB75724935",
            "validator_index": "32",
            "height": "2493",
            "round": "0",
            "timestamp": "2018-07-30T08:56:37.042890501Z",
            "type": 2,
            "block_id": {
              "hash": "05ACF89F3B1771F434841468E89FB693E00DD788",
              "parts": {
                "total": "1",
                "hash": "8EFD982FED783DC637CC304BF961BA04C646DED2"
              }
            },
            "signature": {
              "type": "tendermint/SignatureEd25519",
              "value": "mmBogbt4NaxXW0LkxyOzK1Ip/YNOh6XrUYKaVIiv4/OTMVkbpmIw6K/jzkrceR/MO/4/XUkAiAcHxlPbJbjdDA=="
            }
          },
          null,
          {
            "validator_address": "4944F8BBBB5303E17BC0607DF332320EDBC750EA",
            "validator_index": "34",
            "height": "2493",
            "round": "0",
            "timestamp": "2018-07-30T08:56:36.869047914Z",
            "type": 2,
            "block_id": {
              "hash": "05ACF89F3B1771F434841468E89FB693E00DD788",
              "parts": {
                "total": "1",
                "hash": "8EFD982FED783DC637CC304BF961BA04C646DED2"
              }
            },
            "signature": {
              "type": "tendermint/SignatureEd25519",
              "value": "H2Us2h5kDV5HK2RTBeDe2wjZOg9df7dgpVjia7w6sNU3iyTTbHib6y03GMoGjvmOyLGSGmc2mDZAhQ3Ee0iuAg=="
            }
          },
          {
            "validator_address": "49841599DE675157CBE1E7D6B35BF8FFC23BD5CB",
            "validator_index": "35",
            "height": "2493",
            "round": "0",
            "timestamp": "2018-07-30T08:56:36.858497907Z",
            "type": 2,
            "block_id": {
              "hash": "05ACF89F3B1771F434841468E89FB693E00DD788",
              "parts": {
                "total": "1",
                "hash": "8EFD982FED783DC637CC304BF961BA04C646DED2"
              }
            },
            "signature": {
              "type": "tendermint/SignatureEd25519",
              "value": "m6pELnMgYNFejeK5FKxQDKT8qtOvoYh8LJp9PV3lkbOgUrM1ydVs8gm6Gyz9pS0UOaUkX+GV7h8Nu3y53/LECg=="
            }
          },
          {
            "validator_address": "5104F488EA6B1E2C33CBDA3C18389C88104DBC72",
            "validator_index": "36",
            "height": "2493",
            "round": "0",
            "timestamp": "2018-07-30T08:56:36.905848738Z",
            "type": 2,
            "block_id": {
              "hash": "05ACF89F3B1771F434841468E89FB693E00DD788",
              "parts": {
                "total": "1",
                "hash": "8EFD982FED783DC637CC304BF961BA04C646DED2"
              }
            },
            "signature": {
              "type": "tendermint/SignatureEd25519",
              "value": "uRF87PR4hOMvdNuMEO/xogZ8nSQgxelMlXIE6fjj4h1CV7+auaWIdku5ruQzuUAE5E/9T84Dvxwf7yBdaLR/Bg=="
            }
          },
          {
            "validator_address": "51386C2CF9556821D114D7E4945806802BADB28D",
            "validator_index": "37",
            "height": "2493",
            "round": "0",
            "timestamp": "2018-07-30T08:56:36.833488446Z",
            "type": 2,
            "block_id": {
              "hash": "05ACF89F3B1771F434841468E89FB693E00DD788",
              "parts": {
                "total": "1",
                "hash": "8EFD982FED783DC637CC304BF961BA04C646DED2"
              }
            },
            "signature": {
              "type": "tendermint/SignatureEd25519",
              "value": "gBi0doq7GlkVT9oKKt+leeP6QphT7Xw2rNMp//WNFmWvQ9n82dxJgj3jAgvw9vnQoBzhR9XqRC0PXtpRjow9Cw=="
            }
          },
          {
            "validator_address": "543564ECA3AFEFADC73EE8591AAC3A96F079BC8A",
            "validator_index": "38",
            "height": "2493",
            "round": "0",
            "timestamp": "2018-07-30T08:56:36.847242287Z",
            "type": 2,
            "block_id": {
              "hash": "05ACF89F3B1771F434841468E89FB693E00DD788",
              "parts": {
                "total": "1",
                "hash": "8EFD982FED783DC637CC304BF961BA04C646DED2"
              }
            },
            "signature": {
              "type": "tendermint/SignatureEd25519",
              "value": "qpJEitwhZ5ojcABsRQEOUKKL347KzClPXHVBnI0eavQP9ZbhJJK2tNIeVtAl0CdDW4E6Mhs5jRQKSob6H2d8Cg=="
            }
          },
          {
            "validator_address": "55D67B1A6DC13E96F8754A5A42EABC20F7F86664",
            "validator_index": "39",
            "height": "2493",
            "round": "0",
            "timestamp": "2018-07-30T08:56:36.871333974Z",
            "type": 2,
            "block_id": {
              "hash": "05ACF89F3B1771F434841468E89FB693E00DD788",
              "parts": {
                "total": "1",
                "hash": "8EFD982FED783DC637CC304BF961BA04C646DED2"
              }
            },
            "signature": {
              "type": "tendermint/SignatureEd25519",
              "value": "NUhx3AaLW2MD91T2Y+yfdirrCJ2n38b0RgX9uySUyChgAYV31Hsr62lxXewyJEw/N1L5CxdRFxueICAodqGlBQ=="
            }
          },
          {
            "validator_address": "570B6A755ED339EAC56BB3390A48069F6AC9449B",
            "validator_index": "40",
            "height": "2493",
            "round": "0",
            "timestamp": "2018-07-30T08:56:39.266465325Z",
            "type": 2,
            "block_id": {
              "hash": "05ACF89F3B1771F434841468E89FB693E00DD788",
              "parts": {
                "total": "1",
                "hash": "8EFD982FED783DC637CC304BF961BA04C646DED2"
              }
            },
            "signature": {
              "type": "tendermint/SignatureEd25519",
              "value": "2RcpD4qTKus/UeOyyEwnzgs6fIJwq2lbhbQ0uNDeAhqXF2iBE+O0IojXS1PKCEgK+Je4pcDVkkdB38VjHwDFAw=="
            }
          },
          {
            "validator_address": "5BDF8EA41B1835FBAD865B181A2A4B23F511B5E4",
            "validator_index": "41",
            "height": "2493",
            "round": "0",
            "timestamp": "2018-07-30T08:56:36.855351443Z",
            "type": 2,
            "block_id": {
              "hash": "05ACF89F3B1771F434841468E89FB693E00DD788",
              "parts": {
                "total": "1",
                "hash": "8EFD982FED783DC637CC304BF961BA04C646DED2"
              }
            },
            "signature": {
              "type": "tendermint/SignatureEd25519",
              "value": "ePNq/NVSc0NnKyCzl9eewv6OuCBHUo5ldMRiTfnrEPDsqAriqK9i0gRFHZNShmfXw+tAkDNwlhTGdcXV2I/KAw=="
            }
          },
          null,
          null,
          {
            "validator_address": "60229E2E273297FE00219E46DFFB8F76844CDEF9",
            "validator_index": "44",
            "height": "2493",
            "round": "0",
            "timestamp": "2018-07-30T08:56:36.468374431Z",
            "type": 2,
            "block_id": {
              "hash": "05ACF89F3B1771F434841468E89FB693E00DD788",
              "parts": {
                "total": "1",
                "hash": "8EFD982FED783DC637CC304BF961BA04C646DED2"
              }
            },
            "signature": {
              "type": "tendermint/SignatureEd25519",
              "value": "t7TPAI6Uqh6FD6kJOuVWC77eltCy0qodD6VOzdQ3y35FVbXK0xk9SeAgX5bHe2YG1gv/vPf4UwRxuDva+hqmAQ=="
            }
          },
          {
            "validator_address": "62410D6D1CD98278136E4D0738AA0EA273CDFC54",
            "validator_index": "45",
            "height": "2493",
            "round": "0",
            "timestamp": "2018-07-30T08:56:36.846182087Z",
            "type": 2,
            "block_id": {
              "hash": "05ACF89F3B1771F434841468E89FB693E00DD788",
              "parts": {
                "total": "1",
                "hash": "8EFD982FED783DC637CC304BF961BA04C646DED2"
              }
            },
            "signature": {
              "type": "tendermint/SignatureEd25519",
              "value": "wkE75HjsmHf5qtiT5whCfxuyMIUV799rH0iftV0x706CJtNuxdF58tqmmH2NLjMHTONnhAlVulGu9abg2+h4AQ=="
            }
          },
          {
            "validator_address": "632F5C139A5A9DFBFE5111DEE29FCFB6157207DC",
            "validator_index": "46",
            "height": "2493",
            "round": "0",
            "timestamp": "2018-07-30T08:56:36.905700851Z",
            "type": 2,
            "block_id": {
              "hash": "05ACF89F3B1771F434841468E89FB693E00DD788",
              "parts": {
                "total": "1",
                "hash": "8EFD982FED783DC637CC304BF961BA04C646DED2"
              }
            },
            "signature": {
              "type": "tendermint/SignatureEd25519",
              "value": "t9p0fFL7HYBfSX5tk/v255TTQNVNEF+AeLY6F9vUcN4DLeYGjgqIiV/WAMtoDXRPOPGzRNZcxqsuqcD8vHNXBg=="
            }
          },
          {
            "validator_address": "64F57F8E796A9B7B590C1EFA4123988C86631D39",
            "validator_index": "47",
            "height": "2493",
            "round": "0",
            "timestamp": "2018-07-30T08:56:36.854795037Z",
            "type": 2,
            "block_id": {
              "hash": "05ACF89F3B1771F434841468E89FB693E00DD788",
              "parts": {
                "total": "1",
                "hash": "8EFD982FED783DC637CC304BF961BA04C646DED2"
              }
            },
            "signature": {
              "type": "tendermint/SignatureEd25519",
              "value": "afB266O+HH0SIw2SUqteCLb8FFbI7u2FdfTfK/1alSUe9GZQdPzLx57fzlF5bDpgaQB/5ULxK0eJACcIkXC5CA=="
            }
          },
          {
            "validator_address": "69D99B2C66043ACBEAA8447525C356AFC6408E0C",
            "validator_index": "48",
            "height": "2493",
            "round": "0",
            "timestamp": "2018-07-30T08:56:37.026677231Z",
            "type": 2,
            "block_id": {
              "hash": "05ACF89F3B1771F434841468E89FB693E00DD788",
              "parts": {
                "total": "1",
                "hash": "8EFD982FED783DC637CC304BF961BA04C646DED2"
              }
            },
            "signature": {
              "type": "tendermint/SignatureEd25519",
              "value": "riWcVhz0x4fRjd8xLwLzUQc7VYIu2F+ycMQ1VS1QklFtJuDiju6gaNw4y6ha7hQv6LRF3UQjm6stywsnU7F5CA=="
            }
          },
          {
            "validator_address": "6D3AD380E398D8592B03AA124BAFED5F125DF863",
            "validator_index": "49",
            "height": "2493",
            "round": "0",
            "timestamp": "2018-07-30T08:55:35.437901687Z",
            "type": 2,
            "block_id": {
              "hash": "05ACF89F3B1771F434841468E89FB693E00DD788",
              "parts": {
                "total": "1",
                "hash": "8EFD982FED783DC637CC304BF961BA04C646DED2"
              }
            },
            "signature": {
              "type": "tendermint/SignatureEd25519",
              "value": "qq73O52LlxATBrP1o2US+z8/FIGnQBQhGaCYCy+wFLdusbft1i5a4yD4W+2wc9qPuNat3DSqlgxnHmwjT6uVBg=="
            }
          },
          {
            "validator_address": "6F6C93B8BF3495063FEC9B5C771158607F4AE9D6",
            "validator_index": "50",
            "height": "2493",
            "round": "0",
            "timestamp": "2018-07-30T08:56:36.877444491Z",
            "type": 2,
            "block_id": {
              "hash": "05ACF89F3B1771F434841468E89FB693E00DD788",
              "parts": {
                "total": "1",
                "hash": "8EFD982FED783DC637CC304BF961BA04C646DED2"
              }
            },
            "signature": {
              "type": "tendermint/SignatureEd25519",
              "value": "+QyVNiARsQv6zHaJuovtdQ4qEPjkJ8ErSQDn4oLpq3mWLYhtTi1Si8hYpzGWE3KQxqiyJFalz+MLKUXLs0GdDQ=="
            }
          },
          {
            "validator_address": "732CEEF54C374DDC6ADECBFD707AEFD07FEDC143",
            "validator_index": "51",
            "height": "2493",
            "round": "0",
            "timestamp": "2018-07-30T08:56:36.980099307Z",
            "type": 2,
            "block_id": {
              "hash": "05ACF89F3B1771F434841468E89FB693E00DD788",
              "parts": {
                "total": "1",
                "hash": "8EFD982FED783DC637CC304BF961BA04C646DED2"
              }
            },
            "signature": {
              "type": "tendermint/SignatureEd25519",
              "value": "akrKAU0DA+8C4oiOGasreV0lerzsYOtQj5hmv3ruZ0W5FJjlpihzFsiZIzvbrZ0BAlRVxDTKJN3KvBCWYrJ7Dw=="
            }
          },
          {
            "validator_address": "7393D691BFAE9661918C09932D4D9060AB40939B",
            "validator_index": "52",
            "height": "2493",
            "round": "0",
            "timestamp": "2018-07-30T08:56:37.026791144Z",
            "type": 2,
            "block_id": {
              "hash": "05ACF89F3B1771F434841468E89FB693E00DD788",
              "parts": {
                "total": "1",
                "hash": "8EFD982FED783DC637CC304BF961BA04C646DED2"
              }
            },
            "signature": {
              "type": "tendermint/SignatureEd25519",
              "value": "ZsfNOhE7t6IdySqpdkq+4vztuXesuQK2VrxmtE7l8/0LREdnOUqtWWIZJQai7ioBwQUGtGH9LFAD52pr8764Dg=="
            }
          },
          {
            "validator_address": "751E43437224E8BB6D1569B3E2B2616B6E7F4397",
            "validator_index": "53",
            "height": "2493",
            "round": "0",
            "timestamp": "2018-07-30T08:56:36.918070283Z",
            "type": 2,
            "block_id": {
              "hash": "05ACF89F3B1771F434841468E89FB693E00DD788",
              "parts": {
                "total": "1",
                "hash": "8EFD982FED783DC637CC304BF961BA04C646DED2"
              }
            },
            "signature": {
              "type": "tendermint/SignatureEd25519",
              "value": "h6Lrn9FjGIff6urjUUYHkCN7ukdw6vPcAFyvu8DDRpV9JqAfvJCjFPILWWpf8t7TOf/NLOXxsQttjZ87l4TWDA=="
            }
          },
          {
            "validator_address": "7EB7593F519F1180C7E872D0494611464EDF03AE",
            "validator_index": "54",
            "height": "2493",
            "round": "0",
            "timestamp": "2018-07-30T08:56:36.876647358Z",
            "type": 2,
            "block_id": {
              "hash": "05ACF89F3B1771F434841468E89FB693E00DD788",
              "parts": {
                "total": "1",
                "hash": "8EFD982FED783DC637CC304BF961BA04C646DED2"
              }
            },
            "signature": {
              "type": "tendermint/SignatureEd25519",
              "value": "owghjTKMgxtp5XQ5ssvXq0wGbbJ5xN49Xu59TkO61bbFJBDdYeZPjKVZ9tCYizCokX9ZltDprI49V2GFhzFyAg=="
            }
          },
          {
            "validator_address": "807CF675BA8479FC4FEC1047215DF07970040F1F",
            "validator_index": "55",
            "height": "2493",
            "round": "0",
            "timestamp": "2018-07-30T08:56:37.14720946Z",
            "type": 2,
            "block_id": {
              "hash": "05ACF89F3B1771F434841468E89FB693E00DD788",
              "parts": {
                "total": "1",
                "hash": "8EFD982FED783DC637CC304BF961BA04C646DED2"
              }
            },
            "signature": {
              "type": "tendermint/SignatureEd25519",
              "value": "FMpBSiMo5h6lb4Rbqr93UWqtXsr7llBNCQvswYtcFM+Dri+kIZ8gSfmXPE0IZCuexa7eNJkg5sgL1CRHEN6ZDg=="
            }
          },
          {
            "validator_address": "8126192EA66E8ADE6B36924534721366B987A4C1",
            "validator_index": "56",
            "height": "2493",
            "round": "0",
            "timestamp": "2018-07-30T08:56:36.869357172Z",
            "type": 2,
            "block_id": {
              "hash": "05ACF89F3B1771F434841468E89FB693E00DD788",
              "parts": {
                "total": "1",
                "hash": "8EFD982FED783DC637CC304BF961BA04C646DED2"
              }
            },
            "signature": {
              "type": "tendermint/SignatureEd25519",
              "value": "Gbp6YyXZ2HO6PMWk4yHC6groiVHxe9i30OoyCN2+UVIaISXUTtqucyhnKnYdrRrBB+bwInBflWTLcDWvVIKfCQ=="
            }
          },
          null,
          {
            "validator_address": "83AB321E012C57746689FED3A6064DF331F81007",
            "validator_index": "58",
            "height": "2493",
            "round": "0",
            "timestamp": "2018-07-30T08:56:36.90306408Z",
            "type": 2,
            "block_id": {
              "hash": "05ACF89F3B1771F434841468E89FB693E00DD788",
              "parts": {
                "total": "1",
                "hash": "8EFD982FED783DC637CC304BF961BA04C646DED2"
              }
            },
            "signature": {
              "type": "tendermint/SignatureEd25519",
              "value": "S0yyAV8cDx0g/qUd5k4E3UUeQc95thrKEjflKwCM1fljwtX4IPAnnAsWDhnf9JOFOTkng5DYWEl2emqydrmXAA=="
            }
          },
          {
            "validator_address": "83BB1B88D3DBB20AD845FECA07749EBD87D3754D",
            "validator_index": "59",
            "height": "2493",
            "round": "0",
            "timestamp": "2018-07-30T08:56:37.125691413Z",
            "type": 2,
            "block_id": {
              "hash": "05ACF89F3B1771F434841468E89FB693E00DD788",
              "parts": {
                "total": "1",
                "hash": "8EFD982FED783DC637CC304BF961BA04C646DED2"
              }
            },
            "signature": {
              "type": "tendermint/SignatureEd25519",
              "value": "eVWGrKlwTIx/ttNoUhA++/huyyubXD5TolBGFGi6jm4Ql+fljDMjgnUv7D74hSYeVAz2jvE0pPSfdGp/fvs0CQ=="
            }
          },
          null,
          null,
          {
            "validator_address": "8F45617BF45B10A3F8283DEBDB35E38C7CA43237",
            "validator_index": "62",
            "height": "2493",
            "round": "0",
            "timestamp": "2018-07-30T08:56:36.9030649Z",
            "type": 2,
            "block_id": {
              "hash": "05ACF89F3B1771F434841468E89FB693E00DD788",
              "parts": {
                "total": "1",
                "hash": "8EFD982FED783DC637CC304BF961BA04C646DED2"
              }
            },
            "signature": {
              "type": "tendermint/SignatureEd25519",
              "value": "guRI1/JKXq4pDLrDAQR/UYhMkTeZW2gARvWRayrHkx0471cQF8Ix43Z9xk3ESsjWl3b1SOPoQYNR9Y4/5bDoCQ=="
            }
          },
          {
            "validator_address": "90130588383502829D439E2E85C0B5F971ECF39E",
            "validator_index": "63",
            "height": "2493",
            "round": "0",
            "timestamp": "2018-07-30T08:56:37.109676626Z",
            "type": 2,
            "block_id": {
              "hash": "05ACF89F3B1771F434841468E89FB693E00DD788",
              "parts": {
                "total": "1",
                "hash": "8EFD982FED783DC637CC304BF961BA04C646DED2"
              }
            },
            "signature": {
              "type": "tendermint/SignatureEd25519",
              "value": "6qlJ/Njq5i63o1C5gdzslfQENe2bQ1jVNFEhm9RI2M2ALXFPo5FRxKcjRRoANI3XtY2WFYWLibe3rVCTUJSwDw=="
            }
          },
          null,
          {
            "validator_address": "95FAFBC1E0579C83D290A063020CE87C5334BD9B",
            "validator_index": "65",
            "height": "2493",
            "round": "0",
            "timestamp": "2018-07-30T08:56:36.941971936Z",
            "type": 2,
            "block_id": {
              "hash": "05ACF89F3B1771F434841468E89FB693E00DD788",
              "parts": {
                "total": "1",
                "hash": "8EFD982FED783DC637CC304BF961BA04C646DED2"
              }
            },
            "signature": {
              "type": "tendermint/SignatureEd25519",
              "value": "btynI7BQuopCeH4kcdZAbN7QxQ4GRz+VFYxcw1IdqkYa1z2nUKZCvQzl+4FwKMKHrwVqgTbEHQ3RoyPg3VK2Dg=="
            }
          },
          {
            "validator_address": "96BDE45EC52606CF5CB59853097871AD60680549",
            "validator_index": "66",
            "height": "2493",
            "round": "0",
            "timestamp": "2018-07-30T08:56:36.906261266Z",
            "type": 2,
            "block_id": {
              "hash": "05ACF89F3B1771F434841468E89FB693E00DD788",
              "parts": {
                "total": "1",
                "hash": "8EFD982FED783DC637CC304BF961BA04C646DED2"
              }
            },
            "signature": {
              "type": "tendermint/SignatureEd25519",
              "value": "xxRbcnIbZoCdMtO7agiBvxHbXs6kEWvnq/ianYxp+CssUkMVr8z85H9s+KDSK8YkgZlwGwJph4hkC3lYMk+bDw=="
            }
          },
          {
            "validator_address": "970CD321881185BF83DB2923C321B0E75FDBB2B8",
            "validator_index": "67",
            "height": "2493",
            "round": "0",
            "timestamp": "2018-07-30T08:56:36.988089617Z",
            "type": 2,
            "block_id": {
              "hash": "05ACF89F3B1771F434841468E89FB693E00DD788",
              "parts": {
                "total": "1",
                "hash": "8EFD982FED783DC637CC304BF961BA04C646DED2"
              }
            },
            "signature": {
              "type": "tendermint/SignatureEd25519",
              "value": "/DcRwOU6vNX+uRCsY7yIUlhzoTP3jWf2ZvU+Pbz+maXcCPJ0YrAkG2RNlzVJ/I57OcXINNlaBZbatWSccji9Ag=="
            }
          },
          null,
          {
            "validator_address": "9C29C9B76D27586E4D9AD2AED0E943162645E55C",
            "validator_index": "69",
            "height": "2493",
            "round": "0",
            "timestamp": "2018-07-30T08:56:36.843532966Z",
            "type": 2,
            "block_id": {
              "hash": "05ACF89F3B1771F434841468E89FB693E00DD788",
              "parts": {
                "total": "1",
                "hash": "8EFD982FED783DC637CC304BF961BA04C646DED2"
              }
            },
            "signature": {
              "type": "tendermint/SignatureEd25519",
              "value": "mZLCFqhZV0S25D4hWMlNaJHlsSDuMAzD190Eu5ymG+bAgm4nmc+KL8u0gkalnGo6sbV7OFcoO2TU4JJBOsRoBA=="
            }
          },
          {
            "validator_address": "9D93AD02FE1BD7E76B9E58D7EB461088EAD011E5",
            "validator_index": "70",
            "height": "2493",
            "round": "0",
            "timestamp": "2018-07-30T08:56:36.847537909Z",
            "type": 2,
            "block_id": {
              "hash": "05ACF89F3B1771F434841468E89FB693E00DD788",
              "parts": {
                "total": "1",
                "hash": "8EFD982FED783DC637CC304BF961BA04C646DED2"
              }
            },
            "signature": {
              "type": "tendermint/SignatureEd25519",
              "value": "4nZViuvcQVk9Sdmv/7amHWi9G74NtBpBms/mYpeCmsvT1cUYcJEvYCr05Dr6VdTbgzUSez1sMwryKgA/ybFtCQ=="
            }
          },
          null,
          {
            "validator_address": "A0A6466F4ABEA09C3B55E3709AFDE217A103209F",
            "validator_index": "72",
            "height": "2493",
            "round": "0",
            "timestamp": "2018-07-30T08:56:36.803213161Z",
            "type": 2,
            "block_id": {
              "hash": "05ACF89F3B1771F434841468E89FB693E00DD788",
              "parts": {
                "total": "1",
                "hash": "8EFD982FED783DC637CC304BF961BA04C646DED2"
              }
            },
            "signature": {
              "type": "tendermint/SignatureEd25519",
              "value": "iSMBtSWIXpnDHRP5AekvMZINlE1UzGM85B0VtXYEseZWeko4DQcGIxnHpxZWb54Tt+jMA1To+v8FLntGmHvaCA=="
            }
          },
          {
            "validator_address": "A5868971300F155020634D7BB49C7634F7AACCD3",
            "validator_index": "73",
            "height": "2493",
            "round": "0",
            "timestamp": "2018-07-30T08:56:36.885413071Z",
            "type": 2,
            "block_id": {
              "hash": "05ACF89F3B1771F434841468E89FB693E00DD788",
              "parts": {
                "total": "1",
                "hash": "8EFD982FED783DC637CC304BF961BA04C646DED2"
              }
            },
            "signature": {
              "type": "tendermint/SignatureEd25519",
              "value": "IalT8oxGzSvq2obHqvvv/vkh20ZpyDKNhEgHpmA+ONQ5a9DwZry8PApqkTEriwy9EolEBadTAG0jWxGVb0MxCA=="
            }
          },
          {
            "validator_address": "A6B3A5B5D982CFD7B5FDFA15CF5A720E7AE25E7F",
            "validator_index": "74",
            "height": "2493",
            "round": "0",
            "timestamp": "2018-07-30T08:56:36.831304759Z",
            "type": 2,
            "block_id": {
              "hash": "05ACF89F3B1771F434841468E89FB693E00DD788",
              "parts": {
                "total": "1",
                "hash": "8EFD982FED783DC637CC304BF961BA04C646DED2"
              }
            },
            "signature": {
              "type": "tendermint/SignatureEd25519",
              "value": "AdPCDGUfwerSN+QI0LifFSnLH260PX5JXrz1UOmr7hIZHz9GZHiot1MAOGXHpNYp62aoPAN/hMLTr9IgZd2cBQ=="
            }
          },
          {
            "validator_address": "AC96444A9083890B7C7B430DB17BF1D3EA5EED04",
            "validator_index": "75",
            "height": "2493",
            "round": "0",
            "timestamp": "2018-07-30T08:56:37.015575728Z",
            "type": 2,
            "block_id": {
              "hash": "05ACF89F3B1771F434841468E89FB693E00DD788",
              "parts": {
                "total": "1",
                "hash": "8EFD982FED783DC637CC304BF961BA04C646DED2"
              }
            },
            "signature": {
              "type": "tendermint/SignatureEd25519",
              "value": "wB8vZ9RpsC8WqttOKT6mE7+rdX2q/6GuWcBNnu+I/IbwLsLnu+8++M0yL2r1W1FzLlA9DQaebbfycZB1LH8QBg=="
            }
          },
          {
            "validator_address": "ACB97FDA2D940AF0709B73537C458EB988AD2893",
            "validator_index": "76",
            "height": "2493",
            "round": "0",
            "timestamp": "2018-07-30T08:56:36.864374468Z",
            "type": 2,
            "block_id": {
              "hash": "05ACF89F3B1771F434841468E89FB693E00DD788",
              "parts": {
                "total": "1",
                "hash": "8EFD982FED783DC637CC304BF961BA04C646DED2"
              }
            },
            "signature": {
              "type": "tendermint/SignatureEd25519",
              "value": "Idwv+qLo6hWcoo950PKa6aKIMmql1QdvNPJaSN10moZ+0h52PxGTpagFgX+8EBoX1jhkGKVBm2kWjZT+nkjfAg=="
            }
          },
          null,
          {
            "validator_address": "B197425B3210375F211661DE02EF2AE36580EB0F",
            "validator_index": "78",
            "height": "2493",
            "round": "0",
            "timestamp": "2018-07-30T08:56:36.864503282Z",
            "type": 2,
            "block_id": {
              "hash": "05ACF89F3B1771F434841468E89FB693E00DD788",
              "parts": {
                "total": "1",
                "hash": "8EFD982FED783DC637CC304BF961BA04C646DED2"
              }
            },
            "signature": {
              "type": "tendermint/SignatureEd25519",
              "value": "h3EjYm/ATZNO11LuqKMoucgmT9Hwy7PPVpPG9yxtg4VQahyhJdI2JZVlh6GrBUfysZy6HPMOvmaWaYcxr7oAAg=="
            }
          },
          {
            "validator_address": "B45E54D2D1CB5A4CCD1D49016608C18E7C56B270",
            "validator_index": "79",
            "height": "2493",
            "round": "0",
            "timestamp": "2018-07-30T08:56:37.061632818Z",
            "type": 2,
            "block_id": {
              "hash": "05ACF89F3B1771F434841468E89FB693E00DD788",
              "parts": {
                "total": "1",
                "hash": "8EFD982FED783DC637CC304BF961BA04C646DED2"
              }
            },
            "signature": {
              "type": "tendermint/SignatureEd25519",
              "value": "NShtdNcRX1tRncPLDfMEstvD1steTNS3jhVP+fhxPJR6f+vPuP5Hsyd/SZtytHSbGK4+Owm3vnB0bzKkK95rCQ=="
            }
          },
          {
            "validator_address": "B59A34C0BE4EC73AF6A67D274F1695C9259C237C",
            "validator_index": "80",
            "height": "2493",
            "round": "0",
            "timestamp": "2018-07-30T08:56:36.913627726Z",
            "type": 2,
            "block_id": {
              "hash": "05ACF89F3B1771F434841468E89FB693E00DD788",
              "parts": {
                "total": "1",
                "hash": "8EFD982FED783DC637CC304BF961BA04C646DED2"
              }
            },
            "signature": {
              "type": "tendermint/SignatureEd25519",
              "value": "SYHKl+n38wJjaNUWFuXcWm6I4Xc0vgckqXeAk9mHdve3kn7MUv0PmGmzPfzuEg7+E7N7eAG6XK/DEcCPsaX0Bw=="
            }
          },
          {
            "validator_address": "BC36FEDD6EF6071118A3E51859DF3831A2EC4782",
            "validator_index": "81",
            "height": "2493",
            "round": "0",
            "timestamp": "2018-07-30T08:56:36.90932933Z",
            "type": 2,
            "block_id": {
              "hash": "05ACF89F3B1771F434841468E89FB693E00DD788",
              "parts": {
                "total": "1",
                "hash": "8EFD982FED783DC637CC304BF961BA04C646DED2"
              }
            },
            "signature": {
              "type": "tendermint/SignatureEd25519",
              "value": "ku6NbA0Z9WBkVf2k+mrG1nRefv4uSxjsZNjpTL8862hvUQ5xL0ucRIFFuNY3LQ6N41nlz3uVXA+Q2zVBJORLBg=="
            }
          },
          null,
          null,
          {
            "validator_address": "C39A8A2B85198DCB8F23AD1F6C198E2BA7AB5D60",
            "validator_index": "84",
            "height": "2493",
            "round": "0",
            "timestamp": "2018-07-30T08:56:36.858525772Z",
            "type": 2,
            "block_id": {
              "hash": "05ACF89F3B1771F434841468E89FB693E00DD788",
              "parts": {
                "total": "1",
                "hash": "8EFD982FED783DC637CC304BF961BA04C646DED2"
              }
            },
            "signature": {
              "type": "tendermint/SignatureEd25519",
              "value": "eYi1s0nhIy6OM6ip4bRzU4D7k4tZ7TmRkMy3xDtEBeyuXrCe0CfybmLfKEHEP7TmwpdLWeFuOQs5CnL4fl+LDg=="
            }
          },
          {
            "validator_address": "C4335190C3B5BD4BA5568BC0F99C34162D940D08",
            "validator_index": "85",
            "height": "2493",
            "round": "0",
            "timestamp": "2018-07-30T08:56:36.947552329Z",
            "type": 2,
            "block_id": {
              "hash": "05ACF89F3B1771F434841468E89FB693E00DD788",
              "parts": {
                "total": "1",
                "hash": "8EFD982FED783DC637CC304BF961BA04C646DED2"
              }
            },
            "signature": {
              "type": "tendermint/SignatureEd25519",
              "value": "szKV2qhbVWW0pe9NpM9efFntNEihunB/rY9ROxy+816jLpxMY2HRM5ovo/nn7+MURQ6urO7RRrXMJ8P9UPYdBA=="
            }
          },
          null,
          {
            "validator_address": "CEB97DB5CB18270247ABDE6CF2F84F9AEE8A2904",
            "validator_index": "87",
            "height": "2493",
            "round": "0",
            "timestamp": "2018-07-30T08:56:36.530117552Z",
            "type": 2,
            "block_id": {
              "hash": "05ACF89F3B1771F434841468E89FB693E00DD788",
              "parts": {
                "total": "1",
                "hash": "8EFD982FED783DC637CC304BF961BA04C646DED2"
              }
            },
            "signature": {
              "type": "tendermint/SignatureEd25519",
              "value": "LBCVsAl8QDYj0cn28CdeB7/ZARMKyEuCCivKYBb82ejpLWhg/418oOfG005NrMhgeCrk6ds2r81+iEMv5EsRBg=="
            }
          },
          {
            "validator_address": "D2134B826A1E25A955905CB79A4D8731CAFA0CCE",
            "validator_index": "88",
            "height": "2493",
            "round": "0",
            "timestamp": "2018-07-30T08:56:37.048566452Z",
            "type": 2,
            "block_id": {
              "hash": "05ACF89F3B1771F434841468E89FB693E00DD788",
              "parts": {
                "total": "1",
                "hash": "8EFD982FED783DC637CC304BF961BA04C646DED2"
              }
            },
            "signature": {
              "type": "tendermint/SignatureEd25519",
              "value": "YdrFtwcODPz0/IqydZdru6EQsk+yopUscmTZOMTA+yWFcLKKfe07FDNcP3+Zg59am8m2DEWbz6BW3GyDn/mjCg=="
            }
          },
          null,
          {
            "validator_address": "D6285C3422C8886445D53757CBE12D2B91B5A9D0",
            "validator_index": "90",
            "height": "2493",
            "round": "0",
            "timestamp": "2018-07-30T08:56:18.984081682Z",
            "type": 2,
            "block_id": {
              "hash": "05ACF89F3B1771F434841468E89FB693E00DD788",
              "parts": {
                "total": "1",
                "hash": "8EFD982FED783DC637CC304BF961BA04C646DED2"
              }
            },
            "signature": {
              "type": "tendermint/SignatureEd25519",
              "value": "7hZAVwNxcrqIrXn/RIksprvXuDiJ3xh8tKP/koGJMOgXYFOnZGnbSnJ+XXnIix6BnvTx/TnYKT25OSz+Ck42Ag=="
            }
          },
          null,
          null,
          {
            "validator_address": "DB7E6732471D3EA5C90C17A9974D9F88AB45F2FB",
            "validator_index": "93",
            "height": "2493",
            "round": "0",
            "timestamp": "2018-07-30T08:56:36.877757564Z",
            "type": 2,
            "block_id": {
              "hash": "05ACF89F3B1771F434841468E89FB693E00DD788",
              "parts": {
                "total": "1",
                "hash": "8EFD982FED783DC637CC304BF961BA04C646DED2"
              }
            },
            "signature": {
              "type": "tendermint/SignatureEd25519",
              "value": "ykF5MDwVsyWOM4HB3/DzMw/h7MDDkeDWN+hz1GQqQkEVKNnK6QKtXstO+nd+5zrevHVzl0pZOH4/ZHxSKF9GDg=="
            }
          },
          {
            "validator_address": "DF54B862410BCD9B5C516FBB6C56BDC826ED6FA7",
            "validator_index": "94",
            "height": "2493",
            "round": "0",
            "timestamp": "2018-07-30T08:56:37.04714241Z",
            "type": 2,
            "block_id": {
              "hash": "05ACF89F3B1771F434841468E89FB693E00DD788",
              "parts": {
                "total": "1",
                "hash": "8EFD982FED783DC637CC304BF961BA04C646DED2"
              }
            },
            "signature": {
              "type": "tendermint/SignatureEd25519",
              "value": "eurXKm3oteLQmj74LRS7QkTJYHDDwr2CUxngu4hh3TTPzF5oz0KBvLPSRFXnUpYO+EHc9nADrusqA6bx9+3WCA=="
            }
          },
          {
            "validator_address": "DFAF0C8B1B78D6D552B0189DE3ACA351439A1319",
            "validator_index": "95",
            "height": "2493",
            "round": "0",
            "timestamp": "2018-07-30T08:56:36.894441788Z",
            "type": 2,
            "block_id": {
              "hash": "05ACF89F3B1771F434841468E89FB693E00DD788",
              "parts": {
                "total": "1",
                "hash": "8EFD982FED783DC637CC304BF961BA04C646DED2"
              }
            },
            "signature": {
              "type": "tendermint/SignatureEd25519",
              "value": "X+a45vKBPLDqAWPxfgVAiO+Y+bhbVbXXgmudT8hPKuFDI88UvvfMVyRze748iTvroPDnMNNW5ePdSWy+rWKEAA=="
            }
          },
          {
            "validator_address": "E1DBC77881161A5A3A8536A57536EAE546A75D69",
            "validator_index": "96",
            "height": "2493",
            "round": "0",
            "timestamp": "2018-07-30T08:56:36.8234409Z",
            "type": 2,
            "block_id": {
              "hash": "05ACF89F3B1771F434841468E89FB693E00DD788",
              "parts": {
                "total": "1",
                "hash": "8EFD982FED783DC637CC304BF961BA04C646DED2"
              }
            },
            "signature": {
              "type": "tendermint/SignatureEd25519",
              "value": "9nPLzzK8K9tSG5h2yKxPt1Vh1kD6yyIdOVnZGxmDLbtDzwH46sr7T00gGSCY+6Ok/TXxkVivirYIEpUt9jiHCg=="
            }
          },
          {
            "validator_address": "E300E9D484374C1D3E97C1D93CAC3B160A056298",
            "validator_index": "97",
            "height": "2493",
            "round": "0",
            "timestamp": "2018-07-30T08:56:37.168665357Z",
            "type": 2,
            "block_id": {
              "hash": "05ACF89F3B1771F434841468E89FB693E00DD788",
              "parts": {
                "total": "1",
                "hash": "8EFD982FED783DC637CC304BF961BA04C646DED2"
              }
            },
            "signature": {
              "type": "tendermint/SignatureEd25519",
              "value": "ohWt/ozW12JQuvfHZIyN/KebWkToyT8RGVfRps2pf9Ydpe3VIrXZGiwdnnKCsKAFBQ5fG5caS4re4vAPqFibBQ=="
            }
          },
          {
            "validator_address": "E39B5778E0D4297A46F45CF6940B0A163A430FF8",
            "validator_index": "98",
            "height": "2493",
            "round": "0",
            "timestamp": "2018-07-30T08:56:36.957486682Z",
            "type": 2,
            "block_id": {
              "hash": "05ACF89F3B1771F434841468E89FB693E00DD788",
              "parts": {
                "total": "1",
                "hash": "8EFD982FED783DC637CC304BF961BA04C646DED2"
              }
            },
            "signature": {
              "type": "tendermint/SignatureEd25519",
              "value": "tJ5LOmHCteUzEBfOV2SYWuz0hIzQxeTnKdwErG8xfB2wc2Bzny8tymMM4LCrGKt7tyRRiU9hj3luCfSxwdB5Cw=="
            }
          },
          null,
          {
            "validator_address": "E42F8AEABB685219F7027F54D2B0DBC7846F633A",
            "validator_index": "100",
            "height": "2493",
            "round": "0",
            "timestamp": "2018-07-30T08:56:36.331211354Z",
            "type": 2,
            "block_id": {
              "hash": "05ACF89F3B1771F434841468E89FB693E00DD788",
              "parts": {
                "total": "1",
                "hash": "8EFD982FED783DC637CC304BF961BA04C646DED2"
              }
            },
            "signature": {
              "type": "tendermint/SignatureEd25519",
              "value": "nJi/J4k2xzMT44UxvZjMXlDDqgqyp0Tn2Ll8Ru6zQLH7fx9xe6Bb4NfzGpQNhL4FCR73+sJBDBInk6RIPnBgCg=="
            }
          },
          {
            "validator_address": "E4E6C2E81269DFFA196C17F98240E491479A6008",
            "validator_index": "101",
            "height": "2493",
            "round": "0",
            "timestamp": "2018-07-30T08:56:36.960377345Z",
            "type": 2,
            "block_id": {
              "hash": "05ACF89F3B1771F434841468E89FB693E00DD788",
              "parts": {
                "total": "1",
                "hash": "8EFD982FED783DC637CC304BF961BA04C646DED2"
              }
            },
            "signature": {
              "type": "tendermint/SignatureEd25519",
              "value": "1XQ1X/eP7sRSygPYp6spHlFNYv90DyC57Iz7eVqiFfQPIdPoLcxtIFPSZyDunYkVD4+g/Cr1ZX6WKRC2HRVWAA=="
            }
          },
          null,
          {
            "validator_address": "E6A7079D584B163750BE0831227F6B685DEAF3C1",
            "validator_index": "103",
            "height": "2493",
            "round": "0",
            "timestamp": "2018-07-30T08:56:36.983340411Z",
            "type": 2,
            "block_id": {
              "hash": "05ACF89F3B1771F434841468E89FB693E00DD788",
              "parts": {
                "total": "1",
                "hash": "8EFD982FED783DC637CC304BF961BA04C646DED2"
              }
            },
            "signature": {
              "type": "tendermint/SignatureEd25519",
              "value": "RYWHHxhWO4CWjEGTkoecl23sSy66Qz/8S46EKP8e3wwexB5F2tBBV1OFCbDvZhJKPy6GaH/4yYvFAN4pTxr+CA=="
            }
          },
          {
            "validator_address": "E7A30077D5D11867D3EAF99ED45BFDC1EB834509",
            "validator_index": "104",
            "height": "2493",
            "round": "0",
            "timestamp": "2018-07-30T08:56:36.951452239Z",
            "type": 2,
            "block_id": {
              "hash": "05ACF89F3B1771F434841468E89FB693E00DD788",
              "parts": {
                "total": "1",
                "hash": "8EFD982FED783DC637CC304BF961BA04C646DED2"
              }
            },
            "signature": {
              "type": "tendermint/SignatureEd25519",
              "value": "BsRZcRchArQeoay/8fcddJdO6wDFxnHVY7nIcbwsU4JvyqREZ2aBfSHJsEZvxJmlsjwbadrggK+5tXJrNsHRCw=="
            }
          },
          {
            "validator_address": "EBC613967F66F4EC306852CDF58B4F151CF16738",
            "validator_index": "105",
            "height": "2493",
            "round": "0",
            "timestamp": "2018-07-30T08:56:36.979970352Z",
            "type": 2,
            "block_id": {
              "hash": "05ACF89F3B1771F434841468E89FB693E00DD788",
              "parts": {
                "total": "1",
                "hash": "8EFD982FED783DC637CC304BF961BA04C646DED2"
              }
            },
            "signature": {
              "type": "tendermint/SignatureEd25519",
              "value": "Fvnb6XSSc1S+8XfdYmIZP0s/oW//5ZKDtvDil7mQIqkPYxLXE4HKkJ6lL33ElFVR3qPHJFUnQBEmLeQY+Kx8Cw=="
            }
          },
          null,
          {
            "validator_address": "EC95B111D032181E1EC3B5E8875C5BB8E4AE7140",
            "validator_index": "107",
            "height": "2493",
            "round": "0",
            "timestamp": "2018-07-30T08:56:36.854904362Z",
            "type": 2,
            "block_id": {
              "hash": "05ACF89F3B1771F434841468E89FB693E00DD788",
              "parts": {
                "total": "1",
                "hash": "8EFD982FED783DC637CC304BF961BA04C646DED2"
              }
            },
            "signature": {
              "type": "tendermint/SignatureEd25519",
              "value": "Jsv2AfHYnbEdogz+3zdG8g5cwUBueWzIBr6IcDnJvv94fO+wccrvAzmpGzkLhF3mTrUU8THZlfYenZAXIsSnAw=="
            }
          },
          {
            "validator_address": "F13C1805E8131C9B47E2A46818F57D8A2841E578",
            "validator_index": "108",
            "height": "2493",
            "round": "0",
            "timestamp": "2018-07-30T08:56:36.906301785Z",
            "type": 2,
            "block_id": {
              "hash": "05ACF89F3B1771F434841468E89FB693E00DD788",
              "parts": {
                "total": "1",
                "hash": "8EFD982FED783DC637CC304BF961BA04C646DED2"
              }
            },
            "signature": {
              "type": "tendermint/SignatureEd25519",
              "value": "+Cb7ciGsxOql8GXeC2S6FeAFnwrS/wTT36pouN5GhpPx5ju+wvwQpmQPRpiFvykibP3jJz/rAGKPDBYvwtjKBA=="
            }
          },
          {
            "validator_address": "F23FF36BD5B90C33CE3A03ED72DBDCF5EC07D6AF",
            "validator_index": "109",
            "height": "2493",
            "round": "0",
            "timestamp": "2018-07-30T08:56:36.892766014Z",
            "type": 2,
            "block_id": {
              "hash": "05ACF89F3B1771F434841468E89FB693E00DD788",
              "parts": {
                "total": "1",
                "hash": "8EFD982FED783DC637CC304BF961BA04C646DED2"
              }
            },
            "signature": {
              "type": "tendermint/SignatureEd25519",
              "value": "5vDm1ocm3g9xOAHYaoO1qkxetiXWrcIuVgyVlSMKKD6fZL333lJpAU4n3sOou+ChahmDYZ2yYYm5824DgdwiBg=="
            }
          },
          {
            "validator_address": "F4268597DE93E3E2CED38845010F8AA34E2A879E",
            "validator_index": "110",
            "height": "2493",
            "round": "0",
            "timestamp": "2018-07-30T08:56:36.921249484Z",
            "type": 2,
            "block_id": {
              "hash": "05ACF89F3B1771F434841468E89FB693E00DD788",
              "parts": {
                "total": "1",
                "hash": "8EFD982FED783DC637CC304BF961BA04C646DED2"
              }
            },
            "signature": {
              "type": "tendermint/SignatureEd25519",
              "value": "6t1TjfpkQmii/kqmqM915rsgKvfew2FW2QycGtYL1A2C4zVa6tYsF+45b0lQuQDuZ5kj63WJ5/f2AOCwjGvGAw=="
            }
          },
          {
            "validator_address": "F4DEB417999B04BE2EFF9FFE03FA373D86011CC0",
            "validator_index": "111",
            "height": "2493",
            "round": "0",
            "timestamp": "2018-07-30T08:56:36.868786273Z",
            "type": 2,
            "block_id": {
              "hash": "05ACF89F3B1771F434841468E89FB693E00DD788",
              "parts": {
                "total": "1",
                "hash": "8EFD982FED783DC637CC304BF961BA04C646DED2"
              }
            },
            "signature": {
              "type": "tendermint/SignatureEd25519",
              "value": "C/QGaNxKXOskuGxp2gqk4fSajvef9hcFY1DAQIEHHajaYHK42kI/P0fwZmiX5yZdyerXM2BNIYYTfhTJJkInAA=="
            }
          },
          null,
          null,
          null,
          {
            "validator_address": "FF3F3FCBCE7E62D7AD5506FF846EC4518D980515",
            "validator_index": "115",
            "height": "2493",
            "round": "0",
            "timestamp": "2018-07-30T08:56:36.790444582Z",
            "type": 2,
            "block_id": {
              "hash": "05ACF89F3B1771F434841468E89FB693E00DD788",
              "parts": {
                "total": "1",
                "hash": "8EFD982FED783DC637CC304BF961BA04C646DED2"
              }
            },
            "signature": {
              "type": "tendermint/SignatureEd25519",
              "value": "y2SHwXmWIV8v5vpzMSd1dpsaAfi4tG1HSvOfbY7WWN9Kz2cuFLlgWXftk4v9yUN8Lf3hs7Aid4Mjbo0XeWvlAA=="
            }
          }
        ]
      }
    },
    "canonical": true
  }
}