{
  "jsonrpc": "2.0",
  "id": "",
  "result": {
    "SignedHeader": {
      "header": {
        "chain_id": "gaia-7004",
        "height": "25780",
        "time": "2018-08-01T00:38:08.719380926Z",
        "num_txs": "0",
        "last_block_id": {
          "hash": "7929456C71FA9262C6CD1718089DBEC2FB60F18D",
          "parts": {
            "total": "1",
            "hash": "6983843AC4E2D80D8F7B82AD6FC6FFFEE4D6CF75"
          }
        },
        "total_txs": "712",
        "last_commit_hash": "D5602B370519B2AE760FA1B1EEFF11A16DBEC67F",
        "data_hash": "",
        "validators_hash": "BAC635A3500BEEE9DBB7F25A034B3C5DA6751E38",
        "consensus_hash": "D6B74BB35BDFFD8392340F2A379173548AE188FE",
        "app_hash": "E22DA0B95EAF563FA2A12CD22977B45CBA826CE5",
        "last_results_hash": "",
        "evidence_hash": ""
      },
      "commit": {
        "block_id": {
          "hash": "8569EBA2E95F1A2C1739A366E713CF6551F3A4E0",
          "parts": {
            "total": "1",
            "hash": "789D6906F06571995102CA28A2FB5CBCE5E8BB6E"
          }
        },
        "precommits": [
          {
            "validator_address": "029359C0C768096273A68ABC902A6B17AC8D1D70",
            "validator_index": "0",
            "height": "25780",
            "round": "1",
            "timestamp": "2018-08-01T00:38:09.532698348Z",
            "type": 2,
            "block_id": {
              "hash": "8569EBA2E95F1A2C1739A366E713CF6551F3A4E0",
              "parts": {
                "total": "1",
                "hash": "789D6906F06571995102CA28A2FB5CBCE5E8BB6E"
              }
            },
            "signature": {
              "type": "tendermint/SignatureEd25519",
              "value": "Y9R1YL3rYUzf8ddJyKFoLbDOjYy0vMgGm3AFmm5CBYhXLc5/YqiRJcP7sN5gZfZ8JoK3G2WUG370K3uRrhKTAQ=="
            }
          },
          {
            "validator_address": "02FE4B97A8387F39D1AC19E0C1702B3CC614812F",
            "validator_index": "1",
            "height": "25780",
            "round": "1",
            "timestamp": "2018-08-01T00:38:09.544145673Z",
            "type": 2,
            "block_id": {
              "hash": "8569EBA2E95F1A2C1739A366E713CF6551F3A4E0",
              "parts": {
                "total": "1",
                "hash": "789D6906F06571995102CA28A2FB5CBCE5E8BB6E"
              }
            },
            "signature": {
              "type": "tendermint/SignatureEd25519",
              "value": "rAGz0/Yc/l3cySGN3+USPGHuP5mYWL8OXKEvqBPMy2kw53k9mh/qRbTz8q7A4erVVG+MY3ellPvYzuEcWBjcBA=="
            }
          },
          {
            "validator_address": "0548261C50222FD710EB5EBDF03A0E6567B21D20",
            "validator_index": "2",
            "height": "25780",
            "round": "1",
            "timestamp": "2018-08-01T00:38:09.557106647Z",
            "type": 2,
            "block_id": {
              "hash": "8569EBA2E95F1A2C1739A366E713CF6551F3A4E0",
              "parts": {
                "total": "1",
                "hash": "789D6906F06571995102CA28A2FB5CBCE5E8BB6E"
              }
            },
            "signature": {
              "type": "tendermint/SignatureEd25519",
              "value": "5I0mcySV44S69/O+XPCKlYQfh3ZA/GaHFenkKwxKmhklaIPR6Oa/xPQhqtPwuAhT+61IUOOFanUMcGKuFmcoCw=="
            }
          },
          {
            "validator_address": "09145E611CC27EEB944FC5A956DDF710F943B9EF",
            "validator_index": "3",
            "height": "25780",
            "round": "1",
            "timestamp": "2018-08-01T00:38:09.604518616Z",
            "type": 2,
            "block_id": {
              "hash": "8569EBA2E95F1A2C1739A366E713CF6551F3A4E0",
              "parts": {
                "total": "1",
                "hash": "789D6906F06571995102CA28A2FB5CBCE5E8BB6E"
              }
            },
            "signature": {
              "type": "tendermint/SignatureEd25519",
              "value": "hGnz8HT13PLt1D7xclKkMInnATfwjyU1X+lGJPRzOk+RCiJwvsexsjsKfZtgurlcwEHN8L2KEAVsrjD6AeLKBg=="
            }
          },
          {
            "validator_address": "0989D0355A104B67AE0AE028C68FB610690E174B",
            "validator_index": "4",
            "height": "25780",
            "round": "1",
            "timestamp": "2018-08-01T00:38:09.53461827Z",
            "type": 2,
            "block_id": {
              "hash": "8569EBA2E95F1A2C1739A366E713CF6551F3A4E0",
              "parts": {
                "total": "1",
                "hash": "789D6906F06571995102CA28A2FB5CBCE5E8BB6E"
              }
            },
            "signature": {
              "type": "tendermint/SignatureEd25519",
              "value": "vQJPHV5J90IihAKCFXC5SRGlrX0DnfRZ588lWtgG3affMtivAhe2gn20r/MRo7rLk+j5gJAGeTukSbl5Nth7AA=="
            }
          },
          {
            "validator_address": "0A692DBFFE9E5DD28E7DECC33CED1AEB4C0D014E",
            "validator_index": "5",
            "height": "25780",
            "round": "1",
            "timestamp": "2018-08-01T00:38:09.551161962Z",
            "type": 2,
            "block_id": {
              "hash": "8569EBA2E95F1A2C1739A366E713CF6551F3A4E0",
              "parts": {
                "total": "1",
                "hash": "789D6906F06571995102CA28A2FB5CBCE5E8BB6E"
              }
            },
            "signature": {
              "type": "tendermint/SignatureEd25519",
              "value": "8z2/rCnJ2917+2ez+1TblDku1kB/E5P9whd7P/P4VAyyxurNOefEfMwEbAy43ZLiznUlZ/OKQpTSr7sALRdlAQ=="
            }
          },
          {
            "validator_address": "0DDF97111D73DB825138EC15EC27DE5FE8536901",
            "validator_index": "6",
            "height": "25780",
            "round": "1",
            "timestamp": "2018-08-01T00:38:09.563706811Z",
            "type": 2,
            "block_id": {
              "hash": "8569EBA2E95F1A2C1739A366E713CF6551F3A4E0",
              "parts": {
                "total": "1",
                "hash": "789D6906F06571995102CA28A2FB5CBCE5E8BB6E"
              }
            },
            "signature": {
              "type": "tendermint/SignatureEd25519",
              "value": "KOBJ8FoWVMnrsF5gRtITNH7szFMTFOOxmiriLrKcrFq+aGqR1AaxCvyryvVzQA44UskoRDGFptm5R+Xvcew4DA=="
            }
          },
          {
            "validator_address": "1751786EFC085D5331C61168FFFC8202EA151B4E",
            "validator_index": "7",
            "height": "25780",
            "round": "1",
            "timestamp": "2018-08-01T00:38:09.135763788Z",
            "type": 2,
            "block_id": {
              "hash": "8569EBA2E95F1A2C1739A366E713CF6551F3A4E0",
              "parts": {
                "total": "1",
                "hash": "789D6906F06571995102CA28A2FB5CBCE5E8BB6E"
              }
            },
            "signature": {
              "type": "tendermint/SignatureEd25519",
              "value": "XAWVoE8j1NRanE3t5iU1Xucd8bBt0RKWaHalq2ZpX5gA9+FoIOVD/wbfdaR6iWQuRCvfYvmxyM1QYKlyLVYTAg=="
            }
          },
          {
            "validator_address": "17BB5CD01E8940FAFB948A04D5FA5A0645E5822E",
            "validator_index": "8",
            "height": "25780",
            "round": "1",
            "timestamp": "2018-08-01T00:38:09.535533248Z",
            "type": 2,
            "block_id": {
              "hash": "8569EBA2E95F1A2C1739A366E713CF6551F3A4E0",
              "parts": {
                "total": "1",
                "hash": "789D6906F06571995102CA28A2FB5CBCE5E8BB6E"
              }
            },
            "signature": {
              "type": "tendermint/SignatureEd25519",
              "value": "UxAht4qzbCxQEnlm8OGxii7ENOSYro2PKWb4ldBpk3B9nTUxMCTTrh+hcgWLD6xfYa4W8McnTT1C0XDyctstAw=="
            }
          },
          {
            "validator_address": "1C683A87904BC38F05004FE83301A3A3E35447EB",
            "validator_index": "9",
            "height": "25780",
            "round": "1",
            "timestamp": "2018-08-01T00:38:09.497463089Z",
            "type": 2,
            "block_id": {
              "hash": "8569EBA2E95F1A2C1739A366E713CF6551F3A4E0",
              "parts": {
                "total": "1",
                "hash": "789D6906F06571995102CA28A2FB5CBCE5E8BB6E"
              }
            },
            "signature": {
              "type": "tendermint/SignatureEd25519",
              "value": "V7nkplDaNMbMMJVo+DBWuK/LeluF642/noqyo8kxVSmHaoF6WvirqIli087qRtf9hfe2CDoO0SbA/ft+5J+ICg=="
            }
          },
          {
            "validator_address": "1E9CE94FD0BA5CFEB901F90BC658D64D85B134D2",
            "validator_index": "10",
            "height": "25780",
            "round": "1",
            "timestamp": "2018-08-01T00:38:09.562433012Z",
            "type": 2,
            "block_id": {
              "hash": "8569EBA2E95F1A2C1739A366E713CF6551F3A4E0",
              "parts": {
                "total": "1",
                "hash": "789D6906F06571995102CA28A2FB5CBCE5E8BB6E"
              }
            },
            "signature": {
              "type": "tendermint/SignatureEd25519",
              "value": "P8l8j/SEVZ8vUDP75JaqeEcka/WEBHYGx8xDgkWv6tliSL9wqgUEfwt4vquBPiNa3l1qr4fPGFMQHi2WchG+Cg=="
            }
          },
          null,
          {
            "validator_address": "1F3A68CAAD483768AA2BF667DEF10F7104C89928",
            "validator_index": "12",
            "height": "25780",
            "round": "1",
            "timestamp": "2018-08-01T00:38:09.528121561Z",
            "type": 2,
            "block_id": {
              "hash": "8569EBA2E95F1A2C1739A366E713CF6551F3A4E0",
              "parts": {
                "total": "1",
                "hash": "789D6906F06571995102CA28A2FB5CBCE5E8BB6E"
              }
            },
            "signature": {
              "type": "tendermint/SignatureEd25519",
              "value": "UiygbreikFqQgb1zVmzHFUx9YsrWxKAuHdXlCmnwcabpBpRC90qgr/4c3If0+B2ilRvuoIo5v0bu6cBKQ9SRDA=="
            }
          },
          {
            "validator_address": "23897586D68E2AC1C78E0EF5BB5DF5C8EAB18F50",
            "validator_index": "13",
            "height": "25780",
            "round": "1",
            "timestamp": "2018-08-01T00:38:09.532749871Z",
            "type": 2,
            "block_id": {
              "hash": "8569EBA2E95F1A2C1739A366E713CF6551F3A4E0",
              "parts": {
                "total": "1",
                "hash": "789D6906F06571995102CA28A2FB5CBCE5E8BB6E"
              }
            },
            "signature": {
              "type": "tendermint/SignatureEd25519",
              "value": "wg0WEUUqUx74YDANuzQXm94i0PLLjxY/JNALyEfN7DtAFqaJFlYp4jb1MWI2sHNT0v3AIQiRmtZVg3vsn+SrCA=="
            }
          },
          {
            "validator_address": "28770D17E8530825E7310A0659308654B7EC9682",
            "validator_index": "14",
            "height": "25780",
            "round": "1",
            "timestamp": "2018-08-01T00:38:09.501230962Z",
            "type": 2,
            "block_id": {
              "hash": "8569EBA2E95F1A2C1739A366E713CF6551F3A4E0",
              "parts": {
                "total": "1",
                "hash": "789D6906F06571995102CA28A2FB5CBCE5E8BB6E"
              }
            },
            "signature": {
              "type": "tendermint/SignatureEd25519",
              "value": "ZNlQXDneNq/E/60Y/LNZexKnTcq4htW/5miAg11LP+khz3JF03N+De5ASQgeUhMX2tspM9yG//bQIv9kgCFIDQ=="
            }
          },
          {
            "validator_address": "2A92EC3C642140202298D0E245095E0ECFC25228",
            "validator_index": "15",
            "height": "25780",
            "round": "1",
            "timestamp": "2018-08-01T00:38:09.680273978Z",
            "type": 2,
            "block_id": {
              "hash": "8569EBA2E95F1A2C1739A366E713CF6551F3A4E0",
              "parts": {
                "total": "1",
                "hash": "789D6906F06571995102CA28A2FB5CBCE5E8BB6E"
              }
            },
            "signature": {
              "type": "tendermint/SignatureEd25519",
              "value": "cUCpLGAMG5+H6gX9HpUBF9pRjrjgSbo/AVIypmOGNeNdqwrqTRYrLaLnXMCnMowQQfbD6h089QuVpPgwEREbBA=="
            }
          },
          {
            "validator_address": "33412C9A69C60CB0FAA24A5C5B3A906DE24B47C2",
            "validator_index": "16",
            "height": "25780",
            "round": "1",
            "timestamp": "2018-08-01T00:38:09.514679656Z",
            "type": 2,
            "block_id": {
              "hash": "8569EBA2E95F1A2C1739A366E713CF6551F3A4E0",
              "parts": {
                "total": "1",
                "hash": "789D6906F06571995102CA28A2FB5CBCE5E8BB6E"
              }
            },
            "signature": {
              "type": "tendermint/SignatureEd25519",
              "value": "r73FqdUEK/GyGo4WyivPDa2r7qX3Is2EZvtvSo0Bb8n/6wr7pBfLLttM5r5KISh0hr+ERY7gD+JGZp1kPG1CBg=="
            }
          },
          {
            "validator_address": "3383EF2A13B160C41947AC30434B274B2FAF0617",
            "validator_index": "17",
            "height": "25780",
            "round": "1",
            "timestamp": "2018-08-01T00:38:09.517037927Z",
            "type": 2,
            "block_id": {
              "hash": "8569EBA2E95F1A2C1739A366E713CF6551F3A4E0",
              "parts": {
                "total": "1",
                "hash": "789D6906F06571995102CA28A2FB5CBCE5E8BB6E"
              }
            },
            "signature": {
              "type": "tendermint/SignatureEd25519",
              "value": "GsmgQ29gwEwF0PpG8tnamBQOjR6aqZOTk+NumTnlC2QrTxsiGSOO5pW3Bigv+9aLxvEVYI7m+pFr/XoqRDF5DA=="
            }
          },
          {
            "validator_address": "36E9B7FAEC964F97D84C028ED62493E373AD0B38",
            "validator_index": "18",
            "height": "25780",
            "round": "1",
            "timestamp": "2018-08-01T00:38:09.629278216Z",
            "type": 2,
            "block_id": {
              "hash": "8569EBA2E95F1A2C1739A366E713CF6551F3A4E0",
              "parts": {
                "total": "1",
                "hash": "789D6906F06571995102CA28A2FB5CBCE5E8BB6E"
              }
            },
            "signature": {
              "type": "tendermint/SignatureEd25519",
              "value": "1LBgi2IfFJTzH1Yui2EBdLJkjbN3FceT0vFL8l0QEHu+b7Zd4jIIJXccCXVabNFSFFpdot3xmmrEkHOCsVWaDA=="
            }
          },
          {
            "validator_address": "38A8D85D36BEA2E5FCF8A1E778F53628E450EF13",
            "validator_index": "19",
            "height": "25780",
            "round": "1",
            "timestamp": "2018-08-01T00:38:09.645408244Z",
            "type": 2,
            "block_id": {
              "hash": "8569EBA2E95F1A2C1739A366E713CF6551F3A4E0",
              "parts": {
                "total": "1",
                "hash": "789D6906F06571995102CA28A2FB5CBCE5E8BB6E"
              }
            },
            "signature": {
              "type": "tendermint/SignatureEd25519",
              "value": "7I9JwIoERTL/ZCM78WWzwf41fiMPgfpCWkWcxIXgy2xdX/NNv7gzJAGh7cvkt+B8Eu9/2w1n91HjgqfDeA+oCQ=="
            }
          },
          {
            "validator_address": "39DFDA0C5DB84B269642188B23253508537798E6",
            "validator_index": "20",
            "height": "25780",
            "round": "1",
            "timestamp": "2018-08-01T00:38:09.479516509Z",
            "type": 2,
            "block_id": {
              "hash": "8569EBA2E95F1A2C1739A366E713CF6551F3A4E0",
              "parts": {
                "total": "1",
                "hash": "789D6906F06571995102CA28A2FB5CBCE5E8BB6E"
              }
            },
            "signature": {
              "type": "tendermint/SignatureEd25519",
              "value": "x/s554SZ/w1mYJgEtBrYAS+IuvW03jxfZha0xOsMPprA47VMhOjCp7eusjHFJhmhBe1dimfiVCGfYiff8JAsAw=="
            }
          },
          {
            "validator_address": "3AC99B708404452366E0953A4BE849226DC86CBC",
            "validator_index": "21",
            "height": "25780",
            "round": "1",
            "timestamp": "2018-08-01T00:38:09.577947577Z",
            "type": 2,
            "block_id": {
              "hash": "8569EBA2E95F1A2C1739A366E713CF6551F3A4E0",
              "parts": {
                "total": "1",
                "hash": "789D6906F06571995102CA28A2FB5CBCE5E8BB6E"
              }
            },
            "signature": {
              "type": "tendermint/SignatureEd25519",
              "value": "oBu8oeVRzr1auiubitq5OA9NudGV86R2QYZbc3dnsjdtwODeuV0OK4Jy/JIa6irh16bZwwOWBAvXP4MNJP3sDg=="
            }
          },
          {
            "validator_address": "3DCB822A10ED319EC7C4393D8E3FD4A41B15AAF2",
            "validator_index": "22",
            "height": "25780",
            "round": "1",
            "timestamp": "2018-08-01T00:38:09.548383702Z",
            "type": 2,
            "block_id": {
              "hash": "8569EBA2E95F1A2C1739A366E713CF6551F3A4E0",
              "parts": {
                "total": "1",
                "hash": "789D6906F06571995102CA28A2FB5CBCE5E8BB6E"
              }
            },
            "signature": {
              "type": "tendermint/SignatureEd25519",
              "value": "wwmit2CQ8Td9oziH8q5hdBYGwyTs3Q8KKSJ+ozlTMi/sAKb8V+sCTl6Tn+Cxcvf1ry1sbFObZr6R/zPEjOFmCA=="
            }
          },
          {
            "validator_address": "3E899BA36A93C7370347BD5FE85909F2ECD93F8C",
            "validator_index": "23",
            "height": "25780",
            "round": "1",
            "timestamp": "2018-08-01T00:38:09.513143474Z",
            "type": 2,
            "block_id": {
              "hash": "8569EBA2E95F1A2C1739A366E713CF6551F3A4E0",
              "parts": {
                "total": "1",
                "hash": "789D6906F06571995102CA28A2FB5CBCE5E8BB6E"
              }
            },
            "signature": {
              "type": "tendermint/SignatureEd25519",
              "value": "OY/D4CtG2kplVKIA6PXaNvKtloHyYEcFWBoHUY7oVJlJqlUn/RKq7Zm+jzqYgALs3tOnRuQwmbAu4ib2m8aLAQ=="
            }
          },
          {
            "validator_address": "41CAB2E29E7D0F2282E3275938F188FF9386B84C",
            "validator_index": "24",
            "height": "25780",
            "round": "1",
            "timestamp": "2018-08-01T00:38:09.631432827Z",
            "type": 2,
            "block_id": {
              "hash": "8569EBA2E95F1A2C1739A366E713CF6551F3A4E0",
              "parts": {
                "total": "1",
                "hash": "789D6906F06571995102CA28A2FB5CBCE5E8BB6E"
              }
            },
            "signature": {
              "type": "tendermint/SignatureEd25519",
              "value": "V4xaCvrLI4MmJO9PLZGD2/ytb5n2VJsRwCdIwH60y7UExknDlZ/Bx4t+iFFRQRmoymNMFkiAtOZPI8LqvkX1CQ=="
            }
          },
          {
            "validator_address": "462B656869DB02A8FD1077E255F8CC7401DC37C6",
            "validator_index": "25",
            "height": "25780",
            "round": "1",
            "timestamp": "2018-08-01T00:38:09.489017986Z",
            "type": 2,
            "block_id": {
              "hash": "8569EBA2E95F1A2C1739A366E713CF6551F3A4E0",
              "parts": {
                "total": "1",
                "hash": "789D6906F06571995102CA28A2FB5CBCE5E8BB6E"
              }
            },
            "signature": {
              "type": "tendermint/SignatureEd25519",
              "value": "wPy2w8bi2Dek+/f4zDrZFT/BWE32+LQ8cwq9CVVzMCRL8iNaXjfSRnte2CtfO9YZiabdBg9cGcWsO7FCWatRCw=="
            }
          },
          {
            "validator_address": "48E5118163E5442068A1B5A42D2EEDBB75724935",
            "validator_index": "26",
            "height": "25780",
            "round": "1",
            "timestamp": "2018-08-01T00:38:09.595172499Z",
            "type": 2,
            "block_id": {
              "hash": "8569EBA2E95F1A2C1739A366E713CF6551F3A4E0",
              "parts": {
                "total": "1",
                "hash": "789D6906F06571995102CA28A2FB5CBCE5E8BB6E"
              }
            },
            "signature": {
              "type": "tendermint/SignatureEd25519",
              "value": "Cia0AKPYUZJRCgW1ApK4dlB5G13rBA5Wqx4WtrReRuCrTbG3oLccXlRDCguxsTAADOWGuKDgHiGxrCkhM1WeDQ=="
            }
          },
          {
            "validator_address": "49103C58AFD9C7C069F55EBA218F3DFD9AEA74F9",
            "validator_index": "27",
            "height": "25780",
            "round": "1",
            "timestamp": "2018-08-01T00:38:09.499821038Z",
            "type": 2,
            "block_id": {
              "hash": "8569EBA2E95F1A2C1739A366E713CF6551F3A4E0",
              "parts": {
                "total": "1",
                "hash": "789D6906F06571995102CA28A2FB5CBCE5E8BB6E"
              }
            },
            "signature": {
              "type": "tendermint/SignatureEd25519",
              "value": "8dflGHjstoKmPVCOQ+wk5rG6ojiX8pSMspF3oj3zc+t6Z1cu5NPW8nNGwOPT/COSfBNeCHg0Bk6erIXDDLALAA=="
            }
          },
          {
            "validator_address": "4944F8BBBB5303E17BC0607DF332320EDBC750EA",
            "validator_index": "28",
            "height": "25780",
            "round": "1",
            "timestamp": "2018-08-01T00:38:09.502560396Z",
            "type": 2,
            "block_id": {
              "hash": "8569EBA2E95F1A2C1739A366E713CF6551F3A4E0",
              "parts": {
                "total": "1",
                "hash": "789D6906F06571995102CA28A2FB5CBCE5E8BB6E"
              }
            },
            "signature": {
              "type": "tendermint/SignatureEd25519",
              "value": "HBUGH96bi/PKeftHHZ6jUGe4lN+HK/GZK3fn60P4f34aNWrFeJEih++TkPXFkxYc86tdOK8GM0fhj3a6S9sZCg=="
            }
          },
          {
            "validator_address": "49841599DE675157CBE1E7D6B35BF8FFC23BD5CB",
            "validator_index": "29",
            "height": "25780",
            "round": "1",
            "timestamp": "2018-08-01T00:38:09.482852138Z",
            "type": 2,
            "block_id": {
              "hash": "8569EBA2E95F1A2C1739A366E713CF6551F3A4E0",
              "parts": {
                "total": "1",
                "hash": "789D6906F06571995102CA28A2FB5CBCE5E8BB6E"
              }
            },
            "signature": {
              "type": "tendermint/SignatureEd25519",
              "value": "8Lqdw5H7Zs0w9fh2gDC6sEQMyZbvryhJs3P53hCzHXkO+BLwkJberCt7F0w3koRIEbZtH5fS963K+DA6QUPWAw=="
            }
          },
          {
            "validator_address": "51386C2CF9556821D114D7E4945806802BADB28D",
            "validator_index": "30",
            "height": "25780",
            "round": "1",
            "timestamp": "2018-08-01T00:38:09.558780696Z",
            "type": 2,
            "block_id": {
              "hash": "8569EBA2E95F1A2C1739A366E713CF6551F3A4E0",
              "parts": {
                "total": "1",
                "hash": "789D6906F06571995102CA28A2FB5CBCE5E8BB6E"
              }
            },
            "signature": {
              "type": "tendermint/SignatureEd25519",
              "value": "Nu6TwdpcB6G6gmDCxhUTNoioxKLbD8rHJPd7hzZoYAGc2tMQ5Y3YD+ThfosaLCTV8+OPm6+nxIHVa6oeC0mAAQ=="
            }
          },
          {
            "validator_address": "543564ECA3AFEFADC73EE8591AAC3A96F079BC8A",
            "validator_index": "31",
            "height": "25780",
            "round": "1",
            "timestamp": "2018-08-01T00:38:09.524326947Z",
            "type": 2,
            "block_id": {
              "hash": "8569EBA2E95F1A2C1739A366E713CF6551F3A4E0",
              "parts": {
                "total": "1",
                "hash": "789D6906F06571995102CA28A2FB5CBCE5E8BB6E"
              }
            },
            "signature": {
              "type": "tendermint/SignatureEd25519",
              "value": "3fpOEHyw0keKmeuY55oktAbUAooheEqskLHP+/yovIhz7Hmow34wlcFlpOuF28ztVmTW2su+KExmRX5LO7wDBg=="
            }
          },
          {
            "validator_address": "55D67B1A6DC13E96F8754A5A42EABC20F7F86664",
            "validator_index": "32",
            "height": "25780",
            "round": "1",
            "timestamp": "2018-08-01T00:38:09.503448321Z",
            "type": 2,
            "block_id": {
              "hash": "8569EBA2E95F1A2C1739A366E713CF6551F3A4E0",
              "parts": {
                "total": "1",
                "hash": "789D6906F06571995102CA28A2FB5CBCE5E8BB6E"
              }
            },
            "signature": {
              "type": "tendermint/SignatureEd25519",
              "value": "vaAN2j9gsQZKr78KnhD5vwIqsOd0kGyxlRpQr16M2BRbRl+46R/ZxadseBYDVHQ7gHrV7TqlK3X6s/SYAPLWDQ=="
            }
          },
          {
            "validator_address": "570B6A755ED339EAC56BB3390A48069F6AC9449B",
            "validator_index": "33",
            "height": "25780",
            "round": "1",
            "timestamp": "2018-08-01T00:38:14.544170748Z",
            "type": 2,
            "block_id": {
              "hash": "8569EBA2E95F1A2C1739A366E713CF6551F3A4E0",
              "parts": {
                "total": "1",
                "hash": "789D6906F06571995102CA28A2FB5CBCE5E8BB6E"
              }
            },
            "signature": {
              "type": "tendermint/SignatureEd25519",
              "value": "X+NrLHh89Goc8ngC/mcvRXN2pNZU1lMBYDfvhvTMAGXSj2pJAvO7DF7ihOiyvfsXSLXLKy9rCFXYzZeNryiDDg=="
            }
          },
          {
            "validator_address": "5BDF8EA41B1835FBAD865B181A2A4B23F511B5E4",
            "validator_index": "34",
            "height": "25780",
            "round": "1",
            "timestamp": "2018-08-01T00:38:09.510311006Z",
            "type": 2,
            "block_id": {
              "hash": "8569EBA2E95F1A2C1739A366E713CF6551F3A4E0",
              "parts": {
                "total": "1",
                "hash": "789D6906F06571995102CA28A2FB5CBCE5E8BB6E"
              }
            },
            "signature": {
              "type": "tendermint/SignatureEd25519",
              "value": "nTG4SYh0oLJAajwSSMX92Vmt6ZVvY/74n2SNBshYfeuzeIzpP3ugGbMg3vytoRhDstYbn9FeFouRCxaxmXuJBg=="
            }
          },
          {
            "validator_address": "60229E2E273297FE00219E46DFFB8F76844CDEF9",
            "validator_index": "35",
            "height": "25780",
            "round": "1",
            "timestamp": "2018-08-01T00:38:08.021246494Z",
            "type": 2,
            "block_id": {
              "hash": "8569EBA2E95F1A2C1739A366E713CF6551F3A4E0",
              "parts": {
                "total": "1",
                "hash": "789D6906F06571995102CA28A2FB5CBCE5E8BB6E"
              }
            },
            "signature": {
              "type": "tendermint/SignatureEd25519",
              "value": "8hFCABWcAUl0YJsDBsgGeel5yZzta/TKnFsNUW/r29pTVP5WnSFBdambCVQA/aJlKd5gibFFO/CPczQqtbCQDw=="
            }
          },
          {
            "validator_address": "62410D6D1CD98278136E4D0738AA0EA273CDFC54",
            "validator_index": "36",
            "height": "25780",
            "round": "1",
            "timestamp": "2018-08-01T00:38:09.468459665Z",
            "type": 2,
            "block_id": {
              "hash": "8569EBA2E95F1A2C1739A366E713CF6551F3A4E0",
              "parts": {
                "total": "1",
                "hash": "789D6906F06571995102CA28A2FB5CBCE5E8BB6E"
              }
            },
            "signature": {
              "type": "tendermint/SignatureEd25519",
              "value": "gwjwv70Z2UgALQRnf7sKcxb8quVAXxwZy4ftdJ8RZqzWwSJfcsnqoOfqj+MwaeK0n1U8TT8Hh9n52E+3JkKsAw=="
            }
          },
          {
            "validator_address": "632F5C139A5A9DFBFE5111DEE29FCFB6157207DC",
            "validator_index": "37",
            "height": "25780",
            "round": "1",
            "timestamp": "2018-08-01T00:38:09.536404612Z",
            "type": 2,
            "block_id": {
              "hash": "8569EBA2E95F1A2C1739A366E713CF6551F3A4E0",
              "parts": {
                "total": "1",
                "hash": "789D6906F06571995102CA28A2FB5CBCE5E8BB6E"
              }
            },
            "signature": {
              "type": "tendermint/SignatureEd25519",
              "value": "9k0nj9Vq43yni5OvVKssl9GR7unKoKvSmt5qDkYucQcIKH5nOLBuaMKk+WFphtFHYSrWBERsXPuZDWGQNPBsAg=="
            }
          },
          {
            "validator_address": "64F57F8E796A9B7B590C1EFA4123988C86631D39",
            "validator_index": "38",
            "height": "25780",
            "round": "1",
            "timestamp": "2018-08-01T00:38:09.454009217Z",
            "type": 2,
            "block_id": {
              "hash": "8569EBA2E95F1A2C1739A366E713CF6551F3A4E0",
              "parts": {
                "total": "1",
                "hash": "789D6906F06571995102CA28A2FB5CBCE5E8BB6E"
              }
            },
            "signature": {
              "type": "tendermint/SignatureEd25519",
              "value": "iTJ5+CjGys4bZtotv7TXRRgWe1BVN6gAVpYbTctrWEm6DBFeuAZsdy7jmP2d24bkIwLeUGFjia+R4F6KcTuKDg=="
            }
          },
          {
            "validator_address": "69D99B2C66043ACBEAA8447525C356AFC6408E0C",
            "validator_index": "39",
            "height": "25780",
            "round": "1",
            "timestamp": "2018-08-01T00:38:09.571894522Z",
            "type": 2,
            "block_id": {
              "hash": "8569EBA2E95F1A2C1739A366E713CF6551F3A4E0",
              "parts": {
                "total": "1",
                "hash": "789D6906F06571995102CA28A2FB5CBCE5E8BB6E"
              }
            },
            "signature": {
              "type": "tendermint/SignatureEd25519",
              "value": "0lUr4SsyE8BaIWu74OTsyXdhg6Z8k331fxtOWinnguw89DusqAjw8WSjyJZFIHxealJX7McLSA4Y69rwKKSpDg=="
            }
          },
          {
            "validator_address": "69EDADFA4A803E9DBF548C900D4A465E7D154262",
            "validator_index": "40",
            "height": "25780",
            "round": "1",
            "timestamp": "2018-08-01T00:38:09.664984298Z",
            "type": 2,
            "block_id": {
              "hash": "8569EBA2E95F1A2C1739A366E713CF6551F3A4E0",
              "parts": {
                "total": "1",
                "hash": "789D6906F06571995102CA28A2FB5CBCE5E8BB6E"
              }
            },
            "signature": {
              "type": "tendermint/SignatureEd25519",
              "value": "LbI/qw23HH1IG/tl0pl/aDGDvVqWet5P59gA2YkxLmZk4F6GK1SsNgclC5FumxFnyYpjwfbDeYWQGQiC2nFEAg=="
            }
          },
          {
            "validator_address": "6D3AD380E398D8592B03AA124BAFED5F125DF863",
            "validator_index": "41",
            "height": "25780",
            "round": "1",
            "timestamp": "2018-08-01T00:37:07.485457812Z",
            "type": 2,
            "block_id": {
              "hash": "8569EBA2E95F1A2C1739A366E713CF6551F3A4E0",
              "parts": {
                "total": "1",
                "hash": "789D6906F06571995102CA28A2FB5CBCE5E8BB6E"
              }
            },
            "signature": {
              "type": "tendermint/SignatureEd25519",
              "value": "MozBTswb1ugAv7GeTy2xYXVklQNOPJovux64WKfZ/geHglGcaLwHGxtDCVloHRTGhsBnuWHvsljOGnmnYzXODA=="
            }
          },
          {
            "validator_address": "6F6C93B8BF3495063FEC9B5C771158607F4AE9D6",
            "validator_index": "42",
            "height": "25780",
            "round": "1",
            "timestamp": "2018-08-01T00:38:09.658305475Z",
            "type": 2,
            "block_id": {
              "hash": "8569EBA2E95F1A2C1739A366E713CF6551F3A4E0",
              "parts": {
                "total": "1",
                "hash": "789D6906F06571995102CA28A2FB5CBCE5E8BB6E"
              }
            },
            "signature": {
              "type": "tendermint/SignatureEd25519",
              "value": "hq1NyZPP1S9Qg3EtQ0lQfyDQuqt+p5jA1foM354+BSD5CQuNti80sgDWBj8L6Y9wEEFL+sfgqE6oD7jLfd7GAg=="
            }
          },
          {
            "validator_address": "732CEEF54C374DDC6ADECBFD707AEFD07FEDC143",
            "validator_index": "43",
            "height": "25780",
            "round": "1",
            "timestamp": "2018-08-01T00:38:09.610333779Z",
            "type": 2,
            "block_id": {
              "hash": "8569EBA2E95F1A2C1739A366E713CF6551F3A4E0",
              "parts": {
                "total": "1",
                "hash": "789D6906F06571995102CA28A2FB5CBCE5E8BB6E"
              }
            },
            "signature": {
              "type": "tendermint/SignatureEd25519",
              "value": "s48BIafwq4B8Ga/xMC2DPdSfzYeua/0ZcrZQB6ogymrOj9qlmW/4m73m8/c7dwpmJMaKkx63C7DnAHDcYltABg=="
            }
          },
          {
            "validator_address": "7393D691BFAE9661918C09932D4D9060AB40939B",
            "validator_index": "44",
            "height": "25780",
            "round": "1",
            "timestamp": "2018-08-01T00:38:09.663658589Z",
            "type": 2,
            "block_id": {
              "hash": "8569EBA2E95F1A2C1739A366E713CF6551F3A4E0",
              "parts": {
                "total": "1",
                "hash": "789D6906F06571995102CA28A2FB5CBCE5E8BB6E"
              }
            },
            "signature": {
              "type": "tendermint/SignatureEd25519",
              "value": "XlNWO2ntWlF+wczv237Fr57M9mps0Kc1keOw+df2RnqhVtkHvrUjkxMt1IMwPNGujRkeYclYESmYLjOrmLoDBw=="
            }
          },
          {
            "validator_address": "751E43437224E8BB6D1569B3E2B2616B6E7F4397",
            "validator_index": "45",
            "height": "25780",
            "round": "1",
            "timestamp": "2018-08-01T00:38:09.528951209Z",
            "type": 2,
            "block_id": {
              "hash": "8569EBA2E95F1A2C1739A366E713CF6551F3A4E0",
              "parts": {
                "total": "1",
                "hash": "789D6906F06571995102CA28A2FB5CBCE5E8BB6E"
              }
            },
            "signature": {
              "type": "tendermint/SignatureEd25519",
              "value": "tZPl0owHMq00Lvndvw9E+adhYTWTfrhcwj3p74hyyohNQGBV4q820zcfYlF65CA/i9IVgikHu61lGAWVLBK6Cw=="
            }
          },
          {
            "validator_address": "7EB7593F519F1180C7E872D0494611464EDF03AE",
            "validator_index": "46",
            "height": "25780",
            "round": "1",
            "timestamp": "2018-08-01T00:38:09.672187828Z",
            "type": 2,
            "block_id": {
              "hash": "8569EBA2E95F1A2C1739A366E713CF6551F3A4E0",
              "parts": {
                "total": "1",
                "hash": "789D6906F06571995102CA28A2FB5CBCE5E8BB6E"
              }
            },
            "signature": {
              "type": "tendermint/SignatureEd25519",
              "value": "GiY+gIb63zQrMAtBTXf6zHbWXcAzDTagU97yhqwU4qRzyaL/mzAtZAZql03UNnefuliwRC2CieNjCV/WiuZOBw=="
            }
          },
          {
            "validator_address": "807CF675BA8479FC4FEC1047215DF07970040F1F",
            "validator_index": "47",
            "height": "25780",
            "round": "1",
            "timestamp": "2018-08-01T00:38:09.868821441Z",
            "type": 2,
            "block_id": {
              "hash": "8569EBA2E95F1A2C1739A366E713CF6551F3A4E0",
              "parts": {
                "total": "1",
                "hash": "789D6906F06571995102CA28A2FB5CBCE5E8BB6E"
              }
            },
            "signature": {
              "type": "tendermint/SignatureEd25519",
              "value": "Eql2HE2fBxyNBD6m9dkJwlG4TuNBoyb0uKvuDE8JWlbleKiq7miyaXk97HVSMb3yqkp1rYVB/tiVtS9qpAkwCw=="
            }
          },
          {
            "validator_address": "83AB321E012C57746689FED3A6064DF331F81007",
            "validator_index": "48",
            "height": "25780",
            "round": "1",
            "timestamp": "2018-08-01T00:38:09.517887134Z",
            "type": 2,
            "block_id": {
              "hash": "8569EBA2E95F1A2C1739A366E713CF6551F3A4E0",
              "parts": {
                "total": "1",
                "hash": "789D6906F06571995102CA28A2FB5CBCE5E8BB6E"
              }
            },
            "signature": {
              "type": "tendermint/SignatureEd25519",
              "value": "mDiCecdG0VfYMuXCKbeVPZpbP9zR0wy+8/Q6SxIjhQj9O9ZuN0mIYwhEd3qUmdoT5QPQvbLgBgL7Pj1ZPHrRDg=="
            }
          },
          {
            "validator_address": "83BB1B88D3DBB20AD845FECA07749EBD87D3754D",
            "validator_index": "49",
            "height": "25780",
            "round": "1",
            "timestamp": "2018-08-01T00:38:09.694630129Z",
            "type": 2,
            "block_id": {
              "hash": "8569EBA2E95F1A2C1739A366E713CF6551F3A4E0",
              "parts": {
                "total": "1",
                "hash": "789D6906F06571995102CA28A2FB5CBCE5E8BB6E"
              }
            },
            "signature": {
              "type": "tendermint/SignatureEd25519",
              "value": "N4SRS9daWffOdES/HVhGhfrti2m6cym75+mylJq96TF9yLbd8CegrOSRutMoi7gjrynUkjNdnmp3gfIkTEfsCQ=="
            }
          },
          {
            "validator_address": "8F06FE1FD042683C426137FBC4BBAA4288924217",
            "validator_index": "50",
            "height": "25780",
            "round": "1",
            "timestamp": "2018-08-01T00:38:09.54731098Z",
            "type": 2,
            "block_id": {
              "hash": "8569EBA2E95F1A2C1739A366E713CF6551F3A4E0",
              "parts": {
                "total": "1",
                "hash": "789D6906F06571995102CA28A2FB5CBCE5E8BB6E"
              }
            },
            "signature": {
              "type": "tendermint/SignatureEd25519",
              "value": "tcoYxmsg3SqOVZAKEzVx/EArTU0DQnbPppSqeIPyBJXz6xTPYU9LDO5RgDj+gURRKT3M6xTO5DAfCMtEvqF2BA=="
            }
          },
          {
            "validator_address": "8F45617BF45B10A3F8283DEBDB35E38C7CA43237",
            "validator_index": "51",
            "height": "25780",
            "round": "1",
            "timestamp": "2018-08-01T00:38:09.666641526Z",
            "type": 2,
            "block_id": {
              "hash": "8569EBA2E95F1A2C1739A366E713CF6551F3A4E0",
              "parts": {
                "total": "1",
                "hash": "789D6906F06571995102CA28A2FB5CBCE5E8BB6E"
              }
            },
            "signature": {
              "type": "tendermint/SignatureEd25519",
              "value": "zXw7DHRsK0Gjz5jerTgWHwHTrCjyaXWSOXMjTsapH4mM32Ry95JHY8aMtnp5qnqracAP1zFP4yFypuqjoGzaDA=="
            }
          },
          {
            "validator_address": "95980831E186F2540F6E9FB6C8E74DE2401405AC",
            "validator_index": "52",
            "height": "25780",
            "round": "1",
            "timestamp": "2018-08-01T00:38:09.539330661Z",
            "type": 2,
            "block_id": {
              "hash": "8569EBA2E95F1A2C1739A366E713CF6551F3A4E0",
              "parts": {
                "total": "1",
                "hash": "789D6906F06571995102CA28A2FB5CBCE5E8BB6E"
              }
            },
            "signature": {
              "type": "tendermint/SignatureEd25519",
              "value": "TY2E9+Sy/sDusiF2Y1GXWuuL/P0rlwRdmJ7+2DuNqxAiEb+aalsUY2tKOe0GS7X4gyqTrQ0EsANQie/ukx8LAQ=="
            }
          },
          {
            "validator_address": "95FAFBC1E0579C83D290A063020CE87C5334BD9B",
            "validator_index": "53",
            "height": "25780",
            "round": "1",
            "timestamp": "2018-08-01T00:38:09.517030167Z",
            "type": 2,
            "block_id": {
              "hash": "8569EBA2E95F1A2C1739A366E713CF6551F3A4E0",
              "parts": {
                "total": "1",
                "hash": "789D6906F06571995102CA28A2FB5CBCE5E8BB6E"
              }
            },
            "signature": {
              "type": "tendermint/SignatureEd25519",
              "value": "OwtFLXWjQam6b5bkE8Q98hibSf9bQdMQ3VEpv5IL53u0TZzfNx1YOPUMYJSIfIe9GdVMq9yTRYsyZTfm/iUnCw=="
            }
          },
          {
            "validator_address": "96BDE45EC52606CF5CB59853097871AD60680549",
            "validator_index": "54",
            "height": "25780",
            "round": "1",
            "timestamp": "2018-08-01T00:38:09.557908534Z",
            "type": 2,
            "block_id": {
              "hash": "8569EBA2E95F1A2C1739A366E713CF6551F3A4E0",
              "parts": {
                "total": "1",
                "hash": "789D6906F06571995102CA28A2FB5CBCE5E8BB6E"
              }
            },
            "signature": {
              "type": "tendermint/SignatureEd25519",
              "value": "+4/jgRU1z3qwGP8+zYzKAQ5Vw0OgZiHOeKh2jr3+4CWcBgph5UHF0gBlisTwR1spI55FdpuaqQwiWkVrUXvWCg=="
            }
          },
          {
            "validator_address": "970CD321881185BF83DB2923C321B0E75FDBB2B8",
            "validator_index": "55",
            "height": "25780",
            "round": "1",
            "timestamp": "2018-08-01T00:38:09.63655257Z",
            "type": 2,
            "block_id": {
              "hash": "8569EBA2E95F1A2C1739A366E713CF6551F3A4E0",
              "parts": {
                "total": "1",
                "hash": "789D6906F06571995102CA28A2FB5CBCE5E8BB6E"
              }
            },
            "signature": {
              "type": "tendermint/SignatureEd25519",
              "value": "Yk/TGq4xOKellBczSGLjFLpsBP9YP4R9kDOkAOWbsEodRRf+D2nDF/vtx2gbuQSwR1gfGIA7SKngv+bhJST4DA=="
            }
          },
          {
            "validator_address": "97DBB3D4B3D6C29287244864448F651DD5B07390",
            "validator_index": "56",
            "height": "25780",
            "round": "1",
            "timestamp": "2018-08-01T00:38:09.668837181Z",
            "type": 2,
            "block_id": {
              "hash": "8569EBA2E95F1A2C1739A366E713CF6551F3A4E0",
              "parts": {
                "total": "1",
                "hash": "789D6906F06571995102CA28A2FB5CBCE5E8BB6E"
              }
            },
            "signature": {
              "type": "tendermint/SignatureEd25519",
              "value": "jXeE4D/BdHj/gohyP8SJKBO+En3fQ/LK0if1PgnpoV3Hui1kNjnVTeBIzVW2JuEfUnBh9aps1cKqEALi6JaQDw=="
            }
          },
          {
            "validator_address": "9C29C9B76D27586E4D9AD2AED0E943162645E55C",
            "validator_index": "57",
            "height": "25780",
            "round": "1",
            "timestamp": "2018-08-01T00:38:09.463194044Z",
            "type": 2,
            "block_id": {
              "hash": "8569EBA2E95F1A2C1739A366E713CF6551F3A4E0",
              "parts": {
                "total": "1",
                "hash": "789D6906F06571995102CA28A2FB5CBCE5E8BB6E"
              }
            },
            "signature": {
              "type": "tendermint/SignatureEd25519",
              "value": "KLoZJdfTtFo2qPKP55WIC+keF82zS2A/0GAvLLGyKdT1pjIf88C9hqEx4PyyJrbFP4/yRv6q0ik7A5/rO9k6Ag=="
            }
          },
          {
            "validator_address": "9D93AD02FE1BD7E76B9E58D7EB461088EAD011E5",
            "validator_index": "58",
            "height": "25780",
            "round": "1",
            "timestamp": "2018-08-01T00:38:09.517674157Z",
            "type": 2,
            "block_id": {
              "hash": "8569EBA2E95F1A2C1739A366E713CF6551F3A4E0",
              "parts": {
                "total": "1",
                "hash": "789D6906F06571995102CA28A2FB5CBCE5E8BB6E"
              }
            },
            "signature": {
              "type": "tendermint/SignatureEd25519",
              "value": "buFn9FvGiwyb3n+bkd9nfI9eYPm2grWZG2FgRMDqgBRCpowM9DX5fmQ8fmJqc6RMV8qtxuVMVzNVYww+3viDDw=="
            }
          },
          {
            "validator_address": "A0A6466F4ABEA09C3B55E3709AFDE217A103209F",
            "validator_index": "59",
            "height": "25780",
            "round": "1",
            "timestamp": "2018-08-01T00:38:09.456629596Z",
            "type": 2,
            "block_id": {
              "hash": "8569EBA2E95F1A2C1739A366E713CF6551F3A4E0",
              "parts": {
                "total": "1",
                "hash": "789D6906F06571995102CA28A2FB5CBCE5E8BB6E"
              }
            },
            "signature": {
              "type": "tendermint/SignatureEd25519",
              "value": "Lfv+noynF0zq4DUnfzgkien6M3Ls3lVEgBYuVlxsARI5N7o2/eHu7ttdh9kEWMqYRN3ME+4iHU0vmnKDUSXiDg=="
            }
          },
          {
            "validator_address": "A5868971300F155020634D7BB49C7634F7AACCD3",
            "validator_index": "60",
            "height": "25780",
            "round": "1",
            "timestamp": "2018-08-01T00:38:09.477560278Z",
            "type": 2,
            "block_id": {
              "hash": "8569EBA2E95F1A2C1739A366E713CF6551F3A4E0",
              "parts": {
                "total": "1",
                "hash": "789D6906F06571995102CA28A2FB5CBCE5E8BB6E"
              }
            },
            "signature": {
              "type": "tendermint/SignatureEd25519",
              "value": "6EfYq11UvuDMQCpqtqV8jtfmy5w/Sla7TAfaGQF7ebdp4hWgGeLqkMIIBBuHvV8yJ+iigEM1EsPO28xk0XitCA=="
            }
          },
          {
            "validator_address": "A6B3A5B5D982CFD7B5FDFA15CF5A720E7AE25E7F",
            "validator_index": "61",
            "height": "25780",
            "round": "1",
            "timestamp": "2018-08-01T00:38:09.586560916Z",
            "type": 2,
            "block_id": {
              "hash": "8569EBA2E95F1A2C1739A366E713CF6551F3A4E0",
              "parts": {
                "total": "1",
                "hash": "789D6906F06571995102CA28A2FB5CBCE5E8BB6E"
              }
            },
            "signature": {
              "type": "tendermint/SignatureEd25519",
              "value": "5gHmjnY+4P2Y5xF/rZM9kIDQdUvd0nY8Ctjj/v5vUzE1xJH7QgIc8S5sGWX8T5WfRfhIBUnJx33Hlc4BOKtTAg=="
            }
          },
          {
            "validator_address": "AC96444A9083890B7C7B430DB17BF1D3EA5EED04",
            "validator_index": "62",
            "height": "25780",
            "round": "1",
            "timestamp": "2018-08-01T00:38:09.654334274Z",
            "type": 2,
            "block_id": {
              "hash": "8569EBA2E95F1A2C1739A366E713CF6551F3A4E0",
              "parts": {
                "total": "1",
                "hash": "789D6906F06571995102CA28A2FB5CBCE5E8BB6E"
              }
            },
            "signature": {
              "type": "tendermint/SignatureEd25519",
              "value": "zno8RLMXB3iuY3+ECct414jm7A1vhhlmsyg1BTuvvnQbdMn85LxweC2xmCB9TCGCp4ivhMz+X9VRjZMSvyl4Dw=="
            }
          },
          {
            "validator_address": "ACB97FDA2D940AF0709B73537C458EB988AD2893",
            "validator_index": "63",
            "height": "25780",
            "round": "1",
            "timestamp": "2018-08-01T00:38:09.512844426Z",
            "type": 2,
            "block_id": {
              "hash": "8569EBA2E95F1A2C1739A366E713CF6551F3A4E0",
              "parts": {
                "total": "1",
                "hash": "789D6906F06571995102CA28A2FB5CBCE5E8BB6E"
              }
            },
            "signature": {
              "type": "tendermint/SignatureEd25519",
              "value": "Gn5VOzYmovXoiDi2iAsnZAC85w7La7k1VDmrDWz593E9WaVlbu6W9y+OgsA9T4ENHa+DG+2D31GAamwijaEsBg=="
            }
          },
          {
            "validator_address": "B197425B3210375F211661DE02EF2AE36580EB0F",
            "validator_index": "64",
            "height": "25780",
            "round": "1",
            "timestamp": "2018-08-01T00:38:09.650410335Z",
            "type": 2,
            "block_id": {
              "hash": "8569EBA2E95F1A2C1739A366E713CF6551F3A4E0",
              "parts": {
                "total": "1",
                "hash": "789D6906F06571995102CA28A2FB5CBCE5E8BB6E"
              }
            },
            "signature": {
              "type": "tendermint/SignatureEd25519",
              "value": "2QzEbUi1uRXc0QDC9pcnE84FA2zWAn+d7bXFNo/ghXKy4K12nxv1H2snEQfDXalwX0xxT3C2EFyJtxUNz2KNCw=="
            }
          },
          {
            "validator_address": "B45E54D2D1CB5A4CCD1D49016608C18E7C56B270",
            "validator_index": "65",
            "height": "25780",
            "round": "1",
            "timestamp": "2018-08-01T00:38:09.59174271Z",
            "type": 2,
            "block_id": {
              "hash": "8569EBA2E95F1A2C1739A366E713CF6551F3A4E0",
              "parts": {
                "total": "1",
                "hash": "789D6906F06571995102CA28A2FB5CBCE5E8BB6E"
              }
            },
            "signature": {
              "type": "tendermint/SignatureEd25519",
              "value": "UfMjexurXYId7aGBSB3zu30F1NVvJ1SFwLi9ohtcZTpOlvVNDy8NfvGltyl64kqMkVbjkDBQkPK+JyQ/4VgbDw=="
            }
          },
          {
            "validator_address": "B59A34C0BE4EC73AF6A67D274F1695C9259C237C",
            "validator_index": "66",
            "height": "25780",
            "round": "1",
            "timestamp": "2018-08-01T00:38:09.670827744Z",
            "type": 2,
            "block_id": {
              "hash": "8569EBA2E95F1A2C1739A366E713CF6551F3A4E0",
              "parts": {
                "total": "1",
                "hash": "789D6906F06571995102CA28A2FB5CBCE5E8BB6E"
              }
            },
            "signature": {
              "type": "tendermint/SignatureEd25519",
              "value": "vLnuUjZ7bOoeDnc+sSWnlT1erH42cmYq5hYQKsAtYme4nxpB23rcvz7uIGJBGp7LBFdSiCrqpNMMr9FoI6uxCg=="
            }
          },
          {
            "validator_address": "BB1276BE89834835428664408917649FEEF5D90C",
            "validator_index": "67",
            "height": "25780",
            "round": "1",
            "timestamp": "2018-08-01T00:38:09.580738404Z",
            "type": 2,
            "block_id": {
              "hash": "8569EBA2E95F1A2C1739A366E713CF6551F3A4E0",
              "parts": {
                "total": "1",
                "hash": "789D6906F06571995102CA28A2FB5CBCE5E8BB6E"
              }
            },
            "signature": {
              "type": "tendermint/SignatureEd25519",
              "value": "t4J5lnSuEwjmxGvCuWEDw1T9v9NXhT5D60kf2gtldF6RjL+89loVts/zAykO73MVwuOCIwKPxS2fEKZQfYvwDA=="
            }
          },
          {
            "validator_address": "BC36FEDD6EF6071118A3E51859DF3831A2EC4782",
            "validator_index": "68",
            "height": "25780",
            "round": "1",
            "timestamp": "2018-08-01T00:38:09.537482054Z",
            "type": 2,
            "block_id": {
              "hash": "8569EBA2E95F1A2C1739A366E713CF6551F3A4E0",
              "parts": {
                "total": "1",
                "hash": "789D6906F06571995102CA28A2FB5CBCE5E8BB6E"
              }
            },
            "signature": {
              "type": "tendermint/SignatureEd25519",
              "value": "R+CucRw8gyjtH+AgtATz0ckjO2buO9CsQOU5P5qkiIGrVeJ/okINiOiOjB9PtFsjyGyXPJt/YYukywhhcJPOBQ=="
            }
          },
          {
            "validator_address": "BD9D0DA513BF099DB4BB6E725A4E19832789882F",
            "validator_index": "69",
            "height": "25780",
            "round": "1",
            "timestamp": "2018-08-01T00:38:09.538843978Z",
            "type": 2,
            "block_id": {
              "hash": "8569EBA2E95F1A2C1739A366E713CF6551F3A4E0",
              "parts": {
                "total": "1",
                "hash": "789D6906F06571995102CA28A2FB5CBCE5E8BB6E"
              }
            },
            "signature": {
              "type": "tendermint/SignatureEd25519",
              "value": "UX0opYIShfr9dqIlb25MDflZXOCVzAwLwthx3wsA4gCAaB8r7uEzeg+ZSwNyAuu4tV6QjN4gI24gz+s3Q5akAw=="
            }
          },
          {
            "validator_address": "C1134A2FF8F7338E7CDB3FE57DDD2A655DEB1E22",
            "validator_index": "70",
            "height": "25780",
            "round": "1",
            "timestamp": "2018-08-01T00:38:09.683726908Z",
            "type": 2,
            "block_id": {
              "hash": "8569EBA2E95F1A2C1739A366E713CF6551F3A4E0",
              "parts": {
                "total": "1",
                "hash": "789D6906F06571995102CA28A2FB5CBCE5E8BB6E"
              }
            },
            "signature": {
              "type": "tendermint/SignatureEd25519",
              "value": "O265ZmWckQrR8W1ajGlAbGy+5d0v4cPy9GtbUTVSFmkEH8oKt7bIS+yk8dHWDq24gbSnT7sxdqSt9Tgxz/sTDw=="
            }
          },
          {
            "validator_address": "C39A8A2B85198DCB8F23AD1F6C198E2BA7AB5D60",
            "validator_index": "71",
            "height": "25780",
            "round": "1",
            "timestamp": "2018-08-01T00:38:09.509236611Z",
            "type": 2,
            "block_id": {
              "hash": "8569EBA2E95F1A2C1739A366E713CF6551F3A4E0",
              "parts": {
                "total": "1",
                "hash": "789D6906F06571995102CA28A2FB5CBCE5E8BB6E"
              }
            },
            "signature": {
              "type": "tendermint/SignatureEd25519",
              "value": "knvwKKnW5xLoHVjF/sYLFdjcKML9iIEkYl9BXb5Oc1hrd8csNuSDuCKsgypZoNsriYhjqH4d/kziCIFNfZZ/AA=="
            }
          },
          {
            "validator_address": "C4335190C3B5BD4BA5568BC0F99C34162D940D08",
            "validator_index": "72",
            "height": "25780",
            "round": "1",
            "timestamp": "2018-08-01T00:38:09.538522949Z",
            "type": 2,
            "block_id": {
              "hash": "8569EBA2E95F1A2C1739A366E713CF6551F3A4E0",
              "parts": {
                "total": "1",
                "hash": "789D6906F06571995102CA28A2FB5CBCE5E8BB6E"
              }
            },
            "signature": {
              "type": "tendermint/SignatureEd25519",
              "value": "LKxchVyzQK4c8PAzS+7E6auhPko1Jt/TbodBtv6tOKxFv7ludYmXWwFLtKuSsnV//SNtSxJfRSmXfmVtwyG7CQ=="
            }
          },
          {
            "validator_address": "C561CFA081677046376396922E7576E5F7B316AD",
            "validator_index": "73",
            "height": "25780",
            "round": "1",
            "timestamp": "2018-08-01T00:38:09.696218804Z",
            "type": 2,
            "block_id": {
              "hash": "8569EBA2E95F1A2C1739A366E713CF6551F3A4E0",
              "parts": {
                "total": "1",
                "hash": "789D6906F06571995102CA28A2FB5CBCE5E8BB6E"
              }
            },
            "signature": {
              "type": "tendermint/SignatureEd25519",
              "value": "ftAttbL9/kT7xA7T9Zv2kzFfILC7REfezpcjPSdE6wT8UCbFj3gtddCdSJMES4zrXumoZimfJ4Ep7cwPjKhBBA=="
            }
          },
          {
            "validator_address": "CE589EA77B056D268D30D1DC1D68A70E0F885E95",
            "validator_index": "74",
            "height": "25780",
            "round": "1",
            "timestamp": "2018-08-01T00:38:09.510277689Z",
            "type": 2,
            "block_id": {
              "hash": "8569EBA2E95F1A2C1739A366E713CF6551F3A4E0",
              "parts": {
                "total": "1",
                "hash": "789D6906F06571995102CA28A2FB5CBCE5E8BB6E"
              }
            },
            "signature": {
              "type": "tendermint/SignatureEd25519",
              "value": "NXqIu9dIZEqmalqkRzuOLsJXJjAzLRQwbUPxR5zNG8pWCqVhJsX1SYzlQj37NgLRyMph7rDSFCRXYc6em8diCA=="
            }
          },
          {
            "validator_address": "CEB97DB5CB18270247ABDE6CF2F84F9AEE8A2904",
            "validator_index": "75",
            "height": "25780",
            "round": "1",
            "timestamp": "2018-08-01T00:38:09.888613579Z",
            "type": 2,
            "block_id": {
              "hash": "8569EBA2E95F1A2C1739A366E713CF6551F3A4E0",
              "parts": {
                "total": "1",
                "hash": "789D6906F06571995102CA28A2FB5CBCE5E8BB6E"
              }
            },
            "signature": {
              "type": "tendermint/SignatureEd25519",
              "value": "MpdKcKMg/M56S/Q4mAeMysgaKC9N8l56pS9LNNK4ePzf3WQf5daNMZHWJ7yZIu2HhGcpOMl54JE+cofQ1mNcAg=="
            }
          },
          {
            "validator_address": "CF205769734F5758CC39F907EFB73D6BAF915FB1",
            "validator_index": "76",
            "height": "25780",
            "round": "1",
            "timestamp": "2018-08-01T00:38:09.554719647Z",
            "type": 2,
            "block_id": {
              "hash": "8569EBA2E95F1A2C1739A366E713CF6551F3A4E0",
              "parts": {
                "total": "1",
                "hash": "789D6906F06571995102CA28A2FB5CBCE5E8BB6E"
              }
            },
            "signature": {
              "type": "tendermint/SignatureEd25519",
              "value": "LsjSsB06jp76SrdYLqi4MTgGD6odx71O12XAfvinebM6GHI6lQKpnb7gcaszWGEyPovx2JgGcaPI3Mfu8/rxDA=="
            }
          },
          null,
          {
            "validator_address": "D6285C3422C8886445D53757CBE12D2B91B5A9D0",
            "validator_index": "78",
            "height": "25780",
            "round": "1",
            "timestamp": "2018-08-01T00:37:52.335979455Z",
            "type": 2,
            "block_id": {
              "hash": "8569EBA2E95F1A2C1739A366E713CF6551F3A4E0",
              "parts": {
                "total": "1",
                "hash": "789D6906F06571995102CA28A2FB5CBCE5E8BB6E"
              }
            },
            "signature": {
              "type": "tendermint/SignatureEd25519",
              "value": "PaW2kBuHCEyK09zZYkceUlPAOYxrQgtFbS9ZTJ+6hMWxcmHmUeQcEvmmGBSXyIsQ8LiQDRM6NLPAxnA5WPNRBQ=="
            }
          },
          {
            "validator_address": "D77FB84A729972CD3E757C9BEB61561855832B92",
            "validator_index": "79",
            "height": "25780",
            "round": "1",
            "timestamp": "2018-08-01T00:38:09.623282292Z",
            "type": 2,
            "block_id": {
              "hash": "8569EBA2E95F1A2C1739A366E713CF6551F3A4E0",
              "parts": {
                "total": "1",
                "hash": "789D6906F06571995102CA28A2FB5CBCE5E8BB6E"
              }
            },
            "signature": {
              "type": "tendermint/SignatureEd25519",
              "value": "xsbfURM/IvYSUeGD2c/1lryX0c78MtcVSELynvl69jnOffpSF3l4B9qxGOcUtWJIBKxaYWrij7n3sp3P2tv0Dg=="
            }
          },
          {
            "validator_address": "DB7E6732471D3EA5C90C17A9974D9F88AB45F2FB",
            "validator_index": "80",
            "height": "25780",
            "round": "1",
            "timestamp": "2018-08-01T00:38:09.532425527Z",
            "type": 2,
            "block_id": {
              "hash": "8569EBA2E95F1A2C1739A366E713CF6551F3A4E0",
              "parts": {
                "total": "1",
                "hash": "789D6906F06571995102CA28A2FB5CBCE5E8BB6E"
              }
            },
            "signature": {
              "type": "tendermint/SignatureEd25519",
              "value": "2HSmdE+l3Mrq1uUL/iuZlYaWOGs079TNt9VYJMkfxt6o7AbzZAqit43SHoe9vveTcrGvKqAz+sav3XHDEelhAA=="
            }
          },
          {
            "validator_address": "DF54B862410BCD9B5C516FBB6C56BDC826ED6FA7",
            "validator_index": "81",
            "height": "25780",
            "round": "1",
            "timestamp": "2018-08-01T00:38:09.632543749Z",
            "type": 2,
            "block_id": {
              "hash": "8569EBA2E95F1A2C1739A366E713CF6551F3A4E0",
              "parts": {
                "total": "1",
                "hash": "789D6906F06571995102CA28A2FB5CBCE5E8BB6E"
              }
            },
            "signature": {
              "type": "tendermint/SignatureEd25519",
              "value": "Up9NA6BeUVimoRgxYjUUsrsDkAZLzUT+uSg48RF3OOr2sfDGmZaCCFhmoWU/prRdxwyDmnHj1YBokNwR32yOCw=="
            }
          },
          {
            "validator_address": "DFAF0C8B1B78D6D552B0189DE3ACA351439A1319",
            "validator_index": "82",
            "height": "25780",
            "round": "1",
            "timestamp": "2018-08-01T00:38:09.500596282Z",
            "type": 2,
            "block_id": {
              "hash": "8569EBA2E95F1A2C1739A366E713CF6551F3A4E0",
              "parts": {
                "total": "1",
                "hash": "789D6906F06571995102CA28A2FB5CBCE5E8BB6E"
              }
            },
            "signature": {
              "type": "tendermint/SignatureEd25519",
              "value": "jFMztfDSeMLT2xDi9xftCAMFNaz5t0PZ9gattOljIkn7Ab5EHPcbBt09Wv3Y5gPx5PNg0Wc+Dk2i13bn5ZbdCQ=="
            }
          },
          {
            "validator_address": "E1DBC77881161A5A3A8536A57536EAE546A75D69",
            "validator_index": "83",
            "height": "25780",
            "round": "1",
            "timestamp": "2018-08-01T00:38:09.476604597Z",
            "type": 2,
            "block_id": {
              "hash": "8569EBA2E95F1A2C1739A366E713CF6551F3A4E0",
              "parts": {
                "total": "1",
                "hash": "789D6906F06571995102CA28A2FB5CBCE5E8BB6E"
              }
            },
            "signature": {
              "type": "tendermint/SignatureEd25519",
              "value": "d61RVhdbsZJMzToNtXv4iQY+lh5fH35Qf790tzhXnn4fcg1L6rm0orW6tWIH+TJDw/ZmMnwI8Pk31VRrlrpUBw=="
            }
          },
          {
            "validator_address": "E300E9D484374C1D3E97C1D93CAC3B160A056298",
            "validator_index": "84",
            "height": "25780",
            "round": "1",
            "timestamp": "2018-08-01T00:38:09.818814806Z",
            "type": 2,
            "block_id": {
              "hash": "8569EBA2E95F1A2C1739A366E713CF6551F3A4E0",
              "parts": {
                "total": "1",
                "hash": "789D6906F06571995102CA28A2FB5CBCE5E8BB6E"
              }
            },
            "signature": {
              "type": "tendermint/SignatureEd25519",
              "value": "EJQ/jjahjcabTDM0YwxVl4StvYM9J4u6myit6BgaDa539PZ9gwYB5qkLBQtqbLw9+pdSdLZnRUH3N5e/II5PAg=="
            }
          },
          {
            "validator_address": "E39B5778E0D4297A46F45CF6940B0A163A430FF8",
            "validator_index": "85",
            "height": "25780",
            "round": "1",
            "timestamp": "2018-08-01T00:38:09.56013497Z",
            "type": 2,
            "block_id": {
              "hash": "8569EBA2E95F1A2C1739A366E713CF6551F3A4E0",
              "parts": {
                "total": "1",
                "hash": "789D6906F06571995102CA28A2FB5CBCE5E8BB6E"
              }
            },
            "signature": {
              "type": "tendermint/SignatureEd25519",
              "value": "6T8uDHl3MWCQ7lyp/GxK5lvxaU70G2g9n73JYM8utLsARNXmrLpVG45UkIv5ZwmpQ549FID3tH3hzyiw2qa5DQ=="
            }
          },
          {
            "validator_address": "E3B19738F7132F950668504D326C7660F159D170",
            "validator_index": "86",
            "height": "25780",
            "round": "1",
            "timestamp": "2018-08-01T00:38:09.485034022Z",
            "type": 2,
            "block_id": {
              "hash": "8569EBA2E95F1A2C1739A366E713CF6551F3A4E0",
              "parts": {
                "total": "1",
                "hash": "789D6906F06571995102CA28A2FB5CBCE5E8BB6E"
              }
            },
            "signature": {
              "type": "tendermint/SignatureEd25519",
              "value": "I0n/vA3RW3otuWlh1w4Tu73/jCoy7nlJIM4DtQP3+LCSZx/NJxXmbEJNMp/g+EOSizOu0mZ+h6Tt7/gU/QXbAw=="
            }
          },
          {
            "validator_address": "E42F8AEABB685219F7027F54D2B0DBC7846F633A",
            "validator_index": "87",
            "height": "25780",
            "round": "1",
            "timestamp": "2018-08-01T00:38:08.667533919Z",
            "type": 2,
            "block_id": {
              "hash": "8569EBA2E95F1A2C1739A366E713CF6551F3A4E0",
              "parts": {
                "total": "1",
                "hash": "789D6906F06571995102CA28A2FB5CBCE5E8BB6E"
              }
            },
            "signature": {
              "type": "tendermint/SignatureEd25519",
              "value": "iwMp117FlElNiSLqhJlf6+DhunSsKu+LN/3qADXfG+Fut8SyZuYZLD9G5uy+GAhVQqoYetgVHgrHBs3Gh51LDw=="
            }
          },
          {
            "validator_address": "E4E6C2E81269DFFA196C17F98240E491479A6008",
            "validator_index": "88",
            "height": "25780",
            "round": "1",
            "timestamp": "2018-08-01T00:38:09.604979449Z",
            "type": 2,
            "block_id": {
              "hash": "8569EBA2E95F1A2C1739A366E713CF6551F3A4E0",
              "parts": {
                "total": "1",
                "hash": "789D6906F06571995102CA28A2FB5CBCE5E8BB6E"
              }
            },
            "signature": {
              "type": "tendermint/SignatureEd25519",
              "value": "bI9ZGJ0jvzZe9negtzDm7ai7/YL+ZJTKr8CYEGSK+I4JXy7j1Gls3g8JHKSLelW/CI4UwFXky3V9qy/RI03SBA=="
            }
          },
          {
            "validator_address": "E4FEB2846F4F3B0ECDCBE9C9DCB2248248A5AF0F",
            "validator_index": "89",
            "height": "25780",
            "round": "1",
            "timestamp": "2018-08-01T00:38:09.836552224Z",
            "type": 2,
            "block_id": {
              "hash": "8569EBA2E95F1A2C1739A366E713CF6551F3A4E0",
              "parts": {
                "total": "1",
                "hash": "789D6906F06571995102CA28A2FB5CBCE5E8BB6E"
              }
            },
            "signature": {
              "type": "tendermint/SignatureEd25519",
              "value": "PMYyqSYYpIsEl02l0iwah44l6QwKOH4odzfBdxV900y+rAZPb7LKx5VaV/EHFF0CQmdNmnVZB30DQbifgBdCAA=="
            }
          },
          {
            "validator_address": "E6A7079D584B163750BE0831227F6B685DEAF3C1",
            "validator_index": "90",
            "height": "25780",
            "round": "1",
            "timestamp": "2018-08-01T00:38:09.58422318Z",
            "type": 2,
            "block_id": {
              "hash": "8569EBA2E95F1A2C1739A366E713CF6551F3A4E0",
              "parts": {
                "total": "1",
                "hash": "789D6906F06571995102CA28A2FB5CBCE5E8BB6E"
              }
            },
            "signature": {
              "type": "tendermint/SignatureEd25519",
              "value": "HrS9muw7q54fgVlLJkafgDXUjDpU8Ft2kqE5VGbfUuE0pHKmIxNByS5XReE8rkqWu45MBhgjJXXWN+SPc4aWBA=="
            }
          },
          {
            "validator_address": "E7A30077D5D11867D3EAF99ED45BFDC1EB834509",
            "validator_index": "91",
            "height": "25780",
            "round": "1",
            "timestamp": "2018-08-01T00:38:09.52178611Z",
            "type": 2,
            "block_id": {
              "hash": "8569EBA2E95F1A2C1739A366E713CF6551F3A4E0",
              "parts": {
                "total": "1",
                "hash": "789D6906F06571995102CA28A2FB5CBCE5E8BB6E"
              }
            },
            "signature": {
              "type": "tendermint/SignatureEd25519",
              "value": "FA5NldZRC0H01RGQx0tp9bSxCfSFZCJ1rGBB+lZfnHoLb9FOxZI62BQWCEJueh8VPSbEcL2BbeZCpOhSI9JDAw=="
            }
          },
          {
            "validator_address": "EBC613967F66F4EC306852CDF58B4F151CF16738",
            "validator_index": "92",
            "height": "25780",
            "round": "1",
            "timestamp": "2018-08-01T00:38:09.604795448Z",
            "type": 2,
            "block_id": {
              "hash": "8569EBA2E95F1A2C1739A366E713CF6551F3A4E0",
              "parts": {
                "total": "1",
                "hash": "789D6906F06571995102CA28A2FB5CBCE5E8BB6E"
              }
            },
            "signature": {
              "type": "tendermint/SignatureEd25519",
              "value": "eiLZabkOVHnSFE+87HIOzlqyLfq393GBZ2s5j4Wxfy588SgNXXHuJPBLoKLLtOiTi3IME9lkzd3QhFiclgFkAw=="
            }
          },
          {
            "validator_address": "EC3401441726C40ECC7E51F744483B05BC6DE9BD",
            "validator_index": "93",
            "height": "25780",
            "round": "1",
            "timestamp": "2018-08-01T00:38:09.567278419Z",
            "type": 2,
            "block_id": {
              "hash": "8569EBA2E95F1A2C1739A366E713CF6551F3A4E0",
              "parts": {
                "total": "1",
                "hash": "789D6906F06571995102CA28A2FB5CBCE5E8BB6E"
              }
            },
            "signature": {
              "type": "tendermint/SignatureEd25519",
              "value": "LnfhFLrzvlcmS+FXea5RRdm6naoakkGHYfl/4iqINZs/CnxKy71TMmma++lNlODhFobEM05qre92ou+hZnVnAw=="
            }
          },
          {
            "validator_address": "EC95B111D032181E1EC3B5E8875C5BB8E4AE7140",
            "validator_index": "94",
            "height": "25780",
            "round": "1",
            "timestamp": "2018-08-01T00:38:09.499759367Z",
            "type": 2,
            "block_id": {
              "hash": "8569EBA2E95F1A2C1739A366E713CF6551F3A4E0",
              "parts": {
                "total": "1",
                "hash": "789D6906F06571995102CA28A2FB5CBCE5E8BB6E"
              }
            },
            "signature": {
              "type": "tendermint/SignatureEd25519",
              "value": "uBrbQj86gdaE9BWGpqtaLgRKGNeF7Zf3QL2zymdsYTPSfn8jG1lMUTceSzXDMhOlCTSQMRBkE0cb2+KWkgj9BQ=="
            }
          },
          {
            "validator_address": "F13C1805E8131C9B47E2A46818F57D8A2841E578",
            "validator_index": "95",
            "height": "25780",
            "round": "1",
            "timestamp": "2018-08-01T00:38:09.613903912Z",
            "type": 2,
            "block_id": {
              "hash": "8569EBA2E95F1A2C1739A366E713CF6551F3A4E0",
              "parts": {
                "total": "1",
                "hash": "789D6906F06571995102CA28A2FB5CBCE5E8BB6E"
              }
            },
            "signature": {
              "type": "tendermint/SignatureEd25519",
              "value": "Kix1jG2BN5nw7DviL/bvhzYsMoUPi/zWJpB9xmlyL+kFowKqAbVR0guROpxKYsIJbB3OsxhBRvhWiseyVAWYAw=="
            }
          },
          {
            "validator_address": "F23FF36BD5B90C33CE3A03ED72DBDCF5EC07D6AF",
            "validator_index": "96",
            "height": "25780",
            "round": "1",
            "timestamp": "2018-08-01T00:38:09.59061375Z",
            "type": 2,
            "block_id": {
              "hash": "8569EBA2E95F1A2C1739A366E713CF6551F3A4E0",
              "parts": {
                "total": "1",
                "hash": "789D6906F06571995102CA28A2FB5CBCE5E8BB6E"
              }
            },
            "signature": {
              "type": "tendermint/SignatureEd25519",
              "value": "LT/VvSlei+46q55Eq18SB9DReW8r9xuRqvCVYi7xqSRTVfY6ntiW90iUF10KskWZhgd5jBlM50Jw1gdWaklnCg=="
            }
          },
          {
            "validator_address": "F4268597DE93E3E2CED38845010F8AA34E2A879E",
            "validator_index": "97",
            "height": "25780",
            "round": "1",
            "timestamp": "2018-08-01T00:38:09.613542876Z",
            "type": 2,
            "block_id": {
              "hash": "8569EBA2E95F1A2C1739A366E713CF6551F3A4E0",
              "parts": {
                "total": "1",
                "hash": "789D6906F06571995102CA28A2FB5CBCE5E8BB6E"
              }
            },
            "signature": {
              "type": "tendermint/SignatureEd25519",
              "value": "0nB222HI8h2NKG3lbS+fgJdiE8IqE+hivF9mNGPonUC03sHtXjFgNNSWe8FYY3DTX5maaa55AlKgpfA10FNlDA=="
            }
          },
          {
            "validator_address": "F4DEB417999B04BE2EFF9FFE03FA373D86011CC0",
            "validator_index": "98",
            "height": "25780",
            "round": "1",
            "timestamp": "2018-08-01T00:38:09.564473571Z",
            "type": 2,
            "block_id": {
              "hash": "8569EBA2E95F1A2C1739A366E713CF6551F3A4E0",
              "parts": {
                "total": "1",
                "hash": "789D6906F06571995102CA28A2FB5CBCE5E8BB6E"
              }
            },
            "signature": {
              "type": "tendermint/SignatureEd25519",
              "value": "UnfIPhNrK0ENTqS0N0n4Y30cYNgg/wj5G5Y886/NI8ymOTObes2gofYf21LtVYfOVf/XRz4qsTfRgkNMPfH9BQ=="
            }
          },
          {
            "validator_address": "F6738260186D33D9C14FC6E7017AFE6BB952A63D",
            "validator_index": "99",
            "height": "25780",
            "round": "1",
            "timestamp": "2018-08-01T00:38:09.533389593Z",
            "type": 2,
            "block_id": {
              "hash": "8569EBA2E95F1A2C1739A366E713CF6551F3A4E0",
              "parts": {
                "total": "1",
                "hash": "789D6906F06571995102CA28A2FB5CBCE5E8BB6E"
              }
            },
            "signature": {
              "type": "tendermint/SignatureEd25519",
              "value": "YCsDCJf3SBuWys9GjalGVvgM6mSzRdrmY2ElHSq9wW5961E0mTj9bEoRqr9fkAJxAO0q5neuqyCvMkz0Cnj/CA=="
            }
          },
          {
            "validator_address": "FF3F3FCBCE7E62D7AD5506FF846EC4518D980515",
            "validator_index": "100",
            "height": "25780",
            "round": "1",
            "timestamp": "2018-08-01T00:38:09.47112945Z",
            "type": 2,
            "block_id": {
              "hash": "8569EBA2E95F1A2C1739A366E713CF6551F3A4E0",
              "parts": {
                "total": "1",
                "hash": "789D6906F06571995102CA28A2FB5CBCE5E8BB6E"
              }
            },
            "signature": {
              "type": "tendermint/SignatureEd25519",
              "value": "jPP7lVdujdZfUgPxkNXyu6POAhBiipbuMTS2tDpnflITUNtr6aUjobYa8eJMQ6nqHyzxeMmIPTK9Jn/7/h2BBQ=="
            }
          }
        ]
      }
    },
    "canonical": true
  }
}