{
  "jsonrpc": "2.0",
  "id": "",
  "result": {
    "SignedHeader": {
      "header": {
        "chain_id": "gaia-7004",
        "height": "28177",
        "time": "2018-08-01T04:41:36.25151267Z",
        "num_txs": "0",
        "last_block_id": {
          "hash": "8B1E17B5F6FF00BA6F9B80E0F91CAB6238FF7AF3",
          "parts": {
            "total": "1",
            "hash": "CA2EC8C498B2EF02C621B726489B7787DC766325"
          }
        },
        "total_txs": "1077",
        "last_commit_hash": "D2656EEBE1899A09D83091F07F6ED80433BD31B4",
        "data_hash": "",
        "validators_hash": "6273F9DF483FB9DC83D882F4744CE50E96CB4C24",
        "consensus_hash": "D6B74BB35BDFFD8392340F2A379173548AE188FE",
        "app_hash": "AA8DF138FBDCCFC802E6AA71B2CDE01506991441",
        "last_results_hash": "",
        "evidence_hash": ""
      },
      "commit": {
        "block_id": {
          "hash": "B0EA4DD3456292B7B36CAF7C68F7ECBA1DC47289",
          "parts": {
            "total": "1",
            "hash": "0BA5B7B396019DEEDEFC762302673A9645115C32"
          }
        },
        "precommits": [
          {
            "validator_address": "029359C0C768096273A68ABC902A6B17AC8D1D70",
            "validator_index": "0",
            "height": "28177",
            "round": "0",
            "timestamp": "2018-08-01T04:41:36.956704344Z",
            "type": 2,
            "block_id": {
              "hash": "B0EA4DD3456292B7B36CAF7C68F7ECBA1DC47289",
              "parts": {
                "total": "1",
                "hash": "0BA5B7B396019DEEDEFC762302673A9645115C32"
              }
            },
            "signature": {
              "type": "tendermint/SignatureEd25519",
              "value": "1rNyxupfgWlBqPrySMVY2ZBGR1A28SoHv8XQTu4IkAMZKdsGGPhTpo0F/O9KNkTCUMPyzTtz64WcKfjxsVj4Bw=="
            }
          },
          {
            "validator_address": "02FE4B97A8387F39D1AC19E0C1702B3CC614812F",
            "validator_index": "1",
            "height": "28177",
            "round": "0",
            "timestamp": "2018-08-01T04:41:36.937512905Z",
            "type": 2,
            "block_id": {
              "hash": "B0EA4DD3456292B7B36CAF7C68F7ECBA1DC47289",
              "parts": {
                "total": "1",
                "hash": "0BA5B7B396019DEEDEFC762302673A9645115C32"
              }
            },
            "signature": {
              "type": "tendermint/SignatureEd25519",
              "value": "2ooy+y+l3Z0LmqlApwR8pRGtW96mDrPxTTgJ5GfmayebH9ur27NVQxjunCT7cPoaEizHZZBXKTbLUAZ1ic1zBg=="
            }
          },
          {
            "validator_address": "0548261C50222FD710EB5EBDF03A0E6567B21D20",
            "validator_index": "2",
            "height": "28177",
            "round": "0",
            "timestamp": "2018-08-01T04:41:37.069936Z",
            "type": 2,
            "block_id": {
              "hash": "B0EA4DD3456292B7B36CAF7C68F7ECBA1DC47289",
              "parts": {
                "total": "1",
                "hash": "0BA5B7B396019DEEDEFC762302673A9645115C32"
              }
            },
            "signature": {
              "type": "tendermint/SignatureEd25519",
              "value": "eKINkYtXZaGqvlC21K+CVExiexmH9IUIQWkbxazsF6DxrjUgLw41RTeA2jnuyUYHu/NunJozuTpy7QWb4GnYCw=="
            }
          },
          {
            "validator_address": "09145E611CC27EEB944FC5A956DDF710F943B9EF",
            "validator_index": "3",
            "height": "28177",
            "round": "0",
            "timestamp": "2018-08-01T04:41:36.979220868Z",
            "type": 2,
            "block_id": {
              "hash": "B0EA4DD3456292B7B36CAF7C68F7ECBA1DC47289",
              "parts": {
                "total": "1",
                "hash": "0BA5B7B396019DEEDEFC762302673A9645115C32"
              }
            },
            "signature": {
              "type": "tendermint/SignatureEd25519",
              "value": "C0+aNL4I2L2bhwGf4s/XDHolIX7q+csrD5w5ZoS34umigmRSLYnHBKYSWNpFEc6cebUHhyrsQubwd8Mry9I5DA=="
            }
          },
          {
            "validator_address": "0989D0355A104B67AE0AE028C68FB610690E174B",
            "validator_index": "4",
            "height": "28177",
            "round": "0",
            "timestamp": "2018-08-01T04:41:36.977705793Z",
            "type": 2,
            "block_id": {
              "hash": "B0EA4DD3456292B7B36CAF7C68F7ECBA1DC47289",
              "parts": {
                "total": "1",
                "hash": "0BA5B7B396019DEEDEFC762302673A9645115C32"
              }
            },
            "signature": {
              "type": "tendermint/SignatureEd25519",
              "value": "SiTYH3e1Aj9qqaneIVfDYoZFR0pY23+DHljGtNYfpw4Zu7VePgOLrAg2DZfBGgDTyVDmtuzslszEmH4/4GzBCA=="
            }
          },
          {
            "validator_address": "0A692DBFFE9E5DD28E7DECC33CED1AEB4C0D014E",
            "validator_index": "5",
            "height": "28177",
            "round": "0",
            "timestamp": "2018-08-01T04:41:37.284979831Z",
            "type": 2,
            "block_id": {
              "hash": "B0EA4DD3456292B7B36CAF7C68F7ECBA1DC47289",
              "parts": {
                "total": "1",
                "hash": "0BA5B7B396019DEEDEFC762302673A9645115C32"
              }
            },
            "signature": {
              "type": "tendermint/SignatureEd25519",
              "value": "UmNO06Ofua8xtXgIXh8lgtBEjKWZagejduGYvY0nxwWAL9sxfYSCmVfK8Q+Bgw26IwIUhV+Z59nQZ+b0rWzBBQ=="
            }
          },
          {
            "validator_address": "0DDF97111D73DB825138EC15EC27DE5FE8536901",
            "validator_index": "6",
            "height": "28177",
            "round": "0",
            "timestamp": "2018-08-01T04:41:37.042105186Z",
            "type": 2,
            "block_id": {
              "hash": "B0EA4DD3456292B7B36CAF7C68F7ECBA1DC47289",
              "parts": {
                "total": "1",
                "hash": "0BA5B7B396019DEEDEFC762302673A9645115C32"
              }
            },
            "signature": {
              "type": "tendermint/SignatureEd25519",
              "value": "gKSf4I0pI3czLNEVD09JoGMR08y3Vp5gR9DCBJzxflDF0pFvAaOS46mDkIJW8lvHkLCeIe9b7ckVVyPGV80qBQ=="
            }
          },
          {
            "validator_address": "1751786EFC085D5331C61168FFFC8202EA151B4E",
            "validator_index": "7",
            "height": "28177",
            "round": "0",
            "timestamp": "2018-08-01T04:41:36.542204879Z",
            "type": 2,
            "block_id": {
              "hash": "B0EA4DD3456292B7B36CAF7C68F7ECBA1DC47289",
              "parts": {
                "total": "1",
                "hash": "0BA5B7B396019DEEDEFC762302673A9645115C32"
              }
            },
            "signature": {
              "type": "tendermint/SignatureEd25519",
              "value": "aTCE7QVpCwl0JeYfJLfkH/3OYgZXELvtFpPWmg92jhF4lFEj/1AC21gFWOer/mZ1eY7d1Du8etESc/Bn2ad7DA=="
            }
          },
          {
            "validator_address": "17BB5CD01E8940FAFB948A04D5FA5A0645E5822E",
            "validator_index": "8",
            "height": "28177",
            "round": "0",
            "timestamp": "2018-08-01T04:41:36.994666079Z",
            "type": 2,
            "block_id": {
              "hash": "B0EA4DD3456292B7B36CAF7C68F7ECBA1DC47289",
              "parts": {
                "total": "1",
                "hash": "0BA5B7B396019DEEDEFC762302673A9645115C32"
              }
            },
            "signature": {
              "type": "tendermint/SignatureEd25519",
              "value": "yFKWr/O3VBefoJRvdVIZyAzae7wWWpe3qTXsrtc7xQ7hVF9KEw3FNsyitLiZGnFd18c27Yn41+eQiBSBJNdVCg=="
            }
          },
          {
            "validator_address": "1C683A87904BC38F05004FE83301A3A3E35447EB",
            "validator_index": "9",
            "height": "28177",
            "round": "0",
            "timestamp": "2018-08-01T04:41:36.967102646Z",
            "type": 2,
            "block_id": {
              "hash": "B0EA4DD3456292B7B36CAF7C68F7ECBA1DC47289",
              "parts": {
                "total": "1",
                "hash": "0BA5B7B396019DEEDEFC762302673A9645115C32"
              }
            },
            "signature": {
              "type": "tendermint/SignatureEd25519",
              "value": "CyP93BQYIQtZn+RVIDV+SyQh8TLIAMnPDzJkZySWUTXGFW/IYJM8gKgtU2/KmbFCrSdCK389Z5OcVGacEG8wCg=="
            }
          },
          {
            "validator_address": "1E9CE94FD0BA5CFEB901F90BC658D64D85B134D2",
            "validator_index": "10",
            "height": "28177",
            "round": "0",
            "timestamp": "2018-08-01T04:41:37.019052502Z",
            "type": 2,
            "block_id": {
              "hash": "B0EA4DD3456292B7B36CAF7C68F7ECBA1DC47289",
              "parts": {
                "total": "1",
                "hash": "0BA5B7B396019DEEDEFC762302673A9645115C32"
              }
            },
            "signature": {
              "type": "tendermint/SignatureEd25519",
              "value": "VmThvMY+wpTfWPMdHAG0gFFQ9e7fVoXgfKovURuyYYohshI00t0aZlk3a02/VhRemeHJyFrcmF4yTSL88qdZDg=="
            }
          },
          {
            "validator_address": "1ECD8C5FE1341D74CDC633A245DD56858DE2F9A2",
            "validator_index": "11",
            "height": "28177",
            "round": "0",
            "timestamp": "2018-08-01T04:41:37.072810912Z",
            "type": 2,
            "block_id": {
              "hash": "B0EA4DD3456292B7B36CAF7C68F7ECBA1DC47289",
              "parts": {
                "total": "1",
                "hash": "0BA5B7B396019DEEDEFC762302673A9645115C32"
              }
            },
            "signature": {
              "type": "tendermint/SignatureEd25519",
              "value": "43s3Oyutkb6kNG1HFIW8nKUu+TMhQBzT60HIohd1/Mmk84RzE455vTg6joNpQL3F/mlHdjF+Ul5SJwCM46PjCA=="
            }
          },
          {
            "validator_address": "1F3A68CAAD483768AA2BF667DEF10F7104C89928",
            "validator_index": "12",
            "height": "28177",
            "round": "0",
            "timestamp": "2018-08-01T04:41:36.97775099Z",
            "type": 2,
            "block_id": {
              "hash": "B0EA4DD3456292B7B36CAF7C68F7ECBA1DC47289",
              "parts": {
                "total": "1",
                "hash": "0BA5B7B396019DEEDEFC762302673A9645115C32"
              }
            },
            "signature": {
              "type": "tendermint/SignatureEd25519",
              "value": "Z3PsSMobjkDeaF1QOf1koqqkt/pn4UYVukQhxb+i2w+1Kufx6Q5bItqEmaAEmi3vNFlcfGZC6qStkedT+zdNBg=="
            }
          },
          {
            "validator_address": "23897586D68E2AC1C78E0EF5BB5DF5C8EAB18F50",
            "validator_index": "13",
            "height": "28177",
            "round": "0",
            "timestamp": "2018-08-01T04:41:37.015827852Z",
            "type": 2,
            "block_id": {
              "hash": "B0EA4DD3456292B7B36CAF7C68F7ECBA1DC47289",
              "parts": {
                "total": "1",
                "hash": "0BA5B7B396019DEEDEFC762302673A9645115C32"
              }
            },
            "signature": {
              "type": "tendermint/SignatureEd25519",
              "value": "yfkqzwUnMYJ1EXQCfLDz17nQ+JEsm7N+97AKOsfyIYzPeDBOTG1A8EFzpmRYCAUk/sGMgCeGzecByNOA+sHKAQ=="
            }
          },
          {
            "validator_address": "28770D17E8530825E7310A0659308654B7EC9682",
            "validator_index": "14",
            "height": "28177",
            "round": "0",
            "timestamp": "2018-08-01T04:41:36.934751735Z",
            "type": 2,
            "block_id": {
              "hash": "B0EA4DD3456292B7B36CAF7C68F7ECBA1DC47289",
              "parts": {
                "total": "1",
                "hash": "0BA5B7B396019DEEDEFC762302673A9645115C32"
              }
            },
            "signature": {
              "type": "tendermint/SignatureEd25519",
              "value": "HhOxiZXJXtGUJdyus+WP0AClczRGBAal+Yls8TKK97OprQGPvJ/wrm0cIBZF0oFjbyCvb4VHDZ4brgyU9NP0Dw=="
            }
          },
          {
            "validator_address": "2A92EC3C642140202298D0E245095E0ECFC25228",
            "validator_index": "15",
            "height": "28177",
            "round": "0",
            "timestamp": "2018-08-01T04:41:37.00806495Z",
            "type": 2,
            "block_id": {
              "hash": "B0EA4DD3456292B7B36CAF7C68F7ECBA1DC47289",
              "parts": {
                "total": "1",
                "hash": "0BA5B7B396019DEEDEFC762302673A9645115C32"
              }
            },
            "signature": {
              "type": "tendermint/SignatureEd25519",
              "value": "+HPIbHDwhNu2ZRQZw7HqX+rszKcEU4FKOihH9/eGLKzYFajMzeJPGhckjxPst7VDgqCd4miBdWebMk+lr5gfAw=="
            }
          },
          {
            "validator_address": "33412C9A69C60CB0FAA24A5C5B3A906DE24B47C2",
            "validator_index": "16",
            "height": "28177",
            "round": "0",
            "timestamp": "2018-08-01T04:41:36.920741366Z",
            "type": 2,
            "block_id": {
              "hash": "B0EA4DD3456292B7B36CAF7C68F7ECBA1DC47289",
              "parts": {
                "total": "1",
                "hash": "0BA5B7B396019DEEDEFC762302673A9645115C32"
              }
            },
            "signature": {
              "type": "tendermint/SignatureEd25519",
              "value": "iq9q8tSsX//G9s7ds3JaBxR6LhVpmdq+XCcDAidVyLxrsxnAhwlQFUcr+rekqFdu2wdYq+snzXCtVFpIA0OGAw=="
            }
          },
          {
            "validator_address": "3383EF2A13B160C41947AC30434B274B2FAF0617",
            "validator_index": "17",
            "height": "28177",
            "round": "0",
            "timestamp": "2018-08-01T04:41:37.009645081Z",
            "type": 2,
            "block_id": {
              "hash": "B0EA4DD3456292B7B36CAF7C68F7ECBA1DC47289",
              "parts": {
                "total": "1",
                "hash": "0BA5B7B396019DEEDEFC762302673A9645115C32"
              }
            },
            "signature": {
              "type": "tendermint/SignatureEd25519",
              "value": "e1qfMJEKeZra0EnWb7BLEqZeM7NvzaIeJ+TrnVExojc6qwmh9Lf4Pb7io7GYh9Uy7IBu94dGu4sMUzM/qioZDQ=="
            }
          },
          {
            "validator_address": "36E9B7FAEC964F97D84C028ED62493E373AD0B38",
            "validator_index": "18",
            "height": "28177",
            "round": "0",
            "timestamp": "2018-08-01T04:41:37.128391077Z",
            "type": 2,
            "block_id": {
              "hash": "B0EA4DD3456292B7B36CAF7C68F7ECBA1DC47289",
              "parts": {
                "total": "1",
                "hash": "0BA5B7B396019DEEDEFC762302673A9645115C32"
              }
            },
            "signature": {
              "type": "tendermint/SignatureEd25519",
              "value": "vVh+MnOM4AwFbAIoxJ0Dlvw6oNm5TpuiTfL+HuX+iqdWcqM8UtvvD5m3VCfguthPAL0TLYwcHtutib5riRrZDQ=="
            }
          },
          {
            "validator_address": "38A8D85D36BEA2E5FCF8A1E778F53628E450EF13",
            "validator_index": "19",
            "height": "28177",
            "round": "0",
            "timestamp": "2018-08-01T04:41:37.124674697Z",
            "type": 2,
            "block_id": {
              "hash": "B0EA4DD3456292B7B36CAF7C68F7ECBA1DC47289",
              "parts": {
                "total": "1",
                "hash": "0BA5B7B396019DEEDEFC762302673A9645115C32"
              }
            },
            "signature": {
              "type": "tendermint/SignatureEd25519",
              "value": "myuC9lkETTy3DPnQ3Fm0v0GdW+mhHnUScPWZP8b9G2U0mNQIkHxUv7t2kUj9hBDavQPjdIsQTZBotUf2iPxfCA=="
            }
          },
          {
            "validator_address": "39DFDA0C5DB84B269642188B23253508537798E6",
            "validator_index": "20",
            "height": "28177",
            "round": "0",
            "timestamp": "2018-08-01T04:41:36.964457302Z",
            "type": 2,
            "block_id": {
              "hash": "B0EA4DD3456292B7B36CAF7C68F7ECBA1DC47289",
              "parts": {
                "total": "1",
                "hash": "0BA5B7B396019DEEDEFC762302673A9645115C32"
              }
            },
            "signature": {
              "type": "tendermint/SignatureEd25519",
              "value": "bTEzQJ6PN85vkL10NWwdG2lGrqTcYXqy2dBvcREY5keP1jLM1ZBWBAcM1JnfzS6RyuKIruQBVuDbns7GATtwBA=="
            }
          },
          {
            "validator_address": "3AC99B708404452366E0953A4BE849226DC86CBC",
            "validator_index": "21",
            "height": "28177",
            "round": "0",
            "timestamp": "2018-08-01T04:41:37.071533945Z",
            "type": 2,
            "block_id": {
              "hash": "B0EA4DD3456292B7B36CAF7C68F7ECBA1DC47289",
              "parts": {
                "total": "1",
                "hash": "0BA5B7B396019DEEDEFC762302673A9645115C32"
              }
            },
            "signature": {
              "type": "tendermint/SignatureEd25519",
              "value": "jj0DLMaU55FyfvJacaKu/xQOAijGh5FOK81wmzFAN9Nt+nRWf3GieUNqIsPC2D111hYXVo8qShDDP8IkkbwkAw=="
            }
          },
          {
            "validator_address": "3DCB822A10ED319EC7C4393D8E3FD4A41B15AAF2",
            "validator_index": "22",
            "height": "28177",
            "round": "0",
            "timestamp": "2018-08-01T04:41:36.959189149Z",
            "type": 2,
            "block_id": {
              "hash": "B0EA4DD3456292B7B36CAF7C68F7ECBA1DC47289",
              "parts": {
                "total": "1",
                "hash": "0BA5B7B396019DEEDEFC762302673A9645115C32"
              }
            },
            "signature": {
              "type": "tendermint/SignatureEd25519",
              "value": "ul8YELotMyCryKcgzQb+5iVTPxgXOapsE6b47C7TiedNQiKnIR4CZXLjbHJ970mFGrA6EL/G7jm2GOTrECXTCQ=="
            }
          },
          {
            "validator_address": "3E899BA36A93C7370347BD5FE85909F2ECD93F8C",
            "validator_index": "23",
            "height": "28177",
            "round": "0",
            "timestamp": "2018-08-01T04:41:37.026205721Z",
            "type": 2,
            "block_id": {
              "hash": "B0EA4DD3456292B7B36CAF7C68F7ECBA1DC47289",
              "parts": {
                "total": "1",
                "hash": "0BA5B7B396019DEEDEFC762302673A9645115C32"
              }
            },
            "signature": {
              "type": "tendermint/SignatureEd25519",
              "value": "BFw8wwmUGCfuEdqU1Mw0YCctQfHJfvV+V86H1NZ90l33Z6aAHHSBTgpxRX048T4Tg57waF53P6VREibnMoLnAA=="
            }
          },
          {
            "validator_address": "41CAB2E29E7D0F2282E3275938F188FF9386B84C",
            "validator_index": "24",
            "height": "28177",
            "round": "0",
            "timestamp": "2018-08-01T04:41:36.972374119Z",
            "type": 2,
            "block_id": {
              "hash": "B0EA4DD3456292B7B36CAF7C68F7ECBA1DC47289",
              "parts": {
                "total": "1",
                "hash": "0BA5B7B396019DEEDEFC762302673A9645115C32"
              }
            },
            "signature": {
              "type": "tendermint/SignatureEd25519",
              "value": "h9x33jViyC5cEXRicw7WB1qQRRgsoVpjHvLl6N0B1fdpA5fhJOB5DY9tmLThyV7I/lESFhWkRN8Zd+LhpnB3Dw=="
            }
          },
          {
            "validator_address": "462B656869DB02A8FD1077E255F8CC7401DC37C6",
            "validator_index": "25",
            "height": "28177",
            "round": "0",
            "timestamp": "2018-08-01T04:41:36.98902515Z",
            "type": 2,
            "block_id": {
              "hash": "B0EA4DD3456292B7B36CAF7C68F7ECBA1DC47289",
              "parts": {
                "total": "1",
                "hash": "0BA5B7B396019DEEDEFC762302673A9645115C32"
              }
            },
            "signature": {
              "type": "tendermint/SignatureEd25519",
              "value": "ai1bORjnCpCYB1LUvMwv6yrOe5HLZsFjQlRkZ84iClR0moTxhIvCjCWi8kPwid/8aiKOwhip3xy6Uj5uKyuSAg=="
            }
          },
          {
            "validator_address": "48E5118163E5442068A1B5A42D2EEDBB75724935",
            "validator_index": "26",
            "height": "28177",
            "round": "0",
            "timestamp": "2018-08-01T04:41:37.163303611Z",
            "type": 2,
            "block_id": {
              "hash": "B0EA4DD3456292B7B36CAF7C68F7ECBA1DC47289",
              "parts": {
                "total": "1",
                "hash": "0BA5B7B396019DEEDEFC762302673A9645115C32"
              }
            },
            "signature": {
              "type": "tendermint/SignatureEd25519",
              "value": "6jsW9CS5yI+lTtA/XVx3e2zGaSQqbPRrcXro+uWbwP9bpvbatvbWexc2iVJSv6wZyx+fDiPK7O0lq2rIzvwlAg=="
            }
          },
          {
            "validator_address": "49103C58AFD9C7C069F55EBA218F3DFD9AEA74F9",
            "validator_index": "27",
            "height": "28177",
            "round": "0",
            "timestamp": "2018-08-01T04:41:36.964657089Z",
            "type": 2,
            "block_id": {
              "hash": "B0EA4DD3456292B7B36CAF7C68F7ECBA1DC47289",
              "parts": {
                "total": "1",
                "hash": "0BA5B7B396019DEEDEFC762302673A9645115C32"
              }
            },
            "signature": {
              "type": "tendermint/SignatureEd25519",
              "value": "/5kIgwOoT9/NyG9xnYat9ktibp5zrBa3/kPzkmVm2LcdhbU49HO5Ss14nGt/01DfUUnbI2Eimq25NWiybqtgCg=="
            }
          },
          {
            "validator_address": "4944F8BBBB5303E17BC0607DF332320EDBC750EA",
            "validator_index": "28",
            "height": "28177",
            "round": "0",
            "timestamp": "2018-08-01T04:41:36.991578926Z",
            "type": 2,
            "block_id": {
              "hash": "B0EA4DD3456292B7B36CAF7C68F7ECBA1DC47289",
              "parts": {
                "total": "1",
                "hash": "0BA5B7B396019DEEDEFC762302673A9645115C32"
              }
            },
            "signature": {
              "type": "tendermint/SignatureEd25519",
              "value": "K/qTHWnmJmv2X85mzV86jMOFnDKXByqD2AxJKbsPNnyOSzwj9bNCgEhhJyQ401AgMq0/vAIw+QdyhtCrUWEWBQ=="
            }
          },
          {
            "validator_address": "49841599DE675157CBE1E7D6B35BF8FFC23BD5CB",
            "validator_index": "29",
            "height": "28177",
            "round": "0",
            "timestamp": "2018-08-01T04:41:36.940013775Z",
            "type": 2,
            "block_id": {
              "hash": "B0EA4DD3456292B7B36CAF7C68F7ECBA1DC47289",
              "parts": {
                "total": "1",
                "hash": "0BA5B7B396019DEEDEFC762302673A9645115C32"
              }
            },
            "signature": {
              "type": "tendermint/SignatureEd25519",
              "value": "fppm6nt8xCCOz8BD7mNw8jBQjiHvBXY+PHBVtWcJNhPLQAmRtBPxlMlhKisRLEfZJFM2ehJ2Vslc+c4tWvBNAA=="
            }
          },
          {
            "validator_address": "51386C2CF9556821D114D7E4945806802BADB28D",
            "validator_index": "30",
            "height": "28177",
            "round": "0",
            "timestamp": "2018-08-01T04:41:37.079897598Z",
            "type": 2,
            "block_id": {
              "hash": "B0EA4DD3456292B7B36CAF7C68F7ECBA1DC47289",
              "parts": {
                "total": "1",
                "hash": "0BA5B7B396019DEEDEFC762302673A9645115C32"
              }
            },
            "signature": {
              "type": "tendermint/SignatureEd25519",
              "value": "gROfLGBSI+5eT10a1kIhWel5nw/Q2oU8CLJbyYzIpClA1FYKBp/cAsP6RiF2qxlHgL7kIBUSmvu2KuzgVKpfAA=="
            }
          },
          {
            "validator_address": "543564ECA3AFEFADC73EE8591AAC3A96F079BC8A",
            "validator_index": "31",
            "height": "28177",
            "round": "0",
            "timestamp": "2018-08-01T04:41:37.01677039Z",
            "type": 2,
            "block_id": {
              "hash": "B0EA4DD3456292B7B36CAF7C68F7ECBA1DC47289",
              "parts": {
                "total": "1",
                "hash": "0BA5B7B396019DEEDEFC762302673A9645115C32"
              }
            },
            "signature": {
              "type": "tendermint/SignatureEd25519",
              "value": "QzGIjH7YqCmXTt1Kc1PNEZsZ3t0Z/uBngFkKJ/NJa5UItFuWU2E/w/XLKYr3UCB242M40ITKcglSA+TmnYXdAQ=="
            }
          },
          {
            "validator_address": "55D67B1A6DC13E96F8754A5A42EABC20F7F86664",
            "validator_index": "32",
            "height": "28177",
            "round": "0",
            "timestamp": "2018-08-01T04:41:37.001310213Z",
            "type": 2,
            "block_id": {
              "hash": "B0EA4DD3456292B7B36CAF7C68F7ECBA1DC47289",
              "parts": {
                "total": "1",
                "hash": "0BA5B7B396019DEEDEFC762302673A9645115C32"
              }
            },
            "signature": {
              "type": "tendermint/SignatureEd25519",
              "value": "33db82Gr1Xv6u0G/XRt0hnQ596P0GaciU2aTE5DkLF1eAVxuWiaVEWmtMHCVEFWTqIawhnh5j0T6oK77myPFDA=="
            }
          },
          {
            "validator_address": "570B6A755ED339EAC56BB3390A48069F6AC9449B",
            "validator_index": "33",
            "height": "28177",
            "round": "0",
            "timestamp": "2018-08-01T04:41:42.516566626Z",
            "type": 2,
            "block_id": {
              "hash": "B0EA4DD3456292B7B36CAF7C68F7ECBA1DC47289",
              "parts": {
                "total": "1",
                "hash": "0BA5B7B396019DEEDEFC762302673A9645115C32"
              }
            },
            "signature": {
              "type": "tendermint/SignatureEd25519",
              "value": "TJUkyH6Ke9Ex9ZNopgvJCp4/FeX3j69N4bNVNwRp7R+omz29KkhBoRyiGdOmox+Ey3Tt5YqOxmvh2fLjyNDoCg=="
            }
          },
          {
            "validator_address": "5BDF8EA41B1835FBAD865B181A2A4B23F511B5E4",
            "validator_index": "34",
            "height": "28177",
            "round": "0",
            "timestamp": "2018-08-01T04:41:36.956065875Z",
            "type": 2,
            "block_id": {
              "hash": "B0EA4DD3456292B7B36CAF7C68F7ECBA1DC47289",
              "parts": {
                "total": "1",
                "hash": "0BA5B7B396019DEEDEFC762302673A9645115C32"
              }
            },
            "signature": {
              "type": "tendermint/SignatureEd25519",
              "value": "jV12hmNkANPXLfjkDowE75wuNlweDTAtdvOAy9ZEe2YSiF2g74E7TtjOSqmBKWglXLRByUvEW2Dct1SRXyrtDQ=="
            }
          },
          {
            "validator_address": "60229E2E273297FE00219E46DFFB8F76844CDEF9",
            "validator_index": "35",
            "height": "28177",
            "round": "0",
            "timestamp": "2018-08-01T04:41:35.317813995Z",
            "type": 2,
            "block_id": {
              "hash": "B0EA4DD3456292B7B36CAF7C68F7ECBA1DC47289",
              "parts": {
                "total": "1",
                "hash": "0BA5B7B396019DEEDEFC762302673A9645115C32"
              }
            },
            "signature": {
              "type": "tendermint/SignatureEd25519",
              "value": "ZWgeD8e4S8fKsYFlXiPvdBZVZqlFki/VjqgF1dQ1SQcFh7saRxgDbrkpnvNR0wZeVlcqopwANIxO/WbxY/jgAg=="
            }
          },
          {
            "validator_address": "62410D6D1CD98278136E4D0738AA0EA273CDFC54",
            "validator_index": "36",
            "height": "28177",
            "round": "0",
            "timestamp": "2018-08-01T04:41:36.992523422Z",
            "type": 2,
            "block_id": {
              "hash": "B0EA4DD3456292B7B36CAF7C68F7ECBA1DC47289",
              "parts": {
                "total": "1",
                "hash": "0BA5B7B396019DEEDEFC762302673A9645115C32"
              }
            },
            "signature": {
              "type": "tendermint/SignatureEd25519",
              "value": "ovwG9K2lfc0oY0t02NRk51gqaFlclF8vkJeLVOZYgc2c8/epe9A47/hcLzVLpvDM/pQiBwhfrQRub6KiOUMADw=="
            }
          },
          {
            "validator_address": "632F5C139A5A9DFBFE5111DEE29FCFB6157207DC",
            "validator_index": "37",
            "height": "28177",
            "round": "0",
            "timestamp": "2018-08-01T04:41:37.012398566Z",
            "type": 2,
            "block_id": {
              "hash": "B0EA4DD3456292B7B36CAF7C68F7ECBA1DC47289",
              "parts": {
                "total": "1",
                "hash": "0BA5B7B396019DEEDEFC762302673A9645115C32"
              }
            },
            "signature": {
              "type": "tendermint/SignatureEd25519",
              "value": "494VUXWZ6WK2/s7DLCEi8h5AGPwR8sEFxkgkGWx9gzW8h1Xvg4rq5SlncJs+HPIC3eH4aiuamDlvvBlEcVwtBQ=="
            }
          },
          {
            "validator_address": "64F57F8E796A9B7B590C1EFA4123988C86631D39",
            "validator_index": "38",
            "height": "28177",
            "round": "0",
            "timestamp": "2018-08-01T04:41:36.949283972Z",
            "type": 2,
            "block_id": {
              "hash": "B0EA4DD3456292B7B36CAF7C68F7ECBA1DC47289",
              "parts": {
                "total": "1",
                "hash": "0BA5B7B396019DEEDEFC762302673A9645115C32"
              }
            },
            "signature": {
              "type": "tendermint/SignatureEd25519",
              "value": "gOht3BOM77HCA2R9CBOGYvIyZ63tQ7LPL1QHsCxMEFV19tQPPb7VHWuQuwDSQwLhqPTMmmTo7JkrIZNF5/jJBg=="
            }
          },
          {
            "validator_address": "69D99B2C66043ACBEAA8447525C356AFC6408E0C",
            "validator_index": "39",
            "height": "28177",
            "round": "0",
            "timestamp": "2018-08-01T04:41:37.054148095Z",
            "type": 2,
            "block_id": {
              "hash": "B0EA4DD3456292B7B36CAF7C68F7ECBA1DC47289",
              "parts": {
                "total": "1",
                "hash": "0BA5B7B396019DEEDEFC762302673A9645115C32"
              }
            },
            "signature": {
              "type": "tendermint/SignatureEd25519",
              "value": "6MgF1fbf7EbbJ2SKc3ImiT43TyHpKL+9z+YuzL617sL6ndOG6YpH0uRV86pvKwRgsvQR3WpNP5F8JfqygkwUCQ=="
            }
          },
          {
            "validator_address": "69EDADFA4A803E9DBF548C900D4A465E7D154262",
            "validator_index": "40",
            "height": "28177",
            "round": "0",
            "timestamp": "2018-08-01T04:41:37.074218285Z",
            "type": 2,
            "block_id": {
              "hash": "B0EA4DD3456292B7B36CAF7C68F7ECBA1DC47289",
              "parts": {
                "total": "1",
                "hash": "0BA5B7B396019DEEDEFC762302673A9645115C32"
              }
            },
            "signature": {
              "type": "tendermint/SignatureEd25519",
              "value": "6Z35QJWskQIegTDJYpsyOr3r2m5tO5UjXEZFy6BtABtcBaGLlG7wpW/G1PKc9uxRtzzrSq3ZibBRq3Y6WZfIAQ=="
            }
          },
          {
            "validator_address": "6D3AD380E398D8592B03AA124BAFED5F125DF863",
            "validator_index": "41",
            "height": "28177",
            "round": "0",
            "timestamp": "2018-08-01T04:40:34.847264462Z",
            "type": 2,
            "block_id": {
              "hash": "B0EA4DD3456292B7B36CAF7C68F7ECBA1DC47289",
              "parts": {
                "total": "1",
                "hash": "0BA5B7B396019DEEDEFC762302673A9645115C32"
              }
            },
            "signature": {
              "type": "tendermint/SignatureEd25519",
              "value": "pTjqdj20nZBnqcT3Nb2acFwpHN7zvk+HUjvawsS25m0PLOrMu8xp2xitasYM1VmKQcTf6sa6+5zi6Kc0C3pQCQ=="
            }
          },
          {
            "validator_address": "6F6C93B8BF3495063FEC9B5C771158607F4AE9D6",
            "validator_index": "42",
            "height": "28177",
            "round": "0",
            "timestamp": "2018-08-01T04:41:37.113341878Z",
            "type": 2,
            "block_id": {
              "hash": "B0EA4DD3456292B7B36CAF7C68F7ECBA1DC47289",
              "parts": {
                "total": "1",
                "hash": "0BA5B7B396019DEEDEFC762302673A9645115C32"
              }
            },
            "signature": {
              "type": "tendermint/SignatureEd25519",
              "value": "rqhiAirKADY9KXVR5GMPWL+lc6+zECbZQCH4BdFBtNRzPCbPTsowyT4n2fKwBrIc9h15+FHps4nkBTn1xeyXBg=="
            }
          },
          {
            "validator_address": "732CEEF54C374DDC6ADECBFD707AEFD07FEDC143",
            "validator_index": "43",
            "height": "28177",
            "round": "0",
            "timestamp": "2018-08-01T04:41:37.149252401Z",
            "type": 2,
            "block_id": {
              "hash": "B0EA4DD3456292B7B36CAF7C68F7ECBA1DC47289",
              "parts": {
                "total": "1",
                "hash": "0BA5B7B396019DEEDEFC762302673A9645115C32"
              }
            },
            "signature": {
              "type": "tendermint/SignatureEd25519",
              "value": "zl/ceqg3lC3mb3R0snbGzYij/3GaNERSd8F7rp2dKUimCXLXXDtZF3aIBAlvtukrXLaliPI5fObC0FyRRTuDCA=="
            }
          },
          {
            "validator_address": "7393D691BFAE9661918C09932D4D9060AB40939B",
            "validator_index": "44",
            "height": "28177",
            "round": "0",
            "timestamp": "2018-08-01T04:41:37.183884366Z",
            "type": 2,
            "block_id": {
              "hash": "B0EA4DD3456292B7B36CAF7C68F7ECBA1DC47289",
              "parts": {
                "total": "1",
                "hash": "0BA5B7B396019DEEDEFC762302673A9645115C32"
              }
            },
            "signature": {
              "type": "tendermint/SignatureEd25519",
              "value": "IfLiC3QuDB/bkl3SsX4n3ckyO/+KugTh32jTJnJdQUliPbmsBQgfcDpHNqTXaXNDn8S6HAOJUMBmjeUxUjRmCg=="
            }
          },
          {
            "validator_address": "751E43437224E8BB6D1569B3E2B2616B6E7F4397",
            "validator_index": "45",
            "height": "28177",
            "round": "0",
            "timestamp": "2018-08-01T04:41:36.988302776Z",
            "type": 2,
            "block_id": {
              "hash": "B0EA4DD3456292B7B36CAF7C68F7ECBA1DC47289",
              "parts": {
                "total": "1",
                "hash": "0BA5B7B396019DEEDEFC762302673A9645115C32"
              }
            },
            "signature": {
              "type": "tendermint/SignatureEd25519",
              "value": "f4DDAhJD6o8mseV9zBe0RcZqDOfHfiI+eoDzti//FV6Oz5FijMfJcAd8AYr0XMg9ug/l7EMhaWeqSv4hqQePBg=="
            }
          },
          {
            "validator_address": "7EB7593F519F1180C7E872D0494611464EDF03AE",
            "validator_index": "46",
            "height": "28177",
            "round": "0",
            "timestamp": "2018-08-01T04:41:37.161200459Z",
            "type": 2,
            "block_id": {
              "hash": "B0EA4DD3456292B7B36CAF7C68F7ECBA1DC47289",
              "parts": {
                "total": "1",
                "hash": "0BA5B7B396019DEEDEFC762302673A9645115C32"
              }
            },
            "signature": {
              "type": "tendermint/SignatureEd25519",
              "value": "n/2Z9jvwFOfNJlHK6mcRZF5C7TJRQA0/vJl6AdK6MC2TP7No8QFWpn9TeGVPJOSKlPL67zNVokPmfK2gmxh4DQ=="
            }
          },
          {
            "validator_address": "807CF675BA8479FC4FEC1047215DF07970040F1F",
            "validator_index": "47",
            "height": "28177",
            "round": "0",
            "timestamp": "2018-08-01T04:41:37.294690096Z",
            "type": 2,
            "block_id": {
              "hash": "B0EA4DD3456292B7B36CAF7C68F7ECBA1DC47289",
              "parts": {
                "total": "1",
                "hash": "0BA5B7B396019DEEDEFC762302673A9645115C32"
              }
            },
            "signature": {
              "type": "tendermint/SignatureEd25519",
              "value": "lQhkWWd63upyc6juXIkQ3YzNDFBNZvB/NeaTnPTIJi7cyfjpqJfTDYmkrimQaEvtTJnYmerBOeGenHyaSMKsDA=="
            }
          },
          {
            "validator_address": "83AB321E012C57746689FED3A6064DF331F81007",
            "validator_index": "48",
            "height": "28177",
            "round": "0",
            "timestamp": "2018-08-01T04:41:37.066542621Z",
            "type": 2,
            "block_id": {
              "hash": "B0EA4DD3456292B7B36CAF7C68F7ECBA1DC47289",
              "parts": {
                "total": "1",
                "hash": "0BA5B7B396019DEEDEFC762302673A9645115C32"
              }
            },
            "signature": {
              "type": "tendermint/SignatureEd25519",
              "value": "N5G5GMQbWUQLif8T/Rh4plFMbjT1cbHTtg3s7SFQMD5IotusA2Z/fiw9xwFM36+Ub8JBdTsANd+XRHeD1+HpAg=="
            }
          },
          {
            "validator_address": "83BB1B88D3DBB20AD845FECA07749EBD87D3754D",
            "validator_index": "49",
            "height": "28177",
            "round": "0",
            "timestamp": "2018-08-01T04:41:37.224311535Z",
            "type": 2,
            "block_id": {
              "hash": "B0EA4DD3456292B7B36CAF7C68F7ECBA1DC47289",
              "parts": {
                "total": "1",
                "hash": "0BA5B7B396019DEEDEFC762302673A9645115C32"
              }
            },
            "signature": {
              "type": "tendermint/SignatureEd25519",
              "value": "wHhCJkO4UXCYxum/5cJuarQoyTMcPrjX418D8YwbwA/jkL1hXmGxoQOCvr6MA2saZHQkK3unEulIDnrI8CxTCw=="
            }
          },
          {
            "validator_address": "8F06FE1FD042683C426137FBC4BBAA4288924217",
            "validator_index": "50",
            "height": "28177",
            "round": "0",
            "timestamp": "2018-08-01T04:41:37.052681694Z",
            "type": 2,
            "block_id": {
              "hash": "B0EA4DD3456292B7B36CAF7C68F7ECBA1DC47289",
              "parts": {
                "total": "1",
                "hash": "0BA5B7B396019DEEDEFC762302673A9645115C32"
              }
            },
            "signature": {
              "type": "tendermint/SignatureEd25519",
              "value": "FV1Xh95E8gwsuBnN23ffQ3FqU3WwUfer3FkPp9cMi2mTZgWb5N4JuxKV/d9w+7m7oty2pAkCE2FtxM6a16W2CA=="
            }
          },
          {
            "validator_address": "8F45617BF45B10A3F8283DEBDB35E38C7CA43237",
            "validator_index": "51",
            "height": "28177",
            "round": "0",
            "timestamp": "2018-08-01T04:41:36.95329421Z",
            "type": 2,
            "block_id": {
              "hash": "B0EA4DD3456292B7B36CAF7C68F7ECBA1DC47289",
              "parts": {
                "total": "1",
                "hash": "0BA5B7B396019DEEDEFC762302673A9645115C32"
              }
            },
            "signature": {
              "type": "tendermint/SignatureEd25519",
              "value": "coDJseepvTg9Fjpv8uxrqkzYLTSq+NACIOzFg2zHhXK5wlOwSPpDLrkHryijt3lM2BKSHi97O10wFskrQlB/Ag=="
            }
          },
          {
            "validator_address": "95980831E186F2540F6E9FB6C8E74DE2401405AC",
            "validator_index": "52",
            "height": "28177",
            "round": "0",
            "timestamp": "2018-08-01T04:41:37.034228432Z",
            "type": 2,
            "block_id": {
              "hash": "B0EA4DD3456292B7B36CAF7C68F7ECBA1DC47289",
              "parts": {
                "total": "1",
                "hash": "0BA5B7B396019DEEDEFC762302673A9645115C32"
              }
            },
            "signature": {
              "type": "tendermint/SignatureEd25519",
              "value": "F2WekMmlki2pvOF3g6ZbRclNyXA/qoyfssHqc2leuc1f+seoKwu0qrzdqVR4WTQLPilfq59/C9hw5RTl/Iz4BA=="
            }
          },
          {
            "validator_address": "95FAFBC1E0579C83D290A063020CE87C5334BD9B",
            "validator_index": "53",
            "height": "28177",
            "round": "0",
            "timestamp": "2018-08-01T04:41:36.986129527Z",
            "type": 2,
            "block_id": {
              "hash": "B0EA4DD3456292B7B36CAF7C68F7ECBA1DC47289",
              "parts": {
                "total": "1",
                "hash": "0BA5B7B396019DEEDEFC762302673A9645115C32"
              }
            },
            "signature": {
              "type": "tendermint/SignatureEd25519",
              "value": "XOmRXHKUM3HtZMKSwe9PuEG8+wW9esqXI5kxL3cuVocB5tnTEXXoshBjHNIu2x1k54grrmayJayehDC8U+iRBw=="
            }
          },
          {
            "validator_address": "96BDE45EC52606CF5CB59853097871AD60680549",
            "validator_index": "54",
            "height": "28177",
            "round": "0",
            "timestamp": "2018-08-01T04:41:37.02765243Z",
            "type": 2,
            "block_id": {
              "hash": "B0EA4DD3456292B7B36CAF7C68F7ECBA1DC47289",
              "parts": {
                "total": "1",
                "hash": "0BA5B7B396019DEEDEFC762302673A9645115C32"
              }
            },
            "signature": {
              "type": "tendermint/SignatureEd25519",
              "value": "70cS2qBR68fUPNxugt0Cxgt/H8MuA0hRkyERji9EmqngwlqspxPRcElxasELnPezW0AulqQz4VqVdK5YvJQACw=="
            }
          },
          {
            "validator_address": "970CD321881185BF83DB2923C321B0E75FDBB2B8",
            "validator_index": "55",
            "height": "28177",
            "round": "0",
            "timestamp": "2018-08-01T04:41:37.034793885Z",
            "type": 2,
            "block_id": {
              "hash": "B0EA4DD3456292B7B36CAF7C68F7ECBA1DC47289",
              "parts": {
                "total": "1",
                "hash": "0BA5B7B396019DEEDEFC762302673A9645115C32"
              }
            },
            "signature": {
              "type": "tendermint/SignatureEd25519",
              "value": "bGv0AOlf8U7yeQVWIBrDaaZIEOqVM32JzUlxEFTy+6uX3vxE02owiBsyCEXVcR5fLK9sGYR/hdyX02MvfZ7fBA=="
            }
          },
          {
            "validator_address": "97DBB3D4B3D6C29287244864448F651DD5B07390",
            "validator_index": "56",
            "height": "28177",
            "round": "0",
            "timestamp": "2018-08-01T04:41:37.065217479Z",
            "type": 2,
            "block_id": {
              "hash": "B0EA4DD3456292B7B36CAF7C68F7ECBA1DC47289",
              "parts": {
                "total": "1",
                "hash": "0BA5B7B396019DEEDEFC762302673A9645115C32"
              }
            },
            "signature": {
              "type": "tendermint/SignatureEd25519",
              "value": "P0+vErtyQgkq/aatfqHrv+y/K23tDtZUlNMGEAP7DMD+jnisDSAlZuPIRQqfNzNCY905Q/gHTZ7b3ADN8N0hBA=="
            }
          },
          {
            "validator_address": "9C29C9B76D27586E4D9AD2AED0E943162645E55C",
            "validator_index": "57",
            "height": "28177",
            "round": "0",
            "timestamp": "2018-08-01T04:41:36.966301359Z",
            "type": 2,
            "block_id": {
              "hash": "B0EA4DD3456292B7B36CAF7C68F7ECBA1DC47289",
              "parts": {
                "total": "1",
                "hash": "0BA5B7B396019DEEDEFC762302673A9645115C32"
              }
            },
            "signature": {
              "type": "tendermint/SignatureEd25519",
              "value": "GadndG0zUmX4UW/zIpX1Q73TT6bcyltPaZa7a5cb8opTdOffgGg0sHwbq2AHALPRgJ3A1s6eOVI3P+oIKRSkDA=="
            }
          },
          {
            "validator_address": "9D93AD02FE1BD7E76B9E58D7EB461088EAD011E5",
            "validator_index": "58",
            "height": "28177",
            "round": "0",
            "timestamp": "2018-08-01T04:41:36.982562242Z",
            "type": 2,
            "block_id": {
              "hash": "B0EA4DD3456292B7B36CAF7C68F7ECBA1DC47289",
              "parts": {
                "total": "1",
                "hash": "0BA5B7B396019DEEDEFC762302673A9645115C32"
              }
            },
            "signature": {
              "type": "tendermint/SignatureEd25519",
              "value": "zEtmU1pu1apkDNOtfzYsl721uvEbAtAtJvzdt3BgO2MqEIN/uRR7fpZnf7d3A1/ZsvfPVWEReNAxW3rU3liYDg=="
            }
          },
          {
            "validator_address": "A0A6466F4ABEA09C3B55E3709AFDE217A103209F",
            "validator_index": "59",
            "height": "28177",
            "round": "0",
            "timestamp": "2018-08-01T04:41:36.95390412Z",
            "type": 2,
            "block_id": {
              "hash": "B0EA4DD3456292B7B36CAF7C68F7ECBA1DC47289",
              "parts": {
                "total": "1",
                "hash": "0BA5B7B396019DEEDEFC762302673A9645115C32"
              }
            },
            "signature": {
              "type": "tendermint/SignatureEd25519",
              "value": "U2Uj9joKeHqX0ACXOv9poppsun9u1lczb6eMncurwyHhzy0FsGH9KASi/lr+ZwbqgOLupKzZJCGsVq+nNVitBg=="
            }
          },
          {
            "validator_address": "A5868971300F155020634D7BB49C7634F7AACCD3",
            "validator_index": "60",
            "height": "28177",
            "round": "0",
            "timestamp": "2018-08-01T04:41:36.987282873Z",
            "type": 2,
            "block_id": {
              "hash": "B0EA4DD3456292B7B36CAF7C68F7ECBA1DC47289",
              "parts": {
                "total": "1",
                "hash": "0BA5B7B396019DEEDEFC762302673A9645115C32"
              }
            },
            "signature": {
              "type": "tendermint/SignatureEd25519",
              "value": "ydRKlIhyqAjoICjQC617ZXJWZ34NfhYzV2MoVaud1zIilzKNFGSm77AbDDH7NIHCGrpYJvwSKcHWhEgh0Wb6Bg=="
            }
          },
          {
            "validator_address": "A6B3A5B5D982CFD7B5FDFA15CF5A720E7AE25E7F",
            "validator_index": "61",
            "height": "28177",
            "round": "0",
            "timestamp": "2018-08-01T04:41:37.089099751Z",
            "type": 2,
            "block_id": {
              "hash": "B0EA4DD3456292B7B36CAF7C68F7ECBA1DC47289",
              "parts": {
                "total": "1",
                "hash": "0BA5B7B396019DEEDEFC762302673A9645115C32"
              }
            },
            "signature": {
              "type": "tendermint/SignatureEd25519",
              "value": "V8mojwgebarRG4mLxT6ublqXLYp3G+LD8SqUy+B0OMMN0k55l00x36ao6g7QWnf3nYtcNoG2xTSKzK7y+GZ9AA=="
            }
          },
          {
            "validator_address": "AC96444A9083890B7C7B430DB17BF1D3EA5EED04",
            "validator_index": "62",
            "height": "28177",
            "round": "0",
            "timestamp": "2018-08-01T04:41:37.087691237Z",
            "type": 2,
            "block_id": {
              "hash": "B0EA4DD3456292B7B36CAF7C68F7ECBA1DC47289",
              "parts": {
                "total": "1",
                "hash": "0BA5B7B396019DEEDEFC762302673A9645115C32"
              }
            },
            "signature": {
              "type": "tendermint/SignatureEd25519",
              "value": "W7QK3CCbKqYHWbYnde0k6sxYXpCrsAYxL/6Y2dItu0/cTSN/3dlttyMz0SDsFSDfR+Xc5cEpkaAUzPq76/NgCw=="
            }
          },
          {
            "validator_address": "ACB97FDA2D940AF0709B73537C458EB988AD2893",
            "validator_index": "63",
            "height": "28177",
            "round": "0",
            "timestamp": "2018-08-01T04:41:36.976467466Z",
            "type": 2,
            "block_id": {
              "hash": "B0EA4DD3456292B7B36CAF7C68F7ECBA1DC47289",
              "parts": {
                "total": "1",
                "hash": "0BA5B7B396019DEEDEFC762302673A9645115C32"
              }
            },
            "signature": {
              "type": "tendermint/SignatureEd25519",
              "value": "BI9ueMTJ8qkX46fYxyH810SXrp1swjbUVOifroqMfHr5LbkQLRmn+jTZ32JYR+rdSZW/wtrN9TorBYXToV7wAQ=="
            }
          },
          {
            "validator_address": "B197425B3210375F211661DE02EF2AE36580EB0F",
            "validator_index": "64",
            "height": "28177",
            "round": "0",
            "timestamp": "2018-08-01T04:41:37.015587687Z",
            "type": 2,
            "block_id": {
              "hash": "B0EA4DD3456292B7B36CAF7C68F7ECBA1DC47289",
              "parts": {
                "total": "1",
                "hash": "0BA5B7B396019DEEDEFC762302673A9645115C32"
              }
            },
            "signature": {
              "type": "tendermint/SignatureEd25519",
              "value": "QTL+6z0TfGoFx7N8c5JjuZBQycY8h/doOLi4nz0rnviaIunJMwGrfiriKe17SARPOaHWF3b7NaUfLGb/Z7njDw=="
            }
          },
          {
            "validator_address": "B45E54D2D1CB5A4CCD1D49016608C18E7C56B270",
            "validator_index": "65",
            "height": "28177",
            "round": "0",
            "timestamp": "2018-08-01T04:41:37.070659183Z",
            "type": 2,
            "block_id": {
              "hash": "B0EA4DD3456292B7B36CAF7C68F7ECBA1DC47289",
              "parts": {
                "total": "1",
                "hash": "0BA5B7B396019DEEDEFC762302673A9645115C32"
              }
            },
            "signature": {
              "type": "tendermint/SignatureEd25519",
              "value": "oTSa2ANgyhI69tvBuBLNtaYO7vbfQzDvx/p/rCXUMElQZPqOvTvz0u5S8rvVrV6dwhMgZpWeXWxQuDbK+wP3DQ=="
            }
          },
          {
            "validator_address": "B59A34C0BE4EC73AF6A67D274F1695C9259C237C",
            "validator_index": "66",
            "height": "28177",
            "round": "0",
            "timestamp": "2018-08-01T04:41:37.203214071Z",
            "type": 2,
            "block_id": {
              "hash": "B0EA4DD3456292B7B36CAF7C68F7ECBA1DC47289",
              "parts": {
                "total": "1",
                "hash": "0BA5B7B396019DEEDEFC762302673A9645115C32"
              }
            },
            "signature": {
              "type": "tendermint/SignatureEd25519",
              "value": "UAY3tUxtN6gaAdzXki6xSHpr6mySM2Q3snNtvj/zzHAyQgCKwOCx3vbnDzjM1CK1XDHHTmNpMM7hmDSpq0DoAQ=="
            }
          },
          {
            "validator_address": "BB1276BE89834835428664408917649FEEF5D90C",
            "validator_index": "67",
            "height": "28177",
            "round": "0",
            "timestamp": "2018-08-01T04:41:37.069520579Z",
            "type": 2,
            "block_id": {
              "hash": "B0EA4DD3456292B7B36CAF7C68F7ECBA1DC47289",
              "parts": {
                "total": "1",
                "hash": "0BA5B7B396019DEEDEFC762302673A9645115C32"
              }
            },
            "signature": {
              "type": "tendermint/SignatureEd25519",
              "value": "a2SxGPmp5pY3pVZ0Sq5goWI5So+BM3INk1JNfLUZW98mIS0rN2o4dRGD7O6NIVN3X6NU9AVd6Q8EKcJ4238MCQ=="
            }
          },
          {
            "validator_address": "BC36FEDD6EF6071118A3E51859DF3831A2EC4782",
            "validator_index": "68",
            "height": "28177",
            "round": "0",
            "timestamp": "2018-08-01T04:41:36.970652457Z",
            "type": 2,
            "block_id": {
              "hash": "B0EA4DD3456292B7B36CAF7C68F7ECBA1DC47289",
              "parts": {
                "total": "1",
                "hash": "0BA5B7B396019DEEDEFC762302673A9645115C32"
              }
            },
            "signature": {
              "type": "tendermint/SignatureEd25519",
              "value": "ktdSZQq89tvHt4S9MosKx+d44X5uRjyhCdDu51mgBuc8z/0L/yFk05Ra72otYhDMhXKJUNug9FfMHMN+tXZCBA=="
            }
          },
          {
            "validator_address": "BD9D0DA513BF099DB4BB6E725A4E19832789882F",
            "validator_index": "69",
            "height": "28177",
            "round": "0",
            "timestamp": "2018-08-01T04:41:37.00211675Z",
            "type": 2,
            "block_id": {
              "hash": "B0EA4DD3456292B7B36CAF7C68F7ECBA1DC47289",
              "parts": {
                "total": "1",
                "hash": "0BA5B7B396019DEEDEFC762302673A9645115C32"
              }
            },
            "signature": {
              "type": "tendermint/SignatureEd25519",
              "value": "3qOCEMFp16cCV9DAvyrvLPwIXqucX/JZSE5NEV+MkHvwj2r9AaPbtYSHHPWpp4Tv7eQ5d8bWTvQ6dwxaGlIwAA=="
            }
          },
          {
            "validator_address": "C1134A2FF8F7338E7CDB3FE57DDD2A655DEB1E22",
            "validator_index": "70",
            "height": "28177",
            "round": "0",
            "timestamp": "2018-08-01T04:41:36.236274602Z",
            "type": 2,
            "block_id": {
              "hash": "B0EA4DD3456292B7B36CAF7C68F7ECBA1DC47289",
              "parts": {
                "total": "1",
                "hash": "0BA5B7B396019DEEDEFC762302673A9645115C32"
              }
            },
            "signature": {
              "type": "tendermint/SignatureEd25519",
              "value": "IRd/JKDX7DBp6h0UWDEIdnKdmKktStC0Uc/pdtbQ05LH3kIX9J24Ux2ydyeS0u+L9RyQXObK2V7qdOIlyNXZBw=="
            }
          },
          {
            "validator_address": "C39A8A2B85198DCB8F23AD1F6C198E2BA7AB5D60",
            "validator_index": "71",
            "height": "28177",
            "round": "0",
            "timestamp": "2018-08-01T04:41:36.940997162Z",
            "type": 2,
            "block_id": {
              "hash": "B0EA4DD3456292B7B36CAF7C68F7ECBA1DC47289",
              "parts": {
                "total": "1",
                "hash": "0BA5B7B396019DEEDEFC762302673A9645115C32"
              }
            },
            "signature": {
              "type": "tendermint/SignatureEd25519",
              "value": "kik3qZQw/P1JOJp2ecoCNzXJGQL1rchCfOycsY/dLDOF1MH+14uZyiiXDB20K+GSqSs86kunRH0aaec0nCBjCQ=="
            }
          },
          {
            "validator_address": "C4335190C3B5BD4BA5568BC0F99C34162D940D08",
            "validator_index": "72",
            "height": "28177",
            "round": "0",
            "timestamp": "2018-08-01T04:41:37.051197561Z",
            "type": 2,
            "block_id": {
              "hash": "B0EA4DD3456292B7B36CAF7C68F7ECBA1DC47289",
              "parts": {
                "total": "1",
                "hash": "0BA5B7B396019DEEDEFC762302673A9645115C32"
              }
            },
            "signature": {
              "type": "tendermint/SignatureEd25519",
              "value": "BMceAIjiQNoUC99oMTXf7Ix2myaKsABXgHG4GlaifISB2WXO6dQ9IH8J22in8t/WVWUXFBcKwaHT+l7W0HpUBQ=="
            }
          },
          {
            "validator_address": "C561CFA081677046376396922E7576E5F7B316AD",
            "validator_index": "73",
            "height": "28177",
            "round": "0",
            "timestamp": "2018-08-01T04:41:37.13811862Z",
            "type": 2,
            "block_id": {
              "hash": "B0EA4DD3456292B7B36CAF7C68F7ECBA1DC47289",
              "parts": {
                "total": "1",
                "hash": "0BA5B7B396019DEEDEFC762302673A9645115C32"
              }
            },
            "signature": {
              "type": "tendermint/SignatureEd25519",
              "value": "Y9c4Rpcq7FFEwhIvjqueSvVc+GZS8qas4DcSlDslTudI3PBecBTW4mRRRasUJjjHx3+82r3M1aBYWQf9I0wVAQ=="
            }
          },
          {
            "validator_address": "CE589EA77B056D268D30D1DC1D68A70E0F885E95",
            "validator_index": "74",
            "height": "28177",
            "round": "0",
            "timestamp": "2018-08-01T04:41:37.022644207Z",
            "type": 2,
            "block_id": {
              "hash": "B0EA4DD3456292B7B36CAF7C68F7ECBA1DC47289",
              "parts": {
                "total": "1",
                "hash": "0BA5B7B396019DEEDEFC762302673A9645115C32"
              }
            },
            "signature": {
              "type": "tendermint/SignatureEd25519",
              "value": "VS7yQ7c+HvNhKqgtEmZ9pftLoETgl8PmS4AFbQxE76HxjWRWmaLfMqwIUzwYSOKETe1CwgYZ9CvGnWu/h8BnAg=="
            }
          },
          {
            "validator_address": "CEB97DB5CB18270247ABDE6CF2F84F9AEE8A2904",
            "validator_index": "75",
            "height": "28177",
            "round": "0",
            "timestamp": "2018-08-01T04:41:37.532853043Z",
            "type": 2,
            "block_id": {
              "hash": "B0EA4DD3456292B7B36CAF7C68F7ECBA1DC47289",
              "parts": {
                "total": "1",
                "hash": "0BA5B7B396019DEEDEFC762302673A9645115C32"
              }
            },
            "signature": {
              "type": "tendermint/SignatureEd25519",
              "value": "ORYqMUaDb7Q6rwB5MNZMZJ5ec9yXuDPqdDK9nsRtm/3otMP7P2lJr23aRGvsMAhIXHpYLbgUSS+Rzit2lccjAw=="
            }
          },
          {
            "validator_address": "CF205769734F5758CC39F907EFB73D6BAF915FB1",
            "validator_index": "76",
            "height": "28177",
            "round": "0",
            "timestamp": "2018-08-01T04:41:37.059686695Z",
            "type": 2,
            "block_id": {
              "hash": "B0EA4DD3456292B7B36CAF7C68F7ECBA1DC47289",
              "parts": {
                "total": "1",
                "hash": "0BA5B7B396019DEEDEFC762302673A9645115C32"
              }
            },
            "signature": {
              "type": "tendermint/SignatureEd25519",
              "value": "RzkqDevgfr49+sZh/c+DJax6ESQ+Q8IN3yY/U13CaTDAqO6i6mS7hToU+vuiheoVnE2Dl6GNcDGdHx/Ay18VBQ=="
            }
          },
          {
            "validator_address": "D2134B826A1E25A955905CB79A4D8731CAFA0CCE",
            "validator_index": "77",
            "height": "28177",
            "round": "0",
            "timestamp": "2018-08-01T04:41:37.200902228Z",
            "type": 2,
            "block_id": {
              "hash": "B0EA4DD3456292B7B36CAF7C68F7ECBA1DC47289",
              "parts": {
                "total": "1",
                "hash": "0BA5B7B396019DEEDEFC762302673A9645115C32"
              }
            },
            "signature": {
              "type": "tendermint/SignatureEd25519",
              "value": "GKAnakxKsjFu+r6CpKbcP/+LQSIXAp6R9tu8hmdS7fXPigPeZZXakr/akGk6MgwbWKUz28xmpY6I0zt18dfdAA=="
            }
          },
          {
            "validator_address": "D6285C3422C8886445D53757CBE12D2B91B5A9D0",
            "validator_index": "78",
            "height": "28177",
            "round": "0",
            "timestamp": "2018-08-01T04:41:19.837516216Z",
            "type": 2,
            "block_id": {
              "hash": "B0EA4DD3456292B7B36CAF7C68F7ECBA1DC47289",
              "parts": {
                "total": "1",
                "hash": "0BA5B7B396019DEEDEFC762302673A9645115C32"
              }
            },
            "signature": {
              "type": "tendermint/SignatureEd25519",
              "value": "N0xw9mrfzwEob4fdUKdbI+OJov05401dPCVboytOCyQNSBknXIBoDyKWFZSQVcGfPAw3vNiFyc9Qplii27y1CQ=="
            }
          },
          {
            "validator_address": "D77FB84A729972CD3E757C9BEB61561855832B92",
            "validator_index": "79",
            "height": "28177",
            "round": "0",
            "timestamp": "2018-08-01T04:41:37.063615774Z",
            "type": 2,
            "block_id": {
              "hash": "B0EA4DD3456292B7B36CAF7C68F7ECBA1DC47289",
              "parts": {
                "total": "1",
                "hash": "0BA5B7B396019DEEDEFC762302673A9645115C32"
              }
            },
            "signature": {
              "type": "tendermint/SignatureEd25519",
              "value": "rRxbijcVFe2c9A+r3hngz3CTgg5DsKtjjj+9PiOi4swOPojYPpWAIBvFOqHwPtAp6Oh0dY4IQ8apOCaoFmhLBw=="
            }
          },
          {
            "validator_address": "DB7E6732471D3EA5C90C17A9974D9F88AB45F2FB",
            "validator_index": "80",
            "height": "28177",
            "round": "0",
            "timestamp": "2018-08-01T04:41:36.989106109Z",
            "type": 2,
            "block_id": {
              "hash": "B0EA4DD3456292B7B36CAF7C68F7ECBA1DC47289",
              "parts": {
                "total": "1",
                "hash": "0BA5B7B396019DEEDEFC762302673A9645115C32"
              }
            },
            "signature": {
              "type": "tendermint/SignatureEd25519",
              "value": "Qf1psCAnvlQAKJJ96DZcVMtsONC2JEcETPlQtr++5GtK/V7q4AjywIeXCQmz+v8z/0GABOdYPzQCSduYOrroAg=="
            }
          },
          {
            "validator_address": "DF54B862410BCD9B5C516FBB6C56BDC826ED6FA7",
            "validator_index": "81",
            "height": "28177",
            "round": "0",
            "timestamp": "2018-08-01T04:41:37.147991087Z",
            "type": 2,
            "block_id": {
              "hash": "B0EA4DD3456292B7B36CAF7C68F7ECBA1DC47289",
              "parts": {
                "total": "1",
                "hash": "0BA5B7B396019DEEDEFC762302673A9645115C32"
              }
            },
            "signature": {
              "type": "tendermint/SignatureEd25519",
              "value": "VhOYr23cSSq86TDmxTZuToj4gy7kaGpAFyqotmh/BeAi+20coRp4oqkAu7sNG9y4XPR09tnS9lScDXMyxxnhAA=="
            }
          },
          {
            "validator_address": "DFAF0C8B1B78D6D552B0189DE3ACA351439A1319",
            "validator_index": "82",
            "height": "28177",
            "round": "0",
            "timestamp": "2018-08-01T04:41:36.929036426Z",
            "type": 2,
            "block_id": {
              "hash": "B0EA4DD3456292B7B36CAF7C68F7ECBA1DC47289",
              "parts": {
                "total": "1",
                "hash": "0BA5B7B396019DEEDEFC762302673A9645115C32"
              }
            },
            "signature": {
              "type": "tendermint/SignatureEd25519",
              "value": "xhvSfoc5ltlsGqp3lBkzbG1tqbTuNwlJAPf0kAO2N24pBksi6tuXJINnKNLvr63c8Ci4UHdNZ04VPSGUpuo3BQ=="
            }
          },
          {
            "validator_address": "E1DBC77881161A5A3A8536A57536EAE546A75D69",
            "validator_index": "83",
            "height": "28177",
            "round": "0",
            "timestamp": "2018-08-01T04:41:36.916090499Z",
            "type": 2,
            "block_id": {
              "hash": "B0EA4DD3456292B7B36CAF7C68F7ECBA1DC47289",
              "parts": {
                "total": "1",
                "hash": "0BA5B7B396019DEEDEFC762302673A9645115C32"
              }
            },
            "signature": {
              "type": "tendermint/SignatureEd25519",
              "value": "WZo6P2Ikl2HXUTQij9tkp+E3Jmrh0796pE/8BHz2aMkhFpdUIuqPgE/5JNjfyITplWUapbwmrU/ERnESP/VSCA=="
            }
          },
          {
            "validator_address": "E300E9D484374C1D3E97C1D93CAC3B160A056298",
            "validator_index": "84",
            "height": "28177",
            "round": "0",
            "timestamp": "2018-08-01T04:41:37.210647028Z",
            "type": 2,
            "block_id": {
              "hash": "B0EA4DD3456292B7B36CAF7C68F7ECBA1DC47289",
              "parts": {
                "total": "1",
                "hash": "0BA5B7B396019DEEDEFC762302673A9645115C32"
              }
            },
            "signature": {
              "type": "tendermint/SignatureEd25519",
              "value": "bf/iiUM5NUbixs1IS1vb9voAaEyWA61vnHXSdvvhKf47tYhrmBiQHbv6ygW109nBXYuGqfagRZGLUkC7L6q1BQ=="
            }
          },
          {
            "validator_address": "E39B5778E0D4297A46F45CF6940B0A163A430FF8",
            "validator_index": "85",
            "height": "28177",
            "round": "0",
            "timestamp": "2018-08-01T04:41:36.993204396Z",
            "type": 2,
            "block_id": {
              "hash": "B0EA4DD3456292B7B36CAF7C68F7ECBA1DC47289",
              "parts": {
                "total": "1",
                "hash": "0BA5B7B396019DEEDEFC762302673A9645115C32"
              }
            },
            "signature": {
              "type": "tendermint/SignatureEd25519",
              "value": "cypp+QYeaaEUZLMTKIYExPy4ngzapTsSaL69+aTUvxOBQNe9frfmJvzNSBtBszP1qVUn2bDVGNPNrFzHXorWDQ=="
            }
          },
          {
            "validator_address": "E3B19738F7132F950668504D326C7660F159D170",
            "validator_index": "86",
            "height": "28177",
            "round": "0",
            "timestamp": "2018-08-01T04:41:36.945163144Z",
            "type": 2,
            "block_id": {
              "hash": "B0EA4DD3456292B7B36CAF7C68F7ECBA1DC47289",
              "parts": {
                "total": "1",
                "hash": "0BA5B7B396019DEEDEFC762302673A9645115C32"
              }
            },
            "signature": {
              "type": "tendermint/SignatureEd25519",
              "value": "Gcqmfjw0W2kK62+JCl70+b5n4wgk6Lzbna3fdjhNlLtniXZ17blJfo+RJ7HRNpf2XC+o1JC5Y9zwVA85U96SCQ=="
            }
          },
          {
            "validator_address": "E42F8AEABB685219F7027F54D2B0DBC7846F633A",
            "validator_index": "87",
            "height": "28177",
            "round": "0",
            "timestamp": "2018-08-01T04:41:36.051175984Z",
            "type": 2,
            "block_id": {
              "hash": "B0EA4DD3456292B7B36CAF7C68F7ECBA1DC47289",
              "parts": {
                "total": "1",
                "hash": "0BA5B7B396019DEEDEFC762302673A9645115C32"
              }
            },
            "signature": {
              "type": "tendermint/SignatureEd25519",
              "value": "c6rxnVAHoN/A1EGmbC5zPBMBvPPTp0lZENDRqc24yfnKdDqE4ZSAMfRErr59KNj2BEDDs1+TQENyKyk05hX8CA=="
            }
          },
          {
            "validator_address": "E4E6C2E81269DFFA196C17F98240E491479A6008",
            "validator_index": "88",
            "height": "28177",
            "round": "0",
            "timestamp": "2018-08-01T04:41:37.148191805Z",
            "type": 2,
            "block_id": {
              "hash": "B0EA4DD3456292B7B36CAF7C68F7ECBA1DC47289",
              "parts": {
                "total": "1",
                "hash": "0BA5B7B396019DEEDEFC762302673A9645115C32"
              }
            },
            "signature": {
              "type": "tendermint/SignatureEd25519",
              "value": "QTcG8+hhaedhgmAi7zL/xs3Go0BWBFV0TJWlHHlLhbwo0/eazcxT6cDjexT/VtqUc79CUDAVS2zBExSbSVp6BQ=="
            }
          },
          {
            "validator_address": "E4FEB2846F4F3B0ECDCBE9C9DCB2248248A5AF0F",
            "validator_index": "89",
            "height": "28177",
            "round": "0",
            "timestamp": "2018-08-01T04:41:37.334558691Z",
            "type": 2,
            "block_id": {
              "hash": "B0EA4DD3456292B7B36CAF7C68F7ECBA1DC47289",
              "parts": {
                "total": "1",
                "hash": "0BA5B7B396019DEEDEFC762302673A9645115C32"
              }
            },
            "signature": {
              "type": "tendermint/SignatureEd25519",
              "value": "b2UTFt0zLHhLYN0Os/pYTb468d8BsUoEZsb90Twl48rPEaUlyQvksNSRXGOUadeiJ8VllPdxPj1rqxt6RmEJAA=="
            }
          },
          {
            "validator_address": "E6A7079D584B163750BE0831227F6B685DEAF3C1",
            "validator_index": "90",
            "height": "28177",
            "round": "0",
            "timestamp": "2018-08-01T04:41:37.113783632Z",
            "type": 2,
            "block_id": {
              "hash": "B0EA4DD3456292B7B36CAF7C68F7ECBA1DC47289",
              "parts": {
                "total": "1",
                "hash": "0BA5B7B396019DEEDEFC762302673A9645115C32"
              }
            },
            "signature": {
              "type": "tendermint/SignatureEd25519",
              "value": "P231AcHgoJsihvUkdUVpV+xU1705A96xAsNwKgYFtwnvyaiDDFds1zC9jghNK7IhmBReanfWQhGmJx7Pc5eqDg=="
            }
          },
          {
            "validator_address": "E7A30077D5D11867D3EAF99ED45BFDC1EB834509",
            "validator_index": "91",
            "height": "28177",
            "round": "0",
            "timestamp": "2018-08-01T04:41:36.958484812Z",
            "type": 2,
            "block_id": {
              "hash": "B0EA4DD3456292B7B36CAF7C68F7ECBA1DC47289",
              "parts": {
                "total": "1",
                "hash": "0BA5B7B396019DEEDEFC762302673A9645115C32"
              }
            },
            "signature": {
              "type": "tendermint/SignatureEd25519",
              "value": "fx7H1KoiPGoRRYYTwv0lLgW6iEW4BeyguUvVhMSuU6y/tKajzDT0U0XIQQZkm63Vx1XGPB1XtzuBhAEXzz57Bg=="
            }
          },
          {
            "validator_address": "EBC613967F66F4EC306852CDF58B4F151CF16738",
            "validator_index": "92",
            "height": "28177",
            "round": "0",
            "timestamp": "2018-08-01T04:41:37.047504416Z",
            "type": 2,
            "block_id": {
              "hash": "B0EA4DD3456292B7B36CAF7C68F7ECBA1DC47289",
              "parts": {
                "total": "1",
                "hash": "0BA5B7B396019DEEDEFC762302673A9645115C32"
              }
            },
            "signature": {
              "type": "tendermint/SignatureEd25519",
              "value": "dtQ8mDXFfSGUOSU0Exb3PyqRHACQnEzD1+xgXzQk3ELsbiMGLFcQqJMvumg2NEdTcp25NaE53ScA+I8qftr2Cw=="
            }
          },
          {
            "validator_address": "EC3401441726C40ECC7E51F744483B05BC6DE9BD",
            "validator_index": "93",
            "height": "28177",
            "round": "0",
            "timestamp": "2018-08-01T04:41:37.013954655Z",
            "type": 2,
            "block_id": {
              "hash": "B0EA4DD3456292B7B36CAF7C68F7ECBA1DC47289",
              "parts": {
                "total": "1",
                "hash": "0BA5B7B396019DEEDEFC762302673A9645115C32"
              }
            },
            "signature": {
              "type": "tendermint/SignatureEd25519",
              "value": "yXgEZhaJXnatV/2efRJiqQIR+fkRKHIUIKyg+Y+gAUkW10SEPpjius1z7/QsJ54ILBmqsa45dqBTJUSheH1nAg=="
            }
          },
          {
            "validator_address": "EC95B111D032181E1EC3B5E8875C5BB8E4AE7140",
            "validator_index": "94",
            "height": "28177",
            "round": "0",
            "timestamp": "2018-08-01T04:41:36.921612694Z",
            "type": 2,
            "block_id": {
              "hash": "B0EA4DD3456292B7B36CAF7C68F7ECBA1DC47289",
              "parts": {
                "total": "1",
                "hash": "0BA5B7B396019DEEDEFC762302673A9645115C32"
              }
            },
            "signature": {
              "type": "tendermint/SignatureEd25519",
              "value": "wEp5xVoTBQweTY+fTw7ACvswoI5c6f9/RGssCp9w/CQzMy6+SjTSj9RZGfNnyY/V6VfXi9p2EBmn5EBowcyQCQ=="
            }
          },
          {
            "validator_address": "F13C1805E8131C9B47E2A46818F57D8A2841E578",
            "validator_index": "95",
            "height": "28177",
            "round": "0",
            "timestamp": "2018-08-01T04:41:37.06073338Z",
            "type": 2,
            "block_id": {
              "hash": "B0EA4DD3456292B7B36CAF7C68F7ECBA1DC47289",
              "parts": {
                "total": "1",
                "hash": "0BA5B7B396019DEEDEFC762302673A9645115C32"
              }
            },
            "signature": {
              "type": "tendermint/SignatureEd25519",
              "value": "6zaLna01CCrrbRN8iyXHEpK7NztDVk3gYuEAPevcU5pScsAw0ewwO5O+83Ic1whkcVMcijjqKuKTjeEYgeyPAw=="
            }
          },
          {
            "validator_address": "F23FF36BD5B90C33CE3A03ED72DBDCF5EC07D6AF",
            "validator_index": "96",
            "height": "28177",
            "round": "0",
            "timestamp": "2018-08-01T04:41:37.05699723Z",
            "type": 2,
            "block_id": {
              "hash": "B0EA4DD3456292B7B36CAF7C68F7ECBA1DC47289",
              "parts": {
                "total": "1",
                "hash": "0BA5B7B396019DEEDEFC762302673A9645115C32"
              }
            },
            "signature": {
              "type": "tendermint/SignatureEd25519",
              "value": "+liFuqbiJJaEhITPtS1qVd5Xl6QEw3+VpEleQ+A5gPVtZwfRxpjlzvi8Wq46V0cZnCA1LtZ5Wi+BFh4OykzOAg=="
            }
          },
          {
            "validator_address": "F4268597DE93E3E2CED38845010F8AA34E2A879E",
            "validator_index": "97",
            "height": "28177",
            "round": "0",
            "timestamp": "2018-08-01T04:41:37.062429168Z",
            "type": 2,
            "block_id": {
              "hash": "B0EA4DD3456292B7B36CAF7C68F7ECBA1DC47289",
              "parts": {
                "total": "1",
                "hash": "0BA5B7B396019DEEDEFC762302673A9645115C32"
              }
            },
            "signature": {
              "type": "tendermint/SignatureEd25519",
              "value": "aZv+E90WBrfy5FG/LgMi4F59OAgQQbdTOmROAqbPOef1L7fjh2wSWTjGtSR9INudhC8OhbU6GhDbBzs1XnzfDQ=="
            }
          },
          {
            "validator_address": "F4DEB417999B04BE2EFF9FFE03FA373D86011CC0",
            "validator_index": "98",
            "height": "28177",
            "round": "0",
            "timestamp": "2018-08-01T04:41:37.086664502Z",
            "type": 2,
            "block_id": {
              "hash": "B0EA4DD3456292B7B36CAF7C68F7ECBA1DC47289",
              "parts": {
                "total": "1",
                "hash": "0BA5B7B396019DEEDEFC762302673A9645115C32"
              }
            },
            "signature": {
              "type": "tendermint/SignatureEd25519",
              "value": "DoExupJiEaj0KHmxDTdOs2WKPn1qcj1Aqbq9VvkLphEWEsj8WfqtTozbfaoGdLRp4r7ezGjCI1QGFtuNNjc7CA=="
            }
          },
          {
            "validator_address": "F6738260186D33D9C14FC6E7017AFE6BB952A63D",
            "validator_index": "99",
            "height": "28177",
            "round": "0",
            "timestamp": "2018-08-01T04:41:37.004797945Z",
            "type": 2,
            "block_id": {
              "hash": "B0EA4DD3456292B7B36CAF7C68F7ECBA1DC47289",
              "parts": {
                "total": "1",
                "hash": "0BA5B7B396019DEEDEFC762302673A9645115C32"
              }
            },
            "signature": {
              "type": "tendermint/SignatureEd25519",
              "value": "dhXV2GBQjd/oeyYBAVKWyJXk8BcJCwoatmWRPukFtq/ci8FZchu+Lhq4+GrskNj1o28Oe0wrNfo5zq91aWPpAw=="
            }
          },
          {
            "validator_address": "FF3F3FCBCE7E62D7AD5506FF846EC4518D980515",
            "validator_index": "100",
            "height": "28177",
            "round": "0",
            "timestamp": "2018-08-01T04:41:36.996680232Z",
            "type": 2,
            "block_id": {
              "hash": "B0EA4DD3456292B7B36CAF7C68F7ECBA1DC47289",
              "parts": {
                "total": "1",
                "hash": "0BA5B7B396019DEEDEFC762302673A9645115C32"
              }
            },
            "signature": {
              "type": "tendermint/SignatureEd25519",
              "value": "tak8S2TawNm/9kZQtOt2xY9zXepnxc1clBsA/z4Ep2QdBMJ4yOFmwz7HOsBRxZqxWvT0+ew+TQswHowIUn2pAA=="
            }
          }
        ]
      }
    },
    "canonical": true
  }
}