{
  "jsonrpc": "2.0",
  "id": "",
  "result": {
    "SignedHeader": {
      "header": {
        "chain_id": "gaia-7004",
        "height": "29458",
        "time": "2018-08-01T06:53:39.060046245Z",
        "num_txs": "0",
        "last_block_id": {
          "hash": "D101ABF3162509C3508B0E68C398F8266C6E4A6B",
          "parts": {
            "total": "1",
            "hash": "BCBB9DA2E3D094EAEC3CCA68ADD70CC38AEA82AC"
          }
        },
        "total_txs": "1264",
        "last_commit_hash": "97E0A5A8FAF24E63ABACE748919AF177A0509729",
        "data_hash": "",
        "validators_hash": "E3FAD2F8DF7AD264B66560BDC71820DD7C43F76B",
        "consensus_hash": "D6B74BB35BDFFD8392340F2A379173548AE188FE",
        "app_hash": "EA74DAAFA306A2387EBEDAEE57254331C34D555E",
        "last_results_hash": "",
        "evidence_hash": ""
      },
      "commit": {
        "block_id": {
          "hash": "A17E873DC4CCCD03737E94993EB9D3D9A0559045",
          "parts": {
            "total": "1",
            "hash": "D9EA7A9B143CBBE664DA6C342D890D384D80ADC5"
          }
        },
        "precommits": [
          {
            "validator_address": "029359C0C768096273A68ABC902A6B17AC8D1D70",
            "validator_index": "0",
            "height": "29458",
            "round": "0",
            "timestamp": "2018-08-01T06:53:39.985681465Z",
            "type": 2,
            "block_id": {
              "hash": "A17E873DC4CCCD03737E94993EB9D3D9A0559045",
              "parts": {
                "total": "1",
                "hash": "D9EA7A9B143CBBE664DA6C342D890D384D80ADC5"
              }
            },
            "signature": {
              "type": "tendermint/SignatureEd25519",
              "value": "QvVqApv0W008vLS44HmJdok8sX/dA60K4kkgWD7ahKWv+kKXHVIIvNeO34jt1RUA1bhgMSqdT4tvJPSFD660Bg=="
            }
          },
          {
            "validator_address": "02FE4B97A8387F39D1AC19E0C1702B3CC614812F",
            "validator_index": "1",
            "height": "29458",
            "round": "0",
            "timestamp": "2018-08-01T06:53:40.021478937Z",
            "type": 2,
            "block_id": {
              "hash": "A17E873DC4CCCD03737E94993EB9D3D9A0559045",
              "parts": {
                "total": "1",
                "hash": "D9EA7A9B143CBBE664DA6C342D890D384D80ADC5"
              }
            },
            "signature": {
              "type": "tendermint/SignatureEd25519",
              "value": "iqcW8s+NzolCzZqQ91Ps7BrxJktOsq5EnkIBQNq7CLl+r35O4PzfRvr1U0TP7jwTFXP+nBb2S3D/Wf2MWtL/Bg=="
            }
          },
          {
            "validator_address": "0548261C50222FD710EB5EBDF03A0E6567B21D20",
            "validator_index": "2",
            "height": "29458",
            "round": "0",
            "timestamp": "2018-08-01T06:53:40.090606268Z",
            "type": 2,
            "block_id": {
              "hash": "A17E873DC4CCCD03737E94993EB9D3D9A0559045",
              "parts": {
                "total": "1",
                "hash": "D9EA7A9B143CBBE664DA6C342D890D384D80ADC5"
              }
            },
            "signature": {
              "type": "tendermint/SignatureEd25519",
              "value": "msMl6tSwphJJptXjtsOofQX1HvtsR6cwqVkndpbirYtK0yFSjbyFuwLPMrTevXOkdIrhUKhnYGaWK6x00c3NAw=="
            }
          },
          {
            "validator_address": "09145E611CC27EEB944FC5A956DDF710F943B9EF",
            "validator_index": "3",
            "height": "29458",
            "round": "0",
            "timestamp": "2018-08-01T06:53:40.110757571Z",
            "type": 2,
            "block_id": {
              "hash": "A17E873DC4CCCD03737E94993EB9D3D9A0559045",
              "parts": {
                "total": "1",
                "hash": "D9EA7A9B143CBBE664DA6C342D890D384D80ADC5"
              }
            },
            "signature": {
              "type": "tendermint/SignatureEd25519",
              "value": "nSXlZqdKZB27Q0Iec67+PQKt95/NOcjXq4JsL7BqsXlDqPQ9aJL/UvvPmMCpgW8oLCs0o3uL5uTmnvyO/H1sAw=="
            }
          },
          {
            "validator_address": "0989D0355A104B67AE0AE028C68FB610690E174B",
            "validator_index": "4",
            "height": "29458",
            "round": "0",
            "timestamp": "2018-08-01T06:53:39.995011854Z",
            "type": 2,
            "block_id": {
              "hash": "A17E873DC4CCCD03737E94993EB9D3D9A0559045",
              "parts": {
                "total": "1",
                "hash": "D9EA7A9B143CBBE664DA6C342D890D384D80ADC5"
              }
            },
            "signature": {
              "type": "tendermint/SignatureEd25519",
              "value": "DDwxGQai6rwJ9hdxfZ6JjT7qDYs0t8yM66uJaSlgQiduoo0DTpfU/b9P7qFlshyHmfJ5iRhoPXb/c+m9XS/rCw=="
            }
          },
          {
            "validator_address": "0A692DBFFE9E5DD28E7DECC33CED1AEB4C0D014E",
            "validator_index": "5",
            "height": "29458",
            "round": "0",
            "timestamp": "2018-08-01T06:53:40.155704977Z",
            "type": 2,
            "block_id": {
              "hash": "A17E873DC4CCCD03737E94993EB9D3D9A0559045",
              "parts": {
                "total": "1",
                "hash": "D9EA7A9B143CBBE664DA6C342D890D384D80ADC5"
              }
            },
            "signature": {
              "type": "tendermint/SignatureEd25519",
              "value": "IYd7vlRYHLlVb1AYu0+l49p16+ox9popBCistO0VBiehq13e3fVSMtPoT+keybVjDy3GHKOI2rYpfnuurfEnAg=="
            }
          },
          {
            "validator_address": "0DDF97111D73DB825138EC15EC27DE5FE8536901",
            "validator_index": "6",
            "height": "29458",
            "round": "0",
            "timestamp": "2018-08-01T06:53:40.053180098Z",
            "type": 2,
            "block_id": {
              "hash": "A17E873DC4CCCD03737E94993EB9D3D9A0559045",
              "parts": {
                "total": "1",
                "hash": "D9EA7A9B143CBBE664DA6C342D890D384D80ADC5"
              }
            },
            "signature": {
              "type": "tendermint/SignatureEd25519",
              "value": "+wfJVBbdW9J1tSXQyvProCPZ8s/wHwM2HHeD50BPFuoVBgEtH8FdPzVlvdPnzGAt0eYB+H6YJsHt5L5cuHLPBw=="
            }
          },
          {
            "validator_address": "1751786EFC085D5331C61168FFFC8202EA151B4E",
            "validator_index": "7",
            "height": "29458",
            "round": "0",
            "timestamp": "2018-08-01T06:53:39.697189281Z",
            "type": 2,
            "block_id": {
              "hash": "A17E873DC4CCCD03737E94993EB9D3D9A0559045",
              "parts": {
                "total": "1",
                "hash": "D9EA7A9B143CBBE664DA6C342D890D384D80ADC5"
              }
            },
            "signature": {
              "type": "tendermint/SignatureEd25519",
              "value": "Yh6MpZK/bWDiU57GgFbL+jA4WEXZu/1V+pGvYHFSTztfA/P3AnJ0vaUvcO5z93xYcRQGwalaQ42ulvH06KCGBg=="
            }
          },
          {
            "validator_address": "17BB5CD01E8940FAFB948A04D5FA5A0645E5822E",
            "validator_index": "8",
            "height": "29458",
            "round": "0",
            "timestamp": "2018-08-01T06:53:40.040352715Z",
            "type": 2,
            "block_id": {
              "hash": "A17E873DC4CCCD03737E94993EB9D3D9A0559045",
              "parts": {
                "total": "1",
                "hash": "D9EA7A9B143CBBE664DA6C342D890D384D80ADC5"
              }
            },
            "signature": {
              "type": "tendermint/SignatureEd25519",
              "value": "x6sT2UcPg/gNvukgRL395P9OoMBoXZVntci6O8suebc/Ia0jvC4s53KJin2bSk5iONs8cwEEcJjYVCsoZGItAA=="
            }
          },
          {
            "validator_address": "1C683A87904BC38F05004FE83301A3A3E35447EB",
            "validator_index": "9",
            "height": "29458",
            "round": "0",
            "timestamp": "2018-08-01T06:53:39.98100847Z",
            "type": 2,
            "block_id": {
              "hash": "A17E873DC4CCCD03737E94993EB9D3D9A0559045",
              "parts": {
                "total": "1",
                "hash": "D9EA7A9B143CBBE664DA6C342D890D384D80ADC5"
              }
            },
            "signature": {
              "type": "tendermint/SignatureEd25519",
              "value": "RhpokxtHISRnZ7O+90DdBq/AiEr1wJgOVRmFuK6RJMBZsbGIgDQO5+Mqjr6ElgNhpyQH/mh+amASmhdJRuDrDg=="
            }
          },
          {
            "validator_address": "1E9CE94FD0BA5CFEB901F90BC658D64D85B134D2",
            "validator_index": "10",
            "height": "29458",
            "round": "0",
            "timestamp": "2018-08-01T06:53:40.091746173Z",
            "type": 2,
            "block_id": {
              "hash": "A17E873DC4CCCD03737E94993EB9D3D9A0559045",
              "parts": {
                "total": "1",
                "hash": "D9EA7A9B143CBBE664DA6C342D890D384D80ADC5"
              }
            },
            "signature": {
              "type": "tendermint/SignatureEd25519",
              "value": "mnZUO0BtTV+bSkQxXJ1r60tzBi9Szey6agf7Vew+//ab7KcQI1cJwgu4p8TUjSWRCPCgFeRK8w0lwSMnK4R+Bg=="
            }
          },
          {
            "validator_address": "1ECD8C5FE1341D74CDC633A245DD56858DE2F9A2",
            "validator_index": "11",
            "height": "29458",
            "round": "0",
            "timestamp": "2018-08-01T06:53:40.224148661Z",
            "type": 2,
            "block_id": {
              "hash": "A17E873DC4CCCD03737E94993EB9D3D9A0559045",
              "parts": {
                "total": "1",
                "hash": "D9EA7A9B143CBBE664DA6C342D890D384D80ADC5"
              }
            },
            "signature": {
              "type": "tendermint/SignatureEd25519",
              "value": "PUQh1mrIV1B0Natv2zBWq6uP5Eni7ESmg4gkcyRkYPFOl1MIxKPsTpg9/dytxyr1gRtyks1cgRhW8NEGRdCaCg=="
            }
          },
          {
            "validator_address": "1F3A68CAAD483768AA2BF667DEF10F7104C89928",
            "validator_index": "12",
            "height": "29458",
            "round": "0",
            "timestamp": "2018-08-01T06:53:40.074580078Z",
            "type": 2,
            "block_id": {
              "hash": "A17E873DC4CCCD03737E94993EB9D3D9A0559045",
              "parts": {
                "total": "1",
                "hash": "D9EA7A9B143CBBE664DA6C342D890D384D80ADC5"
              }
            },
            "signature": {
              "type": "tendermint/SignatureEd25519",
              "value": "ZkxfgxqF4bzVwzlDMk4Y8UlnziLJA6C50dlfSihfDPyLhHtIZxN0Zjewvtieb0tkemDI6LvpQ8ZJZe5kTivYAw=="
            }
          },
          {
            "validator_address": "23897586D68E2AC1C78E0EF5BB5DF5C8EAB18F50",
            "validator_index": "13",
            "height": "29458",
            "round": "0",
            "timestamp": "2018-08-01T06:53:40.070461288Z",
            "type": 2,
            "block_id": {
              "hash": "A17E873DC4CCCD03737E94993EB9D3D9A0559045",
              "parts": {
                "total": "1",
                "hash": "D9EA7A9B143CBBE664DA6C342D890D384D80ADC5"
              }
            },
            "signature": {
              "type": "tendermint/SignatureEd25519",
              "value": "YV00eGv4jWhAJElTtmDUKLLEPtuiqkzzqTDIpFl5MqHjkG1xo/sPMPb2bfbV/KNmPlp+2Oa1pF4LIwsrN3+1DA=="
            }
          },
          {
            "validator_address": "28770D17E8530825E7310A0659308654B7EC9682",
            "validator_index": "14",
            "height": "29458",
            "round": "0",
            "timestamp": "2018-08-01T06:53:40.013151703Z",
            "type": 2,
            "block_id": {
              "hash": "A17E873DC4CCCD03737E94993EB9D3D9A0559045",
              "parts": {
                "total": "1",
                "hash": "D9EA7A9B143CBBE664DA6C342D890D384D80ADC5"
              }
            },
            "signature": {
              "type": "tendermint/SignatureEd25519",
              "value": "8dHhYyxKM3DIJoqKMMwM4cPRVoZGmHvGwuuRgriyTwIOPI8xjNmkckHEeVZSlVAM0jM4VUGgX1lN+luipgvsAQ=="
            }
          },
          {
            "validator_address": "2A92EC3C642140202298D0E245095E0ECFC25228",
            "validator_index": "15",
            "height": "29458",
            "round": "0",
            "timestamp": "2018-08-01T06:53:40.098905494Z",
            "type": 2,
            "block_id": {
              "hash": "A17E873DC4CCCD03737E94993EB9D3D9A0559045",
              "parts": {
                "total": "1",
                "hash": "D9EA7A9B143CBBE664DA6C342D890D384D80ADC5"
              }
            },
            "signature": {
              "type": "tendermint/SignatureEd25519",
              "value": "JTq3R3cDi+OWM3aqHtMjQ2f8wfFUCZgf/MY3I2O0A8Vr4CCfY4vH0CaVasoFJAkmmHlza/E0HffdMuriLFJ5DA=="
            }
          },
          {
            "validator_address": "33412C9A69C60CB0FAA24A5C5B3A906DE24B47C2",
            "validator_index": "16",
            "height": "29458",
            "round": "0",
            "timestamp": "2018-08-01T06:53:40.014685532Z",
            "type": 2,
            "block_id": {
              "hash": "A17E873DC4CCCD03737E94993EB9D3D9A0559045",
              "parts": {
                "total": "1",
                "hash": "D9EA7A9B143CBBE664DA6C342D890D384D80ADC5"
              }
            },
            "signature": {
              "type": "tendermint/SignatureEd25519",
              "value": "RTwpajCZ0vRZOTZxD1pUch8u2t9aon6y8IwpPbJiR6sktfF+1FWV1+bTYnHd0gdulWvk1RedDFKQKr9TbvXSDw=="
            }
          },
          {
            "validator_address": "3383EF2A13B160C41947AC30434B274B2FAF0617",
            "validator_index": "17",
            "height": "29458",
            "round": "0",
            "timestamp": "2018-08-01T06:53:40.064077506Z",
            "type": 2,
            "block_id": {
              "hash": "A17E873DC4CCCD03737E94993EB9D3D9A0559045",
              "parts": {
                "total": "1",
                "hash": "D9EA7A9B143CBBE664DA6C342D890D384D80ADC5"
              }
            },
            "signature": {
              "type": "tendermint/SignatureEd25519",
              "value": "k7X89qffjBqWbQjuuSlZ5WkXmgy2P+pOfmjmZib+yNcNqORdV5DhwyuaI2XxTJiX36TZ10awbggf9djLRrwXCQ=="
            }
          },
          {
            "validator_address": "36E9B7FAEC964F97D84C028ED62493E373AD0B38",
            "validator_index": "18",
            "height": "29458",
            "round": "0",
            "timestamp": "2018-08-01T06:53:40.122495442Z",
            "type": 2,
            "block_id": {
              "hash": "A17E873DC4CCCD03737E94993EB9D3D9A0559045",
              "parts": {
                "total": "1",
                "hash": "D9EA7A9B143CBBE664DA6C342D890D384D80ADC5"
              }
            },
            "signature": {
              "type": "tendermint/SignatureEd25519",
              "value": "nu1nsfnDzsQpTfHliV4FiNZtkP7WQp2r0lUm1HkfyMARWyKJ+yX4L1qrWIE9yOaaCT5A8+h9gHtuYbD0qo57DQ=="
            }
          },
          {
            "validator_address": "38A8D85D36BEA2E5FCF8A1E778F53628E450EF13",
            "validator_index": "19",
            "height": "29458",
            "round": "0",
            "timestamp": "2018-08-01T06:53:40.147805481Z",
            "type": 2,
            "block_id": {
              "hash": "A17E873DC4CCCD03737E94993EB9D3D9A0559045",
              "parts": {
                "total": "1",
                "hash": "D9EA7A9B143CBBE664DA6C342D890D384D80ADC5"
              }
            },
            "signature": {
              "type": "tendermint/SignatureEd25519",
              "value": "7TofJiQ1slK0yvpkF9mIsOTZ4QeidBPSc/czwRiwsE5rqUQmqFKPsQqLA3ZfhKo2FGprpWjs6+7avgMYwdaTDg=="
            }
          },
          {
            "validator_address": "39DFDA0C5DB84B269642188B23253508537798E6",
            "validator_index": "20",
            "height": "29458",
            "round": "0",
            "timestamp": "2018-08-01T06:53:39.980117089Z",
            "type": 2,
            "block_id": {
              "hash": "A17E873DC4CCCD03737E94993EB9D3D9A0559045",
              "parts": {
                "total": "1",
                "hash": "D9EA7A9B143CBBE664DA6C342D890D384D80ADC5"
              }
            },
            "signature": {
              "type": "tendermint/SignatureEd25519",
              "value": "WvBKTDC6JGIulym6imv4S1ERtdA6RYWN1BsUKjh1AM/pHbfzq4O4ocrhWz1jQ5te3snnpkybMm+Eur8aIWU5Bg=="
            }
          },
          {
            "validator_address": "3AC99B708404452366E0953A4BE849226DC86CBC",
            "validator_index": "21",
            "height": "29458",
            "round": "0",
            "timestamp": "2018-08-01T06:53:40.161386433Z",
            "type": 2,
            "block_id": {
              "hash": "A17E873DC4CCCD03737E94993EB9D3D9A0559045",
              "parts": {
                "total": "1",
                "hash": "D9EA7A9B143CBBE664DA6C342D890D384D80ADC5"
              }
            },
            "signature": {
              "type": "tendermint/SignatureEd25519",
              "value": "cDroy9q/haPcSOIV6ZU/Db1umdqlgl9mFxgQDaLIHFJuYfecBv0ZmQEHa1Suh8OoYMFkYugWGmWrRgWUgPmXCg=="
            }
          },
          {
            "validator_address": "3DCB822A10ED319EC7C4393D8E3FD4A41B15AAF2",
            "validator_index": "22",
            "height": "29458",
            "round": "0",
            "timestamp": "2018-08-01T06:53:39.996351676Z",
            "type": 2,
            "block_id": {
              "hash": "A17E873DC4CCCD03737E94993EB9D3D9A0559045",
              "parts": {
                "total": "1",
                "hash": "D9EA7A9B143CBBE664DA6C342D890D384D80ADC5"
              }
            },
            "signature": {
              "type": "tendermint/SignatureEd25519",
              "value": "SsW+/jBVz5ee6xKYjYm7R7I1P+P7PxRvbxGsdWJ1xWxhOeL3qr3nLsT7RhoVM6hswqhAMvJIcYmKJa5k9ENUAQ=="
            }
          },
          {
            "validator_address": "3E899BA36A93C7370347BD5FE85909F2ECD93F8C",
            "validator_index": "23",
            "height": "29458",
            "round": "0",
            "timestamp": "2018-08-01T06:53:40.059834177Z",
            "type": 2,
            "block_id": {
              "hash": "A17E873DC4CCCD03737E94993EB9D3D9A0559045",
              "parts": {
                "total": "1",
                "hash": "D9EA7A9B143CBBE664DA6C342D890D384D80ADC5"
              }
            },
            "signature": {
              "type": "tendermint/SignatureEd25519",
              "value": "uJuEIDOoMjj1hYUnMu2gWxcG/QQ3zBZ2lVR0CVnF+54PVy62uVfFKuPwxqaX0l2MhwaIE67QTgZ6cRmg3nhCDg=="
            }
          },
          {
            "validator_address": "41CAB2E29E7D0F2282E3275938F188FF9386B84C",
            "validator_index": "24",
            "height": "29458",
            "round": "0",
            "timestamp": "2018-08-01T06:53:40.118266975Z",
            "type": 2,
            "block_id": {
              "hash": "A17E873DC4CCCD03737E94993EB9D3D9A0559045",
              "parts": {
                "total": "1",
                "hash": "D9EA7A9B143CBBE664DA6C342D890D384D80ADC5"
              }
            },
            "signature": {
              "type": "tendermint/SignatureEd25519",
              "value": "Bo26vpUI4LQ+3LQnNnKwDUffx8HppA+xH6iJoKPnb+J39g/TZKFhCY8coiwkON91myOnvgX5DR6bX6kkZXYoBw=="
            }
          },
          {
            "validator_address": "462B656869DB02A8FD1077E255F8CC7401DC37C6",
            "validator_index": "25",
            "height": "29458",
            "round": "0",
            "timestamp": "2018-08-01T06:53:39.994677919Z",
            "type": 2,
            "block_id": {
              "hash": "A17E873DC4CCCD03737E94993EB9D3D9A0559045",
              "parts": {
                "total": "1",
                "hash": "D9EA7A9B143CBBE664DA6C342D890D384D80ADC5"
              }
            },
            "signature": {
              "type": "tendermint/SignatureEd25519",
              "value": "CUyf2Pnovh+toPQfbj1YCfhBXnMZw2zEO1me0EZrEtQSeYZ+c97Zrex6bQ3SdSunXTxRs7IJUeXyfpxTpPpQBA=="
            }
          },
          {
            "validator_address": "48E5118163E5442068A1B5A42D2EEDBB75724935",
            "validator_index": "26",
            "height": "29458",
            "round": "0",
            "timestamp": "2018-08-01T06:53:40.195722658Z",
            "type": 2,
            "block_id": {
              "hash": "A17E873DC4CCCD03737E94993EB9D3D9A0559045",
              "parts": {
                "total": "1",
                "hash": "D9EA7A9B143CBBE664DA6C342D890D384D80ADC5"
              }
            },
            "signature": {
              "type": "tendermint/SignatureEd25519",
              "value": "c4FnkG14yRCpN84BOzpoJ7J9Ad5Rk0a8XZf1iksUxDsC3VVguAO/UnkiZK32s7NiT1D2nRM0YLgxlKZUh/+ZDA=="
            }
          },
          {
            "validator_address": "49103C58AFD9C7C069F55EBA218F3DFD9AEA74F9",
            "validator_index": "27",
            "height": "29458",
            "round": "0",
            "timestamp": "2018-08-01T06:53:40.057344183Z",
            "type": 2,
            "block_id": {
              "hash": "A17E873DC4CCCD03737E94993EB9D3D9A0559045",
              "parts": {
                "total": "1",
                "hash": "D9EA7A9B143CBBE664DA6C342D890D384D80ADC5"
              }
            },
            "signature": {
              "type": "tendermint/SignatureEd25519",
              "value": "dR2dCgbvi+bvhphyy5xldzEQBinEdfRYGbgLUnUYKulXUFhED6vk27ynvE8RitP+Wn+NvLYTy3DbxvL3BXrvAQ=="
            }
          },
          {
            "validator_address": "4944F8BBBB5303E17BC0607DF332320EDBC750EA",
            "validator_index": "28",
            "height": "29458",
            "round": "0",
            "timestamp": "2018-08-01T06:53:40.009221679Z",
            "type": 2,
            "block_id": {
              "hash": "A17E873DC4CCCD03737E94993EB9D3D9A0559045",
              "parts": {
                "total": "1",
                "hash": "D9EA7A9B143CBBE664DA6C342D890D384D80ADC5"
              }
            },
            "signature": {
              "type": "tendermint/SignatureEd25519",
              "value": "yKQ5W1xMrq7sX4Dhy6zpW6rj7q72SQB0P7R3iIQWosvIhuUIm2EJu5tSmD4V5+KClHMEIKzXc0MkmiULk1yUDw=="
            }
          },
          {
            "validator_address": "49841599DE675157CBE1E7D6B35BF8FFC23BD5CB",
            "validator_index": "29",
            "height": "29458",
            "round": "0",
            "timestamp": "2018-08-01T06:53:39.98538111Z",
            "type": 2,
            "block_id": {
              "hash": "A17E873DC4CCCD03737E94993EB9D3D9A0559045",
              "parts": {
                "total": "1",
                "hash": "D9EA7A9B143CBBE664DA6C342D890D384D80ADC5"
              }
            },
            "signature": {
              "type": "tendermint/SignatureEd25519",
              "value": "HmvgV8TnKzK4iN+grplIZjsh2B6Q1f3GG/Ydd07wtFsBHHLWNe/CQpX5YqodVokiddBpJorktTJQJdew1VYPDw=="
            }
          },
          {
            "validator_address": "51386C2CF9556821D114D7E4945806802BADB28D",
            "validator_index": "30",
            "height": "29458",
            "round": "0",
            "timestamp": "2018-08-01T06:53:39.998313114Z",
            "type": 2,
            "block_id": {
              "hash": "A17E873DC4CCCD03737E94993EB9D3D9A0559045",
              "parts": {
                "total": "1",
                "hash": "D9EA7A9B143CBBE664DA6C342D890D384D80ADC5"
              }
            },
            "signature": {
              "type": "tendermint/SignatureEd25519",
              "value": "mIH6sbxYZkrToOWyVJRcDlI2909qE/6YA26pgPgFtPbMvH9J2Jys+3YQ47HqHdJvwEMxhLjIXPgLpBVgADTeBw=="
            }
          },
          {
            "validator_address": "543564ECA3AFEFADC73EE8591AAC3A96F079BC8A",
            "validator_index": "31",
            "height": "29458",
            "round": "0",
            "timestamp": "2018-08-01T06:53:39.983978234Z",
            "type": 2,
            "block_id": {
              "hash": "A17E873DC4CCCD03737E94993EB9D3D9A0559045",
              "parts": {
                "total": "1",
                "hash": "D9EA7A9B143CBBE664DA6C342D890D384D80ADC5"
              }
            },
            "signature": {
              "type": "tendermint/SignatureEd25519",
              "value": "4kWOm++y6tCA7lrmcT0MUqqMkDlydVP4NVwjSywrLUcR7uLHXALlb0scTogfiMYYVWdXCydPL2k3pENbRSW7Aw=="
            }
          },
          {
            "validator_address": "55D67B1A6DC13E96F8754A5A42EABC20F7F86664",
            "validator_index": "32",
            "height": "29458",
            "round": "0",
            "timestamp": "2018-08-01T06:53:40.086024715Z",
            "type": 2,
            "block_id": {
              "hash": "A17E873DC4CCCD03737E94993EB9D3D9A0559045",
              "parts": {
                "total": "1",
                "hash": "D9EA7A9B143CBBE664DA6C342D890D384D80ADC5"
              }
            },
            "signature": {
              "type": "tendermint/SignatureEd25519",
              "value": "0+B8E+Vw+WBxwZO6BYORVDdEcc+uhlF2yKQ3OON0/RWm6J0ljPJqrmdNQnh60ODtYiQylO3ZnVVc3FfsppKvDw=="
            }
          },
          {
            "validator_address": "570B6A755ED339EAC56BB3390A48069F6AC9449B",
            "validator_index": "33",
            "height": "29458",
            "round": "0",
            "timestamp": "2018-08-01T06:53:45.774359207Z",
            "type": 2,
            "block_id": {
              "hash": "A17E873DC4CCCD03737E94993EB9D3D9A0559045",
              "parts": {
                "total": "1",
                "hash": "D9EA7A9B143CBBE664DA6C342D890D384D80ADC5"
              }
            },
            "signature": {
              "type": "tendermint/SignatureEd25519",
              "value": "She1xnZV1Vyicol6c0WfKX1OHkFan50b4jGqPxjC4OaEJa6lTPu+O6CeDO8oyqZ5rY3ttLcEi3aNqVjJFiNEDw=="
            }
          },
          {
            "validator_address": "5BDF8EA41B1835FBAD865B181A2A4B23F511B5E4",
            "validator_index": "34",
            "height": "29458",
            "round": "0",
            "timestamp": "2018-08-01T06:53:39.971061809Z",
            "type": 2,
            "block_id": {
              "hash": "A17E873DC4CCCD03737E94993EB9D3D9A0559045",
              "parts": {
                "total": "1",
                "hash": "D9EA7A9B143CBBE664DA6C342D890D384D80ADC5"
              }
            },
            "signature": {
              "type": "tendermint/SignatureEd25519",
              "value": "1o4c/E3LIZHbOUGnmqqK1LbZJmxKxFDstLBLf96xwzhWDAg0Hzr2jt1JjrEfJDZCGu/YLBCYU+SUxH2chyemAg=="
            }
          },
          {
            "validator_address": "60229E2E273297FE00219E46DFFB8F76844CDEF9",
            "validator_index": "35",
            "height": "29458",
            "round": "0",
            "timestamp": "2018-08-01T06:53:38.242158492Z",
            "type": 2,
            "block_id": {
              "hash": "A17E873DC4CCCD03737E94993EB9D3D9A0559045",
              "parts": {
                "total": "1",
                "hash": "D9EA7A9B143CBBE664DA6C342D890D384D80ADC5"
              }
            },
            "signature": {
              "type": "tendermint/SignatureEd25519",
              "value": "UrWs5un2jlcOYvJKWmUUugyBelLpvD7mtWQ/Tw05zcj6T1xS06aN85g3U34mB0uH+ttVVuPm/E65vITqet+bAQ=="
            }
          },
          {
            "validator_address": "62410D6D1CD98278136E4D0738AA0EA273CDFC54",
            "validator_index": "36",
            "height": "29458",
            "round": "0",
            "timestamp": "2018-08-01T06:53:39.979075511Z",
            "type": 2,
            "block_id": {
              "hash": "A17E873DC4CCCD03737E94993EB9D3D9A0559045",
              "parts": {
                "total": "1",
                "hash": "D9EA7A9B143CBBE664DA6C342D890D384D80ADC5"
              }
            },
            "signature": {
              "type": "tendermint/SignatureEd25519",
              "value": "A14JiExaVWZxwDxGL06WoogvqHQo03R2lS1KfqZVWK8eZs40lN086VLSFcAE15NgA7jviHF5QCc65xARqxNwCw=="
            }
          },
          {
            "validator_address": "632F5C139A5A9DFBFE5111DEE29FCFB6157207DC",
            "validator_index": "37",
            "height": "29458",
            "round": "0",
            "timestamp": "2018-08-01T06:53:39.996615973Z",
            "type": 2,
            "block_id": {
              "hash": "A17E873DC4CCCD03737E94993EB9D3D9A0559045",
              "parts": {
                "total": "1",
                "hash": "D9EA7A9B143CBBE664DA6C342D890D384D80ADC5"
              }
            },
            "signature": {
              "type": "tendermint/SignatureEd25519",
              "value": "ewYQAzW2Y89Ty1Bu2TV95DXn8S28iaBBgye7IwMfDHoJWjVrRolsf4m26vcTiEhBrq7xegDmYUQGxCI/vf2mBg=="
            }
          },
          {
            "validator_address": "64F57F8E796A9B7B590C1EFA4123988C86631D39",
            "validator_index": "38",
            "height": "29458",
            "round": "0",
            "timestamp": "2018-08-01T06:53:40.021864262Z",
            "type": 2,
            "block_id": {
              "hash": "A17E873DC4CCCD03737E94993EB9D3D9A0559045",
              "parts": {
                "total": "1",
                "hash": "D9EA7A9B143CBBE664DA6C342D890D384D80ADC5"
              }
            },
            "signature": {
              "type": "tendermint/SignatureEd25519",
              "value": "PFUBXGU+19k4iO11QRdTtEvQcM2m86OjcSLg17QtQsgSiEA+5RusIOpUkwHG2P5MWC2iq8LdOg9VxVdSkOksDw=="
            }
          },
          {
            "validator_address": "69D99B2C66043ACBEAA8447525C356AFC6408E0C",
            "validator_index": "39",
            "height": "29458",
            "round": "0",
            "timestamp": "2018-08-01T06:53:40.149294828Z",
            "type": 2,
            "block_id": {
              "hash": "A17E873DC4CCCD03737E94993EB9D3D9A0559045",
              "parts": {
                "total": "1",
                "hash": "D9EA7A9B143CBBE664DA6C342D890D384D80ADC5"
              }
            },
            "signature": {
              "type": "tendermint/SignatureEd25519",
              "value": "daXi6t+sKAZnw2EOAWAKqbUWTTJyPtBTHYk5XDGKV9l0VUTVQj8/X7kDXnCLoDaNL/IGFT7xSwUoojKP8at2CA=="
            }
          },
          {
            "validator_address": "69EDADFA4A803E9DBF548C900D4A465E7D154262",
            "validator_index": "40",
            "height": "29458",
            "round": "0",
            "timestamp": "2018-08-01T06:53:40.223278719Z",
            "type": 2,
            "block_id": {
              "hash": "A17E873DC4CCCD03737E94993EB9D3D9A0559045",
              "parts": {
                "total": "1",
                "hash": "D9EA7A9B143CBBE664DA6C342D890D384D80ADC5"
              }
            },
            "signature": {
              "type": "tendermint/SignatureEd25519",
              "value": "9QPKq+mtLNyTNDz2HmM/yUBFiWrpAx6ZEGXpXaeNAuZOd0S8LoqFqKM+tiYVKoAY8+6WzsHLweM/cx350QvxCw=="
            }
          },
          {
            "validator_address": "6D3AD380E398D8592B03AA124BAFED5F125DF863",
            "validator_index": "41",
            "height": "29458",
            "round": "0",
            "timestamp": "2018-08-01T06:52:37.868315769Z",
            "type": 2,
            "block_id": {
              "hash": "A17E873DC4CCCD03737E94993EB9D3D9A0559045",
              "parts": {
                "total": "1",
                "hash": "D9EA7A9B143CBBE664DA6C342D890D384D80ADC5"
              }
            },
            "signature": {
              "type": "tendermint/SignatureEd25519",
              "value": "+r9y3oeZ9C2uSLSEykNw2tkn+q38Fm/I1YqqP8s5UMlMPNIZ9/PoajzfqW3CeVjJgykWZeeYDbKgL6loi5U+CA=="
            }
          },
          {
            "validator_address": "6F6C93B8BF3495063FEC9B5C771158607F4AE9D6",
            "validator_index": "42",
            "height": "29458",
            "round": "0",
            "timestamp": "2018-08-01T06:53:40.161224869Z",
            "type": 2,
            "block_id": {
              "hash": "A17E873DC4CCCD03737E94993EB9D3D9A0559045",
              "parts": {
                "total": "1",
                "hash": "D9EA7A9B143CBBE664DA6C342D890D384D80ADC5"
              }
            },
            "signature": {
              "type": "tendermint/SignatureEd25519",
              "value": "s2gK0nFjFjeCzuGRpOl/zz2m2DgjOL99y0N/cQ8cnGzkpMEhLZMLpOuL9ZTym7+IgR0gioDt7OJCoZMscmFBBQ=="
            }
          },
          {
            "validator_address": "732CEEF54C374DDC6ADECBFD707AEFD07FEDC143",
            "validator_index": "43",
            "height": "29458",
            "round": "0",
            "timestamp": "2018-08-01T06:53:40.107514389Z",
            "type": 2,
            "block_id": {
              "hash": "A17E873DC4CCCD03737E94993EB9D3D9A0559045",
              "parts": {
                "total": "1",
                "hash": "D9EA7A9B143CBBE664DA6C342D890D384D80ADC5"
              }
            },
            "signature": {
              "type": "tendermint/SignatureEd25519",
              "value": "Kblt28XQMxfwoseDu8cqeI36Vb60jeHFXrUhti8zLoAdtR+W1p0LYq4gS5jtUOF718FK4b/wjeUTn4iWeRFZDQ=="
            }
          },
          {
            "validator_address": "7393D691BFAE9661918C09932D4D9060AB40939B",
            "validator_index": "44",
            "height": "29458",
            "round": "0",
            "timestamp": "2018-08-01T06:53:40.239934947Z",
            "type": 2,
            "block_id": {
              "hash": "A17E873DC4CCCD03737E94993EB9D3D9A0559045",
              "parts": {
                "total": "1",
                "hash": "D9EA7A9B143CBBE664DA6C342D890D384D80ADC5"
              }
            },
            "signature": {
              "type": "tendermint/SignatureEd25519",
              "value": "Va1b6hYrh8p2aSidGcfjyzg4LshygAcAMALe2lkWV6wa6BjV9qZMohBfyGpUuH87KsG4VZiCFhT7b6xJl9IyCA=="
            }
          },
          {
            "validator_address": "751E43437224E8BB6D1569B3E2B2616B6E7F4397",
            "validator_index": "45",
            "height": "29458",
            "round": "0",
            "timestamp": "2018-08-01T06:53:40.056831365Z",
            "type": 2,
            "block_id": {
              "hash": "A17E873DC4CCCD03737E94993EB9D3D9A0559045",
              "parts": {
                "total": "1",
                "hash": "D9EA7A9B143CBBE664DA6C342D890D384D80ADC5"
              }
            },
            "signature": {
              "type": "tendermint/SignatureEd25519",
              "value": "8l/iSuofV8rwb1dWJWcgiY0AdvCSBGFfl1Km+FVG763DkOybjBVRWxQ+tNRnpMxIhiDg3TH7TQOcAi5wMBJfBw=="
            }
          },
          {
            "validator_address": "7EB7593F519F1180C7E872D0494611464EDF03AE",
            "validator_index": "46",
            "height": "29458",
            "round": "0",
            "timestamp": "2018-08-01T06:53:40.153849013Z",
            "type": 2,
            "block_id": {
              "hash": "A17E873DC4CCCD03737E94993EB9D3D9A0559045",
              "parts": {
                "total": "1",
                "hash": "D9EA7A9B143CBBE664DA6C342D890D384D80ADC5"
              }
            },
            "signature": {
              "type": "tendermint/SignatureEd25519",
              "value": "0Md2hkzb1bm4e8viAU6utrDzvCTH+BtQmsSQpK3EsBwd/eZWlbTS96yyu134qPDRaLWyfCaZx8X4z5NyhJ2qBg=="
            }
          },
          {
            "validator_address": "807CF675BA8479FC4FEC1047215DF07970040F1F",
            "validator_index": "47",
            "height": "29458",
            "round": "0",
            "timestamp": "2018-08-01T06:53:40.339886233Z",
            "type": 2,
            "block_id": {
              "hash": "A17E873DC4CCCD03737E94993EB9D3D9A0559045",
              "parts": {
                "total": "1",
                "hash": "D9EA7A9B143CBBE664DA6C342D890D384D80ADC5"
              }
            },
            "signature": {
              "type": "tendermint/SignatureEd25519",
              "value": "x3K9hZflOxTsI+/nlbU4msYyjG+1Xd3iV/NwmVl9FgesSe1JehrRbBV0CyNDo8X8iA19QmpBG66G5N2dfCpaCg=="
            }
          },
          {
            "validator_address": "83AB321E012C57746689FED3A6064DF331F81007",
            "validator_index": "48",
            "height": "29458",
            "round": "0",
            "timestamp": "2018-08-01T06:53:40.09930836Z",
            "type": 2,
            "block_id": {
              "hash": "A17E873DC4CCCD03737E94993EB9D3D9A0559045",
              "parts": {
                "total": "1",
                "hash": "D9EA7A9B143CBBE664DA6C342D890D384D80ADC5"
              }
            },
            "signature": {
              "type": "tendermint/SignatureEd25519",
              "value": "oRiDN++MaX2+pGQ3TCeXbR253ag8XxJE79jzRG7e/8JMDmxiYFfAwjrqTnM5JhgHiy2I101m0bP5d70UsOJYCg=="
            }
          },
          {
            "validator_address": "83BB1B88D3DBB20AD845FECA07749EBD87D3754D",
            "validator_index": "49",
            "height": "29458",
            "round": "0",
            "timestamp": "2018-08-01T06:53:40.274151802Z",
            "type": 2,
            "block_id": {
              "hash": "A17E873DC4CCCD03737E94993EB9D3D9A0559045",
              "parts": {
                "total": "1",
                "hash": "D9EA7A9B143CBBE664DA6C342D890D384D80ADC5"
              }
            },
            "signature": {
              "type": "tendermint/SignatureEd25519",
              "value": "4Rr6F3YFbCq33KFJpZl98heeMzIgJ1z/lj7GgLzvqhpiVo2dCN832piHDqDt4eqg0f0Jry+u8UAyDFEDtAv0Aw=="
            }
          },
          {
            "validator_address": "8F06FE1FD042683C426137FBC4BBAA4288924217",
            "validator_index": "50",
            "height": "29458",
            "round": "0",
            "timestamp": "2018-08-01T06:53:40.149442205Z",
            "type": 2,
            "block_id": {
              "hash": "A17E873DC4CCCD03737E94993EB9D3D9A0559045",
              "parts": {
                "total": "1",
                "hash": "D9EA7A9B143CBBE664DA6C342D890D384D80ADC5"
              }
            },
            "signature": {
              "type": "tendermint/SignatureEd25519",
              "value": "NW3WCH1x1AvJu4vR56l2N/C8PgeQOa0UzmehRzhDoDnJ/XAay2jJEpl1uKDz/t0m3RQD4YHRspvLlEP/T8vaDw=="
            }
          },
          {
            "validator_address": "8F45617BF45B10A3F8283DEBDB35E38C7CA43237",
            "validator_index": "51",
            "height": "29458",
            "round": "0",
            "timestamp": "2018-08-01T06:53:40.099931172Z",
            "type": 2,
            "block_id": {
              "hash": "A17E873DC4CCCD03737E94993EB9D3D9A0559045",
              "parts": {
                "total": "1",
                "hash": "D9EA7A9B143CBBE664DA6C342D890D384D80ADC5"
              }
            },
            "signature": {
              "type": "tendermint/SignatureEd25519",
              "value": "ZQN022f2IHDWFcihcfvZtbz4PDxM+1GKinrGT5bEanb10wvpYb7yN7nWKJX4hL4EXGlkgIIz8dq/LPHZA3m3Dg=="
            }
          },
          {
            "validator_address": "95980831E186F2540F6E9FB6C8E74DE2401405AC",
            "validator_index": "52",
            "height": "29458",
            "round": "0",
            "timestamp": "2018-08-01T06:53:40.108981444Z",
            "type": 2,
            "block_id": {
              "hash": "A17E873DC4CCCD03737E94993EB9D3D9A0559045",
              "parts": {
                "total": "1",
                "hash": "D9EA7A9B143CBBE664DA6C342D890D384D80ADC5"
              }
            },
            "signature": {
              "type": "tendermint/SignatureEd25519",
              "value": "z3T54TLHboPTW9ybr2Nkg8IcwX5z67pHdQ4mM0VYaBAY3FZQFvNtlPoGzgEdyVaMAitFcT2rPQyeeSFbuv3FDg=="
            }
          },
          {
            "validator_address": "95FAFBC1E0579C83D290A063020CE87C5334BD9B",
            "validator_index": "53",
            "height": "29458",
            "round": "0",
            "timestamp": "2018-08-01T06:53:40.079730564Z",
            "type": 2,
            "block_id": {
              "hash": "A17E873DC4CCCD03737E94993EB9D3D9A0559045",
              "parts": {
                "total": "1",
                "hash": "D9EA7A9B143CBBE664DA6C342D890D384D80ADC5"
              }
            },
            "signature": {
              "type": "tendermint/SignatureEd25519",
              "value": "PuuPOXO/kCvdCIOkl1wTJ1CQgjQvTt4S3ao6T4NE50RYbF/eyiONzSu0nitAjqK8yMbrRDRmbh/w1jogwCRFBw=="
            }
          },
          {
            "validator_address": "96BDE45EC52606CF5CB59853097871AD60680549",
            "validator_index": "54",
            "height": "29458",
            "round": "0",
            "timestamp": "2018-08-01T06:53:40.062994074Z",
            "type": 2,
            "block_id": {
              "hash": "A17E873DC4CCCD03737E94993EB9D3D9A0559045",
              "parts": {
                "total": "1",
                "hash": "D9EA7A9B143CBBE664DA6C342D890D384D80ADC5"
              }
            },
            "signature": {
              "type": "tendermint/SignatureEd25519",
              "value": "x++Q4V/wW7d9nqN/2YHDDz5gTzqmyPQNDgHft3fNVUAKeLBK0IBkgHXPvv+OOLZ7OKr9Wuyr1PG1bAnXCJk3Ag=="
            }
          },
          {
            "validator_address": "970CD321881185BF83DB2923C321B0E75FDBB2B8",
            "validator_index": "55",
            "height": "29458",
            "round": "0",
            "timestamp": "2018-08-01T06:53:40.100090913Z",
            "type": 2,
            "block_id": {
              "hash": "A17E873DC4CCCD03737E94993EB9D3D9A0559045",
              "parts": {
                "total": "1",
                "hash": "D9EA7A9B143CBBE664DA6C342D890D384D80ADC5"
              }
            },
            "signature": {
              "type": "tendermint/SignatureEd25519",
              "value": "id9ZVBAIszm1LjTPBtJS2xwT/I6h44SJJX18389hQA2fHA/B4AMBML+/BzZsU5uV6oJc8rhOgHByLidvRQsfAA=="
            }
          },
          {
            "validator_address": "97DBB3D4B3D6C29287244864448F651DD5B07390",
            "validator_index": "56",
            "height": "29458",
            "round": "0",
            "timestamp": "2018-08-01T06:53:40.183823822Z",
            "type": 2,
            "block_id": {
              "hash": "A17E873DC4CCCD03737E94993EB9D3D9A0559045",
              "parts": {
                "total": "1",
                "hash": "D9EA7A9B143CBBE664DA6C342D890D384D80ADC5"
              }
            },
            "signature": {
              "type": "tendermint/SignatureEd25519",
              "value": "emFg0fh5ZyCZMIGIn2ed3e+4FM5mnAVEP8xXcpaHkIic765pL33ANEjZySHTpfbx+3i/DokppadMp9xI0xj+AQ=="
            }
          },
          {
            "validator_address": "9C29C9B76D27586E4D9AD2AED0E943162645E55C",
            "validator_index": "57",
            "height": "29458",
            "round": "0",
            "timestamp": "2018-08-01T06:53:39.981336584Z",
            "type": 2,
            "block_id": {
              "hash": "A17E873DC4CCCD03737E94993EB9D3D9A0559045",
              "parts": {
                "total": "1",
                "hash": "D9EA7A9B143CBBE664DA6C342D890D384D80ADC5"
              }
            },
            "signature": {
              "type": "tendermint/SignatureEd25519",
              "value": "zjs+T3c9pfPpDyxEnnYCwyiaBFen90tsw7OSTvLOUDwuey9BWrbA6NIA7cCu3PW3HHj7bUgmMYnht5IAebs2Cw=="
            }
          },
          {
            "validator_address": "9D93AD02FE1BD7E76B9E58D7EB461088EAD011E5",
            "validator_index": "58",
            "height": "29458",
            "round": "0",
            "timestamp": "2018-08-01T06:53:39.976106607Z",
            "type": 2,
            "block_id": {
              "hash": "A17E873DC4CCCD03737E94993EB9D3D9A0559045",
              "parts": {
                "total": "1",
                "hash": "D9EA7A9B143CBBE664DA6C342D890D384D80ADC5"
              }
            },
            "signature": {
              "type": "tendermint/SignatureEd25519",
              "value": "4vHHf+2EHZW3UDp/323hGL22g+mUor6WHPO4w9v/b8/UWLxgGap6huH8wZw57545QYEJl71iWgyVxOrX7LvuAA=="
            }
          },
          {
            "validator_address": "A0A6466F4ABEA09C3B55E3709AFDE217A103209F",
            "validator_index": "59",
            "height": "29458",
            "round": "0",
            "timestamp": "2018-08-01T06:53:39.972714841Z",
            "type": 2,
            "block_id": {
              "hash": "A17E873DC4CCCD03737E94993EB9D3D9A0559045",
              "parts": {
                "total": "1",
                "hash": "D9EA7A9B143CBBE664DA6C342D890D384D80ADC5"
              }
            },
            "signature": {
              "type": "tendermint/SignatureEd25519",
              "value": "ZMJ4ZlEiDI8auqb72lDIS5jYfSoHq0ff4YqwoflbDursrZ/arQZ15ROQMpi4sxzKuvv0CLMX/B5zNiX07BaDDA=="
            }
          },
          {
            "validator_address": "A5868971300F155020634D7BB49C7634F7AACCD3",
            "validator_index": "60",
            "height": "29458",
            "round": "0",
            "timestamp": "2018-08-01T06:53:40.058389358Z",
            "type": 2,
            "block_id": {
              "hash": "A17E873DC4CCCD03737E94993EB9D3D9A0559045",
              "parts": {
                "total": "1",
                "hash": "D9EA7A9B143CBBE664DA6C342D890D384D80ADC5"
              }
            },
            "signature": {
              "type": "tendermint/SignatureEd25519",
              "value": "z6LhYAfPg4rE4w+jxb1oJhlr+mMfqBItLN2/mVin6tyxHJyLi4j4XEFkb8B8b6dE3VC/2mlE00vIqe/b2ZQnCA=="
            }
          },
          {
            "validator_address": "A6B3A5B5D982CFD7B5FDFA15CF5A720E7AE25E7F",
            "validator_index": "61",
            "height": "29458",
            "round": "0",
            "timestamp": "2018-08-01T06:53:40.129455761Z",
            "type": 2,
            "block_id": {
              "hash": "A17E873DC4CCCD03737E94993EB9D3D9A0559045",
              "parts": {
                "total": "1",
                "hash": "D9EA7A9B143CBBE664DA6C342D890D384D80ADC5"
              }
            },
            "signature": {
              "type": "tendermint/SignatureEd25519",
              "value": "b5RqIO3Kf7Ob3D8/4+I4UDYEOed/WQr2qoK6XfMuxqht8Q7Cu4YMp9pA5wK8QiaUSa8eiKg4I9jTmESVXj53Cw=="
            }
          },
          {
            "validator_address": "AC96444A9083890B7C7B430DB17BF1D3EA5EED04",
            "validator_index": "62",
            "height": "29458",
            "round": "0",
            "timestamp": "2018-08-01T06:53:40.15395962Z",
            "type": 2,
            "block_id": {
              "hash": "A17E873DC4CCCD03737E94993EB9D3D9A0559045",
              "parts": {
                "total": "1",
                "hash": "D9EA7A9B143CBBE664DA6C342D890D384D80ADC5"
              }
            },
            "signature": {
              "type": "tendermint/SignatureEd25519",
              "value": "JHap9Z+e7XprF8xbbWBW6mNccEsDMfspwnOCK4f2PEUwGa5w2kpj/DTMMELV7V1L+2q0uIUBmJ5DC/48cgh+Dw=="
            }
          },
          {
            "validator_address": "ACB97FDA2D940AF0709B73537C458EB988AD2893",
            "validator_index": "63",
            "height": "29458",
            "round": "0",
            "timestamp": "2018-08-01T06:53:40.010021736Z",
            "type": 2,
            "block_id": {
              "hash": "A17E873DC4CCCD03737E94993EB9D3D9A0559045",
              "parts": {
                "total": "1",
                "hash": "D9EA7A9B143CBBE664DA6C342D890D384D80ADC5"
              }
            },
            "signature": {
              "type": "tendermint/SignatureEd25519",
              "value": "WSKAvVAIG2+fIuAGZpCOYYfcQlj5YgOt7mEVEkRWA+l0ezZXBdWQM9Ywccr3TnSvbNeByfYzBU2eEz7G9kRJAQ=="
            }
          },
          {
            "validator_address": "B197425B3210375F211661DE02EF2AE36580EB0F",
            "validator_index": "64",
            "height": "29458",
            "round": "0",
            "timestamp": "2018-08-01T06:53:40.105461235Z",
            "type": 2,
            "block_id": {
              "hash": "A17E873DC4CCCD03737E94993EB9D3D9A0559045",
              "parts": {
                "total": "1",
                "hash": "D9EA7A9B143CBBE664DA6C342D890D384D80ADC5"
              }
            },
            "signature": {
              "type": "tendermint/SignatureEd25519",
              "value": "GL4vV67ZWgs4LSo6o+TS62zFTf3qQOy0wBd9BZy9Y669EWUrtLsBiqla1Do6mnFyze1nbwRHwvaF6gnWfwOgAA=="
            }
          },
          {
            "validator_address": "B45E54D2D1CB5A4CCD1D49016608C18E7C56B270",
            "validator_index": "65",
            "height": "29458",
            "round": "0",
            "timestamp": "2018-08-01T06:53:40.178901612Z",
            "type": 2,
            "block_id": {
              "hash": "A17E873DC4CCCD03737E94993EB9D3D9A0559045",
              "parts": {
                "total": "1",
                "hash": "D9EA7A9B143CBBE664DA6C342D890D384D80ADC5"
              }
            },
            "signature": {
              "type": "tendermint/SignatureEd25519",
              "value": "h7dudPLWRw7cxAyN7GHKQR/6RKk6uRAbAcnJglC6Ot/ix1s8kss0mz3QivjyC957TsfmpV5GDWozSt/R4Ru7DQ=="
            }
          },
          {
            "validator_address": "B59A34C0BE4EC73AF6A67D274F1695C9259C237C",
            "validator_index": "66",
            "height": "29458",
            "round": "0",
            "timestamp": "2018-08-01T06:53:40.315687816Z",
            "type": 2,
            "block_id": {
              "hash": "A17E873DC4CCCD03737E94993EB9D3D9A0559045",
              "parts": {
                "total": "1",
                "hash": "D9EA7A9B143CBBE664DA6C342D890D384D80ADC5"
              }
            },
            "signature": {
              "type": "tendermint/SignatureEd25519",
              "value": "uaYK2Jcn1oVcmPFaHWOVS2bRZmt8v4votsKRvNaJ1cLxZI77Z2QgOMzmc0HywW6JdoTeYbdCX9ihWZ3Dtgc1Cw=="
            }
          },
          {
            "validator_address": "BB1276BE89834835428664408917649FEEF5D90C",
            "validator_index": "67",
            "height": "29458",
            "round": "0",
            "timestamp": "2018-08-01T06:53:40.092996169Z",
            "type": 2,
            "block_id": {
              "hash": "A17E873DC4CCCD03737E94993EB9D3D9A0559045",
              "parts": {
                "total": "1",
                "hash": "D9EA7A9B143CBBE664DA6C342D890D384D80ADC5"
              }
            },
            "signature": {
              "type": "tendermint/SignatureEd25519",
              "value": "zXlV51ZRaSxT7AyvX4aVvrk0wtonEBcT3LzqzxrWyZ6KVK6HS/oM5rxiE8hchcfMUMFIyIg8sslRcpRf2N8UDQ=="
            }
          },
          {
            "validator_address": "BC36FEDD6EF6071118A3E51859DF3831A2EC4782",
            "validator_index": "68",
            "height": "29458",
            "round": "0",
            "timestamp": "2018-08-01T06:53:40.095919948Z",
            "type": 2,
            "block_id": {
              "hash": "A17E873DC4CCCD03737E94993EB9D3D9A0559045",
              "parts": {
                "total": "1",
                "hash": "D9EA7A9B143CBBE664DA6C342D890D384D80ADC5"
              }
            },
            "signature": {
              "type": "tendermint/SignatureEd25519",
              "value": "R0/zpEzMtAUfgu8xrQOPTb72lpT26970UfIMTMWp3Q0TN1z7pkJsffXcnDDHbC8tW2l50bsmcrYZqahBvpVVDg=="
            }
          },
          {
            "validator_address": "BD9D0DA513BF099DB4BB6E725A4E19832789882F",
            "validator_index": "69",
            "height": "29458",
            "round": "0",
            "timestamp": "2018-08-01T06:53:40.050252411Z",
            "type": 2,
            "block_id": {
              "hash": "A17E873DC4CCCD03737E94993EB9D3D9A0559045",
              "parts": {
                "total": "1",
                "hash": "D9EA7A9B143CBBE664DA6C342D890D384D80ADC5"
              }
            },
            "signature": {
              "type": "tendermint/SignatureEd25519",
              "value": "FjUjFTKOPSf7sSZWbMkW7C5r2H3OvDSeqBpzoKBY8g5xRCDZTE+GifmvBokVhqzm/G2LUTCZQpHcN5OrjMbUBQ=="
            }
          },
          {
            "validator_address": "C1134A2FF8F7338E7CDB3FE57DDD2A655DEB1E22",
            "validator_index": "70",
            "height": "29458",
            "round": "0",
            "timestamp": "2018-08-01T06:53:39.731852145Z",
            "type": 2,
            "block_id": {
              "hash": "A17E873DC4CCCD03737E94993EB9D3D9A0559045",
              "parts": {
                "total": "1",
                "hash": "D9EA7A9B143CBBE664DA6C342D890D384D80ADC5"
              }
            },
            "signature": {
              "type": "tendermint/SignatureEd25519",
              "value": "khyPU2cqx2MBdTZA70GflxqNZfU22QdPoYLaKnUM8WiSj8u5/Srwb7yBV3Aknk+GF/+qE2KTy/z2DEVoir/gAQ=="
            }
          },
          {
            "validator_address": "C39A8A2B85198DCB8F23AD1F6C198E2BA7AB5D60",
            "validator_index": "71",
            "height": "29458",
            "round": "0",
            "timestamp": "2018-08-01T06:53:40.045928219Z",
            "type": 2,
            "block_id": {
              "hash": "A17E873DC4CCCD03737E94993EB9D3D9A0559045",
              "parts": {
                "total": "1",
                "hash": "D9EA7A9B143CBBE664DA6C342D890D384D80ADC5"
              }
            },
            "signature": {
              "type": "tendermint/SignatureEd25519",
              "value": "SjAWPvZGjpU8/37LNG8W/vaQ5vnCycpfzGsUs3cunOPfh4v9IGQIy21pXdZfFrsVGVhfrpyFZE2xRy1zdpLrAQ=="
            }
          },
          {
            "validator_address": "C4335190C3B5BD4BA5568BC0F99C34162D940D08",
            "validator_index": "72",
            "height": "29458",
            "round": "0",
            "timestamp": "2018-08-01T06:53:40.139130512Z",
            "type": 2,
            "block_id": {
              "hash": "A17E873DC4CCCD03737E94993EB9D3D9A0559045",
              "parts": {
                "total": "1",
                "hash": "D9EA7A9B143CBBE664DA6C342D890D384D80ADC5"
              }
            },
            "signature": {
              "type": "tendermint/SignatureEd25519",
              "value": "EJ4xoygSBDQWEHM9A+BTCb92AJn1xNSvk9Wf5kejhF/FWPSULNhUKWb5UKTa44j+WDKfwBVCOgfjvIxKAdTTBg=="
            }
          },
          {
            "validator_address": "C561CFA081677046376396922E7576E5F7B316AD",
            "validator_index": "73",
            "height": "29458",
            "round": "0",
            "timestamp": "2018-08-01T06:53:40.163354481Z",
            "type": 2,
            "block_id": {
              "hash": "A17E873DC4CCCD03737E94993EB9D3D9A0559045",
              "parts": {
                "total": "1",
                "hash": "D9EA7A9B143CBBE664DA6C342D890D384D80ADC5"
              }
            },
            "signature": {
              "type": "tendermint/SignatureEd25519",
              "value": "2U8aLXWmvr8fIGB4/II0F1ov2D9FKxnLoZzWDm7jDOA8xRzj4to9w5ezgzK46igW0BKvYzFpHXFMg4lwDfEXAg=="
            }
          },
          {
            "validator_address": "CE589EA77B056D268D30D1DC1D68A70E0F885E95",
            "validator_index": "74",
            "height": "29458",
            "round": "0",
            "timestamp": "2018-08-01T06:53:40.067184041Z",
            "type": 2,
            "block_id": {
              "hash": "A17E873DC4CCCD03737E94993EB9D3D9A0559045",
              "parts": {
                "total": "1",
                "hash": "D9EA7A9B143CBBE664DA6C342D890D384D80ADC5"
              }
            },
            "signature": {
              "type": "tendermint/SignatureEd25519",
              "value": "YtGSZfJW13yWPv+oNojrnSvPNnMCmmBnIDY4HvCqBdtnMyVRIsPG5JQBb91U4+q/an78WPBVqfabDO2+B4qhCw=="
            }
          },
          {
            "validator_address": "CEB97DB5CB18270247ABDE6CF2F84F9AEE8A2904",
            "validator_index": "75",
            "height": "29458",
            "round": "0",
            "timestamp": "2018-08-01T06:53:40.556805193Z",
            "type": 2,
            "block_id": {
              "hash": "A17E873DC4CCCD03737E94993EB9D3D9A0559045",
              "parts": {
                "total": "1",
                "hash": "D9EA7A9B143CBBE664DA6C342D890D384D80ADC5"
              }
            },
            "signature": {
              "type": "tendermint/SignatureEd25519",
              "value": "jsqBLfhG0OGTh+3bbns0QJAQ3yj7u0HAdBG9w7F55pkp2DnhdlVCwC8v8p9C6TsmOF9/mTONONr4/PyjNDQsDw=="
            }
          },
          {
            "validator_address": "CF205769734F5758CC39F907EFB73D6BAF915FB1",
            "validator_index": "76",
            "height": "29458",
            "round": "0",
            "timestamp": "2018-08-01T06:53:40.194836738Z",
            "type": 2,
            "block_id": {
              "hash": "A17E873DC4CCCD03737E94993EB9D3D9A0559045",
              "parts": {
                "total": "1",
                "hash": "D9EA7A9B143CBBE664DA6C342D890D384D80ADC5"
              }
            },
            "signature": {
              "type": "tendermint/SignatureEd25519",
              "value": "z/1JLoG1KWhLZRZxTNEUTW2N/MO3xDumprbR92M8oYfuOKUEwSu5iHlEMY6+5WuPJ2Mdow3PDQlHORZYgXu0BA=="
            }
          },
          {
            "validator_address": "D2134B826A1E25A955905CB79A4D8731CAFA0CCE",
            "validator_index": "77",
            "height": "29458",
            "round": "0",
            "timestamp": "2018-08-01T06:53:40.291492038Z",
            "type": 2,
            "block_id": {
              "hash": "A17E873DC4CCCD03737E94993EB9D3D9A0559045",
              "parts": {
                "total": "1",
                "hash": "D9EA7A9B143CBBE664DA6C342D890D384D80ADC5"
              }
            },
            "signature": {
              "type": "tendermint/SignatureEd25519",
              "value": "E5ULwERZRq7dLXZpks0Bm6qRh4Lw0vj+MRCbRcW5E9euTraRuTkeKNwYX3g0acsEG880VqzzTrtETUMlihQCBg=="
            }
          },
          {
            "validator_address": "D6285C3422C8886445D53757CBE12D2B91B5A9D0",
            "validator_index": "78",
            "height": "29458",
            "round": "0",
            "timestamp": "2018-08-01T06:53:22.982688643Z",
            "type": 2,
            "block_id": {
              "hash": "A17E873DC4CCCD03737E94993EB9D3D9A0559045",
              "parts": {
                "total": "1",
                "hash": "D9EA7A9B143CBBE664DA6C342D890D384D80ADC5"
              }
            },
            "signature": {
              "type": "tendermint/SignatureEd25519",
              "value": "XbJwFvRKGCpHd5Ckf434kE5v0vdbbTRKpod6TenyN85jG2OiFd0aU14W2+cFz8H5p4sF548cNSpssVwEXwvxDQ=="
            }
          },
          {
            "validator_address": "D77FB84A729972CD3E757C9BEB61561855832B92",
            "validator_index": "79",
            "height": "29458",
            "round": "0",
            "timestamp": "2018-08-01T06:53:40.134733359Z",
            "type": 2,
            "block_id": {
              "hash": "A17E873DC4CCCD03737E94993EB9D3D9A0559045",
              "parts": {
                "total": "1",
                "hash": "D9EA7A9B143CBBE664DA6C342D890D384D80ADC5"
              }
            },
            "signature": {
              "type": "tendermint/SignatureEd25519",
              "value": "YI5UuCZ6uuevcJSz6OC1G6O7ZtbpQohXZrl2EESNVwHN61jxOUvPcrhChxQ3SaOc31nJNvM44BJPYLPnAKRuCg=="
            }
          },
          {
            "validator_address": "DB7E6732471D3EA5C90C17A9974D9F88AB45F2FB",
            "validator_index": "80",
            "height": "29458",
            "round": "0",
            "timestamp": "2018-08-01T06:53:40.064501933Z",
            "type": 2,
            "block_id": {
              "hash": "A17E873DC4CCCD03737E94993EB9D3D9A0559045",
              "parts": {
                "total": "1",
                "hash": "D9EA7A9B143CBBE664DA6C342D890D384D80ADC5"
              }
            },
            "signature": {
              "type": "tendermint/SignatureEd25519",
              "value": "Z4Dv5BPFLNXxgFm/O5DJQrqjdRInstm5T9U2BusRgTI8KOKpArWzNJHGxheJ4HPGIIDcYrRtTAFtWHf1TELyDg=="
            }
          },
          {
            "validator_address": "DF54B862410BCD9B5C516FBB6C56BDC826ED6FA7",
            "validator_index": "81",
            "height": "29458",
            "round": "0",
            "timestamp": "2018-08-01T06:53:40.194801017Z",
            "type": 2,
            "block_id": {
              "hash": "A17E873DC4CCCD03737E94993EB9D3D9A0559045",
              "parts": {
                "total": "1",
                "hash": "D9EA7A9B143CBBE664DA6C342D890D384D80ADC5"
              }
            },
            "signature": {
              "type": "tendermint/SignatureEd25519",
              "value": "3AwXYCshIkrFOCXZGhT5+ZH8JCIabGKnflvwSCVmKxn40ZN4s3avU+GFhokl81keEA1FvKm3vh82ax4TtMeaBA=="
            }
          },
          {
            "validator_address": "DFAF0C8B1B78D6D552B0189DE3ACA351439A1319",
            "validator_index": "82",
            "height": "29458",
            "round": "0",
            "timestamp": "2018-08-01T06:53:39.979657388Z",
            "type": 2,
            "block_id": {
              "hash": "A17E873DC4CCCD03737E94993EB9D3D9A0559045",
              "parts": {
                "total": "1",
                "hash": "D9EA7A9B143CBBE664DA6C342D890D384D80ADC5"
              }
            },
            "signature": {
              "type": "tendermint/SignatureEd25519",
              "value": "wECj2y80nBhS2qDB95pYJrcrMFIACrfQbNAg+cfcy5WFAew1ZzYHyi0G8Ah4vO4sqLfu2406w3muXRcNxCywDA=="
            }
          },
          {
            "validator_address": "E1DBC77881161A5A3A8536A57536EAE546A75D69",
            "validator_index": "83",
            "height": "29458",
            "round": "0",
            "timestamp": "2018-08-01T06:53:39.976131608Z",
            "type": 2,
            "block_id": {
              "hash": "A17E873DC4CCCD03737E94993EB9D3D9A0559045",
              "parts": {
                "total": "1",
                "hash": "D9EA7A9B143CBBE664DA6C342D890D384D80ADC5"
              }
            },
            "signature": {
              "type": "tendermint/SignatureEd25519",
              "value": "SHVrczb1XcLnjtTS9Ky/O5M495luDgWpgQdnfgLLT5q/hcw5jYJPAM76pxvtlOUQaa4zJDo2Do11b80QYtekBg=="
            }
          },
          {
            "validator_address": "E300E9D484374C1D3E97C1D93CAC3B160A056298",
            "validator_index": "84",
            "height": "29458",
            "round": "0",
            "timestamp": "2018-08-01T06:53:40.278718486Z",
            "type": 2,
            "block_id": {
              "hash": "A17E873DC4CCCD03737E94993EB9D3D9A0559045",
              "parts": {
                "total": "1",
                "hash": "D9EA7A9B143CBBE664DA6C342D890D384D80ADC5"
              }
            },
            "signature": {
              "type": "tendermint/SignatureEd25519",
              "value": "wnIyjfdx1nLFwAYRoP8t9gisbLPdRxwZgTEJmyLZ/ffG+yd6H14g+GUWVlyXE+dUqIPC6eVcZ20waiNyrM76Cw=="
            }
          },
          {
            "validator_address": "E39B5778E0D4297A46F45CF6940B0A163A430FF8",
            "validator_index": "85",
            "height": "29458",
            "round": "0",
            "timestamp": "2018-08-01T06:53:40.007014886Z",
            "type": 2,
            "block_id": {
              "hash": "A17E873DC4CCCD03737E94993EB9D3D9A0559045",
              "parts": {
                "total": "1",
                "hash": "D9EA7A9B143CBBE664DA6C342D890D384D80ADC5"
              }
            },
            "signature": {
              "type": "tendermint/SignatureEd25519",
              "value": "DKKOdijoZEIgBDBDBQONap4yTm3dS1yhACCMXXItajEHh9MFjn96cc3bZkelhEwB9BJjir7i0mXPkLJXYSx2BQ=="
            }
          },
          {
            "validator_address": "E3B19738F7132F950668504D326C7660F159D170",
            "validator_index": "86",
            "height": "29458",
            "round": "0",
            "timestamp": "2018-08-01T06:53:40.006204323Z",
            "type": 2,
            "block_id": {
              "hash": "A17E873DC4CCCD03737E94993EB9D3D9A0559045",
              "parts": {
                "total": "1",
                "hash": "D9EA7A9B143CBBE664DA6C342D890D384D80ADC5"
              }
            },
            "signature": {
              "type": "tendermint/SignatureEd25519",
              "value": "Wf5njdLetM/ImgRkMom3VZCQQ1ROEJXK8v1m1y4PwmmPT43JToWP75enk39oU2foxbZuHedUIbG39PC/jOWdAg=="
            }
          },
          {
            "validator_address": "E42F8AEABB685219F7027F54D2B0DBC7846F633A",
            "validator_index": "87",
            "height": "29458",
            "round": "0",
            "timestamp": "2018-08-01T06:53:39.099321265Z",
            "type": 2,
            "block_id": {
              "hash": "A17E873DC4CCCD03737E94993EB9D3D9A0559045",
              "parts": {
                "total": "1",
                "hash": "D9EA7A9B143CBBE664DA6C342D890D384D80ADC5"
              }
            },
            "signature": {
              "type": "tendermint/SignatureEd25519",
              "value": "1ENH0db0BT69pgQ8dRz6SnZhcMwUITNWSH5JRJDuh1s2LqU8yEmkYYfNfb2cdY/3ZVm4sjlNXI/muuxK+af2BA=="
            }
          },
          {
            "validator_address": "E4E6C2E81269DFFA196C17F98240E491479A6008",
            "validator_index": "88",
            "height": "29458",
            "round": "0",
            "timestamp": "2018-08-01T06:53:40.080724986Z",
            "type": 2,
            "block_id": {
              "hash": "A17E873DC4CCCD03737E94993EB9D3D9A0559045",
              "parts": {
                "total": "1",
                "hash": "D9EA7A9B143CBBE664DA6C342D890D384D80ADC5"
              }
            },
            "signature": {
              "type": "tendermint/SignatureEd25519",
              "value": "tDSZ5i6APszUfgscH0hGDPBJ7P8vD0Bj0ZmFRebuCG8bsRMGNCovMgLp/Qq1V48KtFmLBOqPBi0IcvMJM9urBg=="
            }
          },
          {
            "validator_address": "E4FEB2846F4F3B0ECDCBE9C9DCB2248248A5AF0F",
            "validator_index": "89",
            "height": "29458",
            "round": "0",
            "timestamp": "2018-08-01T06:53:40.337263769Z",
            "type": 2,
            "block_id": {
              "hash": "A17E873DC4CCCD03737E94993EB9D3D9A0559045",
              "parts": {
                "total": "1",
                "hash": "D9EA7A9B143CBBE664DA6C342D890D384D80ADC5"
              }
            },
            "signature": {
              "type": "tendermint/SignatureEd25519",
              "value": "/afPEoNFfFFkZa3T3e0hhim9EPTun8i/tHmeHHq5sX+rBOk1qgwjSjtj1BftF3Xw+ESa/g7Sq49lIjX0aixTDQ=="
            }
          },
          {
            "validator_address": "E6A7079D584B163750BE0831227F6B685DEAF3C1",
            "validator_index": "90",
            "height": "29458",
            "round": "0",
            "timestamp": "2018-08-01T06:53:40.145019582Z",
            "type": 2,
            "block_id": {
              "hash": "A17E873DC4CCCD03737E94993EB9D3D9A0559045",
              "parts": {
                "total": "1",
                "hash": "D9EA7A9B143CBBE664DA6C342D890D384D80ADC5"
              }
            },
            "signature": {
              "type": "tendermint/SignatureEd25519",
              "value": "Y6cCJegEcwgUIU0SjVgU8T/iyeDKhSrjJWW7RXA1V6UTB3g+7ztSQ83GsHV9ZoufsVQt63/rVHhX4cYajEaUDw=="
            }
          },
          {
            "validator_address": "E7A30077D5D11867D3EAF99ED45BFDC1EB834509",
            "validator_index": "91",
            "height": "29458",
            "round": "0",
            "timestamp": "2018-08-01T06:53:40.026384719Z",
            "type": 2,
            "block_id": {
              "hash": "A17E873DC4CCCD03737E94993EB9D3D9A0559045",
              "parts": {
                "total": "1",
                "hash": "D9EA7A9B143CBBE664DA6C342D890D384D80ADC5"
              }
            },
            "signature": {
              "type": "tendermint/SignatureEd25519",
              "value": "cRfE4pcedYZzgLTyzx9INBanZnhpUcVFs+uDGiA0Au+WBIxHE1SbUinARlbh+6NNncdeAOGUGqyApuFz/jzPDQ=="
            }
          },
          {
            "validator_address": "EBC613967F66F4EC306852CDF58B4F151CF16738",
            "validator_index": "92",
            "height": "29458",
            "round": "0",
            "timestamp": "2018-08-01T06:53:40.204321183Z",
            "type": 2,
            "block_id": {
              "hash": "A17E873DC4CCCD03737E94993EB9D3D9A0559045",
              "parts": {
                "total": "1",
                "hash": "D9EA7A9B143CBBE664DA6C342D890D384D80ADC5"
              }
            },
            "signature": {
              "type": "tendermint/SignatureEd25519",
              "value": "PACh2yqeUoA4MOnTPwMsFnNpbbZXIZAky+G7JW2ZtUB6mkwgR/Sh8Qps4lltX4OWrdgsMPdUbDsQTpcyb9OJAQ=="
            }
          },
          {
            "validator_address": "EC3401441726C40ECC7E51F744483B05BC6DE9BD",
            "validator_index": "93",
            "height": "29458",
            "round": "0",
            "timestamp": "2018-08-01T06:53:40.103893761Z",
            "type": 2,
            "block_id": {
              "hash": "A17E873DC4CCCD03737E94993EB9D3D9A0559045",
              "parts": {
                "total": "1",
                "hash": "D9EA7A9B143CBBE664DA6C342D890D384D80ADC5"
              }
            },
            "signature": {
              "type": "tendermint/SignatureEd25519",
              "value": "k8Vrb+sIuMJ6B9Dy897ZjpYQpbvNEpuBLDWLFe23XkFinBKD0F641us7iGkit87Mqaou41YdV0dRXXndudedAQ=="
            }
          },
          {
            "validator_address": "EC95B111D032181E1EC3B5E8875C5BB8E4AE7140",
            "validator_index": "94",
            "height": "29458",
            "round": "0",
            "timestamp": "2018-08-01T06:53:39.985146286Z",
            "type": 2,
            "block_id": {
              "hash": "A17E873DC4CCCD03737E94993EB9D3D9A0559045",
              "parts": {
                "total": "1",
                "hash": "D9EA7A9B143CBBE664DA6C342D890D384D80ADC5"
              }
            },
            "signature": {
              "type": "tendermint/SignatureEd25519",
              "value": "7gtDy5jfwzaJLKFWODMieAxOeUg20+g9MgRiTwipVuBIegYsGe8Tti8JDA3aHTkCHbJw2aiK9diR2qH+ZSMqCw=="
            }
          },
          {
            "validator_address": "F13C1805E8131C9B47E2A46818F57D8A2841E578",
            "validator_index": "95",
            "height": "29458",
            "round": "0",
            "timestamp": "2018-08-01T06:53:40.10850697Z",
            "type": 2,
            "block_id": {
              "hash": "A17E873DC4CCCD03737E94993EB9D3D9A0559045",
              "parts": {
                "total": "1",
                "hash": "D9EA7A9B143CBBE664DA6C342D890D384D80ADC5"
              }
            },
            "signature": {
              "type": "tendermint/SignatureEd25519",
              "value": "/qhGpgEkpc0GtC3Y86Ps9/dyfgJFFgxQ8c+BYQDWZc3req5cNyU+PWqTVcvOTHcdAhc57qz2exkvsSifyBrzAQ=="
            }
          },
          {
            "validator_address": "F23FF36BD5B90C33CE3A03ED72DBDCF5EC07D6AF",
            "validator_index": "96",
            "height": "29458",
            "round": "0",
            "timestamp": "2018-08-01T06:53:40.078032219Z",
            "type": 2,
            "block_id": {
              "hash": "A17E873DC4CCCD03737E94993EB9D3D9A0559045",
              "parts": {
                "total": "1",
                "hash": "D9EA7A9B143CBBE664DA6C342D890D384D80ADC5"
              }
            },
            "signature": {
              "type": "tendermint/SignatureEd25519",
              "value": "2YrVMHgDNbV3NXpCJbphoeW7QpUFx5nE3KRzwKN1CNhQ817O42U5SgfIY54Iel9qUpvleRlwAbeh5TqlUUw5CQ=="
            }
          },
          {
            "validator_address": "F4268597DE93E3E2CED38845010F8AA34E2A879E",
            "validator_index": "97",
            "height": "29458",
            "round": "0",
            "timestamp": "2018-08-01T06:53:40.078818269Z",
            "type": 2,
            "block_id": {
              "hash": "A17E873DC4CCCD03737E94993EB9D3D9A0559045",
              "parts": {
                "total": "1",
                "hash": "D9EA7A9B143CBBE664DA6C342D890D384D80ADC5"
              }
            },
            "signature": {
              "type": "tendermint/SignatureEd25519",
              "value": "WOzGynl9/qLl6LL99c9hlmhIhdnKUzOucqQ4JAT3G/C2E7/DfmS/zNwKI7bD0r7q3IrO2h0tG1+T9+glfi75AQ=="
            }
          },
          {
            "validator_address": "F4DEB417999B04BE2EFF9FFE03FA373D86011CC0",
            "validator_index": "98",
            "height": "29458",
            "round": "0",
            "timestamp": "2018-08-01T06:53:40.121516087Z",
            "type": 2,
            "block_id": {
              "hash": "A17E873DC4CCCD03737E94993EB9D3D9A0559045",
              "parts": {
                "total": "1",
                "hash": "D9EA7A9B143CBBE664DA6C342D890D384D80ADC5"
              }
            },
            "signature": {
              "type": "tendermint/SignatureEd25519",
              "value": "/IsstXuQrLgt7qMbwpEXdzpGT4OMdFDPKOHFmbiC+6jBFfpqrsndECCmi33abdtJOZn+oLZisDm2zcoK7FaADg=="
            }
          },
          {
            "validator_address": "F6738260186D33D9C14FC6E7017AFE6BB952A63D",
            "validator_index": "99",
            "height": "29458",
            "round": "0",
            "timestamp": "2018-08-01T06:53:40.034735054Z",
            "type": 2,
            "block_id": {
              "hash": "A17E873DC4CCCD03737E94993EB9D3D9A0559045",
              "parts": {
                "total": "1",
                "hash": "D9EA7A9B143CBBE664DA6C342D890D384D80ADC5"
              }
            },
            "signature": {
              "type": "tendermint/SignatureEd25519",
              "value": "GBV9WSsYPmvrcWbSFA9nXf/HZv8+TQ09eB1TXadoBvs6yoMCLpJi74Lq49i1gHQgxruulq+0oXOEiEszQHqvBA=="
            }
          },
          {
            "validator_address": "FF3F3FCBCE7E62D7AD5506FF846EC4518D980515",
            "validator_index": "100",
            "height": "29458",
            "round": "0",
            "timestamp": "2018-08-01T06:53:39.945263763Z",
            "type": 2,
            "block_id": {
              "hash": "A17E873DC4CCCD03737E94993EB9D3D9A0559045",
              "parts": {
                "total": "1",
                "hash": "D9EA7A9B143CBBE664DA6C342D890D384D80ADC5"
              }
            },
            "signature": {
              "type": "tendermint/SignatureEd25519",
              "value": "ww2pupaJ+0g62JW91Wk332cwW6xJbyDuabSFuVX+1JrgbH9xDlFrUJBnYqYFOVGRCCOeOOev1XDq7kC8GmsADg=="
            }
          }
        ]
      }
    },
    "canonical": true
  }
}