{
  "jsonrpc": "2.0",
  "id": "",
  "result": {
    "SignedHeader": {
      "header": {
        "chain_id": "gaia-7004",
        "height": "30156",
        "time": "2018-08-01T08:04:38.053452585Z",
        "num_txs": "0",
        "last_block_id": {
          "hash": "91413732C5D37BC2E7B4F751DFD386BD75382A8D",
          "parts": {
            "total": "1",
            "hash": "E520D11184D44A96E9B669CACFA0E4D9A9D4891C"
          }
        },
        "total_txs": "1282",
        "last_commit_hash": "A52FC103B9EBA2E2831CF1F4FCE59EDE87F7C566",
        "data_hash": "",
        "validators_hash": "CE8841F7816F166AE8D2B411DCEB72F9D42F636E",
        "consensus_hash": "D6B74BB35BDFFD8392340F2A379173548AE188FE",
        "app_hash": "1E35825C2AA6D1A8CBA29C4F418BC3748191F627",
        "last_results_hash": "",
        "evidence_hash": ""
      },
      "commit": {
        "block_id": {
          "hash": "9AD133523D46D9A1F2F9D86681EA1531DF596638",
          "parts": {
            "total": "1",
            "hash": "44086EBAA36A7459408A7D90373B635848D4D13A"
          }
        },
        "precommits": [
          {
            "validator_address": "029359C0C768096273A68ABC902A6B17AC8D1D70",
            "validator_index": "0",
            "height": "30156",
            "round": "1",
            "timestamp": "2018-08-01T08:04:38.877827214Z",
            "type": 2,
            "block_id": {
              "hash": "9AD133523D46D9A1F2F9D86681EA1531DF596638",
              "parts": {
                "total": "1",
                "hash": "44086EBAA36A7459408A7D90373B635848D4D13A"
              }
            },
            "signature": {
              "type": "tendermint/SignatureEd25519",
              "value": "08CzDQyO/HhYox+yP4rHmSgVB1n7yccJH6UMViIfk/WRgddi0bd+FqvoQt9i9EZLAzIp1IP3nCL8hJfC115eBw=="
            }
          },
          {
            "validator_address": "02FE4B97A8387F39D1AC19E0C1702B3CC614812F",
            "validator_index": "1",
            "height": "30156",
            "round": "1",
            "timestamp": "2018-08-01T08:04:38.889897603Z",
            "type": 2,
            "block_id": {
              "hash": "9AD133523D46D9A1F2F9D86681EA1531DF596638",
              "parts": {
                "total": "1",
                "hash": "44086EBAA36A7459408A7D90373B635848D4D13A"
              }
            },
            "signature": {
              "type": "tendermint/SignatureEd25519",
              "value": "/eGDRS/GGqEZqCQGmA39aVVMXj4dUz+T7UuuoSfEYzXezfRgc+L4jXbeeaAv/66tD1R0+DqopUilbedx/yXyAQ=="
            }
          },
          {
            "validator_address": "0548261C50222FD710EB5EBDF03A0E6567B21D20",
            "validator_index": "2",
            "height": "30156",
            "round": "1",
            "timestamp": "2018-08-01T08:04:38.93680649Z",
            "type": 2,
            "block_id": {
              "hash": "9AD133523D46D9A1F2F9D86681EA1531DF596638",
              "parts": {
                "total": "1",
                "hash": "44086EBAA36A7459408A7D90373B635848D4D13A"
              }
            },
            "signature": {
              "type": "tendermint/SignatureEd25519",
              "value": "7Me1uikvUALwakrrJK6YBtUQsgv8o0rE9cmfJCZzCfbk6DcBoDAWVv3/lkmClZlRR6JP4F4lHn0XjwKcGwhSDQ=="
            }
          },
          {
            "validator_address": "0665ADBF9B120B7617BF955AA5653A1992C82B11",
            "validator_index": "3",
            "height": "30156",
            "round": "1",
            "timestamp": "2018-08-01T08:04:38.850973808Z",
            "type": 2,
            "block_id": {
              "hash": "9AD133523D46D9A1F2F9D86681EA1531DF596638",
              "parts": {
                "total": "1",
                "hash": "44086EBAA36A7459408A7D90373B635848D4D13A"
              }
            },
            "signature": {
              "type": "tendermint/SignatureEd25519",
              "value": "j66K8jaeBZrl5skEGo/UwtyptmCQj8yd0TnHFwlFREV7sMr2DArDlq4SwmAz2HPCjFRVL/7xJJ5LBVUpsxOsDw=="
            }
          },
          {
            "validator_address": "09145E611CC27EEB944FC5A956DDF710F943B9EF",
            "validator_index": "4",
            "height": "30156",
            "round": "1",
            "timestamp": "2018-08-01T08:04:38.925146078Z",
            "type": 2,
            "block_id": {
              "hash": "9AD133523D46D9A1F2F9D86681EA1531DF596638",
              "parts": {
                "total": "1",
                "hash": "44086EBAA36A7459408A7D90373B635848D4D13A"
              }
            },
            "signature": {
              "type": "tendermint/SignatureEd25519",
              "value": "ldMqNkzo4yIXAfATOEdIZuxdtwER7syMPGYvhKkEBtTh+GQz+XI25RpL0Z2Toy4HKraFEXktNFBm1ovTwEv4DA=="
            }
          },
          {
            "validator_address": "0989D0355A104B67AE0AE028C68FB610690E174B",
            "validator_index": "5",
            "height": "30156",
            "round": "1",
            "timestamp": "2018-08-01T08:04:38.884366078Z",
            "type": 2,
            "block_id": {
              "hash": "9AD133523D46D9A1F2F9D86681EA1531DF596638",
              "parts": {
                "total": "1",
                "hash": "44086EBAA36A7459408A7D90373B635848D4D13A"
              }
            },
            "signature": {
              "type": "tendermint/SignatureEd25519",
              "value": "srBak2Zg8R7oVfnjndfgU2SgtY5L4zNvVssfLEae7BShSoZcv7DifbiSCIbOIun8hdXpeF58FJUTNI16YrvPAg=="
            }
          },
          {
            "validator_address": "0A692DBFFE9E5DD28E7DECC33CED1AEB4C0D014E",
            "validator_index": "6",
            "height": "30156",
            "round": "1",
            "timestamp": "2018-08-01T08:04:38.973199786Z",
            "type": 2,
            "block_id": {
              "hash": "9AD133523D46D9A1F2F9D86681EA1531DF596638",
              "parts": {
                "total": "1",
                "hash": "44086EBAA36A7459408A7D90373B635848D4D13A"
              }
            },
            "signature": {
              "type": "tendermint/SignatureEd25519",
              "value": "m3AOR6BU7jHagrjt57QXMrpCLu7DvI+eU1JIvshlcf+lz+wNVInFLyM0Lbb+yuReG4chpUj3zZNLvfuBqQHuBw=="
            }
          },
          {
            "validator_address": "0DDF97111D73DB825138EC15EC27DE5FE8536901",
            "validator_index": "7",
            "height": "30156",
            "round": "1",
            "timestamp": "2018-08-01T08:04:38.914184374Z",
            "type": 2,
            "block_id": {
              "hash": "9AD133523D46D9A1F2F9D86681EA1531DF596638",
              "parts": {
                "total": "1",
                "hash": "44086EBAA36A7459408A7D90373B635848D4D13A"
              }
            },
            "signature": {
              "type": "tendermint/SignatureEd25519",
              "value": "zDl1wOuCBDsYJMcVHUJF/QkUE/QIcdzytGaJ+ax2Sz+61vKQxu5aqfjmFhP0p6WiV6wBpPtSOB0EqRhng3LaDA=="
            }
          },
          {
            "validator_address": "1751786EFC085D5331C61168FFFC8202EA151B4E",
            "validator_index": "8",
            "height": "30156",
            "round": "1",
            "timestamp": "2018-08-01T08:04:38.552968427Z",
            "type": 2,
            "block_id": {
              "hash": "9AD133523D46D9A1F2F9D86681EA1531DF596638",
              "parts": {
                "total": "1",
                "hash": "44086EBAA36A7459408A7D90373B635848D4D13A"
              }
            },
            "signature": {
              "type": "tendermint/SignatureEd25519",
              "value": "RKX94p/uotvtNkk6bw+Go4+2bRPgAhbjbJyfKKhwOk58LRnllcvhvJs8FK0dwnOq+RMtkTjxHYHh/ppX6FSfCQ=="
            }
          },
          {
            "validator_address": "17BB5CD01E8940FAFB948A04D5FA5A0645E5822E",
            "validator_index": "9",
            "height": "30156",
            "round": "1",
            "timestamp": "2018-08-01T08:04:38.931753275Z",
            "type": 2,
            "block_id": {
              "hash": "9AD133523D46D9A1F2F9D86681EA1531DF596638",
              "parts": {
                "total": "1",
                "hash": "44086EBAA36A7459408A7D90373B635848D4D13A"
              }
            },
            "signature": {
              "type": "tendermint/SignatureEd25519",
              "value": "dz7Q0EhSB517Msnzrfl3Ie5JSpStehcyCqGDyTxQ/Bc3fnkYWzx/PpszqC7KMN1RKJWHuimuNqAEDAzhEUycDw=="
            }
          },
          {
            "validator_address": "1C683A87904BC38F05004FE83301A3A3E35447EB",
            "validator_index": "10",
            "height": "30156",
            "round": "1",
            "timestamp": "2018-08-01T08:04:38.879173699Z",
            "type": 2,
            "block_id": {
              "hash": "9AD133523D46D9A1F2F9D86681EA1531DF596638",
              "parts": {
                "total": "1",
                "hash": "44086EBAA36A7459408A7D90373B635848D4D13A"
              }
            },
            "signature": {
              "type": "tendermint/SignatureEd25519",
              "value": "ERTEe6wzCll2tjfagZp0jqyNNJBZT1IbQ++iWrjJrDCtoSR/y/ZDOA//3Y3DwPRIVZ6rpSoje1FgsD6hnnGnDA=="
            }
          },
          {
            "validator_address": "1E9CE94FD0BA5CFEB901F90BC658D64D85B134D2",
            "validator_index": "11",
            "height": "30156",
            "round": "1",
            "timestamp": "2018-08-01T08:04:38.947239647Z",
            "type": 2,
            "block_id": {
              "hash": "9AD133523D46D9A1F2F9D86681EA1531DF596638",
              "parts": {
                "total": "1",
                "hash": "44086EBAA36A7459408A7D90373B635848D4D13A"
              }
            },
            "signature": {
              "type": "tendermint/SignatureEd25519",
              "value": "lF9x2iOVREVp7ucKD885jE7tRm2K9STxzvcgwTjhIf22iIu32lualxzufiA2IRjNIZ/ESkEIRBrYkhrrZjAiAg=="
            }
          },
          {
            "validator_address": "1ECD8C5FE1341D74CDC633A245DD56858DE2F9A2",
            "validator_index": "12",
            "height": "30156",
            "round": "1",
            "timestamp": "2018-08-01T08:04:38.999978963Z",
            "type": 2,
            "block_id": {
              "hash": "9AD133523D46D9A1F2F9D86681EA1531DF596638",
              "parts": {
                "total": "1",
                "hash": "44086EBAA36A7459408A7D90373B635848D4D13A"
              }
            },
            "signature": {
              "type": "tendermint/SignatureEd25519",
              "value": "rN1YuG+xPPFlInVLfIN3hj2o7SrVMlLHDfGdj6fTyuldwJWDtNll7SRT/Jtl5geY+JYUaePnrlzATvFV13SyDQ=="
            }
          },
          {
            "validator_address": "1F3A68CAAD483768AA2BF667DEF10F7104C89928",
            "validator_index": "13",
            "height": "30156",
            "round": "1",
            "timestamp": "2018-08-01T08:04:38.884161395Z",
            "type": 2,
            "block_id": {
              "hash": "9AD133523D46D9A1F2F9D86681EA1531DF596638",
              "parts": {
                "total": "1",
                "hash": "44086EBAA36A7459408A7D90373B635848D4D13A"
              }
            },
            "signature": {
              "type": "tendermint/SignatureEd25519",
              "value": "SvQ2MVePMbrPo1Ywfwp2BxYPRkBiMxHgk+6aYqnrkpsp6K1cRjI3SKSeLjk9nHNE/ypIHEXBDTomvFdqZcG6DA=="
            }
          },
          {
            "validator_address": "23897586D68E2AC1C78E0EF5BB5DF5C8EAB18F50",
            "validator_index": "14",
            "height": "30156",
            "round": "1",
            "timestamp": "2018-08-01T08:04:38.891237159Z",
            "type": 2,
            "block_id": {
              "hash": "9AD133523D46D9A1F2F9D86681EA1531DF596638",
              "parts": {
                "total": "1",
                "hash": "44086EBAA36A7459408A7D90373B635848D4D13A"
              }
            },
            "signature": {
              "type": "tendermint/SignatureEd25519",
              "value": "qm+mhQl98Bor5BEkU/ikh8tFaacORfi6O7G90npyK52ceKQUdSjcAh5P66QEtQxkHZqQptRVUbMyCWXvQUVGAw=="
            }
          },
          {
            "validator_address": "28770D17E8530825E7310A0659308654B7EC9682",
            "validator_index": "15",
            "height": "30156",
            "round": "1",
            "timestamp": "2018-08-01T08:04:38.930091317Z",
            "type": 2,
            "block_id": {
              "hash": "9AD133523D46D9A1F2F9D86681EA1531DF596638",
              "parts": {
                "total": "1",
                "hash": "44086EBAA36A7459408A7D90373B635848D4D13A"
              }
            },
            "signature": {
              "type": "tendermint/SignatureEd25519",
              "value": "eFQxOzXNuZqR0iIR0/3pkmIPhxvDEk6YT4bGasFPdl5esIWwWYVm22kyGYbGhAyIhKjRuRbIEAlulwAUX21TAw=="
            }
          },
          {
            "validator_address": "2A92EC3C642140202298D0E245095E0ECFC25228",
            "validator_index": "16",
            "height": "30156",
            "round": "1",
            "timestamp": "2018-08-01T08:04:38.961502548Z",
            "type": 2,
            "block_id": {
              "hash": "9AD133523D46D9A1F2F9D86681EA1531DF596638",
              "parts": {
                "total": "1",
                "hash": "44086EBAA36A7459408A7D90373B635848D4D13A"
              }
            },
            "signature": {
              "type": "tendermint/SignatureEd25519",
              "value": "yWeOsdEM7g68bP1Kp7xwd1kUT9vR9EJEUZkd0/OHygpLL/NDFHiwNTjqCaMEGXqRtVXEwFK8lBZ7wic8aDVzCw=="
            }
          },
          null,
          {
            "validator_address": "3383EF2A13B160C41947AC30434B274B2FAF0617",
            "validator_index": "18",
            "height": "30156",
            "round": "1",
            "timestamp": "2018-08-01T08:04:38.904648571Z",
            "type": 2,
            "block_id": {
              "hash": "9AD133523D46D9A1F2F9D86681EA1531DF596638",
              "parts": {
                "total": "1",
                "hash": "44086EBAA36A7459408A7D90373B635848D4D13A"
              }
            },
            "signature": {
              "type": "tendermint/SignatureEd25519",
              "value": "oZ2Lq0mE5sLsNCWRgjGSW+vza9rzLzqvCiuqOcRAwrd15alYtc9nbdS1sW+JCsNkUWPaI7YbWuw/BPzmpOBdAA=="
            }
          },
          {
            "validator_address": "36E9B7FAEC964F97D84C028ED62493E373AD0B38",
            "validator_index": "19",
            "height": "30156",
            "round": "1",
            "timestamp": "2018-08-01T08:04:39.03969299Z",
            "type": 2,
            "block_id": {
              "hash": "9AD133523D46D9A1F2F9D86681EA1531DF596638",
              "parts": {
                "total": "1",
                "hash": "44086EBAA36A7459408A7D90373B635848D4D13A"
              }
            },
            "signature": {
              "type": "tendermint/SignatureEd25519",
              "value": "C7m9oB3RYYTD0ncj5tPFN+9GQGdePwY3o+I8+dgvNbJZjEpNi3ABc5w+JPBFfHxTUxIfq/w46EVTypmaBhJYDA=="
            }
          },
          {
            "validator_address": "38A8D85D36BEA2E5FCF8A1E778F53628E450EF13",
            "validator_index": "20",
            "height": "30156",
            "round": "1",
            "timestamp": "2018-08-01T08:04:38.961550266Z",
            "type": 2,
            "block_id": {
              "hash": "9AD133523D46D9A1F2F9D86681EA1531DF596638",
              "parts": {
                "total": "1",
                "hash": "44086EBAA36A7459408A7D90373B635848D4D13A"
              }
            },
            "signature": {
              "type": "tendermint/SignatureEd25519",
              "value": "RE3G/lZrH10PkEAQJXgosnDlfgvwCBv5HKOVFTUeWZwFH63+6L2R3gcztTTfqcbcGwEJkJK6BmWckKDLx1NECQ=="
            }
          },
          {
            "validator_address": "39DFDA0C5DB84B269642188B23253508537798E6",
            "validator_index": "21",
            "height": "30156",
            "round": "1",
            "timestamp": "2018-08-01T08:04:38.89593811Z",
            "type": 2,
            "block_id": {
              "hash": "9AD133523D46D9A1F2F9D86681EA1531DF596638",
              "parts": {
                "total": "1",
                "hash": "44086EBAA36A7459408A7D90373B635848D4D13A"
              }
            },
            "signature": {
              "type": "tendermint/SignatureEd25519",
              "value": "Jux7RietJawoUwgUZ62YRLVAsH2qphzqAnsShqjpjCXBd/cUD51Y4lFnpsYlUN5fX1RS6W2GBncy/TQo/tpkDw=="
            }
          },
          {
            "validator_address": "3AC99B708404452366E0953A4BE849226DC86CBC",
            "validator_index": "22",
            "height": "30156",
            "round": "1",
            "timestamp": "2018-08-01T08:04:38.964717684Z",
            "type": 2,
            "block_id": {
              "hash": "9AD133523D46D9A1F2F9D86681EA1531DF596638",
              "parts": {
                "total": "1",
                "hash": "44086EBAA36A7459408A7D90373B635848D4D13A"
              }
            },
            "signature": {
              "type": "tendermint/SignatureEd25519",
              "value": "XNxo+IJM7KXuOmA0TqRsXHu4YEEBE4slTpFNXQf+96d85DQfUe6jpI4iDw1JGo9oqshHLqTSt2yHhhc66pm/BQ=="
            }
          },
          {
            "validator_address": "3DCB822A10ED319EC7C4393D8E3FD4A41B15AAF2",
            "validator_index": "23",
            "height": "30156",
            "round": "1",
            "timestamp": "2018-08-01T08:04:38.93274518Z",
            "type": 2,
            "block_id": {
              "hash": "9AD133523D46D9A1F2F9D86681EA1531DF596638",
              "parts": {
                "total": "1",
                "hash": "44086EBAA36A7459408A7D90373B635848D4D13A"
              }
            },
            "signature": {
              "type": "tendermint/SignatureEd25519",
              "value": "z1ECqH7eVvhE4mKSWhDAVkK5s4bR49hFeok5ZPFCo2L9TI6ETEtJfD5gbT+FxYAX432VBFTZZ4pyBG0iMH6TAw=="
            }
          },
          {
            "validator_address": "3E899BA36A93C7370347BD5FE85909F2ECD93F8C",
            "validator_index": "24",
            "height": "30156",
            "round": "1",
            "timestamp": "2018-08-01T08:04:38.92176479Z",
            "type": 2,
            "block_id": {
              "hash": "9AD133523D46D9A1F2F9D86681EA1531DF596638",
              "parts": {
                "total": "1",
                "hash": "44086EBAA36A7459408A7D90373B635848D4D13A"
              }
            },
            "signature": {
              "type": "tendermint/SignatureEd25519",
              "value": "1pe+GtRKGiGEpkf6U8apkFuYk5RncPdDNMwu4A8X6fBZuGAFxpxHfCiIiYfFCkcXnaebx55jPU9i/UVS2l5+Bw=="
            }
          },
          {
            "validator_address": "41CAB2E29E7D0F2282E3275938F188FF9386B84C",
            "validator_index": "25",
            "height": "30156",
            "round": "1",
            "timestamp": "2018-08-01T08:04:38.926890829Z",
            "type": 2,
            "block_id": {
              "hash": "9AD133523D46D9A1F2F9D86681EA1531DF596638",
              "parts": {
                "total": "1",
                "hash": "44086EBAA36A7459408A7D90373B635848D4D13A"
              }
            },
            "signature": {
              "type": "tendermint/SignatureEd25519",
              "value": "HNyJ7DsNdlKVxsIeMLRqZ8Ro9lkOnnmE8Em2GZ96Xm1oPrtD/d8PPik5n9/pbOZkqW6uu2ECHFKhfzm114PBAw=="
            }
          },
          {
            "validator_address": "462B656869DB02A8FD1077E255F8CC7401DC37C6",
            "validator_index": "26",
            "height": "30156",
            "round": "1",
            "timestamp": "2018-08-01T08:04:38.874182128Z",
            "type": 2,
            "block_id": {
              "hash": "9AD133523D46D9A1F2F9D86681EA1531DF596638",
              "parts": {
                "total": "1",
                "hash": "44086EBAA36A7459408A7D90373B635848D4D13A"
              }
            },
            "signature": {
              "type": "tendermint/SignatureEd25519",
              "value": "cDupLdwoFkYSN8jdr1sQvQXoSzN0c8m72NkeUv5xTWvwlCGuZw4r3AV1MlSzzmLD2ax76IJa5TAbgYIntd2iDA=="
            }
          },
          {
            "validator_address": "48E5118163E5442068A1B5A42D2EEDBB75724935",
            "validator_index": "27",
            "height": "30156",
            "round": "1",
            "timestamp": "2018-08-01T08:04:38.959793236Z",
            "type": 2,
            "block_id": {
              "hash": "9AD133523D46D9A1F2F9D86681EA1531DF596638",
              "parts": {
                "total": "1",
                "hash": "44086EBAA36A7459408A7D90373B635848D4D13A"
              }
            },
            "signature": {
              "type": "tendermint/SignatureEd25519",
              "value": "SAmY4crwNoZmtaHBe6xRqTteBkW0/O6Qc5vI6XZVZEXNW0iVq4tsFC5wedDZjrekQ3j/w1wBCl9LOCpFdU7aDw=="
            }
          },
          {
            "validator_address": "49103C58AFD9C7C069F55EBA218F3DFD9AEA74F9",
            "validator_index": "28",
            "height": "30156",
            "round": "1",
            "timestamp": "2018-08-01T08:04:38.903833973Z",
            "type": 2,
            "block_id": {
              "hash": "9AD133523D46D9A1F2F9D86681EA1531DF596638",
              "parts": {
                "total": "1",
                "hash": "44086EBAA36A7459408A7D90373B635848D4D13A"
              }
            },
            "signature": {
              "type": "tendermint/SignatureEd25519",
              "value": "DkA81XJnl9mo0xOxgv86bpQ4Sv/nfEkAi9Nwvtpesx0nvEX3CnBi2Bw31iRtpD5hhLZrX70DVbQxMXUwjmWoCw=="
            }
          },
          {
            "validator_address": "4944F8BBBB5303E17BC0607DF332320EDBC750EA",
            "validator_index": "29",
            "height": "30156",
            "round": "1",
            "timestamp": "2018-08-01T08:04:38.866066723Z",
            "type": 2,
            "block_id": {
              "hash": "9AD133523D46D9A1F2F9D86681EA1531DF596638",
              "parts": {
                "total": "1",
                "hash": "44086EBAA36A7459408A7D90373B635848D4D13A"
              }
            },
            "signature": {
              "type": "tendermint/SignatureEd25519",
              "value": "sYD6LBYfy9DevQaLH93EHPbvTOcsSmcb2BIBcnGKv84h+JNWAQGhslzT13W2ve+mH27RqRLXKEOwgY/MoWiZBA=="
            }
          },
          {
            "validator_address": "49841599DE675157CBE1E7D6B35BF8FFC23BD5CB",
            "validator_index": "30",
            "height": "30156",
            "round": "1",
            "timestamp": "2018-08-01T08:04:38.848603607Z",
            "type": 2,
            "block_id": {
              "hash": "9AD133523D46D9A1F2F9D86681EA1531DF596638",
              "parts": {
                "total": "1",
                "hash": "44086EBAA36A7459408A7D90373B635848D4D13A"
              }
            },
            "signature": {
              "type": "tendermint/SignatureEd25519",
              "value": "89k/CAsKKE0lKNyXZ8LCGLAtyuv0A5u4/MKZz+RYUgL1B2jt5snOb+AXnOdOlQVMuM35qVT0cbfQrVkTyeRTBA=="
            }
          },
          {
            "validator_address": "51386C2CF9556821D114D7E4945806802BADB28D",
            "validator_index": "31",
            "height": "30156",
            "round": "1",
            "timestamp": "2018-08-01T08:04:38.931662274Z",
            "type": 2,
            "block_id": {
              "hash": "9AD133523D46D9A1F2F9D86681EA1531DF596638",
              "parts": {
                "total": "1",
                "hash": "44086EBAA36A7459408A7D90373B635848D4D13A"
              }
            },
            "signature": {
              "type": "tendermint/SignatureEd25519",
              "value": "2QpA/7sKI1LagmJnRLHTcMWNxZKjLMIl+u1G3DU3jEStwAU45Etaf6DuuSXOLnjB0TbfcQE3MR9D7AvpqDSTBw=="
            }
          },
          {
            "validator_address": "543564ECA3AFEFADC73EE8591AAC3A96F079BC8A",
            "validator_index": "32",
            "height": "30156",
            "round": "1",
            "timestamp": "2018-08-01T08:04:38.899374025Z",
            "type": 2,
            "block_id": {
              "hash": "9AD133523D46D9A1F2F9D86681EA1531DF596638",
              "parts": {
                "total": "1",
                "hash": "44086EBAA36A7459408A7D90373B635848D4D13A"
              }
            },
            "signature": {
              "type": "tendermint/SignatureEd25519",
              "value": "hdU+hO8MJLZLnqEWfixCE177aThpkahTK1Dnth3rRQEzhCxlH/4fEeD4pFCWZxDQW7Ug3mapehxsFqgiVnJDAQ=="
            }
          },
          {
            "validator_address": "55D67B1A6DC13E96F8754A5A42EABC20F7F86664",
            "validator_index": "33",
            "height": "30156",
            "round": "1",
            "timestamp": "2018-08-01T08:04:38.875501479Z",
            "type": 2,
            "block_id": {
              "hash": "9AD133523D46D9A1F2F9D86681EA1531DF596638",
              "parts": {
                "total": "1",
                "hash": "44086EBAA36A7459408A7D90373B635848D4D13A"
              }
            },
            "signature": {
              "type": "tendermint/SignatureEd25519",
              "value": "Uj67dG7AYlDJn8S/ijmNp/nLakFjUUHOesZF+9KRSJRE1KItXWRJObdmMtEBivmJIWFjG30FCpSheaQ8vQ2iBg=="
            }
          },
          {
            "validator_address": "570B6A755ED339EAC56BB3390A48069F6AC9449B",
            "validator_index": "34",
            "height": "30156",
            "round": "1",
            "timestamp": "2018-08-01T08:04:44.79937105Z",
            "type": 2,
            "block_id": {
              "hash": "9AD133523D46D9A1F2F9D86681EA1531DF596638",
              "parts": {
                "total": "1",
                "hash": "44086EBAA36A7459408A7D90373B635848D4D13A"
              }
            },
            "signature": {
              "type": "tendermint/SignatureEd25519",
              "value": "wkdB8fre8kTy09IBqnRwYK5OE4OdwAoQJON7UbLmQs3760AdEr0kywmzLF8ZsLnDKncUoCRVPDufDeDjL1yOBA=="
            }
          },
          {
            "validator_address": "5BDF8EA41B1835FBAD865B181A2A4B23F511B5E4",
            "validator_index": "35",
            "height": "30156",
            "round": "1",
            "timestamp": "2018-08-01T08:04:38.879514333Z",
            "type": 2,
            "block_id": {
              "hash": "9AD133523D46D9A1F2F9D86681EA1531DF596638",
              "parts": {
                "total": "1",
                "hash": "44086EBAA36A7459408A7D90373B635848D4D13A"
              }
            },
            "signature": {
              "type": "tendermint/SignatureEd25519",
              "value": "BGGbKiwt5sAxBNagxKDQrttgXWqdiOhfNekarKXDo1IMxzV0S3T2rDgdX2QWZ/YCbRjJyrX5iaQs3B5FDB9yAw=="
            }
          },
          {
            "validator_address": "60229E2E273297FE00219E46DFFB8F76844CDEF9",
            "validator_index": "36",
            "height": "30156",
            "round": "1",
            "timestamp": "2018-08-01T08:04:37.12379146Z",
            "type": 2,
            "block_id": {
              "hash": "9AD133523D46D9A1F2F9D86681EA1531DF596638",
              "parts": {
                "total": "1",
                "hash": "44086EBAA36A7459408A7D90373B635848D4D13A"
              }
            },
            "signature": {
              "type": "tendermint/SignatureEd25519",
              "value": "RGntb4ip9OrrSrRVr1jgH2ZMS3Ictc22XF/mbKmkoWKrRnVDJ0RWDJZjCVbpkHXXbDJ5qPTH3rvYbQvU6gE4Aw=="
            }
          },
          {
            "validator_address": "62410D6D1CD98278136E4D0738AA0EA273CDFC54",
            "validator_index": "37",
            "height": "30156",
            "round": "1",
            "timestamp": "2018-08-01T08:04:38.940510907Z",
            "type": 2,
            "block_id": {
              "hash": "9AD133523D46D9A1F2F9D86681EA1531DF596638",
              "parts": {
                "total": "1",
                "hash": "44086EBAA36A7459408A7D90373B635848D4D13A"
              }
            },
            "signature": {
              "type": "tendermint/SignatureEd25519",
              "value": "Whqg5xJ3wPpMW17aoFd9/LFEBaCGoYcbDA+qONpyHrTgoLOptqkhklx06oL4GzMgCY2F739SiBj++AcjASZkDw=="
            }
          },
          {
            "validator_address": "632F5C139A5A9DFBFE5111DEE29FCFB6157207DC",
            "validator_index": "38",
            "height": "30156",
            "round": "1",
            "timestamp": "2018-08-01T08:04:38.89503231Z",
            "type": 2,
            "block_id": {
              "hash": "9AD133523D46D9A1F2F9D86681EA1531DF596638",
              "parts": {
                "total": "1",
                "hash": "44086EBAA36A7459408A7D90373B635848D4D13A"
              }
            },
            "signature": {
              "type": "tendermint/SignatureEd25519",
              "value": "VMvem7lroJfy67ivFr/uIc7NClXBr+Poai9pm9IrkRMaojgdTDCDWh2r0/yMGxLZPn/xPCei/ovPdWvjAqoZAQ=="
            }
          },
          {
            "validator_address": "64F57F8E796A9B7B590C1EFA4123988C86631D39",
            "validator_index": "39",
            "height": "30156",
            "round": "1",
            "timestamp": "2018-08-01T08:04:38.840962611Z",
            "type": 2,
            "block_id": {
              "hash": "9AD133523D46D9A1F2F9D86681EA1531DF596638",
              "parts": {
                "total": "1",
                "hash": "44086EBAA36A7459408A7D90373B635848D4D13A"
              }
            },
            "signature": {
              "type": "tendermint/SignatureEd25519",
              "value": "UGgGwiGcLh11+tHdGI0eP1lx0pIxN8qjTMqV9fifsOeY619V0bfq+gbQ4fSU3Jmmlz5MT0Vw/s9NmoXGUK7iCQ=="
            }
          },
          {
            "validator_address": "69D99B2C66043ACBEAA8447525C356AFC6408E0C",
            "validator_index": "40",
            "height": "30156",
            "round": "1",
            "timestamp": "2018-08-01T08:04:39.001894766Z",
            "type": 2,
            "block_id": {
              "hash": "9AD133523D46D9A1F2F9D86681EA1531DF596638",
              "parts": {
                "total": "1",
                "hash": "44086EBAA36A7459408A7D90373B635848D4D13A"
              }
            },
            "signature": {
              "type": "tendermint/SignatureEd25519",
              "value": "wjy96lgC5lLWWpdmF8+gMPP6JU9IrzwUHvse+gSbIe117M2KnxlXT5DOf+4VjjT3fGQXUe7Rbx8eDIiVN6NgAQ=="
            }
          },
          {
            "validator_address": "69EDADFA4A803E9DBF548C900D4A465E7D154262",
            "validator_index": "41",
            "height": "30156",
            "round": "1",
            "timestamp": "2018-08-01T08:04:39.001577625Z",
            "type": 2,
            "block_id": {
              "hash": "9AD133523D46D9A1F2F9D86681EA1531DF596638",
              "parts": {
                "total": "1",
                "hash": "44086EBAA36A7459408A7D90373B635848D4D13A"
              }
            },
            "signature": {
              "type": "tendermint/SignatureEd25519",
              "value": "MIU26eYddDr33MknMQYoUJNaTpbb3g4IR8fF3El/xUJeO3xbNZ9rAG7WZBqto6xHi+4VKejmfUEr+2eGiWVHAA=="
            }
          },
          {
            "validator_address": "6D3AD380E398D8592B03AA124BAFED5F125DF863",
            "validator_index": "42",
            "height": "30156",
            "round": "1",
            "timestamp": "2018-08-01T08:03:36.678356974Z",
            "type": 2,
            "block_id": {
              "hash": "9AD133523D46D9A1F2F9D86681EA1531DF596638",
              "parts": {
                "total": "1",
                "hash": "44086EBAA36A7459408A7D90373B635848D4D13A"
              }
            },
            "signature": {
              "type": "tendermint/SignatureEd25519",
              "value": "XH66HFnnnZO/DhNp6EgJtQkjPEZIxo5yNn8/fjCP2fx/We408+wSmCA/9nlCNqAweMH/qY6jP9mZbs0fdzvlBw=="
            }
          },
          {
            "validator_address": "6F6C93B8BF3495063FEC9B5C771158607F4AE9D6",
            "validator_index": "43",
            "height": "30156",
            "round": "1",
            "timestamp": "2018-08-01T08:04:38.995261635Z",
            "type": 2,
            "block_id": {
              "hash": "9AD133523D46D9A1F2F9D86681EA1531DF596638",
              "parts": {
                "total": "1",
                "hash": "44086EBAA36A7459408A7D90373B635848D4D13A"
              }
            },
            "signature": {
              "type": "tendermint/SignatureEd25519",
              "value": "rCbjLMM6nilDwGtCGfNX9J7BJtXugaTFNHVklZ4IThF+5ILIe1OwPumysDq70IHGhe/u0EwGRMikuKxTAZyRCg=="
            }
          },
          {
            "validator_address": "732CEEF54C374DDC6ADECBFD707AEFD07FEDC143",
            "validator_index": "44",
            "height": "30156",
            "round": "1",
            "timestamp": "2018-08-01T08:04:38.997376172Z",
            "type": 2,
            "block_id": {
              "hash": "9AD133523D46D9A1F2F9D86681EA1531DF596638",
              "parts": {
                "total": "1",
                "hash": "44086EBAA36A7459408A7D90373B635848D4D13A"
              }
            },
            "signature": {
              "type": "tendermint/SignatureEd25519",
              "value": "1prGmFC/BM9JzzHZIj0g3Cq7+/JVhQw/tDhG3hox64kSt9wbVd4cKxHYa9/6fU8WT+byR4ekBWSzgAKEPVx5AQ=="
            }
          },
          {
            "validator_address": "7393D691BFAE9661918C09932D4D9060AB40939B",
            "validator_index": "45",
            "height": "30156",
            "round": "1",
            "timestamp": "2018-08-01T08:04:39.022015991Z",
            "type": 2,
            "block_id": {
              "hash": "9AD133523D46D9A1F2F9D86681EA1531DF596638",
              "parts": {
                "total": "1",
                "hash": "44086EBAA36A7459408A7D90373B635848D4D13A"
              }
            },
            "signature": {
              "type": "tendermint/SignatureEd25519",
              "value": "FKfMwhbG66ULZnklJQFa8MNxPp/VpAMaxdPJQH5LEybxqTGqhd5r5iHvAEFxEtlYngd0xpuXUNb5+I8IBkIJCg=="
            }
          },
          {
            "validator_address": "751E43437224E8BB6D1569B3E2B2616B6E7F4397",
            "validator_index": "46",
            "height": "30156",
            "round": "1",
            "timestamp": "2018-08-01T08:04:38.878665386Z",
            "type": 2,
            "block_id": {
              "hash": "9AD133523D46D9A1F2F9D86681EA1531DF596638",
              "parts": {
                "total": "1",
                "hash": "44086EBAA36A7459408A7D90373B635848D4D13A"
              }
            },
            "signature": {
              "type": "tendermint/SignatureEd25519",
              "value": "E96mhyafUR8GiAB5roFjyXbPnP1j6NcY/KSdL/10l0KeWhzif/eeR8I4VjlFBYH6FCxFbUZk6v94gKHMchr5AQ=="
            }
          },
          {
            "validator_address": "7EB7593F519F1180C7E872D0494611464EDF03AE",
            "validator_index": "47",
            "height": "30156",
            "round": "1",
            "timestamp": "2018-08-01T08:04:39.042692337Z",
            "type": 2,
            "block_id": {
              "hash": "9AD133523D46D9A1F2F9D86681EA1531DF596638",
              "parts": {
                "total": "1",
                "hash": "44086EBAA36A7459408A7D90373B635848D4D13A"
              }
            },
            "signature": {
              "type": "tendermint/SignatureEd25519",
              "value": "NvpGrHYya4rkFXfuYFrNioYq/J2CRJwh/zIcpLvRaLVN3RXVSlZqSR+sq04ua/mvqBjANfNwWd/Jk/Njq/rlCg=="
            }
          },
          {
            "validator_address": "807CF675BA8479FC4FEC1047215DF07970040F1F",
            "validator_index": "48",
            "height": "30156",
            "round": "1",
            "timestamp": "2018-08-01T08:04:39.174127386Z",
            "type": 2,
            "block_id": {
              "hash": "9AD133523D46D9A1F2F9D86681EA1531DF596638",
              "parts": {
                "total": "1",
                "hash": "44086EBAA36A7459408A7D90373B635848D4D13A"
              }
            },
            "signature": {
              "type": "tendermint/SignatureEd25519",
              "value": "mamsTb8nz6OgtzEaBMPiLs0+6YVV6RYz/ellsgZL3vYm2e9oCZx5B16AYe9/hubwSwhamUMYrC87Al4XBoUFBw=="
            }
          },
          {
            "validator_address": "83AB321E012C57746689FED3A6064DF331F81007",
            "validator_index": "49",
            "height": "30156",
            "round": "1",
            "timestamp": "2018-08-01T08:04:38.905674654Z",
            "type": 2,
            "block_id": {
              "hash": "9AD133523D46D9A1F2F9D86681EA1531DF596638",
              "parts": {
                "total": "1",
                "hash": "44086EBAA36A7459408A7D90373B635848D4D13A"
              }
            },
            "signature": {
              "type": "tendermint/SignatureEd25519",
              "value": "La36R6p3xsSpduZcLaEAHTm4d6F9FcNP5qk2FAfQ/U2zZi5dym/j+ztJ4sEE1KmNjHl5b1LvKsJOSD22HX6dBg=="
            }
          },
          {
            "validator_address": "83BB1B88D3DBB20AD845FECA07749EBD87D3754D",
            "validator_index": "50",
            "height": "30156",
            "round": "1",
            "timestamp": "2018-08-01T08:04:39.003338003Z",
            "type": 2,
            "block_id": {
              "hash": "9AD133523D46D9A1F2F9D86681EA1531DF596638",
              "parts": {
                "total": "1",
                "hash": "44086EBAA36A7459408A7D90373B635848D4D13A"
              }
            },
            "signature": {
              "type": "tendermint/SignatureEd25519",
              "value": "JmWjyvsdnEI55yFosV00e/cuxm7lJcrN6t9dFkBlVIG2cI4IXbwQQDsuviqRp92M7V2LI0b2kmtgE6m0PZ/oCQ=="
            }
          },
          {
            "validator_address": "8F06FE1FD042683C426137FBC4BBAA4288924217",
            "validator_index": "51",
            "height": "30156",
            "round": "1",
            "timestamp": "2018-08-01T08:04:38.936291451Z",
            "type": 2,
            "block_id": {
              "hash": "9AD133523D46D9A1F2F9D86681EA1531DF596638",
              "parts": {
                "total": "1",
                "hash": "44086EBAA36A7459408A7D90373B635848D4D13A"
              }
            },
            "signature": {
              "type": "tendermint/SignatureEd25519",
              "value": "TtdSJTWnG67LEciiU+k2VitJj5qApOYLYNjPetvVEr0pgjBeny2BHMrmFfzcGZMTt/Fln5a042wbKP7MrhDNAw=="
            }
          },
          {
            "validator_address": "8F45617BF45B10A3F8283DEBDB35E38C7CA43237",
            "validator_index": "52",
            "height": "30156",
            "round": "1",
            "timestamp": "2018-08-01T08:04:38.933874218Z",
            "type": 2,
            "block_id": {
              "hash": "9AD133523D46D9A1F2F9D86681EA1531DF596638",
              "parts": {
                "total": "1",
                "hash": "44086EBAA36A7459408A7D90373B635848D4D13A"
              }
            },
            "signature": {
              "type": "tendermint/SignatureEd25519",
              "value": "oN//jfbbO/NMIsVqdMIg3B3XmbWpqZqpsK2MoBlow/tuZLOAgyDqyKNj780IrzHsec5NG343kCRIaOQxVbg0BA=="
            }
          },
          {
            "validator_address": "95980831E186F2540F6E9FB6C8E74DE2401405AC",
            "validator_index": "53",
            "height": "30156",
            "round": "1",
            "timestamp": "2018-08-01T08:04:38.893629431Z",
            "type": 2,
            "block_id": {
              "hash": "9AD133523D46D9A1F2F9D86681EA1531DF596638",
              "parts": {
                "total": "1",
                "hash": "44086EBAA36A7459408A7D90373B635848D4D13A"
              }
            },
            "signature": {
              "type": "tendermint/SignatureEd25519",
              "value": "38IlaMp85hFZBaRVlxvepIt2tnSm4iMOFyIX1H6h9xxsRJj1QPOcVfz64cUdMngj8YV+UIizsDWaAsA4IvJTCg=="
            }
          },
          {
            "validator_address": "95FAFBC1E0579C83D290A063020CE87C5334BD9B",
            "validator_index": "54",
            "height": "30156",
            "round": "1",
            "timestamp": "2018-08-01T08:04:38.93693938Z",
            "type": 2,
            "block_id": {
              "hash": "9AD133523D46D9A1F2F9D86681EA1531DF596638",
              "parts": {
                "total": "1",
                "hash": "44086EBAA36A7459408A7D90373B635848D4D13A"
              }
            },
            "signature": {
              "type": "tendermint/SignatureEd25519",
              "value": "OMM6abMPsoC29kiU6fBRzNJaUfc0ZFPJHj2rl6+jO61+zu2Fk3vhJr5yiSoYl2UN3dy2/a5OOjtWMqvOxv0fCQ=="
            }
          },
          {
            "validator_address": "96BDE45EC52606CF5CB59853097871AD60680549",
            "validator_index": "55",
            "height": "30156",
            "round": "1",
            "timestamp": "2018-08-01T08:04:38.916224338Z",
            "type": 2,
            "block_id": {
              "hash": "9AD133523D46D9A1F2F9D86681EA1531DF596638",
              "parts": {
                "total": "1",
                "hash": "44086EBAA36A7459408A7D90373B635848D4D13A"
              }
            },
            "signature": {
              "type": "tendermint/SignatureEd25519",
              "value": "+h46dlI65QJs3mR9SYJZwhvQah/KXVG+/QZnJjUFrZLezPU2c0osfk8JAtQU6PepbRDGLCmSruOlXKVkGP+7Dg=="
            }
          },
          {
            "validator_address": "970CD321881185BF83DB2923C321B0E75FDBB2B8",
            "validator_index": "56",
            "height": "30156",
            "round": "1",
            "timestamp": "2018-08-01T08:04:38.938117748Z",
            "type": 2,
            "block_id": {
              "hash": "9AD133523D46D9A1F2F9D86681EA1531DF596638",
              "parts": {
                "total": "1",
                "hash": "44086EBAA36A7459408A7D90373B635848D4D13A"
              }
            },
            "signature": {
              "type": "tendermint/SignatureEd25519",
              "value": "DntAIYGeXrFBQNr/yy8STAJtRc2t4yck2LYNYhX95ZAEdQu7Zn15QSEANlT/QJe68DKbT+XYMuNF5p5tOhUKDA=="
            }
          },
          {
            "validator_address": "97DBB3D4B3D6C29287244864448F651DD5B07390",
            "validator_index": "57",
            "height": "30156",
            "round": "1",
            "timestamp": "2018-08-01T08:04:39.016059887Z",
            "type": 2,
            "block_id": {
              "hash": "9AD133523D46D9A1F2F9D86681EA1531DF596638",
              "parts": {
                "total": "1",
                "hash": "44086EBAA36A7459408A7D90373B635848D4D13A"
              }
            },
            "signature": {
              "type": "tendermint/SignatureEd25519",
              "value": "BgMnWSHDbJOrHgs/5YE4mOWNZyGWVJ+lKdaj/JEl9Yu+1Z6TrIpGEU5Q/38ModLvxNPSYxPwBq4uhCBVYvjQBg=="
            }
          },
          {
            "validator_address": "9C29C9B76D27586E4D9AD2AED0E943162645E55C",
            "validator_index": "58",
            "height": "30156",
            "round": "1",
            "timestamp": "2018-08-01T08:04:38.824984069Z",
            "type": 2,
            "block_id": {
              "hash": "9AD133523D46D9A1F2F9D86681EA1531DF596638",
              "parts": {
                "total": "1",
                "hash": "44086EBAA36A7459408A7D90373B635848D4D13A"
              }
            },
            "signature": {
              "type": "tendermint/SignatureEd25519",
              "value": "R6ZsVwSfxTQruhHpxM9Dyjzpyrvuewyw6+ybYPeRiNHDv1ipvjpC69SoBZftaxmLt0p2E75cQPjgiyXP84ILDA=="
            }
          },
          {
            "validator_address": "9D93AD02FE1BD7E76B9E58D7EB461088EAD011E5",
            "validator_index": "59",
            "height": "30156",
            "round": "1",
            "timestamp": "2018-08-01T08:04:38.874416703Z",
            "type": 2,
            "block_id": {
              "hash": "9AD133523D46D9A1F2F9D86681EA1531DF596638",
              "parts": {
                "total": "1",
                "hash": "44086EBAA36A7459408A7D90373B635848D4D13A"
              }
            },
            "signature": {
              "type": "tendermint/SignatureEd25519",
              "value": "644/sqEIDya00yDYxKOgCU1LZrdlBg2t5yOeRR550LLrlG7jiIjTqX/1WANJFQEq4vNMu3UEV8dGZ7eBkVhPCw=="
            }
          },
          {
            "validator_address": "A0A6466F4ABEA09C3B55E3709AFDE217A103209F",
            "validator_index": "60",
            "height": "30156",
            "round": "1",
            "timestamp": "2018-08-01T08:04:38.858311687Z",
            "type": 2,
            "block_id": {
              "hash": "9AD133523D46D9A1F2F9D86681EA1531DF596638",
              "parts": {
                "total": "1",
                "hash": "44086EBAA36A7459408A7D90373B635848D4D13A"
              }
            },
            "signature": {
              "type": "tendermint/SignatureEd25519",
              "value": "8CBFY4iQR478gfZzhtiILjqF5q2WFXbz2ovqlZthnr6EN+FceGDV7hIQDnESEi55Me4G1RA5QH4GdFo43JyfDQ=="
            }
          },
          {
            "validator_address": "A5868971300F155020634D7BB49C7634F7AACCD3",
            "validator_index": "61",
            "height": "30156",
            "round": "1",
            "timestamp": "2018-08-01T08:04:38.890662699Z",
            "type": 2,
            "block_id": {
              "hash": "9AD133523D46D9A1F2F9D86681EA1531DF596638",
              "parts": {
                "total": "1",
                "hash": "44086EBAA36A7459408A7D90373B635848D4D13A"
              }
            },
            "signature": {
              "type": "tendermint/SignatureEd25519",
              "value": "IZWaCTaGc7mFS9X1YsMWGZNcMCpjkpeaaDXGjdBW+paejDYZEul2dcKXomWkJcT8Kux57hT5mAtjbmdytGrlCg=="
            }
          },
          {
            "validator_address": "A6B3A5B5D982CFD7B5FDFA15CF5A720E7AE25E7F",
            "validator_index": "62",
            "height": "30156",
            "round": "1",
            "timestamp": "2018-08-01T08:04:39.002660075Z",
            "type": 2,
            "block_id": {
              "hash": "9AD133523D46D9A1F2F9D86681EA1531DF596638",
              "parts": {
                "total": "1",
                "hash": "44086EBAA36A7459408A7D90373B635848D4D13A"
              }
            },
            "signature": {
              "type": "tendermint/SignatureEd25519",
              "value": "fJ3hhlxPYfFCxlIfTi6kq97TxldAgSPbS7lIx7X0hM52IDBhfwgXeLj0V3zREeA+e6dR5/JKvbZLSFtdijmQCQ=="
            }
          },
          {
            "validator_address": "AC96444A9083890B7C7B430DB17BF1D3EA5EED04",
            "validator_index": "63",
            "height": "30156",
            "round": "1",
            "timestamp": "2018-08-01T08:04:38.962072058Z",
            "type": 2,
            "block_id": {
              "hash": "9AD133523D46D9A1F2F9D86681EA1531DF596638",
              "parts": {
                "total": "1",
                "hash": "44086EBAA36A7459408A7D90373B635848D4D13A"
              }
            },
            "signature": {
              "type": "tendermint/SignatureEd25519",
              "value": "1AYl887b940mY3Huy5KLc4cEnpMJBzITF6lLYPSPviiMKTP4FpXJvkl0UFjOk0k2LPNIN01TPvM8x+l+s/7qDw=="
            }
          },
          {
            "validator_address": "ACB97FDA2D940AF0709B73537C458EB988AD2893",
            "validator_index": "64",
            "height": "30156",
            "round": "1",
            "timestamp": "2018-08-01T08:04:38.874650317Z",
            "type": 2,
            "block_id": {
              "hash": "9AD133523D46D9A1F2F9D86681EA1531DF596638",
              "parts": {
                "total": "1",
                "hash": "44086EBAA36A7459408A7D90373B635848D4D13A"
              }
            },
            "signature": {
              "type": "tendermint/SignatureEd25519",
              "value": "/aASKWB51nQqN6OEM9Yq7mVpDE1qqV4PNYZMNSFoI3TZKrDjJn5772oHcv6OWGR3bnUkRRpt+gtvAeSXmJuaAQ=="
            }
          },
          {
            "validator_address": "B197425B3210375F211661DE02EF2AE36580EB0F",
            "validator_index": "65",
            "height": "30156",
            "round": "1",
            "timestamp": "2018-08-01T08:04:38.961200352Z",
            "type": 2,
            "block_id": {
              "hash": "9AD133523D46D9A1F2F9D86681EA1531DF596638",
              "parts": {
                "total": "1",
                "hash": "44086EBAA36A7459408A7D90373B635848D4D13A"
              }
            },
            "signature": {
              "type": "tendermint/SignatureEd25519",
              "value": "ipZbhFkkjFUdNEXLr07IACTNFXGJ32qh5cmUXbJiXkr9scQrvR0o3ecB5rRjAhoM7XsqocMO8iXesNew7bMeDg=="
            }
          },
          {
            "validator_address": "B45E54D2D1CB5A4CCD1D49016608C18E7C56B270",
            "validator_index": "66",
            "height": "30156",
            "round": "1",
            "timestamp": "2018-08-01T08:04:38.955478312Z",
            "type": 2,
            "block_id": {
              "hash": "9AD133523D46D9A1F2F9D86681EA1531DF596638",
              "parts": {
                "total": "1",
                "hash": "44086EBAA36A7459408A7D90373B635848D4D13A"
              }
            },
            "signature": {
              "type": "tendermint/SignatureEd25519",
              "value": "k0uRK+WPZjZMpNW9BFFpEsmPHKc32q/XPLxnYQKB7DbXj8NLQIn5Nbm3F574w8Q9yzVUmMG7HdGakvE6SiwdAQ=="
            }
          },
          {
            "validator_address": "BB1276BE89834835428664408917649FEEF5D90C",
            "validator_index": "67",
            "height": "30156",
            "round": "1",
            "timestamp": "2018-08-01T08:04:38.969298157Z",
            "type": 2,
            "block_id": {
              "hash": "9AD133523D46D9A1F2F9D86681EA1531DF596638",
              "parts": {
                "total": "1",
                "hash": "44086EBAA36A7459408A7D90373B635848D4D13A"
              }
            },
            "signature": {
              "type": "tendermint/SignatureEd25519",
              "value": "YbiS+bEpsj5kQd9pCEj2kFGyF68vaBJ8k60xu0+4js3GgiyXZFs2l6H3s+cKlzdUp6NEk76yWckWUryE6y1PCw=="
            }
          },
          {
            "validator_address": "BC36FEDD6EF6071118A3E51859DF3831A2EC4782",
            "validator_index": "68",
            "height": "30156",
            "round": "1",
            "timestamp": "2018-08-01T08:04:38.913797876Z",
            "type": 2,
            "block_id": {
              "hash": "9AD133523D46D9A1F2F9D86681EA1531DF596638",
              "parts": {
                "total": "1",
                "hash": "44086EBAA36A7459408A7D90373B635848D4D13A"
              }
            },
            "signature": {
              "type": "tendermint/SignatureEd25519",
              "value": "KRkvN3ZH+tLpdEuoOgW/fr6+qAWhyXn56xX2Wf5DUxFi76TdSZ80ndWYE1FfGk40MbpYRhwm/9Rw3sztOQHpAw=="
            }
          },
          {
            "validator_address": "BD9D0DA513BF099DB4BB6E725A4E19832789882F",
            "validator_index": "69",
            "height": "30156",
            "round": "1",
            "timestamp": "2018-08-01T08:04:38.904187235Z",
            "type": 2,
            "block_id": {
              "hash": "9AD133523D46D9A1F2F9D86681EA1531DF596638",
              "parts": {
                "total": "1",
                "hash": "44086EBAA36A7459408A7D90373B635848D4D13A"
              }
            },
            "signature": {
              "type": "tendermint/SignatureEd25519",
              "value": "IHDvklwfW+biwsLemy4PllgZhpUc/aOlGdRZeU8Ga+8/swJhpqGcGwX/AqX1ga3qQcziMX7zb4IKH+UPKOO1Ag=="
            }
          },
          {
            "validator_address": "C1134A2FF8F7338E7CDB3FE57DDD2A655DEB1E22",
            "validator_index": "70",
            "height": "30156",
            "round": "1",
            "timestamp": "2018-08-01T08:04:38.643243278Z",
            "type": 2,
            "block_id": {
              "hash": "9AD133523D46D9A1F2F9D86681EA1531DF596638",
              "parts": {
                "total": "1",
                "hash": "44086EBAA36A7459408A7D90373B635848D4D13A"
              }
            },
            "signature": {
              "type": "tendermint/SignatureEd25519",
              "value": "/izOvRxRF9MddZGRfFhIVLgtz4MztMubp+G+Y2ngoUXR8SoRiR17gRJsP1s/hNNZ87t0pA92Vz5k1WNbThSvBg=="
            }
          },
          {
            "validator_address": "C39A8A2B85198DCB8F23AD1F6C198E2BA7AB5D60",
            "validator_index": "71",
            "height": "30156",
            "round": "1",
            "timestamp": "2018-08-01T08:04:38.87908041Z",
            "type": 2,
            "block_id": {
              "hash": "9AD133523D46D9A1F2F9D86681EA1531DF596638",
              "parts": {
                "total": "1",
                "hash": "44086EBAA36A7459408A7D90373B635848D4D13A"
              }
            },
            "signature": {
              "type": "tendermint/SignatureEd25519",
              "value": "4kWG7OOEBgITeRYgtoGRNIEQx8v94A0NvdIaA2C76zyZzp321oG2WQ7HOSjWp/7pKPrVc+Asfscv6jRViuO3CQ=="
            }
          },
          {
            "validator_address": "C4335190C3B5BD4BA5568BC0F99C34162D940D08",
            "validator_index": "72",
            "height": "30156",
            "round": "1",
            "timestamp": "2018-08-01T08:04:38.984829855Z",
            "type": 2,
            "block_id": {
              "hash": "9AD133523D46D9A1F2F9D86681EA1531DF596638",
              "parts": {
                "total": "1",
                "hash": "44086EBAA36A7459408A7D90373B635848D4D13A"
              }
            },
            "signature": {
              "type": "tendermint/SignatureEd25519",
              "value": "etb38HYlSFAoZrxvhVqnMCZyTP5k+LPQ/YOZBSDfKM8mfjFXAfaeOH+Q4LeHtY8aEmHu3AmBkdt9PmsXWdWvBw=="
            }
          },
          {
            "validator_address": "C561CFA081677046376396922E7576E5F7B316AD",
            "validator_index": "73",
            "height": "30156",
            "round": "1",
            "timestamp": "2018-08-01T08:04:39.078175323Z",
            "type": 2,
            "block_id": {
              "hash": "9AD133523D46D9A1F2F9D86681EA1531DF596638",
              "parts": {
                "total": "1",
                "hash": "44086EBAA36A7459408A7D90373B635848D4D13A"
              }
            },
            "signature": {
              "type": "tendermint/SignatureEd25519",
              "value": "+oG4xWLItPHAyxy/tMtulgpPjFsefMBvQgnsXRhx8FhGm3MNnXcEK6DCTCVJAvtn+AV+t/0KSoAk9SqN93F+Dg=="
            }
          },
          {
            "validator_address": "CE589EA77B056D268D30D1DC1D68A70E0F885E95",
            "validator_index": "74",
            "height": "30156",
            "round": "1",
            "timestamp": "2018-08-01T08:04:38.950380744Z",
            "type": 2,
            "block_id": {
              "hash": "9AD133523D46D9A1F2F9D86681EA1531DF596638",
              "parts": {
                "total": "1",
                "hash": "44086EBAA36A7459408A7D90373B635848D4D13A"
              }
            },
            "signature": {
              "type": "tendermint/SignatureEd25519",
              "value": "uTawela9IWzYZR5E+77RBoneq+dmZn/dHKmtQAeSnfzW937Izr6kCiwZUUtArsWA75DHt4PLcoBw4dkYSVD/AQ=="
            }
          },
          {
            "validator_address": "CEB97DB5CB18270247ABDE6CF2F84F9AEE8A2904",
            "validator_index": "75",
            "height": "30156",
            "round": "1",
            "timestamp": "2018-08-01T08:04:39.434826733Z",
            "type": 2,
            "block_id": {
              "hash": "9AD133523D46D9A1F2F9D86681EA1531DF596638",
              "parts": {
                "total": "1",
                "hash": "44086EBAA36A7459408A7D90373B635848D4D13A"
              }
            },
            "signature": {
              "type": "tendermint/SignatureEd25519",
              "value": "BW6Xcs9y44J5BOSyE9JVRp+JzIt2F7SHqIfZUJPNB81c19yVW4rxqmYaetVZ9FJKmps1HsFA9FaMm11DIiEHBQ=="
            }
          },
          {
            "validator_address": "CF205769734F5758CC39F907EFB73D6BAF915FB1",
            "validator_index": "76",
            "height": "30156",
            "round": "1",
            "timestamp": "2018-08-01T08:04:39.016644681Z",
            "type": 2,
            "block_id": {
              "hash": "9AD133523D46D9A1F2F9D86681EA1531DF596638",
              "parts": {
                "total": "1",
                "hash": "44086EBAA36A7459408A7D90373B635848D4D13A"
              }
            },
            "signature": {
              "type": "tendermint/SignatureEd25519",
              "value": "cydKYNUHoahCcaXevLOebncISUGSlWvyjaYpgCH71dY7V8GoLc7+W3uuEfIuVBQCfgZVvn9+MwJ7246MZ+wYAw=="
            }
          },
          {
            "validator_address": "D2134B826A1E25A955905CB79A4D8731CAFA0CCE",
            "validator_index": "77",
            "height": "30156",
            "round": "1",
            "timestamp": "2018-08-01T08:04:39.029312816Z",
            "type": 2,
            "block_id": {
              "hash": "9AD133523D46D9A1F2F9D86681EA1531DF596638",
              "parts": {
                "total": "1",
                "hash": "44086EBAA36A7459408A7D90373B635848D4D13A"
              }
            },
            "signature": {
              "type": "tendermint/SignatureEd25519",
              "value": "IBQVcSg0OmvHl9bbLX/ukvTXqltfb3IWocfVJd0UQ5Y+920H8FwiVdRoTd6ZRbLH2xXfRMT0A4vIwPIiFYXyCg=="
            }
          },
          {
            "validator_address": "D6285C3422C8886445D53757CBE12D2B91B5A9D0",
            "validator_index": "78",
            "height": "30156",
            "round": "1",
            "timestamp": "2018-08-01T08:04:21.740906002Z",
            "type": 2,
            "block_id": {
              "hash": "9AD133523D46D9A1F2F9D86681EA1531DF596638",
              "parts": {
                "total": "1",
                "hash": "44086EBAA36A7459408A7D90373B635848D4D13A"
              }
            },
            "signature": {
              "type": "tendermint/SignatureEd25519",
              "value": "LV0JkKcxOVkhT/beB2hdALsmgdYCeEA5kvDt8FW/rZ5SxAwuvnKVdrcemW3lWoBEz538HdJWT2MR6wqbPGTWAw=="
            }
          },
          {
            "validator_address": "D77FB84A729972CD3E757C9BEB61561855832B92",
            "validator_index": "79",
            "height": "30156",
            "round": "1",
            "timestamp": "2018-08-01T08:04:38.954997071Z",
            "type": 2,
            "block_id": {
              "hash": "9AD133523D46D9A1F2F9D86681EA1531DF596638",
              "parts": {
                "total": "1",
                "hash": "44086EBAA36A7459408A7D90373B635848D4D13A"
              }
            },
            "signature": {
              "type": "tendermint/SignatureEd25519",
              "value": "gMAX2ncrdQKf1NZCPkZKxfDyjYHDlHjb3SBVb+/IzZmDFJ3Iavf5uMlcjd1Mq65IVmP1HrC6BpoM0rQoL1xLAg=="
            }
          },
          {
            "validator_address": "DB7E6732471D3EA5C90C17A9974D9F88AB45F2FB",
            "validator_index": "80",
            "height": "30156",
            "round": "1",
            "timestamp": "2018-08-01T08:04:38.915684373Z",
            "type": 2,
            "block_id": {
              "hash": "9AD133523D46D9A1F2F9D86681EA1531DF596638",
              "parts": {
                "total": "1",
                "hash": "44086EBAA36A7459408A7D90373B635848D4D13A"
              }
            },
            "signature": {
              "type": "tendermint/SignatureEd25519",
              "value": "r1dI7jEJ+3S8y9NtedfJZ/vjMcZnaC4EsuCL7/R6FlV8rejREGX+BjExMl7s4WXLea1Zu5Ke8iy+0vSVXrPqBA=="
            }
          },
          {
            "validator_address": "DF54B862410BCD9B5C516FBB6C56BDC826ED6FA7",
            "validator_index": "81",
            "height": "30156",
            "round": "1",
            "timestamp": "2018-08-01T08:04:39.047265178Z",
            "type": 2,
            "block_id": {
              "hash": "9AD133523D46D9A1F2F9D86681EA1531DF596638",
              "parts": {
                "total": "1",
                "hash": "44086EBAA36A7459408A7D90373B635848D4D13A"
              }
            },
            "signature": {
              "type": "tendermint/SignatureEd25519",
              "value": "cj+JNdMfi0jxbz5tyhu8hpDZaQC3vMw8EJ0coY1CWWxC0q50r9Se33zDhCT2nhOjpXWNBxIJ/KX19GZw0E1yAw=="
            }
          },
          {
            "validator_address": "DFAF0C8B1B78D6D552B0189DE3ACA351439A1319",
            "validator_index": "82",
            "height": "30156",
            "round": "1",
            "timestamp": "2018-08-01T08:04:38.855154508Z",
            "type": 2,
            "block_id": {
              "hash": "9AD133523D46D9A1F2F9D86681EA1531DF596638",
              "parts": {
                "total": "1",
                "hash": "44086EBAA36A7459408A7D90373B635848D4D13A"
              }
            },
            "signature": {
              "type": "tendermint/SignatureEd25519",
              "value": "tOZ38gj+VUoBAb0K4sywAUrI/N+jpwxrbGoZZSQXT9g4FsmkJ4NYLFHRg1bb5vJGoCKd7ye5atnqHACM0wCuDg=="
            }
          },
          {
            "validator_address": "E1DBC77881161A5A3A8536A57536EAE546A75D69",
            "validator_index": "83",
            "height": "30156",
            "round": "1",
            "timestamp": "2018-08-01T08:04:38.853707333Z",
            "type": 2,
            "block_id": {
              "hash": "9AD133523D46D9A1F2F9D86681EA1531DF596638",
              "parts": {
                "total": "1",
                "hash": "44086EBAA36A7459408A7D90373B635848D4D13A"
              }
            },
            "signature": {
              "type": "tendermint/SignatureEd25519",
              "value": "n5WiFSbf2spolblUhRn+p39hOPxgUr2AAhlokuy0QWpK3TqacoFo1c94EtopgzEBc/m5l/eSgfoMQ+bgx/txCA=="
            }
          },
          {
            "validator_address": "E300E9D484374C1D3E97C1D93CAC3B160A056298",
            "validator_index": "84",
            "height": "30156",
            "round": "1",
            "timestamp": "2018-08-01T08:04:39.149754131Z",
            "type": 2,
            "block_id": {
              "hash": "9AD133523D46D9A1F2F9D86681EA1531DF596638",
              "parts": {
                "total": "1",
                "hash": "44086EBAA36A7459408A7D90373B635848D4D13A"
              }
            },
            "signature": {
              "type": "tendermint/SignatureEd25519",
              "value": "VSJyy9JASFT5JQEEXqP1Ljcwy8tKFIWeMgLdV69IZj5NMAkXzqFY7Muj7dBTY6mCfborHRXXOJ1bynOA7WMIAA=="
            }
          },
          {
            "validator_address": "E39B5778E0D4297A46F45CF6940B0A163A430FF8",
            "validator_index": "85",
            "height": "30156",
            "round": "1",
            "timestamp": "2018-08-01T08:04:38.931809343Z",
            "type": 2,
            "block_id": {
              "hash": "9AD133523D46D9A1F2F9D86681EA1531DF596638",
              "parts": {
                "total": "1",
                "hash": "44086EBAA36A7459408A7D90373B635848D4D13A"
              }
            },
            "signature": {
              "type": "tendermint/SignatureEd25519",
              "value": "bo8ZCT3+dZ8YwrGibyKP/8UCQW3LyaWpNsdtNNHIK6gyCFl1dLGLIdQCeL1GgQbrZOHUzYfTyMU3BxwwohtbDw=="
            }
          },
          {
            "validator_address": "E3B19738F7132F950668504D326C7660F159D170",
            "validator_index": "86",
            "height": "30156",
            "round": "1",
            "timestamp": "2018-08-01T08:04:38.868173913Z",
            "type": 2,
            "block_id": {
              "hash": "9AD133523D46D9A1F2F9D86681EA1531DF596638",
              "parts": {
                "total": "1",
                "hash": "44086EBAA36A7459408A7D90373B635848D4D13A"
              }
            },
            "signature": {
              "type": "tendermint/SignatureEd25519",
              "value": "nxiMhg5TXIA4i6dj9ac0m2QlTGX10ChdJFqblO8icw9Ipr7IwBaDJ+4hJa2fn/ySre0HlFvCQxECzB4qiPDvBw=="
            }
          },
          {
            "validator_address": "E42F8AEABB685219F7027F54D2B0DBC7846F633A",
            "validator_index": "87",
            "height": "30156",
            "round": "1",
            "timestamp": "2018-08-01T08:04:37.93101546Z",
            "type": 2,
            "block_id": {
              "hash": "9AD133523D46D9A1F2F9D86681EA1531DF596638",
              "parts": {
                "total": "1",
                "hash": "44086EBAA36A7459408A7D90373B635848D4D13A"
              }
            },
            "signature": {
              "type": "tendermint/SignatureEd25519",
              "value": "44trqCJwPWCQ4U7lCc+3dhpBXwLBirhxCA68c3tREds/ZoVVuGCAwujVmSQWYVpXA/fmKhV2KNQvPcVY0pz4Dw=="
            }
          },
          {
            "validator_address": "E4E6C2E81269DFFA196C17F98240E491479A6008",
            "validator_index": "88",
            "height": "30156",
            "round": "1",
            "timestamp": "2018-08-01T08:04:38.967678326Z",
            "type": 2,
            "block_id": {
              "hash": "9AD133523D46D9A1F2F9D86681EA1531DF596638",
              "parts": {
                "total": "1",
                "hash": "44086EBAA36A7459408A7D90373B635848D4D13A"
              }
            },
            "signature": {
              "type": "tendermint/SignatureEd25519",
              "value": "LbiN4JvWfiEtypB7gskzj8ZEiVa+n4NQnWc48nEin2XJE+9P0axXVEhGMNxJlro7Zf7x5JQUkUUbuNvfnFooAQ=="
            }
          },
          {
            "validator_address": "E4FEB2846F4F3B0ECDCBE9C9DCB2248248A5AF0F",
            "validator_index": "89",
            "height": "30156",
            "round": "1",
            "timestamp": "2018-08-01T08:04:39.118371717Z",
            "type": 2,
            "block_id": {
              "hash": "9AD133523D46D9A1F2F9D86681EA1531DF596638",
              "parts": {
                "total": "1",
                "hash": "44086EBAA36A7459408A7D90373B635848D4D13A"
              }
            },
            "signature": {
              "type": "tendermint/SignatureEd25519",
              "value": "J7Ah6sanGMGPaA7jeBkIxg5JT7LJ+p2NNJDozIrBEtRY+Y7wntQ4L+LNiRLzu2LA8zJOsoHqBNMaf1EaZJ0ICg=="
            }
          },
          {
            "validator_address": "E6A7079D584B163750BE0831227F6B685DEAF3C1",
            "validator_index": "90",
            "height": "30156",
            "round": "1",
            "timestamp": "2018-08-01T08:04:39.028133753Z",
            "type": 2,
            "block_id": {
              "hash": "9AD133523D46D9A1F2F9D86681EA1531DF596638",
              "parts": {
                "total": "1",
                "hash": "44086EBAA36A7459408A7D90373B635848D4D13A"
              }
            },
            "signature": {
              "type": "tendermint/SignatureEd25519",
              "value": "SaESrRMEJdXwarxU9P2UQ0vS9DlUB5kZVW6rNy7l2d3d/JQPRFgNMCT+rOROx20lgPW559rbL3MVWsjHRdsSAQ=="
            }
          },
          {
            "validator_address": "E7A30077D5D11867D3EAF99ED45BFDC1EB834509",
            "validator_index": "91",
            "height": "30156",
            "round": "1",
            "timestamp": "2018-08-01T08:04:38.892237926Z",
            "type": 2,
            "block_id": {
              "hash": "9AD133523D46D9A1F2F9D86681EA1531DF596638",
              "parts": {
                "total": "1",
                "hash": "44086EBAA36A7459408A7D90373B635848D4D13A"
              }
            },
            "signature": {
              "type": "tendermint/SignatureEd25519",
              "value": "ssoNbOTI4JWIWwOlEmS1YxQbISoK86WEUTKcMED2fiUWD8gO9FTMwJrHmG5r4wBVrxERGVlE5RZszgHjghJtBw=="
            }
          },
          {
            "validator_address": "EBC613967F66F4EC306852CDF58B4F151CF16738",
            "validator_index": "92",
            "height": "30156",
            "round": "1",
            "timestamp": "2018-08-01T08:04:38.935785883Z",
            "type": 2,
            "block_id": {
              "hash": "9AD133523D46D9A1F2F9D86681EA1531DF596638",
              "parts": {
                "total": "1",
                "hash": "44086EBAA36A7459408A7D90373B635848D4D13A"
              }
            },
            "signature": {
              "type": "tendermint/SignatureEd25519",
              "value": "L0xANRJ7cgDsNTKxiJWr1SAVoqVGCsUDwzZqnrDD6SBbKMB7Y6iAV3DUGotFGxj/seNeU6d+iklAILOLeyrgCw=="
            }
          },
          {
            "validator_address": "EC3401441726C40ECC7E51F744483B05BC6DE9BD",
            "validator_index": "93",
            "height": "30156",
            "round": "1",
            "timestamp": "2018-08-01T08:04:38.899202019Z",
            "type": 2,
            "block_id": {
              "hash": "9AD133523D46D9A1F2F9D86681EA1531DF596638",
              "parts": {
                "total": "1",
                "hash": "44086EBAA36A7459408A7D90373B635848D4D13A"
              }
            },
            "signature": {
              "type": "tendermint/SignatureEd25519",
              "value": "hh9SkrGOB/k7YHr+6oYVKwzAdyoa84ayOnntD9zQDXhp/bWXg/aVmRpxG+joTmhR5M+UpNcTdiyVDX8DjRWmCA=="
            }
          },
          {
            "validator_address": "EC95B111D032181E1EC3B5E8875C5BB8E4AE7140",
            "validator_index": "94",
            "height": "30156",
            "round": "1",
            "timestamp": "2018-08-01T08:04:38.80195198Z",
            "type": 2,
            "block_id": {
              "hash": "9AD133523D46D9A1F2F9D86681EA1531DF596638",
              "parts": {
                "total": "1",
                "hash": "44086EBAA36A7459408A7D90373B635848D4D13A"
              }
            },
            "signature": {
              "type": "tendermint/SignatureEd25519",
              "value": "lQPzRjs2WNeZDO7ogMDlhg206sASSoV+HC9wGakXF3JTQYjV+pfSgnQk8R7HBhZFB415N4yfrKMp9APiq5X4Ag=="
            }
          },
          {
            "validator_address": "F13C1805E8131C9B47E2A46818F57D8A2841E578",
            "validator_index": "95",
            "height": "30156",
            "round": "1",
            "timestamp": "2018-08-01T08:04:38.910586435Z",
            "type": 2,
            "block_id": {
              "hash": "9AD133523D46D9A1F2F9D86681EA1531DF596638",
              "parts": {
                "total": "1",
                "hash": "44086EBAA36A7459408A7D90373B635848D4D13A"
              }
            },
            "signature": {
              "type": "tendermint/SignatureEd25519",
              "value": "aI3l7kHquvvFn7ZwZ1CVr46wlyjpIQNLZj9mUlwNsxgv/9zkp+ZJhZ/BK3dSujIBnpkON6wS7yLD9npzEoEYCQ=="
            }
          },
          {
            "validator_address": "F23FF36BD5B90C33CE3A03ED72DBDCF5EC07D6AF",
            "validator_index": "96",
            "height": "30156",
            "round": "1",
            "timestamp": "2018-08-01T08:04:38.923003346Z",
            "type": 2,
            "block_id": {
              "hash": "9AD133523D46D9A1F2F9D86681EA1531DF596638",
              "parts": {
                "total": "1",
                "hash": "44086EBAA36A7459408A7D90373B635848D4D13A"
              }
            },
            "signature": {
              "type": "tendermint/SignatureEd25519",
              "value": "KfBx9i5C5J/N8A2KbfNMfZTrivW5XxG6jTzprVz43abPlRawArACxSDzSUHUG8LYAM9Ldc7oOb0M2aBZgE/CAA=="
            }
          },
          {
            "validator_address": "F4268597DE93E3E2CED38845010F8AA34E2A879E",
            "validator_index": "97",
            "height": "30156",
            "round": "1",
            "timestamp": "2018-08-01T08:04:38.913676556Z",
            "type": 2,
            "block_id": {
              "hash": "9AD133523D46D9A1F2F9D86681EA1531DF596638",
              "parts": {
                "total": "1",
                "hash": "44086EBAA36A7459408A7D90373B635848D4D13A"
              }
            },
            "signature": {
              "type": "tendermint/SignatureEd25519",
              "value": "uAg9TXnTPWS29eMz7+LZu2uxX+jks2GZsyz9o69DeZDM+QzYAG8QL+sYxbODiCfzroc0dPxlXpLhebd24nKBDg=="
            }
          },
          {
            "validator_address": "F4DEB417999B04BE2EFF9FFE03FA373D86011CC0",
            "validator_index": "98",
            "height": "30156",
            "round": "1",
            "timestamp": "2018-08-01T08:04:38.93343408Z",
            "type": 2,
            "block_id": {
              "hash": "9AD133523D46D9A1F2F9D86681EA1531DF596638",
              "parts": {
                "total": "1",
                "hash": "44086EBAA36A7459408A7D90373B635848D4D13A"
              }
            },
            "signature": {
              "type": "tendermint/SignatureEd25519",
              "value": "mW7uAMvZcyT9mWMLFoMBxIjGSGPqDAQcqU9BpamZ7qfv31VabkZyB552oBi3kkiVCh+Iv2y670YgDdSMQapOAA=="
            }
          },
          {
            "validator_address": "F6738260186D33D9C14FC6E7017AFE6BB952A63D",
            "validator_index": "99",
            "height": "30156",
            "round": "1",
            "timestamp": "2018-08-01T08:04:38.873903761Z",
            "type": 2,
            "block_id": {
              "hash": "9AD133523D46D9A1F2F9D86681EA1531DF596638",
              "parts": {
                "total": "1",
                "hash": "44086EBAA36A7459408A7D90373B635848D4D13A"
              }
            },
            "signature": {
              "type": "tendermint/SignatureEd25519",
              "value": "8Tp73Wsg/Cbv9S7e0iNzV4MFTxGsYiCrW/O23Bqhc3xa2CHep6vv1CBAaWuCbc10Psw+p9ucDbKyqnaTQ2JBDw=="
            }
          },
          {
            "validator_address": "FF3F3FCBCE7E62D7AD5506FF846EC4518D980515",
            "validator_index": "100",
            "height": "30156",
            "round": "1",
            "timestamp": "2018-08-01T08:04:38.873209811Z",
            "type": 2,
            "block_id": {
              "hash": "9AD133523D46D9A1F2F9D86681EA1531DF596638",
              "parts": {
                "total": "1",
                "hash": "44086EBAA36A7459408A7D90373B635848D4D13A"
              }
            },
            "signature": {
              "type": "tendermint/SignatureEd25519",
              "value": "6eM44SJFy+wuSs3h4QBZ2/rycLX2CSIYVVG+b9LVEMRRbPCh55XTuKv/lumPMeU8vYxUgUi45VEQ0NU1ZEjsDA=="
            }
          }
        ]
      }
    },
    "canonical": true
  }
}