{
  "jsonrpc": "2.0",
  "id": "",
  "result": {
    "SignedHeader": {
      "header": {
        "chain_id": "gaia-7004",
        "height": "32346",
        "time": "2018-08-01T11:47:43.377631695Z",
        "num_txs": "0",
        "last_block_id": {
          "hash": "D4A58A0D12B70E1D96E9A2AFB84B87CF09B64503",
          "parts": {
            "total": "1",
            "hash": "DF6F6BB2C09F7B5F4A2F465392C1EDCB9F4AF8D2"
          }
        },
        "total_txs": "1701",
        "last_commit_hash": "51A6181D16C6DFA3402068B3CCD012B97A5CCCAC",
        "data_hash": "",
        "validators_hash": "C12E9D5D25D137A341A7FD8AC800BC06160BA04F",
        "consensus_hash": "D6B74BB35BDFFD8392340F2A379173548AE188FE",
        "app_hash": "274E6C03DCC2E16AB769648A4B11334B208BA060",
        "last_results_hash": "",
        "evidence_hash": ""
      },
      "commit": {
        "block_id": {
          "hash": "37262A40E92ED0F4186DAE2B142874532EA1CD94",
          "parts": {
            "total": "1",
            "hash": "734CEBA58772030CB77604A93C3E27C3FC715B63"
          }
        },
        "precommits": [
          {
            "validator_address": "029359C0C768096273A68ABC902A6B17AC8D1D70",
            "validator_index": "0",
            "height": "32346",
            "round": "1",
            "timestamp": "2018-08-01T11:47:44.243502744Z",
            "type": 2,
            "block_id": {
              "hash": "37262A40E92ED0F4186DAE2B142874532EA1CD94",
              "parts": {
                "total": "1",
                "hash": "734CEBA58772030CB77604A93C3E27C3FC715B63"
              }
            },
            "signature": {
              "type": "tendermint/SignatureEd25519",
              "value": "sF5NBE89scCGuFfzBXgYmgYdIeo/RwS53bySvVxX4irNU+bn9nRku0ltdV1FatymT/QGjbY2LffLISgDqBJ1Bg=="
            }
          },
          {
            "validator_address": "02FE4B97A8387F39D1AC19E0C1702B3CC614812F",
            "validator_index": "1",
            "height": "32346",
            "round": "1",
            "timestamp": "2018-08-01T11:47:44.1841822Z",
            "type": 2,
            "block_id": {
              "hash": "37262A40E92ED0F4186DAE2B142874532EA1CD94",
              "parts": {
                "total": "1",
                "hash": "734CEBA58772030CB77604A93C3E27C3FC715B63"
              }
            },
            "signature": {
              "type": "tendermint/SignatureEd25519",
              "value": "CDogLf7zwOfZlLwv6NOrxpEOCLIGG14fyog4fU4Rsx6RlqIhcoF38gE4Ohem8WpryVRx94jAzx0ziEKPaTXmBA=="
            }
          },
          {
            "validator_address": "0548261C50222FD710EB5EBDF03A0E6567B21D20",
            "validator_index": "2",
            "height": "32346",
            "round": "1",
            "timestamp": "2018-08-01T11:47:44.227897866Z",
            "type": 2,
            "block_id": {
              "hash": "37262A40E92ED0F4186DAE2B142874532EA1CD94",
              "parts": {
                "total": "1",
                "hash": "734CEBA58772030CB77604A93C3E27C3FC715B63"
              }
            },
            "signature": {
              "type": "tendermint/SignatureEd25519",
              "value": "TqlA/ekLssx/rbKVRme7Tf1kWNi1WpADyloVy9fVXJPLwVgKSEacFszRoOVgLhPx8RjdpDczlJaVmsaF7KllCw=="
            }
          },
          {
            "validator_address": "0665ADBF9B120B7617BF955AA5653A1992C82B11",
            "validator_index": "3",
            "height": "32346",
            "round": "1",
            "timestamp": "2018-08-01T11:47:44.213808531Z",
            "type": 2,
            "block_id": {
              "hash": "37262A40E92ED0F4186DAE2B142874532EA1CD94",
              "parts": {
                "total": "1",
                "hash": "734CEBA58772030CB77604A93C3E27C3FC715B63"
              }
            },
            "signature": {
              "type": "tendermint/SignatureEd25519",
              "value": "CAmsJgEDFIot4k27rcV0G5Cb4hwdI+WvKu1BPbYhpTwXDogoAD8AOOxEWdPDSuMnVYojZUnOXP3toWbCKQ0rDA=="
            }
          },
          {
            "validator_address": "09145E611CC27EEB944FC5A956DDF710F943B9EF",
            "validator_index": "4",
            "height": "32346",
            "round": "1",
            "timestamp": "2018-08-01T11:47:44.258568135Z",
            "type": 2,
            "block_id": {
              "hash": "37262A40E92ED0F4186DAE2B142874532EA1CD94",
              "parts": {
                "total": "1",
                "hash": "734CEBA58772030CB77604A93C3E27C3FC715B63"
              }
            },
            "signature": {
              "type": "tendermint/SignatureEd25519",
              "value": "nilWQYQV35gURetcUv0vLKLnt99R1a8u4FNOqfsMXw7iG4cY7NcN+kbUXMz8DeXrJcKhing4MFpiMca08DKwAg=="
            }
          },
          {
            "validator_address": "0989D0355A104B67AE0AE028C68FB610690E174B",
            "validator_index": "5",
            "height": "32346",
            "round": "1",
            "timestamp": "2018-08-01T11:47:44.232510016Z",
            "type": 2,
            "block_id": {
              "hash": "37262A40E92ED0F4186DAE2B142874532EA1CD94",
              "parts": {
                "total": "1",
                "hash": "734CEBA58772030CB77604A93C3E27C3FC715B63"
              }
            },
            "signature": {
              "type": "tendermint/SignatureEd25519",
              "value": "s9CwVMdHpvHNmbr9YxM9JcJnr9sxLEZGU/hPyXuEm9KxMkngnlWSFkG2QkNa3pjB0uVBeqMkzZwQBR16EV6CDw=="
            }
          },
          {
            "validator_address": "0A692DBFFE9E5DD28E7DECC33CED1AEB4C0D014E",
            "validator_index": "6",
            "height": "32346",
            "round": "1",
            "timestamp": "2018-08-01T11:47:44.345601482Z",
            "type": 2,
            "block_id": {
              "hash": "37262A40E92ED0F4186DAE2B142874532EA1CD94",
              "parts": {
                "total": "1",
                "hash": "734CEBA58772030CB77604A93C3E27C3FC715B63"
              }
            },
            "signature": {
              "type": "tendermint/SignatureEd25519",
              "value": "gpvy8LMrjCwzknws+wiYRoOJ2+fycPzq3KKtKKU3s9fu3yh9hhLGBoUIlcXuNf7ZpSqo9pF1rKONr6Mp3IKXBw=="
            }
          },
          {
            "validator_address": "0DDF97111D73DB825138EC15EC27DE5FE8536901",
            "validator_index": "7",
            "height": "32346",
            "round": "1",
            "timestamp": "2018-08-01T11:47:44.331375638Z",
            "type": 2,
            "block_id": {
              "hash": "37262A40E92ED0F4186DAE2B142874532EA1CD94",
              "parts": {
                "total": "1",
                "hash": "734CEBA58772030CB77604A93C3E27C3FC715B63"
              }
            },
            "signature": {
              "type": "tendermint/SignatureEd25519",
              "value": "DwfnqfYmfz5qsujsNKiZwKBDlkwKjkDS3/heFyhiy4QLpP6hl/6dtpGKxWOtS9zkzhHhuWucci1WeBe3Mz4wDA=="
            }
          },
          {
            "validator_address": "1751786EFC085D5331C61168FFFC8202EA151B4E",
            "validator_index": "8",
            "height": "32346",
            "round": "1",
            "timestamp": "2018-08-01T11:47:43.867523738Z",
            "type": 2,
            "block_id": {
              "hash": "37262A40E92ED0F4186DAE2B142874532EA1CD94",
              "parts": {
                "total": "1",
                "hash": "734CEBA58772030CB77604A93C3E27C3FC715B63"
              }
            },
            "signature": {
              "type": "tendermint/SignatureEd25519",
              "value": "jFRHmzYdrufM+xvYOd/jHWIKYWQPNGyBDx7WkLcAGg4l242y6aTiQgU9RKMVNt6/skB7wwjXoPZIlrF0x47yDw=="
            }
          },
          {
            "validator_address": "17BB5CD01E8940FAFB948A04D5FA5A0645E5822E",
            "validator_index": "9",
            "height": "32346",
            "round": "1",
            "timestamp": "2018-08-01T11:47:44.231069385Z",
            "type": 2,
            "block_id": {
              "hash": "37262A40E92ED0F4186DAE2B142874532EA1CD94",
              "parts": {
                "total": "1",
                "hash": "734CEBA58772030CB77604A93C3E27C3FC715B63"
              }
            },
            "signature": {
              "type": "tendermint/SignatureEd25519",
              "value": "JdCH7v01U4knzITlM1P0frtb3EitbK9G664L4ZE2hk2wyNqlwWmpk62n9UWdI09eZN8YrI4yy3PJ0gpJnnQECw=="
            }
          },
          {
            "validator_address": "1C683A87904BC38F05004FE83301A3A3E35447EB",
            "validator_index": "10",
            "height": "32346",
            "round": "1",
            "timestamp": "2018-08-01T11:47:44.202611572Z",
            "type": 2,
            "block_id": {
              "hash": "37262A40E92ED0F4186DAE2B142874532EA1CD94",
              "parts": {
                "total": "1",
                "hash": "734CEBA58772030CB77604A93C3E27C3FC715B63"
              }
            },
            "signature": {
              "type": "tendermint/SignatureEd25519",
              "value": "0bZscpJ1LNlIYv3HfTgby56J59Wyli9Wm4odPUMI4rv3cD/MR+pjJ0YeZpVMk4BqJVKtYdhu7xR17GI3ECZUBA=="
            }
          },
          {
            "validator_address": "1E9CE94FD0BA5CFEB901F90BC658D64D85B134D2",
            "validator_index": "11",
            "height": "32346",
            "round": "1",
            "timestamp": "2018-08-01T11:47:44.292145625Z",
            "type": 2,
            "block_id": {
              "hash": "37262A40E92ED0F4186DAE2B142874532EA1CD94",
              "parts": {
                "total": "1",
                "hash": "734CEBA58772030CB77604A93C3E27C3FC715B63"
              }
            },
            "signature": {
              "type": "tendermint/SignatureEd25519",
              "value": "VFH/U1ToO+P1OdLcIT/qdoKLj83HkM1WRuQfUazKRaGsAF0suaNk14UGRRsDLWNL45Z/WuPy/syS3fOUDRM0CA=="
            }
          },
          {
            "validator_address": "1ECD8C5FE1341D74CDC633A245DD56858DE2F9A2",
            "validator_index": "12",
            "height": "32346",
            "round": "1",
            "timestamp": "2018-08-01T11:47:44.345920211Z",
            "type": 2,
            "block_id": {
              "hash": "37262A40E92ED0F4186DAE2B142874532EA1CD94",
              "parts": {
                "total": "1",
                "hash": "734CEBA58772030CB77604A93C3E27C3FC715B63"
              }
            },
            "signature": {
              "type": "tendermint/SignatureEd25519",
              "value": "7wMMwrqwvEbQ8ORoJ/PqivgEoHABf7V8zgToYx4ryqJ575TLkBRK2XN2/3ZnvHamLByJ/0cH7Yg2qM5OU2bnAQ=="
            }
          },
          {
            "validator_address": "1F3A68CAAD483768AA2BF667DEF10F7104C89928",
            "validator_index": "13",
            "height": "32346",
            "round": "1",
            "timestamp": "2018-08-01T11:47:44.244503388Z",
            "type": 2,
            "block_id": {
              "hash": "37262A40E92ED0F4186DAE2B142874532EA1CD94",
              "parts": {
                "total": "1",
                "hash": "734CEBA58772030CB77604A93C3E27C3FC715B63"
              }
            },
            "signature": {
              "type": "tendermint/SignatureEd25519",
              "value": "7TBHf8qbVccGjgnTQLzBBRDwwIXL69TSW0DeQ+myTc4Z5bABgAfFquz/OgXpqqXCfZuwPcliUtG0gQsKbIWeBw=="
            }
          },
          {
            "validator_address": "1F61153F26C2DF27E15874268D30326287323352",
            "validator_index": "14",
            "height": "32346",
            "round": "1",
            "timestamp": "2018-08-01T11:47:44.284891961Z",
            "type": 2,
            "block_id": {
              "hash": "37262A40E92ED0F4186DAE2B142874532EA1CD94",
              "parts": {
                "total": "1",
                "hash": "734CEBA58772030CB77604A93C3E27C3FC715B63"
              }
            },
            "signature": {
              "type": "tendermint/SignatureEd25519",
              "value": "jOtVB2YIFyJDkk1EVMlH1Up214vcyyGTNWE258GxU9l+49eLZH3HErjhYZ+9KH7kx2JYmAZFvyA2cGDhWgn7CQ=="
            }
          },
          {
            "validator_address": "23897586D68E2AC1C78E0EF5BB5DF5C8EAB18F50",
            "validator_index": "15",
            "height": "32346",
            "round": "1",
            "timestamp": "2018-08-01T11:47:44.24146021Z",
            "type": 2,
            "block_id": {
              "hash": "37262A40E92ED0F4186DAE2B142874532EA1CD94",
              "parts": {
                "total": "1",
                "hash": "734CEBA58772030CB77604A93C3E27C3FC715B63"
              }
            },
            "signature": {
              "type": "tendermint/SignatureEd25519",
              "value": "r6VPFaW7NKFHNtesadbhJYXgxgAfOfUGN6ngdLjZ37CQy9ko6qoF5Xk/YKudtwekXvJoGRzxh7IBwBj8jpXYAw=="
            }
          },
          {
            "validator_address": "28770D17E8530825E7310A0659308654B7EC9682",
            "validator_index": "16",
            "height": "32346",
            "round": "1",
            "timestamp": "2018-08-01T11:47:44.21571608Z",
            "type": 2,
            "block_id": {
              "hash": "37262A40E92ED0F4186DAE2B142874532EA1CD94",
              "parts": {
                "total": "1",
                "hash": "734CEBA58772030CB77604A93C3E27C3FC715B63"
              }
            },
            "signature": {
              "type": "tendermint/SignatureEd25519",
              "value": "DCixOQKMDmRRT/vXJfZ/U/dvJoUIc3lTOO4idAfM61k8YFzWUb6SIc3hp2JRcjQb69K6s08Ye6eqLZY2dzedBw=="
            }
          },
          {
            "validator_address": "2A92EC3C642140202298D0E245095E0ECFC25228",
            "validator_index": "17",
            "height": "32346",
            "round": "1",
            "timestamp": "2018-08-01T11:47:44.257717494Z",
            "type": 2,
            "block_id": {
              "hash": "37262A40E92ED0F4186DAE2B142874532EA1CD94",
              "parts": {
                "total": "1",
                "hash": "734CEBA58772030CB77604A93C3E27C3FC715B63"
              }
            },
            "signature": {
              "type": "tendermint/SignatureEd25519",
              "value": "Dfm3TL4eY35ufn8OtH4GJflSP0Kj3yoOZhNsUjwkCVAhsmfzClxVKappX3C/9nra8L1CEHFTU6jssTGpa990BA=="
            }
          },
          {
            "validator_address": "33412C9A69C60CB0FAA24A5C5B3A906DE24B47C2",
            "validator_index": "18",
            "height": "32346",
            "round": "1",
            "timestamp": "2018-08-01T11:47:44.208051313Z",
            "type": 2,
            "block_id": {
              "hash": "37262A40E92ED0F4186DAE2B142874532EA1CD94",
              "parts": {
                "total": "1",
                "hash": "734CEBA58772030CB77604A93C3E27C3FC715B63"
              }
            },
            "signature": {
              "type": "tendermint/SignatureEd25519",
              "value": "h4KeZnsOdS4WlHhNT0caieE4HHaEB+t/51DFoHgZfLahhyYWNm7+zKm7BeIplEUXba4G+n8k1T/HiiiWMYw/AQ=="
            }
          },
          {
            "validator_address": "36E9B7FAEC964F97D84C028ED62493E373AD0B38",
            "validator_index": "19",
            "height": "32346",
            "round": "1",
            "timestamp": "2018-08-01T11:47:44.352259593Z",
            "type": 2,
            "block_id": {
              "hash": "37262A40E92ED0F4186DAE2B142874532EA1CD94",
              "parts": {
                "total": "1",
                "hash": "734CEBA58772030CB77604A93C3E27C3FC715B63"
              }
            },
            "signature": {
              "type": "tendermint/SignatureEd25519",
              "value": "Mzu63VHkjgTPm2Z1MXHRBig00rgggYaG+CHVlihOoqRb/hiWti8faq1z7MYWJbGvuCl5X+zc3ko83w3d1e07Ag=="
            }
          },
          {
            "validator_address": "38A8D85D36BEA2E5FCF8A1E778F53628E450EF13",
            "validator_index": "20",
            "height": "32346",
            "round": "1",
            "timestamp": "2018-08-01T11:47:44.309745286Z",
            "type": 2,
            "block_id": {
              "hash": "37262A40E92ED0F4186DAE2B142874532EA1CD94",
              "parts": {
                "total": "1",
                "hash": "734CEBA58772030CB77604A93C3E27C3FC715B63"
              }
            },
            "signature": {
              "type": "tendermint/SignatureEd25519",
              "value": "72F2wTGNQDCuRIXNRHOpTt73R4pEFAY9QHja0jTh7X4IbpaH0zTT/LGCkTSCZp+C0/oDaOjMBqoJXe2a2XUOBQ=="
            }
          },
          {
            "validator_address": "39DFDA0C5DB84B269642188B23253508537798E6",
            "validator_index": "21",
            "height": "32346",
            "round": "1",
            "timestamp": "2018-08-01T11:47:44.228146917Z",
            "type": 2,
            "block_id": {
              "hash": "37262A40E92ED0F4186DAE2B142874532EA1CD94",
              "parts": {
                "total": "1",
                "hash": "734CEBA58772030CB77604A93C3E27C3FC715B63"
              }
            },
            "signature": {
              "type": "tendermint/SignatureEd25519",
              "value": "ct6nM6TLDocAImT4q7aBAUx92FAfhZj9KSVsplP/24m23NTytWgS4hJdtntMB/Ulsz53ieG38gpI1jPPkRt7BQ=="
            }
          },
          {
            "validator_address": "3AC99B708404452366E0953A4BE849226DC86CBC",
            "validator_index": "22",
            "height": "32346",
            "round": "1",
            "timestamp": "2018-08-01T11:47:44.305976403Z",
            "type": 2,
            "block_id": {
              "hash": "37262A40E92ED0F4186DAE2B142874532EA1CD94",
              "parts": {
                "total": "1",
                "hash": "734CEBA58772030CB77604A93C3E27C3FC715B63"
              }
            },
            "signature": {
              "type": "tendermint/SignatureEd25519",
              "value": "oQrABidesdEXvfRClKz8SJb0UOXlSD72mmAsnCPh+RbPt5rS+AYK8WOIkrrr2D0TI4Te9nVhbhFM6EjY63iCDA=="
            }
          },
          {
            "validator_address": "3DCB822A10ED319EC7C4393D8E3FD4A41B15AAF2",
            "validator_index": "23",
            "height": "32346",
            "round": "1",
            "timestamp": "2018-08-01T11:47:44.168513855Z",
            "type": 2,
            "block_id": {
              "hash": "37262A40E92ED0F4186DAE2B142874532EA1CD94",
              "parts": {
                "total": "1",
                "hash": "734CEBA58772030CB77604A93C3E27C3FC715B63"
              }
            },
            "signature": {
              "type": "tendermint/SignatureEd25519",
              "value": "ZXl+Pk4NrAYntDbZuuDQBX0qyFXODw4mlTPzoZKnnrAiMpgnyJbGRB9Zsmdz0Yrzusxaq4KRiIprv7ETRAF7Bg=="
            }
          },
          {
            "validator_address": "3E899BA36A93C7370347BD5FE85909F2ECD93F8C",
            "validator_index": "24",
            "height": "32346",
            "round": "1",
            "timestamp": "2018-08-01T11:47:44.266203526Z",
            "type": 2,
            "block_id": {
              "hash": "37262A40E92ED0F4186DAE2B142874532EA1CD94",
              "parts": {
                "total": "1",
                "hash": "734CEBA58772030CB77604A93C3E27C3FC715B63"
              }
            },
            "signature": {
              "type": "tendermint/SignatureEd25519",
              "value": "1B0Ir4SrvP+6+FCYRbHBvdEJwLf46brmINP7/hBjPyv+kZ+gjofJB+evPviDLOsJRog9Qi8nl/JAkBZomu0zAw=="
            }
          },
          {
            "validator_address": "41CAB2E29E7D0F2282E3275938F188FF9386B84C",
            "validator_index": "25",
            "height": "32346",
            "round": "1",
            "timestamp": "2018-08-01T11:47:44.373632376Z",
            "type": 2,
            "block_id": {
              "hash": "37262A40E92ED0F4186DAE2B142874532EA1CD94",
              "parts": {
                "total": "1",
                "hash": "734CEBA58772030CB77604A93C3E27C3FC715B63"
              }
            },
            "signature": {
              "type": "tendermint/SignatureEd25519",
              "value": "IDbmwqTVetVWP7IVfW2My3fzoXZIJhNHAnvPiBPU/6QoLJdduZq0Q4FSubNaEEApp0HT2MqPfDG+9FXAvVXpCA=="
            }
          },
          {
            "validator_address": "462B656869DB02A8FD1077E255F8CC7401DC37C6",
            "validator_index": "26",
            "height": "32346",
            "round": "1",
            "timestamp": "2018-08-01T11:47:44.226321889Z",
            "type": 2,
            "block_id": {
              "hash": "37262A40E92ED0F4186DAE2B142874532EA1CD94",
              "parts": {
                "total": "1",
                "hash": "734CEBA58772030CB77604A93C3E27C3FC715B63"
              }
            },
            "signature": {
              "type": "tendermint/SignatureEd25519",
              "value": "mXmfAXIDe9sZId3agkkUTbcNlmyKYPMytRNc4LNokb5K+2KHMvzlJxJXkGV6BeiuO1fDzHUwtlzCwZ39bD7pAA=="
            }
          },
          {
            "validator_address": "48E5118163E5442068A1B5A42D2EEDBB75724935",
            "validator_index": "27",
            "height": "32346",
            "round": "1",
            "timestamp": "2018-08-01T11:47:44.316828561Z",
            "type": 2,
            "block_id": {
              "hash": "37262A40E92ED0F4186DAE2B142874532EA1CD94",
              "parts": {
                "total": "1",
                "hash": "734CEBA58772030CB77604A93C3E27C3FC715B63"
              }
            },
            "signature": {
              "type": "tendermint/SignatureEd25519",
              "value": "D3vEfJBhdMAdEVYdh0MkWfnDtRmdApOlYznNHpJn/huatum4lbO8U/aNQLiOYQ5I4fSDqDDCabosNdBMDbEVBQ=="
            }
          },
          {
            "validator_address": "49103C58AFD9C7C069F55EBA218F3DFD9AEA74F9",
            "validator_index": "28",
            "height": "32346",
            "round": "1",
            "timestamp": "2018-08-01T11:47:44.260246957Z",
            "type": 2,
            "block_id": {
              "hash": "37262A40E92ED0F4186DAE2B142874532EA1CD94",
              "parts": {
                "total": "1",
                "hash": "734CEBA58772030CB77604A93C3E27C3FC715B63"
              }
            },
            "signature": {
              "type": "tendermint/SignatureEd25519",
              "value": "6h2/sAAVuhAdCOdAoq1fujx3+PQzBJN6ZCgj1ITjoYEPpgY9248347cBEGC0m7rZqJX3/qbEoTxAJ65YY/s7CA=="
            }
          },
          {
            "validator_address": "4944F8BBBB5303E17BC0607DF332320EDBC750EA",
            "validator_index": "29",
            "height": "32346",
            "round": "1",
            "timestamp": "2018-08-01T11:47:44.238308575Z",
            "type": 2,
            "block_id": {
              "hash": "37262A40E92ED0F4186DAE2B142874532EA1CD94",
              "parts": {
                "total": "1",
                "hash": "734CEBA58772030CB77604A93C3E27C3FC715B63"
              }
            },
            "signature": {
              "type": "tendermint/SignatureEd25519",
              "value": "v0E5O1R34uHctd8bedbmIi8OTSnb9Jp2JrCzm2S44gP5VC8npJJrqw/urdgWLN6aNyiC3MvTFghKnlstzpEvDg=="
            }
          },
          {
            "validator_address": "49841599DE675157CBE1E7D6B35BF8FFC23BD5CB",
            "validator_index": "30",
            "height": "32346",
            "round": "1",
            "timestamp": "2018-08-01T11:47:44.154668828Z",
            "type": 2,
            "block_id": {
              "hash": "37262A40E92ED0F4186DAE2B142874532EA1CD94",
              "parts": {
                "total": "1",
                "hash": "734CEBA58772030CB77604A93C3E27C3FC715B63"
              }
            },
            "signature": {
              "type": "tendermint/SignatureEd25519",
              "value": "ftv1rNmVE0fKR7ggac2Qc/iPEpjNQ7ImnBe9YR6naP6SMCR+nLltEUJ4r/uulteCuv9sQ5yB9i8SxmNzHxLQDQ=="
            }
          },
          {
            "validator_address": "51386C2CF9556821D114D7E4945806802BADB28D",
            "validator_index": "31",
            "height": "32346",
            "round": "1",
            "timestamp": "2018-08-01T11:47:44.222163714Z",
            "type": 2,
            "block_id": {
              "hash": "37262A40E92ED0F4186DAE2B142874532EA1CD94",
              "parts": {
                "total": "1",
                "hash": "734CEBA58772030CB77604A93C3E27C3FC715B63"
              }
            },
            "signature": {
              "type": "tendermint/SignatureEd25519",
              "value": "OXnTMsupPwI+9I46/ja6u8EXJe1QqgxpQ+1+Vd+VpBj1PM9qSJbFGUZQNCHEfq12n1k+fZxAt2gxpnNxtOBBDg=="
            }
          },
          {
            "validator_address": "543564ECA3AFEFADC73EE8591AAC3A96F079BC8A",
            "validator_index": "32",
            "height": "32346",
            "round": "1",
            "timestamp": "2018-08-01T11:47:44.238441773Z",
            "type": 2,
            "block_id": {
              "hash": "37262A40E92ED0F4186DAE2B142874532EA1CD94",
              "parts": {
                "total": "1",
                "hash": "734CEBA58772030CB77604A93C3E27C3FC715B63"
              }
            },
            "signature": {
              "type": "tendermint/SignatureEd25519",
              "value": "i2FSZSAbu3n7/5wTa62WqQMYqQrwe4j/63jKVRPZGUnbbQekVfEK8nMz8TD+kNKkKymR/eUFRUt+d6g7N4S5AA=="
            }
          },
          {
            "validator_address": "55D67B1A6DC13E96F8754A5A42EABC20F7F86664",
            "validator_index": "33",
            "height": "32346",
            "round": "1",
            "timestamp": "2018-08-01T11:47:44.190103503Z",
            "type": 2,
            "block_id": {
              "hash": "37262A40E92ED0F4186DAE2B142874532EA1CD94",
              "parts": {
                "total": "1",
                "hash": "734CEBA58772030CB77604A93C3E27C3FC715B63"
              }
            },
            "signature": {
              "type": "tendermint/SignatureEd25519",
              "value": "pjDx2mDIAePyttPBcQJtJktvbVm2WeUSKIvcl4wBW6biLnlNjEWfjX2sOwVPHyejuH1h7g2UAtespG4bWuMrAQ=="
            }
          },
          {
            "validator_address": "570B6A755ED339EAC56BB3390A48069F6AC9449B",
            "validator_index": "34",
            "height": "32346",
            "round": "1",
            "timestamp": "2018-08-01T11:47:50.582140956Z",
            "type": 2,
            "block_id": {
              "hash": "37262A40E92ED0F4186DAE2B142874532EA1CD94",
              "parts": {
                "total": "1",
                "hash": "734CEBA58772030CB77604A93C3E27C3FC715B63"
              }
            },
            "signature": {
              "type": "tendermint/SignatureEd25519",
              "value": "M1RCYqXAd9nJ1BCCbJT2nGLa+UfMWqnKdeJHPr/yfeAvshZaBKfVX9cfQ/C/mUkyQ+ZmoupoEJvxXEgSo1aVCQ=="
            }
          },
          {
            "validator_address": "5BDF8EA41B1835FBAD865B181A2A4B23F511B5E4",
            "validator_index": "35",
            "height": "32346",
            "round": "1",
            "timestamp": "2018-08-01T11:47:44.174604788Z",
            "type": 2,
            "block_id": {
              "hash": "37262A40E92ED0F4186DAE2B142874532EA1CD94",
              "parts": {
                "total": "1",
                "hash": "734CEBA58772030CB77604A93C3E27C3FC715B63"
              }
            },
            "signature": {
              "type": "tendermint/SignatureEd25519",
              "value": "ip3SC26vupmUSOacIMzJAENdv6QIP4czQtEX+wmlHf2W9atzLJbf51r1DvKmgwIhe7d0/YxGtgNBXR8Y5+JaCw=="
            }
          },
          {
            "validator_address": "60229E2E273297FE00219E46DFFB8F76844CDEF9",
            "validator_index": "36",
            "height": "32346",
            "round": "1",
            "timestamp": "2018-08-01T11:47:42.346225433Z",
            "type": 2,
            "block_id": {
              "hash": "37262A40E92ED0F4186DAE2B142874532EA1CD94",
              "parts": {
                "total": "1",
                "hash": "734CEBA58772030CB77604A93C3E27C3FC715B63"
              }
            },
            "signature": {
              "type": "tendermint/SignatureEd25519",
              "value": "b+JEOKnmOiHtT5sJaYPYXrY2eJ9zjGOR+zMjtIkG2p2mLC32Kzq8nWFqj+1I7nxfWBY/WfYn9RPMJxFvRcuAAA=="
            }
          },
          {
            "validator_address": "62410D6D1CD98278136E4D0738AA0EA273CDFC54",
            "validator_index": "37",
            "height": "32346",
            "round": "1",
            "timestamp": "2018-08-01T11:47:44.171682362Z",
            "type": 2,
            "block_id": {
              "hash": "37262A40E92ED0F4186DAE2B142874532EA1CD94",
              "parts": {
                "total": "1",
                "hash": "734CEBA58772030CB77604A93C3E27C3FC715B63"
              }
            },
            "signature": {
              "type": "tendermint/SignatureEd25519",
              "value": "sAZFp1gdvYS4SFoj0XxP2KxLScHoF0fMVyuWoQkoBJB4nKMiSusfk/0AV5NbNFlJC644H+H12QZI0hbdRS9ZAg=="
            }
          },
          {
            "validator_address": "632F5C139A5A9DFBFE5111DEE29FCFB6157207DC",
            "validator_index": "38",
            "height": "32346",
            "round": "1",
            "timestamp": "2018-08-01T11:47:44.26549411Z",
            "type": 2,
            "block_id": {
              "hash": "37262A40E92ED0F4186DAE2B142874532EA1CD94",
              "parts": {
                "total": "1",
                "hash": "734CEBA58772030CB77604A93C3E27C3FC715B63"
              }
            },
            "signature": {
              "type": "tendermint/SignatureEd25519",
              "value": "L1hHHzrpc4Ayg/g6rJog+m/Zu7hiMosifcbGONfjBGe81vT/kYhV8ZrtvANtlwCiibXX7asGW4d29fterYgMAA=="
            }
          },
          {
            "validator_address": "64F57F8E796A9B7B590C1EFA4123988C86631D39",
            "validator_index": "39",
            "height": "32346",
            "round": "1",
            "timestamp": "2018-08-01T11:47:44.209982439Z",
            "type": 2,
            "block_id": {
              "hash": "37262A40E92ED0F4186DAE2B142874532EA1CD94",
              "parts": {
                "total": "1",
                "hash": "734CEBA58772030CB77604A93C3E27C3FC715B63"
              }
            },
            "signature": {
              "type": "tendermint/SignatureEd25519",
              "value": "76p04GuaNxSf8Z3onDmdfUkvh2OPh/pEoD1Z6+xKzHRRPYY5IkiK2/0pC+gJfHgkfHH1Ohu8j499mvSgBacAAg=="
            }
          },
          {
            "validator_address": "69D99B2C66043ACBEAA8447525C356AFC6408E0C",
            "validator_index": "40",
            "height": "32346",
            "round": "1",
            "timestamp": "2018-08-01T11:47:44.269602629Z",
            "type": 2,
            "block_id": {
              "hash": "37262A40E92ED0F4186DAE2B142874532EA1CD94",
              "parts": {
                "total": "1",
                "hash": "734CEBA58772030CB77604A93C3E27C3FC715B63"
              }
            },
            "signature": {
              "type": "tendermint/SignatureEd25519",
              "value": "RPtU1HpxiG5QsNQ+VhLbGHmSELi4UeRIVA93dnf1OdnU05lP6YmOndMKu9lvd3RJ90IJBDyBX906UJv+cTs5BA=="
            }
          },
          {
            "validator_address": "69EDADFA4A803E9DBF548C900D4A465E7D154262",
            "validator_index": "41",
            "height": "32346",
            "round": "1",
            "timestamp": "2018-08-01T11:47:44.413274559Z",
            "type": 2,
            "block_id": {
              "hash": "37262A40E92ED0F4186DAE2B142874532EA1CD94",
              "parts": {
                "total": "1",
                "hash": "734CEBA58772030CB77604A93C3E27C3FC715B63"
              }
            },
            "signature": {
              "type": "tendermint/SignatureEd25519",
              "value": "QAG2dWe9a5itoffh2QbupeCihXq7RfHGaZxIShAZuXghFcYY5mURTbSB4dY/dVoKuE/K4SIXLp8qC1H6eglRBw=="
            }
          },
          {
            "validator_address": "6D3AD380E398D8592B03AA124BAFED5F125DF863",
            "validator_index": "42",
            "height": "32346",
            "round": "1",
            "timestamp": "2018-08-01T11:46:41.983454501Z",
            "type": 2,
            "block_id": {
              "hash": "37262A40E92ED0F4186DAE2B142874532EA1CD94",
              "parts": {
                "total": "1",
                "hash": "734CEBA58772030CB77604A93C3E27C3FC715B63"
              }
            },
            "signature": {
              "type": "tendermint/SignatureEd25519",
              "value": "0P4jr8nzlQHt0X5580XfswUycLSm4eb0ZHKq/822FcCaDiSig9g5xLBfBjrh7xcMxzawdaFV8wZOL1+iocsUCw=="
            }
          },
          {
            "validator_address": "6F6C93B8BF3495063FEC9B5C771158607F4AE9D6",
            "validator_index": "43",
            "height": "32346",
            "round": "1",
            "timestamp": "2018-08-01T11:47:44.394469072Z",
            "type": 2,
            "block_id": {
              "hash": "37262A40E92ED0F4186DAE2B142874532EA1CD94",
              "parts": {
                "total": "1",
                "hash": "734CEBA58772030CB77604A93C3E27C3FC715B63"
              }
            },
            "signature": {
              "type": "tendermint/SignatureEd25519",
              "value": "RjRnRelQyeEbYrOp7ageQKJ1UO8/sCTc5thaFb9v4dCvT0EGFu9FjMGmdqxdw6l2mdTvAmw3DUR8+jUiEFGNCA=="
            }
          },
          {
            "validator_address": "732CEEF54C374DDC6ADECBFD707AEFD07FEDC143",
            "validator_index": "44",
            "height": "32346",
            "round": "1",
            "timestamp": "2018-08-01T11:47:44.268884696Z",
            "type": 2,
            "block_id": {
              "hash": "37262A40E92ED0F4186DAE2B142874532EA1CD94",
              "parts": {
                "total": "1",
                "hash": "734CEBA58772030CB77604A93C3E27C3FC715B63"
              }
            },
            "signature": {
              "type": "tendermint/SignatureEd25519",
              "value": "AHxVOd4piKJ0YQWJhCEOtCPsqYFwHy5OiaePRxHrvhXerJHX4qBcfInJrVhGp/YRuam/yTFBWtafmz2pimSfDA=="
            }
          },
          {
            "validator_address": "7393D691BFAE9661918C09932D4D9060AB40939B",
            "validator_index": "45",
            "height": "32346",
            "round": "1",
            "timestamp": "2018-08-01T11:47:44.386332267Z",
            "type": 2,
            "block_id": {
              "hash": "37262A40E92ED0F4186DAE2B142874532EA1CD94",
              "parts": {
                "total": "1",
                "hash": "734CEBA58772030CB77604A93C3E27C3FC715B63"
              }
            },
            "signature": {
              "type": "tendermint/SignatureEd25519",
              "value": "bTQ3/FCqi6MmopEnwga5fdNZXrYmB9bvvEzgotZuJqUMMKi2NRfRdRUJlQm1gGpHNRPz1Eg8mR5yIShXYA6jDA=="
            }
          },
          {
            "validator_address": "751E43437224E8BB6D1569B3E2B2616B6E7F4397",
            "validator_index": "46",
            "height": "32346",
            "round": "1",
            "timestamp": "2018-08-01T11:47:44.230277302Z",
            "type": 2,
            "block_id": {
              "hash": "37262A40E92ED0F4186DAE2B142874532EA1CD94",
              "parts": {
                "total": "1",
                "hash": "734CEBA58772030CB77604A93C3E27C3FC715B63"
              }
            },
            "signature": {
              "type": "tendermint/SignatureEd25519",
              "value": "Eep1L1SiZga46YBLQZDUi/2n9ErE0pmHv5S5IeMDpFnfezRpfMHvfseMmDeq3ytJxRpQ4OuI21zob8YxOuHBCA=="
            }
          },
          {
            "validator_address": "7EB7593F519F1180C7E872D0494611464EDF03AE",
            "validator_index": "47",
            "height": "32346",
            "round": "1",
            "timestamp": "2018-08-01T11:47:44.415224401Z",
            "type": 2,
            "block_id": {
              "hash": "37262A40E92ED0F4186DAE2B142874532EA1CD94",
              "parts": {
                "total": "1",
                "hash": "734CEBA58772030CB77604A93C3E27C3FC715B63"
              }
            },
            "signature": {
              "type": "tendermint/SignatureEd25519",
              "value": "sRSYtpiVzlMr8+7JK1t+70qYKdRQsxZUXjcEADpf0cxd8GbJqE3ecO7SI0WnR1DCbRBwj1jV1Nt9mSaBLCnsDw=="
            }
          },
          {
            "validator_address": "807CF675BA8479FC4FEC1047215DF07970040F1F",
            "validator_index": "48",
            "height": "32346",
            "round": "1",
            "timestamp": "2018-08-01T11:47:44.434765022Z",
            "type": 2,
            "block_id": {
              "hash": "37262A40E92ED0F4186DAE2B142874532EA1CD94",
              "parts": {
                "total": "1",
                "hash": "734CEBA58772030CB77604A93C3E27C3FC715B63"
              }
            },
            "signature": {
              "type": "tendermint/SignatureEd25519",
              "value": "ei4IixIX+GNvLOHLRFjc0D/TancN7QSHUydkoGVWltml9Nn7AeRK889Cg6xChJOW/McmLDbsVwYTQXByf1l5BA=="
            }
          },
          {
            "validator_address": "83AB321E012C57746689FED3A6064DF331F81007",
            "validator_index": "49",
            "height": "32346",
            "round": "1",
            "timestamp": "2018-08-01T11:47:44.290049035Z",
            "type": 2,
            "block_id": {
              "hash": "37262A40E92ED0F4186DAE2B142874532EA1CD94",
              "parts": {
                "total": "1",
                "hash": "734CEBA58772030CB77604A93C3E27C3FC715B63"
              }
            },
            "signature": {
              "type": "tendermint/SignatureEd25519",
              "value": "l98IaoWzDqRW+zdI6rWVtKM0fWwLtioV1Y0B3c0xWArUiKZ2rDk32d0gj04ci6qOtNUgxZ+fSYDL6kqCooZxBA=="
            }
          },
          {
            "validator_address": "83BB1B88D3DBB20AD845FECA07749EBD87D3754D",
            "validator_index": "50",
            "height": "32346",
            "round": "1",
            "timestamp": "2018-08-01T11:47:44.397301262Z",
            "type": 2,
            "block_id": {
              "hash": "37262A40E92ED0F4186DAE2B142874532EA1CD94",
              "parts": {
                "total": "1",
                "hash": "734CEBA58772030CB77604A93C3E27C3FC715B63"
              }
            },
            "signature": {
              "type": "tendermint/SignatureEd25519",
              "value": "la4IfbuOBftlp2l0OeFlqnjSAXqlWZozWXuRLMdR+DfYp/rFr/b6cNPFDnFrl6Kv6ikT6GrpgX4oDlDnPLvEAQ=="
            }
          },
          {
            "validator_address": "8F06FE1FD042683C426137FBC4BBAA4288924217",
            "validator_index": "51",
            "height": "32346",
            "round": "1",
            "timestamp": "2018-08-01T11:47:44.229437177Z",
            "type": 2,
            "block_id": {
              "hash": "37262A40E92ED0F4186DAE2B142874532EA1CD94",
              "parts": {
                "total": "1",
                "hash": "734CEBA58772030CB77604A93C3E27C3FC715B63"
              }
            },
            "signature": {
              "type": "tendermint/SignatureEd25519",
              "value": "caEruKcSdqR188WR7Zl8tcS2XPN2mKCQLBU5es6MlbKbzgRWjrsQjDZBOJquwUyIV96ZSRQnd4J/UI6SvtymBg=="
            }
          },
          {
            "validator_address": "8F45617BF45B10A3F8283DEBDB35E38C7CA43237",
            "validator_index": "52",
            "height": "32346",
            "round": "1",
            "timestamp": "2018-08-01T11:47:44.207597461Z",
            "type": 2,
            "block_id": {
              "hash": "37262A40E92ED0F4186DAE2B142874532EA1CD94",
              "parts": {
                "total": "1",
                "hash": "734CEBA58772030CB77604A93C3E27C3FC715B63"
              }
            },
            "signature": {
              "type": "tendermint/SignatureEd25519",
              "value": "OPFQp5xDldvpz+rSJSIUku7tSdTMiKdPCYb2d7d0kJcQCt67IiE9qck0xXbm+8c0EfnTrqUJGNofJVewLla5Bw=="
            }
          },
          {
            "validator_address": "95980831E186F2540F6E9FB6C8E74DE2401405AC",
            "validator_index": "53",
            "height": "32346",
            "round": "1",
            "timestamp": "2018-08-01T11:47:44.253184941Z",
            "type": 2,
            "block_id": {
              "hash": "37262A40E92ED0F4186DAE2B142874532EA1CD94",
              "parts": {
                "total": "1",
                "hash": "734CEBA58772030CB77604A93C3E27C3FC715B63"
              }
            },
            "signature": {
              "type": "tendermint/SignatureEd25519",
              "value": "sBlIWYuhi7wcGsaX3v+6G4EkEcxhpmNIFaXLc7FYFWBBYDqKI7xpGIMX+4Dn2xSXfgf/jwUX24YjPXAeyGNxAQ=="
            }
          },
          {
            "validator_address": "95FAFBC1E0579C83D290A063020CE87C5334BD9B",
            "validator_index": "54",
            "height": "32346",
            "round": "1",
            "timestamp": "2018-08-01T11:47:44.229067396Z",
            "type": 2,
            "block_id": {
              "hash": "37262A40E92ED0F4186DAE2B142874532EA1CD94",
              "parts": {
                "total": "1",
                "hash": "734CEBA58772030CB77604A93C3E27C3FC715B63"
              }
            },
            "signature": {
              "type": "tendermint/SignatureEd25519",
              "value": "DABuXyFbr9C5jRvezSJfpq2JZoLpOIwTk9jeUclHtzIKcRpY2FF1+uZzeT7KhoNqiY7hHhHYKOx/6m3OOxg2DQ=="
            }
          },
          {
            "validator_address": "96BDE45EC52606CF5CB59853097871AD60680549",
            "validator_index": "55",
            "height": "32346",
            "round": "1",
            "timestamp": "2018-08-01T11:47:44.213871805Z",
            "type": 2,
            "block_id": {
              "hash": "37262A40E92ED0F4186DAE2B142874532EA1CD94",
              "parts": {
                "total": "1",
                "hash": "734CEBA58772030CB77604A93C3E27C3FC715B63"
              }
            },
            "signature": {
              "type": "tendermint/SignatureEd25519",
              "value": "Xt0My9wydpnec5NH81AGFvKThktyXiCPXgsQC2znxBIxALubeBA+C8mII0Lk7u0WFIpUedGeuUR3lTI0fEwdCA=="
            }
          },
          {
            "validator_address": "970CD321881185BF83DB2923C321B0E75FDBB2B8",
            "validator_index": "56",
            "height": "32346",
            "round": "1",
            "timestamp": "2018-08-01T11:47:44.267082928Z",
            "type": 2,
            "block_id": {
              "hash": "37262A40E92ED0F4186DAE2B142874532EA1CD94",
              "parts": {
                "total": "1",
                "hash": "734CEBA58772030CB77604A93C3E27C3FC715B63"
              }
            },
            "signature": {
              "type": "tendermint/SignatureEd25519",
              "value": "gypK0zfw3qhGJKQUTyMsLJocmJBfrSRiBkdnZFr82u05OgnHijzVnTPsbWCu1iJjYQQRm2qQmmQTqFFPVjNRDQ=="
            }
          },
          {
            "validator_address": "97DBB3D4B3D6C29287244864448F651DD5B07390",
            "validator_index": "57",
            "height": "32346",
            "round": "1",
            "timestamp": "2018-08-01T11:47:44.315360783Z",
            "type": 2,
            "block_id": {
              "hash": "37262A40E92ED0F4186DAE2B142874532EA1CD94",
              "parts": {
                "total": "1",
                "hash": "734CEBA58772030CB77604A93C3E27C3FC715B63"
              }
            },
            "signature": {
              "type": "tendermint/SignatureEd25519",
              "value": "vpG1vBp1wjnoOXYlYe6mYIvmVC4/9Cz4BODZ2xsb97eWfhhxqfizokY/NwTEPWS0qwa8u0MUH8PhGMQf4Ef7DA=="
            }
          },
          {
            "validator_address": "9C29C9B76D27586E4D9AD2AED0E943162645E55C",
            "validator_index": "58",
            "height": "32346",
            "round": "1",
            "timestamp": "2018-08-01T11:47:44.14748124Z",
            "type": 2,
            "block_id": {
              "hash": "37262A40E92ED0F4186DAE2B142874532EA1CD94",
              "parts": {
                "total": "1",
                "hash": "734CEBA58772030CB77604A93C3E27C3FC715B63"
              }
            },
            "signature": {
              "type": "tendermint/SignatureEd25519",
              "value": "+jir5j6Zc7APXXka87iMcaBFSVpxhy5EWb/LwU72gCZhmFYsb1m0j54H9xQfffadzrCsey6qpg6tqGchCDjwDw=="
            }
          },
          {
            "validator_address": "9D93AD02FE1BD7E76B9E58D7EB461088EAD011E5",
            "validator_index": "59",
            "height": "32346",
            "round": "1",
            "timestamp": "2018-08-01T11:47:44.221977807Z",
            "type": 2,
            "block_id": {
              "hash": "37262A40E92ED0F4186DAE2B142874532EA1CD94",
              "parts": {
                "total": "1",
                "hash": "734CEBA58772030CB77604A93C3E27C3FC715B63"
              }
            },
            "signature": {
              "type": "tendermint/SignatureEd25519",
              "value": "x4Q5RdWXG66WI0qN9kXDi+yyg3ynUlsykcyCk/rUwZWPtK9c/0YOihdO/MvO0ukdLeo73Cps7jRCBuksLcepDw=="
            }
          },
          {
            "validator_address": "A0A6466F4ABEA09C3B55E3709AFDE217A103209F",
            "validator_index": "60",
            "height": "32346",
            "round": "1",
            "timestamp": "2018-08-01T11:47:44.16318802Z",
            "type": 2,
            "block_id": {
              "hash": "37262A40E92ED0F4186DAE2B142874532EA1CD94",
              "parts": {
                "total": "1",
                "hash": "734CEBA58772030CB77604A93C3E27C3FC715B63"
              }
            },
            "signature": {
              "type": "tendermint/SignatureEd25519",
              "value": "IcGVp/dXbEEXDEfOF2kwG0P6tURNR2f2JrrYskxNhq89c+mEEaHwfqswNiP/xllsNCh23POn2DgmvAbvj6tADQ=="
            }
          },
          {
            "validator_address": "A5868971300F155020634D7BB49C7634F7AACCD3",
            "validator_index": "61",
            "height": "32346",
            "round": "1",
            "timestamp": "2018-08-01T11:47:44.210746652Z",
            "type": 2,
            "block_id": {
              "hash": "37262A40E92ED0F4186DAE2B142874532EA1CD94",
              "parts": {
                "total": "1",
                "hash": "734CEBA58772030CB77604A93C3E27C3FC715B63"
              }
            },
            "signature": {
              "type": "tendermint/SignatureEd25519",
              "value": "4XM2OPpwf4re4HRoqlKWeYHWXBWblG5JFodNr8Uw0NI5WOk/Uc5ILz0spCRcXydkK+zS1ER9q98Gn+9lX/qYDA=="
            }
          },
          {
            "validator_address": "A6B3A5B5D982CFD7B5FDFA15CF5A720E7AE25E7F",
            "validator_index": "62",
            "height": "32346",
            "round": "1",
            "timestamp": "2018-08-01T11:47:44.35345867Z",
            "type": 2,
            "block_id": {
              "hash": "37262A40E92ED0F4186DAE2B142874532EA1CD94",
              "parts": {
                "total": "1",
                "hash": "734CEBA58772030CB77604A93C3E27C3FC715B63"
              }
            },
            "signature": {
              "type": "tendermint/SignatureEd25519",
              "value": "3Zgwf62NYWrEv9shhzuytCy5ac3jKGzRVjQnOW++SJyxCgfweD0s5D9MjSvEmoIxvpLAHp19PwYVHj4K+HYCAg=="
            }
          },
          {
            "validator_address": "AC96444A9083890B7C7B430DB17BF1D3EA5EED04",
            "validator_index": "63",
            "height": "32346",
            "round": "1",
            "timestamp": "2018-08-01T11:47:44.316277277Z",
            "type": 2,
            "block_id": {
              "hash": "37262A40E92ED0F4186DAE2B142874532EA1CD94",
              "parts": {
                "total": "1",
                "hash": "734CEBA58772030CB77604A93C3E27C3FC715B63"
              }
            },
            "signature": {
              "type": "tendermint/SignatureEd25519",
              "value": "Gwgn+ki0GeBZDWtRv+5ruPhldqMk0TurIaVapDhBcsAdB6bj3zR0Z+RgCSmpHhey1S0q6aTcAfz4krwREQ6hAg=="
            }
          },
          {
            "validator_address": "ACB97FDA2D940AF0709B73537C458EB988AD2893",
            "validator_index": "64",
            "height": "32346",
            "round": "1",
            "timestamp": "2018-08-01T11:47:44.170487407Z",
            "type": 2,
            "block_id": {
              "hash": "37262A40E92ED0F4186DAE2B142874532EA1CD94",
              "parts": {
                "total": "1",
                "hash": "734CEBA58772030CB77604A93C3E27C3FC715B63"
              }
            },
            "signature": {
              "type": "tendermint/SignatureEd25519",
              "value": "Xww8jmb9YKj1aE+C5rWujM+m8+iJr9PBzmbMXVgzP2HXwY+NhjQ7ipXFOt44oUbyDumf8Efh2OPHF8df2XZSAw=="
            }
          },
          {
            "validator_address": "B197425B3210375F211661DE02EF2AE36580EB0F",
            "validator_index": "65",
            "height": "32346",
            "round": "1",
            "timestamp": "2018-08-01T11:47:44.227226838Z",
            "type": 2,
            "block_id": {
              "hash": "37262A40E92ED0F4186DAE2B142874532EA1CD94",
              "parts": {
                "total": "1",
                "hash": "734CEBA58772030CB77604A93C3E27C3FC715B63"
              }
            },
            "signature": {
              "type": "tendermint/SignatureEd25519",
              "value": "/l5RPe1eLXBnA75DgYWji7Rf8wLCGhT1FfN04J1vp8G/t/7gN0ATeTz+2yLI+MDUIDt3l+8ePzCaJy/HiPE6CQ=="
            }
          },
          {
            "validator_address": "B45E54D2D1CB5A4CCD1D49016608C18E7C56B270",
            "validator_index": "66",
            "height": "32346",
            "round": "1",
            "timestamp": "2018-08-01T11:47:44.296484372Z",
            "type": 2,
            "block_id": {
              "hash": "37262A40E92ED0F4186DAE2B142874532EA1CD94",
              "parts": {
                "total": "1",
                "hash": "734CEBA58772030CB77604A93C3E27C3FC715B63"
              }
            },
            "signature": {
              "type": "tendermint/SignatureEd25519",
              "value": "pbwTV6F6THXmtHYAVuIa6uTPO2EmwxAY3aXaWAgR4h2XOAbDzmicgYI0GJvGTHTwuCBA0VGCcPBsPz+nvqwuCA=="
            }
          },
          {
            "validator_address": "BB1276BE89834835428664408917649FEEF5D90C",
            "validator_index": "67",
            "height": "32346",
            "round": "1",
            "timestamp": "2018-08-01T11:47:44.273784171Z",
            "type": 2,
            "block_id": {
              "hash": "37262A40E92ED0F4186DAE2B142874532EA1CD94",
              "parts": {
                "total": "1",
                "hash": "734CEBA58772030CB77604A93C3E27C3FC715B63"
              }
            },
            "signature": {
              "type": "tendermint/SignatureEd25519",
              "value": "Ij4a7Gtm/pgmDYWVSm4dUfw6heexIagMh4184pY+fI5raEDPPt8gDvumZbYTFO2CgdMMi0WRPlz/AFy2xw1GBw=="
            }
          },
          {
            "validator_address": "BC36FEDD6EF6071118A3E51859DF3831A2EC4782",
            "validator_index": "68",
            "height": "32346",
            "round": "1",
            "timestamp": "2018-08-01T11:47:44.260852996Z",
            "type": 2,
            "block_id": {
              "hash": "37262A40E92ED0F4186DAE2B142874532EA1CD94",
              "parts": {
                "total": "1",
                "hash": "734CEBA58772030CB77604A93C3E27C3FC715B63"
              }
            },
            "signature": {
              "type": "tendermint/SignatureEd25519",
              "value": "P/hJt/s7uwYyy6ASUNtm7FAOak5mnJeWcLjD3QKAo3IQIGjdJNmc0CSk1PlRrbmavNboHB1wVnq+aILpL8ENBA=="
            }
          },
          {
            "validator_address": "BD9D0DA513BF099DB4BB6E725A4E19832789882F",
            "validator_index": "69",
            "height": "32346",
            "round": "1",
            "timestamp": "2018-08-01T11:47:44.231987867Z",
            "type": 2,
            "block_id": {
              "hash": "37262A40E92ED0F4186DAE2B142874532EA1CD94",
              "parts": {
                "total": "1",
                "hash": "734CEBA58772030CB77604A93C3E27C3FC715B63"
              }
            },
            "signature": {
              "type": "tendermint/SignatureEd25519",
              "value": "AZfnyh6RXLRqpJDXnMZFduh0mubEJpyalC3Pwq/uKfG0o4BEObCbqWX0RkZgPsdlp+QUmYY01NP08EmSqaPjCA=="
            }
          },
          {
            "validator_address": "C1134A2FF8F7338E7CDB3FE57DDD2A655DEB1E22",
            "validator_index": "70",
            "height": "32346",
            "round": "1",
            "timestamp": "2018-08-01T11:47:44.400459431Z",
            "type": 2,
            "block_id": {
              "hash": "37262A40E92ED0F4186DAE2B142874532EA1CD94",
              "parts": {
                "total": "1",
                "hash": "734CEBA58772030CB77604A93C3E27C3FC715B63"
              }
            },
            "signature": {
              "type": "tendermint/SignatureEd25519",
              "value": "SrVRDBooAxtDeV3Zfii/Xmf1XYm1+G5V/EWLmcK/BPP7QS1lnOchHqeVOIOrJPS1l1WCcBdh+z/QZdIaRiUECw=="
            }
          },
          {
            "validator_address": "C39A8A2B85198DCB8F23AD1F6C198E2BA7AB5D60",
            "validator_index": "71",
            "height": "32346",
            "round": "1",
            "timestamp": "2018-08-01T11:47:44.177247949Z",
            "type": 2,
            "block_id": {
              "hash": "37262A40E92ED0F4186DAE2B142874532EA1CD94",
              "parts": {
                "total": "1",
                "hash": "734CEBA58772030CB77604A93C3E27C3FC715B63"
              }
            },
            "signature": {
              "type": "tendermint/SignatureEd25519",
              "value": "oECoVC4N/gm9f8xsvmjr3soO0IrlU05resWdRsVD6vX2LWaU80k6rAmgNainquO3Boh8VoyPb0zb2WQEIvrjDw=="
            }
          },
          {
            "validator_address": "C4335190C3B5BD4BA5568BC0F99C34162D940D08",
            "validator_index": "72",
            "height": "32346",
            "round": "1",
            "timestamp": "2018-08-01T11:47:44.309614875Z",
            "type": 2,
            "block_id": {
              "hash": "37262A40E92ED0F4186DAE2B142874532EA1CD94",
              "parts": {
                "total": "1",
                "hash": "734CEBA58772030CB77604A93C3E27C3FC715B63"
              }
            },
            "signature": {
              "type": "tendermint/SignatureEd25519",
              "value": "aKsVD6y85RptMBQ+vR9pihLngVJdQUAoeBQUyCOOhVpC90aV2rvXCG9LFrbQgHR1wRC5E5CWP/cqdtkdi9PiDg=="
            }
          },
          {
            "validator_address": "C561CFA081677046376396922E7576E5F7B316AD",
            "validator_index": "73",
            "height": "32346",
            "round": "1",
            "timestamp": "2018-08-01T11:47:44.345847055Z",
            "type": 2,
            "block_id": {
              "hash": "37262A40E92ED0F4186DAE2B142874532EA1CD94",
              "parts": {
                "total": "1",
                "hash": "734CEBA58772030CB77604A93C3E27C3FC715B63"
              }
            },
            "signature": {
              "type": "tendermint/SignatureEd25519",
              "value": "MpmO8Wzf+bmu8DZtDOoa9eqOTXP78ldhxkitF2yqad+YmP4B4Bqo/Oh1VInhmNKBPjVD7fHPTd0L+iUEROdxDQ=="
            }
          },
          {
            "validator_address": "CE589EA77B056D268D30D1DC1D68A70E0F885E95",
            "validator_index": "74",
            "height": "32346",
            "round": "1",
            "timestamp": "2018-08-01T11:47:44.251996925Z",
            "type": 2,
            "block_id": {
              "hash": "37262A40E92ED0F4186DAE2B142874532EA1CD94",
              "parts": {
                "total": "1",
                "hash": "734CEBA58772030CB77604A93C3E27C3FC715B63"
              }
            },
            "signature": {
              "type": "tendermint/SignatureEd25519",
              "value": "zvf3xrEu0cjlgTwbc6IHZjiRsGi6h/o562ojz7p7bDvdpfmaxIESDCAAGNzZnS7hKC04kCbmc6Q1FYEUYqvHAA=="
            }
          },
          {
            "validator_address": "CEB97DB5CB18270247ABDE6CF2F84F9AEE8A2904",
            "validator_index": "75",
            "height": "32346",
            "round": "1",
            "timestamp": "2018-08-01T11:47:44.921849206Z",
            "type": 2,
            "block_id": {
              "hash": "37262A40E92ED0F4186DAE2B142874532EA1CD94",
              "parts": {
                "total": "1",
                "hash": "734CEBA58772030CB77604A93C3E27C3FC715B63"
              }
            },
            "signature": {
              "type": "tendermint/SignatureEd25519",
              "value": "IIzNoejjEgo4rwcIj3KNLIVr2y0QoBrH7VqSkxQ+hNcSokERmPw8GJiznLPpHSBjj8xSGBhiUdmvMJAxtoTNAg=="
            }
          },
          {
            "validator_address": "CF205769734F5758CC39F907EFB73D6BAF915FB1",
            "validator_index": "76",
            "height": "32346",
            "round": "1",
            "timestamp": "2018-08-01T11:47:44.38729214Z",
            "type": 2,
            "block_id": {
              "hash": "37262A40E92ED0F4186DAE2B142874532EA1CD94",
              "parts": {
                "total": "1",
                "hash": "734CEBA58772030CB77604A93C3E27C3FC715B63"
              }
            },
            "signature": {
              "type": "tendermint/SignatureEd25519",
              "value": "0DlG4axdf/hnNxmHvSxyzkjmb6RmQP3R2QhjHBpKyGjCenu/nEgDtc1RLTt7rqQn5bnMlcDdzS9CjaZl5wxHCw=="
            }
          },
          {
            "validator_address": "D2134B826A1E25A955905CB79A4D8731CAFA0CCE",
            "validator_index": "77",
            "height": "32346",
            "round": "1",
            "timestamp": "2018-08-01T11:47:44.374851505Z",
            "type": 2,
            "block_id": {
              "hash": "37262A40E92ED0F4186DAE2B142874532EA1CD94",
              "parts": {
                "total": "1",
                "hash": "734CEBA58772030CB77604A93C3E27C3FC715B63"
              }
            },
            "signature": {
              "type": "tendermint/SignatureEd25519",
              "value": "5IXhRtlD+uE73O07Q2d5YpoV3LU4hP/ajH2iYysc70C4QQLAOVtOiPdTthE/Vfrr1sPC8RY+kCwXuqZD6TjOBQ=="
            }
          },
          {
            "validator_address": "D6285C3422C8886445D53757CBE12D2B91B5A9D0",
            "validator_index": "78",
            "height": "32346",
            "round": "1",
            "timestamp": "2018-08-01T11:47:27.142073828Z",
            "type": 2,
            "block_id": {
              "hash": "37262A40E92ED0F4186DAE2B142874532EA1CD94",
              "parts": {
                "total": "1",
                "hash": "734CEBA58772030CB77604A93C3E27C3FC715B63"
              }
            },
            "signature": {
              "type": "tendermint/SignatureEd25519",
              "value": "C2nUnkkWtluhQ6Gpp71SzXQxLoVUgo4LfyT/KPKupWQdstuKJi2UHpwq8V+4rsAs7EXQqzbwqeU+bwV0SFQzBg=="
            }
          },
          {
            "validator_address": "D77FB84A729972CD3E757C9BEB61561855832B92",
            "validator_index": "79",
            "height": "32346",
            "round": "1",
            "timestamp": "2018-08-01T11:47:44.329178885Z",
            "type": 2,
            "block_id": {
              "hash": "37262A40E92ED0F4186DAE2B142874532EA1CD94",
              "parts": {
                "total": "1",
                "hash": "734CEBA58772030CB77604A93C3E27C3FC715B63"
              }
            },
            "signature": {
              "type": "tendermint/SignatureEd25519",
              "value": "D1Pz9VUY1ZK8wKBcXTsY0HzGAV9k9cxu98TmKPi/7aiqXg/PlCGs0UBCeErdDU3BQMnMc5Ai11N+XL5Tpkf/DQ=="
            }
          },
          {
            "validator_address": "DB7E6732471D3EA5C90C17A9974D9F88AB45F2FB",
            "validator_index": "80",
            "height": "32346",
            "round": "1",
            "timestamp": "2018-08-01T11:47:44.233304474Z",
            "type": 2,
            "block_id": {
              "hash": "37262A40E92ED0F4186DAE2B142874532EA1CD94",
              "parts": {
                "total": "1",
                "hash": "734CEBA58772030CB77604A93C3E27C3FC715B63"
              }
            },
            "signature": {
              "type": "tendermint/SignatureEd25519",
              "value": "8z/Pm+My5UgUmpEqWSJJ71pfR+NxpRJ9xhdNmwiER86a95YSpLd/x0n2dCREBXpOU9UjSJ7Iu0hYk2iPuN2uCQ=="
            }
          },
          {
            "validator_address": "DF54B862410BCD9B5C516FBB6C56BDC826ED6FA7",
            "validator_index": "81",
            "height": "32346",
            "round": "1",
            "timestamp": "2018-08-01T11:47:44.346924073Z",
            "type": 2,
            "block_id": {
              "hash": "37262A40E92ED0F4186DAE2B142874532EA1CD94",
              "parts": {
                "total": "1",
                "hash": "734CEBA58772030CB77604A93C3E27C3FC715B63"
              }
            },
            "signature": {
              "type": "tendermint/SignatureEd25519",
              "value": "nJgU5tG7fm5fD4W2thATbpErDFwrJQIKA7808wMiENvNVDYTzcqmHbb2c05hqIKEpeCTXkUazye/Dg7cs4H7Aw=="
            }
          },
          {
            "validator_address": "DFAF0C8B1B78D6D552B0189DE3ACA351439A1319",
            "validator_index": "82",
            "height": "32346",
            "round": "1",
            "timestamp": "2018-08-01T11:47:44.21923722Z",
            "type": 2,
            "block_id": {
              "hash": "37262A40E92ED0F4186DAE2B142874532EA1CD94",
              "parts": {
                "total": "1",
                "hash": "734CEBA58772030CB77604A93C3E27C3FC715B63"
              }
            },
            "signature": {
              "type": "tendermint/SignatureEd25519",
              "value": "d3zIe1e6nYPeDLqwvBC1o1nW/IMEbIWignBo9Fl1aVt8eMxRU/RryoFSxSxfLlPP0PBOBbX03WZP4cdLwA22Ag=="
            }
          },
          {
            "validator_address": "E1DBC77881161A5A3A8536A57536EAE546A75D69",
            "validator_index": "83",
            "height": "32346",
            "round": "1",
            "timestamp": "2018-08-01T11:47:44.205241315Z",
            "type": 2,
            "block_id": {
              "hash": "37262A40E92ED0F4186DAE2B142874532EA1CD94",
              "parts": {
                "total": "1",
                "hash": "734CEBA58772030CB77604A93C3E27C3FC715B63"
              }
            },
            "signature": {
              "type": "tendermint/SignatureEd25519",
              "value": "+UIN7zMB9ArkhV/7OdSulA+SkICECxT/96SNV4mY0bA/jl/rrlbCyo5/Y845aAsENB0RrIsf4IUA9iDwAAGtBg=="
            }
          },
          {
            "validator_address": "E300E9D484374C1D3E97C1D93CAC3B160A056298",
            "validator_index": "84",
            "height": "32346",
            "round": "1",
            "timestamp": "2018-08-01T11:47:44.540372476Z",
            "type": 2,
            "block_id": {
              "hash": "37262A40E92ED0F4186DAE2B142874532EA1CD94",
              "parts": {
                "total": "1",
                "hash": "734CEBA58772030CB77604A93C3E27C3FC715B63"
              }
            },
            "signature": {
              "type": "tendermint/SignatureEd25519",
              "value": "jB7TxOBmrx7hWqSXk1lyI6gurtTCWeOtYtvtYMs19QBVPQOHLPZCe5CbMorYZxabEdFKDa3pFU3GqAG9nkt1Dg=="
            }
          },
          {
            "validator_address": "E39B5778E0D4297A46F45CF6940B0A163A430FF8",
            "validator_index": "85",
            "height": "32346",
            "round": "1",
            "timestamp": "2018-08-01T11:47:44.227667135Z",
            "type": 2,
            "block_id": {
              "hash": "37262A40E92ED0F4186DAE2B142874532EA1CD94",
              "parts": {
                "total": "1",
                "hash": "734CEBA58772030CB77604A93C3E27C3FC715B63"
              }
            },
            "signature": {
              "type": "tendermint/SignatureEd25519",
              "value": "YG2IDVALsCUYqU6AF33S+elFHgx4ju2azuG2VyESy+gdbWcogUsjLvkGZgzBnUYufB+wAUp1jzPOeKx0hTc+Aw=="
            }
          },
          {
            "validator_address": "E3B19738F7132F950668504D326C7660F159D170",
            "validator_index": "86",
            "height": "32346",
            "round": "1",
            "timestamp": "2018-08-01T11:47:44.19416824Z",
            "type": 2,
            "block_id": {
              "hash": "37262A40E92ED0F4186DAE2B142874532EA1CD94",
              "parts": {
                "total": "1",
                "hash": "734CEBA58772030CB77604A93C3E27C3FC715B63"
              }
            },
            "signature": {
              "type": "tendermint/SignatureEd25519",
              "value": "dGm0WbfkL9+HSmshL38rtqUFakxyqjhXa/bNPu2/sTJwCT/7O3mmA/PFhkMouC1suUhgluv93D+rJ/3WVcehCg=="
            }
          },
          {
            "validator_address": "E42F8AEABB685219F7027F54D2B0DBC7846F633A",
            "validator_index": "87",
            "height": "32346",
            "round": "1",
            "timestamp": "2018-08-01T11:47:43.270306231Z",
            "type": 2,
            "block_id": {
              "hash": "37262A40E92ED0F4186DAE2B142874532EA1CD94",
              "parts": {
                "total": "1",
                "hash": "734CEBA58772030CB77604A93C3E27C3FC715B63"
              }
            },
            "signature": {
              "type": "tendermint/SignatureEd25519",
              "value": "GjpcaU7rruEDoYsNGbD3RQn/y+i8viYM5zie+UjshpX7Eca4Wo+qah00su0BIo1G30WP11sACqmQcshav3y4Bg=="
            }
          },
          {
            "validator_address": "E4E6C2E81269DFFA196C17F98240E491479A6008",
            "validator_index": "88",
            "height": "32346",
            "round": "1",
            "timestamp": "2018-08-01T11:47:44.277612908Z",
            "type": 2,
            "block_id": {
              "hash": "37262A40E92ED0F4186DAE2B142874532EA1CD94",
              "parts": {
                "total": "1",
                "hash": "734CEBA58772030CB77604A93C3E27C3FC715B63"
              }
            },
            "signature": {
              "type": "tendermint/SignatureEd25519",
              "value": "dby92I6aT6kV0TaGyzpZ1JGGEvpKNhpfFacaocSmdiwrHL+MEyO4xT/INs2O6cqYNxRWFMYH8h14oblmExlQBg=="
            }
          },
          {
            "validator_address": "E4FEB2846F4F3B0ECDCBE9C9DCB2248248A5AF0F",
            "validator_index": "89",
            "height": "32346",
            "round": "1",
            "timestamp": "2018-08-01T11:47:44.544129474Z",
            "type": 2,
            "block_id": {
              "hash": "37262A40E92ED0F4186DAE2B142874532EA1CD94",
              "parts": {
                "total": "1",
                "hash": "734CEBA58772030CB77604A93C3E27C3FC715B63"
              }
            },
            "signature": {
              "type": "tendermint/SignatureEd25519",
              "value": "WgKruMCt2HGHts+yyj33xuQYuqMuhOwluFHuvaKdB8KAr/6RTF9Nov3pemEI2KIxHXEEDY+2Ayy9gE545ERaCA=="
            }
          },
          {
            "validator_address": "E6A7079D584B163750BE0831227F6B685DEAF3C1",
            "validator_index": "90",
            "height": "32346",
            "round": "1",
            "timestamp": "2018-08-01T11:47:44.302447957Z",
            "type": 2,
            "block_id": {
              "hash": "37262A40E92ED0F4186DAE2B142874532EA1CD94",
              "parts": {
                "total": "1",
                "hash": "734CEBA58772030CB77604A93C3E27C3FC715B63"
              }
            },
            "signature": {
              "type": "tendermint/SignatureEd25519",
              "value": "ZMSIGu6BWFzQ5gxOJWaNHsG2qeTTICEwXX4sybyeXoaIRotS9Xfl9AVWn1kCPJSQAmOQDRBfEuITxvXbCrCeAg=="
            }
          },
          {
            "validator_address": "E7A30077D5D11867D3EAF99ED45BFDC1EB834509",
            "validator_index": "91",
            "height": "32346",
            "round": "1",
            "timestamp": "2018-08-01T11:47:44.261051643Z",
            "type": 2,
            "block_id": {
              "hash": "37262A40E92ED0F4186DAE2B142874532EA1CD94",
              "parts": {
                "total": "1",
                "hash": "734CEBA58772030CB77604A93C3E27C3FC715B63"
              }
            },
            "signature": {
              "type": "tendermint/SignatureEd25519",
              "value": "2cHoEijUjg3c633P4ZByc3iCWp9ubSihOkVB2RgR7rvfZlTA29RxhJBJN3Mf6xMroadlxtIdXNOIbZQxqZwNBQ=="
            }
          },
          {
            "validator_address": "EBC613967F66F4EC306852CDF58B4F151CF16738",
            "validator_index": "92",
            "height": "32346",
            "round": "1",
            "timestamp": "2018-08-01T11:47:44.283564352Z",
            "type": 2,
            "block_id": {
              "hash": "37262A40E92ED0F4186DAE2B142874532EA1CD94",
              "parts": {
                "total": "1",
                "hash": "734CEBA58772030CB77604A93C3E27C3FC715B63"
              }
            },
            "signature": {
              "type": "tendermint/SignatureEd25519",
              "value": "6z6+Cz7Wwch1HdMApbJeWghjRMoh9rtdhszH04znXdoPgJNqpY6QCDhuHvOAmZaS9/0dbov2rCrJbOWJP3BXCQ=="
            }
          },
          {
            "validator_address": "EC3401441726C40ECC7E51F744483B05BC6DE9BD",
            "validator_index": "93",
            "height": "32346",
            "round": "1",
            "timestamp": "2018-08-01T11:47:44.23446565Z",
            "type": 2,
            "block_id": {
              "hash": "37262A40E92ED0F4186DAE2B142874532EA1CD94",
              "parts": {
                "total": "1",
                "hash": "734CEBA58772030CB77604A93C3E27C3FC715B63"
              }
            },
            "signature": {
              "type": "tendermint/SignatureEd25519",
              "value": "ELcysOyeDYVvPqwlN+ThU7IvrUeWGEpBFljFgONfq6CsL4jnHoY5GY3JpvJ8U/3y0hWVjoYlc7MQw3yxKQsyAA=="
            }
          },
          {
            "validator_address": "EC95B111D032181E1EC3B5E8875C5BB8E4AE7140",
            "validator_index": "94",
            "height": "32346",
            "round": "1",
            "timestamp": "2018-08-01T11:47:44.194074315Z",
            "type": 2,
            "block_id": {
              "hash": "37262A40E92ED0F4186DAE2B142874532EA1CD94",
              "parts": {
                "total": "1",
                "hash": "734CEBA58772030CB77604A93C3E27C3FC715B63"
              }
            },
            "signature": {
              "type": "tendermint/SignatureEd25519",
              "value": "t36rowzIJ9/3WmVtX/fNYkZbp/a8pCAZksVZdVOeBL4mgdNVr52HcMgcW3jyJa6edBGHI9yW8zDgNtcgJiiMAg=="
            }
          },
          {
            "validator_address": "F13C1805E8131C9B47E2A46818F57D8A2841E578",
            "validator_index": "95",
            "height": "32346",
            "round": "1",
            "timestamp": "2018-08-01T11:47:44.315169914Z",
            "type": 2,
            "block_id": {
              "hash": "37262A40E92ED0F4186DAE2B142874532EA1CD94",
              "parts": {
                "total": "1",
                "hash": "734CEBA58772030CB77604A93C3E27C3FC715B63"
              }
            },
            "signature": {
              "type": "tendermint/SignatureEd25519",
              "value": "LkPVp3Sz8XvuSL7lY8Rti4O3PJzh5V/mF3gi2uWQ5/H3IXZPeNIAQeU1xmEUix46eR5rC+4uoERWCKOessdrCw=="
            }
          },
          {
            "validator_address": "F23FF36BD5B90C33CE3A03ED72DBDCF5EC07D6AF",
            "validator_index": "96",
            "height": "32346",
            "round": "1",
            "timestamp": "2018-08-01T11:47:44.2430339Z",
            "type": 2,
            "block_id": {
              "hash": "37262A40E92ED0F4186DAE2B142874532EA1CD94",
              "parts": {
                "total": "1",
                "hash": "734CEBA58772030CB77604A93C3E27C3FC715B63"
              }
            },
            "signature": {
              "type": "tendermint/SignatureEd25519",
              "value": "C+PYhzrGgA+0tf8uN9zw3Wqwxn/rtbRpqi6TfbI50WHgZl5FiVnF+KuJyt8bPIRH4/MlSzPQKvkXv0B99bTuDg=="
            }
          },
          {
            "validator_address": "F4268597DE93E3E2CED38845010F8AA34E2A879E",
            "validator_index": "97",
            "height": "32346",
            "round": "1",
            "timestamp": "2018-08-01T11:47:44.362479111Z",
            "type": 2,
            "block_id": {
              "hash": "37262A40E92ED0F4186DAE2B142874532EA1CD94",
              "parts": {
                "total": "1",
                "hash": "734CEBA58772030CB77604A93C3E27C3FC715B63"
              }
            },
            "signature": {
              "type": "tendermint/SignatureEd25519",
              "value": "/roiIcZ5AAeBmJ46YsV3h23kLKoFulZhZo5Fdc1Q5fWWbsRfcl99HPDjrk195CVp6yIT6M1iNVy6ArTiapGoBA=="
            }
          },
          {
            "validator_address": "F4DEB417999B04BE2EFF9FFE03FA373D86011CC0",
            "validator_index": "98",
            "height": "32346",
            "round": "1",
            "timestamp": "2018-08-01T11:47:44.269639822Z",
            "type": 2,
            "block_id": {
              "hash": "37262A40E92ED0F4186DAE2B142874532EA1CD94",
              "parts": {
                "total": "1",
                "hash": "734CEBA58772030CB77604A93C3E27C3FC715B63"
              }
            },
            "signature": {
              "type": "tendermint/SignatureEd25519",
              "value": "kvP2zcmYVr39Efz4fEH2b24EeY9B98Gk8nyIcaBSno1vbOWOKdofAlNdJiq4Ml/z2AmBQ6iVs6D47mpiHo3yBA=="
            }
          },
          {
            "validator_address": "F6738260186D33D9C14FC6E7017AFE6BB952A63D",
            "validator_index": "99",
            "height": "32346",
            "round": "1",
            "timestamp": "2018-08-01T11:47:44.280012632Z",
            "type": 2,
            "block_id": {
              "hash": "37262A40E92ED0F4186DAE2B142874532EA1CD94",
              "parts": {
                "total": "1",
                "hash": "734CEBA58772030CB77604A93C3E27C3FC715B63"
              }
            },
            "signature": {
              "type": "tendermint/SignatureEd25519",
              "value": "/vepeSqSJlcd1x7pLRoHzWM8bzaofj2EZppVFt2a9ufxNTYGNrGjhOE//mSzkjbwoqMIt5fb4WdmoeHhrS1DBQ=="
            }
          },
          {
            "validator_address": "FF3F3FCBCE7E62D7AD5506FF846EC4518D980515",
            "validator_index": "100",
            "height": "32346",
            "round": "1",
            "timestamp": "2018-08-01T11:47:44.166578507Z",
            "type": 2,
            "block_id": {
              "hash": "37262A40E92ED0F4186DAE2B142874532EA1CD94",
              "parts": {
                "total": "1",
                "hash": "734CEBA58772030CB77604A93C3E27C3FC715B63"
              }
            },
            "signature": {
              "type": "tendermint/SignatureEd25519",
              "value": "qk5taBZIK53RsUxvJpYqJ2yeYc/OGpOxWMX+qul9WgUBNeNW7+Cv5BIo3yaANLXyH/MQzAdl+Uab3gig3zzBBw=="
            }
          }
        ]
      }
    },
    "canonical": true
  }
}