{
  "jsonrpc": "2.0",
  "id": "",
  "result": {
    "SignedHeader": {
      "header": {
        "chain_id": "gaia-7004",
        "height": "33056",
        "time": "2018-08-01T12:59:27.571118442Z",
        "num_txs": "0",
        "last_block_id": {
          "hash": "9DBC28AB160EE8A0AA73BE1E9BC1EBF16E43A57E",
          "parts": {
            "total": "1",
            "hash": "8687F07C5EA2581DBFB8D71BE72008B041A261C1"
          }
        },
        "total_txs": "1765",
        "last_commit_hash": "F0984A0A6CE9D5A866844712D55F1E217F08D632",
        "data_hash": "",
        "validators_hash": "C12E9D5D25D137A341A7FD8AC800BC06160BA04F",
        "consensus_hash": "D6B74BB35BDFFD8392340F2A379173548AE188FE",
        "app_hash": "7C18A69CE271AE3A3F9577DDB12E67FF4B81C264",
        "last_results_hash": "",
        "evidence_hash": ""
      },
      "commit": {
        "block_id": {
          "hash": "A8637322DB5C9D876BD6785868DEEEE1775F0D97",
          "parts": {
            "total": "1",
            "hash": "1BCAF7EE780E3B54A5CCF600FFE70A3A8D417F20"
          }
        },
        "precommits": [
          {
            "validator_address": "029359C0C768096273A68ABC902A6B17AC8D1D70",
            "validator_index": "0",
            "height": "33056",
            "round": "1",
            "timestamp": "2018-08-01T12:59:28.534044106Z",
            "type": 2,
            "block_id": {
              "hash": "A8637322DB5C9D876BD6785868DEEEE1775F0D97",
              "parts": {
                "total": "1",
                "hash": "1BCAF7EE780E3B54A5CCF600FFE70A3A8D417F20"
              }
            },
            "signature": {
              "type": "tendermint/SignatureEd25519",
              "value": "JnmvA4d3/Z1jQhMfU0+ajPoj8lUEY4X0pWosemBxg4MFphlUNCeZMJmws1044E1AeVDLRGLCU6tUGDiqFUTWBA=="
            }
          },
          {
            "validator_address": "02FE4B97A8387F39D1AC19E0C1702B3CC614812F",
            "validator_index": "1",
            "height": "33056",
            "round": "1",
            "timestamp": "2018-08-01T12:59:28.48718657Z",
            "type": 2,
            "block_id": {
              "hash": "A8637322DB5C9D876BD6785868DEEEE1775F0D97",
              "parts": {
                "total": "1",
                "hash": "1BCAF7EE780E3B54A5CCF600FFE70A3A8D417F20"
              }
            },
            "signature": {
              "type": "tendermint/SignatureEd25519",
              "value": "OU1R9yKbjQbWyB2QyKTTJgrH/0aYqDajYNnfieuF2/QWY8ZOtpvYPBLwlVUjZyf5RHL+7Vg3dry67NEGj9RiCg=="
            }
          },
          {
            "validator_address": "0548261C50222FD710EB5EBDF03A0E6567B21D20",
            "validator_index": "2",
            "height": "33056",
            "round": "1",
            "timestamp": "2018-08-01T12:59:28.607995869Z",
            "type": 2,
            "block_id": {
              "hash": "A8637322DB5C9D876BD6785868DEEEE1775F0D97",
              "parts": {
                "total": "1",
                "hash": "1BCAF7EE780E3B54A5CCF600FFE70A3A8D417F20"
              }
            },
            "signature": {
              "type": "tendermint/SignatureEd25519",
              "value": "23kc1yCN4V0U2T+T/Ind3vMundAg6Ik0FBDIkDkx8vIcHfSwSQmMyCdZrWjBD4/sC/cgupfHxumTSE/5Pm6aCg=="
            }
          },
          {
            "validator_address": "0665ADBF9B120B7617BF955AA5653A1992C82B11",
            "validator_index": "3",
            "height": "33056",
            "round": "1",
            "timestamp": "2018-08-01T12:59:28.601594576Z",
            "type": 2,
            "block_id": {
              "hash": "A8637322DB5C9D876BD6785868DEEEE1775F0D97",
              "parts": {
                "total": "1",
                "hash": "1BCAF7EE780E3B54A5CCF600FFE70A3A8D417F20"
              }
            },
            "signature": {
              "type": "tendermint/SignatureEd25519",
              "value": "raiXw5qSS8TUe+m9PQvGVFzM/OcNUglwHdFX6sCB2hP839v4i9sj+1xnF79zQTm7Yo92wlcCbUSsuBZbXvUvDw=="
            }
          },
          {
            "validator_address": "09145E611CC27EEB944FC5A956DDF710F943B9EF",
            "validator_index": "4",
            "height": "33056",
            "round": "1",
            "timestamp": "2018-08-01T12:59:28.544268506Z",
            "type": 2,
            "block_id": {
              "hash": "A8637322DB5C9D876BD6785868DEEEE1775F0D97",
              "parts": {
                "total": "1",
                "hash": "1BCAF7EE780E3B54A5CCF600FFE70A3A8D417F20"
              }
            },
            "signature": {
              "type": "tendermint/SignatureEd25519",
              "value": "nKYaeOKwHVAt8dUaNDn8Qd0RD2ixIKO5HYfXjnpBVXIXpnvwZy6G0WHgUw0VlHqMTQL1c2m7ajIz9cMRtZRbCQ=="
            }
          },
          {
            "validator_address": "0989D0355A104B67AE0AE028C68FB610690E174B",
            "validator_index": "5",
            "height": "33056",
            "round": "1",
            "timestamp": "2018-08-01T12:59:28.57658161Z",
            "type": 2,
            "block_id": {
              "hash": "A8637322DB5C9D876BD6785868DEEEE1775F0D97",
              "parts": {
                "total": "1",
                "hash": "1BCAF7EE780E3B54A5CCF600FFE70A3A8D417F20"
              }
            },
            "signature": {
              "type": "tendermint/SignatureEd25519",
              "value": "0dTUczB+OlYxwW99BE0Hg1Y0syfQfRecJoMMQScMt3+BkMXr0fW5BxHOP3NKfMAITpZce73nQMORwiUrTUGsAA=="
            }
          },
          {
            "validator_address": "0A692DBFFE9E5DD28E7DECC33CED1AEB4C0D014E",
            "validator_index": "6",
            "height": "33056",
            "round": "1",
            "timestamp": "2018-08-01T12:59:28.663165016Z",
            "type": 2,
            "block_id": {
              "hash": "A8637322DB5C9D876BD6785868DEEEE1775F0D97",
              "parts": {
                "total": "1",
                "hash": "1BCAF7EE780E3B54A5CCF600FFE70A3A8D417F20"
              }
            },
            "signature": {
              "type": "tendermint/SignatureEd25519",
              "value": "svLTJG5j3BJi/xKF4/YYhubDrwEl6Q6ohjESYANcB2KPvWfRH1vUGC3o25/7Ba3SpkCqF+Nxv0GIKi+bCjEeAA=="
            }
          },
          {
            "validator_address": "0DDF97111D73DB825138EC15EC27DE5FE8536901",
            "validator_index": "7",
            "height": "33056",
            "round": "1",
            "timestamp": "2018-08-01T12:59:28.647912546Z",
            "type": 2,
            "block_id": {
              "hash": "A8637322DB5C9D876BD6785868DEEEE1775F0D97",
              "parts": {
                "total": "1",
                "hash": "1BCAF7EE780E3B54A5CCF600FFE70A3A8D417F20"
              }
            },
            "signature": {
              "type": "tendermint/SignatureEd25519",
              "value": "Rw1rzOQt8by7as4VPl6lg7zayMqCmr17rH5sXOEcue/ac3UUJ8n1/6QELJtRirjubWUUyI0bUzYpLyLHsBGzAg=="
            }
          },
          {
            "validator_address": "1751786EFC085D5331C61168FFFC8202EA151B4E",
            "validator_index": "8",
            "height": "33056",
            "round": "1",
            "timestamp": "2018-08-01T12:59:28.157968089Z",
            "type": 2,
            "block_id": {
              "hash": "A8637322DB5C9D876BD6785868DEEEE1775F0D97",
              "parts": {
                "total": "1",
                "hash": "1BCAF7EE780E3B54A5CCF600FFE70A3A8D417F20"
              }
            },
            "signature": {
              "type": "tendermint/SignatureEd25519",
              "value": "GLc3cQibkxoz9js/ixrrHw2egOzEpsGqkyjLnseTJLGGTSAFALFG2YmMsRYU+pd1r09Il6V9DX5DTdG4any8Bw=="
            }
          },
          {
            "validator_address": "17BB5CD01E8940FAFB948A04D5FA5A0645E5822E",
            "validator_index": "9",
            "height": "33056",
            "round": "1",
            "timestamp": "2018-08-01T12:59:28.533625518Z",
            "type": 2,
            "block_id": {
              "hash": "A8637322DB5C9D876BD6785868DEEEE1775F0D97",
              "parts": {
                "total": "1",
                "hash": "1BCAF7EE780E3B54A5CCF600FFE70A3A8D417F20"
              }
            },
            "signature": {
              "type": "tendermint/SignatureEd25519",
              "value": "tQVDS5tVApBAqiDpklokKNa3Eu3y9XtrNEk8td/bdCGKK7TQfTWS41ll/n+EiafnL18LJ7CRe5GNh2w01RBiCQ=="
            }
          },
          {
            "validator_address": "1C683A87904BC38F05004FE83301A3A3E35447EB",
            "validator_index": "10",
            "height": "33056",
            "round": "1",
            "timestamp": "2018-08-01T12:59:28.492358117Z",
            "type": 2,
            "block_id": {
              "hash": "A8637322DB5C9D876BD6785868DEEEE1775F0D97",
              "parts": {
                "total": "1",
                "hash": "1BCAF7EE780E3B54A5CCF600FFE70A3A8D417F20"
              }
            },
            "signature": {
              "type": "tendermint/SignatureEd25519",
              "value": "s5ZTFxPva2/XZdTULnwuitzv+Jctel47cYcBqv9cmFZ9jMqPRpFf1RL7M1x5JSuFUQg8v9nwpVnJGQPA44IXAA=="
            }
          },
          {
            "validator_address": "1E9CE94FD0BA5CFEB901F90BC658D64D85B134D2",
            "validator_index": "11",
            "height": "33056",
            "round": "1",
            "timestamp": "2018-08-01T12:59:28.573763942Z",
            "type": 2,
            "block_id": {
              "hash": "A8637322DB5C9D876BD6785868DEEEE1775F0D97",
              "parts": {
                "total": "1",
                "hash": "1BCAF7EE780E3B54A5CCF600FFE70A3A8D417F20"
              }
            },
            "signature": {
              "type": "tendermint/SignatureEd25519",
              "value": "TiO86BXYg/p/Dt1ntnpsHNmo5v/Fuq6DT34G2IG5rBWCviy1xN75OUa9hUVxZo3ZK3OKVE8Xf7UT3ovUpmzqCg=="
            }
          },
          {
            "validator_address": "1ECD8C5FE1341D74CDC633A245DD56858DE2F9A2",
            "validator_index": "12",
            "height": "33056",
            "round": "1",
            "timestamp": "2018-08-01T12:59:28.63817175Z",
            "type": 2,
            "block_id": {
              "hash": "A8637322DB5C9D876BD6785868DEEEE1775F0D97",
              "parts": {
                "total": "1",
                "hash": "1BCAF7EE780E3B54A5CCF600FFE70A3A8D417F20"
              }
            },
            "signature": {
              "type": "tendermint/SignatureEd25519",
              "value": "tkE4lTC4LyOWytyCkPZpuXcLQIzWzGlrCsNzKAcKHC5wjYFpJLjHFAQP/VPGQhayXFKISGmbsqsOJ4i9Z+c4Cw=="
            }
          },
          {
            "validator_address": "1F3A68CAAD483768AA2BF667DEF10F7104C89928",
            "validator_index": "13",
            "height": "33056",
            "round": "1",
            "timestamp": "2018-08-01T12:59:28.571727863Z",
            "type": 2,
            "block_id": {
              "hash": "A8637322DB5C9D876BD6785868DEEEE1775F0D97",
              "parts": {
                "total": "1",
                "hash": "1BCAF7EE780E3B54A5CCF600FFE70A3A8D417F20"
              }
            },
            "signature": {
              "type": "tendermint/SignatureEd25519",
              "value": "+j1hgmSfkheqYdVzyAhceyds0tHlT/UUIGnd9JKInGIaXUwzGvnxN9JostlmDqqyCpupbRNI+j2y5JonZ9WuDw=="
            }
          },
          {
            "validator_address": "1F61153F26C2DF27E15874268D30326287323352",
            "validator_index": "14",
            "height": "33056",
            "round": "1",
            "timestamp": "2018-08-01T12:59:28.64670443Z",
            "type": 2,
            "block_id": {
              "hash": "A8637322DB5C9D876BD6785868DEEEE1775F0D97",
              "parts": {
                "total": "1",
                "hash": "1BCAF7EE780E3B54A5CCF600FFE70A3A8D417F20"
              }
            },
            "signature": {
              "type": "tendermint/SignatureEd25519",
              "value": "J8uiO/edJoYM2ANH1WXoq/j4nX+a1CjhfZEWB5t12f0gtxJOlMpWdwepwNpRk0SSf138a2w/fvpLeFHR5nNtDg=="
            }
          },
          {
            "validator_address": "23897586D68E2AC1C78E0EF5BB5DF5C8EAB18F50",
            "validator_index": "15",
            "height": "33056",
            "round": "1",
            "timestamp": "2018-08-01T12:59:28.538618949Z",
            "type": 2,
            "block_id": {
              "hash": "A8637322DB5C9D876BD6785868DEEEE1775F0D97",
              "parts": {
                "total": "1",
                "hash": "1BCAF7EE780E3B54A5CCF600FFE70A3A8D417F20"
              }
            },
            "signature": {
              "type": "tendermint/SignatureEd25519",
              "value": "LrBcEnx2mIfKQ1ZpJJjG6497WevJANZk053zg68YNi6kJlCYMS1izlIxnG/l8oevz0/QbLg0Ha+UN2DEgTcLBQ=="
            }
          },
          {
            "validator_address": "28770D17E8530825E7310A0659308654B7EC9682",
            "validator_index": "16",
            "height": "33056",
            "round": "1",
            "timestamp": "2018-08-01T12:59:28.50792364Z",
            "type": 2,
            "block_id": {
              "hash": "A8637322DB5C9D876BD6785868DEEEE1775F0D97",
              "parts": {
                "total": "1",
                "hash": "1BCAF7EE780E3B54A5CCF600FFE70A3A8D417F20"
              }
            },
            "signature": {
              "type": "tendermint/SignatureEd25519",
              "value": "S+DMs9asJajmhp+PCLXO4gxVMvnAisfsqSQcfdF9kFrSvk9H0ZZgQi6DmWnAHcpaQdF8RbT6auUz0UruJOmxBA=="
            }
          },
          {
            "validator_address": "2A92EC3C642140202298D0E245095E0ECFC25228",
            "validator_index": "17",
            "height": "33056",
            "round": "1",
            "timestamp": "2018-08-01T12:59:28.570656217Z",
            "type": 2,
            "block_id": {
              "hash": "A8637322DB5C9D876BD6785868DEEEE1775F0D97",
              "parts": {
                "total": "1",
                "hash": "1BCAF7EE780E3B54A5CCF600FFE70A3A8D417F20"
              }
            },
            "signature": {
              "type": "tendermint/SignatureEd25519",
              "value": "k1mTdPzSzIdA+dxnG+CdwtiQjf7/9xbHxUVBTxlmX2GJWthuYYOkr0SYRr8v4wx4dSrZPe/77a1jlKrGaSnRAw=="
            }
          },
          {
            "validator_address": "33412C9A69C60CB0FAA24A5C5B3A906DE24B47C2",
            "validator_index": "18",
            "height": "33056",
            "round": "1",
            "timestamp": "2018-08-01T12:59:28.540830514Z",
            "type": 2,
            "block_id": {
              "hash": "A8637322DB5C9D876BD6785868DEEEE1775F0D97",
              "parts": {
                "total": "1",
                "hash": "1BCAF7EE780E3B54A5CCF600FFE70A3A8D417F20"
              }
            },
            "signature": {
              "type": "tendermint/SignatureEd25519",
              "value": "uezqhTsyGfKAo6ktAsOcVnuAhCd7oi7+m14EnsVLmQX37GcMuuEPUF+B6R4D4dF0pZCI9F7O7+fAoD18n5tuAQ=="
            }
          },
          {
            "validator_address": "36E9B7FAEC964F97D84C028ED62493E373AD0B38",
            "validator_index": "19",
            "height": "33056",
            "round": "1",
            "timestamp": "2018-08-01T12:59:28.658855517Z",
            "type": 2,
            "block_id": {
              "hash": "A8637322DB5C9D876BD6785868DEEEE1775F0D97",
              "parts": {
                "total": "1",
                "hash": "1BCAF7EE780E3B54A5CCF600FFE70A3A8D417F20"
              }
            },
            "signature": {
              "type": "tendermint/SignatureEd25519",
              "value": "2z4y/HJR8UPrbVPAgzHQ8Ea6x5qX1L/b7qq59aBbl6aHnJpPMRbYmUm+4/FBkc5Md+s1+MmvUUBs2m+zNvw9CA=="
            }
          },
          {
            "validator_address": "38A8D85D36BEA2E5FCF8A1E778F53628E450EF13",
            "validator_index": "20",
            "height": "33056",
            "round": "1",
            "timestamp": "2018-08-01T12:59:28.638298717Z",
            "type": 2,
            "block_id": {
              "hash": "A8637322DB5C9D876BD6785868DEEEE1775F0D97",
              "parts": {
                "total": "1",
                "hash": "1BCAF7EE780E3B54A5CCF600FFE70A3A8D417F20"
              }
            },
            "signature": {
              "type": "tendermint/SignatureEd25519",
              "value": "MxqcoOxhq/YbHq6kiyDuqjKRDO6/EueLCiCZRWrOvRjlb1t9hQa5Yqv2/BdyWuVw7wZ3cEDSGWCP7Rdx2HxKAQ=="
            }
          },
          {
            "validator_address": "39DFDA0C5DB84B269642188B23253508537798E6",
            "validator_index": "21",
            "height": "33056",
            "round": "1",
            "timestamp": "2018-08-01T12:59:28.486851219Z",
            "type": 2,
            "block_id": {
              "hash": "A8637322DB5C9D876BD6785868DEEEE1775F0D97",
              "parts": {
                "total": "1",
                "hash": "1BCAF7EE780E3B54A5CCF600FFE70A3A8D417F20"
              }
            },
            "signature": {
              "type": "tendermint/SignatureEd25519",
              "value": "bnT9GUnQmybRJdb7XQ9U7M08VKzHglfcs1rXdfrV/qRNxDW6+PiFZt1r6sH3P9+lY5Qa+xKV/wJmsm6IehGOBA=="
            }
          },
          {
            "validator_address": "3AC99B708404452366E0953A4BE849226DC86CBC",
            "validator_index": "22",
            "height": "33056",
            "round": "1",
            "timestamp": "2018-08-01T12:59:28.48168848Z",
            "type": 2,
            "block_id": {
              "hash": "A8637322DB5C9D876BD6785868DEEEE1775F0D97",
              "parts": {
                "total": "1",
                "hash": "1BCAF7EE780E3B54A5CCF600FFE70A3A8D417F20"
              }
            },
            "signature": {
              "type": "tendermint/SignatureEd25519",
              "value": "E/qvxrKPYPoDZNxrShmNITcbnOTgm8QD9P7GraVY8C0DrXzKEdyaVSoB5Y2dlhCpsKCmsebruzoi4s1AMqPLDA=="
            }
          },
          {
            "validator_address": "3DCB822A10ED319EC7C4393D8E3FD4A41B15AAF2",
            "validator_index": "23",
            "height": "33056",
            "round": "1",
            "timestamp": "2018-08-01T12:59:28.507520018Z",
            "type": 2,
            "block_id": {
              "hash": "A8637322DB5C9D876BD6785868DEEEE1775F0D97",
              "parts": {
                "total": "1",
                "hash": "1BCAF7EE780E3B54A5CCF600FFE70A3A8D417F20"
              }
            },
            "signature": {
              "type": "tendermint/SignatureEd25519",
              "value": "JCX6Vjx+1vKPIO7HO4uRwjUgQlYpVB5CLS3nthtHMA/byWW2gNE8u76YOEBRtjoerP1/6/co07ddvVZfjA/SCg=="
            }
          },
          {
            "validator_address": "3E899BA36A93C7370347BD5FE85909F2ECD93F8C",
            "validator_index": "24",
            "height": "33056",
            "round": "1",
            "timestamp": "2018-08-01T12:59:28.529619901Z",
            "type": 2,
            "block_id": {
              "hash": "A8637322DB5C9D876BD6785868DEEEE1775F0D97",
              "parts": {
                "total": "1",
                "hash": "1BCAF7EE780E3B54A5CCF600FFE70A3A8D417F20"
              }
            },
            "signature": {
              "type": "tendermint/SignatureEd25519",
              "value": "DBkvTRPPmyGHFAh36b9YDRuA3TjVp2u/w5RLUEZdrI94xtrqfuCmAHCqGdmRQumRB6r6xPhaXMM1gbGo7d5/AQ=="
            }
          },
          {
            "validator_address": "41CAB2E29E7D0F2282E3275938F188FF9386B84C",
            "validator_index": "25",
            "height": "33056",
            "round": "1",
            "timestamp": "2018-08-01T12:59:28.566177424Z",
            "type": 2,
            "block_id": {
              "hash": "A8637322DB5C9D876BD6785868DEEEE1775F0D97",
              "parts": {
                "total": "1",
                "hash": "1BCAF7EE780E3B54A5CCF600FFE70A3A8D417F20"
              }
            },
            "signature": {
              "type": "tendermint/SignatureEd25519",
              "value": "JiQC/iBIpsI4ekp2wrrszFz6jXGVP5IpEOY4ysCKKubj4T7mT8bFaHhMpyKZeiiqCwfLv3hX2bLHYEfZceWjBA=="
            }
          },
          {
            "validator_address": "462B656869DB02A8FD1077E255F8CC7401DC37C6",
            "validator_index": "26",
            "height": "33056",
            "round": "1",
            "timestamp": "2018-08-01T12:59:28.522743396Z",
            "type": 2,
            "block_id": {
              "hash": "A8637322DB5C9D876BD6785868DEEEE1775F0D97",
              "parts": {
                "total": "1",
                "hash": "1BCAF7EE780E3B54A5CCF600FFE70A3A8D417F20"
              }
            },
            "signature": {
              "type": "tendermint/SignatureEd25519",
              "value": "gE/LNNuhcxYsTMMfUA7KPIP09ziuQ3lswhZYNiW6jggqBSqJLNcE1vgH7Sm3P+iJTYxS2r5QfHkV1TlsnoUiBg=="
            }
          },
          {
            "validator_address": "48E5118163E5442068A1B5A42D2EEDBB75724935",
            "validator_index": "27",
            "height": "33056",
            "round": "1",
            "timestamp": "2018-08-01T12:59:28.651442366Z",
            "type": 2,
            "block_id": {
              "hash": "A8637322DB5C9D876BD6785868DEEEE1775F0D97",
              "parts": {
                "total": "1",
                "hash": "1BCAF7EE780E3B54A5CCF600FFE70A3A8D417F20"
              }
            },
            "signature": {
              "type": "tendermint/SignatureEd25519",
              "value": "OiKz48DzKgSD+E7GIm/uwucumQ8hoQ308uod2WE0uadPMVbWANqyaCoTuSypdx7j6N2XfhZI+uOy6TepBDFmDw=="
            }
          },
          {
            "validator_address": "49103C58AFD9C7C069F55EBA218F3DFD9AEA74F9",
            "validator_index": "28",
            "height": "33056",
            "round": "1",
            "timestamp": "2018-08-01T12:59:28.528773731Z",
            "type": 2,
            "block_id": {
              "hash": "A8637322DB5C9D876BD6785868DEEEE1775F0D97",
              "parts": {
                "total": "1",
                "hash": "1BCAF7EE780E3B54A5CCF600FFE70A3A8D417F20"
              }
            },
            "signature": {
              "type": "tendermint/SignatureEd25519",
              "value": "UfuBKtTJFKAjTkKLdsO1VXPxWPUWTh8yK7wvoU2e6Gws4y74TkV6ldJZeXF34VKxkCRhhtvbpt/jQidcJ452AQ=="
            }
          },
          {
            "validator_address": "4944F8BBBB5303E17BC0607DF332320EDBC750EA",
            "validator_index": "29",
            "height": "33056",
            "round": "1",
            "timestamp": "2018-08-01T12:59:28.47713511Z",
            "type": 2,
            "block_id": {
              "hash": "A8637322DB5C9D876BD6785868DEEEE1775F0D97",
              "parts": {
                "total": "1",
                "hash": "1BCAF7EE780E3B54A5CCF600FFE70A3A8D417F20"
              }
            },
            "signature": {
              "type": "tendermint/SignatureEd25519",
              "value": "W6FKQ7/llE/p1uRjki192KIdgQVuNPan2EfswXLGKhaXfb73ABUkG9NaCrNaX4kfal+EbApbb0G4YFo7ZIu1CQ=="
            }
          },
          {
            "validator_address": "49841599DE675157CBE1E7D6B35BF8FFC23BD5CB",
            "validator_index": "30",
            "height": "33056",
            "round": "1",
            "timestamp": "2018-08-01T12:59:28.480072859Z",
            "type": 2,
            "block_id": {
              "hash": "A8637322DB5C9D876BD6785868DEEEE1775F0D97",
              "parts": {
                "total": "1",
                "hash": "1BCAF7EE780E3B54A5CCF600FFE70A3A8D417F20"
              }
            },
            "signature": {
              "type": "tendermint/SignatureEd25519",
              "value": "NiMZixfnLKRbbVObX3Jn+cFZ08u0bSUMARywawZCiGCGS5pLU+DdYReGX7xK8g0DzyT/vaMfrW1cJMeF8RJ2AA=="
            }
          },
          {
            "validator_address": "51386C2CF9556821D114D7E4945806802BADB28D",
            "validator_index": "31",
            "height": "33056",
            "round": "1",
            "timestamp": "2018-08-01T12:59:28.611097179Z",
            "type": 2,
            "block_id": {
              "hash": "A8637322DB5C9D876BD6785868DEEEE1775F0D97",
              "parts": {
                "total": "1",
                "hash": "1BCAF7EE780E3B54A5CCF600FFE70A3A8D417F20"
              }
            },
            "signature": {
              "type": "tendermint/SignatureEd25519",
              "value": "/JKTCzh8SuFNnsq7XvQtFaCGU2Izi3coRucpvEVAdalBQe7ossfnhYsJfT6C6WC+pWfnlqxivkHr0cTbeh1pBw=="
            }
          },
          {
            "validator_address": "543564ECA3AFEFADC73EE8591AAC3A96F079BC8A",
            "validator_index": "32",
            "height": "33056",
            "round": "1",
            "timestamp": "2018-08-01T12:59:28.510621521Z",
            "type": 2,
            "block_id": {
              "hash": "A8637322DB5C9D876BD6785868DEEEE1775F0D97",
              "parts": {
                "total": "1",
                "hash": "1BCAF7EE780E3B54A5CCF600FFE70A3A8D417F20"
              }
            },
            "signature": {
              "type": "tendermint/SignatureEd25519",
              "value": "YUi2dGZz0fKpqGtTiCfFKQF0Mz7GOYSwpcj4A+9Xu5rvwzHfrXtxNL6pfjn6Z7ZqlSYvGbiH1cxIEHH+4zvlBw=="
            }
          },
          {
            "validator_address": "55D67B1A6DC13E96F8754A5A42EABC20F7F86664",
            "validator_index": "33",
            "height": "33056",
            "round": "1",
            "timestamp": "2018-08-01T12:59:28.611675359Z",
            "type": 2,
            "block_id": {
              "hash": "A8637322DB5C9D876BD6785868DEEEE1775F0D97",
              "parts": {
                "total": "1",
                "hash": "1BCAF7EE780E3B54A5CCF600FFE70A3A8D417F20"
              }
            },
            "signature": {
              "type": "tendermint/SignatureEd25519",
              "value": "N74dn6RBshPkWQTOlfA9aePL2z9B/IiwCSACYarfwbbocdS6S+vH7WoaKEWKwShYW3kW9/1PU8uR8CwOULiSBg=="
            }
          },
          {
            "validator_address": "570B6A755ED339EAC56BB3390A48069F6AC9449B",
            "validator_index": "34",
            "height": "33056",
            "round": "1",
            "timestamp": "2018-08-01T12:59:35.208345207Z",
            "type": 2,
            "block_id": {
              "hash": "A8637322DB5C9D876BD6785868DEEEE1775F0D97",
              "parts": {
                "total": "1",
                "hash": "1BCAF7EE780E3B54A5CCF600FFE70A3A8D417F20"
              }
            },
            "signature": {
              "type": "tendermint/SignatureEd25519",
              "value": "3ZPjLtqxvoA4eaO2OCodb/4SM/b8X9CcVr6cFfxoZ6iYK1URue0jPhF8T7euA0eWLsupQ4SahyMbgKyvbkUUBg=="
            }
          },
          {
            "validator_address": "5BDF8EA41B1835FBAD865B181A2A4B23F511B5E4",
            "validator_index": "35",
            "height": "33056",
            "round": "1",
            "timestamp": "2018-08-01T12:59:28.527440347Z",
            "type": 2,
            "block_id": {
              "hash": "A8637322DB5C9D876BD6785868DEEEE1775F0D97",
              "parts": {
                "total": "1",
                "hash": "1BCAF7EE780E3B54A5CCF600FFE70A3A8D417F20"
              }
            },
            "signature": {
              "type": "tendermint/SignatureEd25519",
              "value": "a/51R2mj0vr0ylg0pQLi+vs4Oq+efFEjyTqvYQcrvLLSHaKrrDBrht4aWIc9vqoCIf8U5MYk6hNZa7WwrLxEAQ=="
            }
          },
          {
            "validator_address": "60229E2E273297FE00219E46DFFB8F76844CDEF9",
            "validator_index": "36",
            "height": "33056",
            "round": "1",
            "timestamp": "2018-08-01T12:59:26.609084384Z",
            "type": 2,
            "block_id": {
              "hash": "A8637322DB5C9D876BD6785868DEEEE1775F0D97",
              "parts": {
                "total": "1",
                "hash": "1BCAF7EE780E3B54A5CCF600FFE70A3A8D417F20"
              }
            },
            "signature": {
              "type": "tendermint/SignatureEd25519",
              "value": "b0M9Hi4dFJiHYy6xCpnznuT39rPvlUJiIflAaFytBQD8jR0P/Og9OiuYHf2FBkE1e1vuV/L5fp6mBnM8TxnFAQ=="
            }
          },
          {
            "validator_address": "62410D6D1CD98278136E4D0738AA0EA273CDFC54",
            "validator_index": "37",
            "height": "33056",
            "round": "1",
            "timestamp": "2018-08-01T12:59:28.50491868Z",
            "type": 2,
            "block_id": {
              "hash": "A8637322DB5C9D876BD6785868DEEEE1775F0D97",
              "parts": {
                "total": "1",
                "hash": "1BCAF7EE780E3B54A5CCF600FFE70A3A8D417F20"
              }
            },
            "signature": {
              "type": "tendermint/SignatureEd25519",
              "value": "oCIEu+yEVuFnO29yJB++ccUSNxk8Q2VWioCr5/7FSrmXO5q0jgYDU4GHBFk1vN0jITQm/1cQYoIOqGK1lYH2CQ=="
            }
          },
          {
            "validator_address": "632F5C139A5A9DFBFE5111DEE29FCFB6157207DC",
            "validator_index": "38",
            "height": "33056",
            "round": "1",
            "timestamp": "2018-08-01T12:59:28.555449368Z",
            "type": 2,
            "block_id": {
              "hash": "A8637322DB5C9D876BD6785868DEEEE1775F0D97",
              "parts": {
                "total": "1",
                "hash": "1BCAF7EE780E3B54A5CCF600FFE70A3A8D417F20"
              }
            },
            "signature": {
              "type": "tendermint/SignatureEd25519",
              "value": "MTp8c9PnH5GZunWCxG7lLfPQR8n0uHu0WbidFpAyvIWQGQQzEvDJnBaJey2GCWRkcsOYtPYBL259NYL9iIo4Ag=="
            }
          },
          {
            "validator_address": "64F57F8E796A9B7B590C1EFA4123988C86631D39",
            "validator_index": "39",
            "height": "33056",
            "round": "1",
            "timestamp": "2018-08-01T12:59:28.537037648Z",
            "type": 2,
            "block_id": {
              "hash": "A8637322DB5C9D876BD6785868DEEEE1775F0D97",
              "parts": {
                "total": "1",
                "hash": "1BCAF7EE780E3B54A5CCF600FFE70A3A8D417F20"
              }
            },
            "signature": {
              "type": "tendermint/SignatureEd25519",
              "value": "SKnbtojDvtIVzT8jIiiC0U5sABJyj/LGZ6p1x9ity0WgW6yy6n4g1H3uSG5FMAK2MycAGO6h6EZUG8F0lqIrCQ=="
            }
          },
          {
            "validator_address": "69D99B2C66043ACBEAA8447525C356AFC6408E0C",
            "validator_index": "40",
            "height": "33056",
            "round": "1",
            "timestamp": "2018-08-01T12:59:28.597444094Z",
            "type": 2,
            "block_id": {
              "hash": "A8637322DB5C9D876BD6785868DEEEE1775F0D97",
              "parts": {
                "total": "1",
                "hash": "1BCAF7EE780E3B54A5CCF600FFE70A3A8D417F20"
              }
            },
            "signature": {
              "type": "tendermint/SignatureEd25519",
              "value": "Ll6Lppb90dQgWKdUPheP4XGYpzyYt+4I1YubqXmzux2bOgHBTuzikMuRQ65lWUkDT5thu36fw1AF4RHhon/xCA=="
            }
          },
          {
            "validator_address": "69EDADFA4A803E9DBF548C900D4A465E7D154262",
            "validator_index": "41",
            "height": "33056",
            "round": "1",
            "timestamp": "2018-08-01T12:59:28.642115242Z",
            "type": 2,
            "block_id": {
              "hash": "A8637322DB5C9D876BD6785868DEEEE1775F0D97",
              "parts": {
                "total": "1",
                "hash": "1BCAF7EE780E3B54A5CCF600FFE70A3A8D417F20"
              }
            },
            "signature": {
              "type": "tendermint/SignatureEd25519",
              "value": "NSC9vQoBjhGEIZUCo+PB7Cw/SYOL2IY1+q9LSYijEYo2eCErvNfcbxP0jxHVKd20UZnUDBcMOT1ueswZhLRDCw=="
            }
          },
          {
            "validator_address": "6D3AD380E398D8592B03AA124BAFED5F125DF863",
            "validator_index": "42",
            "height": "33056",
            "round": "1",
            "timestamp": "2018-08-01T12:58:26.202307453Z",
            "type": 2,
            "block_id": {
              "hash": "A8637322DB5C9D876BD6785868DEEEE1775F0D97",
              "parts": {
                "total": "1",
                "hash": "1BCAF7EE780E3B54A5CCF600FFE70A3A8D417F20"
              }
            },
            "signature": {
              "type": "tendermint/SignatureEd25519",
              "value": "CCgXScP+LnCiAYYcgSCacjNZvWD5Hn3/r2t97VR8oLL6/uuyH2djOAHLRsmthM3nKSBuYFSx0/vpuih4QHtICQ=="
            }
          },
          {
            "validator_address": "6F6C93B8BF3495063FEC9B5C771158607F4AE9D6",
            "validator_index": "43",
            "height": "33056",
            "round": "1",
            "timestamp": "2018-08-01T12:59:28.661585857Z",
            "type": 2,
            "block_id": {
              "hash": "A8637322DB5C9D876BD6785868DEEEE1775F0D97",
              "parts": {
                "total": "1",
                "hash": "1BCAF7EE780E3B54A5CCF600FFE70A3A8D417F20"
              }
            },
            "signature": {
              "type": "tendermint/SignatureEd25519",
              "value": "Yq2v0rVfn+JQhFV01JY1tBemq4iwmW1oDZ/v9jOwrwNfLxkysFdnLsxuQuVV0JKAzdaDu+pjXoWA/guc2+zAAg=="
            }
          },
          {
            "validator_address": "732CEEF54C374DDC6ADECBFD707AEFD07FEDC143",
            "validator_index": "44",
            "height": "33056",
            "round": "1",
            "timestamp": "2018-08-01T12:59:28.656050629Z",
            "type": 2,
            "block_id": {
              "hash": "A8637322DB5C9D876BD6785868DEEEE1775F0D97",
              "parts": {
                "total": "1",
                "hash": "1BCAF7EE780E3B54A5CCF600FFE70A3A8D417F20"
              }
            },
            "signature": {
              "type": "tendermint/SignatureEd25519",
              "value": "jBrGQsMeuGhbFr6qGviZ0aQ8EhwDqufevONrmA3TEmDX/KcRvb3FrgjyWnb2+PcByCLcxInvfdciKfl76pgXCg=="
            }
          },
          {
            "validator_address": "7393D691BFAE9661918C09932D4D9060AB40939B",
            "validator_index": "45",
            "height": "33056",
            "round": "1",
            "timestamp": "2018-08-01T12:59:28.605888158Z",
            "type": 2,
            "block_id": {
              "hash": "A8637322DB5C9D876BD6785868DEEEE1775F0D97",
              "parts": {
                "total": "1",
                "hash": "1BCAF7EE780E3B54A5CCF600FFE70A3A8D417F20"
              }
            },
            "signature": {
              "type": "tendermint/SignatureEd25519",
              "value": "eEkpkf4Xad8105OxjDW5DXyK6/4FOFakI+GZLQ0Ji6aMzBQ3bv8i4frjdpRFYum2PnA5mX2gflX0ngGSWplZBQ=="
            }
          },
          {
            "validator_address": "751E43437224E8BB6D1569B3E2B2616B6E7F4397",
            "validator_index": "46",
            "height": "33056",
            "round": "1",
            "timestamp": "2018-08-01T12:59:28.594999465Z",
            "type": 2,
            "block_id": {
              "hash": "A8637322DB5C9D876BD6785868DEEEE1775F0D97",
              "parts": {
                "total": "1",
                "hash": "1BCAF7EE780E3B54A5CCF600FFE70A3A8D417F20"
              }
            },
            "signature": {
              "type": "tendermint/SignatureEd25519",
              "value": "Lw/uF0yQjhs1uiJYonoMs94EiPmESk4Z5xltbtuaInGE6H72s66TmwjVYEIUjui2qK0yZbPy6EP7OmtOJhbHAA=="
            }
          },
          {
            "validator_address": "7EB7593F519F1180C7E872D0494611464EDF03AE",
            "validator_index": "47",
            "height": "33056",
            "round": "1",
            "timestamp": "2018-08-01T12:59:28.665558135Z",
            "type": 2,
            "block_id": {
              "hash": "A8637322DB5C9D876BD6785868DEEEE1775F0D97",
              "parts": {
                "total": "1",
                "hash": "1BCAF7EE780E3B54A5CCF600FFE70A3A8D417F20"
              }
            },
            "signature": {
              "type": "tendermint/SignatureEd25519",
              "value": "Q7Iid2PUxKPzKp5gJIK1PFNwaYhkfVGjLs6P9/Y4Mjq5azfdYCBBLcGGCsj4aXZLZtPGx23P6E6Ln0C71/c0Cg=="
            }
          },
          {
            "validator_address": "807CF675BA8479FC4FEC1047215DF07970040F1F",
            "validator_index": "48",
            "height": "33056",
            "round": "1",
            "timestamp": "2018-08-01T12:59:28.844093621Z",
            "type": 2,
            "block_id": {
              "hash": "A8637322DB5C9D876BD6785868DEEEE1775F0D97",
              "parts": {
                "total": "1",
                "hash": "1BCAF7EE780E3B54A5CCF600FFE70A3A8D417F20"
              }
            },
            "signature": {
              "type": "tendermint/SignatureEd25519",
              "value": "9jDnMurrobHyU3wt9CDZI8X4U3o3Hmwb9i3nO1PVadpK4COWkya8GVP1+uHMX6uQJGYyDbgZ4B6gWfxWFfA6BQ=="
            }
          },
          {
            "validator_address": "83AB321E012C57746689FED3A6064DF331F81007",
            "validator_index": "49",
            "height": "33056",
            "round": "1",
            "timestamp": "2018-08-01T12:59:28.552687504Z",
            "type": 2,
            "block_id": {
              "hash": "A8637322DB5C9D876BD6785868DEEEE1775F0D97",
              "parts": {
                "total": "1",
                "hash": "1BCAF7EE780E3B54A5CCF600FFE70A3A8D417F20"
              }
            },
            "signature": {
              "type": "tendermint/SignatureEd25519",
              "value": "sZpma2aiZzaxB3L7/5sDkRjmaahvULuTTB09pS/4qk/6O6oLSUrfdv3dz7VvUIaLwFV4/qFb/VcMAoTbaRjZBg=="
            }
          },
          {
            "validator_address": "83BB1B88D3DBB20AD845FECA07749EBD87D3754D",
            "validator_index": "50",
            "height": "33056",
            "round": "1",
            "timestamp": "2018-08-01T12:59:28.796501874Z",
            "type": 2,
            "block_id": {
              "hash": "A8637322DB5C9D876BD6785868DEEEE1775F0D97",
              "parts": {
                "total": "1",
                "hash": "1BCAF7EE780E3B54A5CCF600FFE70A3A8D417F20"
              }
            },
            "signature": {
              "type": "tendermint/SignatureEd25519",
              "value": "YLsh3v5HUkl5wv5SAEwx4vKS2NN6UO6yp5XLLOaAgF5A7YxtrslLPdmVW0Lib95Z/IapKhygzeShDSWcUi1oBA=="
            }
          },
          {
            "validator_address": "8F06FE1FD042683C426137FBC4BBAA4288924217",
            "validator_index": "51",
            "height": "33056",
            "round": "1",
            "timestamp": "2018-08-01T12:59:28.602792734Z",
            "type": 2,
            "block_id": {
              "hash": "A8637322DB5C9D876BD6785868DEEEE1775F0D97",
              "parts": {
                "total": "1",
                "hash": "1BCAF7EE780E3B54A5CCF600FFE70A3A8D417F20"
              }
            },
            "signature": {
              "type": "tendermint/SignatureEd25519",
              "value": "tUxLqsZURV91ADf+hPvkR2ae+fLpbj1D3XXunswt38+2zKWGL1RYC70InTlIf2eSQCEZeWLfgrUu2hLJMTVaCA=="
            }
          },
          {
            "validator_address": "8F45617BF45B10A3F8283DEBDB35E38C7CA43237",
            "validator_index": "52",
            "height": "33056",
            "round": "1",
            "timestamp": "2018-08-01T12:59:28.533637822Z",
            "type": 2,
            "block_id": {
              "hash": "A8637322DB5C9D876BD6785868DEEEE1775F0D97",
              "parts": {
                "total": "1",
                "hash": "1BCAF7EE780E3B54A5CCF600FFE70A3A8D417F20"
              }
            },
            "signature": {
              "type": "tendermint/SignatureEd25519",
              "value": "ck7SJt9LZl61s5v2Rgg2o1wsuNtDfk6sR31ss+SIE5kgA7RfuGcpRX9blsMzEUU64CwTeC/EOw/7pTChaRDTDQ=="
            }
          },
          {
            "validator_address": "95980831E186F2540F6E9FB6C8E74DE2401405AC",
            "validator_index": "53",
            "height": "33056",
            "round": "1",
            "timestamp": "2018-08-01T12:59:28.583650413Z",
            "type": 2,
            "block_id": {
              "hash": "A8637322DB5C9D876BD6785868DEEEE1775F0D97",
              "parts": {
                "total": "1",
                "hash": "1BCAF7EE780E3B54A5CCF600FFE70A3A8D417F20"
              }
            },
            "signature": {
              "type": "tendermint/SignatureEd25519",
              "value": "YgmyAN/CCBoPAb4RzqxMaHch9D8nETmQGlyvjXDbq9S9TP8He3KO0m9Qofa1gRm8/5CglrUv9hU8dgWtVkKyDg=="
            }
          },
          {
            "validator_address": "95FAFBC1E0579C83D290A063020CE87C5334BD9B",
            "validator_index": "54",
            "height": "33056",
            "round": "1",
            "timestamp": "2018-08-01T12:59:28.48649888Z",
            "type": 2,
            "block_id": {
              "hash": "A8637322DB5C9D876BD6785868DEEEE1775F0D97",
              "parts": {
                "total": "1",
                "hash": "1BCAF7EE780E3B54A5CCF600FFE70A3A8D417F20"
              }
            },
            "signature": {
              "type": "tendermint/SignatureEd25519",
              "value": "ysiRXJqgIjXmoRfioklLfeNK6Xx366uz+X8KWt/sux9h9iFypuHfxHCYdTYPPkbABo73KmiNCJ8+vqqE6J6ZDg=="
            }
          },
          {
            "validator_address": "96BDE45EC52606CF5CB59853097871AD60680549",
            "validator_index": "55",
            "height": "33056",
            "round": "1",
            "timestamp": "2018-08-01T12:59:28.525882508Z",
            "type": 2,
            "block_id": {
              "hash": "A8637322DB5C9D876BD6785868DEEEE1775F0D97",
              "parts": {
                "total": "1",
                "hash": "1BCAF7EE780E3B54A5CCF600FFE70A3A8D417F20"
              }
            },
            "signature": {
              "type": "tendermint/SignatureEd25519",
              "value": "D1KsATzXq4BARYzZW1/f/c7VKkuYSjO/xvyErUVogt1QieGdWTHbtu8fR32P2RlOiMaK9Y+r/iBQhThlIqvACA=="
            }
          },
          {
            "validator_address": "970CD321881185BF83DB2923C321B0E75FDBB2B8",
            "validator_index": "56",
            "height": "33056",
            "round": "1",
            "timestamp": "2018-08-01T12:59:28.582919774Z",
            "type": 2,
            "block_id": {
              "hash": "A8637322DB5C9D876BD6785868DEEEE1775F0D97",
              "parts": {
                "total": "1",
                "hash": "1BCAF7EE780E3B54A5CCF600FFE70A3A8D417F20"
              }
            },
            "signature": {
              "type": "tendermint/SignatureEd25519",
              "value": "+qTMxlsXFHBh0iLNE2t+chxgXJtm1ChjDLrhx0MToHBabYpLTVE3BVIPLmyAttcJ2iDgSDM/xwtrdnCREkZpBA=="
            }
          },
          {
            "validator_address": "97DBB3D4B3D6C29287244864448F651DD5B07390",
            "validator_index": "57",
            "height": "33056",
            "round": "1",
            "timestamp": "2018-08-01T12:59:28.587536889Z",
            "type": 2,
            "block_id": {
              "hash": "A8637322DB5C9D876BD6785868DEEEE1775F0D97",
              "parts": {
                "total": "1",
                "hash": "1BCAF7EE780E3B54A5CCF600FFE70A3A8D417F20"
              }
            },
            "signature": {
              "type": "tendermint/SignatureEd25519",
              "value": "J4LDVBnkzqesBDvV1PTO5l2ItV2FgUuq+Q5Tul1SZ5jYlTjMia4eWxYMwUkgnPZxSXtPFrGcpvgWZsmBcv+BDg=="
            }
          },
          {
            "validator_address": "9C29C9B76D27586E4D9AD2AED0E943162645E55C",
            "validator_index": "58",
            "height": "33056",
            "round": "1",
            "timestamp": "2018-08-01T12:59:28.535915152Z",
            "type": 2,
            "block_id": {
              "hash": "A8637322DB5C9D876BD6785868DEEEE1775F0D97",
              "parts": {
                "total": "1",
                "hash": "1BCAF7EE780E3B54A5CCF600FFE70A3A8D417F20"
              }
            },
            "signature": {
              "type": "tendermint/SignatureEd25519",
              "value": "kbCZOfrCKS32tmkxaw4rSQlj5GmA1ofSCg37u+ocZv3HDEuSh+OraiJcSICm29/rtuHjp5U/RWgTphXYGeO3Aw=="
            }
          },
          {
            "validator_address": "9D93AD02FE1BD7E76B9E58D7EB461088EAD011E5",
            "validator_index": "59",
            "height": "33056",
            "round": "1",
            "timestamp": "2018-08-01T12:59:28.511476174Z",
            "type": 2,
            "block_id": {
              "hash": "A8637322DB5C9D876BD6785868DEEEE1775F0D97",
              "parts": {
                "total": "1",
                "hash": "1BCAF7EE780E3B54A5CCF600FFE70A3A8D417F20"
              }
            },
            "signature": {
              "type": "tendermint/SignatureEd25519",
              "value": "tcgEkbU6jhkSSrp0H0HhXnNQ7yxbRybOiUQi/lDLcMMjo1EKwCLSAa8O2yDw9XD2Ijo2jS2kbTztdiS/KcyTBQ=="
            }
          },
          {
            "validator_address": "A0A6466F4ABEA09C3B55E3709AFDE217A103209F",
            "validator_index": "60",
            "height": "33056",
            "round": "1",
            "timestamp": "2018-08-01T12:59:28.48405384Z",
            "type": 2,
            "block_id": {
              "hash": "A8637322DB5C9D876BD6785868DEEEE1775F0D97",
              "parts": {
                "total": "1",
                "hash": "1BCAF7EE780E3B54A5CCF600FFE70A3A8D417F20"
              }
            },
            "signature": {
              "type": "tendermint/SignatureEd25519",
              "value": "NlD+g9H2ijaf9cpw2xX3EElMkZgTZOr/cN2/DAH4WKd0iwVY4S7ds9L2aq/x53urMGX35aXaC2WprcrA0RJlBA=="
            }
          },
          {
            "validator_address": "A5868971300F155020634D7BB49C7634F7AACCD3",
            "validator_index": "61",
            "height": "33056",
            "round": "1",
            "timestamp": "2018-08-01T12:59:28.54858626Z",
            "type": 2,
            "block_id": {
              "hash": "A8637322DB5C9D876BD6785868DEEEE1775F0D97",
              "parts": {
                "total": "1",
                "hash": "1BCAF7EE780E3B54A5CCF600FFE70A3A8D417F20"
              }
            },
            "signature": {
              "type": "tendermint/SignatureEd25519",
              "value": "UF4DpYeyTAfhug9oxzKxkcW3kDcYByJgMSsQN7UJzvbzwQGdgirdHkypg026UJzCu2/rpsAUlPJJstqdG7abCg=="
            }
          },
          {
            "validator_address": "A6B3A5B5D982CFD7B5FDFA15CF5A720E7AE25E7F",
            "validator_index": "62",
            "height": "33056",
            "round": "1",
            "timestamp": "2018-08-01T12:59:28.698436023Z",
            "type": 2,
            "block_id": {
              "hash": "A8637322DB5C9D876BD6785868DEEEE1775F0D97",
              "parts": {
                "total": "1",
                "hash": "1BCAF7EE780E3B54A5CCF600FFE70A3A8D417F20"
              }
            },
            "signature": {
              "type": "tendermint/SignatureEd25519",
              "value": "OeL4tny4Ib+A8yIEMi4D/bwfS52jEBVi7C3dNHzQpwSggv83uHY/69BIUgaDF52tdDQTkti558TN6bSBZbNqCg=="
            }
          },
          {
            "validator_address": "AC96444A9083890B7C7B430DB17BF1D3EA5EED04",
            "validator_index": "63",
            "height": "33056",
            "round": "1",
            "timestamp": "2018-08-01T12:59:28.57020832Z",
            "type": 2,
            "block_id": {
              "hash": "A8637322DB5C9D876BD6785868DEEEE1775F0D97",
              "parts": {
                "total": "1",
                "hash": "1BCAF7EE780E3B54A5CCF600FFE70A3A8D417F20"
              }
            },
            "signature": {
              "type": "tendermint/SignatureEd25519",
              "value": "XdiaPesv/3oKvP/lrMmi1mjBTpfXNEIoQtnUuVqQa3ljLRO4lYA0hZWz6YmXjnbXR0WTKtijhPC63sFrUdjyCQ=="
            }
          },
          {
            "validator_address": "ACB97FDA2D940AF0709B73537C458EB988AD2893",
            "validator_index": "64",
            "height": "33056",
            "round": "1",
            "timestamp": "2018-08-01T12:59:28.502408813Z",
            "type": 2,
            "block_id": {
              "hash": "A8637322DB5C9D876BD6785868DEEEE1775F0D97",
              "parts": {
                "total": "1",
                "hash": "1BCAF7EE780E3B54A5CCF600FFE70A3A8D417F20"
              }
            },
            "signature": {
              "type": "tendermint/SignatureEd25519",
              "value": "zK7oNTdaWc7vb/Tmp6FI43T/r7ZGUvbvJJBSMJE4ZPb4vzdVAsfRuE18oT6TTQo5c7xk7eewuX44jpTEmlQ7Cw=="
            }
          },
          {
            "validator_address": "B197425B3210375F211661DE02EF2AE36580EB0F",
            "validator_index": "65",
            "height": "33056",
            "round": "1",
            "timestamp": "2018-08-01T12:59:28.555363994Z",
            "type": 2,
            "block_id": {
              "hash": "A8637322DB5C9D876BD6785868DEEEE1775F0D97",
              "parts": {
                "total": "1",
                "hash": "1BCAF7EE780E3B54A5CCF600FFE70A3A8D417F20"
              }
            },
            "signature": {
              "type": "tendermint/SignatureEd25519",
              "value": "BDy6Su0agyeyuO+W6HKd7NjwcBGUPma8HE2+iMojcKEPa31S6Y3g9kg8SjCKGM90zY5iumxrNF4cedN9+GDmBQ=="
            }
          },
          {
            "validator_address": "B45E54D2D1CB5A4CCD1D49016608C18E7C56B270",
            "validator_index": "66",
            "height": "33056",
            "round": "1",
            "timestamp": "2018-08-01T12:59:28.640377018Z",
            "type": 2,
            "block_id": {
              "hash": "A8637322DB5C9D876BD6785868DEEEE1775F0D97",
              "parts": {
                "total": "1",
                "hash": "1BCAF7EE780E3B54A5CCF600FFE70A3A8D417F20"
              }
            },
            "signature": {
              "type": "tendermint/SignatureEd25519",
              "value": "wXBcuzNwAUgWIBlKdcS6Tyek3r3lKevGSYFkMlnQn46gBv9k09HR+LN89mtS4fKg8rN5g7G9RA80DNY+1FXTBw=="
            }
          },
          {
            "validator_address": "BB1276BE89834835428664408917649FEEF5D90C",
            "validator_index": "67",
            "height": "33056",
            "round": "1",
            "timestamp": "2018-08-01T12:59:28.633571301Z",
            "type": 2,
            "block_id": {
              "hash": "A8637322DB5C9D876BD6785868DEEEE1775F0D97",
              "parts": {
                "total": "1",
                "hash": "1BCAF7EE780E3B54A5CCF600FFE70A3A8D417F20"
              }
            },
            "signature": {
              "type": "tendermint/SignatureEd25519",
              "value": "ZCX0G2laJgXNj8j4l5Jn6OY5kptP9k5ivhp5oWVZQOKTetwpdxfZ/OgQbETEQA492Z+Ww5XhFxhwGJQmmzX9AA=="
            }
          },
          {
            "validator_address": "BC36FEDD6EF6071118A3E51859DF3831A2EC4782",
            "validator_index": "68",
            "height": "33056",
            "round": "1",
            "timestamp": "2018-08-01T12:59:28.541671981Z",
            "type": 2,
            "block_id": {
              "hash": "A8637322DB5C9D876BD6785868DEEEE1775F0D97",
              "parts": {
                "total": "1",
                "hash": "1BCAF7EE780E3B54A5CCF600FFE70A3A8D417F20"
              }
            },
            "signature": {
              "type": "tendermint/SignatureEd25519",
              "value": "kixWpY0sop9TWvvIJK6S3qV3trU6cua4d/JtouWnbF/P/IjPWdoET5/uePnLZkN3JCkh7jgLJs92RtatxhgOAg=="
            }
          },
          {
            "validator_address": "BD9D0DA513BF099DB4BB6E725A4E19832789882F",
            "validator_index": "69",
            "height": "33056",
            "round": "1",
            "timestamp": "2018-08-01T12:59:28.570800868Z",
            "type": 2,
            "block_id": {
              "hash": "A8637322DB5C9D876BD6785868DEEEE1775F0D97",
              "parts": {
                "total": "1",
                "hash": "1BCAF7EE780E3B54A5CCF600FFE70A3A8D417F20"
              }
            },
            "signature": {
              "type": "tendermint/SignatureEd25519",
              "value": "bbbl79D3HNdyjp5gqdXtytiXMKOqNAbHMqnDQvAApaCEx5fBaiMkXPKHQflZPy/2DepWTNz/d7ITOGKOFUvbCg=="
            }
          },
          {
            "validator_address": "C1134A2FF8F7338E7CDB3FE57DDD2A655DEB1E22",
            "validator_index": "70",
            "height": "33056",
            "round": "1",
            "timestamp": "2018-08-01T12:59:27.692151556Z",
            "type": 2,
            "block_id": {
              "hash": "A8637322DB5C9D876BD6785868DEEEE1775F0D97",
              "parts": {
                "total": "1",
                "hash": "1BCAF7EE780E3B54A5CCF600FFE70A3A8D417F20"
              }
            },
            "signature": {
              "type": "tendermint/SignatureEd25519",
              "value": "OTBvtFVB+4mDMB/qfAPgzt4vLH/W8wkZP6Ro8zszOF/lGVSB36RtLpO9CRXVKw9VtLGWY7t3MmkRW/JMEZNgCQ=="
            }
          },
          {
            "validator_address": "C39A8A2B85198DCB8F23AD1F6C198E2BA7AB5D60",
            "validator_index": "71",
            "height": "33056",
            "round": "1",
            "timestamp": "2018-08-01T12:59:28.5132958Z",
            "type": 2,
            "block_id": {
              "hash": "A8637322DB5C9D876BD6785868DEEEE1775F0D97",
              "parts": {
                "total": "1",
                "hash": "1BCAF7EE780E3B54A5CCF600FFE70A3A8D417F20"
              }
            },
            "signature": {
              "type": "tendermint/SignatureEd25519",
              "value": "nAG7riFVmvehXc2L1/dSazzLBNqDDh7LfZ3G8NvySViXyfE3eKBil6/HQ6QOecMZvioOdqcHNGquEGnLEW+MAQ=="
            }
          },
          {
            "validator_address": "C4335190C3B5BD4BA5568BC0F99C34162D940D08",
            "validator_index": "72",
            "height": "33056",
            "round": "1",
            "timestamp": "2018-08-01T12:59:28.657272732Z",
            "type": 2,
            "block_id": {
              "hash": "A8637322DB5C9D876BD6785868DEEEE1775F0D97",
              "parts": {
                "total": "1",
                "hash": "1BCAF7EE780E3B54A5CCF600FFE70A3A8D417F20"
              }
            },
            "signature": {
              "type": "tendermint/SignatureEd25519",
              "value": "FeeqspUGekK3IHYfRk/Rm1wuCN6bHui3+kheYpwrX9F0KLwAsV7lJbL3gb69mB+uoWomIEm4be09rYc6DfhoCQ=="
            }
          },
          {
            "validator_address": "C561CFA081677046376396922E7576E5F7B316AD",
            "validator_index": "73",
            "height": "33056",
            "round": "1",
            "timestamp": "2018-08-01T12:59:28.668446057Z",
            "type": 2,
            "block_id": {
              "hash": "A8637322DB5C9D876BD6785868DEEEE1775F0D97",
              "parts": {
                "total": "1",
                "hash": "1BCAF7EE780E3B54A5CCF600FFE70A3A8D417F20"
              }
            },
            "signature": {
              "type": "tendermint/SignatureEd25519",
              "value": "kQz5xkvwVilUbBCHK64DIl4421G67bMDbVeVqRdckB/7aYRctOqYbgBjY8TRVTzTQqeldgaYsAJ5IF9YPIlQBg=="
            }
          },
          {
            "validator_address": "CE589EA77B056D268D30D1DC1D68A70E0F885E95",
            "validator_index": "74",
            "height": "33056",
            "round": "1",
            "timestamp": "2018-08-01T12:59:28.530779827Z",
            "type": 2,
            "block_id": {
              "hash": "A8637322DB5C9D876BD6785868DEEEE1775F0D97",
              "parts": {
                "total": "1",
                "hash": "1BCAF7EE780E3B54A5CCF600FFE70A3A8D417F20"
              }
            },
            "signature": {
              "type": "tendermint/SignatureEd25519",
              "value": "dKKu8SplM3UIz5Exgn273fDxDG1cHVwWZ4+Km4nxavwK1AzgP/TJ563U4m3vYtTcFyLwXA6iMpdXMZ+I0H6XAA=="
            }
          },
          {
            "validator_address": "CEB97DB5CB18270247ABDE6CF2F84F9AEE8A2904",
            "validator_index": "75",
            "height": "33056",
            "round": "1",
            "timestamp": "2018-08-01T12:59:29.187821538Z",
            "type": 2,
            "block_id": {
              "hash": "A8637322DB5C9D876BD6785868DEEEE1775F0D97",
              "parts": {
                "total": "1",
                "hash": "1BCAF7EE780E3B54A5CCF600FFE70A3A8D417F20"
              }
            },
            "signature": {
              "type": "tendermint/SignatureEd25519",
              "value": "IqoYhALMaxtZRs7Ihth2FFDCax7tiETkdRRbCEOrtmm5cXty1rstITZv1beqeqocoDQEsc4qwp7M4f6v+0MkAQ=="
            }
          },
          {
            "validator_address": "CF205769734F5758CC39F907EFB73D6BAF915FB1",
            "validator_index": "76",
            "height": "33056",
            "round": "1",
            "timestamp": "2018-08-01T12:59:28.849521264Z",
            "type": 2,
            "block_id": {
              "hash": "A8637322DB5C9D876BD6785868DEEEE1775F0D97",
              "parts": {
                "total": "1",
                "hash": "1BCAF7EE780E3B54A5CCF600FFE70A3A8D417F20"
              }
            },
            "signature": {
              "type": "tendermint/SignatureEd25519",
              "value": "Swc/mdOSWQYGDvb1evYLpNDvptg6hY4X55Ym0cY6tJ+XRQ8D1K4Rl9dZwfbgesoqw01RDLmsPXu4vs2HcdnlBA=="
            }
          },
          {
            "validator_address": "D2134B826A1E25A955905CB79A4D8731CAFA0CCE",
            "validator_index": "77",
            "height": "33056",
            "round": "1",
            "timestamp": "2018-08-01T12:59:28.651951094Z",
            "type": 2,
            "block_id": {
              "hash": "A8637322DB5C9D876BD6785868DEEEE1775F0D97",
              "parts": {
                "total": "1",
                "hash": "1BCAF7EE780E3B54A5CCF600FFE70A3A8D417F20"
              }
            },
            "signature": {
              "type": "tendermint/SignatureEd25519",
              "value": "Lr+HE2gPDxQJ66AAJ/ovZvuxzRTVAd32p4pSuSiyk0zpEK3KBXj7AmhSE/PV3sbhUTKSVho9i1NfKV1dyhwDBQ=="
            }
          },
          {
            "validator_address": "D6285C3422C8886445D53757CBE12D2B91B5A9D0",
            "validator_index": "78",
            "height": "33056",
            "round": "1",
            "timestamp": "2018-08-01T12:59:11.492486737Z",
            "type": 2,
            "block_id": {
              "hash": "A8637322DB5C9D876BD6785868DEEEE1775F0D97",
              "parts": {
                "total": "1",
                "hash": "1BCAF7EE780E3B54A5CCF600FFE70A3A8D417F20"
              }
            },
            "signature": {
              "type": "tendermint/SignatureEd25519",
              "value": "eqKc22naqko5S6WwRjcjUm24f39ztza0SjeMFfytEJ5r0LEf1z+VFrkRcUFiZb2I8iblUaw90KmviLFEAjc9Dw=="
            }
          },
          {
            "validator_address": "D77FB84A729972CD3E757C9BEB61561855832B92",
            "validator_index": "79",
            "height": "33056",
            "round": "1",
            "timestamp": "2018-08-01T12:59:28.674131665Z",
            "type": 2,
            "block_id": {
              "hash": "A8637322DB5C9D876BD6785868DEEEE1775F0D97",
              "parts": {
                "total": "1",
                "hash": "1BCAF7EE780E3B54A5CCF600FFE70A3A8D417F20"
              }
            },
            "signature": {
              "type": "tendermint/SignatureEd25519",
              "value": "rLeJtsz/7mMaoXNeAbvaHFSLszxkHVAjFC6Mrw7PRQF4z9QPM00axHen0TaFFF6ZxXyVY9HyenbyqkQJOS2+Aw=="
            }
          },
          {
            "validator_address": "DB7E6732471D3EA5C90C17A9974D9F88AB45F2FB",
            "validator_index": "80",
            "height": "33056",
            "round": "1",
            "timestamp": "2018-08-01T12:59:28.518798912Z",
            "type": 2,
            "block_id": {
              "hash": "A8637322DB5C9D876BD6785868DEEEE1775F0D97",
              "parts": {
                "total": "1",
                "hash": "1BCAF7EE780E3B54A5CCF600FFE70A3A8D417F20"
              }
            },
            "signature": {
              "type": "tendermint/SignatureEd25519",
              "value": "N33A+cyBnOHw/DZWGtn02W5HFbwjlIOQDWECx+0KF3Od7lYpzKDEkOE6hOENXo6PsYzVsCUseOsd+XOFfdOPBg=="
            }
          },
          {
            "validator_address": "DF54B862410BCD9B5C516FBB6C56BDC826ED6FA7",
            "validator_index": "81",
            "height": "33056",
            "round": "1",
            "timestamp": "2018-08-01T12:59:28.684107458Z",
            "type": 2,
            "block_id": {
              "hash": "A8637322DB5C9D876BD6785868DEEEE1775F0D97",
              "parts": {
                "total": "1",
                "hash": "1BCAF7EE780E3B54A5CCF600FFE70A3A8D417F20"
              }
            },
            "signature": {
              "type": "tendermint/SignatureEd25519",
              "value": "WSBp29w/ypyw2ZIxaCNktXSvNXtnRAeFFcVfwESSPzKo9d4z1vGHp1mamIDOR+gS7BqYWLY47LC0JQDQbvBeAg=="
            }
          },
          {
            "validator_address": "DFAF0C8B1B78D6D552B0189DE3ACA351439A1319",
            "validator_index": "82",
            "height": "33056",
            "round": "1",
            "timestamp": "2018-08-01T12:59:28.535345411Z",
            "type": 2,
            "block_id": {
              "hash": "A8637322DB5C9D876BD6785868DEEEE1775F0D97",
              "parts": {
                "total": "1",
                "hash": "1BCAF7EE780E3B54A5CCF600FFE70A3A8D417F20"
              }
            },
            "signature": {
              "type": "tendermint/SignatureEd25519",
              "value": "BUOVnx8PgWvivit94zUWsMp+CTDexuL09r6UtwqMAp+N3ffq92slP9c9V6igMXOzecy+dRRyR+moNLnOL30qBA=="
            }
          },
          {
            "validator_address": "E1DBC77881161A5A3A8536A57536EAE546A75D69",
            "validator_index": "83",
            "height": "33056",
            "round": "1",
            "timestamp": "2018-08-01T12:59:28.469929513Z",
            "type": 2,
            "block_id": {
              "hash": "A8637322DB5C9D876BD6785868DEEEE1775F0D97",
              "parts": {
                "total": "1",
                "hash": "1BCAF7EE780E3B54A5CCF600FFE70A3A8D417F20"
              }
            },
            "signature": {
              "type": "tendermint/SignatureEd25519",
              "value": "njOLyXE77kg8I/8Msr/1a6nVYWA3SREYazstcAnX9GVknPhOkjmSMMlTOsY/kBL8BXHFhVsAIqM/ucbqwHbsDA=="
            }
          },
          {
            "validator_address": "E300E9D484374C1D3E97C1D93CAC3B160A056298",
            "validator_index": "84",
            "height": "33056",
            "round": "1",
            "timestamp": "2018-08-01T12:59:28.703554279Z",
            "type": 2,
            "block_id": {
              "hash": "A8637322DB5C9D876BD6785868DEEEE1775F0D97",
              "parts": {
                "total": "1",
                "hash": "1BCAF7EE780E3B54A5CCF600FFE70A3A8D417F20"
              }
            },
            "signature": {
              "type": "tendermint/SignatureEd25519",
              "value": "kapLVsDw9ZywYgZ7ebFLFjXU7zS2izwbFLRPlITL8rRApEethp6qJUIfQYj/qAgmdsY4w9pm8n+WQxPQH10LCQ=="
            }
          },
          {
            "validator_address": "E39B5778E0D4297A46F45CF6940B0A163A430FF8",
            "validator_index": "85",
            "height": "33056",
            "round": "1",
            "timestamp": "2018-08-01T12:59:28.552376862Z",
            "type": 2,
            "block_id": {
              "hash": "A8637322DB5C9D876BD6785868DEEEE1775F0D97",
              "parts": {
                "total": "1",
                "hash": "1BCAF7EE780E3B54A5CCF600FFE70A3A8D417F20"
              }
            },
            "signature": {
              "type": "tendermint/SignatureEd25519",
              "value": "i4d2Y2Z8w1oJFMuHc/vemwNDNC5DD/EcPD9KYdoftGk2ygpLHtnE5eJ8jGBCLIkOW8S/7uIiQBBtDKSyVwouBQ=="
            }
          },
          {
            "validator_address": "E3B19738F7132F950668504D326C7660F159D170",
            "validator_index": "86",
            "height": "33056",
            "round": "1",
            "timestamp": "2018-08-01T12:59:28.529720296Z",
            "type": 2,
            "block_id": {
              "hash": "A8637322DB5C9D876BD6785868DEEEE1775F0D97",
              "parts": {
                "total": "1",
                "hash": "1BCAF7EE780E3B54A5CCF600FFE70A3A8D417F20"
              }
            },
            "signature": {
              "type": "tendermint/SignatureEd25519",
              "value": "9pV4x8qaWrp7WthVW9uK4egXvs3OOKdMaIfS/DULPRaBahMIm/W/kWdz1UkR+aSpb9IkvsC3slqi0zM07vjHBg=="
            }
          },
          {
            "validator_address": "E42F8AEABB685219F7027F54D2B0DBC7846F633A",
            "validator_index": "87",
            "height": "33056",
            "round": "1",
            "timestamp": "2018-08-01T12:59:27.567112802Z",
            "type": 2,
            "block_id": {
              "hash": "A8637322DB5C9D876BD6785868DEEEE1775F0D97",
              "parts": {
                "total": "1",
                "hash": "1BCAF7EE780E3B54A5CCF600FFE70A3A8D417F20"
              }
            },
            "signature": {
              "type": "tendermint/SignatureEd25519",
              "value": "yQ0dsH/wxz8O7KSHJHxfq4Gj5dUDyLh0xaYiktr8/niF/MRrPWHgsLyC7mxsjnYItLYgorzxWkEz5mAGQslzDg=="
            }
          },
          {
            "validator_address": "E4E6C2E81269DFFA196C17F98240E491479A6008",
            "validator_index": "88",
            "height": "33056",
            "round": "1",
            "timestamp": "2018-08-01T12:59:28.591909342Z",
            "type": 2,
            "block_id": {
              "hash": "A8637322DB5C9D876BD6785868DEEEE1775F0D97",
              "parts": {
                "total": "1",
                "hash": "1BCAF7EE780E3B54A5CCF600FFE70A3A8D417F20"
              }
            },
            "signature": {
              "type": "tendermint/SignatureEd25519",
              "value": "bocZAKvf7QRt9M/Z3010EFxKsfGqdTNGTx/5GbotCz8YfnhB5xH34CdRzpXLH5LpBVQam4y6+8zurX0euQnABQ=="
            }
          },
          {
            "validator_address": "E4FEB2846F4F3B0ECDCBE9C9DCB2248248A5AF0F",
            "validator_index": "89",
            "height": "33056",
            "round": "1",
            "timestamp": "2018-08-01T12:59:28.809835321Z",
            "type": 2,
            "block_id": {
              "hash": "A8637322DB5C9D876BD6785868DEEEE1775F0D97",
              "parts": {
                "total": "1",
                "hash": "1BCAF7EE780E3B54A5CCF600FFE70A3A8D417F20"
              }
            },
            "signature": {
              "type": "tendermint/SignatureEd25519",
              "value": "FbtD61nYT8uQGQP46y/LYl1vGaiJx9Iy1yawEYnPab/q7W+PMWbIueQTwMFxKSAMtbvhvBogdyjKl9zMNglVCA=="
            }
          },
          {
            "validator_address": "E6A7079D584B163750BE0831227F6B685DEAF3C1",
            "validator_index": "90",
            "height": "33056",
            "round": "1",
            "timestamp": "2018-08-01T12:59:28.558122248Z",
            "type": 2,
            "block_id": {
              "hash": "A8637322DB5C9D876BD6785868DEEEE1775F0D97",
              "parts": {
                "total": "1",
                "hash": "1BCAF7EE780E3B54A5CCF600FFE70A3A8D417F20"
              }
            },
            "signature": {
              "type": "tendermint/SignatureEd25519",
              "value": "I+vKJm4ErfGEGUPeWVtzX6n1a3rY4HnBREB2Pg+59KHFRrHo4DHY/A7SmL8OupNGF3mU2GRgOAoCAAYgi0mgBw=="
            }
          },
          {
            "validator_address": "E7A30077D5D11867D3EAF99ED45BFDC1EB834509",
            "validator_index": "91",
            "height": "33056",
            "round": "1",
            "timestamp": "2018-08-01T12:59:28.512837072Z",
            "type": 2,
            "block_id": {
              "hash": "A8637322DB5C9D876BD6785868DEEEE1775F0D97",
              "parts": {
                "total": "1",
                "hash": "1BCAF7EE780E3B54A5CCF600FFE70A3A8D417F20"
              }
            },
            "signature": {
              "type": "tendermint/SignatureEd25519",
              "value": "6SZ6AKwFCMDKrbqnUJK9yzBSWFfiHVM6/4kEFbgyXaPcVW/mqwXFye7dJoQYZ6vhpSjDuU7q+Kw/3HcEiUM0Bw=="
            }
          },
          {
            "validator_address": "EBC613967F66F4EC306852CDF58B4F151CF16738",
            "validator_index": "92",
            "height": "33056",
            "round": "1",
            "timestamp": "2018-08-01T12:59:28.61102048Z",
            "type": 2,
            "block_id": {
              "hash": "A8637322DB5C9D876BD6785868DEEEE1775F0D97",
              "parts": {
                "total": "1",
                "hash": "1BCAF7EE780E3B54A5CCF600FFE70A3A8D417F20"
              }
            },
            "signature": {
              "type": "tendermint/SignatureEd25519",
              "value": "fOQzd7N53vfs34RGW40Ckl4yUFgSCcQp5fCAMKHdcUDay29oWXlcK+D2w2sZPghZ+bA6CpQ3shXRHut55XZgCg=="
            }
          },
          {
            "validator_address": "EC3401441726C40ECC7E51F744483B05BC6DE9BD",
            "validator_index": "93",
            "height": "33056",
            "round": "1",
            "timestamp": "2018-08-01T12:59:28.55941264Z",
            "type": 2,
            "block_id": {
              "hash": "A8637322DB5C9D876BD6785868DEEEE1775F0D97",
              "parts": {
                "total": "1",
                "hash": "1BCAF7EE780E3B54A5CCF600FFE70A3A8D417F20"
              }
            },
            "signature": {
              "type": "tendermint/SignatureEd25519",
              "value": "HclvAzdN9Rq4OKtkA+0xLn1FnwbH+BHXtSkKSSZe6WSgu4G4ct7ho0pJ3g2LHE0azQIXCb/Dg8S3yU31iXNrBw=="
            }
          },
          {
            "validator_address": "EC95B111D032181E1EC3B5E8875C5BB8E4AE7140",
            "validator_index": "94",
            "height": "33056",
            "round": "1",
            "timestamp": "2018-08-01T12:59:28.497412899Z",
            "type": 2,
            "block_id": {
              "hash": "A8637322DB5C9D876BD6785868DEEEE1775F0D97",
              "parts": {
                "total": "1",
                "hash": "1BCAF7EE780E3B54A5CCF600FFE70A3A8D417F20"
              }
            },
            "signature": {
              "type": "tendermint/SignatureEd25519",
              "value": "7JGcde5TV4GZgGrThEyI2Z12q4iYSN201xIzlguSKdhltjPt6Sql/HlQmFeG5ORuDaTlKwV/xABt1oAUaWlmAw=="
            }
          },
          {
            "validator_address": "F13C1805E8131C9B47E2A46818F57D8A2841E578",
            "validator_index": "95",
            "height": "33056",
            "round": "1",
            "timestamp": "2018-08-01T12:59:28.603827383Z",
            "type": 2,
            "block_id": {
              "hash": "A8637322DB5C9D876BD6785868DEEEE1775F0D97",
              "parts": {
                "total": "1",
                "hash": "1BCAF7EE780E3B54A5CCF600FFE70A3A8D417F20"
              }
            },
            "signature": {
              "type": "tendermint/SignatureEd25519",
              "value": "l+SHGqTopvNw+V0otmBNCQU/cuwXIrS7KDMZ47CpaIdIiigNBew0Iwm9SjZqtMjfrPk43uD6EvG4EDxTyy7HBQ=="
            }
          },
          {
            "validator_address": "F23FF36BD5B90C33CE3A03ED72DBDCF5EC07D6AF",
            "validator_index": "96",
            "height": "33056",
            "round": "1",
            "timestamp": "2018-08-01T12:59:28.617791494Z",
            "type": 2,
            "block_id": {
              "hash": "A8637322DB5C9D876BD6785868DEEEE1775F0D97",
              "parts": {
                "total": "1",
                "hash": "1BCAF7EE780E3B54A5CCF600FFE70A3A8D417F20"
              }
            },
            "signature": {
              "type": "tendermint/SignatureEd25519",
              "value": "tmD/6Lo9/MCj01/MwBrNYvNyD8JHE9KyWkFtkVQ9+yvsHetxYEh8BN5tz9MgTdxIQcsv98l26bAbMonZs9bhCA=="
            }
          },
          {
            "validator_address": "F4268597DE93E3E2CED38845010F8AA34E2A879E",
            "validator_index": "97",
            "height": "33056",
            "round": "1",
            "timestamp": "2018-08-01T12:59:28.603443213Z",
            "type": 2,
            "block_id": {
              "hash": "A8637322DB5C9D876BD6785868DEEEE1775F0D97",
              "parts": {
                "total": "1",
                "hash": "1BCAF7EE780E3B54A5CCF600FFE70A3A8D417F20"
              }
            },
            "signature": {
              "type": "tendermint/SignatureEd25519",
              "value": "1ge/OQ/eRz9KGdXWPY/vJ0U+R4Q5pCkCWGpbiKbRB4sOWB8rIFJnt7RWNL3d5oywPESoKcu1ptQrS0ArnKeHCg=="
            }
          },
          {
            "validator_address": "F4DEB417999B04BE2EFF9FFE03FA373D86011CC0",
            "validator_index": "98",
            "height": "33056",
            "round": "1",
            "timestamp": "2018-08-01T12:59:28.557482159Z",
            "type": 2,
            "block_id": {
              "hash": "A8637322DB5C9D876BD6785868DEEEE1775F0D97",
              "parts": {
                "total": "1",
                "hash": "1BCAF7EE780E3B54A5CCF600FFE70A3A8D417F20"
              }
            },
            "signature": {
              "type": "tendermint/SignatureEd25519",
              "value": "D21s1XEFhLsazS2kJcThGveki6213Vcm9PVHxb5ZyhoB6nHtBnC3WGKG6nOlrV3xYfovXP7IXzuhRfPj8b5ODQ=="
            }
          },
          {
            "validator_address": "F6738260186D33D9C14FC6E7017AFE6BB952A63D",
            "validator_index": "99",
            "height": "33056",
            "round": "1",
            "timestamp": "2018-08-01T12:59:28.548881971Z",
            "type": 2,
            "block_id": {
              "hash": "A8637322DB5C9D876BD6785868DEEEE1775F0D97",
              "parts": {
                "total": "1",
                "hash": "1BCAF7EE780E3B54A5CCF600FFE70A3A8D417F20"
              }
            },
            "signature": {
              "type": "tendermint/SignatureEd25519",
              "value": "ovnsX3jphVZiyHAvW019NdouBrLr9Jt1nhYDlUwp7YtfdogZM21GDS+ANtnjeTDtl3qfLHryW0rJZGHkqdekCg=="
            }
          },
          {
            "validator_address": "FF3F3FCBCE7E62D7AD5506FF846EC4518D980515",
            "validator_index": "100",
            "height": "33056",
            "round": "1",
            "timestamp": "2018-08-01T12:59:28.615273548Z",
            "type": 2,
            "block_id": {
              "hash": "A8637322DB5C9D876BD6785868DEEEE1775F0D97",
              "parts": {
                "total": "1",
                "hash": "1BCAF7EE780E3B54A5CCF600FFE70A3A8D417F20"
              }
            },
            "signature": {
              "type": "tendermint/SignatureEd25519",
              "value": "YdacwcJTPuRwlDgshcipYJ8Jdp+Euc3I6fKfKW7vgNTPO2pbY8PjXaaJuo3qVoxVxltCu3EXnkRLWuRsEPm1Aw=="
            }
          }
        ]
      }
    },
    "canonical": true
  }
}