{
  "jsonrpc": "2.0",
  "id": "",
  "result": {
    "SignedHeader": {
      "header": {
        "chain_id": "gaia-7004",
        "height": "33248",
        "time": "2018-08-01T13:19:21.199781406Z",
        "num_txs": "0",
        "last_block_id": {
          "hash": "29413A5CCE55D80A7A8D28FB44ABE5F14C3593A5",
          "parts": {
            "total": "1",
            "hash": "EF88C74CF7D9F5AE86E6BB444E761AF14ECD15BB"
          }
        },
        "total_txs": "1771",
        "last_commit_hash": "40B260E3AC40A0EEF24D2C358EADACBE52C5E966",
        "data_hash": "",
        "validators_hash": "C12E9D5D25D137A341A7FD8AC800BC06160BA04F",
        "consensus_hash": "D6B74BB35BDFFD8392340F2A379173548AE188FE",
        "app_hash": "F18999AA1A75459F3AB5736A5F8D745AB9099757",
        "last_results_hash": "",
        "evidence_hash": ""
      },
      "commit": {
        "block_id": {
          "hash": "44371B1489F376A0EBCAE4AACB4B87EF78B1C20E",
          "parts": {
            "total": "1",
            "hash": "2045185C3E6FCD8EE902707DD2E9186822578F57"
          }
        },
        "precommits": [
          {
            "validator_address": "029359C0C768096273A68ABC902A6B17AC8D1D70",
            "validator_index": "0",
            "height": "33248",
            "round": "1",
            "timestamp": "2018-08-01T13:19:22.818916752Z",
            "type": 2,
            "block_id": {
              "hash": "44371B1489F376A0EBCAE4AACB4B87EF78B1C20E",
              "parts": {
                "total": "1",
                "hash": "2045185C3E6FCD8EE902707DD2E9186822578F57"
              }
            },
            "signature": {
              "type": "tendermint/SignatureEd25519",
              "value": "9pSBoTk3pmyaO+cs9qQLn1RD3g+mMmJHQ6YtIa4r/bdB/lZiEAYUheC818j0e7KSMYKHIzGiwls39NK7eq/aCA=="
            }
          },
          {
            "validator_address": "02FE4B97A8387F39D1AC19E0C1702B3CC614812F",
            "validator_index": "1",
            "height": "33248",
            "round": "1",
            "timestamp": "2018-08-01T13:19:22.842908797Z",
            "type": 2,
            "block_id": {
              "hash": "44371B1489F376A0EBCAE4AACB4B87EF78B1C20E",
              "parts": {
                "total": "1",
                "hash": "2045185C3E6FCD8EE902707DD2E9186822578F57"
              }
            },
            "signature": {
              "type": "tendermint/SignatureEd25519",
              "value": "yKua8WkM+QCCRTcrmSK3fhpaWTJaQNA63QGIU13zOPCQX5klZia4YC2DF8fQCQ1VjU2dEshyloR6yB2SRxL2Aw=="
            }
          },
          {
            "validator_address": "0548261C50222FD710EB5EBDF03A0E6567B21D20",
            "validator_index": "2",
            "height": "33248",
            "round": "1",
            "timestamp": "2018-08-01T13:19:22.935301434Z",
            "type": 2,
            "block_id": {
              "hash": "44371B1489F376A0EBCAE4AACB4B87EF78B1C20E",
              "parts": {
                "total": "1",
                "hash": "2045185C3E6FCD8EE902707DD2E9186822578F57"
              }
            },
            "signature": {
              "type": "tendermint/SignatureEd25519",
              "value": "52mja9rffT1uKsNDCT7FooHxrbunoFqttLehMxrXObMgUlyV51HEvNjQhMROEC6q/mgnEjZSxuKUaksXZQGfAQ=="
            }
          },
          {
            "validator_address": "0665ADBF9B120B7617BF955AA5653A1992C82B11",
            "validator_index": "3",
            "height": "33248",
            "round": "1",
            "timestamp": "2018-08-01T13:19:22.870511831Z",
            "type": 2,
            "block_id": {
              "hash": "44371B1489F376A0EBCAE4AACB4B87EF78B1C20E",
              "parts": {
                "total": "1",
                "hash": "2045185C3E6FCD8EE902707DD2E9186822578F57"
              }
            },
            "signature": {
              "type": "tendermint/SignatureEd25519",
              "value": "i7aMigkdIwA6r79ZbPqcjeAv4c8W+0eE3LgbhbZdz/CG4GhBMMLKSgP6c80Z4oq7Fo1vqaLpYVVh2XnZtplPAQ=="
            }
          },
          {
            "validator_address": "09145E611CC27EEB944FC5A956DDF710F943B9EF",
            "validator_index": "4",
            "height": "33248",
            "round": "1",
            "timestamp": "2018-08-01T13:19:22.921711754Z",
            "type": 2,
            "block_id": {
              "hash": "44371B1489F376A0EBCAE4AACB4B87EF78B1C20E",
              "parts": {
                "total": "1",
                "hash": "2045185C3E6FCD8EE902707DD2E9186822578F57"
              }
            },
            "signature": {
              "type": "tendermint/SignatureEd25519",
              "value": "tZTfzFTGdP0mEmC+zQW6F9DZ8d7+wbhYPA1djpE/7xmjro3e3Nu0ABSUX0Z1BC46yvoQezGeCulHQSnhaT1DDQ=="
            }
          },
          {
            "validator_address": "0989D0355A104B67AE0AE028C68FB610690E174B",
            "validator_index": "5",
            "height": "33248",
            "round": "1",
            "timestamp": "2018-08-01T13:19:22.842314577Z",
            "type": 2,
            "block_id": {
              "hash": "44371B1489F376A0EBCAE4AACB4B87EF78B1C20E",
              "parts": {
                "total": "1",
                "hash": "2045185C3E6FCD8EE902707DD2E9186822578F57"
              }
            },
            "signature": {
              "type": "tendermint/SignatureEd25519",
              "value": "mHSy20bh7lxEnl+yfwlR0CRToYNdQDZvi+/NW40K9Alov48S4dd6whXG1CM+1KxTNOo0oYYNTNUFJtLsarSdDw=="
            }
          },
          {
            "validator_address": "0A692DBFFE9E5DD28E7DECC33CED1AEB4C0D014E",
            "validator_index": "6",
            "height": "33248",
            "round": "1",
            "timestamp": "2018-08-01T13:19:22.973689707Z",
            "type": 2,
            "block_id": {
              "hash": "44371B1489F376A0EBCAE4AACB4B87EF78B1C20E",
              "parts": {
                "total": "1",
                "hash": "2045185C3E6FCD8EE902707DD2E9186822578F57"
              }
            },
            "signature": {
              "type": "tendermint/SignatureEd25519",
              "value": "wnuQ9n8viqJhTFV2f1LciQimB5cG2/uY8OaUGxN1Dc/KMfJTH38YdYGqz7mPE9Q15ZT1gXqKAyEqXIoyqTfjAQ=="
            }
          },
          {
            "validator_address": "0DDF97111D73DB825138EC15EC27DE5FE8536901",
            "validator_index": "7",
            "height": "33248",
            "round": "1",
            "timestamp": "2018-08-01T13:19:22.909904264Z",
            "type": 2,
            "block_id": {
              "hash": "44371B1489F376A0EBCAE4AACB4B87EF78B1C20E",
              "parts": {
                "total": "1",
                "hash": "2045185C3E6FCD8EE902707DD2E9186822578F57"
              }
            },
            "signature": {
              "type": "tendermint/SignatureEd25519",
              "value": "4UH4LK8p8H436nAlqJkR5oUmPT0qwoE8a/rKBHLBxfrRkoDqfDMaxEuQ2lFjROh/s51DaXiF06wTgcuu+Y+tCg=="
            }
          },
          {
            "validator_address": "1751786EFC085D5331C61168FFFC8202EA151B4E",
            "validator_index": "8",
            "height": "33248",
            "round": "1",
            "timestamp": "2018-08-01T13:19:22.561757011Z",
            "type": 2,
            "block_id": {
              "hash": "44371B1489F376A0EBCAE4AACB4B87EF78B1C20E",
              "parts": {
                "total": "1",
                "hash": "2045185C3E6FCD8EE902707DD2E9186822578F57"
              }
            },
            "signature": {
              "type": "tendermint/SignatureEd25519",
              "value": "t3a9hzoR2biTNocuTOPB3dYiYw6qWWn5vV8I+3B0WQLsOv3JrXV1m+E40WSa9oGXR8dZT6wkaPGj46EzySJ/Ag=="
            }
          },
          {
            "validator_address": "17BB5CD01E8940FAFB948A04D5FA5A0645E5822E",
            "validator_index": "9",
            "height": "33248",
            "round": "1",
            "timestamp": "2018-08-01T13:19:22.814931618Z",
            "type": 2,
            "block_id": {
              "hash": "44371B1489F376A0EBCAE4AACB4B87EF78B1C20E",
              "parts": {
                "total": "1",
                "hash": "2045185C3E6FCD8EE902707DD2E9186822578F57"
              }
            },
            "signature": {
              "type": "tendermint/SignatureEd25519",
              "value": "dClHOmw6PTNakvocS4s3A3cbkeGQvO1EeP6PrnjBS//nCN7HTaB//mvNMgpLroI7xkgN6vnQIvzxoe4lrfdKAg=="
            }
          },
          {
            "validator_address": "1C683A87904BC38F05004FE83301A3A3E35447EB",
            "validator_index": "10",
            "height": "33248",
            "round": "1",
            "timestamp": "2018-08-01T13:19:22.842572094Z",
            "type": 2,
            "block_id": {
              "hash": "44371B1489F376A0EBCAE4AACB4B87EF78B1C20E",
              "parts": {
                "total": "1",
                "hash": "2045185C3E6FCD8EE902707DD2E9186822578F57"
              }
            },
            "signature": {
              "type": "tendermint/SignatureEd25519",
              "value": "Ma8V6TcByQCyHvyVGBe+q/Ik4fKjXTtmod7kofrfJ6OIOXes2mXMe9/e+d21onibZloUFxsrbEqX9TC/eAVjAQ=="
            }
          },
          {
            "validator_address": "1E9CE94FD0BA5CFEB901F90BC658D64D85B134D2",
            "validator_index": "11",
            "height": "33248",
            "round": "1",
            "timestamp": "2018-08-01T13:19:22.845432924Z",
            "type": 2,
            "block_id": {
              "hash": "44371B1489F376A0EBCAE4AACB4B87EF78B1C20E",
              "parts": {
                "total": "1",
                "hash": "2045185C3E6FCD8EE902707DD2E9186822578F57"
              }
            },
            "signature": {
              "type": "tendermint/SignatureEd25519",
              "value": "AWfX8Pk4Rl6ry1rPyZpQnznsIL2ZQs88bg9FiAo0SJ+w+T2okiUUbmep/T7CuKeFXQ/OKPTH00YuKf1TlDjsDw=="
            }
          },
          {
            "validator_address": "1ECD8C5FE1341D74CDC633A245DD56858DE2F9A2",
            "validator_index": "12",
            "height": "33248",
            "round": "1",
            "timestamp": "2018-08-01T13:19:22.99381658Z",
            "type": 2,
            "block_id": {
              "hash": "44371B1489F376A0EBCAE4AACB4B87EF78B1C20E",
              "parts": {
                "total": "1",
                "hash": "2045185C3E6FCD8EE902707DD2E9186822578F57"
              }
            },
            "signature": {
              "type": "tendermint/SignatureEd25519",
              "value": "8oixTY34tvDGo9987ZLyR1PfSBlzCGQsI70DJhChKcsi02c+2jUXBhEN7P14Z2e72lv6TrbsjC3V1yVJMGriAw=="
            }
          },
          {
            "validator_address": "1F3A68CAAD483768AA2BF667DEF10F7104C89928",
            "validator_index": "13",
            "height": "33248",
            "round": "1",
            "timestamp": "2018-08-01T13:19:22.843471879Z",
            "type": 2,
            "block_id": {
              "hash": "44371B1489F376A0EBCAE4AACB4B87EF78B1C20E",
              "parts": {
                "total": "1",
                "hash": "2045185C3E6FCD8EE902707DD2E9186822578F57"
              }
            },
            "signature": {
              "type": "tendermint/SignatureEd25519",
              "value": "p+LqVxT8OpVhZ7zhRI5w64IxELkQiL1N1ljAz2WBBhpDoH0FWXRbbgVCse2MWiJqOcVtlzTGrDAVkI9xzrK0CQ=="
            }
          },
          {
            "validator_address": "1F61153F26C2DF27E15874268D30326287323352",
            "validator_index": "14",
            "height": "33248",
            "round": "1",
            "timestamp": "2018-08-01T13:19:22.992413431Z",
            "type": 2,
            "block_id": {
              "hash": "44371B1489F376A0EBCAE4AACB4B87EF78B1C20E",
              "parts": {
                "total": "1",
                "hash": "2045185C3E6FCD8EE902707DD2E9186822578F57"
              }
            },
            "signature": {
              "type": "tendermint/SignatureEd25519",
              "value": "I32EPQJvTVpbBGNxv96bxffbiJ0pOsx/mavz+s2zWyRL1tsv7UVwGfsqvpQqJyYwnlNO7UIHRsP//uoeQpu6Bg=="
            }
          },
          {
            "validator_address": "23897586D68E2AC1C78E0EF5BB5DF5C8EAB18F50",
            "validator_index": "15",
            "height": "33248",
            "round": "1",
            "timestamp": "2018-08-01T13:19:22.93549831Z",
            "type": 2,
            "block_id": {
              "hash": "44371B1489F376A0EBCAE4AACB4B87EF78B1C20E",
              "parts": {
                "total": "1",
                "hash": "2045185C3E6FCD8EE902707DD2E9186822578F57"
              }
            },
            "signature": {
              "type": "tendermint/SignatureEd25519",
              "value": "Shwo7+/sY9Z1NMMPa/omygnY4VThacjm6sNhsBedzYYPWDXU30h/c+T6vQIjN+aiSvfcm+UTMYm2i9LxvfDACg=="
            }
          },
          {
            "validator_address": "28770D17E8530825E7310A0659308654B7EC9682",
            "validator_index": "16",
            "height": "33248",
            "round": "1",
            "timestamp": "2018-08-01T13:19:22.836712258Z",
            "type": 2,
            "block_id": {
              "hash": "44371B1489F376A0EBCAE4AACB4B87EF78B1C20E",
              "parts": {
                "total": "1",
                "hash": "2045185C3E6FCD8EE902707DD2E9186822578F57"
              }
            },
            "signature": {
              "type": "tendermint/SignatureEd25519",
              "value": "7chq3tiQtJfMqiHASOh/uqE01qJTYJNokpmBl4nW3elRYWI8pdVgOpioEZBmfCnja3VnmnNjGJwFU8VGE+CzAQ=="
            }
          },
          {
            "validator_address": "2A92EC3C642140202298D0E245095E0ECFC25228",
            "validator_index": "17",
            "height": "33248",
            "round": "1",
            "timestamp": "2018-08-01T13:19:22.858821055Z",
            "type": 2,
            "block_id": {
              "hash": "44371B1489F376A0EBCAE4AACB4B87EF78B1C20E",
              "parts": {
                "total": "1",
                "hash": "2045185C3E6FCD8EE902707DD2E9186822578F57"
              }
            },
            "signature": {
              "type": "tendermint/SignatureEd25519",
              "value": "F/SzkTc8xBZlG3ThRn7PGKj4khwBuRaUM3dY87PDkcUYy/r+vGu4CPoSG80AADc6EwPWayO5CIgENYQ+svIPCA=="
            }
          },
          {
            "validator_address": "33412C9A69C60CB0FAA24A5C5B3A906DE24B47C2",
            "validator_index": "18",
            "height": "33248",
            "round": "1",
            "timestamp": "2018-08-01T13:19:22.835328001Z",
            "type": 2,
            "block_id": {
              "hash": "44371B1489F376A0EBCAE4AACB4B87EF78B1C20E",
              "parts": {
                "total": "1",
                "hash": "2045185C3E6FCD8EE902707DD2E9186822578F57"
              }
            },
            "signature": {
              "type": "tendermint/SignatureEd25519",
              "value": "3+k4ZyXJJqj8n8GzpsZ3PTltVsKDennGx6sEElzu0xTsCSp51+KWxjJC4gylKH9P62Kyhj8i5SOuxFHJNzPJAA=="
            }
          },
          {
            "validator_address": "36E9B7FAEC964F97D84C028ED62493E373AD0B38",
            "validator_index": "19",
            "height": "33248",
            "round": "1",
            "timestamp": "2018-08-01T13:19:23.044901501Z",
            "type": 2,
            "block_id": {
              "hash": "44371B1489F376A0EBCAE4AACB4B87EF78B1C20E",
              "parts": {
                "total": "1",
                "hash": "2045185C3E6FCD8EE902707DD2E9186822578F57"
              }
            },
            "signature": {
              "type": "tendermint/SignatureEd25519",
              "value": "RBzz6QDrSRwxbSp03S/csDXfFqRi+nHe0OmCjDgE89Qz+vVPejBdekimsfABjyBVcTXe6ndC5n3ml4zn59azAA=="
            }
          },
          {
            "validator_address": "38A8D85D36BEA2E5FCF8A1E778F53628E450EF13",
            "validator_index": "20",
            "height": "33248",
            "round": "1",
            "timestamp": "2018-08-01T13:19:22.958346936Z",
            "type": 2,
            "block_id": {
              "hash": "44371B1489F376A0EBCAE4AACB4B87EF78B1C20E",
              "parts": {
                "total": "1",
                "hash": "2045185C3E6FCD8EE902707DD2E9186822578F57"
              }
            },
            "signature": {
              "type": "tendermint/SignatureEd25519",
              "value": "DpViLBeIP6GmGRbwKYNgf+VqPm+c8LFlIYlpd1bUsJfF62jTuoELV0KCCXJz1Lp6b+7cYjlW+dWGwAev5kdNAA=="
            }
          },
          {
            "validator_address": "39DFDA0C5DB84B269642188B23253508537798E6",
            "validator_index": "21",
            "height": "33248",
            "round": "1",
            "timestamp": "2018-08-01T13:19:22.840693472Z",
            "type": 2,
            "block_id": {
              "hash": "44371B1489F376A0EBCAE4AACB4B87EF78B1C20E",
              "parts": {
                "total": "1",
                "hash": "2045185C3E6FCD8EE902707DD2E9186822578F57"
              }
            },
            "signature": {
              "type": "tendermint/SignatureEd25519",
              "value": "NyytvPQQQqentJ/hJXjW/pKcR3OtPePNQsYwG+PSwJxwUf7gKO1eGgMGGTAfFdUZJKVnV7u7R+rVo+RdyPTaBQ=="
            }
          },
          {
            "validator_address": "3AC99B708404452366E0953A4BE849226DC86CBC",
            "validator_index": "22",
            "height": "33248",
            "round": "1",
            "timestamp": "2018-08-01T13:19:22.93011766Z",
            "type": 2,
            "block_id": {
              "hash": "44371B1489F376A0EBCAE4AACB4B87EF78B1C20E",
              "parts": {
                "total": "1",
                "hash": "2045185C3E6FCD8EE902707DD2E9186822578F57"
              }
            },
            "signature": {
              "type": "tendermint/SignatureEd25519",
              "value": "EE3c5D/HXJDUqHCrT8PEtLyQM2vydXH45soGT1DuVR+iC2WZI/tqVqpgfAs5+ZxNsGba9jxaLnpSw1bFvkqkAQ=="
            }
          },
          {
            "validator_address": "3DCB822A10ED319EC7C4393D8E3FD4A41B15AAF2",
            "validator_index": "23",
            "height": "33248",
            "round": "1",
            "timestamp": "2018-08-01T13:19:22.816021434Z",
            "type": 2,
            "block_id": {
              "hash": "44371B1489F376A0EBCAE4AACB4B87EF78B1C20E",
              "parts": {
                "total": "1",
                "hash": "2045185C3E6FCD8EE902707DD2E9186822578F57"
              }
            },
            "signature": {
              "type": "tendermint/SignatureEd25519",
              "value": "TzqWwP+XJzofONPigOWeFShfdVYAIz4Q+SOD8pPQW/fOPRlojnBAj+RArz/gBgLNKDJ37aA5cz7c14xM6vo0CQ=="
            }
          },
          {
            "validator_address": "3E899BA36A93C7370347BD5FE85909F2ECD93F8C",
            "validator_index": "24",
            "height": "33248",
            "round": "1",
            "timestamp": "2018-08-01T13:19:22.834739379Z",
            "type": 2,
            "block_id": {
              "hash": "44371B1489F376A0EBCAE4AACB4B87EF78B1C20E",
              "parts": {
                "total": "1",
                "hash": "2045185C3E6FCD8EE902707DD2E9186822578F57"
              }
            },
            "signature": {
              "type": "tendermint/SignatureEd25519",
              "value": "9RkWfqErqzDVLV0Fk8mjqeMkEQkVRM6wSmnB2Wy9z6mXRWArQ9EBIdl4gZQ4tLCQ5qyW2Pg/U1ywhOMicsh2DA=="
            }
          },
          {
            "validator_address": "41CAB2E29E7D0F2282E3275938F188FF9386B84C",
            "validator_index": "25",
            "height": "33248",
            "round": "1",
            "timestamp": "2018-08-01T13:19:22.956990353Z",
            "type": 2,
            "block_id": {
              "hash": "44371B1489F376A0EBCAE4AACB4B87EF78B1C20E",
              "parts": {
                "total": "1",
                "hash": "2045185C3E6FCD8EE902707DD2E9186822578F57"
              }
            },
            "signature": {
              "type": "tendermint/SignatureEd25519",
              "value": "kb02/rC8yX0S+nKQPhZPSrzyrA935BleA4T96XTHUMe0OWlO5Yiw/XmdLpEudTmDGrg4XpbYatcZqcjrSMuKDg=="
            }
          },
          {
            "validator_address": "462B656869DB02A8FD1077E255F8CC7401DC37C6",
            "validator_index": "26",
            "height": "33248",
            "round": "1",
            "timestamp": "2018-08-01T13:19:22.823236535Z",
            "type": 2,
            "block_id": {
              "hash": "44371B1489F376A0EBCAE4AACB4B87EF78B1C20E",
              "parts": {
                "total": "1",
                "hash": "2045185C3E6FCD8EE902707DD2E9186822578F57"
              }
            },
            "signature": {
              "type": "tendermint/SignatureEd25519",
              "value": "iUlPU5CXFnS18KNYkOZOm+e13V53LirQgJi7P1jDRv+JJoCe8oEPorn4DI9NY3I0LrcGZT0CC2Seo04sI0btDA=="
            }
          },
          {
            "validator_address": "48E5118163E5442068A1B5A42D2EEDBB75724935",
            "validator_index": "27",
            "height": "33248",
            "round": "1",
            "timestamp": "2018-08-01T13:19:22.940828759Z",
            "type": 2,
            "block_id": {
              "hash": "44371B1489F376A0EBCAE4AACB4B87EF78B1C20E",
              "parts": {
                "total": "1",
                "hash": "2045185C3E6FCD8EE902707DD2E9186822578F57"
              }
            },
            "signature": {
              "type": "tendermint/SignatureEd25519",
              "value": "/pjVBHfgV1/MErCPL1eQurg4i2IjIB+1vlkqtwv/kjUqXQmNoQRg/fRJVhVdBQS/xIyyHloxPFE9JMxWgjlbBw=="
            }
          },
          {
            "validator_address": "49103C58AFD9C7C069F55EBA218F3DFD9AEA74F9",
            "validator_index": "28",
            "height": "33248",
            "round": "1",
            "timestamp": "2018-08-01T13:19:22.890126053Z",
            "type": 2,
            "block_id": {
              "hash": "44371B1489F376A0EBCAE4AACB4B87EF78B1C20E",
              "parts": {
                "total": "1",
                "hash": "2045185C3E6FCD8EE902707DD2E9186822578F57"
              }
            },
            "signature": {
              "type": "tendermint/SignatureEd25519",
              "value": "Q8UVx2E9QnpIuPmxpDAH9/IMb0ghr6M5hpsW6JsoPZg7B8562ngkrPiZg5RILaAjxzYaNSMDBf2LBR9Sm8+TBA=="
            }
          },
          {
            "validator_address": "4944F8BBBB5303E17BC0607DF332320EDBC750EA",
            "validator_index": "29",
            "height": "33248",
            "round": "1",
            "timestamp": "2018-08-01T13:19:22.836832063Z",
            "type": 2,
            "block_id": {
              "hash": "44371B1489F376A0EBCAE4AACB4B87EF78B1C20E",
              "parts": {
                "total": "1",
                "hash": "2045185C3E6FCD8EE902707DD2E9186822578F57"
              }
            },
            "signature": {
              "type": "tendermint/SignatureEd25519",
              "value": "M4HBZWCRgh44MSuT3mPKpFj+QUadUX6Ri4CSzbQaD/vLnYQONF9ewa3nESUegSpSQtMKcuCAowxMhvem9vV8Bw=="
            }
          },
          {
            "validator_address": "49841599DE675157CBE1E7D6B35BF8FFC23BD5CB",
            "validator_index": "30",
            "height": "33248",
            "round": "1",
            "timestamp": "2018-08-01T13:19:22.812981914Z",
            "type": 2,
            "block_id": {
              "hash": "44371B1489F376A0EBCAE4AACB4B87EF78B1C20E",
              "parts": {
                "total": "1",
                "hash": "2045185C3E6FCD8EE902707DD2E9186822578F57"
              }
            },
            "signature": {
              "type": "tendermint/SignatureEd25519",
              "value": "vDhfh6wBb+0obvBbN8/VyaHwMcGsSjE/rrpWG0vFTvYK87zZJ1nS0ovEHso3neDkvuVYDqM6VJTYOCmZr1XDCA=="
            }
          },
          {
            "validator_address": "51386C2CF9556821D114D7E4945806802BADB28D",
            "validator_index": "31",
            "height": "33248",
            "round": "1",
            "timestamp": "2018-08-01T13:19:22.850809Z",
            "type": 2,
            "block_id": {
              "hash": "44371B1489F376A0EBCAE4AACB4B87EF78B1C20E",
              "parts": {
                "total": "1",
                "hash": "2045185C3E6FCD8EE902707DD2E9186822578F57"
              }
            },
            "signature": {
              "type": "tendermint/SignatureEd25519",
              "value": "lddLLu500j9hwt0m5DrqPIw34dhFQpA74+wVNhSOsAXfRVb82mqbR7jzMxWhSScYqq7YLwWPZepgZ1k6z87JBw=="
            }
          },
          {
            "validator_address": "543564ECA3AFEFADC73EE8591AAC3A96F079BC8A",
            "validator_index": "32",
            "height": "33248",
            "round": "1",
            "timestamp": "2018-08-01T13:19:22.848146143Z",
            "type": 2,
            "block_id": {
              "hash": "44371B1489F376A0EBCAE4AACB4B87EF78B1C20E",
              "parts": {
                "total": "1",
                "hash": "2045185C3E6FCD8EE902707DD2E9186822578F57"
              }
            },
            "signature": {
              "type": "tendermint/SignatureEd25519",
              "value": "8cgNm/zOV9Xqw+ZmGEI9Q3J2K+hNOVSirNIJ51NHL1BvKpviIt89GIvSemtzTKHwO5kcsDnteRXHZWB1LP33Dg=="
            }
          },
          {
            "validator_address": "55D67B1A6DC13E96F8754A5A42EABC20F7F86664",
            "validator_index": "33",
            "height": "33248",
            "round": "1",
            "timestamp": "2018-08-01T13:19:22.891565882Z",
            "type": 2,
            "block_id": {
              "hash": "44371B1489F376A0EBCAE4AACB4B87EF78B1C20E",
              "parts": {
                "total": "1",
                "hash": "2045185C3E6FCD8EE902707DD2E9186822578F57"
              }
            },
            "signature": {
              "type": "tendermint/SignatureEd25519",
              "value": "xSTkC6mP5NO3E0FG77fDooEOHMTV9lwQ55DfeAqpIpZj1KKwYsMjU02qxEym4JM9VwRBZWblDaVPMHViGf8NDw=="
            }
          },
          {
            "validator_address": "570B6A755ED339EAC56BB3390A48069F6AC9449B",
            "validator_index": "34",
            "height": "33248",
            "round": "1",
            "timestamp": "2018-08-01T13:19:29.479170813Z",
            "type": 2,
            "block_id": {
              "hash": "44371B1489F376A0EBCAE4AACB4B87EF78B1C20E",
              "parts": {
                "total": "1",
                "hash": "2045185C3E6FCD8EE902707DD2E9186822578F57"
              }
            },
            "signature": {
              "type": "tendermint/SignatureEd25519",
              "value": "m9p3MZsieVFlTC6jYec0BLf0ZfwBFJHbXQZ60j3nmeN6OFvRI0o0Fyngq4oFO0uX2cPohxHRZlom9C36RCp1Bg=="
            }
          },
          {
            "validator_address": "5BDF8EA41B1835FBAD865B181A2A4B23F511B5E4",
            "validator_index": "35",
            "height": "33248",
            "round": "1",
            "timestamp": "2018-08-01T13:19:22.795178172Z",
            "type": 2,
            "block_id": {
              "hash": "44371B1489F376A0EBCAE4AACB4B87EF78B1C20E",
              "parts": {
                "total": "1",
                "hash": "2045185C3E6FCD8EE902707DD2E9186822578F57"
              }
            },
            "signature": {
              "type": "tendermint/SignatureEd25519",
              "value": "BdzyOV9kXDQ4r+HGQaXhXtarJ96R4H3XXl17x8dYgB0/RqvMT3XksSO5iN/olBOsmTiVAbckoZe1my7ZXIVhAA=="
            }
          },
          {
            "validator_address": "60229E2E273297FE00219E46DFFB8F76844CDEF9",
            "validator_index": "36",
            "height": "33248",
            "round": "1",
            "timestamp": "2018-08-01T13:19:20.914542514Z",
            "type": 2,
            "block_id": {
              "hash": "44371B1489F376A0EBCAE4AACB4B87EF78B1C20E",
              "parts": {
                "total": "1",
                "hash": "2045185C3E6FCD8EE902707DD2E9186822578F57"
              }
            },
            "signature": {
              "type": "tendermint/SignatureEd25519",
              "value": "1s6LsdMklbOYUuhnaUf2oyo1GnYEegts0kjLqEPiWee4zl8pmHhl/j8gQUcLFPdfUDiNFo6NAeGpsSr1thYiAA=="
            }
          },
          {
            "validator_address": "62410D6D1CD98278136E4D0738AA0EA273CDFC54",
            "validator_index": "37",
            "height": "33248",
            "round": "1",
            "timestamp": "2018-08-01T13:19:22.803913091Z",
            "type": 2,
            "block_id": {
              "hash": "44371B1489F376A0EBCAE4AACB4B87EF78B1C20E",
              "parts": {
                "total": "1",
                "hash": "2045185C3E6FCD8EE902707DD2E9186822578F57"
              }
            },
            "signature": {
              "type": "tendermint/SignatureEd25519",
              "value": "ywINj3jEmAJKVatnU3ECVsvdEACFeEmJg9UzdHJ73udtqzg7mTgNLhjkFJ+GXR6zdqjl0H/GVSqgVhxj+85/CQ=="
            }
          },
          {
            "validator_address": "632F5C139A5A9DFBFE5111DEE29FCFB6157207DC",
            "validator_index": "38",
            "height": "33248",
            "round": "1",
            "timestamp": "2018-08-01T13:19:22.892518245Z",
            "type": 2,
            "block_id": {
              "hash": "44371B1489F376A0EBCAE4AACB4B87EF78B1C20E",
              "parts": {
                "total": "1",
                "hash": "2045185C3E6FCD8EE902707DD2E9186822578F57"
              }
            },
            "signature": {
              "type": "tendermint/SignatureEd25519",
              "value": "hu48DYHvXCFZt9m/Bh0B4H1yhEYtyPAo/DXAsGVZlQSxImdoWw4jiUtGvQ+g9YRRexEFN2A/B6c42eZXuwpLAQ=="
            }
          },
          {
            "validator_address": "64F57F8E796A9B7B590C1EFA4123988C86631D39",
            "validator_index": "39",
            "height": "33248",
            "round": "1",
            "timestamp": "2018-08-01T13:19:22.810807359Z",
            "type": 2,
            "block_id": {
              "hash": "44371B1489F376A0EBCAE4AACB4B87EF78B1C20E",
              "parts": {
                "total": "1",
                "hash": "2045185C3E6FCD8EE902707DD2E9186822578F57"
              }
            },
            "signature": {
              "type": "tendermint/SignatureEd25519",
              "value": "LKI6wkbydt7nq59qmGKWTDMvWWawKNrKkMnx2e1OXjClBeTpCOfFWstpNTJzfdbaRGgASCe76nItjxnfWH5oAg=="
            }
          },
          {
            "validator_address": "69D99B2C66043ACBEAA8447525C356AFC6408E0C",
            "validator_index": "40",
            "height": "33248",
            "round": "1",
            "timestamp": "2018-08-01T13:19:22.925478714Z",
            "type": 2,
            "block_id": {
              "hash": "44371B1489F376A0EBCAE4AACB4B87EF78B1C20E",
              "parts": {
                "total": "1",
                "hash": "2045185C3E6FCD8EE902707DD2E9186822578F57"
              }
            },
            "signature": {
              "type": "tendermint/SignatureEd25519",
              "value": "0lWMlaTVVDiflxPurdyUBqMTjY+gQ/1NBFg4rlds2Tn7MD8yO14VTwejKtdTHf9ifACdAHiVoSenTvQhH0xEAw=="
            }
          },
          {
            "validator_address": "69EDADFA4A803E9DBF548C900D4A465E7D154262",
            "validator_index": "41",
            "height": "33248",
            "round": "1",
            "timestamp": "2018-08-01T13:19:22.985118193Z",
            "type": 2,
            "block_id": {
              "hash": "44371B1489F376A0EBCAE4AACB4B87EF78B1C20E",
              "parts": {
                "total": "1",
                "hash": "2045185C3E6FCD8EE902707DD2E9186822578F57"
              }
            },
            "signature": {
              "type": "tendermint/SignatureEd25519",
              "value": "c2L5V9rgnge+M0Y8W+L8k51f/03qAOTNGHu/HmOUrRk12dcsuKuOR3xEsn/i5qi4T7aHywTOychfyD8JXpFCAQ=="
            }
          },
          {
            "validator_address": "6D3AD380E398D8592B03AA124BAFED5F125DF863",
            "validator_index": "42",
            "height": "33248",
            "round": "1",
            "timestamp": "2018-08-01T13:18:20.667197328Z",
            "type": 2,
            "block_id": {
              "hash": "44371B1489F376A0EBCAE4AACB4B87EF78B1C20E",
              "parts": {
                "total": "1",
                "hash": "2045185C3E6FCD8EE902707DD2E9186822578F57"
              }
            },
            "signature": {
              "type": "tendermint/SignatureEd25519",
              "value": "ayeJpTTvdHwWqAAKc5uoRlfJmBvFyBXtBdQF/UGrqRydWwI/is5yLREgXnKwkdm1AdF+lgqzG7TtgsYRdat0AA=="
            }
          },
          {
            "validator_address": "6F6C93B8BF3495063FEC9B5C771158607F4AE9D6",
            "validator_index": "43",
            "height": "33248",
            "round": "1",
            "timestamp": "2018-08-01T13:19:23.060427415Z",
            "type": 2,
            "block_id": {
              "hash": "44371B1489F376A0EBCAE4AACB4B87EF78B1C20E",
              "parts": {
                "total": "1",
                "hash": "2045185C3E6FCD8EE902707DD2E9186822578F57"
              }
            },
            "signature": {
              "type": "tendermint/SignatureEd25519",
              "value": "px+k+XmYAMqZoiGbm3WiZNuI1Sa0+FVv50WYuHHju4wJBt2LrLSyI1YrW9weGcfDGUDPbP0s5wcUZro+VJJRAg=="
            }
          },
          {
            "validator_address": "732CEEF54C374DDC6ADECBFD707AEFD07FEDC143",
            "validator_index": "44",
            "height": "33248",
            "round": "1",
            "timestamp": "2018-08-01T13:19:23.023122715Z",
            "type": 2,
            "block_id": {
              "hash": "44371B1489F376A0EBCAE4AACB4B87EF78B1C20E",
              "parts": {
                "total": "1",
                "hash": "2045185C3E6FCD8EE902707DD2E9186822578F57"
              }
            },
            "signature": {
              "type": "tendermint/SignatureEd25519",
              "value": "ABM20Nr/a4YOyZ0kLq6GUZKtaGCAA2LV/lPQFDWdjocBEa8Jtsz1u5C9cWZyEG16i6EQCvGx4p1rlZVa50TRCw=="
            }
          },
          {
            "validator_address": "7393D691BFAE9661918C09932D4D9060AB40939B",
            "validator_index": "45",
            "height": "33248",
            "round": "1",
            "timestamp": "2018-08-01T13:19:23.149941025Z",
            "type": 2,
            "block_id": {
              "hash": "44371B1489F376A0EBCAE4AACB4B87EF78B1C20E",
              "parts": {
                "total": "1",
                "hash": "2045185C3E6FCD8EE902707DD2E9186822578F57"
              }
            },
            "signature": {
              "type": "tendermint/SignatureEd25519",
              "value": "oYMQDXPCgwAvtmAPThqbwaRkG0yfb9Lx69UoU3xCmaZsLSznxoZZWNIIVRHsJ6ijSnjtQyGsWWPEQCZDj+KaDg=="
            }
          },
          {
            "validator_address": "751E43437224E8BB6D1569B3E2B2616B6E7F4397",
            "validator_index": "46",
            "height": "33248",
            "round": "1",
            "timestamp": "2018-08-01T13:19:22.935704726Z",
            "type": 2,
            "block_id": {
              "hash": "44371B1489F376A0EBCAE4AACB4B87EF78B1C20E",
              "parts": {
                "total": "1",
                "hash": "2045185C3E6FCD8EE902707DD2E9186822578F57"
              }
            },
            "signature": {
              "type": "tendermint/SignatureEd25519",
              "value": "HUK7dm4I0vVl+dqxYCMg21DiC/Ql4MG2Je73gl1LrPSlK35FASWmtIgL7AYyWbp02G1JrPQJ4RkNNi+1Z+VfAA=="
            }
          },
          {
            "validator_address": "7EB7593F519F1180C7E872D0494611464EDF03AE",
            "validator_index": "47",
            "height": "33248",
            "round": "1",
            "timestamp": "2018-08-01T13:19:22.996630866Z",
            "type": 2,
            "block_id": {
              "hash": "44371B1489F376A0EBCAE4AACB4B87EF78B1C20E",
              "parts": {
                "total": "1",
                "hash": "2045185C3E6FCD8EE902707DD2E9186822578F57"
              }
            },
            "signature": {
              "type": "tendermint/SignatureEd25519",
              "value": "FZkV/meJnm40j/GGb0tprlmCj6oDseLNWk3EJi1dxtyzVOSJYo/KwYKsXGosioJFfdf6YXLhnaJ/y4YlTTpNDw=="
            }
          },
          {
            "validator_address": "807CF675BA8479FC4FEC1047215DF07970040F1F",
            "validator_index": "48",
            "height": "33248",
            "round": "1",
            "timestamp": "2018-08-01T13:19:23.055826963Z",
            "type": 2,
            "block_id": {
              "hash": "44371B1489F376A0EBCAE4AACB4B87EF78B1C20E",
              "parts": {
                "total": "1",
                "hash": "2045185C3E6FCD8EE902707DD2E9186822578F57"
              }
            },
            "signature": {
              "type": "tendermint/SignatureEd25519",
              "value": "9g2wM+rKAbC9KGhFGKplawCwnH2Q1CLdbG2WI4ihLh1ahT9jHKjFeKsg0Q/g1NxFAlkGg/Gwv6lUytcR90R8DQ=="
            }
          },
          {
            "validator_address": "83AB321E012C57746689FED3A6064DF331F81007",
            "validator_index": "49",
            "height": "33248",
            "round": "1",
            "timestamp": "2018-08-01T13:19:22.886559774Z",
            "type": 2,
            "block_id": {
              "hash": "44371B1489F376A0EBCAE4AACB4B87EF78B1C20E",
              "parts": {
                "total": "1",
                "hash": "2045185C3E6FCD8EE902707DD2E9186822578F57"
              }
            },
            "signature": {
              "type": "tendermint/SignatureEd25519",
              "value": "W5CVGpPmnMk7rN2gOfxyY5MaqxXo7nO71JxkA21b/SzTtH3lIsoJkoA7dXw6GRGkbpyuiR7F5oq1gjC4Ifp0AA=="
            }
          },
          {
            "validator_address": "83BB1B88D3DBB20AD845FECA07749EBD87D3754D",
            "validator_index": "50",
            "height": "33248",
            "round": "1",
            "timestamp": "2018-08-01T13:19:23.111182816Z",
            "type": 2,
            "block_id": {
              "hash": "44371B1489F376A0EBCAE4AACB4B87EF78B1C20E",
              "parts": {
                "total": "1",
                "hash": "2045185C3E6FCD8EE902707DD2E9186822578F57"
              }
            },
            "signature": {
              "type": "tendermint/SignatureEd25519",
              "value": "unpRmxctL/EefqR6Aytsz5AurbIQI2q45SicrDwEAKvT2+VlgU4k1FhDa1odomhtmz37kuUBFqXSfFqTuJCtDg=="
            }
          },
          {
            "validator_address": "8F06FE1FD042683C426137FBC4BBAA4288924217",
            "validator_index": "51",
            "height": "33248",
            "round": "1",
            "timestamp": "2018-08-01T13:19:22.895410829Z",
            "type": 2,
            "block_id": {
              "hash": "44371B1489F376A0EBCAE4AACB4B87EF78B1C20E",
              "parts": {
                "total": "1",
                "hash": "2045185C3E6FCD8EE902707DD2E9186822578F57"
              }
            },
            "signature": {
              "type": "tendermint/SignatureEd25519",
              "value": "n4tTi4bD3ekKycEZNqJmJwjRYzzD0U80sp4ILf6kGB/aq7z+BW45wKct3+6iJimuTpX3sncSg1OxrTnDvppDAg=="
            }
          },
          {
            "validator_address": "8F45617BF45B10A3F8283DEBDB35E38C7CA43237",
            "validator_index": "52",
            "height": "33248",
            "round": "1",
            "timestamp": "2018-08-01T13:19:22.861515719Z",
            "type": 2,
            "block_id": {
              "hash": "44371B1489F376A0EBCAE4AACB4B87EF78B1C20E",
              "parts": {
                "total": "1",
                "hash": "2045185C3E6FCD8EE902707DD2E9186822578F57"
              }
            },
            "signature": {
              "type": "tendermint/SignatureEd25519",
              "value": "XbKNoNc8GDuUj5XzpaBsPOVgMvZxxP4N7D5l2PG6I4U+D2QoYCZfaQPt1VDYLJlkUV6rAlgyOWhrnL6JZqCSAw=="
            }
          },
          {
            "validator_address": "95980831E186F2540F6E9FB6C8E74DE2401405AC",
            "validator_index": "53",
            "height": "33248",
            "round": "1",
            "timestamp": "2018-08-01T13:19:22.938959269Z",
            "type": 2,
            "block_id": {
              "hash": "44371B1489F376A0EBCAE4AACB4B87EF78B1C20E",
              "parts": {
                "total": "1",
                "hash": "2045185C3E6FCD8EE902707DD2E9186822578F57"
              }
            },
            "signature": {
              "type": "tendermint/SignatureEd25519",
              "value": "VpU9oGE1/dIgJL0jYtxf+97IC4gc/ORRqcgEf/KQ5kIZ1oZsc2ZrUOaD+s13jy/UzppW/f7IA1fJ1TPmNB9eCg=="
            }
          },
          {
            "validator_address": "95FAFBC1E0579C83D290A063020CE87C5334BD9B",
            "validator_index": "54",
            "height": "33248",
            "round": "1",
            "timestamp": "2018-08-01T13:19:22.889599936Z",
            "type": 2,
            "block_id": {
              "hash": "44371B1489F376A0EBCAE4AACB4B87EF78B1C20E",
              "parts": {
                "total": "1",
                "hash": "2045185C3E6FCD8EE902707DD2E9186822578F57"
              }
            },
            "signature": {
              "type": "tendermint/SignatureEd25519",
              "value": "z+tBEVdB4z4DFBFFwmdg9zGuZuOuO4poEVGaIlwNf00gGNdkJWpxUH21MT5lmhWvKMjslDiFsjXsAu//lZT7CA=="
            }
          },
          {
            "validator_address": "96BDE45EC52606CF5CB59853097871AD60680549",
            "validator_index": "55",
            "height": "33248",
            "round": "1",
            "timestamp": "2018-08-01T13:19:22.92020865Z",
            "type": 2,
            "block_id": {
              "hash": "44371B1489F376A0EBCAE4AACB4B87EF78B1C20E",
              "parts": {
                "total": "1",
                "hash": "2045185C3E6FCD8EE902707DD2E9186822578F57"
              }
            },
            "signature": {
              "type": "tendermint/SignatureEd25519",
              "value": "QB1imPbf2vzYFWIZG/54Vbah0zB86Ov8D3ppECfdtVbVEbp0LC8cRfeBQwJZxe3TKua0gx+kxbX7po+bzcajAg=="
            }
          },
          {
            "validator_address": "970CD321881185BF83DB2923C321B0E75FDBB2B8",
            "validator_index": "56",
            "height": "33248",
            "round": "1",
            "timestamp": "2018-08-01T13:19:22.927329061Z",
            "type": 2,
            "block_id": {
              "hash": "44371B1489F376A0EBCAE4AACB4B87EF78B1C20E",
              "parts": {
                "total": "1",
                "hash": "2045185C3E6FCD8EE902707DD2E9186822578F57"
              }
            },
            "signature": {
              "type": "tendermint/SignatureEd25519",
              "value": "mugfJfiW6upqze1Hj+vQ316G1UBjTD+VCak4FAQjlIy77GBgWEzR1TPVzN0Lv+vqo0tz4KFo10weNA2e/VCuDg=="
            }
          },
          {
            "validator_address": "97DBB3D4B3D6C29287244864448F651DD5B07390",
            "validator_index": "57",
            "height": "33248",
            "round": "1",
            "timestamp": "2018-08-01T13:19:22.925186571Z",
            "type": 2,
            "block_id": {
              "hash": "44371B1489F376A0EBCAE4AACB4B87EF78B1C20E",
              "parts": {
                "total": "1",
                "hash": "2045185C3E6FCD8EE902707DD2E9186822578F57"
              }
            },
            "signature": {
              "type": "tendermint/SignatureEd25519",
              "value": "RrE2SqZ5AM6i2D0KYb3Ty36Q7BLAkOTBRVEUP+7HU20Pccnl9zTr8bkBQag6lDnNeiScUSeJNcRjGE+QntkmDQ=="
            }
          },
          {
            "validator_address": "9C29C9B76D27586E4D9AD2AED0E943162645E55C",
            "validator_index": "58",
            "height": "33248",
            "round": "1",
            "timestamp": "2018-08-01T13:19:22.805131178Z",
            "type": 2,
            "block_id": {
              "hash": "44371B1489F376A0EBCAE4AACB4B87EF78B1C20E",
              "parts": {
                "total": "1",
                "hash": "2045185C3E6FCD8EE902707DD2E9186822578F57"
              }
            },
            "signature": {
              "type": "tendermint/SignatureEd25519",
              "value": "b7nSkrQG36eV8o1C8+mzc959s5oJtRsS7o8s6lhLbrpXJMbALGvOYFWG6d2o2OadeP5RaSPX59PIhTlQ3RlgCw=="
            }
          },
          {
            "validator_address": "9D93AD02FE1BD7E76B9E58D7EB461088EAD011E5",
            "validator_index": "59",
            "height": "33248",
            "round": "1",
            "timestamp": "2018-08-01T13:19:22.796488427Z",
            "type": 2,
            "block_id": {
              "hash": "44371B1489F376A0EBCAE4AACB4B87EF78B1C20E",
              "parts": {
                "total": "1",
                "hash": "2045185C3E6FCD8EE902707DD2E9186822578F57"
              }
            },
            "signature": {
              "type": "tendermint/SignatureEd25519",
              "value": "2XZ+K0XADow7vWUKaBzRwG/zSy5an6gX2/4QrirqrpbXG0x4jtZqM2R2FbXLTezrH2pv2H8b7camnNfDCvgfDw=="
            }
          },
          {
            "validator_address": "A0A6466F4ABEA09C3B55E3709AFDE217A103209F",
            "validator_index": "60",
            "height": "33248",
            "round": "1",
            "timestamp": "2018-08-01T13:19:22.810310977Z",
            "type": 2,
            "block_id": {
              "hash": "44371B1489F376A0EBCAE4AACB4B87EF78B1C20E",
              "parts": {
                "total": "1",
                "hash": "2045185C3E6FCD8EE902707DD2E9186822578F57"
              }
            },
            "signature": {
              "type": "tendermint/SignatureEd25519",
              "value": "6QI6wBUEKWAOcFeHShp1XHhbZFD8T6ksJCZSKyCipVbMla8RyB2hXtKSLSRWhwpVjkVZduE5chyQTcUdethrBQ=="
            }
          },
          {
            "validator_address": "A5868971300F155020634D7BB49C7634F7AACCD3",
            "validator_index": "61",
            "height": "33248",
            "round": "1",
            "timestamp": "2018-08-01T13:19:22.886449912Z",
            "type": 2,
            "block_id": {
              "hash": "44371B1489F376A0EBCAE4AACB4B87EF78B1C20E",
              "parts": {
                "total": "1",
                "hash": "2045185C3E6FCD8EE902707DD2E9186822578F57"
              }
            },
            "signature": {
              "type": "tendermint/SignatureEd25519",
              "value": "d1WIVnBQd9z4Kd8O78jqOSwzl0l6R1dI8F2vIYgu2e2opukPsWUESWfApmZB5La00y2lUH6RvZmqoWnX2yiWBg=="
            }
          },
          {
            "validator_address": "A6B3A5B5D982CFD7B5FDFA15CF5A720E7AE25E7F",
            "validator_index": "62",
            "height": "33248",
            "round": "1",
            "timestamp": "2018-08-01T13:19:22.956258646Z",
            "type": 2,
            "block_id": {
              "hash": "44371B1489F376A0EBCAE4AACB4B87EF78B1C20E",
              "parts": {
                "total": "1",
                "hash": "2045185C3E6FCD8EE902707DD2E9186822578F57"
              }
            },
            "signature": {
              "type": "tendermint/SignatureEd25519",
              "value": "VcyK481cKIeS37tl7z3AUoMcREH89bIgEVq+j+tRAzBLcrWckRAngqq84l79VJWnrtJqrEY8K8JAN3MxcenbBw=="
            }
          },
          {
            "validator_address": "AC96444A9083890B7C7B430DB17BF1D3EA5EED04",
            "validator_index": "63",
            "height": "33248",
            "round": "1",
            "timestamp": "2018-08-01T13:19:22.922431732Z",
            "type": 2,
            "block_id": {
              "hash": "44371B1489F376A0EBCAE4AACB4B87EF78B1C20E",
              "parts": {
                "total": "1",
                "hash": "2045185C3E6FCD8EE902707DD2E9186822578F57"
              }
            },
            "signature": {
              "type": "tendermint/SignatureEd25519",
              "value": "2VFK9JGWcZ1APCKxbRhhQWc1w9xrSFiW2qdH2A7/poTc61ROlOhcqyMm/lKmlbzmXdvwt86ah8dp+vCLgEejBg=="
            }
          },
          {
            "validator_address": "ACB97FDA2D940AF0709B73537C458EB988AD2893",
            "validator_index": "64",
            "height": "33248",
            "round": "1",
            "timestamp": "2018-08-01T13:19:22.840915245Z",
            "type": 2,
            "block_id": {
              "hash": "44371B1489F376A0EBCAE4AACB4B87EF78B1C20E",
              "parts": {
                "total": "1",
                "hash": "2045185C3E6FCD8EE902707DD2E9186822578F57"
              }
            },
            "signature": {
              "type": "tendermint/SignatureEd25519",
              "value": "O9qLkbGW9j8cm1QXurhOD0jGAES/96P6/jtTYiMU5sF5YPad9tUulruPnmxCVeNWqnWOFsnRZuhIc793zbW8DQ=="
            }
          },
          {
            "validator_address": "B197425B3210375F211661DE02EF2AE36580EB0F",
            "validator_index": "65",
            "height": "33248",
            "round": "1",
            "timestamp": "2018-08-01T13:19:22.909997087Z",
            "type": 2,
            "block_id": {
              "hash": "44371B1489F376A0EBCAE4AACB4B87EF78B1C20E",
              "parts": {
                "total": "1",
                "hash": "2045185C3E6FCD8EE902707DD2E9186822578F57"
              }
            },
            "signature": {
              "type": "tendermint/SignatureEd25519",
              "value": "y6ijRWBBzSrxyIX2bonY1swXig98fhBgsiZtTb6707XcQYDqh5uAirqiQ2xBDQP7IwiQctZcOi1nKaRuQnznBA=="
            }
          },
          {
            "validator_address": "B45E54D2D1CB5A4CCD1D49016608C18E7C56B270",
            "validator_index": "66",
            "height": "33248",
            "round": "1",
            "timestamp": "2018-08-01T13:19:22.952249942Z",
            "type": 2,
            "block_id": {
              "hash": "44371B1489F376A0EBCAE4AACB4B87EF78B1C20E",
              "parts": {
                "total": "1",
                "hash": "2045185C3E6FCD8EE902707DD2E9186822578F57"
              }
            },
            "signature": {
              "type": "tendermint/SignatureEd25519",
              "value": "l9C20XQirSbl8mf7d1BKsR3/6AdsLoseigeI1G+LI9yvEYt79CWvFiby9dxU3USy3BVKK/p967ujxgCW9F4pAQ=="
            }
          },
          {
            "validator_address": "BB1276BE89834835428664408917649FEEF5D90C",
            "validator_index": "67",
            "height": "33248",
            "round": "1",
            "timestamp": "2018-08-01T13:19:22.915030959Z",
            "type": 2,
            "block_id": {
              "hash": "44371B1489F376A0EBCAE4AACB4B87EF78B1C20E",
              "parts": {
                "total": "1",
                "hash": "2045185C3E6FCD8EE902707DD2E9186822578F57"
              }
            },
            "signature": {
              "type": "tendermint/SignatureEd25519",
              "value": "wRFyQp/bO0jAeSPmKb9PPABm3FT76nJBWUoKUOnCHB7ZRJZ3iRvpa+rEtdWBvDmitvJy3P7Oc9SuzuYzIk02DA=="
            }
          },
          {
            "validator_address": "BC36FEDD6EF6071118A3E51859DF3831A2EC4782",
            "validator_index": "68",
            "height": "33248",
            "round": "1",
            "timestamp": "2018-08-01T13:19:22.846517456Z",
            "type": 2,
            "block_id": {
              "hash": "44371B1489F376A0EBCAE4AACB4B87EF78B1C20E",
              "parts": {
                "total": "1",
                "hash": "2045185C3E6FCD8EE902707DD2E9186822578F57"
              }
            },
            "signature": {
              "type": "tendermint/SignatureEd25519",
              "value": "dXZ2reS9toSDzMrPGgZROmElemBvB6HtLGTildaqTqjVMLQkspByeK4xkuO5lS+JmEzn0D/IaWRK1cKwYfsiBw=="
            }
          },
          {
            "validator_address": "BD9D0DA513BF099DB4BB6E725A4E19832789882F",
            "validator_index": "69",
            "height": "33248",
            "round": "1",
            "timestamp": "2018-08-01T13:19:22.836791224Z",
            "type": 2,
            "block_id": {
              "hash": "44371B1489F376A0EBCAE4AACB4B87EF78B1C20E",
              "parts": {
                "total": "1",
                "hash": "2045185C3E6FCD8EE902707DD2E9186822578F57"
              }
            },
            "signature": {
              "type": "tendermint/SignatureEd25519",
              "value": "UMcWz2V2Fp6Un5Zs78VFhrXFAx3ia067VCHrAfSqX8rgvZR6fTn1KMwhG/2JeBBMauFSVrr4AItAlQ3aNY6rBg=="
            }
          },
          {
            "validator_address": "C1134A2FF8F7338E7CDB3FE57DDD2A655DEB1E22",
            "validator_index": "70",
            "height": "33248",
            "round": "1",
            "timestamp": "2018-08-01T13:19:22.794316593Z",
            "type": 2,
            "block_id": {
              "hash": "44371B1489F376A0EBCAE4AACB4B87EF78B1C20E",
              "parts": {
                "total": "1",
                "hash": "2045185C3E6FCD8EE902707DD2E9186822578F57"
              }
            },
            "signature": {
              "type": "tendermint/SignatureEd25519",
              "value": "h2R+CwYtVQ7vN1j+3W+Y5bO51mcHM8fkhfnv/Ykg9F9NNAMtyct3XUsFCAP7EbOHPG+hYOL7ffsQhZeURFZCBw=="
            }
          },
          {
            "validator_address": "C39A8A2B85198DCB8F23AD1F6C198E2BA7AB5D60",
            "validator_index": "71",
            "height": "33248",
            "round": "1",
            "timestamp": "2018-08-01T13:19:22.850091581Z",
            "type": 2,
            "block_id": {
              "hash": "44371B1489F376A0EBCAE4AACB4B87EF78B1C20E",
              "parts": {
                "total": "1",
                "hash": "2045185C3E6FCD8EE902707DD2E9186822578F57"
              }
            },
            "signature": {
              "type": "tendermint/SignatureEd25519",
              "value": "CfU4DVHD3wXVAyCXseKHcFt/+w3U2rAmbMW/CDIe2Ox/fv70OInEqCO/se5GEi7iM2UuqXI01j22BtPxLpiDCg=="
            }
          },
          {
            "validator_address": "C4335190C3B5BD4BA5568BC0F99C34162D940D08",
            "validator_index": "72",
            "height": "33248",
            "round": "1",
            "timestamp": "2018-08-01T13:19:22.922990314Z",
            "type": 2,
            "block_id": {
              "hash": "44371B1489F376A0EBCAE4AACB4B87EF78B1C20E",
              "parts": {
                "total": "1",
                "hash": "2045185C3E6FCD8EE902707DD2E9186822578F57"
              }
            },
            "signature": {
              "type": "tendermint/SignatureEd25519",
              "value": "b+7KgCBfeFBqNR90rGyZgCySofeSykLeDBTw8qk3r6T1C8yaCzrbJY03EDENNLd0ffxIt9TKiSFEf6WPWxEhCQ=="
            }
          },
          {
            "validator_address": "C561CFA081677046376396922E7576E5F7B316AD",
            "validator_index": "73",
            "height": "33248",
            "round": "1",
            "timestamp": "2018-08-01T13:19:23.025611558Z",
            "type": 2,
            "block_id": {
              "hash": "44371B1489F376A0EBCAE4AACB4B87EF78B1C20E",
              "parts": {
                "total": "1",
                "hash": "2045185C3E6FCD8EE902707DD2E9186822578F57"
              }
            },
            "signature": {
              "type": "tendermint/SignatureEd25519",
              "value": "RYOkVnsta6xM9iNLkJe8+MNK41z1BM5NLbnBcrul464qRtB7sd9f1cm3TMoPdkG+h9SVsudKCWEKVmMmD9CFCQ=="
            }
          },
          {
            "validator_address": "CE589EA77B056D268D30D1DC1D68A70E0F885E95",
            "validator_index": "74",
            "height": "33248",
            "round": "1",
            "timestamp": "2018-08-01T13:19:22.859029669Z",
            "type": 2,
            "block_id": {
              "hash": "44371B1489F376A0EBCAE4AACB4B87EF78B1C20E",
              "parts": {
                "total": "1",
                "hash": "2045185C3E6FCD8EE902707DD2E9186822578F57"
              }
            },
            "signature": {
              "type": "tendermint/SignatureEd25519",
              "value": "SGv/57KkCECNJONpaCGTVYmzllDTzeSFMEPw+WyERJ3aByg9F557UVRQGQtxjSggEDjO+m34BpxYUvGz2HbRCw=="
            }
          },
          {
            "validator_address": "CEB97DB5CB18270247ABDE6CF2F84F9AEE8A2904",
            "validator_index": "75",
            "height": "33248",
            "round": "1",
            "timestamp": "2018-08-01T13:19:23.557428016Z",
            "type": 2,
            "block_id": {
              "hash": "44371B1489F376A0EBCAE4AACB4B87EF78B1C20E",
              "parts": {
                "total": "1",
                "hash": "2045185C3E6FCD8EE902707DD2E9186822578F57"
              }
            },
            "signature": {
              "type": "tendermint/SignatureEd25519",
              "value": "F2aDokF5O9bCbbGOA+xQ4gK4W7JZuBi2l+zLoxhTq98B8nHXmslC5AL+ddW92/Uc0s8EluS2iTxzuE67d2VlCw=="
            }
          },
          {
            "validator_address": "CF205769734F5758CC39F907EFB73D6BAF915FB1",
            "validator_index": "76",
            "height": "33248",
            "round": "1",
            "timestamp": "2018-08-01T13:19:23.040801468Z",
            "type": 2,
            "block_id": {
              "hash": "44371B1489F376A0EBCAE4AACB4B87EF78B1C20E",
              "parts": {
                "total": "1",
                "hash": "2045185C3E6FCD8EE902707DD2E9186822578F57"
              }
            },
            "signature": {
              "type": "tendermint/SignatureEd25519",
              "value": "4k+jqane2cLBBUtY/RqPIxCUVAk0pf8gpFQJEJW2T48NhYMSryeSkzxGAkz1VDINVefrnb2uIuuMafUkT+wECQ=="
            }
          },
          {
            "validator_address": "D2134B826A1E25A955905CB79A4D8731CAFA0CCE",
            "validator_index": "77",
            "height": "33248",
            "round": "1",
            "timestamp": "2018-08-01T13:19:23.056402315Z",
            "type": 2,
            "block_id": {
              "hash": "44371B1489F376A0EBCAE4AACB4B87EF78B1C20E",
              "parts": {
                "total": "1",
                "hash": "2045185C3E6FCD8EE902707DD2E9186822578F57"
              }
            },
            "signature": {
              "type": "tendermint/SignatureEd25519",
              "value": "EnnyZCs/0gyaZioMAWjxHe5vuI8uvgMsm/WNkC/rpWhuF+XUoUL8qD0Z3bDwsuL/OTccTCO7s6Cvpbrt1l5zAA=="
            }
          },
          {
            "validator_address": "D6285C3422C8886445D53757CBE12D2B91B5A9D0",
            "validator_index": "78",
            "height": "33248",
            "round": "1",
            "timestamp": "2018-08-01T13:19:05.86861687Z",
            "type": 2,
            "block_id": {
              "hash": "44371B1489F376A0EBCAE4AACB4B87EF78B1C20E",
              "parts": {
                "total": "1",
                "hash": "2045185C3E6FCD8EE902707DD2E9186822578F57"
              }
            },
            "signature": {
              "type": "tendermint/SignatureEd25519",
              "value": "7RElY/u8OIRLA/IWWDidysqsIEEcl1AKFGVGMMCizSUFywwEekw0Nmlb3lHTChlyPbMBJRSRYIUR16i/xhBcCw=="
            }
          },
          {
            "validator_address": "D77FB84A729972CD3E757C9BEB61561855832B92",
            "validator_index": "79",
            "height": "33248",
            "round": "1",
            "timestamp": "2018-08-01T13:19:23.010308212Z",
            "type": 2,
            "block_id": {
              "hash": "44371B1489F376A0EBCAE4AACB4B87EF78B1C20E",
              "parts": {
                "total": "1",
                "hash": "2045185C3E6FCD8EE902707DD2E9186822578F57"
              }
            },
            "signature": {
              "type": "tendermint/SignatureEd25519",
              "value": "HZV8+3Vx0O7AhIrflwyj00MmVj3yTXjWolw0wJDHQlZHXLVE/2q559yzNxzVx7lo5LKxb/MPc6D5PppoV3lTDw=="
            }
          },
          {
            "validator_address": "DB7E6732471D3EA5C90C17A9974D9F88AB45F2FB",
            "validator_index": "80",
            "height": "33248",
            "round": "1",
            "timestamp": "2018-08-01T13:19:22.856881018Z",
            "type": 2,
            "block_id": {
              "hash": "44371B1489F376A0EBCAE4AACB4B87EF78B1C20E",
              "parts": {
                "total": "1",
                "hash": "2045185C3E6FCD8EE902707DD2E9186822578F57"
              }
            },
            "signature": {
              "type": "tendermint/SignatureEd25519",
              "value": "ShSbY8lHcLvsP3PemYSQO7v2bEWIenILTh4+PLP9pP9nztyqaPsVlZEdotgqYhwhXPtvrrTWr52xlKTF5F7wBQ=="
            }
          },
          {
            "validator_address": "DF54B862410BCD9B5C516FBB6C56BDC826ED6FA7",
            "validator_index": "81",
            "height": "33248",
            "round": "1",
            "timestamp": "2018-08-01T13:19:23.012711991Z",
            "type": 2,
            "block_id": {
              "hash": "44371B1489F376A0EBCAE4AACB4B87EF78B1C20E",
              "parts": {
                "total": "1",
                "hash": "2045185C3E6FCD8EE902707DD2E9186822578F57"
              }
            },
            "signature": {
              "type": "tendermint/SignatureEd25519",
              "value": "8W7I8pNkzYR3+NXLwj/rUya/37WWh+/HkKzl0FEiwPvJJ2Xt6RvuiE5iekI0QQuYAwvJy554oIPIHZbzzvaDCQ=="
            }
          },
          {
            "validator_address": "DFAF0C8B1B78D6D552B0189DE3ACA351439A1319",
            "validator_index": "82",
            "height": "33248",
            "round": "1",
            "timestamp": "2018-08-01T13:19:22.867600572Z",
            "type": 2,
            "block_id": {
              "hash": "44371B1489F376A0EBCAE4AACB4B87EF78B1C20E",
              "parts": {
                "total": "1",
                "hash": "2045185C3E6FCD8EE902707DD2E9186822578F57"
              }
            },
            "signature": {
              "type": "tendermint/SignatureEd25519",
              "value": "H2S60qljWfg07F89dfzX/JYdTV5bZV+qG9ITKndd9g5Fk7Fp0JMiXyJ4FB7eqfn9nFtsb9X7cy6/Hv0xokviDw=="
            }
          },
          {
            "validator_address": "E1DBC77881161A5A3A8536A57536EAE546A75D69",
            "validator_index": "83",
            "height": "33248",
            "round": "1",
            "timestamp": "2018-08-01T13:19:22.827911215Z",
            "type": 2,
            "block_id": {
              "hash": "44371B1489F376A0EBCAE4AACB4B87EF78B1C20E",
              "parts": {
                "total": "1",
                "hash": "2045185C3E6FCD8EE902707DD2E9186822578F57"
              }
            },
            "signature": {
              "type": "tendermint/SignatureEd25519",
              "value": "pYIyhrvn5Xi9pepFnxWuJWEK6cnFrO78QqgWIzpkXgQzRd/U3zsyfP5f382QKMhNCiFsRKytezdODJDjhv/gCg=="
            }
          },
          {
            "validator_address": "E300E9D484374C1D3E97C1D93CAC3B160A056298",
            "validator_index": "84",
            "height": "33248",
            "round": "1",
            "timestamp": "2018-08-01T13:19:23.021031923Z",
            "type": 2,
            "block_id": {
              "hash": "44371B1489F376A0EBCAE4AACB4B87EF78B1C20E",
              "parts": {
                "total": "1",
                "hash": "2045185C3E6FCD8EE902707DD2E9186822578F57"
              }
            },
            "signature": {
              "type": "tendermint/SignatureEd25519",
              "value": "opezigq+RjU9Z4mMwPhvSS5XzVdIazNJ5yHQfty+ssXJzalDvgkrzflYjnm9fP8K1FzyMtqt4Sv14o6zh8zzDg=="
            }
          },
          {
            "validator_address": "E39B5778E0D4297A46F45CF6940B0A163A430FF8",
            "validator_index": "85",
            "height": "33248",
            "round": "1",
            "timestamp": "2018-08-01T13:19:22.863490806Z",
            "type": 2,
            "block_id": {
              "hash": "44371B1489F376A0EBCAE4AACB4B87EF78B1C20E",
              "parts": {
                "total": "1",
                "hash": "2045185C3E6FCD8EE902707DD2E9186822578F57"
              }
            },
            "signature": {
              "type": "tendermint/SignatureEd25519",
              "value": "n9MD+iFN1+B9U2MWlM1bix4jAYS1Sm05n4p+XuYBq3J041Av5aMf/82i69JLZ0LtItTt7CicRXT7ldKMBfFyAA=="
            }
          },
          {
            "validator_address": "E3B19738F7132F950668504D326C7660F159D170",
            "validator_index": "86",
            "height": "33248",
            "round": "1",
            "timestamp": "2018-08-01T13:19:22.870243395Z",
            "type": 2,
            "block_id": {
              "hash": "44371B1489F376A0EBCAE4AACB4B87EF78B1C20E",
              "parts": {
                "total": "1",
                "hash": "2045185C3E6FCD8EE902707DD2E9186822578F57"
              }
            },
            "signature": {
              "type": "tendermint/SignatureEd25519",
              "value": "8tTys4+JnxaFWfTDWKhHoOC48ATVGOTfE8wEmxOiNTZ4G/AYwteA8mNNGfbRa/ccyl965BychzNXlFEnNeO+BA=="
            }
          },
          {
            "validator_address": "E42F8AEABB685219F7027F54D2B0DBC7846F633A",
            "validator_index": "87",
            "height": "33248",
            "round": "1",
            "timestamp": "2018-08-01T13:19:21.853066416Z",
            "type": 2,
            "block_id": {
              "hash": "44371B1489F376A0EBCAE4AACB4B87EF78B1C20E",
              "parts": {
                "total": "1",
                "hash": "2045185C3E6FCD8EE902707DD2E9186822578F57"
              }
            },
            "signature": {
              "type": "tendermint/SignatureEd25519",
              "value": "a79fYB8OCaJ84X2Qg03VOB9MTRBkV4kwNBuCJY9yVyL58NGRbD1aKmPdYkNcIvmT1oSrIB81HuPS5D8f2eTmAQ=="
            }
          },
          {
            "validator_address": "E4E6C2E81269DFFA196C17F98240E491479A6008",
            "validator_index": "88",
            "height": "33248",
            "round": "1",
            "timestamp": "2018-08-01T13:19:23.008864611Z",
            "type": 2,
            "block_id": {
              "hash": "44371B1489F376A0EBCAE4AACB4B87EF78B1C20E",
              "parts": {
                "total": "1",
                "hash": "2045185C3E6FCD8EE902707DD2E9186822578F57"
              }
            },
            "signature": {
              "type": "tendermint/SignatureEd25519",
              "value": "neOEK12U8ae/Y9PHsr0p8iZhhX22macx5ouAIolcNZRsf/6qT6MiITBAqvo0+Mpd5qvmo3Qgau1bqlRRs55zDA=="
            }
          },
          {
            "validator_address": "E4FEB2846F4F3B0ECDCBE9C9DCB2248248A5AF0F",
            "validator_index": "89",
            "height": "33248",
            "round": "1",
            "timestamp": "2018-08-01T13:19:23.213330172Z",
            "type": 2,
            "block_id": {
              "hash": "44371B1489F376A0EBCAE4AACB4B87EF78B1C20E",
              "parts": {
                "total": "1",
                "hash": "2045185C3E6FCD8EE902707DD2E9186822578F57"
              }
            },
            "signature": {
              "type": "tendermint/SignatureEd25519",
              "value": "B8WVBElP7M5UEv3Yg4TvkUPCO6lZeXZQJHEWareeEG+Z83YdGQUvA9gbbriDv7vHHddb3R/eHRNcAI/MXG/aAA=="
            }
          },
          {
            "validator_address": "E6A7079D584B163750BE0831227F6B685DEAF3C1",
            "validator_index": "90",
            "height": "33248",
            "round": "1",
            "timestamp": "2018-08-01T13:19:22.95527278Z",
            "type": 2,
            "block_id": {
              "hash": "44371B1489F376A0EBCAE4AACB4B87EF78B1C20E",
              "parts": {
                "total": "1",
                "hash": "2045185C3E6FCD8EE902707DD2E9186822578F57"
              }
            },
            "signature": {
              "type": "tendermint/SignatureEd25519",
              "value": "IsIoaDJNNy+q60fkBScJdDsYAE/i5StQlwDohDGrvYyGHPQi5qCQ3jq2vDtQqO3QHj+AWSpqQO6Hj34dP3j5CA=="
            }
          },
          {
            "validator_address": "E7A30077D5D11867D3EAF99ED45BFDC1EB834509",
            "validator_index": "91",
            "height": "33248",
            "round": "1",
            "timestamp": "2018-08-01T13:19:22.892415912Z",
            "type": 2,
            "block_id": {
              "hash": "44371B1489F376A0EBCAE4AACB4B87EF78B1C20E",
              "parts": {
                "total": "1",
                "hash": "2045185C3E6FCD8EE902707DD2E9186822578F57"
              }
            },
            "signature": {
              "type": "tendermint/SignatureEd25519",
              "value": "368T1i9f9GTl+BOKVpVWpmTE9wxQXR8HqF6xP6XXDGZOE625p3Kph4pMslS4LtQVvnGM33qQClZ+8c6orxEdAw=="
            }
          },
          {
            "validator_address": "EBC613967F66F4EC306852CDF58B4F151CF16738",
            "validator_index": "92",
            "height": "33248",
            "round": "1",
            "timestamp": "2018-08-01T13:19:23.013184933Z",
            "type": 2,
            "block_id": {
              "hash": "44371B1489F376A0EBCAE4AACB4B87EF78B1C20E",
              "parts": {
                "total": "1",
                "hash": "2045185C3E6FCD8EE902707DD2E9186822578F57"
              }
            },
            "signature": {
              "type": "tendermint/SignatureEd25519",
              "value": "2pf3RaLZBArSFedyUDdGCc4FpnxHUYxqD1K0jV0zdda0iijkwWYVWK4fkz8rUU3fopSKauou2sJR/dcpkyAbCQ=="
            }
          },
          {
            "validator_address": "EC3401441726C40ECC7E51F744483B05BC6DE9BD",
            "validator_index": "93",
            "height": "33248",
            "round": "1",
            "timestamp": "2018-08-01T13:19:22.907717551Z",
            "type": 2,
            "block_id": {
              "hash": "44371B1489F376A0EBCAE4AACB4B87EF78B1C20E",
              "parts": {
                "total": "1",
                "hash": "2045185C3E6FCD8EE902707DD2E9186822578F57"
              }
            },
            "signature": {
              "type": "tendermint/SignatureEd25519",
              "value": "UOnq042QhVXpLZtcouiM6tFGUlVetwKMHoco6/pnjXeBG3EzN/JpQ/O/fJNFg+QZkqVUqPTBuXIeI1Dj/Sv+BA=="
            }
          },
          {
            "validator_address": "EC95B111D032181E1EC3B5E8875C5BB8E4AE7140",
            "validator_index": "94",
            "height": "33248",
            "round": "1",
            "timestamp": "2018-08-01T13:19:22.820809684Z",
            "type": 2,
            "block_id": {
              "hash": "44371B1489F376A0EBCAE4AACB4B87EF78B1C20E",
              "parts": {
                "total": "1",
                "hash": "2045185C3E6FCD8EE902707DD2E9186822578F57"
              }
            },
            "signature": {
              "type": "tendermint/SignatureEd25519",
              "value": "qhwdWDAWjSZqHWvsCIdQKaYvsqfGXKv3ixVqjHF7ciWgawfswkYnU7PsavCXfLeDS4cUdCeWvhjwRz4NEg0mDw=="
            }
          },
          {
            "validator_address": "F13C1805E8131C9B47E2A46818F57D8A2841E578",
            "validator_index": "95",
            "height": "33248",
            "round": "1",
            "timestamp": "2018-08-01T13:19:22.8631075Z",
            "type": 2,
            "block_id": {
              "hash": "44371B1489F376A0EBCAE4AACB4B87EF78B1C20E",
              "parts": {
                "total": "1",
                "hash": "2045185C3E6FCD8EE902707DD2E9186822578F57"
              }
            },
            "signature": {
              "type": "tendermint/SignatureEd25519",
              "value": "phwEp9ZhA0cjnvXew5Wd1/PP1wm1SbAij4vcvevtRE3EHJo3zrRAu1W23tLcpb7dZKjMh3z+baA/5RRha39CAg=="
            }
          },
          {
            "validator_address": "F23FF36BD5B90C33CE3A03ED72DBDCF5EC07D6AF",
            "validator_index": "96",
            "height": "33248",
            "round": "1",
            "timestamp": "2018-08-01T13:19:22.9276852Z",
            "type": 2,
            "block_id": {
              "hash": "44371B1489F376A0EBCAE4AACB4B87EF78B1C20E",
              "parts": {
                "total": "1",
                "hash": "2045185C3E6FCD8EE902707DD2E9186822578F57"
              }
            },
            "signature": {
              "type": "tendermint/SignatureEd25519",
              "value": "rKi0Y6e7TXxNY8ut2mN+bZG7CZPfhUq0M9PFi85vxFivKETZi+0SmKieOXORqL+Q2b4jvTLOF6g+3hb/ASMvCw=="
            }
          },
          {
            "validator_address": "F4268597DE93E3E2CED38845010F8AA34E2A879E",
            "validator_index": "97",
            "height": "33248",
            "round": "1",
            "timestamp": "2018-08-01T13:19:22.87511915Z",
            "type": 2,
            "block_id": {
              "hash": "44371B1489F376A0EBCAE4AACB4B87EF78B1C20E",
              "parts": {
                "total": "1",
                "hash": "2045185C3E6FCD8EE902707DD2E9186822578F57"
              }
            },
            "signature": {
              "type": "tendermint/SignatureEd25519",
              "value": "CvM3lpzUXXe3NEOF/uX+7CoCRZKB8SoNt8nEWdMoz1WMko3My5pX3ikWqTxgRk847MY+QDcze4FAJNIbVn/kBA=="
            }
          },
          {
            "validator_address": "F4DEB417999B04BE2EFF9FFE03FA373D86011CC0",
            "validator_index": "98",
            "height": "33248",
            "round": "1",
            "timestamp": "2018-08-01T13:19:22.839152098Z",
            "type": 2,
            "block_id": {
              "hash": "44371B1489F376A0EBCAE4AACB4B87EF78B1C20E",
              "parts": {
                "total": "1",
                "hash": "2045185C3E6FCD8EE902707DD2E9186822578F57"
              }
            },
            "signature": {
              "type": "tendermint/SignatureEd25519",
              "value": "DVSK/sWi3rG0zwr5c2v6JVUYW8GHi15Se2rem/W1ut5sYwZ2NB+woi6RuPnV5Bj788uy/wRsGJVZ/l/+emC5Cw=="
            }
          },
          {
            "validator_address": "F6738260186D33D9C14FC6E7017AFE6BB952A63D",
            "validator_index": "99",
            "height": "33248",
            "round": "1",
            "timestamp": "2018-08-01T13:19:22.901759051Z",
            "type": 2,
            "block_id": {
              "hash": "44371B1489F376A0EBCAE4AACB4B87EF78B1C20E",
              "parts": {
                "total": "1",
                "hash": "2045185C3E6FCD8EE902707DD2E9186822578F57"
              }
            },
            "signature": {
              "type": "tendermint/SignatureEd25519",
              "value": "HpifRMGREqoexYF77nw1nDgZiE3tXFo++JTyfbQtU16ne8kB+haY49YhEDB14Br1FmgW3ihZWBeUXWaF8RyGAg=="
            }
          },
          {
            "validator_address": "FF3F3FCBCE7E62D7AD5506FF846EC4518D980515",
            "validator_index": "100",
            "height": "33248",
            "round": "1",
            "timestamp": "2018-08-01T13:19:22.803718956Z",
            "type": 2,
            "block_id": {
              "hash": "44371B1489F376A0EBCAE4AACB4B87EF78B1C20E",
              "parts": {
                "total": "1",
                "hash": "2045185C3E6FCD8EE902707DD2E9186822578F57"
              }
            },
            "signature": {
              "type": "tendermint/SignatureEd25519",
              "value": "4OhCS+hMwgXPcEUA9QjG728amYa6o8QQp1dNatHvFqZDV7sb3Rrf7SO4pZkN35DXKsKwL6oXt9E+3cbQJOoQCw=="
            }
          }
        ]
      }
    },
    "canonical": true
  }
}