{
  "jsonrpc": "2.0",
  "id": "",
  "result": {
    "SignedHeader": {
      "header": {
        "chain_id": "gaia-7004",
        "height": "3326",
        "time": "2018-07-30T10:34:46.474022175Z",
        "num_txs": "0",
        "last_block_id": {
          "hash": "7D6B524E92BD07A2045552F414F95CF54B2962B2",
          "parts": {
            "total": "1",
            "hash": "FE781FEC18B8CC6324B105008A9A88D716BF43EB"
          }
        },
        "total_txs": "55",
        "last_commit_hash": "0BE022B937A9A5E32086984EE9AC393085CEFE65",
        "data_hash": "",
        "validators_hash": "993C3D1DAE65F1927AA67806553D81E1D3702BDB",
        "consensus_hash": "D6B74BB35BDFFD8392340F2A379173548AE188FE",
        "app_hash": "1C5EDD8732E75BCF1E81A8A7EF81960028752065",
        "last_results_hash": "",
        "evidence_hash": ""
      },
      "commit": {
        "block_id": {
          "hash": "FFC0E1DDC4FF677078E1E003C489E3E9B64CBAB2",
          "parts": {
            "total": "1",
            "hash": "1A4E9E5CF86688769AE4D7C0CEA0A4B5EE832D1C"
          }
        },
        "precommits": [
          {
            "validator_address": "029359C0C768096273A68ABC902A6B17AC8D1D70",
            "validator_index": "0",
            "height": "3326",
            "round": "0",
            "timestamp": "2018-07-30T10:34:47.348757491Z",
            "type": 2,
            "block_id": {
              "hash": "FFC0E1DDC4FF677078E1E003C489E3E9B64CBAB2",
              "parts": {
                "total": "1",
                "hash": "1A4E9E5CF86688769AE4D7C0CEA0A4B5EE832D1C"
              }
            },
            "signature": {
              "type": "tendermint/SignatureEd25519",
              "value": "7oBVsf70zO7CoMKW/cFHwnnYILtcZvkg8o/GuFnkOh4Sp3tTGe+6SoCYx9Gdu0OhF8Kq8n33zP4176Y0Ido4DA=="
            }
          },
          {
            "validator_address": "02FE4B97A8387F39D1AC19E0C1702B3CC614812F",
            "validator_index": "1",
            "height": "3326",
            "round": "0",
            "timestamp": "2018-07-30T10:34:47.428485172Z",
            "type": 2,
            "block_id": {
              "hash": "FFC0E1DDC4FF677078E1E003C489E3E9B64CBAB2",
              "parts": {
                "total": "1",
                "hash": "1A4E9E5CF86688769AE4D7C0CEA0A4B5EE832D1C"
              }
            },
            "signature": {
              "type": "tendermint/SignatureEd25519",
              "value": "2STMD3qA/oGQqme7XxkzTByv1ZMa2+4jBOw6mTij0KhQDi02MEQB/DLVtADWYli7it+VBe6+qNeCZEn2FkDqDw=="
            }
          },
          {
            "validator_address": "0548261C50222FD710EB5EBDF03A0E6567B21D20",
            "validator_index": "2",
            "height": "3326",
            "round": "0",
            "timestamp": "2018-07-30T10:34:47.416043743Z",
            "type": 2,
            "block_id": {
              "hash": "FFC0E1DDC4FF677078E1E003C489E3E9B64CBAB2",
              "parts": {
                "total": "1",
                "hash": "1A4E9E5CF86688769AE4D7C0CEA0A4B5EE832D1C"
              }
            },
            "signature": {
              "type": "tendermint/SignatureEd25519",
              "value": "F2rj3OXzj4vInAy+1WGv/7/w17tudUAon5oQ+/NEa31bjTZubtr0TKAj/95qGNu9QSKq524rinLQXrJQmcR4BA=="
            }
          },
          null,
          {
            "validator_address": "09145E611CC27EEB944FC5A956DDF710F943B9EF",
            "validator_index": "4",
            "height": "3326",
            "round": "0",
            "timestamp": "2018-07-30T10:34:47.365054359Z",
            "type": 2,
            "block_id": {
              "hash": "FFC0E1DDC4FF677078E1E003C489E3E9B64CBAB2",
              "parts": {
                "total": "1",
                "hash": "1A4E9E5CF86688769AE4D7C0CEA0A4B5EE832D1C"
              }
            },
            "signature": {
              "type": "tendermint/SignatureEd25519",
              "value": "TOGoWdnMpT64AWjRvdOnk5u5ziEUL0xuF2LTYgq7bK6ME/VeiLP+VV88YB6fBVSgD4Rk4aStEnU0n1jH1mYVBA=="
            }
          },
          {
            "validator_address": "0989D0355A104B67AE0AE028C68FB610690E174B",
            "validator_index": "5",
            "height": "3326",
            "round": "0",
            "timestamp": "2018-07-30T10:34:47.376271432Z",
            "type": 2,
            "block_id": {
              "hash": "FFC0E1DDC4FF677078E1E003C489E3E9B64CBAB2",
              "parts": {
                "total": "1",
                "hash": "1A4E9E5CF86688769AE4D7C0CEA0A4B5EE832D1C"
              }
            },
            "signature": {
              "type": "tendermint/SignatureEd25519",
              "value": "qLrn2trPUVf6rparjuYowPk7HhCzLhidHa9koAbUwi9NLSDVZ60TPtkTZoZg4wDyG2ESEN7ZlObX7C3Ir2eaCw=="
            }
          },
          {
            "validator_address": "0A692DBFFE9E5DD28E7DECC33CED1AEB4C0D014E",
            "validator_index": "6",
            "height": "3326",
            "round": "0",
            "timestamp": "2018-07-30T10:34:47.507548509Z",
            "type": 2,
            "block_id": {
              "hash": "FFC0E1DDC4FF677078E1E003C489E3E9B64CBAB2",
              "parts": {
                "total": "1",
                "hash": "1A4E9E5CF86688769AE4D7C0CEA0A4B5EE832D1C"
              }
            },
            "signature": {
              "type": "tendermint/SignatureEd25519",
              "value": "t4MNcCc/8btNIttSESJvp+IjV9L3xEuYvYs2sCfK/gGU0wj9eD04tlMO+dClJrW0mit9vqNRcjOM5/Onp27+BA=="
            }
          },
          {
            "validator_address": "0DDF97111D73DB825138EC15EC27DE5FE8536901",
            "validator_index": "7",
            "height": "3326",
            "round": "0",
            "timestamp": "2018-07-30T10:34:47.41337063Z",
            "type": 2,
            "block_id": {
              "hash": "FFC0E1DDC4FF677078E1E003C489E3E9B64CBAB2",
              "parts": {
                "total": "1",
                "hash": "1A4E9E5CF86688769AE4D7C0CEA0A4B5EE832D1C"
              }
            },
            "signature": {
              "type": "tendermint/SignatureEd25519",
              "value": "sAA2OxFg3LIwnoVN3KLrtlypPNpvUE8sOhuvw+vm+2MpvoKPGCNohNOW9ShJ93OVyq8PCpn2Q8fiuwC4ZMUoBg=="
            }
          },
          {
            "validator_address": "0F3FB8F818BE494E8F5597D9A8ACA57C8C5E72B7",
            "validator_index": "8",
            "height": "3326",
            "round": "0",
            "timestamp": "2018-07-30T10:34:48.127995377Z",
            "type": 2,
            "block_id": {
              "hash": "FFC0E1DDC4FF677078E1E003C489E3E9B64CBAB2",
              "parts": {
                "total": "1",
                "hash": "1A4E9E5CF86688769AE4D7C0CEA0A4B5EE832D1C"
              }
            },
            "signature": {
              "type": "tendermint/SignatureEd25519",
              "value": "vIVcPBpBGl+6UwDajxQ3Q0HAjKONmnqbyMhxDelO328yuqUZuGTbPOqOhwN1KpJ7EMZRqjLhh669FQZYvJQPCw=="
            }
          },
          {
            "validator_address": "1751786EFC085D5331C61168FFFC8202EA151B4E",
            "validator_index": "9",
            "height": "3326",
            "round": "0",
            "timestamp": "2018-07-30T10:34:46.851098689Z",
            "type": 2,
            "block_id": {
              "hash": "FFC0E1DDC4FF677078E1E003C489E3E9B64CBAB2",
              "parts": {
                "total": "1",
                "hash": "1A4E9E5CF86688769AE4D7C0CEA0A4B5EE832D1C"
              }
            },
            "signature": {
              "type": "tendermint/SignatureEd25519",
              "value": "ll0BRI/MiDyHqioZ0uf0LT3vMLsQJ8kF72mWv9l2IxkGrafU3ss+KjZaXs9A9BmefbvF6yIq0QDHEPJ72ZWZDA=="
            }
          },
          {
            "validator_address": "17BB5CD01E8940FAFB948A04D5FA5A0645E5822E",
            "validator_index": "10",
            "height": "3326",
            "round": "0",
            "timestamp": "2018-07-30T10:34:47.373045396Z",
            "type": 2,
            "block_id": {
              "hash": "FFC0E1DDC4FF677078E1E003C489E3E9B64CBAB2",
              "parts": {
                "total": "1",
                "hash": "1A4E9E5CF86688769AE4D7C0CEA0A4B5EE832D1C"
              }
            },
            "signature": {
              "type": "tendermint/SignatureEd25519",
              "value": "lGgr7OGe2WZ8WTLoMtPn/yn5cYbsdlATVniuhG3eVrNMhqWq7x3sUrwK5vzp5VxKzdDWgqgob//guY3CwM9MAA=="
            }
          },
          null,
          {
            "validator_address": "1E9CE94FD0BA5CFEB901F90BC658D64D85B134D2",
            "validator_index": "12",
            "height": "3326",
            "round": "0",
            "timestamp": "2018-07-30T10:34:47.433536001Z",
            "type": 2,
            "block_id": {
              "hash": "FFC0E1DDC4FF677078E1E003C489E3E9B64CBAB2",
              "parts": {
                "total": "1",
                "hash": "1A4E9E5CF86688769AE4D7C0CEA0A4B5EE832D1C"
              }
            },
            "signature": {
              "type": "tendermint/SignatureEd25519",
              "value": "CvblbVIaiXAdwxSy4CL55+92cOH4prldMD5s2dYV+kQ/wDiI4uPsp0Qb4PsQZTq+teIAsmyE62m14TzsEXA2Ag=="
            }
          },
          {
            "validator_address": "1ECD8C5FE1341D74CDC633A245DD56858DE2F9A2",
            "validator_index": "13",
            "height": "3326",
            "round": "0",
            "timestamp": "2018-07-30T10:34:47.523138204Z",
            "type": 2,
            "block_id": {
              "hash": "FFC0E1DDC4FF677078E1E003C489E3E9B64CBAB2",
              "parts": {
                "total": "1",
                "hash": "1A4E9E5CF86688769AE4D7C0CEA0A4B5EE832D1C"
              }
            },
            "signature": {
              "type": "tendermint/SignatureEd25519",
              "value": "2tC6RMfsUnt7If/fllDc5uqBF3tGaklFtjQ4QKnME6L4z0YeHq4w5CwCrzvfPtrX8rQ3kGmEYXbu/XvZbVp4DA=="
            }
          },
          null,
          null,
          {
            "validator_address": "23897586D68E2AC1C78E0EF5BB5DF5C8EAB18F50",
            "validator_index": "16",
            "height": "3326",
            "round": "0",
            "timestamp": "2018-07-30T10:34:47.372026121Z",
            "type": 2,
            "block_id": {
              "hash": "FFC0E1DDC4FF677078E1E003C489E3E9B64CBAB2",
              "parts": {
                "total": "1",
                "hash": "1A4E9E5CF86688769AE4D7C0CEA0A4B5EE832D1C"
              }
            },
            "signature": {
              "type": "tendermint/SignatureEd25519",
              "value": "0ZLuZC/8kk1RYsBAiWc4A+A3/OJq0BEVroimjJzu1jSkg/lxc9w+l0Ksfk5Q6V+WZrO2knqNmIyhagvg8ik1Dg=="
            }
          },
          {
            "validator_address": "28770D17E8530825E7310A0659308654B7EC9682",
            "validator_index": "17",
            "height": "3326",
            "round": "0",
            "timestamp": "2018-07-30T10:34:47.432249647Z",
            "type": 2,
            "block_id": {
              "hash": "FFC0E1DDC4FF677078E1E003C489E3E9B64CBAB2",
              "parts": {
                "total": "1",
                "hash": "1A4E9E5CF86688769AE4D7C0CEA0A4B5EE832D1C"
              }
            },
            "signature": {
              "type": "tendermint/SignatureEd25519",
              "value": "VA8qeexHe/wsiIdtqZPOeD26lYYr52BsbDaYkLHnoL1aYfbWzf2IAfz+YLBGLwdByQp/TqiyR6vGQjbhnWLZCg=="
            }
          },
          null,
          {
            "validator_address": "2A92EC3C642140202298D0E245095E0ECFC25228",
            "validator_index": "19",
            "height": "3326",
            "round": "0",
            "timestamp": "2018-07-30T10:34:47.395887259Z",
            "type": 2,
            "block_id": {
              "hash": "FFC0E1DDC4FF677078E1E003C489E3E9B64CBAB2",
              "parts": {
                "total": "1",
                "hash": "1A4E9E5CF86688769AE4D7C0CEA0A4B5EE832D1C"
              }
            },
            "signature": {
              "type": "tendermint/SignatureEd25519",
              "value": "8kst1qjPNCVtoZfdXg+SN738gEfg81MLLWxPPzwIiYq4vakdorhmy7rL7jmv4/nDM/+Xrl0lAobAWeMespflDQ=="
            }
          },
          null,
          null,
          {
            "validator_address": "33412C9A69C60CB0FAA24A5C5B3A906DE24B47C2",
            "validator_index": "22",
            "height": "3326",
            "round": "0",
            "timestamp": "2018-07-30T10:34:47.341017414Z",
            "type": 2,
            "block_id": {
              "hash": "FFC0E1DDC4FF677078E1E003C489E3E9B64CBAB2",
              "parts": {
                "total": "1",
                "hash": "1A4E9E5CF86688769AE4D7C0CEA0A4B5EE832D1C"
              }
            },
            "signature": {
              "type": "tendermint/SignatureEd25519",
              "value": "TFC6nuUonD3dbyngqlt7LtTHxGTtqQOQdkx+7x7I0OOG9YxEJg7sI3S5GyCHXw8RO04aJW62ZRVDm8nrRNvtCg=="
            }
          },
          null,
          {
            "validator_address": "36E9B7FAEC964F97D84C028ED62493E373AD0B38",
            "validator_index": "24",
            "height": "3326",
            "round": "0",
            "timestamp": "2018-07-30T10:34:47.503901033Z",
            "type": 2,
            "block_id": {
              "hash": "FFC0E1DDC4FF677078E1E003C489E3E9B64CBAB2",
              "parts": {
                "total": "1",
                "hash": "1A4E9E5CF86688769AE4D7C0CEA0A4B5EE832D1C"
              }
            },
            "signature": {
              "type": "tendermint/SignatureEd25519",
              "value": "MFYg9BcqtaduVe1wxK5WOExLATYaBP5soK2q6QqCVfLftGUV/q72E7boV7s0A/8js3NM7rKXacfZsZUQPvsaBQ=="
            }
          },
          {
            "validator_address": "38A8D85D36BEA2E5FCF8A1E778F53628E450EF13",
            "validator_index": "25",
            "height": "3326",
            "round": "0",
            "timestamp": "2018-07-30T10:34:47.492517681Z",
            "type": 2,
            "block_id": {
              "hash": "FFC0E1DDC4FF677078E1E003C489E3E9B64CBAB2",
              "parts": {
                "total": "1",
                "hash": "1A4E9E5CF86688769AE4D7C0CEA0A4B5EE832D1C"
              }
            },
            "signature": {
              "type": "tendermint/SignatureEd25519",
              "value": "68nepf3oEu/gvcqkL08xAYpuHqJhuz1MSIuVgGXv9HEu380V7VduRi7G1Zk4skzvG2dt5hCC0/hXF9xYbdluAQ=="
            }
          },
          {
            "validator_address": "39DFDA0C5DB84B269642188B23253508537798E6",
            "validator_index": "26",
            "height": "3326",
            "round": "0",
            "timestamp": "2018-07-30T10:34:47.41024439Z",
            "type": 2,
            "block_id": {
              "hash": "FFC0E1DDC4FF677078E1E003C489E3E9B64CBAB2",
              "parts": {
                "total": "1",
                "hash": "1A4E9E5CF86688769AE4D7C0CEA0A4B5EE832D1C"
              }
            },
            "signature": {
              "type": "tendermint/SignatureEd25519",
              "value": "nLGeC+U+mKIpszd93fggGmmOP1t7s/f6jI6EUSpngMjs2nD9hqfWca0yGVGtanXMyTJkomqM/A7fwcn/6EAMCg=="
            }
          },
          {
            "validator_address": "3AC99B708404452366E0953A4BE849226DC86CBC",
            "validator_index": "27",
            "height": "3326",
            "round": "0",
            "timestamp": "2018-07-30T10:34:47.496430297Z",
            "type": 2,
            "block_id": {
              "hash": "FFC0E1DDC4FF677078E1E003C489E3E9B64CBAB2",
              "parts": {
                "total": "1",
                "hash": "1A4E9E5CF86688769AE4D7C0CEA0A4B5EE832D1C"
              }
            },
            "signature": {
              "type": "tendermint/SignatureEd25519",
              "value": "Xh/vq5yltmDZlh7jlLeiL2s+vChugzb295X1SXYnDQazjO8I6zI/KMZXzaqPdrSL/U0j1X/VABp5++4ILqgODQ=="
            }
          },
          {
            "validator_address": "3DCB822A10ED319EC7C4393D8E3FD4A41B15AAF2",
            "validator_index": "28",
            "height": "3326",
            "round": "0",
            "timestamp": "2018-07-30T10:34:47.378643116Z",
            "type": 2,
            "block_id": {
              "hash": "FFC0E1DDC4FF677078E1E003C489E3E9B64CBAB2",
              "parts": {
                "total": "1",
                "hash": "1A4E9E5CF86688769AE4D7C0CEA0A4B5EE832D1C"
              }
            },
            "signature": {
              "type": "tendermint/SignatureEd25519",
              "value": "XtJptCk7xGr3F2j9gLFLW80J7FX2j99gEhYYX7GaTRTaUPy5wqoAoSh+JGrLsKyX6yCdWbUtzkbrXfU9i/FCDA=="
            }
          },
          {
            "validator_address": "3E899BA36A93C7370347BD5FE85909F2ECD93F8C",
            "validator_index": "29",
            "height": "3326",
            "round": "0",
            "timestamp": "2018-07-30T10:34:47.470237321Z",
            "type": 2,
            "block_id": {
              "hash": "FFC0E1DDC4FF677078E1E003C489E3E9B64CBAB2",
              "parts": {
                "total": "1",
                "hash": "1A4E9E5CF86688769AE4D7C0CEA0A4B5EE832D1C"
              }
            },
            "signature": {
              "type": "tendermint/SignatureEd25519",
              "value": "c/rT2FeZVZY2SoDVnWIlhONIbjy9UyVW2pciSF4OHwJYtqj/kni8SIpnNVMOjBuVBJN6OIuBEhIiEV3C2W/YCw=="
            }
          },
          {
            "validator_address": "41CAB2E29E7D0F2282E3275938F188FF9386B84C",
            "validator_index": "30",
            "height": "3326",
            "round": "0",
            "timestamp": "2018-07-30T10:34:47.380452744Z",
            "type": 2,
            "block_id": {
              "hash": "FFC0E1DDC4FF677078E1E003C489E3E9B64CBAB2",
              "parts": {
                "total": "1",
                "hash": "1A4E9E5CF86688769AE4D7C0CEA0A4B5EE832D1C"
              }
            },
            "signature": {
              "type": "tendermint/SignatureEd25519",
              "value": "QFk4l3JHXq8L8fU03BzCf1TCQa8opvHYB4euIhG/FDvovM5Y0NkV0IqkpeV6JMaPKcRztXLcJbcvtY1JhNkyAQ=="
            }
          },
          {
            "validator_address": "462B656869DB02A8FD1077E255F8CC7401DC37C6",
            "validator_index": "31",
            "height": "3326",
            "round": "0",
            "timestamp": "2018-07-30T10:34:47.430303077Z",
            "type": 2,
            "block_id": {
              "hash": "FFC0E1DDC4FF677078E1E003C489E3E9B64CBAB2",
              "parts": {
                "total": "1",
                "hash": "1A4E9E5CF86688769AE4D7C0CEA0A4B5EE832D1C"
              }
            },
            "signature": {
              "type": "tendermint/SignatureEd25519",
              "value": "V/yYSD8F99TseN2J+y64B6u0q8iBM2igMm+v7ouLK5VLC7zWeRGmdkV1IG+2RvDK43/+bNAiuIX/47+t7YuUDw=="
            }
          },
          {
            "validator_address": "48E5118163E5442068A1B5A42D2EEDBB75724935",
            "validator_index": "32",
            "height": "3326",
            "round": "0",
            "timestamp": "2018-07-30T10:34:47.56348974Z",
            "type": 2,
            "block_id": {
              "hash": "FFC0E1DDC4FF677078E1E003C489E3E9B64CBAB2",
              "parts": {
                "total": "1",
                "hash": "1A4E9E5CF86688769AE4D7C0CEA0A4B5EE832D1C"
              }
            },
            "signature": {
              "type": "tendermint/SignatureEd25519",
              "value": "W3jgzRyBKrBHrJIR1ILCM3sqSjssEnrYbyrKLvh0URPJn8Yo3Ov5HbEC9I+orTleBfHo+Fffiy9HO8ZUsXHtBA=="
            }
          },
          null,
          {
            "validator_address": "4944F8BBBB5303E17BC0607DF332320EDBC750EA",
            "validator_index": "34",
            "height": "3326",
            "round": "0",
            "timestamp": "2018-07-30T10:34:47.347514017Z",
            "type": 2,
            "block_id": {
              "hash": "FFC0E1DDC4FF677078E1E003C489E3E9B64CBAB2",
              "parts": {
                "total": "1",
                "hash": "1A4E9E5CF86688769AE4D7C0CEA0A4B5EE832D1C"
              }
            },
            "signature": {
              "type": "tendermint/SignatureEd25519",
              "value": "V70pD6Hm2DNNeBs26PIIIIF9HT7uzPJzA27u2SUla1GruijcNL/m1xtno9zM1Zx7ZmpfTd57UBxYXn1naN9OCw=="
            }
          },
          {
            "validator_address": "49841599DE675157CBE1E7D6B35BF8FFC23BD5CB",
            "validator_index": "35",
            "height": "3326",
            "round": "0",
            "timestamp": "2018-07-30T10:34:47.356614944Z",
            "type": 2,
            "block_id": {
              "hash": "FFC0E1DDC4FF677078E1E003C489E3E9B64CBAB2",
              "parts": {
                "total": "1",
                "hash": "1A4E9E5CF86688769AE4D7C0CEA0A4B5EE832D1C"
              }
            },
            "signature": {
              "type": "tendermint/SignatureEd25519",
              "value": "vw+Q11etLvIM9KEmDp2uIeYHdVQFKONoL03uJQSKg8sN69PfeGaft7oJxlAWen+Wu3I9jBCh8F02PrgxsRGqCA=="
            }
          },
          {
            "validator_address": "5104F488EA6B1E2C33CBDA3C18389C88104DBC72",
            "validator_index": "36",
            "height": "3326",
            "round": "0",
            "timestamp": "2018-07-30T10:34:47.437156228Z",
            "type": 2,
            "block_id": {
              "hash": "FFC0E1DDC4FF677078E1E003C489E3E9B64CBAB2",
              "parts": {
                "total": "1",
                "hash": "1A4E9E5CF86688769AE4D7C0CEA0A4B5EE832D1C"
              }
            },
            "signature": {
              "type": "tendermint/SignatureEd25519",
              "value": "ThiZQee2nVL89EdoQLAhMUHjbpumYBo+/49LLmdPuHtohewByEjHRPDVf9R4AOlLLgfMmFLapZ/pe14xQ9liDA=="
            }
          },
          {
            "validator_address": "51386C2CF9556821D114D7E4945806802BADB28D",
            "validator_index": "37",
            "height": "3326",
            "round": "0",
            "timestamp": "2018-07-30T10:34:47.476017942Z",
            "type": 2,
            "block_id": {
              "hash": "FFC0E1DDC4FF677078E1E003C489E3E9B64CBAB2",
              "parts": {
                "total": "1",
                "hash": "1A4E9E5CF86688769AE4D7C0CEA0A4B5EE832D1C"
              }
            },
            "signature": {
              "type": "tendermint/SignatureEd25519",
              "value": "3hSEJ29lvfMv85qYw3fFGPgIIUR9z4UUwbEPMBbsiNGFdS+tTGg9k1xoBpP4WRVU8FGc3qZo/CzF38QwqieVDg=="
            }
          },
          {
            "validator_address": "543564ECA3AFEFADC73EE8591AAC3A96F079BC8A",
            "validator_index": "38",
            "height": "3326",
            "round": "0",
            "timestamp": "2018-07-30T10:34:47.411151021Z",
            "type": 2,
            "block_id": {
              "hash": "FFC0E1DDC4FF677078E1E003C489E3E9B64CBAB2",
              "parts": {
                "total": "1",
                "hash": "1A4E9E5CF86688769AE4D7C0CEA0A4B5EE832D1C"
              }
            },
            "signature": {
              "type": "tendermint/SignatureEd25519",
              "value": "EYWn583Jc+VNMfO4NXRt6EaX0eX9ZnfOtSA36dHCj3j+hUGtCeXCt7njj/8yS7XmE7ZzdOrY4+4xsLYJLWBlBA=="
            }
          },
          {
            "validator_address": "55D67B1A6DC13E96F8754A5A42EABC20F7F86664",
            "validator_index": "39",
            "height": "3326",
            "round": "0",
            "timestamp": "2018-07-30T10:34:47.353574992Z",
            "type": 2,
            "block_id": {
              "hash": "FFC0E1DDC4FF677078E1E003C489E3E9B64CBAB2",
              "parts": {
                "total": "1",
                "hash": "1A4E9E5CF86688769AE4D7C0CEA0A4B5EE832D1C"
              }
            },
            "signature": {
              "type": "tendermint/SignatureEd25519",
              "value": "qpuaHQyRkJ37mQ0jjnKiFLjCBnCspkNHM5DPn6fddgBLxLos63cToSGSkCx5vcbOs66jTOJZ1vSTfBQ03leDBQ=="
            }
          },
          {
            "validator_address": "570B6A755ED339EAC56BB3390A48069F6AC9449B",
            "validator_index": "40",
            "height": "3326",
            "round": "0",
            "timestamp": "2018-07-30T10:34:47.185288772Z",
            "type": 2,
            "block_id": {
              "hash": "FFC0E1DDC4FF677078E1E003C489E3E9B64CBAB2",
              "parts": {
                "total": "1",
                "hash": "1A4E9E5CF86688769AE4D7C0CEA0A4B5EE832D1C"
              }
            },
            "signature": {
              "type": "tendermint/SignatureEd25519",
              "value": "6dBArV5C9r/iA6Z+Uhaaa875w/rOXvtHCRRsQNozo7hiDnV/R9V49+PEA5UsNw7cxKOkgkBgd7iqoSH8Ql4BDQ=="
            }
          },
          {
            "validator_address": "5BDF8EA41B1835FBAD865B181A2A4B23F511B5E4",
            "validator_index": "41",
            "height": "3326",
            "round": "0",
            "timestamp": "2018-07-30T10:34:47.400418168Z",
            "type": 2,
            "block_id": {
              "hash": "FFC0E1DDC4FF677078E1E003C489E3E9B64CBAB2",
              "parts": {
                "total": "1",
                "hash": "1A4E9E5CF86688769AE4D7C0CEA0A4B5EE832D1C"
              }
            },
            "signature": {
              "type": "tendermint/SignatureEd25519",
              "value": "et+tVDCs7X9i7NdKy2CFX/VJBtDhU3DCJVGJwVJtZq72jACtDRcM0QjirLMNj5W4VWCclVfv7BBpafqYpZOICA=="
            }
          },
          null,
          null,
          {
            "validator_address": "60229E2E273297FE00219E46DFFB8F76844CDEF9",
            "validator_index": "44",
            "height": "3326",
            "round": "0",
            "timestamp": "2018-07-30T10:34:47.046425268Z",
            "type": 2,
            "block_id": {
              "hash": "FFC0E1DDC4FF677078E1E003C489E3E9B64CBAB2",
              "parts": {
                "total": "1",
                "hash": "1A4E9E5CF86688769AE4D7C0CEA0A4B5EE832D1C"
              }
            },
            "signature": {
              "type": "tendermint/SignatureEd25519",
              "value": "1+vuFEQFLWJAJ6TTjd3SCpITls9Bp6Yv1DEp43uVWLGGLL4KStMmWt9Bnvr9zKmqBdbtcF9PDYqNtX4Njna7Dw=="
            }
          },
          {
            "validator_address": "62410D6D1CD98278136E4D0738AA0EA273CDFC54",
            "validator_index": "45",
            "height": "3326",
            "round": "0",
            "timestamp": "2018-07-30T10:34:47.346494064Z",
            "type": 2,
            "block_id": {
              "hash": "FFC0E1DDC4FF677078E1E003C489E3E9B64CBAB2",
              "parts": {
                "total": "1",
                "hash": "1A4E9E5CF86688769AE4D7C0CEA0A4B5EE832D1C"
              }
            },
            "signature": {
              "type": "tendermint/SignatureEd25519",
              "value": "IYXncUokTDmXPeoU3/6fSksHjsMSw2oWuBfk71h0oyquXzMJ721iStvsVlji37390wXOSVKK1AGvldvQ1Ot+BA=="
            }
          },
          {
            "validator_address": "632F5C139A5A9DFBFE5111DEE29FCFB6157207DC",
            "validator_index": "46",
            "height": "3326",
            "round": "0",
            "timestamp": "2018-07-30T10:34:47.402098069Z",
            "type": 2,
            "block_id": {
              "hash": "FFC0E1DDC4FF677078E1E003C489E3E9B64CBAB2",
              "parts": {
                "total": "1",
                "hash": "1A4E9E5CF86688769AE4D7C0CEA0A4B5EE832D1C"
              }
            },
            "signature": {
              "type": "tendermint/SignatureEd25519",
              "value": "KzNKeP/YSUUjaaRMWb7OLvW4rxSGviQT/ta3j7YkluUkGrIh4hF1wtbVZQBCIb6dlAYMcTpTcIVUWFlQ/E8yCw=="
            }
          },
          {
            "validator_address": "64F57F8E796A9B7B590C1EFA4123988C86631D39",
            "validator_index": "47",
            "height": "3326",
            "round": "0",
            "timestamp": "2018-07-30T10:34:47.37005411Z",
            "type": 2,
            "block_id": {
              "hash": "FFC0E1DDC4FF677078E1E003C489E3E9B64CBAB2",
              "parts": {
                "total": "1",
                "hash": "1A4E9E5CF86688769AE4D7C0CEA0A4B5EE832D1C"
              }
            },
            "signature": {
              "type": "tendermint/SignatureEd25519",
              "value": "ADhFZHawwei08OtS7u546tagFdVNR1mpRU2ulet3Jki6s1dtu6pDjrQqX8BILTAQndJ1bpTW6eYrRap5Q7hODw=="
            }
          },
          {
            "validator_address": "69D99B2C66043ACBEAA8447525C356AFC6408E0C",
            "validator_index": "48",
            "height": "3326",
            "round": "0",
            "timestamp": "2018-07-30T10:34:47.51356986Z",
            "type": 2,
            "block_id": {
              "hash": "FFC0E1DDC4FF677078E1E003C489E3E9B64CBAB2",
              "parts": {
                "total": "1",
                "hash": "1A4E9E5CF86688769AE4D7C0CEA0A4B5EE832D1C"
              }
            },
            "signature": {
              "type": "tendermint/SignatureEd25519",
              "value": "ilZ4bR6b2bvf9j4VpSThjMiEm0TST1tk3MW0JUj6Cilq6HhCgZr0crPq+ohQVehQMZhHni1THv1ThBTfUQnJAw=="
            }
          },
          {
            "validator_address": "6D3AD380E398D8592B03AA124BAFED5F125DF863",
            "validator_index": "49",
            "height": "3326",
            "round": "0",
            "timestamp": "2018-07-30T10:33:45.938355557Z",
            "type": 2,
            "block_id": {
              "hash": "FFC0E1DDC4FF677078E1E003C489E3E9B64CBAB2",
              "parts": {
                "total": "1",
                "hash": "1A4E9E5CF86688769AE4D7C0CEA0A4B5EE832D1C"
              }
            },
            "signature": {
              "type": "tendermint/SignatureEd25519",
              "value": "rQAoUH5jYCOqybml4Wjed/0OS7Fv/o0pw+3gICJyr2GutlR/2NotZJn4LM7Ad6rFy2yMkmBvVXCp+NviFaniDg=="
            }
          },
          {
            "validator_address": "6F6C93B8BF3495063FEC9B5C771158607F4AE9D6",
            "validator_index": "50",
            "height": "3326",
            "round": "0",
            "timestamp": "2018-07-30T10:34:47.419419263Z",
            "type": 2,
            "block_id": {
              "hash": "FFC0E1DDC4FF677078E1E003C489E3E9B64CBAB2",
              "parts": {
                "total": "1",
                "hash": "1A4E9E5CF86688769AE4D7C0CEA0A4B5EE832D1C"
              }
            },
            "signature": {
              "type": "tendermint/SignatureEd25519",
              "value": "1pBhBea/YiTda8bK6L0vnjFgWVf9VKX5pSXIDJ4MhuUR+TEpP1EuYBOaaF1hs1jMeIWOJ4tqLHwJsTrphvzKCg=="
            }
          },
          {
            "validator_address": "732CEEF54C374DDC6ADECBFD707AEFD07FEDC143",
            "validator_index": "51",
            "height": "3326",
            "round": "0",
            "timestamp": "2018-07-30T10:34:47.565343154Z",
            "type": 2,
            "block_id": {
              "hash": "FFC0E1DDC4FF677078E1E003C489E3E9B64CBAB2",
              "parts": {
                "total": "1",
                "hash": "1A4E9E5CF86688769AE4D7C0CEA0A4B5EE832D1C"
              }
            },
            "signature": {
              "type": "tendermint/SignatureEd25519",
              "value": "cJrt4XlZkJ0ia9+ekPDlMQSBy7Qz7xvr6onTISbd6jla5poZlWLiJKlT8GhhaQzVw6LNbKy16pWW1QmVpcEbDQ=="
            }
          },
          {
            "validator_address": "7393D691BFAE9661918C09932D4D9060AB40939B",
            "validator_index": "52",
            "height": "3326",
            "round": "0",
            "timestamp": "2018-07-30T10:34:47.573603475Z",
            "type": 2,
            "block_id": {
              "hash": "FFC0E1DDC4FF677078E1E003C489E3E9B64CBAB2",
              "parts": {
                "total": "1",
                "hash": "1A4E9E5CF86688769AE4D7C0CEA0A4B5EE832D1C"
              }
            },
            "signature": {
              "type": "tendermint/SignatureEd25519",
              "value": "5XHb9c0tu+kDPO/QkP74dAPM6+HCPfTzAYeCKdPkHFzXB+FsVBP3HXtTieIHNNECtEMVpi3AOUCd2epL5NMzDw=="
            }
          },
          {
            "validator_address": "751E43437224E8BB6D1569B3E2B2616B6E7F4397",
            "validator_index": "53",
            "height": "3326",
            "round": "0",
            "timestamp": "2018-07-30T10:34:47.425105838Z",
            "type": 2,
            "block_id": {
              "hash": "FFC0E1DDC4FF677078E1E003C489E3E9B64CBAB2",
              "parts": {
                "total": "1",
                "hash": "1A4E9E5CF86688769AE4D7C0CEA0A4B5EE832D1C"
              }
            },
            "signature": {
              "type": "tendermint/SignatureEd25519",
              "value": "Ay8ee6zwZeNe2kwfhWkwzMez3SB85fB1h7l0VIYn2m5FCpGQ+p/jHsKkZE9zJKetLu32oKUiI6jRdqlT0AdNBg=="
            }
          },
          {
            "validator_address": "7EB7593F519F1180C7E872D0494611464EDF03AE",
            "validator_index": "54",
            "height": "3326",
            "round": "0",
            "timestamp": "2018-07-30T10:34:47.486932184Z",
            "type": 2,
            "block_id": {
              "hash": "FFC0E1DDC4FF677078E1E003C489E3E9B64CBAB2",
              "parts": {
                "total": "1",
                "hash": "1A4E9E5CF86688769AE4D7C0CEA0A4B5EE832D1C"
              }
            },
            "signature": {
              "type": "tendermint/SignatureEd25519",
              "value": "g3bW941m7KkqDi/ak7s/4zke+K+B7TwwLZIkg75fIORGeWzd5rdPA54h4VbWurtzhPHnW0bfzWRjbP5p01AJBA=="
            }
          },
          {
            "validator_address": "807CF675BA8479FC4FEC1047215DF07970040F1F",
            "validator_index": "55",
            "height": "3326",
            "round": "0",
            "timestamp": "2018-07-30T10:34:47.730639341Z",
            "type": 2,
            "block_id": {
              "hash": "FFC0E1DDC4FF677078E1E003C489E3E9B64CBAB2",
              "parts": {
                "total": "1",
                "hash": "1A4E9E5CF86688769AE4D7C0CEA0A4B5EE832D1C"
              }
            },
            "signature": {
              "type": "tendermint/SignatureEd25519",
              "value": "kyqxuLd6Bvy4ouXG7f9+yfMTWkSjrQunKgdiGz//9/vS6xB+V+Egl2ccFPqR2yL65Mzu3TVA+J14eTQC2WFeAQ=="
            }
          },
          {
            "validator_address": "8126192EA66E8ADE6B36924534721366B987A4C1",
            "validator_index": "56",
            "height": "3326",
            "round": "0",
            "timestamp": "2018-07-30T10:34:47.407568564Z",
            "type": 2,
            "block_id": {
              "hash": "FFC0E1DDC4FF677078E1E003C489E3E9B64CBAB2",
              "parts": {
                "total": "1",
                "hash": "1A4E9E5CF86688769AE4D7C0CEA0A4B5EE832D1C"
              }
            },
            "signature": {
              "type": "tendermint/SignatureEd25519",
              "value": "F0L3GxPmf7TdG5GljT2cE8gcEg/wKbb1pU2Z0kWmpqwvxgbX4S9vKmYf3UrambtQRh/fCpni4+A9PGYdUPgjDw=="
            }
          },
          null,
          {
            "validator_address": "83AB321E012C57746689FED3A6064DF331F81007",
            "validator_index": "58",
            "height": "3326",
            "round": "0",
            "timestamp": "2018-07-30T10:34:47.474408102Z",
            "type": 2,
            "block_id": {
              "hash": "FFC0E1DDC4FF677078E1E003C489E3E9B64CBAB2",
              "parts": {
                "total": "1",
                "hash": "1A4E9E5CF86688769AE4D7C0CEA0A4B5EE832D1C"
              }
            },
            "signature": {
              "type": "tendermint/SignatureEd25519",
              "value": "baAkjCnsEi0D1Fw9RSkBKh7y/rgUwzdglcIkNgxrcBRf/qzEGEYhg8LnqUCPsJoHwDwwt32i6n+9AwI3UY0XDQ=="
            }
          },
          {
            "validator_address": "83BB1B88D3DBB20AD845FECA07749EBD87D3754D",
            "validator_index": "59",
            "height": "3326",
            "round": "0",
            "timestamp": "2018-07-30T10:34:47.67771058Z",
            "type": 2,
            "block_id": {
              "hash": "FFC0E1DDC4FF677078E1E003C489E3E9B64CBAB2",
              "parts": {
                "total": "1",
                "hash": "1A4E9E5CF86688769AE4D7C0CEA0A4B5EE832D1C"
              }
            },
            "signature": {
              "type": "tendermint/SignatureEd25519",
              "value": "OKS3qU12mmpJSnfaQT18AmycTbyJ9OacdhZD7cwwRjnORXoRqQ/H8GBfhlK99ovZC3HsNSXJqQ10U1STufHmDw=="
            }
          },
          null,
          null,
          {
            "validator_address": "8F45617BF45B10A3F8283DEBDB35E38C7CA43237",
            "validator_index": "62",
            "height": "3326",
            "round": "0",
            "timestamp": "2018-07-30T10:34:47.449669979Z",
            "type": 2,
            "block_id": {
              "hash": "FFC0E1DDC4FF677078E1E003C489E3E9B64CBAB2",
              "parts": {
                "total": "1",
                "hash": "1A4E9E5CF86688769AE4D7C0CEA0A4B5EE832D1C"
              }
            },
            "signature": {
              "type": "tendermint/SignatureEd25519",
              "value": "AB5R8Hc6qdqAOR4HfGTT7Om4HERiV6a2jSK9CduAEkVkWdZWX3/j5ysOXp63NgOQpbOD3ga+g2T1pT3UX3rDAw=="
            }
          },
          null,
          {
            "validator_address": "95980831E186F2540F6E9FB6C8E74DE2401405AC",
            "validator_index": "64",
            "height": "3326",
            "round": "0",
            "timestamp": "2018-07-30T10:34:47.471394826Z",
            "type": 2,
            "block_id": {
              "hash": "FFC0E1DDC4FF677078E1E003C489E3E9B64CBAB2",
              "parts": {
                "total": "1",
                "hash": "1A4E9E5CF86688769AE4D7C0CEA0A4B5EE832D1C"
              }
            },
            "signature": {
              "type": "tendermint/SignatureEd25519",
              "value": "O/VEBahTeXGd3xpEZNA7pXh74UmyAvI8MLtPQcLTbxOpclUe1pQGR+Lwh8WIUtL25iGg4mdvG0HQcaTrbx3DAA=="
            }
          },
          {
            "validator_address": "95FAFBC1E0579C83D290A063020CE87C5334BD9B",
            "validator_index": "65",
            "height": "3326",
            "round": "0",
            "timestamp": "2018-07-30T10:34:47.404236093Z",
            "type": 2,
            "block_id": {
              "hash": "FFC0E1DDC4FF677078E1E003C489E3E9B64CBAB2",
              "parts": {
                "total": "1",
                "hash": "1A4E9E5CF86688769AE4D7C0CEA0A4B5EE832D1C"
              }
            },
            "signature": {
              "type": "tendermint/SignatureEd25519",
              "value": "x9Co+HEunNBQYVMU3+KhTEHlqYe57i3bdY2fLyUFf7fnaCLH+5ygvt7Co49GAPF38u04apC5Uw6nqOWo28b9BA=="
            }
          },
          {
            "validator_address": "96BDE45EC52606CF5CB59853097871AD60680549",
            "validator_index": "66",
            "height": "3326",
            "round": "0",
            "timestamp": "2018-07-30T10:34:47.440788159Z",
            "type": 2,
            "block_id": {
              "hash": "FFC0E1DDC4FF677078E1E003C489E3E9B64CBAB2",
              "parts": {
                "total": "1",
                "hash": "1A4E9E5CF86688769AE4D7C0CEA0A4B5EE832D1C"
              }
            },
            "signature": {
              "type": "tendermint/SignatureEd25519",
              "value": "y1LS1zy9V3Kgd4moxT+2AiuTHAuEiCnKWIt+ehyyqMD5ZJLOs4wS+VvTmma0CLtCgH2U0rYZh4sU2fLnYDN7DA=="
            }
          },
          {
            "validator_address": "970CD321881185BF83DB2923C321B0E75FDBB2B8",
            "validator_index": "67",
            "height": "3326",
            "round": "0",
            "timestamp": "2018-07-30T10:34:47.468658627Z",
            "type": 2,
            "block_id": {
              "hash": "FFC0E1DDC4FF677078E1E003C489E3E9B64CBAB2",
              "parts": {
                "total": "1",
                "hash": "1A4E9E5CF86688769AE4D7C0CEA0A4B5EE832D1C"
              }
            },
            "signature": {
              "type": "tendermint/SignatureEd25519",
              "value": "iInjcRHyoTzWpp82SO2ZYq0CXG7knSv9M0NZ2Io01nUADxoYTJ9aBGiW/Mn7vgRRKr3NTvCDAoCQvweymNK0AA=="
            }
          },
          null,
          {
            "validator_address": "9C29C9B76D27586E4D9AD2AED0E943162645E55C",
            "validator_index": "69",
            "height": "3326",
            "round": "0",
            "timestamp": "2018-07-30T10:34:47.369938467Z",
            "type": 2,
            "block_id": {
              "hash": "FFC0E1DDC4FF677078E1E003C489E3E9B64CBAB2",
              "parts": {
                "total": "1",
                "hash": "1A4E9E5CF86688769AE4D7C0CEA0A4B5EE832D1C"
              }
            },
            "signature": {
              "type": "tendermint/SignatureEd25519",
              "value": "6i+J/284KZ0aQag3BgoVKVF70p7Gq6Q2tbl5YvOXW2RscVSnAlYoMXRtnZv+p4puoyCnQXJm8enm3eFRHr95DA=="
            }
          },
          {
            "validator_address": "9D93AD02FE1BD7E76B9E58D7EB461088EAD011E5",
            "validator_index": "70",
            "height": "3326",
            "round": "0",
            "timestamp": "2018-07-30T10:34:47.318368789Z",
            "type": 2,
            "block_id": {
              "hash": "FFC0E1DDC4FF677078E1E003C489E3E9B64CBAB2",
              "parts": {
                "total": "1",
                "hash": "1A4E9E5CF86688769AE4D7C0CEA0A4B5EE832D1C"
              }
            },
            "signature": {
              "type": "tendermint/SignatureEd25519",
              "value": "qf0i9vAIr/r9IVFUKqFZL+EoLpAUEUgZS9IHAq29H9NXgOiek0QUVjluSAjbotxCve8UaVbZ1RuL9OB6IrhCBA=="
            }
          },
          null,
          {
            "validator_address": "A0A6466F4ABEA09C3B55E3709AFDE217A103209F",
            "validator_index": "72",
            "height": "3326",
            "round": "0",
            "timestamp": "2018-07-30T10:34:47.335496145Z",
            "type": 2,
            "block_id": {
              "hash": "FFC0E1DDC4FF677078E1E003C489E3E9B64CBAB2",
              "parts": {
                "total": "1",
                "hash": "1A4E9E5CF86688769AE4D7C0CEA0A4B5EE832D1C"
              }
            },
            "signature": {
              "type": "tendermint/SignatureEd25519",
              "value": "JzBeT9ABONdWrAEWycJbNdj2oqIPnvMXmhMMqDgKcmRHOp6seYneJ7dL33uD2k1v1GSpNUcukQHr5xSaac2uDQ=="
            }
          },
          {
            "validator_address": "A5868971300F155020634D7BB49C7634F7AACCD3",
            "validator_index": "73",
            "height": "3326",
            "round": "0",
            "timestamp": "2018-07-30T10:34:47.413704438Z",
            "type": 2,
            "block_id": {
              "hash": "FFC0E1DDC4FF677078E1E003C489E3E9B64CBAB2",
              "parts": {
                "total": "1",
                "hash": "1A4E9E5CF86688769AE4D7C0CEA0A4B5EE832D1C"
              }
            },
            "signature": {
              "type": "tendermint/SignatureEd25519",
              "value": "6LII5KfgaGf/FD3OVZEahFKu9irptBUxC53Wl402gUhAxplz22hC44/Vgt1pWQjXL2cReWdRVGLLIuYoBXNQDw=="
            }
          },
          {
            "validator_address": "A6B3A5B5D982CFD7B5FDFA15CF5A720E7AE25E7F",
            "validator_index": "74",
            "height": "3326",
            "round": "0",
            "timestamp": "2018-07-30T10:34:47.43947775Z",
            "type": 2,
            "block_id": {
              "hash": "FFC0E1DDC4FF677078E1E003C489E3E9B64CBAB2",
              "parts": {
                "total": "1",
                "hash": "1A4E9E5CF86688769AE4D7C0CEA0A4B5EE832D1C"
              }
            },
            "signature": {
              "type": "tendermint/SignatureEd25519",
              "value": "maqmyt4jGpyTHM1RkfyJzTTxLagAxx0cvQrTB10leHkx4eiivfdA2ndo818uDjId0yoxu6AoBfI5VMnpewb1BQ=="
            }
          },
          {
            "validator_address": "AC96444A9083890B7C7B430DB17BF1D3EA5EED04",
            "validator_index": "75",
            "height": "3326",
            "round": "0",
            "timestamp": "2018-07-30T10:34:47.484277715Z",
            "type": 2,
            "block_id": {
              "hash": "FFC0E1DDC4FF677078E1E003C489E3E9B64CBAB2",
              "parts": {
                "total": "1",
                "hash": "1A4E9E5CF86688769AE4D7C0CEA0A4B5EE832D1C"
              }
            },
            "signature": {
              "type": "tendermint/SignatureEd25519",
              "value": "++iIUY2WcdTDHu8SIuxfzjikRzlwCWHe2BwKPrJLSYKxKyYF3tzWZas8G5HKQfgORFO2FEG9eBT+jFjyq+kwAA=="
            }
          },
          {
            "validator_address": "ACB97FDA2D940AF0709B73537C458EB988AD2893",
            "validator_index": "76",
            "height": "3326",
            "round": "0",
            "timestamp": "2018-07-30T10:34:47.37923203Z",
            "type": 2,
            "block_id": {
              "hash": "FFC0E1DDC4FF677078E1E003C489E3E9B64CBAB2",
              "parts": {
                "total": "1",
                "hash": "1A4E9E5CF86688769AE4D7C0CEA0A4B5EE832D1C"
              }
            },
            "signature": {
              "type": "tendermint/SignatureEd25519",
              "value": "h/QtM3OsAVRSWrcNN3SjKr3gt4gMmKMBLPv7q7O/cfpbh7FsFpfdji1GXWU9MXXR5FbyeDUInu9n1X7VthReCA=="
            }
          },
          {
            "validator_address": "B197425B3210375F211661DE02EF2AE36580EB0F",
            "validator_index": "77",
            "height": "3326",
            "round": "0",
            "timestamp": "2018-07-30T10:34:47.417406627Z",
            "type": 2,
            "block_id": {
              "hash": "FFC0E1DDC4FF677078E1E003C489E3E9B64CBAB2",
              "parts": {
                "total": "1",
                "hash": "1A4E9E5CF86688769AE4D7C0CEA0A4B5EE832D1C"
              }
            },
            "signature": {
              "type": "tendermint/SignatureEd25519",
              "value": "qOmDjCilWQc/ujU2jGBdlur5kbtPvdARG9XFFiKLVxcL8WdmQ1jZ/RMiQdZJrDJ9u0IJjsIqmCoZj8Q5vOFJDg=="
            }
          },
          {
            "validator_address": "B45E54D2D1CB5A4CCD1D49016608C18E7C56B270",
            "validator_index": "78",
            "height": "3326",
            "round": "0",
            "timestamp": "2018-07-30T10:34:47.539382713Z",
            "type": 2,
            "block_id": {
              "hash": "FFC0E1DDC4FF677078E1E003C489E3E9B64CBAB2",
              "parts": {
                "total": "1",
                "hash": "1A4E9E5CF86688769AE4D7C0CEA0A4B5EE832D1C"
              }
            },
            "signature": {
              "type": "tendermint/SignatureEd25519",
              "value": "7BzoTuar17J3A2QM9hRn8euLfnSCG1y8a91aWR+v6DKL4t3PM00WVKgQ2ViVAHtRB3O/JeEz+Od7FqBaFaF5BA=="
            }
          },
          {
            "validator_address": "B59A34C0BE4EC73AF6A67D274F1695C9259C237C",
            "validator_index": "79",
            "height": "3326",
            "round": "0",
            "timestamp": "2018-07-30T10:34:47.447915472Z",
            "type": 2,
            "block_id": {
              "hash": "FFC0E1DDC4FF677078E1E003C489E3E9B64CBAB2",
              "parts": {
                "total": "1",
                "hash": "1A4E9E5CF86688769AE4D7C0CEA0A4B5EE832D1C"
              }
            },
            "signature": {
              "type": "tendermint/SignatureEd25519",
              "value": "vbPX0TIgb0/EFfGZSiXkxLg0qt4zNPjkSe+wDbXwDuJBUldSa8Vht60K/IfrO0RUox7A13OthedHTvrZWVF8Dg=="
            }
          },
          {
            "validator_address": "BC36FEDD6EF6071118A3E51859DF3831A2EC4782",
            "validator_index": "80",
            "height": "3326",
            "round": "0",
            "timestamp": "2018-07-30T10:34:47.448969026Z",
            "type": 2,
            "block_id": {
              "hash": "FFC0E1DDC4FF677078E1E003C489E3E9B64CBAB2",
              "parts": {
                "total": "1",
                "hash": "1A4E9E5CF86688769AE4D7C0CEA0A4B5EE832D1C"
              }
            },
            "signature": {
              "type": "tendermint/SignatureEd25519",
              "value": "vlZNMz9lt7qjxRWdDjIxGryfsZiTcFSUyCtqBEK4UMtU/yUQvyzZvuPvbz0NL7Adpjq3D6CFTfoC3o98zemKCA=="
            }
          },
          {
            "validator_address": "BD9D0DA513BF099DB4BB6E725A4E19832789882F",
            "validator_index": "81",
            "height": "3326",
            "round": "0",
            "timestamp": "2018-07-30T10:34:47.442376812Z",
            "type": 2,
            "block_id": {
              "hash": "FFC0E1DDC4FF677078E1E003C489E3E9B64CBAB2",
              "parts": {
                "total": "1",
                "hash": "1A4E9E5CF86688769AE4D7C0CEA0A4B5EE832D1C"
              }
            },
            "signature": {
              "type": "tendermint/SignatureEd25519",
              "value": "ZqafKHHRYMjySBNFt0tGs2qQTsY+M28STOr09DCXHvVUo7xj6ZgeQLKeKoF28xXe+RNHs6InaDm/SUQ5AAfFBQ=="
            }
          },
          null,
          {
            "validator_address": "C39A8A2B85198DCB8F23AD1F6C198E2BA7AB5D60",
            "validator_index": "83",
            "height": "3326",
            "round": "0",
            "timestamp": "2018-07-30T10:34:47.350821682Z",
            "type": 2,
            "block_id": {
              "hash": "FFC0E1DDC4FF677078E1E003C489E3E9B64CBAB2",
              "parts": {
                "total": "1",
                "hash": "1A4E9E5CF86688769AE4D7C0CEA0A4B5EE832D1C"
              }
            },
            "signature": {
              "type": "tendermint/SignatureEd25519",
              "value": "gIOGuLklhSO8oAaQzy/lwH8OkditW8LYCuxjX6vT6iE+1gGo3apeqpjqZ7fdShOkoBNcyvIDUkb+iRZn9N8wDw=="
            }
          },
          {
            "validator_address": "C4335190C3B5BD4BA5568BC0F99C34162D940D08",
            "validator_index": "84",
            "height": "3326",
            "round": "0",
            "timestamp": "2018-07-30T10:34:47.529492567Z",
            "type": 2,
            "block_id": {
              "hash": "FFC0E1DDC4FF677078E1E003C489E3E9B64CBAB2",
              "parts": {
                "total": "1",
                "hash": "1A4E9E5CF86688769AE4D7C0CEA0A4B5EE832D1C"
              }
            },
            "signature": {
              "type": "tendermint/SignatureEd25519",
              "value": "xcyZzw9PaGRY2dk2jh+LKGTU5EPuiC7Df6Ld/DnB4F+wiNiLNKKtA7pL59lsN7uKWe97FR+SWTL8+544JtiyAw=="
            }
          },
          null,
          {
            "validator_address": "CEB97DB5CB18270247ABDE6CF2F84F9AEE8A2904",
            "validator_index": "86",
            "height": "3326",
            "round": "0",
            "timestamp": "2018-07-30T10:34:47.047559266Z",
            "type": 2,
            "block_id": {
              "hash": "FFC0E1DDC4FF677078E1E003C489E3E9B64CBAB2",
              "parts": {
                "total": "1",
                "hash": "1A4E9E5CF86688769AE4D7C0CEA0A4B5EE832D1C"
              }
            },
            "signature": {
              "type": "tendermint/SignatureEd25519",
              "value": "MYqasrcCmQMKQ53w5lJMTbZibHnaK06EUFYm+h6yEjktfHYkEpdKCUORRG7zt9LiF/C4LNdrNDkLVQOEJOhBBA=="
            }
          },
          {
            "validator_address": "D2134B826A1E25A955905CB79A4D8731CAFA0CCE",
            "validator_index": "87",
            "height": "3326",
            "round": "0",
            "timestamp": "2018-07-30T10:34:47.511917589Z",
            "type": 2,
            "block_id": {
              "hash": "FFC0E1DDC4FF677078E1E003C489E3E9B64CBAB2",
              "parts": {
                "total": "1",
                "hash": "1A4E9E5CF86688769AE4D7C0CEA0A4B5EE832D1C"
              }
            },
            "signature": {
              "type": "tendermint/SignatureEd25519",
              "value": "uwgNcvR0F05suidkVvWt4QrP0PkZ1vBE0JynBvSqmm3adEsz8zOjfGup5C5SIDG7sEgR1L4yAgdKdoFPDU2bBg=="
            }
          },
          null,
          {
            "validator_address": "D6285C3422C8886445D53757CBE12D2B91B5A9D0",
            "validator_index": "89",
            "height": "3326",
            "round": "0",
            "timestamp": "2018-07-30T10:34:29.598717757Z",
            "type": 2,
            "block_id": {
              "hash": "FFC0E1DDC4FF677078E1E003C489E3E9B64CBAB2",
              "parts": {
                "total": "1",
                "hash": "1A4E9E5CF86688769AE4D7C0CEA0A4B5EE832D1C"
              }
            },
            "signature": {
              "type": "tendermint/SignatureEd25519",
              "value": "Pudz67N3JIfEUcOeYU+8b30kqv6WKG/Srigi1z/l2ZLS5C10237jjG4stOApkYATKGi6I6yrwo914PszHwbFDA=="
            }
          },
          null,
          null,
          {
            "validator_address": "DB7E6732471D3EA5C90C17A9974D9F88AB45F2FB",
            "validator_index": "92",
            "height": "3326",
            "round": "0",
            "timestamp": "2018-07-30T10:34:47.471738461Z",
            "type": 2,
            "block_id": {
              "hash": "FFC0E1DDC4FF677078E1E003C489E3E9B64CBAB2",
              "parts": {
                "total": "1",
                "hash": "1A4E9E5CF86688769AE4D7C0CEA0A4B5EE832D1C"
              }
            },
            "signature": {
              "type": "tendermint/SignatureEd25519",
              "value": "VK7XTAVr25dYPGv8auMR3TOFbj8Lsbyb26RoLRg3a9rtGgTxVmJcZYOMz6V5UY/jwPIv7zPIO2S+LatwM5NHCA=="
            }
          },
          {
            "validator_address": "DF54B862410BCD9B5C516FBB6C56BDC826ED6FA7",
            "validator_index": "93",
            "height": "3326",
            "round": "0",
            "timestamp": "2018-07-30T10:34:47.48109183Z",
            "type": 2,
            "block_id": {
              "hash": "FFC0E1DDC4FF677078E1E003C489E3E9B64CBAB2",
              "parts": {
                "total": "1",
                "hash": "1A4E9E5CF86688769AE4D7C0CEA0A4B5EE832D1C"
              }
            },
            "signature": {
              "type": "tendermint/SignatureEd25519",
              "value": "21kXZMkCICim5XLgEBPJI86kET4e2wEQAc7mdPoJ62OilEnvgLl9XASWJPARUNbm45dIR3t4pdXRFPLliVBsBg=="
            }
          },
          {
            "validator_address": "DFAF0C8B1B78D6D552B0189DE3ACA351439A1319",
            "validator_index": "94",
            "height": "3326",
            "round": "0",
            "timestamp": "2018-07-30T10:34:47.389150274Z",
            "type": 2,
            "block_id": {
              "hash": "FFC0E1DDC4FF677078E1E003C489E3E9B64CBAB2",
              "parts": {
                "total": "1",
                "hash": "1A4E9E5CF86688769AE4D7C0CEA0A4B5EE832D1C"
              }
            },
            "signature": {
              "type": "tendermint/SignatureEd25519",
              "value": "Bmfh1wLT2X3RiuADjVSvlh5bM3R/EfEhMgpzF5JFOlxfe71S6AXDbKSLY9XRqSFbEe9RNwCfH8Zl4TVPlpkJAg=="
            }
          },
          {
            "validator_address": "E1DBC77881161A5A3A8536A57536EAE546A75D69",
            "validator_index": "95",
            "height": "3326",
            "round": "0",
            "timestamp": "2018-07-30T10:34:47.299736416Z",
            "type": 2,
            "block_id": {
              "hash": "FFC0E1DDC4FF677078E1E003C489E3E9B64CBAB2",
              "parts": {
                "total": "1",
                "hash": "1A4E9E5CF86688769AE4D7C0CEA0A4B5EE832D1C"
              }
            },
            "signature": {
              "type": "tendermint/SignatureEd25519",
              "value": "1Q0ydpnx/U64Ge4C+u3aZEjBsY5ZRHuyHCnl4VEtxaAh81rmBuMZjFrhLOzuuD8lb/9GZeNEtPNykuab0wDcCA=="
            }
          },
          {
            "validator_address": "E300E9D484374C1D3E97C1D93CAC3B160A056298",
            "validator_index": "96",
            "height": "3326",
            "round": "0",
            "timestamp": "2018-07-30T10:34:47.674928237Z",
            "type": 2,
            "block_id": {
              "hash": "FFC0E1DDC4FF677078E1E003C489E3E9B64CBAB2",
              "parts": {
                "total": "1",
                "hash": "1A4E9E5CF86688769AE4D7C0CEA0A4B5EE832D1C"
              }
            },
            "signature": {
              "type": "tendermint/SignatureEd25519",
              "value": "GEi7bmHUF0kyp0KNv7fKPmk4mWBGZcTjFH1VlIaacwjK2i1BwiGfDk8WYxDXkV7rVGtYjWSFq7tgzpxpmiX5BQ=="
            }
          },
          {
            "validator_address": "E39B5778E0D4297A46F45CF6940B0A163A430FF8",
            "validator_index": "97",
            "height": "3326",
            "round": "0",
            "timestamp": "2018-07-30T10:34:47.482222601Z",
            "type": 2,
            "block_id": {
              "hash": "FFC0E1DDC4FF677078E1E003C489E3E9B64CBAB2",
              "parts": {
                "total": "1",
                "hash": "1A4E9E5CF86688769AE4D7C0CEA0A4B5EE832D1C"
              }
            },
            "signature": {
              "type": "tendermint/SignatureEd25519",
              "value": "RdstGMado3NO9Y/OUoJ4sCADMKNDVtZDhIVm5nAl2SoxJ+cMvqsHN9KYMX4CH8ufNa1v7Y4sHtLAeDMMunrGAg=="
            }
          },
          null,
          {
            "validator_address": "E42F8AEABB685219F7027F54D2B0DBC7846F633A",
            "validator_index": "99",
            "height": "3326",
            "round": "0",
            "timestamp": "2018-07-30T10:34:46.853606519Z",
            "type": 2,
            "block_id": {
              "hash": "FFC0E1DDC4FF677078E1E003C489E3E9B64CBAB2",
              "parts": {
                "total": "1",
                "hash": "1A4E9E5CF86688769AE4D7C0CEA0A4B5EE832D1C"
              }
            },
            "signature": {
              "type": "tendermint/SignatureEd25519",
              "value": "MR1JFdjvPKdHl3GmPTCpOVlnK/rR5mQqCAcSU7zjXYWcOZvtWedqA9oWIh2x9ptirf7lur/tb/B2D1y2esHXCg=="
            }
          },
          {
            "validator_address": "E4E6C2E81269DFFA196C17F98240E491479A6008",
            "validator_index": "100",
            "height": "3326",
            "round": "0",
            "timestamp": "2018-07-30T10:34:47.517033485Z",
            "type": 2,
            "block_id": {
              "hash": "FFC0E1DDC4FF677078E1E003C489E3E9B64CBAB2",
              "parts": {
                "total": "1",
                "hash": "1A4E9E5CF86688769AE4D7C0CEA0A4B5EE832D1C"
              }
            },
            "signature": {
              "type": "tendermint/SignatureEd25519",
              "value": "+y/QHgoIeSaN47WAn/46688geDwX26j+7zZqCZQQ0wqlIvUR/uShQ6zggAHvOaPipG+eOKRyswYK4iWWoqNUDw=="
            }
          },
          null,
          {
            "validator_address": "E6A7079D584B163750BE0831227F6B685DEAF3C1",
            "validator_index": "102",
            "height": "3326",
            "round": "0",
            "timestamp": "2018-07-30T10:34:47.537744615Z",
            "type": 2,
            "block_id": {
              "hash": "FFC0E1DDC4FF677078E1E003C489E3E9B64CBAB2",
              "parts": {
                "total": "1",
                "hash": "1A4E9E5CF86688769AE4D7C0CEA0A4B5EE832D1C"
              }
            },
            "signature": {
              "type": "tendermint/SignatureEd25519",
              "value": "OMUYxvRJHH2/WrdXprJNuktawYWzddZMWmcWRWgqtsqMPSQnfEh0ehHM+IRuHcDzTuGXNxIFt+Mr3/wdNueUDg=="
            }
          },
          {
            "validator_address": "E7A30077D5D11867D3EAF99ED45BFDC1EB834509",
            "validator_index": "103",
            "height": "3326",
            "round": "0",
            "timestamp": "2018-07-30T10:34:47.430237882Z",
            "type": 2,
            "block_id": {
              "hash": "FFC0E1DDC4FF677078E1E003C489E3E9B64CBAB2",
              "parts": {
                "total": "1",
                "hash": "1A4E9E5CF86688769AE4D7C0CEA0A4B5EE832D1C"
              }
            },
            "signature": {
              "type": "tendermint/SignatureEd25519",
              "value": "yG2Er5fANLKKwJdNAhPfvoSOJqsGAdFA3EqTDObbuck+zguHrgW46VZCQ+kGcym2ciE6rO2APxOrBqmeL9LnDQ=="
            }
          },
          {
            "validator_address": "EBC613967F66F4EC306852CDF58B4F151CF16738",
            "validator_index": "104",
            "height": "3326",
            "round": "0",
            "timestamp": "2018-07-30T10:34:47.460138862Z",
            "type": 2,
            "block_id": {
              "hash": "FFC0E1DDC4FF677078E1E003C489E3E9B64CBAB2",
              "parts": {
                "total": "1",
                "hash": "1A4E9E5CF86688769AE4D7C0CEA0A4B5EE832D1C"
              }
            },
            "signature": {
              "type": "tendermint/SignatureEd25519",
              "value": "rGMpAEmJ/RSDhGpJvQKb6H6qnDvgk6VJfjQqeSxH0pMuUJrT/DmHARduZ/fr6C6nh2Kh9PIXTPK79yccC8faBw=="
            }
          },
          null,
          {
            "validator_address": "EC95B111D032181E1EC3B5E8875C5BB8E4AE7140",
            "validator_index": "106",
            "height": "3326",
            "round": "0",
            "timestamp": "2018-07-30T10:34:47.358472529Z",
            "type": 2,
            "block_id": {
              "hash": "FFC0E1DDC4FF677078E1E003C489E3E9B64CBAB2",
              "parts": {
                "total": "1",
                "hash": "1A4E9E5CF86688769AE4D7C0CEA0A4B5EE832D1C"
              }
            },
            "signature": {
              "type": "tendermint/SignatureEd25519",
              "value": "tehZSN7Mdg81R3oWs6kCq27VZ/wDHVnH0WFAOa7zNSQqI9yX9IauBy/fGmoPAEXJZfmoxDELQ1ggFsq1YidDCw=="
            }
          },
          {
            "validator_address": "F13C1805E8131C9B47E2A46818F57D8A2841E578",
            "validator_index": "107",
            "height": "3326",
            "round": "0",
            "timestamp": "2018-07-30T10:34:47.48816395Z",
            "type": 2,
            "block_id": {
              "hash": "FFC0E1DDC4FF677078E1E003C489E3E9B64CBAB2",
              "parts": {
                "total": "1",
                "hash": "1A4E9E5CF86688769AE4D7C0CEA0A4B5EE832D1C"
              }
            },
            "signature": {
              "type": "tendermint/SignatureEd25519",
              "value": "eGz91WZeGTA2oQPISJi1MzqwWvVnKGH0TdJTuIIJNHkrliQvbiCLVempkI89gfoZ7XZNRtmOWv70JlCcQtblCA=="
            }
          },
          {
            "validator_address": "F23FF36BD5B90C33CE3A03ED72DBDCF5EC07D6AF",
            "validator_index": "108",
            "height": "3326",
            "round": "0",
            "timestamp": "2018-07-30T10:34:47.434965421Z",
            "type": 2,
            "block_id": {
              "hash": "FFC0E1DDC4FF677078E1E003C489E3E9B64CBAB2",
              "parts": {
                "total": "1",
                "hash": "1A4E9E5CF86688769AE4D7C0CEA0A4B5EE832D1C"
              }
            },
            "signature": {
              "type": "tendermint/SignatureEd25519",
              "value": "9HbfdG8M1vdnV9O0s4FyXyoaPmMTztyBQsz5mip5688x+QsHv/WsJV1r8moVJtk0L+OW5JjN6NVeX1EBrd+MBg=="
            }
          },
          {
            "validator_address": "F4268597DE93E3E2CED38845010F8AA34E2A879E",
            "validator_index": "109",
            "height": "3326",
            "round": "0",
            "timestamp": "2018-07-30T10:34:47.513228328Z",
            "type": 2,
            "block_id": {
              "hash": "FFC0E1DDC4FF677078E1E003C489E3E9B64CBAB2",
              "parts": {
                "total": "1",
                "hash": "1A4E9E5CF86688769AE4D7C0CEA0A4B5EE832D1C"
              }
            },
            "signature": {
              "type": "tendermint/SignatureEd25519",
              "value": "+gDLptU7nrJYe40Y0YM4kIHfsI7fdJhcqQPT2SNH506NwFPfJlsXdd0WiCGSoh1RMEd+55sZ6Rd3Ly1WTIBwAw=="
            }
          },
          null,
          null,
          null,
          null,
          {
            "validator_address": "FF3F3FCBCE7E62D7AD5506FF846EC4518D980515",
            "validator_index": "114",
            "height": "3326",
            "round": "0",
            "timestamp": "2018-07-30T10:34:47.373719609Z",
            "type": 2,
            "block_id": {
              "hash": "FFC0E1DDC4FF677078E1E003C489E3E9B64CBAB2",
              "parts": {
                "total": "1",
                "hash": "1A4E9E5CF86688769AE4D7C0CEA0A4B5EE832D1C"
              }
            },
            "signature": {
              "type": "tendermint/SignatureEd25519",
              "value": "wE1Nz36fyKIOt9Q2kkdorY9vK0Vq45ZvWltNccCmkbuCor2xce90X6Vu5Iz3X9yl5s7pxf4S+Pr0KTcz2SXrBA=="
            }
          }
        ]
      }
    },
    "canonical": true
  }
}