{
  "jsonrpc": "2.0",
  "id": "",
  "result": {
    "SignedHeader": {
      "header": {
        "chain_id": "gaia-7004",
        "height": "3329",
        "time": "2018-07-30T10:35:13.440967682Z",
        "num_txs": "0",
        "last_block_id": {
          "hash": "1959958079D322F701301E104BE9BFB74F855EF3",
          "parts": {
            "total": "1",
            "hash": "1AAB357DAD579C5B3684F5E5870D09B6BD8B77EF"
          }
        },
        "total_txs": "55",
        "last_commit_hash": "BB9C93667943886554AA294EE444510E7037E981",
        "data_hash": "",
        "validators_hash": "993C3D1DAE65F1927AA67806553D81E1D3702BDB",
        "consensus_hash": "D6B74BB35BDFFD8392340F2A379173548AE188FE",
        "app_hash": "DC195C342DD3C652730E7C3C7E58E46A0462D4FD",
        "last_results_hash": "",
        "evidence_hash": ""
      },
      "commit": {
        "block_id": {
          "hash": "1D7E52F96DAFDCC833E0BCA676F16B19A6672F88",
          "parts": {
            "total": "1",
            "hash": "14B9D45CC197BECE0CAA3F7ADC2386356748D172"
          }
        },
        "precommits": [
          {
            "validator_address": "029359C0C768096273A68ABC902A6B17AC8D1D70",
            "validator_index": "0",
            "height": "3329",
            "round": "0",
            "timestamp": "2018-07-30T10:35:14.272403198Z",
            "type": 2,
            "block_id": {
              "hash": "1D7E52F96DAFDCC833E0BCA676F16B19A6672F88",
              "parts": {
                "total": "1",
                "hash": "14B9D45CC197BECE0CAA3F7ADC2386356748D172"
              }
            },
            "signature": {
              "type": "tendermint/SignatureEd25519",
              "value": "c+2ofL7KAd/8LmVZKOPplb18Bg4/G7KRC/RPLh/RO1i3snjX5C0YBXV7GvKRHvx1BsuZTP/HF8rs//UM73oOCw=="
            }
          },
          {
            "validator_address": "02FE4B97A8387F39D1AC19E0C1702B3CC614812F",
            "validator_index": "1",
            "height": "3329",
            "round": "0",
            "timestamp": "2018-07-30T10:35:14.334911819Z",
            "type": 2,
            "block_id": {
              "hash": "1D7E52F96DAFDCC833E0BCA676F16B19A6672F88",
              "parts": {
                "total": "1",
                "hash": "14B9D45CC197BECE0CAA3F7ADC2386356748D172"
              }
            },
            "signature": {
              "type": "tendermint/SignatureEd25519",
              "value": "kYb2KXKa1opW9MyrUrPwMKuk99Kw5jB4SR3xIMFYfEpzVNCbYMh0TTTB48Z9Ie+3bobmUE/+OguaUpWBlmvNDA=="
            }
          },
          {
            "validator_address": "0548261C50222FD710EB5EBDF03A0E6567B21D20",
            "validator_index": "2",
            "height": "3329",
            "round": "0",
            "timestamp": "2018-07-30T10:35:14.358896191Z",
            "type": 2,
            "block_id": {
              "hash": "1D7E52F96DAFDCC833E0BCA676F16B19A6672F88",
              "parts": {
                "total": "1",
                "hash": "14B9D45CC197BECE0CAA3F7ADC2386356748D172"
              }
            },
            "signature": {
              "type": "tendermint/SignatureEd25519",
              "value": "Vd6TH0whnDGJzQ5D3ckJWd1D1dJbOoWqa1N/tlr/0nGLwWZ4wocgJe8Julpvy05i44RdtY5NLQOrFmW0dxvkBg=="
            }
          },
          null,
          {
            "validator_address": "09145E611CC27EEB944FC5A956DDF710F943B9EF",
            "validator_index": "4",
            "height": "3329",
            "round": "0",
            "timestamp": "2018-07-30T10:35:14.286336244Z",
            "type": 2,
            "block_id": {
              "hash": "1D7E52F96DAFDCC833E0BCA676F16B19A6672F88",
              "parts": {
                "total": "1",
                "hash": "14B9D45CC197BECE0CAA3F7ADC2386356748D172"
              }
            },
            "signature": {
              "type": "tendermint/SignatureEd25519",
              "value": "IOLbu7ZQHdDFweN2OwdivG2/XMBO0XTTEMMNZv85TLoSc9SZswFQOZv9BgAmGPFjv2zleOgVgQ1udTnx6woZCA=="
            }
          },
          {
            "validator_address": "0989D0355A104B67AE0AE028C68FB610690E174B",
            "validator_index": "5",
            "height": "3329",
            "round": "0",
            "timestamp": "2018-07-30T10:35:14.289229248Z",
            "type": 2,
            "block_id": {
              "hash": "1D7E52F96DAFDCC833E0BCA676F16B19A6672F88",
              "parts": {
                "total": "1",
                "hash": "14B9D45CC197BECE0CAA3F7ADC2386356748D172"
              }
            },
            "signature": {
              "type": "tendermint/SignatureEd25519",
              "value": "s7292yPIEv9/hBqRkrGOQxnovx4ZaKjJCuNsBB/RgDWtwcriiIPY5aD+rNhAbqL6CEJbyofdGxCUAckoBetDDQ=="
            }
          },
          {
            "validator_address": "0A692DBFFE9E5DD28E7DECC33CED1AEB4C0D014E",
            "validator_index": "6",
            "height": "3329",
            "round": "0",
            "timestamp": "2018-07-30T10:35:14.357064828Z",
            "type": 2,
            "block_id": {
              "hash": "1D7E52F96DAFDCC833E0BCA676F16B19A6672F88",
              "parts": {
                "total": "1",
                "hash": "14B9D45CC197BECE0CAA3F7ADC2386356748D172"
              }
            },
            "signature": {
              "type": "tendermint/SignatureEd25519",
              "value": "uy5lnSSTMeFv/yzEQr9vPxwQJx0jRFUV1xcohWbRQujP80ezO/PDqGokKC+4FbpzhJOXPb8c+HDM2wxjW+7uDg=="
            }
          },
          {
            "validator_address": "0DDF97111D73DB825138EC15EC27DE5FE8536901",
            "validator_index": "7",
            "height": "3329",
            "round": "0",
            "timestamp": "2018-07-30T10:35:14.312059164Z",
            "type": 2,
            "block_id": {
              "hash": "1D7E52F96DAFDCC833E0BCA676F16B19A6672F88",
              "parts": {
                "total": "1",
                "hash": "14B9D45CC197BECE0CAA3F7ADC2386356748D172"
              }
            },
            "signature": {
              "type": "tendermint/SignatureEd25519",
              "value": "kdvOcr3YaZSzoSJKa3qOPmvzZCizzs+2g3yg3EHz55ycvJYqy/BG9cutpd7i4LoiRomrLedHCX754MIyphAJBw=="
            }
          },
          {
            "validator_address": "0F3FB8F818BE494E8F5597D9A8ACA57C8C5E72B7",
            "validator_index": "8",
            "height": "3329",
            "round": "0",
            "timestamp": "2018-07-30T10:35:14.422295656Z",
            "type": 2,
            "block_id": {
              "hash": "1D7E52F96DAFDCC833E0BCA676F16B19A6672F88",
              "parts": {
                "total": "1",
                "hash": "14B9D45CC197BECE0CAA3F7ADC2386356748D172"
              }
            },
            "signature": {
              "type": "tendermint/SignatureEd25519",
              "value": "MaRpOw2HRn/nhG4FGOWBcYITUtIqlO336i7g/QQsACxY9wMo7xzJYud2ZpsA46Q0YuKAkAVOB5An1GBn8sf7Ag=="
            }
          },
          {
            "validator_address": "1751786EFC085D5331C61168FFFC8202EA151B4E",
            "validator_index": "9",
            "height": "3329",
            "round": "0",
            "timestamp": "2018-07-30T10:35:13.740138697Z",
            "type": 2,
            "block_id": {
              "hash": "1D7E52F96DAFDCC833E0BCA676F16B19A6672F88",
              "parts": {
                "total": "1",
                "hash": "14B9D45CC197BECE0CAA3F7ADC2386356748D172"
              }
            },
            "signature": {
              "type": "tendermint/SignatureEd25519",
              "value": "TQKXJaHHlZupfkyOoAawI14Rvgfi3xpwj38ZYRW4O6WZV+GEe3i1+bLSX08rCVwXeI4s5un65oAheBmXGknhCg=="
            }
          },
          {
            "validator_address": "17BB5CD01E8940FAFB948A04D5FA5A0645E5822E",
            "validator_index": "10",
            "height": "3329",
            "round": "0",
            "timestamp": "2018-07-30T10:35:14.265348785Z",
            "type": 2,
            "block_id": {
              "hash": "1D7E52F96DAFDCC833E0BCA676F16B19A6672F88",
              "parts": {
                "total": "1",
                "hash": "14B9D45CC197BECE0CAA3F7ADC2386356748D172"
              }
            },
            "signature": {
              "type": "tendermint/SignatureEd25519",
              "value": "gWhGQl488SFXbR7R2AY5nttZJ42Atge/sSVN5RZ5izkIxOtCK2o2uYwXCG85/NuNUORRYbBPbirc+ewKgZVvDA=="
            }
          },
          null,
          {
            "validator_address": "1E9CE94FD0BA5CFEB901F90BC658D64D85B134D2",
            "validator_index": "12",
            "height": "3329",
            "round": "0",
            "timestamp": "2018-07-30T10:35:14.296265926Z",
            "type": 2,
            "block_id": {
              "hash": "1D7E52F96DAFDCC833E0BCA676F16B19A6672F88",
              "parts": {
                "total": "1",
                "hash": "14B9D45CC197BECE0CAA3F7ADC2386356748D172"
              }
            },
            "signature": {
              "type": "tendermint/SignatureEd25519",
              "value": "U2fxLl6cBbGksxF2AiLJzZ4URqkJV7LkwfMXvNiuN4fEurhj6kx8MLyUNZfzKoGBJ2vKRInwRjGzBbho9Pa4Cg=="
            }
          },
          {
            "validator_address": "1ECD8C5FE1341D74CDC633A245DD56858DE2F9A2",
            "validator_index": "13",
            "height": "3329",
            "round": "0",
            "timestamp": "2018-07-30T10:35:14.382519832Z",
            "type": 2,
            "block_id": {
              "hash": "1D7E52F96DAFDCC833E0BCA676F16B19A6672F88",
              "parts": {
                "total": "1",
                "hash": "14B9D45CC197BECE0CAA3F7ADC2386356748D172"
              }
            },
            "signature": {
              "type": "tendermint/SignatureEd25519",
              "value": "xRc2X1xgTa61fiZ07C89mZeM6F3P/gR/5bLiOSdOMcqt4Kfde8H4U3vSa2W/y65SBNyTVy/fPc4jmX5wXBrMCQ=="
            }
          },
          null,
          null,
          {
            "validator_address": "23897586D68E2AC1C78E0EF5BB5DF5C8EAB18F50",
            "validator_index": "16",
            "height": "3329",
            "round": "0",
            "timestamp": "2018-07-30T10:35:14.335140003Z",
            "type": 2,
            "block_id": {
              "hash": "1D7E52F96DAFDCC833E0BCA676F16B19A6672F88",
              "parts": {
                "total": "1",
                "hash": "14B9D45CC197BECE0CAA3F7ADC2386356748D172"
              }
            },
            "signature": {
              "type": "tendermint/SignatureEd25519",
              "value": "mAjp/35vnhC0oIxmX+2Jee2eEEqk3Kl0vrVPoAzn18T0vGZrfJ8gzA6vcEKa0d12glusIWfLiA6xrJ0D82YnCw=="
            }
          },
          {
            "validator_address": "28770D17E8530825E7310A0659308654B7EC9682",
            "validator_index": "17",
            "height": "3329",
            "round": "0",
            "timestamp": "2018-07-30T10:35:14.285957259Z",
            "type": 2,
            "block_id": {
              "hash": "1D7E52F96DAFDCC833E0BCA676F16B19A6672F88",
              "parts": {
                "total": "1",
                "hash": "14B9D45CC197BECE0CAA3F7ADC2386356748D172"
              }
            },
            "signature": {
              "type": "tendermint/SignatureEd25519",
              "value": "+zLYdw5vKXgFRHjWuhDtPurx03iX9ctTOFLPXK6wD0k/5APHyg5rTBQzUtuL6rhhqJBPJrXgBWBfeuH+Pj4TCw=="
            }
          },
          null,
          {
            "validator_address": "2A92EC3C642140202298D0E245095E0ECFC25228",
            "validator_index": "19",
            "height": "3329",
            "round": "0",
            "timestamp": "2018-07-30T10:35:14.339914737Z",
            "type": 2,
            "block_id": {
              "hash": "1D7E52F96DAFDCC833E0BCA676F16B19A6672F88",
              "parts": {
                "total": "1",
                "hash": "14B9D45CC197BECE0CAA3F7ADC2386356748D172"
              }
            },
            "signature": {
              "type": "tendermint/SignatureEd25519",
              "value": "w8vPWigGWV2PWIxjfWWS1TO15DT1S1NvjDqg+Zygco8rK+Ktk7VovHUZ8RFYKbEIm8pNyOTd7WKj9Ml+XZEcCQ=="
            }
          },
          null,
          null,
          {
            "validator_address": "33412C9A69C60CB0FAA24A5C5B3A906DE24B47C2",
            "validator_index": "22",
            "height": "3329",
            "round": "0",
            "timestamp": "2018-07-30T10:35:14.219911055Z",
            "type": 2,
            "block_id": {
              "hash": "1D7E52F96DAFDCC833E0BCA676F16B19A6672F88",
              "parts": {
                "total": "1",
                "hash": "14B9D45CC197BECE0CAA3F7ADC2386356748D172"
              }
            },
            "signature": {
              "type": "tendermint/SignatureEd25519",
              "value": "E/nySjSL1FN395vYagwFpeqa5ei2ua84rhxa0eimtk629gH2HKq9vSKc3BQgH7wh76/dIEkxje5bOr3RDpdIDw=="
            }
          },
          null,
          {
            "validator_address": "36E9B7FAEC964F97D84C028ED62493E373AD0B38",
            "validator_index": "24",
            "height": "3329",
            "round": "0",
            "timestamp": "2018-07-30T10:35:14.552452282Z",
            "type": 2,
            "block_id": {
              "hash": "1D7E52F96DAFDCC833E0BCA676F16B19A6672F88",
              "parts": {
                "total": "1",
                "hash": "14B9D45CC197BECE0CAA3F7ADC2386356748D172"
              }
            },
            "signature": {
              "type": "tendermint/SignatureEd25519",
              "value": "liQL1u/vvbOnFkIof6lxHvPBoXGuvvy3eBKHX1SFMZi9xibTJvF7RWoe0lHdcL7ZtbSRhmP3RGAHojSWRwSFCg=="
            }
          },
          {
            "validator_address": "38A8D85D36BEA2E5FCF8A1E778F53628E450EF13",
            "validator_index": "25",
            "height": "3329",
            "round": "0",
            "timestamp": "2018-07-30T10:35:14.319374555Z",
            "type": 2,
            "block_id": {
              "hash": "1D7E52F96DAFDCC833E0BCA676F16B19A6672F88",
              "parts": {
                "total": "1",
                "hash": "14B9D45CC197BECE0CAA3F7ADC2386356748D172"
              }
            },
            "signature": {
              "type": "tendermint/SignatureEd25519",
              "value": "gpyNT5OyJ1CVuhz1Bk3uTZqvsazoYVSLHNE22A9rusT6Rt8nugPKQzDYuMWJsUS+br/mwCYES/uTY/AI/zLuBQ=="
            }
          },
          {
            "validator_address": "39DFDA0C5DB84B269642188B23253508537798E6",
            "validator_index": "26",
            "height": "3329",
            "round": "0",
            "timestamp": "2018-07-30T10:35:14.323158772Z",
            "type": 2,
            "block_id": {
              "hash": "1D7E52F96DAFDCC833E0BCA676F16B19A6672F88",
              "parts": {
                "total": "1",
                "hash": "14B9D45CC197BECE0CAA3F7ADC2386356748D172"
              }
            },
            "signature": {
              "type": "tendermint/SignatureEd25519",
              "value": "nFI9AIutWFEZMKGw/FJ/eQBEF42oYn0MIfdWhrZNhjWP+xwb6qxcZNfl17sCvK99NuN8rlgjFaGP4LhDtzveAQ=="
            }
          },
          {
            "validator_address": "3AC99B708404452366E0953A4BE849226DC86CBC",
            "validator_index": "27",
            "height": "3329",
            "round": "0",
            "timestamp": "2018-07-30T10:35:14.358507425Z",
            "type": 2,
            "block_id": {
              "hash": "1D7E52F96DAFDCC833E0BCA676F16B19A6672F88",
              "parts": {
                "total": "1",
                "hash": "14B9D45CC197BECE0CAA3F7ADC2386356748D172"
              }
            },
            "signature": {
              "type": "tendermint/SignatureEd25519",
              "value": "WChpqN1MbxXMUBaA4p6iVxs71EWQZZVwGMm91c6aXQZwXsuJjF/7K+Kg2u2lTiKkrdfD367tisB4fF+OEblBBw=="
            }
          },
          {
            "validator_address": "3DCB822A10ED319EC7C4393D8E3FD4A41B15AAF2",
            "validator_index": "28",
            "height": "3329",
            "round": "0",
            "timestamp": "2018-07-30T10:35:14.235250138Z",
            "type": 2,
            "block_id": {
              "hash": "1D7E52F96DAFDCC833E0BCA676F16B19A6672F88",
              "parts": {
                "total": "1",
                "hash": "14B9D45CC197BECE0CAA3F7ADC2386356748D172"
              }
            },
            "signature": {
              "type": "tendermint/SignatureEd25519",
              "value": "7C8SlRPIXyjQdJCCOPa3laEY/vp4RT9rZv/8gqGYsCStxljS5csci0UWf06lSwNYqXoU0mK9liaPLO84qBhjAQ=="
            }
          },
          {
            "validator_address": "3E899BA36A93C7370347BD5FE85909F2ECD93F8C",
            "validator_index": "29",
            "height": "3329",
            "round": "0",
            "timestamp": "2018-07-30T10:35:14.38058479Z",
            "type": 2,
            "block_id": {
              "hash": "1D7E52F96DAFDCC833E0BCA676F16B19A6672F88",
              "parts": {
                "total": "1",
                "hash": "14B9D45CC197BECE0CAA3F7ADC2386356748D172"
              }
            },
            "signature": {
              "type": "tendermint/SignatureEd25519",
              "value": "I/08lQbwlJJteCpmgPcGntfCl67U1vtJWi7hP7vabTQaJnbLZ7PHONEuiCBsUrzkVYW5lZ0M/xYu2ZRPTg+NCw=="
            }
          },
          {
            "validator_address": "41CAB2E29E7D0F2282E3275938F188FF9386B84C",
            "validator_index": "30",
            "height": "3329",
            "round": "0",
            "timestamp": "2018-07-30T10:35:14.301310457Z",
            "type": 2,
            "block_id": {
              "hash": "1D7E52F96DAFDCC833E0BCA676F16B19A6672F88",
              "parts": {
                "total": "1",
                "hash": "14B9D45CC197BECE0CAA3F7ADC2386356748D172"
              }
            },
            "signature": {
              "type": "tendermint/SignatureEd25519",
              "value": "QPj21SEjvqj7AXpT0XiOYhJ+X9XANS4Gq0w9pZHSuHalCT3Jo30E103uVVxaG/33/Zw2eCdy6FRzfyzqFY7RDg=="
            }
          },
          {
            "validator_address": "462B656869DB02A8FD1077E255F8CC7401DC37C6",
            "validator_index": "31",
            "height": "3329",
            "round": "0",
            "timestamp": "2018-07-30T10:35:14.299541079Z",
            "type": 2,
            "block_id": {
              "hash": "1D7E52F96DAFDCC833E0BCA676F16B19A6672F88",
              "parts": {
                "total": "1",
                "hash": "14B9D45CC197BECE0CAA3F7ADC2386356748D172"
              }
            },
            "signature": {
              "type": "tendermint/SignatureEd25519",
              "value": "jbmvSpukzjpMXDEGHmDy9Cbx5tYelRX4PvQwvnt4cVr0MqcOBrRg50fPwgndQj+jiookHTUCCvPWBoaA1FeRDg=="
            }
          },
          {
            "validator_address": "48E5118163E5442068A1B5A42D2EEDBB75724935",
            "validator_index": "32",
            "height": "3329",
            "round": "0",
            "timestamp": "2018-07-30T10:35:14.449048849Z",
            "type": 2,
            "block_id": {
              "hash": "1D7E52F96DAFDCC833E0BCA676F16B19A6672F88",
              "parts": {
                "total": "1",
                "hash": "14B9D45CC197BECE0CAA3F7ADC2386356748D172"
              }
            },
            "signature": {
              "type": "tendermint/SignatureEd25519",
              "value": "3loKuCRM6EaGJjNtaH9kY50YwUmjfa2d/K63pENWXYhYwd+CiI6w81jhSCiipuzy8hvabSWv2um7jja86rdIAA=="
            }
          },
          null,
          {
            "validator_address": "4944F8BBBB5303E17BC0607DF332320EDBC750EA",
            "validator_index": "34",
            "height": "3329",
            "round": "0",
            "timestamp": "2018-07-30T10:35:14.221664617Z",
            "type": 2,
            "block_id": {
              "hash": "1D7E52F96DAFDCC833E0BCA676F16B19A6672F88",
              "parts": {
                "total": "1",
                "hash": "14B9D45CC197BECE0CAA3F7ADC2386356748D172"
              }
            },
            "signature": {
              "type": "tendermint/SignatureEd25519",
              "value": "6p78uxVXDdsIlsUpgT4sqWqLC1lVoEt9m+0qh9rry9WMzUkr8OO5Aq1WCAx9lt9TjvdWVjHq8KcejELGXs0RBw=="
            }
          },
          {
            "validator_address": "49841599DE675157CBE1E7D6B35BF8FFC23BD5CB",
            "validator_index": "35",
            "height": "3329",
            "round": "0",
            "timestamp": "2018-07-30T10:35:14.23890265Z",
            "type": 2,
            "block_id": {
              "hash": "1D7E52F96DAFDCC833E0BCA676F16B19A6672F88",
              "parts": {
                "total": "1",
                "hash": "14B9D45CC197BECE0CAA3F7ADC2386356748D172"
              }
            },
            "signature": {
              "type": "tendermint/SignatureEd25519",
              "value": "yc9HXIVdMXW3mAOyJJrGfX2UOn8wiCYmwV7aIK07rkHS3Qie4AqK5L8BNlGS65RZuSlAWZvi1FlJqZowYQ0pDA=="
            }
          },
          {
            "validator_address": "5104F488EA6B1E2C33CBDA3C18389C88104DBC72",
            "validator_index": "36",
            "height": "3329",
            "round": "0",
            "timestamp": "2018-07-30T10:35:14.24927164Z",
            "type": 2,
            "block_id": {
              "hash": "1D7E52F96DAFDCC833E0BCA676F16B19A6672F88",
              "parts": {
                "total": "1",
                "hash": "14B9D45CC197BECE0CAA3F7ADC2386356748D172"
              }
            },
            "signature": {
              "type": "tendermint/SignatureEd25519",
              "value": "PZ3W/u4HWvKly5XQoXA/8XG474qvUCq1JyXE8ozkD4a8y3oWk3nGKcs9pWjL/DufI4HQwrtOYYfAShiltks6Bg=="
            }
          },
          {
            "validator_address": "51386C2CF9556821D114D7E4945806802BADB28D",
            "validator_index": "37",
            "height": "3329",
            "round": "0",
            "timestamp": "2018-07-30T10:35:14.315945418Z",
            "type": 2,
            "block_id": {
              "hash": "1D7E52F96DAFDCC833E0BCA676F16B19A6672F88",
              "parts": {
                "total": "1",
                "hash": "14B9D45CC197BECE0CAA3F7ADC2386356748D172"
              }
            },
            "signature": {
              "type": "tendermint/SignatureEd25519",
              "value": "zM5MaFnEppOevnQCHQ82iu/eP2WSG41WeAwjRbw9JQMr+OiUkq5ULv0ZeArgMASYYvtTGczw0L/lcM/d8bXGBw=="
            }
          },
          {
            "validator_address": "543564ECA3AFEFADC73EE8591AAC3A96F079BC8A",
            "validator_index": "38",
            "height": "3329",
            "round": "0",
            "timestamp": "2018-07-30T10:35:14.202798303Z",
            "type": 2,
            "block_id": {
              "hash": "1D7E52F96DAFDCC833E0BCA676F16B19A6672F88",
              "parts": {
                "total": "1",
                "hash": "14B9D45CC197BECE0CAA3F7ADC2386356748D172"
              }
            },
            "signature": {
              "type": "tendermint/SignatureEd25519",
              "value": "eDziRnSVmJsPevrQAimUPHpEyQDbjWYpHqE6W0Q4KoXjd++qOenKnGcbHVBqzqiLLifhRde/GozkC89X9Y1vCQ=="
            }
          },
          {
            "validator_address": "55D67B1A6DC13E96F8754A5A42EABC20F7F86664",
            "validator_index": "39",
            "height": "3329",
            "round": "0",
            "timestamp": "2018-07-30T10:35:14.234108314Z",
            "type": 2,
            "block_id": {
              "hash": "1D7E52F96DAFDCC833E0BCA676F16B19A6672F88",
              "parts": {
                "total": "1",
                "hash": "14B9D45CC197BECE0CAA3F7ADC2386356748D172"
              }
            },
            "signature": {
              "type": "tendermint/SignatureEd25519",
              "value": "WWmZKJqyl5F66ffIBmgQMrvrl1DhymXMLyT4W4SEVch/bhoEElO/FgOcCn93s2EjOdj66sKeWl3lFAYGo1xiAA=="
            }
          },
          {
            "validator_address": "570B6A755ED339EAC56BB3390A48069F6AC9449B",
            "validator_index": "40",
            "height": "3329",
            "round": "0",
            "timestamp": "2018-07-30T10:35:14.181424739Z",
            "type": 2,
            "block_id": {
              "hash": "1D7E52F96DAFDCC833E0BCA676F16B19A6672F88",
              "parts": {
                "total": "1",
                "hash": "14B9D45CC197BECE0CAA3F7ADC2386356748D172"
              }
            },
            "signature": {
              "type": "tendermint/SignatureEd25519",
              "value": "XO35DfmrksmJKzRvDMvR4zgyG7IQikht4pfgMQuzk2nVjoLV77X9OEF+MZRLEv2SdDN1FAUq1iI82yj2PDhzDA=="
            }
          },
          {
            "validator_address": "5BDF8EA41B1835FBAD865B181A2A4B23F511B5E4",
            "validator_index": "41",
            "height": "3329",
            "round": "0",
            "timestamp": "2018-07-30T10:35:14.259793252Z",
            "type": 2,
            "block_id": {
              "hash": "1D7E52F96DAFDCC833E0BCA676F16B19A6672F88",
              "parts": {
                "total": "1",
                "hash": "14B9D45CC197BECE0CAA3F7ADC2386356748D172"
              }
            },
            "signature": {
              "type": "tendermint/SignatureEd25519",
              "value": "7CzmYNpKgJAHs8H4hgL+WSg92Zzkt1AP8TceBjcBx/70x0QPT3rAXCjasvWbxb62qKI39IKdX44XpkX8nyCICw=="
            }
          },
          null,
          null,
          {
            "validator_address": "60229E2E273297FE00219E46DFFB8F76844CDEF9",
            "validator_index": "44",
            "height": "3329",
            "round": "0",
            "timestamp": "2018-07-30T10:35:13.833429447Z",
            "type": 2,
            "block_id": {
              "hash": "1D7E52F96DAFDCC833E0BCA676F16B19A6672F88",
              "parts": {
                "total": "1",
                "hash": "14B9D45CC197BECE0CAA3F7ADC2386356748D172"
              }
            },
            "signature": {
              "type": "tendermint/SignatureEd25519",
              "value": "mmxYAt/2e7H9QMibgPi23VXbRPXNVifFTGySHuVe6Rm5f9xVOHor0nfXdLiEqq6bmaWHagGVWLTRXQ76MXu8CQ=="
            }
          },
          {
            "validator_address": "62410D6D1CD98278136E4D0738AA0EA273CDFC54",
            "validator_index": "45",
            "height": "3329",
            "round": "0",
            "timestamp": "2018-07-30T10:35:14.267403454Z",
            "type": 2,
            "block_id": {
              "hash": "1D7E52F96DAFDCC833E0BCA676F16B19A6672F88",
              "parts": {
                "total": "1",
                "hash": "14B9D45CC197BECE0CAA3F7ADC2386356748D172"
              }
            },
            "signature": {
              "type": "tendermint/SignatureEd25519",
              "value": "cBEh3OvZ8kU4mBagE422G8cEj080watrGc/DeA2j3MNqd7qHCUyXqd8mhPMpfWhq7SvReMXIr4bJ/ToUGUxYDQ=="
            }
          },
          {
            "validator_address": "632F5C139A5A9DFBFE5111DEE29FCFB6157207DC",
            "validator_index": "46",
            "height": "3329",
            "round": "0",
            "timestamp": "2018-07-30T10:35:14.199217222Z",
            "type": 2,
            "block_id": {
              "hash": "1D7E52F96DAFDCC833E0BCA676F16B19A6672F88",
              "parts": {
                "total": "1",
                "hash": "14B9D45CC197BECE0CAA3F7ADC2386356748D172"
              }
            },
            "signature": {
              "type": "tendermint/SignatureEd25519",
              "value": "dvYyoqQydpxEG3hRuPs1FAdZGbx1AyknpK7Sr7YTvE3pfaYqIlK5ihGj3CSZTVh/IPlFjvPhVeKyAGDvTgGaCA=="
            }
          },
          {
            "validator_address": "64F57F8E796A9B7B590C1EFA4123988C86631D39",
            "validator_index": "47",
            "height": "3329",
            "round": "0",
            "timestamp": "2018-07-30T10:35:14.212478284Z",
            "type": 2,
            "block_id": {
              "hash": "1D7E52F96DAFDCC833E0BCA676F16B19A6672F88",
              "parts": {
                "total": "1",
                "hash": "14B9D45CC197BECE0CAA3F7ADC2386356748D172"
              }
            },
            "signature": {
              "type": "tendermint/SignatureEd25519",
              "value": "ak+UB9Xd6jni/ic3eDSMiHXWl0ht5WJK/f0C5TJtlxeVUOcL5Dhzzats1oJjOYaD1uHejOjLncSCJ5bloL29BQ=="
            }
          },
          {
            "validator_address": "69D99B2C66043ACBEAA8447525C356AFC6408E0C",
            "validator_index": "48",
            "height": "3329",
            "round": "0",
            "timestamp": "2018-07-30T10:35:14.374662431Z",
            "type": 2,
            "block_id": {
              "hash": "1D7E52F96DAFDCC833E0BCA676F16B19A6672F88",
              "parts": {
                "total": "1",
                "hash": "14B9D45CC197BECE0CAA3F7ADC2386356748D172"
              }
            },
            "signature": {
              "type": "tendermint/SignatureEd25519",
              "value": "GtvjYAmmoUMsBvVGuPbIBsmo4GwhBDcXuWOHrA++KmwPn6M4/I/I70XSlGemm8qIYHpmwJzk/jyA0+1Fgs3ADA=="
            }
          },
          {
            "validator_address": "6D3AD380E398D8592B03AA124BAFED5F125DF863",
            "validator_index": "49",
            "height": "3329",
            "round": "0",
            "timestamp": "2018-07-30T10:34:12.855700397Z",
            "type": 2,
            "block_id": {
              "hash": "1D7E52F96DAFDCC833E0BCA676F16B19A6672F88",
              "parts": {
                "total": "1",
                "hash": "14B9D45CC197BECE0CAA3F7ADC2386356748D172"
              }
            },
            "signature": {
              "type": "tendermint/SignatureEd25519",
              "value": "yE7VXsBjMmEuabipSD60B6im8I5aOpgjJ8Fi8LPimckFUQRm5HnSXrrZp77a7Rc8MAvJZX/3YDdaoXZ+w24cAQ=="
            }
          },
          {
            "validator_address": "6F6C93B8BF3495063FEC9B5C771158607F4AE9D6",
            "validator_index": "50",
            "height": "3329",
            "round": "0",
            "timestamp": "2018-07-30T10:35:14.37878466Z",
            "type": 2,
            "block_id": {
              "hash": "1D7E52F96DAFDCC833E0BCA676F16B19A6672F88",
              "parts": {
                "total": "1",
                "hash": "14B9D45CC197BECE0CAA3F7ADC2386356748D172"
              }
            },
            "signature": {
              "type": "tendermint/SignatureEd25519",
              "value": "DogKJvSF+ZmMjtczYiDZxqKtZNs0BpkZA2GEcDS36jm44IyY51mH6QfEtzqlSrndCZk2aCzb/XaYgApTjKWPBg=="
            }
          },
          {
            "validator_address": "732CEEF54C374DDC6ADECBFD707AEFD07FEDC143",
            "validator_index": "51",
            "height": "3329",
            "round": "0",
            "timestamp": "2018-07-30T10:35:14.325692886Z",
            "type": 2,
            "block_id": {
              "hash": "1D7E52F96DAFDCC833E0BCA676F16B19A6672F88",
              "parts": {
                "total": "1",
                "hash": "14B9D45CC197BECE0CAA3F7ADC2386356748D172"
              }
            },
            "signature": {
              "type": "tendermint/SignatureEd25519",
              "value": "blg04TJ+f/03uHjizRsJFnKEjZVLRQZK3cO86pWGLgg3xdyxbs/whp5fGMh/ZER5MtqNMTCnwaaetpoNMy5iCg=="
            }
          },
          {
            "validator_address": "7393D691BFAE9661918C09932D4D9060AB40939B",
            "validator_index": "52",
            "height": "3329",
            "round": "0",
            "timestamp": "2018-07-30T10:35:14.309560662Z",
            "type": 2,
            "block_id": {
              "hash": "1D7E52F96DAFDCC833E0BCA676F16B19A6672F88",
              "parts": {
                "total": "1",
                "hash": "14B9D45CC197BECE0CAA3F7ADC2386356748D172"
              }
            },
            "signature": {
              "type": "tendermint/SignatureEd25519",
              "value": "ksMsEu4Lf0cbRwVkxFnBSR2rYtVwurCg8YwUiy4Bt7BfhW1k7dlTKv2UyetTxvmaivNYOQD1ufziIX6iA0ulAg=="
            }
          },
          {
            "validator_address": "751E43437224E8BB6D1569B3E2B2616B6E7F4397",
            "validator_index": "53",
            "height": "3329",
            "round": "0",
            "timestamp": "2018-07-30T10:35:14.269334464Z",
            "type": 2,
            "block_id": {
              "hash": "1D7E52F96DAFDCC833E0BCA676F16B19A6672F88",
              "parts": {
                "total": "1",
                "hash": "14B9D45CC197BECE0CAA3F7ADC2386356748D172"
              }
            },
            "signature": {
              "type": "tendermint/SignatureEd25519",
              "value": "nbsgaZCmgpJqCAUjzIeRqR65K7V+kttVbKI5ZnId2/NbwSMk7VZSKWLJ4kmlM3ODngO3HmR1nq8q5fZuVoOWBA=="
            }
          },
          {
            "validator_address": "7EB7593F519F1180C7E872D0494611464EDF03AE",
            "validator_index": "54",
            "height": "3329",
            "round": "0",
            "timestamp": "2018-07-30T10:35:14.391415404Z",
            "type": 2,
            "block_id": {
              "hash": "1D7E52F96DAFDCC833E0BCA676F16B19A6672F88",
              "parts": {
                "total": "1",
                "hash": "14B9D45CC197BECE0CAA3F7ADC2386356748D172"
              }
            },
            "signature": {
              "type": "tendermint/SignatureEd25519",
              "value": "Xh5Daga2XdAjIql6WVF4APUtMDuFZbY3iUrZOzVxK+1oxFC7GVApgjvwYa32HYeJYBmsfBqToefVGhgYGt2CDQ=="
            }
          },
          {
            "validator_address": "807CF675BA8479FC4FEC1047215DF07970040F1F",
            "validator_index": "55",
            "height": "3329",
            "round": "0",
            "timestamp": "2018-07-30T10:35:14.568607849Z",
            "type": 2,
            "block_id": {
              "hash": "1D7E52F96DAFDCC833E0BCA676F16B19A6672F88",
              "parts": {
                "total": "1",
                "hash": "14B9D45CC197BECE0CAA3F7ADC2386356748D172"
              }
            },
            "signature": {
              "type": "tendermint/SignatureEd25519",
              "value": "GIDrpew+m4T1IHGvct3lpLkD3m59kT/vHUvm5gMzmgVaRSM5afJGH9xGOudspJ0tAAGfBo1MRRfeyw6L16PCCA=="
            }
          },
          {
            "validator_address": "8126192EA66E8ADE6B36924534721366B987A4C1",
            "validator_index": "56",
            "height": "3329",
            "round": "0",
            "timestamp": "2018-07-30T10:35:14.301401815Z",
            "type": 2,
            "block_id": {
              "hash": "1D7E52F96DAFDCC833E0BCA676F16B19A6672F88",
              "parts": {
                "total": "1",
                "hash": "14B9D45CC197BECE0CAA3F7ADC2386356748D172"
              }
            },
            "signature": {
              "type": "tendermint/SignatureEd25519",
              "value": "hqdsqAFtC7kYueMOa9gJ9SIjgtcVJLxSl+YIvbI/JS7+gl9MbtH8bY1EpYPD/uuXuTzUrhOTMfJiLmGAQoZsDQ=="
            }
          },
          null,
          {
            "validator_address": "83AB321E012C57746689FED3A6064DF331F81007",
            "validator_index": "58",
            "height": "3329",
            "round": "0",
            "timestamp": "2018-07-30T10:35:14.314963565Z",
            "type": 2,
            "block_id": {
              "hash": "1D7E52F96DAFDCC833E0BCA676F16B19A6672F88",
              "parts": {
                "total": "1",
                "hash": "14B9D45CC197BECE0CAA3F7ADC2386356748D172"
              }
            },
            "signature": {
              "type": "tendermint/SignatureEd25519",
              "value": "2/jkROp3nkr6bwmL1MnOBeTd3T1qJq9mkaVQ1+GgmxwZyyVUoitYXbi4876prUAceJI7LkGzG7jiu1C4YlJUAg=="
            }
          },
          {
            "validator_address": "83BB1B88D3DBB20AD845FECA07749EBD87D3754D",
            "validator_index": "59",
            "height": "3329",
            "round": "0",
            "timestamp": "2018-07-30T10:35:14.499324723Z",
            "type": 2,
            "block_id": {
              "hash": "1D7E52F96DAFDCC833E0BCA676F16B19A6672F88",
              "parts": {
                "total": "1",
                "hash": "14B9D45CC197BECE0CAA3F7ADC2386356748D172"
              }
            },
            "signature": {
              "type": "tendermint/SignatureEd25519",
              "value": "4zfYkgoxlFUvrILCsbT95+kG/sSkChW6bINk/ZQEV494WcDR9o5d6MgbsUJP9P4rSdPnlK0rsqidZydXL25qCw=="
            }
          },
          null,
          null,
          {
            "validator_address": "8F45617BF45B10A3F8283DEBDB35E38C7CA43237",
            "validator_index": "62",
            "height": "3329",
            "round": "0",
            "timestamp": "2018-07-30T10:35:14.304562503Z",
            "type": 2,
            "block_id": {
              "hash": "1D7E52F96DAFDCC833E0BCA676F16B19A6672F88",
              "parts": {
                "total": "1",
                "hash": "14B9D45CC197BECE0CAA3F7ADC2386356748D172"
              }
            },
            "signature": {
              "type": "tendermint/SignatureEd25519",
              "value": "5G1s3jCwuFBXaHABJmBWU5Wk1sMczlIIbXvBNheuLeIgHbfG/de1pZAmjPnFE+9BqVWE81VMGdNmpqbADE8KAg=="
            }
          },
          null,
          {
            "validator_address": "95980831E186F2540F6E9FB6C8E74DE2401405AC",
            "validator_index": "64",
            "height": "3329",
            "round": "0",
            "timestamp": "2018-07-30T10:35:14.34633142Z",
            "type": 2,
            "block_id": {
              "hash": "1D7E52F96DAFDCC833E0BCA676F16B19A6672F88",
              "parts": {
                "total": "1",
                "hash": "14B9D45CC197BECE0CAA3F7ADC2386356748D172"
              }
            },
            "signature": {
              "type": "tendermint/SignatureEd25519",
              "value": "JF1hcS841iyGxozbsib/y1FxOdfo03HDZLptKuK8JduCLTywnNazT5rG2eYYJVTbjsplcBz2lJw9oSxccpWGCw=="
            }
          },
          {
            "validator_address": "95FAFBC1E0579C83D290A063020CE87C5334BD9B",
            "validator_index": "65",
            "height": "3329",
            "round": "0",
            "timestamp": "2018-07-30T10:35:14.326749739Z",
            "type": 2,
            "block_id": {
              "hash": "1D7E52F96DAFDCC833E0BCA676F16B19A6672F88",
              "parts": {
                "total": "1",
                "hash": "14B9D45CC197BECE0CAA3F7ADC2386356748D172"
              }
            },
            "signature": {
              "type": "tendermint/SignatureEd25519",
              "value": "viBUTboDOo6KM2AuLigp9SS1UMokpjRu8CZdTrimJajNoJu29YItsCa+KjigWKWuWRwz/oqXYRDMR4ixlboUDw=="
            }
          },
          {
            "validator_address": "96BDE45EC52606CF5CB59853097871AD60680549",
            "validator_index": "66",
            "height": "3329",
            "round": "0",
            "timestamp": "2018-07-30T10:35:14.333358499Z",
            "type": 2,
            "block_id": {
              "hash": "1D7E52F96DAFDCC833E0BCA676F16B19A6672F88",
              "parts": {
                "total": "1",
                "hash": "14B9D45CC197BECE0CAA3F7ADC2386356748D172"
              }
            },
            "signature": {
              "type": "tendermint/SignatureEd25519",
              "value": "YsZ2HRImH9UZ/OvPvKkpkRD2MDD9Ec9jcwyGxaaAOC+VJBxfm6hDWJ7ul4k73MqL3mpy94X2kWm9bMvK17k6Aw=="
            }
          },
          {
            "validator_address": "970CD321881185BF83DB2923C321B0E75FDBB2B8",
            "validator_index": "67",
            "height": "3329",
            "round": "0",
            "timestamp": "2018-07-30T10:35:14.393223852Z",
            "type": 2,
            "block_id": {
              "hash": "1D7E52F96DAFDCC833E0BCA676F16B19A6672F88",
              "parts": {
                "total": "1",
                "hash": "14B9D45CC197BECE0CAA3F7ADC2386356748D172"
              }
            },
            "signature": {
              "type": "tendermint/SignatureEd25519",
              "value": "yWwoDfXNOWBwv3iSSEVzo+sl6+RgT060HBrocSIow66lYH9b56TRZxLN0Kgg8YKuH0Mq2wS58psNfllsRzYOAw=="
            }
          },
          null,
          {
            "validator_address": "9C29C9B76D27586E4D9AD2AED0E943162645E55C",
            "validator_index": "69",
            "height": "3329",
            "round": "0",
            "timestamp": "2018-07-30T10:35:14.221663697Z",
            "type": 2,
            "block_id": {
              "hash": "1D7E52F96DAFDCC833E0BCA676F16B19A6672F88",
              "parts": {
                "total": "1",
                "hash": "14B9D45CC197BECE0CAA3F7ADC2386356748D172"
              }
            },
            "signature": {
              "type": "tendermint/SignatureEd25519",
              "value": "5gNonwAg6bzaDl3I4rJAmdbEPOlrUqPABim1f8jfWjSwQDEGCPamwWgaIQuUC/lOcc99Oa04C3dNvQ/XeIYpAA=="
            }
          },
          {
            "validator_address": "9D93AD02FE1BD7E76B9E58D7EB461088EAD011E5",
            "validator_index": "70",
            "height": "3329",
            "round": "0",
            "timestamp": "2018-07-30T10:35:14.251019061Z",
            "type": 2,
            "block_id": {
              "hash": "1D7E52F96DAFDCC833E0BCA676F16B19A6672F88",
              "parts": {
                "total": "1",
                "hash": "14B9D45CC197BECE0CAA3F7ADC2386356748D172"
              }
            },
            "signature": {
              "type": "tendermint/SignatureEd25519",
              "value": "nejp3urAI0HT2riHKhzC7/Xkd7TbQfNEx8cuivZ2SdJNEPKSXjB2z9FEsvj6eX/DtyjKOZeiEyI1uPo5ZKFqDw=="
            }
          },
          null,
          {
            "validator_address": "A0A6466F4ABEA09C3B55E3709AFDE217A103209F",
            "validator_index": "72",
            "height": "3329",
            "round": "0",
            "timestamp": "2018-07-30T10:35:14.235086489Z",
            "type": 2,
            "block_id": {
              "hash": "1D7E52F96DAFDCC833E0BCA676F16B19A6672F88",
              "parts": {
                "total": "1",
                "hash": "14B9D45CC197BECE0CAA3F7ADC2386356748D172"
              }
            },
            "signature": {
              "type": "tendermint/SignatureEd25519",
              "value": "q1G8HqHahFNLzav5B9d3ztu4ex8Z47/CwyX8uEJMYro0hakZzC+l95Pbwm/o4Zp3i4KuUSBF3dcENtUbXqVcDg=="
            }
          },
          {
            "validator_address": "A5868971300F155020634D7BB49C7634F7AACCD3",
            "validator_index": "73",
            "height": "3329",
            "round": "0",
            "timestamp": "2018-07-30T10:35:14.250626877Z",
            "type": 2,
            "block_id": {
              "hash": "1D7E52F96DAFDCC833E0BCA676F16B19A6672F88",
              "parts": {
                "total": "1",
                "hash": "14B9D45CC197BECE0CAA3F7ADC2386356748D172"
              }
            },
            "signature": {
              "type": "tendermint/SignatureEd25519",
              "value": "KrILIDfPk6wEGbs7r/Rg/1I6geTEYmGYuJUts9GQpHSDrvcvb0XgnNdJ4M6JHM74/E04b7Q1owOVfos5jGePBA=="
            }
          },
          {
            "validator_address": "A6B3A5B5D982CFD7B5FDFA15CF5A720E7AE25E7F",
            "validator_index": "74",
            "height": "3329",
            "round": "0",
            "timestamp": "2018-07-30T10:35:14.250481891Z",
            "type": 2,
            "block_id": {
              "hash": "1D7E52F96DAFDCC833E0BCA676F16B19A6672F88",
              "parts": {
                "total": "1",
                "hash": "14B9D45CC197BECE0CAA3F7ADC2386356748D172"
              }
            },
            "signature": {
              "type": "tendermint/SignatureEd25519",
              "value": "5vhwOUmHZmUfNO+2g1X3wPA2DN2coy6acOBdty4e9n+FtmOspnVZWS7BbZbPb/3TH87JXFPsPYPiJdiSZL02Aw=="
            }
          },
          {
            "validator_address": "AC96444A9083890B7C7B430DB17BF1D3EA5EED04",
            "validator_index": "75",
            "height": "3329",
            "round": "0",
            "timestamp": "2018-07-30T10:35:14.355441322Z",
            "type": 2,
            "block_id": {
              "hash": "1D7E52F96DAFDCC833E0BCA676F16B19A6672F88",
              "parts": {
                "total": "1",
                "hash": "14B9D45CC197BECE0CAA3F7ADC2386356748D172"
              }
            },
            "signature": {
              "type": "tendermint/SignatureEd25519",
              "value": "BQYhfqUzjPBMr/q3e2z+j1tFmxl8a10fhH5CMq9iGAWU1iWkOcRPLmLnKbRNf8JlOIpxsO2iNPHGxFZ2YZjOBw=="
            }
          },
          {
            "validator_address": "ACB97FDA2D940AF0709B73537C458EB988AD2893",
            "validator_index": "76",
            "height": "3329",
            "round": "0",
            "timestamp": "2018-07-30T10:35:14.209394948Z",
            "type": 2,
            "block_id": {
              "hash": "1D7E52F96DAFDCC833E0BCA676F16B19A6672F88",
              "parts": {
                "total": "1",
                "hash": "14B9D45CC197BECE0CAA3F7ADC2386356748D172"
              }
            },
            "signature": {
              "type": "tendermint/SignatureEd25519",
              "value": "RNgyRHa/HEkzLcm7RjmOj/kq6cF8q26x5zgMqZCWBJnsBWK4/4PflDdSEaTqgsaytyoN76yAXRWMhoBFogLNCA=="
            }
          },
          {
            "validator_address": "B197425B3210375F211661DE02EF2AE36580EB0F",
            "validator_index": "77",
            "height": "3329",
            "round": "0",
            "timestamp": "2018-07-30T10:35:14.266066511Z",
            "type": 2,
            "block_id": {
              "hash": "1D7E52F96DAFDCC833E0BCA676F16B19A6672F88",
              "parts": {
                "total": "1",
                "hash": "14B9D45CC197BECE0CAA3F7ADC2386356748D172"
              }
            },
            "signature": {
              "type": "tendermint/SignatureEd25519",
              "value": "4HjJ3r5K+ROM8ZEn07VnkiNKv0hT/nSALC3MXd8Qp4RtJnuL+u+WbqrdFnEypV9NT0Kh10BeqfUQRbxlaRnYCA=="
            }
          },
          {
            "validator_address": "B45E54D2D1CB5A4CCD1D49016608C18E7C56B270",
            "validator_index": "78",
            "height": "3329",
            "round": "0",
            "timestamp": "2018-07-30T10:35:14.402291226Z",
            "type": 2,
            "block_id": {
              "hash": "1D7E52F96DAFDCC833E0BCA676F16B19A6672F88",
              "parts": {
                "total": "1",
                "hash": "14B9D45CC197BECE0CAA3F7ADC2386356748D172"
              }
            },
            "signature": {
              "type": "tendermint/SignatureEd25519",
              "value": "lH1+VVtnCaFkdao9xrkkqtN20lVUdM5//uXLAN817N4P0d4hLyigG8htxiJH66C34pOKpSQf/mF6y1ZTh38QBQ=="
            }
          },
          {
            "validator_address": "B59A34C0BE4EC73AF6A67D274F1695C9259C237C",
            "validator_index": "79",
            "height": "3329",
            "round": "0",
            "timestamp": "2018-07-30T10:35:14.311553735Z",
            "type": 2,
            "block_id": {
              "hash": "1D7E52F96DAFDCC833E0BCA676F16B19A6672F88",
              "parts": {
                "total": "1",
                "hash": "14B9D45CC197BECE0CAA3F7ADC2386356748D172"
              }
            },
            "signature": {
              "type": "tendermint/SignatureEd25519",
              "value": "7iqA5YNFauSkngWT9vsNn1xZw2g+qCWjBqAIp6msFq/6A5+i44g97Rg+dhLrPSNaaolj0qhdAViudyYo6ww+Bg=="
            }
          },
          {
            "validator_address": "BC36FEDD6EF6071118A3E51859DF3831A2EC4782",
            "validator_index": "80",
            "height": "3329",
            "round": "0",
            "timestamp": "2018-07-30T10:35:14.32548377Z",
            "type": 2,
            "block_id": {
              "hash": "1D7E52F96DAFDCC833E0BCA676F16B19A6672F88",
              "parts": {
                "total": "1",
                "hash": "14B9D45CC197BECE0CAA3F7ADC2386356748D172"
              }
            },
            "signature": {
              "type": "tendermint/SignatureEd25519",
              "value": "OR6koL+thZes1E0/w8Mc5rLEjEfGIUJt+B6y6tt3JCkIa2fGY/AnypJG3TK/HYTF0k6LTUWW8e5MpU2oisZ4BQ=="
            }
          },
          {
            "validator_address": "BD9D0DA513BF099DB4BB6E725A4E19832789882F",
            "validator_index": "81",
            "height": "3329",
            "round": "0",
            "timestamp": "2018-07-30T10:35:14.31924523Z",
            "type": 2,
            "block_id": {
              "hash": "1D7E52F96DAFDCC833E0BCA676F16B19A6672F88",
              "parts": {
                "total": "1",
                "hash": "14B9D45CC197BECE0CAA3F7ADC2386356748D172"
              }
            },
            "signature": {
              "type": "tendermint/SignatureEd25519",
              "value": "jeN1NcwKEXMj6RxqJNBXOqh7awD/F4ZuBE1tIbZfktnFFRSaNPbk8bWPGWd2XQbkAc3z7LJOtA7luetFnTLMAQ=="
            }
          },
          null,
          {
            "validator_address": "C39A8A2B85198DCB8F23AD1F6C198E2BA7AB5D60",
            "validator_index": "83",
            "height": "3329",
            "round": "0",
            "timestamp": "2018-07-30T10:35:14.221753133Z",
            "type": 2,
            "block_id": {
              "hash": "1D7E52F96DAFDCC833E0BCA676F16B19A6672F88",
              "parts": {
                "total": "1",
                "hash": "14B9D45CC197BECE0CAA3F7ADC2386356748D172"
              }
            },
            "signature": {
              "type": "tendermint/SignatureEd25519",
              "value": "Wh7dLtIV+YinyP4ZA9CexjVhE3byyY9eIzkiYbKNDx3c0gE+FTE4uWHMA5mOPKxJ1CgibZw5au5DfQBqqn/UAQ=="
            }
          },
          {
            "validator_address": "C4335190C3B5BD4BA5568BC0F99C34162D940D08",
            "validator_index": "84",
            "height": "3329",
            "round": "0",
            "timestamp": "2018-07-30T10:35:14.444856764Z",
            "type": 2,
            "block_id": {
              "hash": "1D7E52F96DAFDCC833E0BCA676F16B19A6672F88",
              "parts": {
                "total": "1",
                "hash": "14B9D45CC197BECE0CAA3F7ADC2386356748D172"
              }
            },
            "signature": {
              "type": "tendermint/SignatureEd25519",
              "value": "auvYSauDd/t2mZ3Q8NEUEdwkr1BjK7FmYj2k5Txt6PajbPYUyUJ0iGpG57cfM6SDIPgeYur3tGmoH7npB7UTBw=="
            }
          },
          null,
          {
            "validator_address": "CEB97DB5CB18270247ABDE6CF2F84F9AEE8A2904",
            "validator_index": "86",
            "height": "3329",
            "round": "0",
            "timestamp": "2018-07-30T10:35:13.924903791Z",
            "type": 2,
            "block_id": {
              "hash": "1D7E52F96DAFDCC833E0BCA676F16B19A6672F88",
              "parts": {
                "total": "1",
                "hash": "14B9D45CC197BECE0CAA3F7ADC2386356748D172"
              }
            },
            "signature": {
              "type": "tendermint/SignatureEd25519",
              "value": "ZPE4ngEwwu0wacHK4MZ0WmL8Q2NFn/FY/Xru74mBgaNjnIt9KVKmIY0clgy1FumpHH5gQV1T0dTxa+PtYs7dBA=="
            }
          },
          {
            "validator_address": "D2134B826A1E25A955905CB79A4D8731CAFA0CCE",
            "validator_index": "87",
            "height": "3329",
            "round": "0",
            "timestamp": "2018-07-30T10:35:14.434019352Z",
            "type": 2,
            "block_id": {
              "hash": "1D7E52F96DAFDCC833E0BCA676F16B19A6672F88",
              "parts": {
                "total": "1",
                "hash": "14B9D45CC197BECE0CAA3F7ADC2386356748D172"
              }
            },
            "signature": {
              "type": "tendermint/SignatureEd25519",
              "value": "8/0VCpi4zCBfnnQwJs8hLS/390XOC6BIaqS8wyX7G8VjK/9/ikbD1CczKH0GPqsUvfCVkDvlbpXQNSLGQJI0Ag=="
            }
          },
          null,
          {
            "validator_address": "D6285C3422C8886445D53757CBE12D2B91B5A9D0",
            "validator_index": "89",
            "height": "3329",
            "round": "0",
            "timestamp": "2018-07-30T10:34:56.435264219Z",
            "type": 2,
            "block_id": {
              "hash": "1D7E52F96DAFDCC833E0BCA676F16B19A6672F88",
              "parts": {
                "total": "1",
                "hash": "14B9D45CC197BECE0CAA3F7ADC2386356748D172"
              }
            },
            "signature": {
              "type": "tendermint/SignatureEd25519",
              "value": "KMBNzCMrjccST6yX5Iee/lqGLqajScrCdLHJlTeAdutLy6uyWMnUTn1Sakj0MzxWGMN1AlaqtcKdHh8wvf1LDQ=="
            }
          },
          null,
          null,
          {
            "validator_address": "DB7E6732471D3EA5C90C17A9974D9F88AB45F2FB",
            "validator_index": "92",
            "height": "3329",
            "round": "0",
            "timestamp": "2018-07-30T10:35:14.28709741Z",
            "type": 2,
            "block_id": {
              "hash": "1D7E52F96DAFDCC833E0BCA676F16B19A6672F88",
              "parts": {
                "total": "1",
                "hash": "14B9D45CC197BECE0CAA3F7ADC2386356748D172"
              }
            },
            "signature": {
              "type": "tendermint/SignatureEd25519",
              "value": "fmY4Rm7FdAipKd+jKMOmDkTzAK9oDvBZmDkqiVSDvu+DJ5fScY21G1JYDjTaRwDzMUHqodNSpwvWZVzgxBVOBg=="
            }
          },
          {
            "validator_address": "DF54B862410BCD9B5C516FBB6C56BDC826ED6FA7",
            "validator_index": "93",
            "height": "3329",
            "round": "0",
            "timestamp": "2018-07-30T10:35:14.398782385Z",
            "type": 2,
            "block_id": {
              "hash": "1D7E52F96DAFDCC833E0BCA676F16B19A6672F88",
              "parts": {
                "total": "1",
                "hash": "14B9D45CC197BECE0CAA3F7ADC2386356748D172"
              }
            },
            "signature": {
              "type": "tendermint/SignatureEd25519",
              "value": "YQwUhV3Rzn6QG7I9Y56oCNb5CKuZx6N6USHVSKUlDUVlesMO1x4LFl8kKPrBsnvZ/9+ie2+0YC3fJ30OlDnTDA=="
            }
          },
          {
            "validator_address": "DFAF0C8B1B78D6D552B0189DE3ACA351439A1319",
            "validator_index": "94",
            "height": "3329",
            "round": "0",
            "timestamp": "2018-07-30T10:35:14.292924104Z",
            "type": 2,
            "block_id": {
              "hash": "1D7E52F96DAFDCC833E0BCA676F16B19A6672F88",
              "parts": {
                "total": "1",
                "hash": "14B9D45CC197BECE0CAA3F7ADC2386356748D172"
              }
            },
            "signature": {
              "type": "tendermint/SignatureEd25519",
              "value": "h2VMMzCNXf1nSbcHwAskXzqGJHFpxFpXQgg/Yhxvcd2F0YwvObKNRKC3+kBuXf5jCH0Cy4udxgERqT5mnaV/Ag=="
            }
          },
          {
            "validator_address": "E1DBC77881161A5A3A8536A57536EAE546A75D69",
            "validator_index": "95",
            "height": "3329",
            "round": "0",
            "timestamp": "2018-07-30T10:35:14.209109307Z",
            "type": 2,
            "block_id": {
              "hash": "1D7E52F96DAFDCC833E0BCA676F16B19A6672F88",
              "parts": {
                "total": "1",
                "hash": "14B9D45CC197BECE0CAA3F7ADC2386356748D172"
              }
            },
            "signature": {
              "type": "tendermint/SignatureEd25519",
              "value": "IZp+Ca4AboxnZ0jTRY9SYjcoFSUbZN4FwkIy5aP/bJekXOivaPHdW+f/9IoEllMJfBx8cfpOPWhiw3oFFYxFDg=="
            }
          },
          {
            "validator_address": "E300E9D484374C1D3E97C1D93CAC3B160A056298",
            "validator_index": "96",
            "height": "3329",
            "round": "0",
            "timestamp": "2018-07-30T10:35:14.457605667Z",
            "type": 2,
            "block_id": {
              "hash": "1D7E52F96DAFDCC833E0BCA676F16B19A6672F88",
              "parts": {
                "total": "1",
                "hash": "14B9D45CC197BECE0CAA3F7ADC2386356748D172"
              }
            },
            "signature": {
              "type": "tendermint/SignatureEd25519",
              "value": "oSYqwn3RRFU3Q2odxEYfdSuba2dbMLr0SWphsFwoR8h9eSpUt4VWKS67NMp7VB776js1RZDJxnqiatgtAdZfDA=="
            }
          },
          {
            "validator_address": "E39B5778E0D4297A46F45CF6940B0A163A430FF8",
            "validator_index": "97",
            "height": "3329",
            "round": "0",
            "timestamp": "2018-07-30T10:35:14.316430015Z",
            "type": 2,
            "block_id": {
              "hash": "1D7E52F96DAFDCC833E0BCA676F16B19A6672F88",
              "parts": {
                "total": "1",
                "hash": "14B9D45CC197BECE0CAA3F7ADC2386356748D172"
              }
            },
            "signature": {
              "type": "tendermint/SignatureEd25519",
              "value": "e4BDnUw2YuXbqS8DZFj6BpxcksJI1USmh7VfC1T0RFTQdSdcBSxo+WFTWQE4jDrzSdZ8nhZpgF+EA7+kaMuGCQ=="
            }
          },
          null,
          {
            "validator_address": "E42F8AEABB685219F7027F54D2B0DBC7846F633A",
            "validator_index": "99",
            "height": "3329",
            "round": "0",
            "timestamp": "2018-07-30T10:35:13.70910101Z",
            "type": 2,
            "block_id": {
              "hash": "1D7E52F96DAFDCC833E0BCA676F16B19A6672F88",
              "parts": {
                "total": "1",
                "hash": "14B9D45CC197BECE0CAA3F7ADC2386356748D172"
              }
            },
            "signature": {
              "type": "tendermint/SignatureEd25519",
              "value": "t/Wo4S6R+Q7d8DVgjgF8HROj+XyDcVnmz9Ewes2yWpc97ntH4wXtNak0rSjJy15uHRz179LEF5ChjTl7ugRTDg=="
            }
          },
          {
            "validator_address": "E4E6C2E81269DFFA196C17F98240E491479A6008",
            "validator_index": "100",
            "height": "3329",
            "round": "0",
            "timestamp": "2018-07-30T10:35:14.350329801Z",
            "type": 2,
            "block_id": {
              "hash": "1D7E52F96DAFDCC833E0BCA676F16B19A6672F88",
              "parts": {
                "total": "1",
                "hash": "14B9D45CC197BECE0CAA3F7ADC2386356748D172"
              }
            },
            "signature": {
              "type": "tendermint/SignatureEd25519",
              "value": "lpvEr7rOCNy2SYclM28OtJtReooAYtU9TjCQ+YiMyUqkrhhNUiasmxP5M4zeZkPRh/iEUnjj2y07+b623HtbDw=="
            }
          },
          null,
          {
            "validator_address": "E6A7079D584B163750BE0831227F6B685DEAF3C1",
            "validator_index": "102",
            "height": "3329",
            "round": "0",
            "timestamp": "2018-07-30T10:35:14.374516323Z",
            "type": 2,
            "block_id": {
              "hash": "1D7E52F96DAFDCC833E0BCA676F16B19A6672F88",
              "parts": {
                "total": "1",
                "hash": "14B9D45CC197BECE0CAA3F7ADC2386356748D172"
              }
            },
            "signature": {
              "type": "tendermint/SignatureEd25519",
              "value": "uPzC0wKj647pVF/mgKJ6BGNCUpnHxlYKyBjalQPZm5JMixnQgObzCRTg7jltoenGYisywyQ3r3HWXYE5272WBQ=="
            }
          },
          {
            "validator_address": "E7A30077D5D11867D3EAF99ED45BFDC1EB834509",
            "validator_index": "103",
            "height": "3329",
            "round": "0",
            "timestamp": "2018-07-30T10:35:14.317295595Z",
            "type": 2,
            "block_id": {
              "hash": "1D7E52F96DAFDCC833E0BCA676F16B19A6672F88",
              "parts": {
                "total": "1",
                "hash": "14B9D45CC197BECE0CAA3F7ADC2386356748D172"
              }
            },
            "signature": {
              "type": "tendermint/SignatureEd25519",
              "value": "2A19SDK52oQS7gFOzxLC19XP8S2PNEP3nElmwFdWRbWN0Mklypch+Y9k21yEYVZsoNUKbhcAmkMhy8AIjwSSDg=="
            }
          },
          {
            "validator_address": "EBC613967F66F4EC306852CDF58B4F151CF16738",
            "validator_index": "104",
            "height": "3329",
            "round": "0",
            "timestamp": "2018-07-30T10:35:14.291583578Z",
            "type": 2,
            "block_id": {
              "hash": "1D7E52F96DAFDCC833E0BCA676F16B19A6672F88",
              "parts": {
                "total": "1",
                "hash": "14B9D45CC197BECE0CAA3F7ADC2386356748D172"
              }
            },
            "signature": {
              "type": "tendermint/SignatureEd25519",
              "value": "xy/l3vkJhUnlEnIbs01BddHu4dBwVPLaFn6a6AkdJ3iL/F0uS51V4xKixB8YhXeZAg7GPfb1vvVY6aD+JC49Dw=="
            }
          },
          null,
          {
            "validator_address": "EC95B111D032181E1EC3B5E8875C5BB8E4AE7140",
            "validator_index": "106",
            "height": "3329",
            "round": "0",
            "timestamp": "2018-07-30T10:35:14.190181673Z",
            "type": 2,
            "block_id": {
              "hash": "1D7E52F96DAFDCC833E0BCA676F16B19A6672F88",
              "parts": {
                "total": "1",
                "hash": "14B9D45CC197BECE0CAA3F7ADC2386356748D172"
              }
            },
            "signature": {
              "type": "tendermint/SignatureEd25519",
              "value": "sWlGn1B6eCD5KP77MV9tq+HYFszXmDQTeNT424YEOhw9e307WcZsHFANUw78YdhASaBz1GzWZzjlkA8iFNzOAw=="
            }
          },
          {
            "validator_address": "F13C1805E8131C9B47E2A46818F57D8A2841E578",
            "validator_index": "107",
            "height": "3329",
            "round": "0",
            "timestamp": "2018-07-30T10:35:14.278502638Z",
            "type": 2,
            "block_id": {
              "hash": "1D7E52F96DAFDCC833E0BCA676F16B19A6672F88",
              "parts": {
                "total": "1",
                "hash": "14B9D45CC197BECE0CAA3F7ADC2386356748D172"
              }
            },
            "signature": {
              "type": "tendermint/SignatureEd25519",
              "value": "Rwruhl5drz5Nd995iBv1/3HMyiMOylmnCDGC3hwK//HdxHog3XEjTiWBijPzov7+VZRVKRlkOeV8heVmWRhUCA=="
            }
          },
          {
            "validator_address": "F23FF36BD5B90C33CE3A03ED72DBDCF5EC07D6AF",
            "validator_index": "108",
            "height": "3329",
            "round": "0",
            "timestamp": "2018-07-30T10:35:14.370645442Z",
            "type": 2,
            "block_id": {
              "hash": "1D7E52F96DAFDCC833E0BCA676F16B19A6672F88",
              "parts": {
                "total": "1",
                "hash": "14B9D45CC197BECE0CAA3F7ADC2386356748D172"
              }
            },
            "signature": {
              "type": "tendermint/SignatureEd25519",
              "value": "YhQsvkoXE0wE9+QoFMp5XzP1vmye0l0os2FPU6JRCAtPltlIRMgU5CrH3z6AzT+qQp6lyWaGzck2muEnn6uJDw=="
            }
          },
          {
            "validator_address": "F4268597DE93E3E2CED38845010F8AA34E2A879E",
            "validator_index": "109",
            "height": "3329",
            "round": "0",
            "timestamp": "2018-07-30T10:35:14.247604787Z",
            "type": 2,
            "block_id": {
              "hash": "1D7E52F96DAFDCC833E0BCA676F16B19A6672F88",
              "parts": {
                "total": "1",
                "hash": "14B9D45CC197BECE0CAA3F7ADC2386356748D172"
              }
            },
            "signature": {
              "type": "tendermint/SignatureEd25519",
              "value": "WxnbRTRdD/WATSce2IfIubP1O2LRZjk6fqaMmh+r3r4/xl0R5zA7Ni3TvAthB5XAEgL8Aq8MNg1S6aHJGPhwAA=="
            }
          },
          null,
          null,
          null,
          null,
          {
            "validator_address": "FF3F3FCBCE7E62D7AD5506FF846EC4518D980515",
            "validator_index": "114",
            "height": "3329",
            "round": "0",
            "timestamp": "2018-07-30T10:35:14.225268537Z",
            "type": 2,
            "block_id": {
              "hash": "1D7E52F96DAFDCC833E0BCA676F16B19A6672F88",
              "parts": {
                "total": "1",
                "hash": "14B9D45CC197BECE0CAA3F7ADC2386356748D172"
              }
            },
            "signature": {
              "type": "tendermint/SignatureEd25519",
              "value": "r3acYMTdETfMeBI38IgRNB9FewaOYClBXSyuzj2zqlR91GuCPG9mL4Fi1cB9jBprJlP6eZqV0JLYWcQwRA1VDA=="
            }
          }
        ]
      }
    },
    "canonical": true
  }
}