{
  "jsonrpc": "2.0",
  "id": "",
  "result": {
    "SignedHeader": {
      "header": {
        "chain_id": "gaia-7004",
        "height": "34235",
        "time": "2018-08-01T14:59:23.173470319Z",
        "num_txs": "0",
        "last_block_id": {
          "hash": "4F56CAAF2E5D4D4CB304DD949C45030D54D575B6",
          "parts": {
            "total": "1",
            "hash": "61DC2859E02D0686CC32D96FD4E0C7C6BB90FED6"
          }
        },
        "total_txs": "1804",
        "last_commit_hash": "6E051691561F826C35126C310B3C9D51FFED4E8A",
        "data_hash": "",
        "validators_hash": "026415B8202E1B0B51C712801D6E744F3E210861",
        "consensus_hash": "D6B74BB35BDFFD8392340F2A379173548AE188FE",
        "app_hash": "A9AECDA55D6533DF5705F2B7BCEDD3DD296351CC",
        "last_results_hash": "",
        "evidence_hash": ""
      },
      "commit": {
        "block_id": {
          "hash": "CDB5D57157E2CFF06A7915CC9C610A1B092B942A",
          "parts": {
            "total": "1",
            "hash": "84E7D2F8400809C409063F21FDB7D0DB42416A45"
          }
        },
        "precommits": [
          {
            "validator_address": "029359C0C768096273A68ABC902A6B17AC8D1D70",
            "validator_index": "0",
            "height": "34235",
            "round": "0",
            "timestamp": "2018-08-01T14:59:24.031954478Z",
            "type": 2,
            "block_id": {
              "hash": "CDB5D57157E2CFF06A7915CC9C610A1B092B942A",
              "parts": {
                "total": "1",
                "hash": "84E7D2F8400809C409063F21FDB7D0DB42416A45"
              }
            },
            "signature": {
              "type": "tendermint/SignatureEd25519",
              "value": "6eLLcM+1Wgmk1kBWgprhjgBac7bXpcX7DWMAbuaDAp1g1lHyOpYt6nHll1jLrgSaEvX1p06i43dBK9fzGUgiAA=="
            }
          },
          {
            "validator_address": "02FE4B97A8387F39D1AC19E0C1702B3CC614812F",
            "validator_index": "1",
            "height": "34235",
            "round": "0",
            "timestamp": "2018-08-01T14:59:24.002515439Z",
            "type": 2,
            "block_id": {
              "hash": "CDB5D57157E2CFF06A7915CC9C610A1B092B942A",
              "parts": {
                "total": "1",
                "hash": "84E7D2F8400809C409063F21FDB7D0DB42416A45"
              }
            },
            "signature": {
              "type": "tendermint/SignatureEd25519",
              "value": "+uVlxPdU4IZrMlL08ImRheecizWNRRI5U0mcA6xpkk26O0joAs9YQ1p6PVdA+PFZGHvjZZU5kca3aeG5eQSRCA=="
            }
          },
          {
            "validator_address": "0548261C50222FD710EB5EBDF03A0E6567B21D20",
            "validator_index": "2",
            "height": "34235",
            "round": "0",
            "timestamp": "2018-08-01T14:59:24.126985897Z",
            "type": 2,
            "block_id": {
              "hash": "CDB5D57157E2CFF06A7915CC9C610A1B092B942A",
              "parts": {
                "total": "1",
                "hash": "84E7D2F8400809C409063F21FDB7D0DB42416A45"
              }
            },
            "signature": {
              "type": "tendermint/SignatureEd25519",
              "value": "Dzom5EyMLI6QUz/Cw3V/IQTqVREwH/os/6shvO2AI6Np4v4PKJW9yfDpZoAnC6h8XnSIyMEpTAAhV8qRBpSuDg=="
            }
          },
          {
            "validator_address": "0665ADBF9B120B7617BF955AA5653A1992C82B11",
            "validator_index": "3",
            "height": "34235",
            "round": "0",
            "timestamp": "2018-08-01T14:59:24.033993166Z",
            "type": 2,
            "block_id": {
              "hash": "CDB5D57157E2CFF06A7915CC9C610A1B092B942A",
              "parts": {
                "total": "1",
                "hash": "84E7D2F8400809C409063F21FDB7D0DB42416A45"
              }
            },
            "signature": {
              "type": "tendermint/SignatureEd25519",
              "value": "+izmpsSqo3rU+iOILQFJT2i9AuLLiVpWokSBdpXVTyJqQZb3ieIkhv/wZ95SqERmUkyFtePuWZ/8Kh4GNS5vAQ=="
            }
          },
          {
            "validator_address": "09145E611CC27EEB944FC5A956DDF710F943B9EF",
            "validator_index": "4",
            "height": "34235",
            "round": "0",
            "timestamp": "2018-08-01T14:59:24.073871871Z",
            "type": 2,
            "block_id": {
              "hash": "CDB5D57157E2CFF06A7915CC9C610A1B092B942A",
              "parts": {
                "total": "1",
                "hash": "84E7D2F8400809C409063F21FDB7D0DB42416A45"
              }
            },
            "signature": {
              "type": "tendermint/SignatureEd25519",
              "value": "tD35sY801afMaTUku7LZO7ekTjeQhI7GoFLO+QTn2KtYKh/ILuLYPXUbghQpMyx5M+Pg5MYdjC7vPDZ1qOjXCA=="
            }
          },
          {
            "validator_address": "0989D0355A104B67AE0AE028C68FB610690E174B",
            "validator_index": "5",
            "height": "34235",
            "round": "0",
            "timestamp": "2018-08-01T14:59:24.032154865Z",
            "type": 2,
            "block_id": {
              "hash": "CDB5D57157E2CFF06A7915CC9C610A1B092B942A",
              "parts": {
                "total": "1",
                "hash": "84E7D2F8400809C409063F21FDB7D0DB42416A45"
              }
            },
            "signature": {
              "type": "tendermint/SignatureEd25519",
              "value": "1u8P23n64eJ92g0Wn1hJL7W5qF7SlBtXhDSTjJNTeg9BYODojh9ZaC8YAkrGD6I3LAAODpQiphxmCU//au62Cw=="
            }
          },
          {
            "validator_address": "0A692DBFFE9E5DD28E7DECC33CED1AEB4C0D014E",
            "validator_index": "6",
            "height": "34235",
            "round": "0",
            "timestamp": "2018-08-01T14:59:24.242573438Z",
            "type": 2,
            "block_id": {
              "hash": "CDB5D57157E2CFF06A7915CC9C610A1B092B942A",
              "parts": {
                "total": "1",
                "hash": "84E7D2F8400809C409063F21FDB7D0DB42416A45"
              }
            },
            "signature": {
              "type": "tendermint/SignatureEd25519",
              "value": "0VmA72jdjEpU+5f/GN9rAzHrPF9sMhkn5LH6YlDtK9d8sTpMhTqkzDZhJQOSBVD3R5H50JGSqoQjbMsFW7IgDA=="
            }
          },
          {
            "validator_address": "0DDF97111D73DB825138EC15EC27DE5FE8536901",
            "validator_index": "7",
            "height": "34235",
            "round": "0",
            "timestamp": "2018-08-01T14:59:24.037788963Z",
            "type": 2,
            "block_id": {
              "hash": "CDB5D57157E2CFF06A7915CC9C610A1B092B942A",
              "parts": {
                "total": "1",
                "hash": "84E7D2F8400809C409063F21FDB7D0DB42416A45"
              }
            },
            "signature": {
              "type": "tendermint/SignatureEd25519",
              "value": "w0JXZrX5VDYfUsyBYRBpK02RWJE1ihX7O+zwy58YQtL0i58azl6tTZ7Ve3cqjynWwON6rNhXt2CfMRqJG+cQCA=="
            }
          },
          {
            "validator_address": "1751786EFC085D5331C61168FFFC8202EA151B4E",
            "validator_index": "8",
            "height": "34235",
            "round": "0",
            "timestamp": "2018-08-01T14:59:23.691613902Z",
            "type": 2,
            "block_id": {
              "hash": "CDB5D57157E2CFF06A7915CC9C610A1B092B942A",
              "parts": {
                "total": "1",
                "hash": "84E7D2F8400809C409063F21FDB7D0DB42416A45"
              }
            },
            "signature": {
              "type": "tendermint/SignatureEd25519",
              "value": "yV/3+LtOCb2vIzhxXkWtG9HZ19MkS8jolXxUe/m2FY0M355+4xC7pC1nzgGO9yrbE3PjHOI/OsodINade9NRAA=="
            }
          },
          {
            "validator_address": "17BB5CD01E8940FAFB948A04D5FA5A0645E5822E",
            "validator_index": "9",
            "height": "34235",
            "round": "0",
            "timestamp": "2018-08-01T14:59:24.026687013Z",
            "type": 2,
            "block_id": {
              "hash": "CDB5D57157E2CFF06A7915CC9C610A1B092B942A",
              "parts": {
                "total": "1",
                "hash": "84E7D2F8400809C409063F21FDB7D0DB42416A45"
              }
            },
            "signature": {
              "type": "tendermint/SignatureEd25519",
              "value": "6+6kv4/YYvcBdHMBWqd8NVBN7SkqxOHZyNs1vX7XNplcQrp9q5tDntuK4qYWHnwjXwEUNr/6SwvHPuT3LFS5Dw=="
            }
          },
          {
            "validator_address": "1C683A87904BC38F05004FE83301A3A3E35447EB",
            "validator_index": "10",
            "height": "34235",
            "round": "0",
            "timestamp": "2018-08-01T14:59:24.02658441Z",
            "type": 2,
            "block_id": {
              "hash": "CDB5D57157E2CFF06A7915CC9C610A1B092B942A",
              "parts": {
                "total": "1",
                "hash": "84E7D2F8400809C409063F21FDB7D0DB42416A45"
              }
            },
            "signature": {
              "type": "tendermint/SignatureEd25519",
              "value": "oDppTmxX4DhLG6kA+HQ5lxXIMWz1GVsfw1KmMb/2Tv22TOHx4djJbBf2XYX24lJbY283orZJVoqKgBQCdrDSDQ=="
            }
          },
          {
            "validator_address": "1E9CE94FD0BA5CFEB901F90BC658D64D85B134D2",
            "validator_index": "11",
            "height": "34235",
            "round": "0",
            "timestamp": "2018-08-01T14:59:24.075890125Z",
            "type": 2,
            "block_id": {
              "hash": "CDB5D57157E2CFF06A7915CC9C610A1B092B942A",
              "parts": {
                "total": "1",
                "hash": "84E7D2F8400809C409063F21FDB7D0DB42416A45"
              }
            },
            "signature": {
              "type": "tendermint/SignatureEd25519",
              "value": "bAHR7KPI/Mtk6tsDt83sXdU0tbXvoNeQHAkj63ntK77RmG9Da315WJHRuf7Hcwa+wqbJMPgmdXhLlSbY2HnVBA=="
            }
          },
          {
            "validator_address": "1ECD8C5FE1341D74CDC633A245DD56858DE2F9A2",
            "validator_index": "12",
            "height": "34235",
            "round": "0",
            "timestamp": "2018-08-01T14:59:24.114761886Z",
            "type": 2,
            "block_id": {
              "hash": "CDB5D57157E2CFF06A7915CC9C610A1B092B942A",
              "parts": {
                "total": "1",
                "hash": "84E7D2F8400809C409063F21FDB7D0DB42416A45"
              }
            },
            "signature": {
              "type": "tendermint/SignatureEd25519",
              "value": "aznYklpKko2KA6LM8GsEXe9pZSxbTCJtqqOz5nZom8dlMiA+R1kAhhhw/niijCtfKWoNH0UZTuMbtW1Vf0KvDg=="
            }
          },
          {
            "validator_address": "1F3A68CAAD483768AA2BF667DEF10F7104C89928",
            "validator_index": "13",
            "height": "34235",
            "round": "0",
            "timestamp": "2018-08-01T14:59:24.082943926Z",
            "type": 2,
            "block_id": {
              "hash": "CDB5D57157E2CFF06A7915CC9C610A1B092B942A",
              "parts": {
                "total": "1",
                "hash": "84E7D2F8400809C409063F21FDB7D0DB42416A45"
              }
            },
            "signature": {
              "type": "tendermint/SignatureEd25519",
              "value": "hT0Y8sYxJWfI+8hIYpHrNtADuQcRHlrP0WqKUJizJoD4kKsUGZHVocvrEswIM/Ut035apcmui7EaqGlFtV05DQ=="
            }
          },
          {
            "validator_address": "1F61153F26C2DF27E15874268D30326287323352",
            "validator_index": "14",
            "height": "34235",
            "round": "0",
            "timestamp": "2018-08-01T14:59:24.103962736Z",
            "type": 2,
            "block_id": {
              "hash": "CDB5D57157E2CFF06A7915CC9C610A1B092B942A",
              "parts": {
                "total": "1",
                "hash": "84E7D2F8400809C409063F21FDB7D0DB42416A45"
              }
            },
            "signature": {
              "type": "tendermint/SignatureEd25519",
              "value": "oiDLwBG/PJcjKt9j8Vl+u/rdNfZ9Lv/nIDWhYu6amEB2X3UuOBrC2qPl/ejoMWfJrXE/WB5y42kdoWiOr3xACQ=="
            }
          },
          {
            "validator_address": "23897586D68E2AC1C78E0EF5BB5DF5C8EAB18F50",
            "validator_index": "15",
            "height": "34235",
            "round": "0",
            "timestamp": "2018-08-01T14:59:24.038919528Z",
            "type": 2,
            "block_id": {
              "hash": "CDB5D57157E2CFF06A7915CC9C610A1B092B942A",
              "parts": {
                "total": "1",
                "hash": "84E7D2F8400809C409063F21FDB7D0DB42416A45"
              }
            },
            "signature": {
              "type": "tendermint/SignatureEd25519",
              "value": "pFXJGneGoMak3dAR4WOiixYfYU02ednEq595jNFXy/v/egmWVnPpkqyyFtZLVDwul4gy5blI3dX30Oik3mvnBQ=="
            }
          },
          {
            "validator_address": "28770D17E8530825E7310A0659308654B7EC9682",
            "validator_index": "16",
            "height": "34235",
            "round": "0",
            "timestamp": "2018-08-01T14:59:23.984760969Z",
            "type": 2,
            "block_id": {
              "hash": "CDB5D57157E2CFF06A7915CC9C610A1B092B942A",
              "parts": {
                "total": "1",
                "hash": "84E7D2F8400809C409063F21FDB7D0DB42416A45"
              }
            },
            "signature": {
              "type": "tendermint/SignatureEd25519",
              "value": "baOU3tsldgRnHVg3t1Ud9DFLxk8+XSbGQ7gYMLJ3m8IWDklrtuYJa3hkfpRextdN/KSqfq2te/0tzdWhY6mgBA=="
            }
          },
          {
            "validator_address": "2A92EC3C642140202298D0E245095E0ECFC25228",
            "validator_index": "17",
            "height": "34235",
            "round": "0",
            "timestamp": "2018-08-01T14:59:24.080874868Z",
            "type": 2,
            "block_id": {
              "hash": "CDB5D57157E2CFF06A7915CC9C610A1B092B942A",
              "parts": {
                "total": "1",
                "hash": "84E7D2F8400809C409063F21FDB7D0DB42416A45"
              }
            },
            "signature": {
              "type": "tendermint/SignatureEd25519",
              "value": "iJV5AQnq3h5hWtsF5fPpQijp8l5XLHpGpm+KPLaiLVCQD3cBdkjhxA4a4LJLsAlRUZVNfyi6CTrtK3eNUHqnAw=="
            }
          },
          {
            "validator_address": "33412C9A69C60CB0FAA24A5C5B3A906DE24B47C2",
            "validator_index": "18",
            "height": "34235",
            "round": "0",
            "timestamp": "2018-08-01T14:59:24.029332604Z",
            "type": 2,
            "block_id": {
              "hash": "CDB5D57157E2CFF06A7915CC9C610A1B092B942A",
              "parts": {
                "total": "1",
                "hash": "84E7D2F8400809C409063F21FDB7D0DB42416A45"
              }
            },
            "signature": {
              "type": "tendermint/SignatureEd25519",
              "value": "pOy308hXOVyp6MM5LtARp+xxHcKV2BLWevJaMyX8pWwMWN+JV1ELY7ueV+pKfp/rK6KUotxb3w2JCxZTbnf8Cw=="
            }
          },
          {
            "validator_address": "36E9B7FAEC964F97D84C028ED62493E373AD0B38",
            "validator_index": "19",
            "height": "34235",
            "round": "0",
            "timestamp": "2018-08-01T14:59:24.11289384Z",
            "type": 2,
            "block_id": {
              "hash": "CDB5D57157E2CFF06A7915CC9C610A1B092B942A",
              "parts": {
                "total": "1",
                "hash": "84E7D2F8400809C409063F21FDB7D0DB42416A45"
              }
            },
            "signature": {
              "type": "tendermint/SignatureEd25519",
              "value": "GL/un6gak4q5gDIWU/3jRk1C+v5syptqYiI5x2DHg9gUlu1Z6HEZNQ2akrIrehEz8AoRtP3ymsuqbUNMgA82BA=="
            }
          },
          {
            "validator_address": "38A8D85D36BEA2E5FCF8A1E778F53628E450EF13",
            "validator_index": "20",
            "height": "34235",
            "round": "0",
            "timestamp": "2018-08-01T14:59:24.23148015Z",
            "type": 2,
            "block_id": {
              "hash": "CDB5D57157E2CFF06A7915CC9C610A1B092B942A",
              "parts": {
                "total": "1",
                "hash": "84E7D2F8400809C409063F21FDB7D0DB42416A45"
              }
            },
            "signature": {
              "type": "tendermint/SignatureEd25519",
              "value": "pVzmNauSJ2geG6UGFvG2gYuZ/UTtV1lpfjND3SbCGrIIYCkusmm3WiGJKWrJW9SKdeqahc+27F+YyVJfM3z7Bw=="
            }
          },
          {
            "validator_address": "39DFDA0C5DB84B269642188B23253508537798E6",
            "validator_index": "21",
            "height": "34235",
            "round": "0",
            "timestamp": "2018-08-01T14:59:24.037301192Z",
            "type": 2,
            "block_id": {
              "hash": "CDB5D57157E2CFF06A7915CC9C610A1B092B942A",
              "parts": {
                "total": "1",
                "hash": "84E7D2F8400809C409063F21FDB7D0DB42416A45"
              }
            },
            "signature": {
              "type": "tendermint/SignatureEd25519",
              "value": "ZACODkbu8EGBpgRluiF7Ia9H9PrlNuMGp9S7zqgQxzRz3c0ZTTqrvxkFBBs5JD4RHhVhx3h8V7eaT57TVY+tAg=="
            }
          },
          {
            "validator_address": "3AC99B708404452366E0953A4BE849226DC86CBC",
            "validator_index": "22",
            "height": "34235",
            "round": "0",
            "timestamp": "2018-08-01T14:59:24.105210529Z",
            "type": 2,
            "block_id": {
              "hash": "CDB5D57157E2CFF06A7915CC9C610A1B092B942A",
              "parts": {
                "total": "1",
                "hash": "84E7D2F8400809C409063F21FDB7D0DB42416A45"
              }
            },
            "signature": {
              "type": "tendermint/SignatureEd25519",
              "value": "wSn+LcERda5fm6jsSbAOJfpE8DKgnFKKNhwRzDNMOEQpORHMo0synsyhqoIQXHd4dOpmrc0JF5ny1weGQpIMAQ=="
            }
          },
          {
            "validator_address": "3DCB822A10ED319EC7C4393D8E3FD4A41B15AAF2",
            "validator_index": "23",
            "height": "34235",
            "round": "0",
            "timestamp": "2018-08-01T14:59:24.055783909Z",
            "type": 2,
            "block_id": {
              "hash": "CDB5D57157E2CFF06A7915CC9C610A1B092B942A",
              "parts": {
                "total": "1",
                "hash": "84E7D2F8400809C409063F21FDB7D0DB42416A45"
              }
            },
            "signature": {
              "type": "tendermint/SignatureEd25519",
              "value": "OW2iVnSu+rynh8nfOitnd6fT3iRsCqqiiE51SLhUs57ngUNt4Qn3V/AZrf09yeL1SObfPZDA6ZEMIhACvpPWDg=="
            }
          },
          {
            "validator_address": "3E899BA36A93C7370347BD5FE85909F2ECD93F8C",
            "validator_index": "24",
            "height": "34235",
            "round": "0",
            "timestamp": "2018-08-01T14:59:24.075067672Z",
            "type": 2,
            "block_id": {
              "hash": "CDB5D57157E2CFF06A7915CC9C610A1B092B942A",
              "parts": {
                "total": "1",
                "hash": "84E7D2F8400809C409063F21FDB7D0DB42416A45"
              }
            },
            "signature": {
              "type": "tendermint/SignatureEd25519",
              "value": "iTni8rtU7wlqDvjjdiaQkTFKfYNj1BUlf54N3mW0qbZfZT2FpCjD3Xq27zrwVGcNx2B7r1zcZkGQAzwN6WsSDA=="
            }
          },
          {
            "validator_address": "41CAB2E29E7D0F2282E3275938F188FF9386B84C",
            "validator_index": "25",
            "height": "34235",
            "round": "0",
            "timestamp": "2018-08-01T14:59:24.100319792Z",
            "type": 2,
            "block_id": {
              "hash": "CDB5D57157E2CFF06A7915CC9C610A1B092B942A",
              "parts": {
                "total": "1",
                "hash": "84E7D2F8400809C409063F21FDB7D0DB42416A45"
              }
            },
            "signature": {
              "type": "tendermint/SignatureEd25519",
              "value": "C+PMLiG7cQB9kKEcBIVlfevgSRuRBfDFcgrfECgxzOsaYnPNV6xaXzX75Ezqpti24WTm9hhfwHVQJdvPo/W0Aw=="
            }
          },
          {
            "validator_address": "462B656869DB02A8FD1077E255F8CC7401DC37C6",
            "validator_index": "26",
            "height": "34235",
            "round": "0",
            "timestamp": "2018-08-01T14:59:23.987144345Z",
            "type": 2,
            "block_id": {
              "hash": "CDB5D57157E2CFF06A7915CC9C610A1B092B942A",
              "parts": {
                "total": "1",
                "hash": "84E7D2F8400809C409063F21FDB7D0DB42416A45"
              }
            },
            "signature": {
              "type": "tendermint/SignatureEd25519",
              "value": "T1NRvrOugiZND/0frUJvexVG6Jc60sRqy4IA0IpOqmzzSNiHPMbBbANxKbAA7Xoui3llKaXq0uYGesiyiPWMDA=="
            }
          },
          {
            "validator_address": "48E5118163E5442068A1B5A42D2EEDBB75724935",
            "validator_index": "27",
            "height": "34235",
            "round": "0",
            "timestamp": "2018-08-01T14:59:24.151114673Z",
            "type": 2,
            "block_id": {
              "hash": "CDB5D57157E2CFF06A7915CC9C610A1B092B942A",
              "parts": {
                "total": "1",
                "hash": "84E7D2F8400809C409063F21FDB7D0DB42416A45"
              }
            },
            "signature": {
              "type": "tendermint/SignatureEd25519",
              "value": "xe8Ge8OsDddWOZWYzr1AGaMDrj7tcQQUD8akafaKaYcAdvK37rLjtH9PWECkFv2um6XqMuP2904XwYmQ0GKyCQ=="
            }
          },
          {
            "validator_address": "49103C58AFD9C7C069F55EBA218F3DFD9AEA74F9",
            "validator_index": "28",
            "height": "34235",
            "round": "0",
            "timestamp": "2018-08-01T14:59:24.079983572Z",
            "type": 2,
            "block_id": {
              "hash": "CDB5D57157E2CFF06A7915CC9C610A1B092B942A",
              "parts": {
                "total": "1",
                "hash": "84E7D2F8400809C409063F21FDB7D0DB42416A45"
              }
            },
            "signature": {
              "type": "tendermint/SignatureEd25519",
              "value": "9zJvyV4GHY/UEASXJkqgQI5SwA9d47WIAWsYCQm0IQ8jBLtnpwQu6trEzEzLdaktWBjK9f/mavr/ok0Z/F12BQ=="
            }
          },
          {
            "validator_address": "4944F8BBBB5303E17BC0607DF332320EDBC750EA",
            "validator_index": "29",
            "height": "34235",
            "round": "0",
            "timestamp": "2018-08-01T14:59:24.037313534Z",
            "type": 2,
            "block_id": {
              "hash": "CDB5D57157E2CFF06A7915CC9C610A1B092B942A",
              "parts": {
                "total": "1",
                "hash": "84E7D2F8400809C409063F21FDB7D0DB42416A45"
              }
            },
            "signature": {
              "type": "tendermint/SignatureEd25519",
              "value": "2KTn7VxV7c3HRVV8OrnNaJs80GeyLD/S6410ucRq7QO9Xpu63pcxPU9UphfC8hpIE1BKvZ1RSdeqzcFzQEWoCQ=="
            }
          },
          {
            "validator_address": "49841599DE675157CBE1E7D6B35BF8FFC23BD5CB",
            "validator_index": "30",
            "height": "34235",
            "round": "0",
            "timestamp": "2018-08-01T14:59:24.01382305Z",
            "type": 2,
            "block_id": {
              "hash": "CDB5D57157E2CFF06A7915CC9C610A1B092B942A",
              "parts": {
                "total": "1",
                "hash": "84E7D2F8400809C409063F21FDB7D0DB42416A45"
              }
            },
            "signature": {
              "type": "tendermint/SignatureEd25519",
              "value": "/DFi8UeRr5ZsIcT4/52xuIbEbbHnqMqjH0I6Lhus5s6mIEDAySPLkOOnm29VpJf+hZt8N467Vsn6AbkPv4ymAQ=="
            }
          },
          {
            "validator_address": "51386C2CF9556821D114D7E4945806802BADB28D",
            "validator_index": "31",
            "height": "34235",
            "round": "0",
            "timestamp": "2018-08-01T14:59:24.084076717Z",
            "type": 2,
            "block_id": {
              "hash": "CDB5D57157E2CFF06A7915CC9C610A1B092B942A",
              "parts": {
                "total": "1",
                "hash": "84E7D2F8400809C409063F21FDB7D0DB42416A45"
              }
            },
            "signature": {
              "type": "tendermint/SignatureEd25519",
              "value": "ZyDVuXPIIJR0UIogq4ybjAlvbqvZUuetkthvYbHgS/7w5OmMtnwVWo+T31VOdcM3lWsxVLvN25DxTe6zxjNaAw=="
            }
          },
          {
            "validator_address": "543564ECA3AFEFADC73EE8591AAC3A96F079BC8A",
            "validator_index": "32",
            "height": "34235",
            "round": "0",
            "timestamp": "2018-08-01T14:59:23.986481776Z",
            "type": 2,
            "block_id": {
              "hash": "CDB5D57157E2CFF06A7915CC9C610A1B092B942A",
              "parts": {
                "total": "1",
                "hash": "84E7D2F8400809C409063F21FDB7D0DB42416A45"
              }
            },
            "signature": {
              "type": "tendermint/SignatureEd25519",
              "value": "kavv0KrjVh6Pl6KkN9vZn0NHRDsO1cFepYUXlmUu2h7OFqXaZPmU/KZ7IAa3LT4XbgFZ0LW9aUT0BIUXfx56Cw=="
            }
          },
          {
            "validator_address": "55D67B1A6DC13E96F8754A5A42EABC20F7F86664",
            "validator_index": "33",
            "height": "34235",
            "round": "0",
            "timestamp": "2018-08-01T14:59:24.0939236Z",
            "type": 2,
            "block_id": {
              "hash": "CDB5D57157E2CFF06A7915CC9C610A1B092B942A",
              "parts": {
                "total": "1",
                "hash": "84E7D2F8400809C409063F21FDB7D0DB42416A45"
              }
            },
            "signature": {
              "type": "tendermint/SignatureEd25519",
              "value": "7aw+L4Tjdfx0fLoyh/CxstFRaf2bvi3THRJLEsg5mZruvbaupbKiB4TWU9VJuBHDH1fGzTJdKcMpt6Aa3ueQAw=="
            }
          },
          {
            "validator_address": "570B6A755ED339EAC56BB3390A48069F6AC9449B",
            "validator_index": "34",
            "height": "34235",
            "round": "0",
            "timestamp": "2018-08-01T14:59:30.818999016Z",
            "type": 2,
            "block_id": {
              "hash": "CDB5D57157E2CFF06A7915CC9C610A1B092B942A",
              "parts": {
                "total": "1",
                "hash": "84E7D2F8400809C409063F21FDB7D0DB42416A45"
              }
            },
            "signature": {
              "type": "tendermint/SignatureEd25519",
              "value": "TMqvwBJHQywKrwVrKh7gte6cATFd8thK2LBSlzgwVpR/dnO01YTmxV7RdUAaxgm1xfqHhKUwUrg2FlJ/UGeLDw=="
            }
          },
          {
            "validator_address": "5BDF8EA41B1835FBAD865B181A2A4B23F511B5E4",
            "validator_index": "35",
            "height": "34235",
            "round": "0",
            "timestamp": "2018-08-01T14:59:24.015664606Z",
            "type": 2,
            "block_id": {
              "hash": "CDB5D57157E2CFF06A7915CC9C610A1B092B942A",
              "parts": {
                "total": "1",
                "hash": "84E7D2F8400809C409063F21FDB7D0DB42416A45"
              }
            },
            "signature": {
              "type": "tendermint/SignatureEd25519",
              "value": "nI3bCpPy7PXInnew/g57NdmWHozae2lQ3FS7hhRsJJAm3K158sTIjE22h9GCl8dmT1s+0ke5PGM8Sq55EqsEBA=="
            }
          },
          {
            "validator_address": "60229E2E273297FE00219E46DFFB8F76844CDEF9",
            "validator_index": "36",
            "height": "34235",
            "round": "0",
            "timestamp": "2018-08-01T14:59:22.052928107Z",
            "type": 2,
            "block_id": {
              "hash": "CDB5D57157E2CFF06A7915CC9C610A1B092B942A",
              "parts": {
                "total": "1",
                "hash": "84E7D2F8400809C409063F21FDB7D0DB42416A45"
              }
            },
            "signature": {
              "type": "tendermint/SignatureEd25519",
              "value": "LuidXpbSU3SGGT60aIXj4Zg3q4XN0cl6eA+eShDT6zNOo3h49q8tCHJr5QkBc0AR/pUfQyD0WnA+N9hcf2XPBQ=="
            }
          },
          {
            "validator_address": "62410D6D1CD98278136E4D0738AA0EA273CDFC54",
            "validator_index": "37",
            "height": "34235",
            "round": "0",
            "timestamp": "2018-08-01T14:59:23.975943813Z",
            "type": 2,
            "block_id": {
              "hash": "CDB5D57157E2CFF06A7915CC9C610A1B092B942A",
              "parts": {
                "total": "1",
                "hash": "84E7D2F8400809C409063F21FDB7D0DB42416A45"
              }
            },
            "signature": {
              "type": "tendermint/SignatureEd25519",
              "value": "SGCOzn5zn/2bbRVSWBoVSwIrlD7ZzTxHaYPMmnl5ulODEsmnBauq+EhSXsa3GP+X/vTaqnVfbjs+YxZ41kIwDQ=="
            }
          },
          {
            "validator_address": "632F5C139A5A9DFBFE5111DEE29FCFB6157207DC",
            "validator_index": "38",
            "height": "34235",
            "round": "0",
            "timestamp": "2018-08-01T14:59:24.053494715Z",
            "type": 2,
            "block_id": {
              "hash": "CDB5D57157E2CFF06A7915CC9C610A1B092B942A",
              "parts": {
                "total": "1",
                "hash": "84E7D2F8400809C409063F21FDB7D0DB42416A45"
              }
            },
            "signature": {
              "type": "tendermint/SignatureEd25519",
              "value": "Tdr4Q8t/ZMKiczWhV5WETsI6SjvzVLCrG0Oat3LcS6LGAUz9i0SAE/1K7ywNAZnS7ZcF4aUAoQR9eis66nR+AQ=="
            }
          },
          {
            "validator_address": "64F57F8E796A9B7B590C1EFA4123988C86631D39",
            "validator_index": "39",
            "height": "34235",
            "round": "0",
            "timestamp": "2018-08-01T14:59:24.015034544Z",
            "type": 2,
            "block_id": {
              "hash": "CDB5D57157E2CFF06A7915CC9C610A1B092B942A",
              "parts": {
                "total": "1",
                "hash": "84E7D2F8400809C409063F21FDB7D0DB42416A45"
              }
            },
            "signature": {
              "type": "tendermint/SignatureEd25519",
              "value": "OVySJzAtweWGy5AiwKZwgpGtT0qTDKrxH9m876/D6X9vQnUg42W5rztt7HOz/hRVo8MhIYeMfMm685mE5wLQBA=="
            }
          },
          {
            "validator_address": "69D99B2C66043ACBEAA8447525C356AFC6408E0C",
            "validator_index": "40",
            "height": "34235",
            "round": "0",
            "timestamp": "2018-08-01T14:59:24.162995096Z",
            "type": 2,
            "block_id": {
              "hash": "CDB5D57157E2CFF06A7915CC9C610A1B092B942A",
              "parts": {
                "total": "1",
                "hash": "84E7D2F8400809C409063F21FDB7D0DB42416A45"
              }
            },
            "signature": {
              "type": "tendermint/SignatureEd25519",
              "value": "fXUxZLgUKjehrDo/5BZ8LvFZwqg5sVDc+ZiEEAV3HDH17GRkr1msBG1N5lwGSR/Gvnu9JrzMUZhfqCL/g1/KAw=="
            }
          },
          {
            "validator_address": "69EDADFA4A803E9DBF548C900D4A465E7D154262",
            "validator_index": "41",
            "height": "34235",
            "round": "0",
            "timestamp": "2018-08-01T14:59:24.115005093Z",
            "type": 2,
            "block_id": {
              "hash": "CDB5D57157E2CFF06A7915CC9C610A1B092B942A",
              "parts": {
                "total": "1",
                "hash": "84E7D2F8400809C409063F21FDB7D0DB42416A45"
              }
            },
            "signature": {
              "type": "tendermint/SignatureEd25519",
              "value": "ZU+jPNMLV+rZ459OscU8SCWj2jxdyd3bVHCp+v63LXKBibBTbhnyEDAeyulWxoYalJ3wzOL/gU56a3CC59FhAg=="
            }
          },
          {
            "validator_address": "6D3AD380E398D8592B03AA124BAFED5F125DF863",
            "validator_index": "42",
            "height": "34235",
            "round": "0",
            "timestamp": "2018-08-01T14:58:21.785199119Z",
            "type": 2,
            "block_id": {
              "hash": "CDB5D57157E2CFF06A7915CC9C610A1B092B942A",
              "parts": {
                "total": "1",
                "hash": "84E7D2F8400809C409063F21FDB7D0DB42416A45"
              }
            },
            "signature": {
              "type": "tendermint/SignatureEd25519",
              "value": "2lJKTyntd0ppGsTvYbbD8aRL93KETBhHr30PNTDyVtr9FEnKSISwcBy7uBr54fiNZl3E1gVyoaQ+rbkzQyHGAw=="
            }
          },
          {
            "validator_address": "6F6C93B8BF3495063FEC9B5C771158607F4AE9D6",
            "validator_index": "43",
            "height": "34235",
            "round": "0",
            "timestamp": "2018-08-01T14:59:24.287828425Z",
            "type": 2,
            "block_id": {
              "hash": "CDB5D57157E2CFF06A7915CC9C610A1B092B942A",
              "parts": {
                "total": "1",
                "hash": "84E7D2F8400809C409063F21FDB7D0DB42416A45"
              }
            },
            "signature": {
              "type": "tendermint/SignatureEd25519",
              "value": "JkeDXr96lHhu95jHvcI/brF2VzgwJD2Dey6QIvBBpsuD49vMFW54mcBWqa93BNGPNFNXdNT6MJqGzvGyf4LEBw=="
            }
          },
          {
            "validator_address": "732CEEF54C374DDC6ADECBFD707AEFD07FEDC143",
            "validator_index": "44",
            "height": "34235",
            "round": "0",
            "timestamp": "2018-08-01T14:59:24.162708481Z",
            "type": 2,
            "block_id": {
              "hash": "CDB5D57157E2CFF06A7915CC9C610A1B092B942A",
              "parts": {
                "total": "1",
                "hash": "84E7D2F8400809C409063F21FDB7D0DB42416A45"
              }
            },
            "signature": {
              "type": "tendermint/SignatureEd25519",
              "value": "RvgNMMCu1QZ5KuFe/fh9JGgoAsKrESvVFOmgyHS0LUDaKlCzUhCXS/zXGRBfVORSkkq73JBlW/TyJ+Sd5mvnBQ=="
            }
          },
          {
            "validator_address": "7393D691BFAE9661918C09932D4D9060AB40939B",
            "validator_index": "45",
            "height": "34235",
            "round": "0",
            "timestamp": "2018-08-01T14:59:24.225028006Z",
            "type": 2,
            "block_id": {
              "hash": "CDB5D57157E2CFF06A7915CC9C610A1B092B942A",
              "parts": {
                "total": "1",
                "hash": "84E7D2F8400809C409063F21FDB7D0DB42416A45"
              }
            },
            "signature": {
              "type": "tendermint/SignatureEd25519",
              "value": "Ky/pl6N20TI9KiOakCFrNSsYb/p60p6YwtG06jAiGCqB52QDxHOyNpttq/0la+kg5fLLqOmfZUC/DPk2vAg+AQ=="
            }
          },
          {
            "validator_address": "751E43437224E8BB6D1569B3E2B2616B6E7F4397",
            "validator_index": "46",
            "height": "34235",
            "round": "0",
            "timestamp": "2018-08-01T14:59:24.052532807Z",
            "type": 2,
            "block_id": {
              "hash": "CDB5D57157E2CFF06A7915CC9C610A1B092B942A",
              "parts": {
                "total": "1",
                "hash": "84E7D2F8400809C409063F21FDB7D0DB42416A45"
              }
            },
            "signature": {
              "type": "tendermint/SignatureEd25519",
              "value": "Haeb+Jocee+5XemvZpVn0pcfUh1U7Sx7VlUDG49qweEupXZAxO2noPrTR4XZC/+qjBxeaaqddJQoC/s0LVvyDg=="
            }
          },
          {
            "validator_address": "7EB7593F519F1180C7E872D0494611464EDF03AE",
            "validator_index": "47",
            "height": "34235",
            "round": "0",
            "timestamp": "2018-08-01T14:59:24.317493718Z",
            "type": 2,
            "block_id": {
              "hash": "CDB5D57157E2CFF06A7915CC9C610A1B092B942A",
              "parts": {
                "total": "1",
                "hash": "84E7D2F8400809C409063F21FDB7D0DB42416A45"
              }
            },
            "signature": {
              "type": "tendermint/SignatureEd25519",
              "value": "Ls2Id5HFlQ5bOeWv6pgjDSse1G1jPZQLrDyNDx9zOdtJ5S7jaCXeWKEwiuzxxbf1KWpVmw7FftNMm2ajIVLtBQ=="
            }
          },
          {
            "validator_address": "807CF675BA8479FC4FEC1047215DF07970040F1F",
            "validator_index": "48",
            "height": "34235",
            "round": "0",
            "timestamp": "2018-08-01T14:59:24.308729653Z",
            "type": 2,
            "block_id": {
              "hash": "CDB5D57157E2CFF06A7915CC9C610A1B092B942A",
              "parts": {
                "total": "1",
                "hash": "84E7D2F8400809C409063F21FDB7D0DB42416A45"
              }
            },
            "signature": {
              "type": "tendermint/SignatureEd25519",
              "value": "CSLezv2x2Lk1fQzJdSbInXLpY0pdsf8aBoCObg9fcXsx+c6gZquQM6hR0IF1FO8VqfAL3642K58yuCWNLberBQ=="
            }
          },
          {
            "validator_address": "83AB321E012C57746689FED3A6064DF331F81007",
            "validator_index": "49",
            "height": "34235",
            "round": "0",
            "timestamp": "2018-08-01T14:59:24.06256605Z",
            "type": 2,
            "block_id": {
              "hash": "CDB5D57157E2CFF06A7915CC9C610A1B092B942A",
              "parts": {
                "total": "1",
                "hash": "84E7D2F8400809C409063F21FDB7D0DB42416A45"
              }
            },
            "signature": {
              "type": "tendermint/SignatureEd25519",
              "value": "rCOEo3grGc44uTHLfMHsV5TqIRQ/6wA7YH2Im5OuAY1zRvZFPJcwGI5YW7JTlLFjyVnBrF/8l2UpaiXClRRUDA=="
            }
          },
          {
            "validator_address": "83BB1B88D3DBB20AD845FECA07749EBD87D3754D",
            "validator_index": "50",
            "height": "34235",
            "round": "0",
            "timestamp": "2018-08-01T14:59:24.185646909Z",
            "type": 2,
            "block_id": {
              "hash": "CDB5D57157E2CFF06A7915CC9C610A1B092B942A",
              "parts": {
                "total": "1",
                "hash": "84E7D2F8400809C409063F21FDB7D0DB42416A45"
              }
            },
            "signature": {
              "type": "tendermint/SignatureEd25519",
              "value": "tIsKn7HP6saoVNs7NWdQp2lzqZrfuke0KBcHNn/7t5gLxgKCHx1D47zZqMBTyB4wfI9HEbh3ZcP3AABW/J/VAw=="
            }
          },
          {
            "validator_address": "8F06FE1FD042683C426137FBC4BBAA4288924217",
            "validator_index": "51",
            "height": "34235",
            "round": "0",
            "timestamp": "2018-08-01T14:59:24.045092635Z",
            "type": 2,
            "block_id": {
              "hash": "CDB5D57157E2CFF06A7915CC9C610A1B092B942A",
              "parts": {
                "total": "1",
                "hash": "84E7D2F8400809C409063F21FDB7D0DB42416A45"
              }
            },
            "signature": {
              "type": "tendermint/SignatureEd25519",
              "value": "Xbu3zgktvLGdzasdNJEeWoAc/ekt8SOwEogVCFRQQXViObvfV90C3ecZfO71uZqAaqWttM2iRhU7qEshl8xRAw=="
            }
          },
          {
            "validator_address": "8F45617BF45B10A3F8283DEBDB35E38C7CA43237",
            "validator_index": "52",
            "height": "34235",
            "round": "0",
            "timestamp": "2018-08-01T14:59:24.055001947Z",
            "type": 2,
            "block_id": {
              "hash": "CDB5D57157E2CFF06A7915CC9C610A1B092B942A",
              "parts": {
                "total": "1",
                "hash": "84E7D2F8400809C409063F21FDB7D0DB42416A45"
              }
            },
            "signature": {
              "type": "tendermint/SignatureEd25519",
              "value": "2zhDUqgfhrFkBQDZHMCGQ073+9VXhGU4T5BB/IorWu7d1Zd/ISLvAu47dHu14qzfk2ZrCQaMn5oadQ6vyNonAg=="
            }
          },
          {
            "validator_address": "95980831E186F2540F6E9FB6C8E74DE2401405AC",
            "validator_index": "53",
            "height": "34235",
            "round": "0",
            "timestamp": "2018-08-01T14:59:24.084143855Z",
            "type": 2,
            "block_id": {
              "hash": "CDB5D57157E2CFF06A7915CC9C610A1B092B942A",
              "parts": {
                "total": "1",
                "hash": "84E7D2F8400809C409063F21FDB7D0DB42416A45"
              }
            },
            "signature": {
              "type": "tendermint/SignatureEd25519",
              "value": "b4naEaZRBXhEdHbcP+tQvv6n+est9kORPnsUIzp4l/rwV1n3zvv/x2Y36vxjqMyR4+MfvfpWU9S8U1IKqM8pAw=="
            }
          },
          {
            "validator_address": "95FAFBC1E0579C83D290A063020CE87C5334BD9B",
            "validator_index": "54",
            "height": "34235",
            "round": "0",
            "timestamp": "2018-08-01T14:59:24.076110257Z",
            "type": 2,
            "block_id": {
              "hash": "CDB5D57157E2CFF06A7915CC9C610A1B092B942A",
              "parts": {
                "total": "1",
                "hash": "84E7D2F8400809C409063F21FDB7D0DB42416A45"
              }
            },
            "signature": {
              "type": "tendermint/SignatureEd25519",
              "value": "e9rYnLc+vkvQNDvEhlL8oik7e9zydrmuKi08dXJoO+qs/3F0mcoVn2DqGK2kZE+33DaryhpmeKC1E0ftqHv8BA=="
            }
          },
          {
            "validator_address": "96BDE45EC52606CF5CB59853097871AD60680549",
            "validator_index": "55",
            "height": "34235",
            "round": "0",
            "timestamp": "2018-08-01T14:59:24.043185685Z",
            "type": 2,
            "block_id": {
              "hash": "CDB5D57157E2CFF06A7915CC9C610A1B092B942A",
              "parts": {
                "total": "1",
                "hash": "84E7D2F8400809C409063F21FDB7D0DB42416A45"
              }
            },
            "signature": {
              "type": "tendermint/SignatureEd25519",
              "value": "2ma97OXf/cQ/UEogSE+sXW/o26R9cHiaJrZJFJC7RQNMpbnTHCdJwM35kT+nla+8Qyuo8CRupjs/3ZTRIp3EBA=="
            }
          },
          {
            "validator_address": "970CD321881185BF83DB2923C321B0E75FDBB2B8",
            "validator_index": "56",
            "height": "34235",
            "round": "0",
            "timestamp": "2018-08-01T14:59:24.157288594Z",
            "type": 2,
            "block_id": {
              "hash": "CDB5D57157E2CFF06A7915CC9C610A1B092B942A",
              "parts": {
                "total": "1",
                "hash": "84E7D2F8400809C409063F21FDB7D0DB42416A45"
              }
            },
            "signature": {
              "type": "tendermint/SignatureEd25519",
              "value": "GTTvVi3T75bNjiaCDgkuKYnHBtmBMZeNsNBEU5cM807Pm3qr683vvSw38o1hCgHSY4S1fg00Ui3cfAioY4umBQ=="
            }
          },
          {
            "validator_address": "97DBB3D4B3D6C29287244864448F651DD5B07390",
            "validator_index": "57",
            "height": "34235",
            "round": "0",
            "timestamp": "2018-08-01T14:59:24.139611044Z",
            "type": 2,
            "block_id": {
              "hash": "CDB5D57157E2CFF06A7915CC9C610A1B092B942A",
              "parts": {
                "total": "1",
                "hash": "84E7D2F8400809C409063F21FDB7D0DB42416A45"
              }
            },
            "signature": {
              "type": "tendermint/SignatureEd25519",
              "value": "fSB+zbJGDHH31Og5HORtRAh03c5LLPD+XAPbSkoTARZErFFrbiH5UkmsTZfe8PQOhs93jRyxnJrpmUFDqH89Cw=="
            }
          },
          {
            "validator_address": "9C29C9B76D27586E4D9AD2AED0E943162645E55C",
            "validator_index": "58",
            "height": "34235",
            "round": "0",
            "timestamp": "2018-08-01T14:59:23.98826597Z",
            "type": 2,
            "block_id": {
              "hash": "CDB5D57157E2CFF06A7915CC9C610A1B092B942A",
              "parts": {
                "total": "1",
                "hash": "84E7D2F8400809C409063F21FDB7D0DB42416A45"
              }
            },
            "signature": {
              "type": "tendermint/SignatureEd25519",
              "value": "OWDrEeyITSVYJYNMo1dQZv6PPynSOtQmGEnKQWSxYw1tXeCxKPI1Kuo5VKQT2zWArA0+g7uJKtL68/l92mzFBA=="
            }
          },
          {
            "validator_address": "9D93AD02FE1BD7E76B9E58D7EB461088EAD011E5",
            "validator_index": "59",
            "height": "34235",
            "round": "0",
            "timestamp": "2018-08-01T14:59:24.102150836Z",
            "type": 2,
            "block_id": {
              "hash": "CDB5D57157E2CFF06A7915CC9C610A1B092B942A",
              "parts": {
                "total": "1",
                "hash": "84E7D2F8400809C409063F21FDB7D0DB42416A45"
              }
            },
            "signature": {
              "type": "tendermint/SignatureEd25519",
              "value": "3J7ulur17BxBUh5ggYbFcnHYiP4QVaejrtS82ApZnOnRBGG7hkZlbZk/rE2RNLf1GLTcOCmGMdQUSaXSAiqVBA=="
            }
          },
          {
            "validator_address": "A0A6466F4ABEA09C3B55E3709AFDE217A103209F",
            "validator_index": "60",
            "height": "34235",
            "round": "0",
            "timestamp": "2018-08-01T14:59:23.958059163Z",
            "type": 2,
            "block_id": {
              "hash": "CDB5D57157E2CFF06A7915CC9C610A1B092B942A",
              "parts": {
                "total": "1",
                "hash": "84E7D2F8400809C409063F21FDB7D0DB42416A45"
              }
            },
            "signature": {
              "type": "tendermint/SignatureEd25519",
              "value": "BwJ2MNRuPdTR/F7jqPJKj4oyKlKG2rYxf3fIMGtc6Up74nosrU8twffyMeKhalDLuOZAk2n+HltasQwUZnZtCQ=="
            }
          },
          {
            "validator_address": "A5868971300F155020634D7BB49C7634F7AACCD3",
            "validator_index": "61",
            "height": "34235",
            "round": "0",
            "timestamp": "2018-08-01T14:59:24.025537852Z",
            "type": 2,
            "block_id": {
              "hash": "CDB5D57157E2CFF06A7915CC9C610A1B092B942A",
              "parts": {
                "total": "1",
                "hash": "84E7D2F8400809C409063F21FDB7D0DB42416A45"
              }
            },
            "signature": {
              "type": "tendermint/SignatureEd25519",
              "value": "Plc/AG+D1EOvIVF9YLqD3IWb6BCF++xFURs71B3qxKrjLpKxtlqSuTfJo6a60eoCzKH2taWoYO5Gd7vTB+B7Cg=="
            }
          },
          {
            "validator_address": "A6B3A5B5D982CFD7B5FDFA15CF5A720E7AE25E7F",
            "validator_index": "62",
            "height": "34235",
            "round": "0",
            "timestamp": "2018-08-01T14:59:24.220648036Z",
            "type": 2,
            "block_id": {
              "hash": "CDB5D57157E2CFF06A7915CC9C610A1B092B942A",
              "parts": {
                "total": "1",
                "hash": "84E7D2F8400809C409063F21FDB7D0DB42416A45"
              }
            },
            "signature": {
              "type": "tendermint/SignatureEd25519",
              "value": "L7S6Jir3salgHMKVteAgCU69BwGPbze/ebisY6HOXthBzYWwA+YjuL1oQgaj4wZLytRFGiS+NNNonDeY2PmoDQ=="
            }
          },
          {
            "validator_address": "AC96444A9083890B7C7B430DB17BF1D3EA5EED04",
            "validator_index": "63",
            "height": "34235",
            "round": "0",
            "timestamp": "2018-08-01T14:59:24.110230249Z",
            "type": 2,
            "block_id": {
              "hash": "CDB5D57157E2CFF06A7915CC9C610A1B092B942A",
              "parts": {
                "total": "1",
                "hash": "84E7D2F8400809C409063F21FDB7D0DB42416A45"
              }
            },
            "signature": {
              "type": "tendermint/SignatureEd25519",
              "value": "hu1b4J1BQY0vNf1XS1e+wNV/M6vROYqqPuxxNybqErWWtTlfXY4IbqwQSXEGEZOF8uCi/7+8Fiu46pX9GR1mBw=="
            }
          },
          {
            "validator_address": "ACB97FDA2D940AF0709B73537C458EB988AD2893",
            "validator_index": "64",
            "height": "34235",
            "round": "0",
            "timestamp": "2018-08-01T14:59:24.099797883Z",
            "type": 2,
            "block_id": {
              "hash": "CDB5D57157E2CFF06A7915CC9C610A1B092B942A",
              "parts": {
                "total": "1",
                "hash": "84E7D2F8400809C409063F21FDB7D0DB42416A45"
              }
            },
            "signature": {
              "type": "tendermint/SignatureEd25519",
              "value": "wmhy04S9x+RqM2ha6qlk4bAW0gUnY8HS11BvKJnM/ZWmBv5DF/3VZdKaFgUO1l+v2Cq3R/qrddUUVqkGso3eBw=="
            }
          },
          {
            "validator_address": "B197425B3210375F211661DE02EF2AE36580EB0F",
            "validator_index": "65",
            "height": "34235",
            "round": "0",
            "timestamp": "2018-08-01T14:59:24.073830971Z",
            "type": 2,
            "block_id": {
              "hash": "CDB5D57157E2CFF06A7915CC9C610A1B092B942A",
              "parts": {
                "total": "1",
                "hash": "84E7D2F8400809C409063F21FDB7D0DB42416A45"
              }
            },
            "signature": {
              "type": "tendermint/SignatureEd25519",
              "value": "JtUfslSzsVtD8JkQSt/UrKNJEBuvDEUDqewmjVXcjNhc9IOiD7wuMRvkbsAj5iDfEfWfw8gczR6YkuLcbjGdCQ=="
            }
          },
          {
            "validator_address": "B45E54D2D1CB5A4CCD1D49016608C18E7C56B270",
            "validator_index": "66",
            "height": "34235",
            "round": "0",
            "timestamp": "2018-08-01T14:59:24.259109512Z",
            "type": 2,
            "block_id": {
              "hash": "CDB5D57157E2CFF06A7915CC9C610A1B092B942A",
              "parts": {
                "total": "1",
                "hash": "84E7D2F8400809C409063F21FDB7D0DB42416A45"
              }
            },
            "signature": {
              "type": "tendermint/SignatureEd25519",
              "value": "VGqbgNBuH4At0In5uJhd/ms2662bndNGtFso3kZbuIh0qc9PbTQ2O62qBeMt85Xy2+26uXSREf+XF4YJFkytCg=="
            }
          },
          {
            "validator_address": "BB1276BE89834835428664408917649FEEF5D90C",
            "validator_index": "67",
            "height": "34235",
            "round": "0",
            "timestamp": "2018-08-01T14:59:24.144014734Z",
            "type": 2,
            "block_id": {
              "hash": "CDB5D57157E2CFF06A7915CC9C610A1B092B942A",
              "parts": {
                "total": "1",
                "hash": "84E7D2F8400809C409063F21FDB7D0DB42416A45"
              }
            },
            "signature": {
              "type": "tendermint/SignatureEd25519",
              "value": "sCZH8c6mkaIrNoEB/xKvHcl/UEnbjvzvxZBPj39ynjv4QBGDT6FTPO3+vksp2gjLu4fskbw/Mf+UXMUfwNwtCw=="
            }
          },
          {
            "validator_address": "BC36FEDD6EF6071118A3E51859DF3831A2EC4782",
            "validator_index": "68",
            "height": "34235",
            "round": "0",
            "timestamp": "2018-08-01T14:59:23.989295179Z",
            "type": 2,
            "block_id": {
              "hash": "CDB5D57157E2CFF06A7915CC9C610A1B092B942A",
              "parts": {
                "total": "1",
                "hash": "84E7D2F8400809C409063F21FDB7D0DB42416A45"
              }
            },
            "signature": {
              "type": "tendermint/SignatureEd25519",
              "value": "Ddr4X+mZzVO3WFapwokfRqOcDPht6B0bV5EHNcY43CqApnJ2k5gZYKKaS32muSRntlLdJC1EpMrQN+KpRhfDCw=="
            }
          },
          {
            "validator_address": "BD9D0DA513BF099DB4BB6E725A4E19832789882F",
            "validator_index": "69",
            "height": "34235",
            "round": "0",
            "timestamp": "2018-08-01T14:59:24.026988868Z",
            "type": 2,
            "block_id": {
              "hash": "CDB5D57157E2CFF06A7915CC9C610A1B092B942A",
              "parts": {
                "total": "1",
                "hash": "84E7D2F8400809C409063F21FDB7D0DB42416A45"
              }
            },
            "signature": {
              "type": "tendermint/SignatureEd25519",
              "value": "ncaJ9xLZlMD5aO36tFqFya6ZCnsg2peg1hiaglcw3vilklgloDeslhrDYyOGN+emhCIUepfp4YD1HWarH1ALBw=="
            }
          },
          {
            "validator_address": "C1134A2FF8F7338E7CDB3FE57DDD2A655DEB1E22",
            "validator_index": "70",
            "height": "34235",
            "round": "0",
            "timestamp": "2018-08-01T14:59:23.253108983Z",
            "type": 2,
            "block_id": {
              "hash": "CDB5D57157E2CFF06A7915CC9C610A1B092B942A",
              "parts": {
                "total": "1",
                "hash": "84E7D2F8400809C409063F21FDB7D0DB42416A45"
              }
            },
            "signature": {
              "type": "tendermint/SignatureEd25519",
              "value": "+1iyeExT98pjuxVeTo1UWqegoB+xvU+09LRhiI1JT7iOik0WI8MZCAwPR9n0cIttPn8pWB+zhTf40Z1RFz1oDw=="
            }
          },
          {
            "validator_address": "C39A8A2B85198DCB8F23AD1F6C198E2BA7AB5D60",
            "validator_index": "71",
            "height": "34235",
            "round": "0",
            "timestamp": "2018-08-01T14:59:24.011999519Z",
            "type": 2,
            "block_id": {
              "hash": "CDB5D57157E2CFF06A7915CC9C610A1B092B942A",
              "parts": {
                "total": "1",
                "hash": "84E7D2F8400809C409063F21FDB7D0DB42416A45"
              }
            },
            "signature": {
              "type": "tendermint/SignatureEd25519",
              "value": "LU74pkZEkbcamx1N+70xf8FgiRhIcLylJH0hpODZXN6Qssl5ZpN5RoEpaqSEb3hJF3WhaQcsWIIScqPZ/j6ABw=="
            }
          },
          {
            "validator_address": "C4335190C3B5BD4BA5568BC0F99C34162D940D08",
            "validator_index": "72",
            "height": "34235",
            "round": "0",
            "timestamp": "2018-08-01T14:59:24.107592177Z",
            "type": 2,
            "block_id": {
              "hash": "CDB5D57157E2CFF06A7915CC9C610A1B092B942A",
              "parts": {
                "total": "1",
                "hash": "84E7D2F8400809C409063F21FDB7D0DB42416A45"
              }
            },
            "signature": {
              "type": "tendermint/SignatureEd25519",
              "value": "z8GUqWwiLXUUjtgMpWyelf3u/9VYd9lRI2CEZ4rKzjQ9+BiGpuwcEHERE/cyFM/LZ0mHa15Voo2lHJDGid0hAg=="
            }
          },
          {
            "validator_address": "C561CFA081677046376396922E7576E5F7B316AD",
            "validator_index": "73",
            "height": "34235",
            "round": "0",
            "timestamp": "2018-08-01T14:59:24.173772688Z",
            "type": 2,
            "block_id": {
              "hash": "CDB5D57157E2CFF06A7915CC9C610A1B092B942A",
              "parts": {
                "total": "1",
                "hash": "84E7D2F8400809C409063F21FDB7D0DB42416A45"
              }
            },
            "signature": {
              "type": "tendermint/SignatureEd25519",
              "value": "o467GRTU1HJmEKZyYF3AMVK3NSNZ+Brl6X66XnNaXKcD8HPcnEMUPUvSNbq/MvbG1DKeiZuZN4WmOaRdEbWsCQ=="
            }
          },
          {
            "validator_address": "CE589EA77B056D268D30D1DC1D68A70E0F885E95",
            "validator_index": "74",
            "height": "34235",
            "round": "0",
            "timestamp": "2018-08-01T14:59:24.047376633Z",
            "type": 2,
            "block_id": {
              "hash": "CDB5D57157E2CFF06A7915CC9C610A1B092B942A",
              "parts": {
                "total": "1",
                "hash": "84E7D2F8400809C409063F21FDB7D0DB42416A45"
              }
            },
            "signature": {
              "type": "tendermint/SignatureEd25519",
              "value": "mu3E9oGQ+IDzeKzOiszAlpsRofchdq6uB4zA0ycDga+nJ6c3xIWZ0R83kdkzmuv9wy4Ok9Z13/AFtjVWLkTrCA=="
            }
          },
          {
            "validator_address": "CEB97DB5CB18270247ABDE6CF2F84F9AEE8A2904",
            "validator_index": "75",
            "height": "34235",
            "round": "0",
            "timestamp": "2018-08-01T14:59:24.720078411Z",
            "type": 2,
            "block_id": {
              "hash": "CDB5D57157E2CFF06A7915CC9C610A1B092B942A",
              "parts": {
                "total": "1",
                "hash": "84E7D2F8400809C409063F21FDB7D0DB42416A45"
              }
            },
            "signature": {
              "type": "tendermint/SignatureEd25519",
              "value": "638FMriLJCK+dhGPlOji+FKTKVP5LNDS60IhYiVztq1Tl/UdEmpB7Xoj0kWNSWu6wzn4vuWgSQh1Dgab89gBCA=="
            }
          },
          {
            "validator_address": "CF205769734F5758CC39F907EFB73D6BAF915FB1",
            "validator_index": "76",
            "height": "34235",
            "round": "0",
            "timestamp": "2018-08-01T14:59:25.352192778Z",
            "type": 2,
            "block_id": {
              "hash": "CDB5D57157E2CFF06A7915CC9C610A1B092B942A",
              "parts": {
                "total": "1",
                "hash": "84E7D2F8400809C409063F21FDB7D0DB42416A45"
              }
            },
            "signature": {
              "type": "tendermint/SignatureEd25519",
              "value": "6I7w/eC6F7MBj+3ZyOjKF3c909av1cHBSZRY2fgvY5On0zWnxDPvY4Sy9jI3PDDAeCFumwfBcQChwaZnCOx+Dw=="
            }
          },
          {
            "validator_address": "D2134B826A1E25A955905CB79A4D8731CAFA0CCE",
            "validator_index": "77",
            "height": "34235",
            "round": "0",
            "timestamp": "2018-08-01T14:59:24.1557521Z",
            "type": 2,
            "block_id": {
              "hash": "CDB5D57157E2CFF06A7915CC9C610A1B092B942A",
              "parts": {
                "total": "1",
                "hash": "84E7D2F8400809C409063F21FDB7D0DB42416A45"
              }
            },
            "signature": {
              "type": "tendermint/SignatureEd25519",
              "value": "JlacZ4J3zvCBlFtUiB0Oqu/4lp6UQkscJjPks50QNCfBt/l4HWcfUMsFpfYxwUU4ONWfiaqH6hALmBxuLztpCw=="
            }
          },
          {
            "validator_address": "D6285C3422C8886445D53757CBE12D2B91B5A9D0",
            "validator_index": "78",
            "height": "34235",
            "round": "0",
            "timestamp": "2018-08-01T14:59:06.956640303Z",
            "type": 2,
            "block_id": {
              "hash": "CDB5D57157E2CFF06A7915CC9C610A1B092B942A",
              "parts": {
                "total": "1",
                "hash": "84E7D2F8400809C409063F21FDB7D0DB42416A45"
              }
            },
            "signature": {
              "type": "tendermint/SignatureEd25519",
              "value": "Ss07f8GgcJGtB9jFgmxUOd1+hUXkpKqYcaGUCIaXTJARYuaQdlx574pzIN5kaSJyxTLBj88+6lZDXMwomuaNCg=="
            }
          },
          {
            "validator_address": "D77FB84A729972CD3E757C9BEB61561855832B92",
            "validator_index": "79",
            "height": "34235",
            "round": "0",
            "timestamp": "2018-08-01T14:59:24.190172678Z",
            "type": 2,
            "block_id": {
              "hash": "CDB5D57157E2CFF06A7915CC9C610A1B092B942A",
              "parts": {
                "total": "1",
                "hash": "84E7D2F8400809C409063F21FDB7D0DB42416A45"
              }
            },
            "signature": {
              "type": "tendermint/SignatureEd25519",
              "value": "DOSBqW2QmJ+yoqC9y4zRyp37ye/wrVQjUT23CNLddGK7bG3oKFienRv1/I0Z2H2qe+i6cz6cB5skRNGEELIvAw=="
            }
          },
          {
            "validator_address": "DB7E6732471D3EA5C90C17A9974D9F88AB45F2FB",
            "validator_index": "80",
            "height": "34235",
            "round": "0",
            "timestamp": "2018-08-01T14:59:24.060960459Z",
            "type": 2,
            "block_id": {
              "hash": "CDB5D57157E2CFF06A7915CC9C610A1B092B942A",
              "parts": {
                "total": "1",
                "hash": "84E7D2F8400809C409063F21FDB7D0DB42416A45"
              }
            },
            "signature": {
              "type": "tendermint/SignatureEd25519",
              "value": "91hlmfXDZ9WK7Tlq2Bcnx5OCEgBgdzxkDvcdt2dj5vAhcG3JI65FEeMkVkeVs96h2jUpv2AS7mEvx9JG1+cqBA=="
            }
          },
          {
            "validator_address": "DF54B862410BCD9B5C516FBB6C56BDC826ED6FA7",
            "validator_index": "81",
            "height": "34235",
            "round": "0",
            "timestamp": "2018-08-01T14:59:24.168810944Z",
            "type": 2,
            "block_id": {
              "hash": "CDB5D57157E2CFF06A7915CC9C610A1B092B942A",
              "parts": {
                "total": "1",
                "hash": "84E7D2F8400809C409063F21FDB7D0DB42416A45"
              }
            },
            "signature": {
              "type": "tendermint/SignatureEd25519",
              "value": "5vNOFAdK4Kn/uN3sOzsTkAebjEFfs0liet1igu4Djvf3H052serrocA4hxr25It9sS2Q7bhriDmW+vmIDGbCDw=="
            }
          },
          {
            "validator_address": "DFAF0C8B1B78D6D552B0189DE3ACA351439A1319",
            "validator_index": "82",
            "height": "34235",
            "round": "0",
            "timestamp": "2018-08-01T14:59:24.035479877Z",
            "type": 2,
            "block_id": {
              "hash": "CDB5D57157E2CFF06A7915CC9C610A1B092B942A",
              "parts": {
                "total": "1",
                "hash": "84E7D2F8400809C409063F21FDB7D0DB42416A45"
              }
            },
            "signature": {
              "type": "tendermint/SignatureEd25519",
              "value": "N/7qL+enVq2Xkifzs3aHWWYX3jBOSkTyaXeh98Qrnvx3kt9fSXG6l9vJyDM1PFc5ks19vevTcRkOr67fUSqBBw=="
            }
          },
          {
            "validator_address": "E1DBC77881161A5A3A8536A57536EAE546A75D69",
            "validator_index": "83",
            "height": "34235",
            "round": "0",
            "timestamp": "2018-08-01T14:59:23.958593888Z",
            "type": 2,
            "block_id": {
              "hash": "CDB5D57157E2CFF06A7915CC9C610A1B092B942A",
              "parts": {
                "total": "1",
                "hash": "84E7D2F8400809C409063F21FDB7D0DB42416A45"
              }
            },
            "signature": {
              "type": "tendermint/SignatureEd25519",
              "value": "RKWnvBgJNbUTpJv6xDJ8/cAaBxt4a14Y9iXpozAOeGSDMMmUHUe2qGteSRnxwwt6eJ4N2Dmo2m6Pc+MmjSPNAA=="
            }
          },
          {
            "validator_address": "E300E9D484374C1D3E97C1D93CAC3B160A056298",
            "validator_index": "84",
            "height": "34235",
            "round": "0",
            "timestamp": "2018-08-01T14:59:24.251580974Z",
            "type": 2,
            "block_id": {
              "hash": "CDB5D57157E2CFF06A7915CC9C610A1B092B942A",
              "parts": {
                "total": "1",
                "hash": "84E7D2F8400809C409063F21FDB7D0DB42416A45"
              }
            },
            "signature": {
              "type": "tendermint/SignatureEd25519",
              "value": "ItlXk+HKyxiyRYEDGn33WqUcMp0BWw045M+3f6DzzHOmY5PKbgNTrpah1vHOOt0BBzzZnb2JfQPy/ht+EUESBA=="
            }
          },
          {
            "validator_address": "E39B5778E0D4297A46F45CF6940B0A163A430FF8",
            "validator_index": "85",
            "height": "34235",
            "round": "0",
            "timestamp": "2018-08-01T14:59:24.00731731Z",
            "type": 2,
            "block_id": {
              "hash": "CDB5D57157E2CFF06A7915CC9C610A1B092B942A",
              "parts": {
                "total": "1",
                "hash": "84E7D2F8400809C409063F21FDB7D0DB42416A45"
              }
            },
            "signature": {
              "type": "tendermint/SignatureEd25519",
              "value": "LB4LgZbM51Kb3vnRfZv/S5j1C0+tTR0qHjXPjkRK7vjEDsne1O18PzeTuhR3f9A7p0FbsXJGmkP4jcb9XbFUBA=="
            }
          },
          {
            "validator_address": "E3B19738F7132F950668504D326C7660F159D170",
            "validator_index": "86",
            "height": "34235",
            "round": "0",
            "timestamp": "2018-08-01T14:59:24.040943454Z",
            "type": 2,
            "block_id": {
              "hash": "CDB5D57157E2CFF06A7915CC9C610A1B092B942A",
              "parts": {
                "total": "1",
                "hash": "84E7D2F8400809C409063F21FDB7D0DB42416A45"
              }
            },
            "signature": {
              "type": "tendermint/SignatureEd25519",
              "value": "8GrekOYCm9dV8Uum7wWQPEFeXvYcyTvdfPY2SajIaGNqujjNQn0VgqpBJh2q2t7/HYWjAjPGZH3dgmRWjeexBA=="
            }
          },
          {
            "validator_address": "E42F8AEABB685219F7027F54D2B0DBC7846F633A",
            "validator_index": "87",
            "height": "34235",
            "round": "0",
            "timestamp": "2018-08-01T14:59:23.057930068Z",
            "type": 2,
            "block_id": {
              "hash": "CDB5D57157E2CFF06A7915CC9C610A1B092B942A",
              "parts": {
                "total": "1",
                "hash": "84E7D2F8400809C409063F21FDB7D0DB42416A45"
              }
            },
            "signature": {
              "type": "tendermint/SignatureEd25519",
              "value": "7QqO/aeQmC5dsVsw3H8uZmMD/6LS3k6qvFOABq7EmXGc3nKIE6TVC1ZtGN2ljrCP8M9PyarwlJMDTOJ7FtJYBQ=="
            }
          },
          {
            "validator_address": "E4E6C2E81269DFFA196C17F98240E491479A6008",
            "validator_index": "88",
            "height": "34235",
            "round": "0",
            "timestamp": "2018-08-01T14:59:24.094159157Z",
            "type": 2,
            "block_id": {
              "hash": "CDB5D57157E2CFF06A7915CC9C610A1B092B942A",
              "parts": {
                "total": "1",
                "hash": "84E7D2F8400809C409063F21FDB7D0DB42416A45"
              }
            },
            "signature": {
              "type": "tendermint/SignatureEd25519",
              "value": "g0f+ka1CEAiXcIeWbqwaFHfHPcwJefLOUlnl5dM9zp51uKBIUpgSWSyd1hbioKC9ayIJ1f04KNlbyoD/BM5vAA=="
            }
          },
          {
            "validator_address": "E4FEB2846F4F3B0ECDCBE9C9DCB2248248A5AF0F",
            "validator_index": "89",
            "height": "34235",
            "round": "0",
            "timestamp": "2018-08-01T14:59:24.270673952Z",
            "type": 2,
            "block_id": {
              "hash": "CDB5D57157E2CFF06A7915CC9C610A1B092B942A",
              "parts": {
                "total": "1",
                "hash": "84E7D2F8400809C409063F21FDB7D0DB42416A45"
              }
            },
            "signature": {
              "type": "tendermint/SignatureEd25519",
              "value": "DCdLYFcFUld92C2iEWBwbREsgoZnO1J95ccmEzPbsqPY8AtwYgSCY0txKyjSQ3eL2HIzn9rmRa4jICCwsLqNAw=="
            }
          },
          {
            "validator_address": "E50ADECD5FD27FA2CD610C07F8AED36A2FC4A6A6",
            "validator_index": "90",
            "height": "34235",
            "round": "0",
            "timestamp": "2018-08-01T14:59:23.98758798Z",
            "type": 2,
            "block_id": {
              "hash": "CDB5D57157E2CFF06A7915CC9C610A1B092B942A",
              "parts": {
                "total": "1",
                "hash": "84E7D2F8400809C409063F21FDB7D0DB42416A45"
              }
            },
            "signature": {
              "type": "tendermint/SignatureEd25519",
              "value": "h3Zy7iH5WDwMEyRVezHxFaSQ1Dw/DJl5mk6uJBLTzYD6V+AKx7oTqUOqKg6+ms/b84Gq1zkx/i2l4Xd5Nr/2Bw=="
            }
          },
          {
            "validator_address": "E6A7079D584B163750BE0831227F6B685DEAF3C1",
            "validator_index": "91",
            "height": "34235",
            "round": "0",
            "timestamp": "2018-08-01T14:59:24.179525063Z",
            "type": 2,
            "block_id": {
              "hash": "CDB5D57157E2CFF06A7915CC9C610A1B092B942A",
              "parts": {
                "total": "1",
                "hash": "84E7D2F8400809C409063F21FDB7D0DB42416A45"
              }
            },
            "signature": {
              "type": "tendermint/SignatureEd25519",
              "value": "U0s24vFBU6wvjzWwig7TxOTK7RhE7vXtLORwWtwJk3zr6cUnDun7uSPHepqQsQJEATU7vrYsAX9eCKDUA9/eAg=="
            }
          },
          {
            "validator_address": "E7A30077D5D11867D3EAF99ED45BFDC1EB834509",
            "validator_index": "92",
            "height": "34235",
            "round": "0",
            "timestamp": "2018-08-01T14:59:24.020253871Z",
            "type": 2,
            "block_id": {
              "hash": "CDB5D57157E2CFF06A7915CC9C610A1B092B942A",
              "parts": {
                "total": "1",
                "hash": "84E7D2F8400809C409063F21FDB7D0DB42416A45"
              }
            },
            "signature": {
              "type": "tendermint/SignatureEd25519",
              "value": "BBsK+ZUSqF7sNuI49GfnXcuWiJGewX7kyC6vfJ+1f7yx6+S4X0LycsvvggOhsY5U5wD9uCTzxqcUC/3vnekxBA=="
            }
          },
          {
            "validator_address": "EBC613967F66F4EC306852CDF58B4F151CF16738",
            "validator_index": "93",
            "height": "34235",
            "round": "0",
            "timestamp": "2018-08-01T14:59:24.157311399Z",
            "type": 2,
            "block_id": {
              "hash": "CDB5D57157E2CFF06A7915CC9C610A1B092B942A",
              "parts": {
                "total": "1",
                "hash": "84E7D2F8400809C409063F21FDB7D0DB42416A45"
              }
            },
            "signature": {
              "type": "tendermint/SignatureEd25519",
              "value": "IA6MLw5PQFfzKRxHupBI6tdZDGTbdmcR3J8IMpEmx02QzUF41GtRjZONoBx10bKXXYalmL3eHlteaVFnj/SiBg=="
            }
          },
          {
            "validator_address": "EC3401441726C40ECC7E51F744483B05BC6DE9BD",
            "validator_index": "94",
            "height": "34235",
            "round": "0",
            "timestamp": "2018-08-01T14:59:24.028720795Z",
            "type": 2,
            "block_id": {
              "hash": "CDB5D57157E2CFF06A7915CC9C610A1B092B942A",
              "parts": {
                "total": "1",
                "hash": "84E7D2F8400809C409063F21FDB7D0DB42416A45"
              }
            },
            "signature": {
              "type": "tendermint/SignatureEd25519",
              "value": "SWJ9qLh1AYlYYm6/l99iRJ/B9bzyCSWzgntJ09yj1sHwz0P9HsAcfuREwdcj5UfUzUqhQADV6fGV0iJrwuP6Bw=="
            }
          },
          {
            "validator_address": "EC95B111D032181E1EC3B5E8875C5BB8E4AE7140",
            "validator_index": "95",
            "height": "34235",
            "round": "0",
            "timestamp": "2018-08-01T14:59:23.991557502Z",
            "type": 2,
            "block_id": {
              "hash": "CDB5D57157E2CFF06A7915CC9C610A1B092B942A",
              "parts": {
                "total": "1",
                "hash": "84E7D2F8400809C409063F21FDB7D0DB42416A45"
              }
            },
            "signature": {
              "type": "tendermint/SignatureEd25519",
              "value": "X5kC0VH4B54/eGDcxcmWI9h0FXEk76gRlIVguXSN9vcljXfrOAwXilKjsAdqBch2cyZy0zQk0nnKzoDdFxd3BQ=="
            }
          },
          {
            "validator_address": "F23FF36BD5B90C33CE3A03ED72DBDCF5EC07D6AF",
            "validator_index": "96",
            "height": "34235",
            "round": "0",
            "timestamp": "2018-08-01T14:59:24.063403329Z",
            "type": 2,
            "block_id": {
              "hash": "CDB5D57157E2CFF06A7915CC9C610A1B092B942A",
              "parts": {
                "total": "1",
                "hash": "84E7D2F8400809C409063F21FDB7D0DB42416A45"
              }
            },
            "signature": {
              "type": "tendermint/SignatureEd25519",
              "value": "4LUjcVynzQysdMBuXdCO8U8Kgqqih8g1N5jvC8eXuVdhpj4yQYpnd4bqR26KBi2T+m1fzXxCariNm5LfwIgjDg=="
            }
          },
          {
            "validator_address": "F4268597DE93E3E2CED38845010F8AA34E2A879E",
            "validator_index": "97",
            "height": "34235",
            "round": "0",
            "timestamp": "2018-08-01T14:59:24.083265644Z",
            "type": 2,
            "block_id": {
              "hash": "CDB5D57157E2CFF06A7915CC9C610A1B092B942A",
              "parts": {
                "total": "1",
                "hash": "84E7D2F8400809C409063F21FDB7D0DB42416A45"
              }
            },
            "signature": {
              "type": "tendermint/SignatureEd25519",
              "value": "iblpYpeoXSJPpFJV14QX0BDsUKRZpwo7fZqs2DhdA3Kty6cw7wmXOtVGAver2m5SYZ1i7n+9wB2JJY8bv2JUCQ=="
            }
          },
          {
            "validator_address": "F4DEB417999B04BE2EFF9FFE03FA373D86011CC0",
            "validator_index": "98",
            "height": "34235",
            "round": "0",
            "timestamp": "2018-08-01T14:59:24.022674656Z",
            "type": 2,
            "block_id": {
              "hash": "CDB5D57157E2CFF06A7915CC9C610A1B092B942A",
              "parts": {
                "total": "1",
                "hash": "84E7D2F8400809C409063F21FDB7D0DB42416A45"
              }
            },
            "signature": {
              "type": "tendermint/SignatureEd25519",
              "value": "YBYzhE2XHsiJ0PRPGVq3Rix9lk5DfrBLglOvXjSA2mzXExA7oTXQ6rhqe5zO/dG7T7eZq4/8fq04myKctXbUBQ=="
            }
          },
          {
            "validator_address": "F6738260186D33D9C14FC6E7017AFE6BB952A63D",
            "validator_index": "99",
            "height": "34235",
            "round": "0",
            "timestamp": "2018-08-01T14:59:24.060821913Z",
            "type": 2,
            "block_id": {
              "hash": "CDB5D57157E2CFF06A7915CC9C610A1B092B942A",
              "parts": {
                "total": "1",
                "hash": "84E7D2F8400809C409063F21FDB7D0DB42416A45"
              }
            },
            "signature": {
              "type": "tendermint/SignatureEd25519",
              "value": "V9gF8O9HyejgNLiF7FVyzMOAHWSGJ8S5+tq5fYOHM/PPyojmaxo+EPDL7OHuexQgNBPSyVfRRlHsm0tvodwzDA=="
            }
          },
          {
            "validator_address": "FF3F3FCBCE7E62D7AD5506FF846EC4518D980515",
            "validator_index": "100",
            "height": "34235",
            "round": "0",
            "timestamp": "2018-08-01T14:59:23.960887776Z",
            "type": 2,
            "block_id": {
              "hash": "CDB5D57157E2CFF06A7915CC9C610A1B092B942A",
              "parts": {
                "total": "1",
                "hash": "84E7D2F8400809C409063F21FDB7D0DB42416A45"
              }
            },
            "signature": {
              "type": "tendermint/SignatureEd25519",
              "value": "AYujw+tbrBtxIm1K4OB0ZhFgdj4jd7bDrPsIalacRfbc4TSzw4Ufnpbhj91OrJZO3hdtldrw1czhrSQEvQ28Ag=="
            }
          }
        ]
      }
    },
    "canonical": true
  }
}