{
  "jsonrpc": "2.0",
  "id": "",
  "result": {
    "SignedHeader": {
      "header": {
        "chain_id": "gaia-7004",
        "height": "3430",
        "time": "2018-07-30T10:47:29.780729713Z",
        "num_txs": "0",
        "last_block_id": {
          "hash": "0BADF23EF06FACE72C27728BE493387BFB3739C6",
          "parts": {
            "total": "1",
            "hash": "7CE40574BEA5303DD69700DAB1284BC882846E6A"
          }
        },
        "total_txs": "55",
        "last_commit_hash": "04787336CA74C0CF6DCE93AE52D977A93EA3A3DA",
        "data_hash": "",
        "validators_hash": "993C3D1DAE65F1927AA67806553D81E1D3702BDB",
        "consensus_hash": "D6B74BB35BDFFD8392340F2A379173548AE188FE",
        "app_hash": "D6029C4CDB734698D485DA3DB599D3521CF21A88",
        "last_results_hash": "",
        "evidence_hash": ""
      },
      "commit": {
        "block_id": {
          "hash": "9080B798601EB58048C7E8AAB17FDDABFD2248A8",
          "parts": {
            "total": "1",
            "hash": "D736CF3A5C6AFCC7BDF174A0F9A68C1B6DAB5DE3"
          }
        },
        "precommits": [
          {
            "validator_address": "029359C0C768096273A68ABC902A6B17AC8D1D70",
            "validator_index": "0",
            "height": "3430",
            "round": "1",
            "timestamp": "2018-07-30T10:47:30.540408431Z",
            "type": 2,
            "block_id": {
              "hash": "9080B798601EB58048C7E8AAB17FDDABFD2248A8",
              "parts": {
                "total": "1",
                "hash": "D736CF3A5C6AFCC7BDF174A0F9A68C1B6DAB5DE3"
              }
            },
            "signature": {
              "type": "tendermint/SignatureEd25519",
              "value": "xqHtclX8rZQ7+Z9pvJdHOqCrtYcoItK2delWhBAZ+Wlyn4iD8phGbn7405inE3T0+eTlOOoJb4Uhken+GQAUCQ=="
            }
          },
          {
            "validator_address": "02FE4B97A8387F39D1AC19E0C1702B3CC614812F",
            "validator_index": "1",
            "height": "3430",
            "round": "1",
            "timestamp": "2018-07-30T10:47:30.630737517Z",
            "type": 2,
            "block_id": {
              "hash": "9080B798601EB58048C7E8AAB17FDDABFD2248A8",
              "parts": {
                "total": "1",
                "hash": "D736CF3A5C6AFCC7BDF174A0F9A68C1B6DAB5DE3"
              }
            },
            "signature": {
              "type": "tendermint/SignatureEd25519",
              "value": "+x8W5rPYlcHxSYAZTTgGZMr0iu+xxe5wAF0y2RwRb6T+yAOlLMk0kPk0klPVSWB+Vz0ZA3+S7vqIzlsQgMqJCw=="
            }
          },
          {
            "validator_address": "0548261C50222FD710EB5EBDF03A0E6567B21D20",
            "validator_index": "2",
            "height": "3430",
            "round": "1",
            "timestamp": "2018-07-30T10:47:30.647558547Z",
            "type": 2,
            "block_id": {
              "hash": "9080B798601EB58048C7E8AAB17FDDABFD2248A8",
              "parts": {
                "total": "1",
                "hash": "D736CF3A5C6AFCC7BDF174A0F9A68C1B6DAB5DE3"
              }
            },
            "signature": {
              "type": "tendermint/SignatureEd25519",
              "value": "vhxNTWC5w9oZCQnKwYmNA0Ld9qCSEt1hg0fiEgASx8g+Q/QQS5V5+eRXNmxP3GmxWiqfK7LQMQMMRAmFKEIPBQ=="
            }
          },
          null,
          {
            "validator_address": "09145E611CC27EEB944FC5A956DDF710F943B9EF",
            "validator_index": "4",
            "height": "3430",
            "round": "1",
            "timestamp": "2018-07-30T10:47:30.662071122Z",
            "type": 2,
            "block_id": {
              "hash": "9080B798601EB58048C7E8AAB17FDDABFD2248A8",
              "parts": {
                "total": "1",
                "hash": "D736CF3A5C6AFCC7BDF174A0F9A68C1B6DAB5DE3"
              }
            },
            "signature": {
              "type": "tendermint/SignatureEd25519",
              "value": "Eg3kxD7p79k/VBsbUVekkDivdM0G1iQH0Hjr2H81CR65YYptTeG2xpxz5Dd4W3SLoY0J8MfUGfqMJhZeQAVnAg=="
            }
          },
          {
            "validator_address": "0989D0355A104B67AE0AE028C68FB610690E174B",
            "validator_index": "5",
            "height": "3430",
            "round": "1",
            "timestamp": "2018-07-30T10:47:30.620268199Z",
            "type": 2,
            "block_id": {
              "hash": "9080B798601EB58048C7E8AAB17FDDABFD2248A8",
              "parts": {
                "total": "1",
                "hash": "D736CF3A5C6AFCC7BDF174A0F9A68C1B6DAB5DE3"
              }
            },
            "signature": {
              "type": "tendermint/SignatureEd25519",
              "value": "xyV2xK6wRW9tY9qag50g1qcbJJqdy2GvKZxRG15mWCIVMqCueFxmGQDlz2q03N1qSkTxGWu6FD4AYk0F5e4uDQ=="
            }
          },
          {
            "validator_address": "0A692DBFFE9E5DD28E7DECC33CED1AEB4C0D014E",
            "validator_index": "6",
            "height": "3430",
            "round": "1",
            "timestamp": "2018-07-30T10:47:30.817454104Z",
            "type": 2,
            "block_id": {
              "hash": "9080B798601EB58048C7E8AAB17FDDABFD2248A8",
              "parts": {
                "total": "1",
                "hash": "D736CF3A5C6AFCC7BDF174A0F9A68C1B6DAB5DE3"
              }
            },
            "signature": {
              "type": "tendermint/SignatureEd25519",
              "value": "GP2JmZauMkqaW5iR7Tsk4lTSkwndyhlsONqna5DpJ2qLgItLpQsDLEx4q8rUgq2g+ex9jz9saL9IXMK/W2QSBA=="
            }
          },
          {
            "validator_address": "0DDF97111D73DB825138EC15EC27DE5FE8536901",
            "validator_index": "7",
            "height": "3430",
            "round": "1",
            "timestamp": "2018-07-30T10:47:30.686857896Z",
            "type": 2,
            "block_id": {
              "hash": "9080B798601EB58048C7E8AAB17FDDABFD2248A8",
              "parts": {
                "total": "1",
                "hash": "D736CF3A5C6AFCC7BDF174A0F9A68C1B6DAB5DE3"
              }
            },
            "signature": {
              "type": "tendermint/SignatureEd25519",
              "value": "X3H7eqmwJ4XX3ZQ1t/XD6yAxN3VgLUonw2UjjDZg6pRMaFK8GEj6ksYGQHJd8FEfk2i/O4czdZllZMCBBRWUCw=="
            }
          },
          {
            "validator_address": "0F3FB8F818BE494E8F5597D9A8ACA57C8C5E72B7",
            "validator_index": "8",
            "height": "3430",
            "round": "1",
            "timestamp": "2018-07-30T10:47:30.710726315Z",
            "type": 2,
            "block_id": {
              "hash": "9080B798601EB58048C7E8AAB17FDDABFD2248A8",
              "parts": {
                "total": "1",
                "hash": "D736CF3A5C6AFCC7BDF174A0F9A68C1B6DAB5DE3"
              }
            },
            "signature": {
              "type": "tendermint/SignatureEd25519",
              "value": "JhnsbNwRqZ63LQhiXCqFU+AxqGN3xRLb+h/sL3UDzPr+QmHBuzgAS53TF70uTA8MaEtdtB4skG1w15DcTg1mBQ=="
            }
          },
          {
            "validator_address": "1751786EFC085D5331C61168FFFC8202EA151B4E",
            "validator_index": "9",
            "height": "3430",
            "round": "1",
            "timestamp": "2018-07-30T10:47:30.119504379Z",
            "type": 2,
            "block_id": {
              "hash": "9080B798601EB58048C7E8AAB17FDDABFD2248A8",
              "parts": {
                "total": "1",
                "hash": "D736CF3A5C6AFCC7BDF174A0F9A68C1B6DAB5DE3"
              }
            },
            "signature": {
              "type": "tendermint/SignatureEd25519",
              "value": "7EoZgNXdwc8k93jzounVpgZURAHHwTU8i4eZqaZ378KbAz/TFdLrjGWDKmRzYdxvT/lM2t0/oXySUGQAsPZRDw=="
            }
          },
          {
            "validator_address": "17BB5CD01E8940FAFB948A04D5FA5A0645E5822E",
            "validator_index": "10",
            "height": "3430",
            "round": "1",
            "timestamp": "2018-07-30T10:47:30.60941556Z",
            "type": 2,
            "block_id": {
              "hash": "9080B798601EB58048C7E8AAB17FDDABFD2248A8",
              "parts": {
                "total": "1",
                "hash": "D736CF3A5C6AFCC7BDF174A0F9A68C1B6DAB5DE3"
              }
            },
            "signature": {
              "type": "tendermint/SignatureEd25519",
              "value": "OPWq2zhsMObHuxBxLChiQqdFOFVhHww2NthcGp5SEyqOeTMClfiMCTFzGLTIVvCPXNmYbN1wNm2Te1u+1TrlDA=="
            }
          },
          null,
          {
            "validator_address": "1E9CE94FD0BA5CFEB901F90BC658D64D85B134D2",
            "validator_index": "12",
            "height": "3430",
            "round": "1",
            "timestamp": "2018-07-30T10:47:30.62432883Z",
            "type": 2,
            "block_id": {
              "hash": "9080B798601EB58048C7E8AAB17FDDABFD2248A8",
              "parts": {
                "total": "1",
                "hash": "D736CF3A5C6AFCC7BDF174A0F9A68C1B6DAB5DE3"
              }
            },
            "signature": {
              "type": "tendermint/SignatureEd25519",
              "value": "/HDbshBFcPNBzy6U07wI7L2LXJOl36GoJZXkvOq/lva2eSFGZ3xACyORvFYD78plRTgVg/aXiqJt3Z5r9BiOAA=="
            }
          },
          {
            "validator_address": "1ECD8C5FE1341D74CDC633A245DD56858DE2F9A2",
            "validator_index": "13",
            "height": "3430",
            "round": "1",
            "timestamp": "2018-07-30T10:47:30.668885186Z",
            "type": 2,
            "block_id": {
              "hash": "9080B798601EB58048C7E8AAB17FDDABFD2248A8",
              "parts": {
                "total": "1",
                "hash": "D736CF3A5C6AFCC7BDF174A0F9A68C1B6DAB5DE3"
              }
            },
            "signature": {
              "type": "tendermint/SignatureEd25519",
              "value": "FYMLh2kmEnFdUiovU4kxJqymJaD99tNmPr4fg2IrqxaIbuFITLgw9gn+1LPv3P/H/PJ/FYeeFMl7t6TV2SCuAQ=="
            }
          },
          null,
          null,
          {
            "validator_address": "23897586D68E2AC1C78E0EF5BB5DF5C8EAB18F50",
            "validator_index": "16",
            "height": "3430",
            "round": "1",
            "timestamp": "2018-07-30T10:47:30.568305554Z",
            "type": 2,
            "block_id": {
              "hash": "9080B798601EB58048C7E8AAB17FDDABFD2248A8",
              "parts": {
                "total": "1",
                "hash": "D736CF3A5C6AFCC7BDF174A0F9A68C1B6DAB5DE3"
              }
            },
            "signature": {
              "type": "tendermint/SignatureEd25519",
              "value": "avDgbpIkhZZ9nOo8dMnCe2TCAI0e8uuWHE1ZGHZ0czmWLvIZXp5MFqJ9wxaaqQG9Vc3OZ0ABYq+iCQHxI71aAg=="
            }
          },
          {
            "validator_address": "28770D17E8530825E7310A0659308654B7EC9682",
            "validator_index": "17",
            "height": "3430",
            "round": "1",
            "timestamp": "2018-07-30T10:47:30.635099471Z",
            "type": 2,
            "block_id": {
              "hash": "9080B798601EB58048C7E8AAB17FDDABFD2248A8",
              "parts": {
                "total": "1",
                "hash": "D736CF3A5C6AFCC7BDF174A0F9A68C1B6DAB5DE3"
              }
            },
            "signature": {
              "type": "tendermint/SignatureEd25519",
              "value": "mU3ewf4WapVThsAa3CvStw6XD69cW0BKXIPL+OyNOwmmJ5ULfeKCpaMcBx7fzPjGzhpZutpEImRaNg06ulW0Bw=="
            }
          },
          null,
          {
            "validator_address": "2A92EC3C642140202298D0E245095E0ECFC25228",
            "validator_index": "19",
            "height": "3430",
            "round": "1",
            "timestamp": "2018-07-30T10:47:30.621211628Z",
            "type": 2,
            "block_id": {
              "hash": "9080B798601EB58048C7E8AAB17FDDABFD2248A8",
              "parts": {
                "total": "1",
                "hash": "D736CF3A5C6AFCC7BDF174A0F9A68C1B6DAB5DE3"
              }
            },
            "signature": {
              "type": "tendermint/SignatureEd25519",
              "value": "dGDnxPsZAEAQfvcOGHmc6d+myvY0bt1QhWydjFNGP749hsRV02cYHEb352VdnmV5e+PRXqxNzA+L4n8yCYElDw=="
            }
          },
          null,
          null,
          {
            "validator_address": "33412C9A69C60CB0FAA24A5C5B3A906DE24B47C2",
            "validator_index": "22",
            "height": "3430",
            "round": "1",
            "timestamp": "2018-07-30T10:47:30.516608714Z",
            "type": 2,
            "block_id": {
              "hash": "9080B798601EB58048C7E8AAB17FDDABFD2248A8",
              "parts": {
                "total": "1",
                "hash": "D736CF3A5C6AFCC7BDF174A0F9A68C1B6DAB5DE3"
              }
            },
            "signature": {
              "type": "tendermint/SignatureEd25519",
              "value": "yGMRfgGqMdgprnF4oBhpWpW/nx+OoIyp4LbaDLwuKNNjl7ZQlL8PXdqW0/dRFvWU2B4sFDewpt6CiyjqxR3MDQ=="
            }
          },
          null,
          {
            "validator_address": "36E9B7FAEC964F97D84C028ED62493E373AD0B38",
            "validator_index": "24",
            "height": "3430",
            "round": "1",
            "timestamp": "2018-07-30T10:47:30.697304718Z",
            "type": 2,
            "block_id": {
              "hash": "9080B798601EB58048C7E8AAB17FDDABFD2248A8",
              "parts": {
                "total": "1",
                "hash": "D736CF3A5C6AFCC7BDF174A0F9A68C1B6DAB5DE3"
              }
            },
            "signature": {
              "type": "tendermint/SignatureEd25519",
              "value": "5jVfl2kJ21qU0tHs4P9g3oKCyLJYs/PZRBd0OdgJR3VHXo/XRTOWl2Z6KjrJKLfyTmgIv0W7k7sBl4IPgcEyCQ=="
            }
          },
          {
            "validator_address": "38A8D85D36BEA2E5FCF8A1E778F53628E450EF13",
            "validator_index": "25",
            "height": "3430",
            "round": "1",
            "timestamp": "2018-07-30T10:47:30.657780684Z",
            "type": 2,
            "block_id": {
              "hash": "9080B798601EB58048C7E8AAB17FDDABFD2248A8",
              "parts": {
                "total": "1",
                "hash": "D736CF3A5C6AFCC7BDF174A0F9A68C1B6DAB5DE3"
              }
            },
            "signature": {
              "type": "tendermint/SignatureEd25519",
              "value": "c2oNXtHoHUgiVw0O81kBESmdsJL4GVRvvNrcohPCu2z9BgD/2GRSn1WHymNyZrzp9pjg4JGPlFRoVOJjJ7v2CQ=="
            }
          },
          {
            "validator_address": "39DFDA0C5DB84B269642188B23253508537798E6",
            "validator_index": "26",
            "height": "3430",
            "round": "1",
            "timestamp": "2018-07-30T10:47:30.588397389Z",
            "type": 2,
            "block_id": {
              "hash": "9080B798601EB58048C7E8AAB17FDDABFD2248A8",
              "parts": {
                "total": "1",
                "hash": "D736CF3A5C6AFCC7BDF174A0F9A68C1B6DAB5DE3"
              }
            },
            "signature": {
              "type": "tendermint/SignatureEd25519",
              "value": "xHx0jQNtBWz6j7LAWPrT2hkKB2ZlG+G+jSiEgiSAnC4cLtP4Sfx+pN+2WcF3BIDA99MJjwEvv+sUmkO3ZF6oBw=="
            }
          },
          {
            "validator_address": "3AC99B708404452366E0953A4BE849226DC86CBC",
            "validator_index": "27",
            "height": "3430",
            "round": "1",
            "timestamp": "2018-07-30T10:47:30.607564273Z",
            "type": 2,
            "block_id": {
              "hash": "9080B798601EB58048C7E8AAB17FDDABFD2248A8",
              "parts": {
                "total": "1",
                "hash": "D736CF3A5C6AFCC7BDF174A0F9A68C1B6DAB5DE3"
              }
            },
            "signature": {
              "type": "tendermint/SignatureEd25519",
              "value": "U22LrEkOUf8GUdTRi1SOIjum7DpkIMyv90yXRmP9UkN5CWeT0qkWTF0rIXpP1nZLQ2pWMRxE2cpcBE9c+pVfDA=="
            }
          },
          {
            "validator_address": "3DCB822A10ED319EC7C4393D8E3FD4A41B15AAF2",
            "validator_index": "28",
            "height": "3430",
            "round": "1",
            "timestamp": "2018-07-30T10:47:30.563744835Z",
            "type": 2,
            "block_id": {
              "hash": "9080B798601EB58048C7E8AAB17FDDABFD2248A8",
              "parts": {
                "total": "1",
                "hash": "D736CF3A5C6AFCC7BDF174A0F9A68C1B6DAB5DE3"
              }
            },
            "signature": {
              "type": "tendermint/SignatureEd25519",
              "value": "kaGHeYcvjrNwoqB05dPkuk2lucUCKosl7cP7Sk65wBPvI4Nii6jVb6L58GHIYoZhLsqKH/Gv4exngGyBd2SMAg=="
            }
          },
          {
            "validator_address": "3E899BA36A93C7370347BD5FE85909F2ECD93F8C",
            "validator_index": "29",
            "height": "3430",
            "round": "1",
            "timestamp": "2018-07-30T10:47:30.630251389Z",
            "type": 2,
            "block_id": {
              "hash": "9080B798601EB58048C7E8AAB17FDDABFD2248A8",
              "parts": {
                "total": "1",
                "hash": "D736CF3A5C6AFCC7BDF174A0F9A68C1B6DAB5DE3"
              }
            },
            "signature": {
              "type": "tendermint/SignatureEd25519",
              "value": "frNY75BlSkULh3dMasANDEc91vvOP52TW3mwHKxpJthRMN3ak2+vuzLeUFXI6ZxFfKp1M1uLIT78KUwrxmeWAQ=="
            }
          },
          {
            "validator_address": "41CAB2E29E7D0F2282E3275938F188FF9386B84C",
            "validator_index": "30",
            "height": "3430",
            "round": "1",
            "timestamp": "2018-07-30T10:47:30.601319174Z",
            "type": 2,
            "block_id": {
              "hash": "9080B798601EB58048C7E8AAB17FDDABFD2248A8",
              "parts": {
                "total": "1",
                "hash": "D736CF3A5C6AFCC7BDF174A0F9A68C1B6DAB5DE3"
              }
            },
            "signature": {
              "type": "tendermint/SignatureEd25519",
              "value": "ezFA5b8jWjK0sQ1RtP/5EmKuKS1yWC7FyCEu+fbLJFRH7e8LD9YLkfA4Fcg5B7n+OA+c18kno9Av6QMEr4MyBg=="
            }
          },
          {
            "validator_address": "462B656869DB02A8FD1077E255F8CC7401DC37C6",
            "validator_index": "31",
            "height": "3430",
            "round": "1",
            "timestamp": "2018-07-30T10:47:30.60971313Z",
            "type": 2,
            "block_id": {
              "hash": "9080B798601EB58048C7E8AAB17FDDABFD2248A8",
              "parts": {
                "total": "1",
                "hash": "D736CF3A5C6AFCC7BDF174A0F9A68C1B6DAB5DE3"
              }
            },
            "signature": {
              "type": "tendermint/SignatureEd25519",
              "value": "15MPSCVTQjcLIRGksBF35cdZAT95bb1ddl3X+9YVJkro4+RFp97lovj0Es0msF2UgG6GhfLn8wmlNz7PQgLECg=="
            }
          },
          {
            "validator_address": "48E5118163E5442068A1B5A42D2EEDBB75724935",
            "validator_index": "32",
            "height": "3430",
            "round": "1",
            "timestamp": "2018-07-30T10:47:30.739015731Z",
            "type": 2,
            "block_id": {
              "hash": "9080B798601EB58048C7E8AAB17FDDABFD2248A8",
              "parts": {
                "total": "1",
                "hash": "D736CF3A5C6AFCC7BDF174A0F9A68C1B6DAB5DE3"
              }
            },
            "signature": {
              "type": "tendermint/SignatureEd25519",
              "value": "RCGVva7MdujrrDPTXWK0J4txBa3PuHjGiyDQV9ywwscWil3StZfBb6ZX5aNx0ky0yP36g48bEWrutWWEzBFMBw=="
            }
          },
          null,
          {
            "validator_address": "4944F8BBBB5303E17BC0607DF332320EDBC750EA",
            "validator_index": "34",
            "height": "3430",
            "round": "1",
            "timestamp": "2018-07-30T10:47:30.563757565Z",
            "type": 2,
            "block_id": {
              "hash": "9080B798601EB58048C7E8AAB17FDDABFD2248A8",
              "parts": {
                "total": "1",
                "hash": "D736CF3A5C6AFCC7BDF174A0F9A68C1B6DAB5DE3"
              }
            },
            "signature": {
              "type": "tendermint/SignatureEd25519",
              "value": "FkFc98Nk5EHfE4ocenncvAj8obxpYteYfZL5WTgMYoWxUsHE9so9dZwDVIb9lqBNVITyG4BqqrBp4njMPIDFCw=="
            }
          },
          {
            "validator_address": "49841599DE675157CBE1E7D6B35BF8FFC23BD5CB",
            "validator_index": "35",
            "height": "3430",
            "round": "1",
            "timestamp": "2018-07-30T10:47:30.569299293Z",
            "type": 2,
            "block_id": {
              "hash": "9080B798601EB58048C7E8AAB17FDDABFD2248A8",
              "parts": {
                "total": "1",
                "hash": "D736CF3A5C6AFCC7BDF174A0F9A68C1B6DAB5DE3"
              }
            },
            "signature": {
              "type": "tendermint/SignatureEd25519",
              "value": "w5DAUKnjAMCWNMMNadEH2xV9KQVImGs7A4axOdhjo6j7tL4sTAAERCGNoX4zQEqXOYRm1nKBSsClqQiN6tGWBg=="
            }
          },
          {
            "validator_address": "5104F488EA6B1E2C33CBDA3C18389C88104DBC72",
            "validator_index": "36",
            "height": "3430",
            "round": "1",
            "timestamp": "2018-07-30T10:47:30.638127447Z",
            "type": 2,
            "block_id": {
              "hash": "9080B798601EB58048C7E8AAB17FDDABFD2248A8",
              "parts": {
                "total": "1",
                "hash": "D736CF3A5C6AFCC7BDF174A0F9A68C1B6DAB5DE3"
              }
            },
            "signature": {
              "type": "tendermint/SignatureEd25519",
              "value": "eRDDpOBvcs48J4GWhzuDhscxP8+ty17rufYGWtPbqU+cUVsX/9BSfDyP1IycFe/xTpnvzeqo0rbZJkgKRs4DAw=="
            }
          },
          {
            "validator_address": "51386C2CF9556821D114D7E4945806802BADB28D",
            "validator_index": "37",
            "height": "3430",
            "round": "1",
            "timestamp": "2018-07-30T10:47:30.627427735Z",
            "type": 2,
            "block_id": {
              "hash": "9080B798601EB58048C7E8AAB17FDDABFD2248A8",
              "parts": {
                "total": "1",
                "hash": "D736CF3A5C6AFCC7BDF174A0F9A68C1B6DAB5DE3"
              }
            },
            "signature": {
              "type": "tendermint/SignatureEd25519",
              "value": "YP2mbIx9j+QbTMpmNdeEzKKGDIecgn69Ee7GpW75qeL2JMvEBaO/Jtkg/A87txPqK+hE+u5QMW+fMcF/USIbBw=="
            }
          },
          {
            "validator_address": "543564ECA3AFEFADC73EE8591AAC3A96F079BC8A",
            "validator_index": "38",
            "height": "3430",
            "round": "1",
            "timestamp": "2018-07-30T10:47:30.620420802Z",
            "type": 2,
            "block_id": {
              "hash": "9080B798601EB58048C7E8AAB17FDDABFD2248A8",
              "parts": {
                "total": "1",
                "hash": "D736CF3A5C6AFCC7BDF174A0F9A68C1B6DAB5DE3"
              }
            },
            "signature": {
              "type": "tendermint/SignatureEd25519",
              "value": "hj/ehFY/xsDfaWSV0Wa4TIDzKZHSMwFsR3sv8n5LwF1fn0RZyzPcPmXYU1hsvpZZq5qw7c98zOIm8J9cpQHoCg=="
            }
          },
          {
            "validator_address": "55D67B1A6DC13E96F8754A5A42EABC20F7F86664",
            "validator_index": "39",
            "height": "3430",
            "round": "1",
            "timestamp": "2018-07-30T10:47:30.607299106Z",
            "type": 2,
            "block_id": {
              "hash": "9080B798601EB58048C7E8AAB17FDDABFD2248A8",
              "parts": {
                "total": "1",
                "hash": "D736CF3A5C6AFCC7BDF174A0F9A68C1B6DAB5DE3"
              }
            },
            "signature": {
              "type": "tendermint/SignatureEd25519",
              "value": "xN/ZQPVxsZuXz8B252ZsPSkgrbbzAW5MWV6ekRMYB0cq/eFqGlTcLWQRywY+/54ARAZSGgmC/Q5Ht7mULjnSCg=="
            }
          },
          {
            "validator_address": "570B6A755ED339EAC56BB3390A48069F6AC9449B",
            "validator_index": "40",
            "height": "3430",
            "round": "1",
            "timestamp": "2018-07-30T10:47:30.573838007Z",
            "type": 2,
            "block_id": {
              "hash": "9080B798601EB58048C7E8AAB17FDDABFD2248A8",
              "parts": {
                "total": "1",
                "hash": "D736CF3A5C6AFCC7BDF174A0F9A68C1B6DAB5DE3"
              }
            },
            "signature": {
              "type": "tendermint/SignatureEd25519",
              "value": "gptckZDsz3dbhJbk5kBat+J8W4Cm1nAhdNc9XEpY1M7RT94DwqRjJ3VbcNNk5vhAgM5wlZbK3y90WbQAAjlfBQ=="
            }
          },
          {
            "validator_address": "5BDF8EA41B1835FBAD865B181A2A4B23F511B5E4",
            "validator_index": "41",
            "height": "3430",
            "round": "1",
            "timestamp": "2018-07-30T10:47:30.545231061Z",
            "type": 2,
            "block_id": {
              "hash": "9080B798601EB58048C7E8AAB17FDDABFD2248A8",
              "parts": {
                "total": "1",
                "hash": "D736CF3A5C6AFCC7BDF174A0F9A68C1B6DAB5DE3"
              }
            },
            "signature": {
              "type": "tendermint/SignatureEd25519",
              "value": "fUFzO7XzJlpQoqQGUXqeSq35BJTNbhVb4kRaZT+JdTbUPcPmYe8KMs0ix2gi6MVfv5gSq+0w5PlXCMKM/JwLBw=="
            }
          },
          null,
          null,
          {
            "validator_address": "60229E2E273297FE00219E46DFFB8F76844CDEF9",
            "validator_index": "44",
            "height": "3430",
            "round": "1",
            "timestamp": "2018-07-30T10:47:30.164418039Z",
            "type": 2,
            "block_id": {
              "hash": "9080B798601EB58048C7E8AAB17FDDABFD2248A8",
              "parts": {
                "total": "1",
                "hash": "D736CF3A5C6AFCC7BDF174A0F9A68C1B6DAB5DE3"
              }
            },
            "signature": {
              "type": "tendermint/SignatureEd25519",
              "value": "OkbdhMgsw9dExo3Z2rcuANrRGAe8SSw8vqfyt0ga2vzPNWMBX7IFyyITfqqmYTSVlxqEFThLWRFlYLlu7mc5Ag=="
            }
          },
          {
            "validator_address": "62410D6D1CD98278136E4D0738AA0EA273CDFC54",
            "validator_index": "45",
            "height": "3430",
            "round": "1",
            "timestamp": "2018-07-30T10:47:30.5561182Z",
            "type": 2,
            "block_id": {
              "hash": "9080B798601EB58048C7E8AAB17FDDABFD2248A8",
              "parts": {
                "total": "1",
                "hash": "D736CF3A5C6AFCC7BDF174A0F9A68C1B6DAB5DE3"
              }
            },
            "signature": {
              "type": "tendermint/SignatureEd25519",
              "value": "mLKVKl8gCWwthfPwJyTGivTf2exOi6+DYWpMp+BJxHQR8E1G5LOO53l2dtiieqIjq6ECpCRCOiOy84A0Emy4AA=="
            }
          },
          {
            "validator_address": "632F5C139A5A9DFBFE5111DEE29FCFB6157207DC",
            "validator_index": "46",
            "height": "3430",
            "round": "1",
            "timestamp": "2018-07-30T10:47:30.554533001Z",
            "type": 2,
            "block_id": {
              "hash": "9080B798601EB58048C7E8AAB17FDDABFD2248A8",
              "parts": {
                "total": "1",
                "hash": "D736CF3A5C6AFCC7BDF174A0F9A68C1B6DAB5DE3"
              }
            },
            "signature": {
              "type": "tendermint/SignatureEd25519",
              "value": "ri4fZzMof2kn9jonHUOeEHDUjXImCELYzGVKK2XZglx2HCVuoLFfAU0m9qbAGbSLsKEor+M8Vq7qpqxKyPqNAg=="
            }
          },
          {
            "validator_address": "64F57F8E796A9B7B590C1EFA4123988C86631D39",
            "validator_index": "47",
            "height": "3430",
            "round": "1",
            "timestamp": "2018-07-30T10:47:30.537499051Z",
            "type": 2,
            "block_id": {
              "hash": "9080B798601EB58048C7E8AAB17FDDABFD2248A8",
              "parts": {
                "total": "1",
                "hash": "D736CF3A5C6AFCC7BDF174A0F9A68C1B6DAB5DE3"
              }
            },
            "signature": {
              "type": "tendermint/SignatureEd25519",
              "value": "ZEbb8NAgUryBJgRXNkLpUIXZQ0nM0cP0FAT4Q2eypsXRTCht/TC1qwU2/+MhZI6RP7Pww4Y1yiB7/M/cd/AaDg=="
            }
          },
          {
            "validator_address": "69D99B2C66043ACBEAA8447525C356AFC6408E0C",
            "validator_index": "48",
            "height": "3430",
            "round": "1",
            "timestamp": "2018-07-30T10:47:30.689053096Z",
            "type": 2,
            "block_id": {
              "hash": "9080B798601EB58048C7E8AAB17FDDABFD2248A8",
              "parts": {
                "total": "1",
                "hash": "D736CF3A5C6AFCC7BDF174A0F9A68C1B6DAB5DE3"
              }
            },
            "signature": {
              "type": "tendermint/SignatureEd25519",
              "value": "jbsvHoh+smx7IRekT2ZmhKu8oMFZN/le7nSGYx1/BKh8AsRJdzhoNpKLx1W2PqozKgsViA+tzK3urlisLe4wBA=="
            }
          },
          {
            "validator_address": "6D3AD380E398D8592B03AA124BAFED5F125DF863",
            "validator_index": "49",
            "height": "3430",
            "round": "1",
            "timestamp": "2018-07-30T10:46:29.18419146Z",
            "type": 2,
            "block_id": {
              "hash": "9080B798601EB58048C7E8AAB17FDDABFD2248A8",
              "parts": {
                "total": "1",
                "hash": "D736CF3A5C6AFCC7BDF174A0F9A68C1B6DAB5DE3"
              }
            },
            "signature": {
              "type": "tendermint/SignatureEd25519",
              "value": "RrGOX38n9MpCdGS2i5ASuFgRKMKXagflz6I673ISIjBE58lwKhBoxMgAF0JhbTo8pySpYNCNbB5lxacnwe4MCg=="
            }
          },
          {
            "validator_address": "6F6C93B8BF3495063FEC9B5C771158607F4AE9D6",
            "validator_index": "50",
            "height": "3430",
            "round": "1",
            "timestamp": "2018-07-30T10:47:30.696357267Z",
            "type": 2,
            "block_id": {
              "hash": "9080B798601EB58048C7E8AAB17FDDABFD2248A8",
              "parts": {
                "total": "1",
                "hash": "D736CF3A5C6AFCC7BDF174A0F9A68C1B6DAB5DE3"
              }
            },
            "signature": {
              "type": "tendermint/SignatureEd25519",
              "value": "P18wGcfgTDtGpTQZBfpQs8O2UiwAJlKY+qzChF0laTY4qK3ZtjzkQB/BG7u6adhwFn/5ZycQlCbNvKIQ/GszBA=="
            }
          },
          {
            "validator_address": "732CEEF54C374DDC6ADECBFD707AEFD07FEDC143",
            "validator_index": "51",
            "height": "3430",
            "round": "1",
            "timestamp": "2018-07-30T10:47:30.73687291Z",
            "type": 2,
            "block_id": {
              "hash": "9080B798601EB58048C7E8AAB17FDDABFD2248A8",
              "parts": {
                "total": "1",
                "hash": "D736CF3A5C6AFCC7BDF174A0F9A68C1B6DAB5DE3"
              }
            },
            "signature": {
              "type": "tendermint/SignatureEd25519",
              "value": "rTkiZISu+UnhYYgOR09BW2Wx89Y7QQ8JV1T5bH1QWQDaPr1HVMHudTZMFx+Mlho58GQ9DNRPjmUFCcDsJimMCQ=="
            }
          },
          {
            "validator_address": "7393D691BFAE9661918C09932D4D9060AB40939B",
            "validator_index": "52",
            "height": "3430",
            "round": "1",
            "timestamp": "2018-07-30T10:47:30.748321932Z",
            "type": 2,
            "block_id": {
              "hash": "9080B798601EB58048C7E8AAB17FDDABFD2248A8",
              "parts": {
                "total": "1",
                "hash": "D736CF3A5C6AFCC7BDF174A0F9A68C1B6DAB5DE3"
              }
            },
            "signature": {
              "type": "tendermint/SignatureEd25519",
              "value": "G8zOiZjJrKA7Ic9MAcSHqiTqVzjIDn387FsrLUFicPoBpf0nldKtpHomxgvlowT/xbzINs+3H6iYfvZ5A3MKAw=="
            }
          },
          {
            "validator_address": "751E43437224E8BB6D1569B3E2B2616B6E7F4397",
            "validator_index": "53",
            "height": "3430",
            "round": "1",
            "timestamp": "2018-07-30T10:47:30.61174562Z",
            "type": 2,
            "block_id": {
              "hash": "9080B798601EB58048C7E8AAB17FDDABFD2248A8",
              "parts": {
                "total": "1",
                "hash": "D736CF3A5C6AFCC7BDF174A0F9A68C1B6DAB5DE3"
              }
            },
            "signature": {
              "type": "tendermint/SignatureEd25519",
              "value": "kVNUDBmFIu8EpPvmi5xACcuQ3dWmGHMdlNZCpUWBKPn+R9Sc/N3wopRyYgLWpLrA03JwqjNWD8frjO+IEhPfCA=="
            }
          },
          {
            "validator_address": "7EB7593F519F1180C7E872D0494611464EDF03AE",
            "validator_index": "54",
            "height": "3430",
            "round": "1",
            "timestamp": "2018-07-30T10:47:30.679062967Z",
            "type": 2,
            "block_id": {
              "hash": "9080B798601EB58048C7E8AAB17FDDABFD2248A8",
              "parts": {
                "total": "1",
                "hash": "D736CF3A5C6AFCC7BDF174A0F9A68C1B6DAB5DE3"
              }
            },
            "signature": {
              "type": "tendermint/SignatureEd25519",
              "value": "7g63vqlae3pv0Y+dZgbQGNyaFuN5zsrpbp9wTcB+2OOZqlRHwGvO7mD0wo4zNrWWLPNbyI//eOa7ZfpzFTl7Bw=="
            }
          },
          {
            "validator_address": "807CF675BA8479FC4FEC1047215DF07970040F1F",
            "validator_index": "55",
            "height": "3430",
            "round": "1",
            "timestamp": "2018-07-30T10:47:30.87777656Z",
            "type": 2,
            "block_id": {
              "hash": "9080B798601EB58048C7E8AAB17FDDABFD2248A8",
              "parts": {
                "total": "1",
                "hash": "D736CF3A5C6AFCC7BDF174A0F9A68C1B6DAB5DE3"
              }
            },
            "signature": {
              "type": "tendermint/SignatureEd25519",
              "value": "T4jc/9Cfgkm/dfggfqAJSzkl1CR5vlVl/KJCH4xlzeP0gzHaRHxGvt6ItTlEHNX6BEWdLg+RkAMG4CYD2f+sBQ=="
            }
          },
          {
            "validator_address": "8126192EA66E8ADE6B36924534721366B987A4C1",
            "validator_index": "56",
            "height": "3430",
            "round": "1",
            "timestamp": "2018-07-30T10:47:30.662230532Z",
            "type": 2,
            "block_id": {
              "hash": "9080B798601EB58048C7E8AAB17FDDABFD2248A8",
              "parts": {
                "total": "1",
                "hash": "D736CF3A5C6AFCC7BDF174A0F9A68C1B6DAB5DE3"
              }
            },
            "signature": {
              "type": "tendermint/SignatureEd25519",
              "value": "fNItp8FehfxJa+lr0IOGtmyrc7kC+m23vrInpSPYxcgDXbKtXm+ce8T7L+Q+3UvKJ3pumjDehuR1NeRVGTUtBA=="
            }
          },
          null,
          {
            "validator_address": "83AB321E012C57746689FED3A6064DF331F81007",
            "validator_index": "58",
            "height": "3430",
            "round": "1",
            "timestamp": "2018-07-30T10:47:30.584398658Z",
            "type": 2,
            "block_id": {
              "hash": "9080B798601EB58048C7E8AAB17FDDABFD2248A8",
              "parts": {
                "total": "1",
                "hash": "D736CF3A5C6AFCC7BDF174A0F9A68C1B6DAB5DE3"
              }
            },
            "signature": {
              "type": "tendermint/SignatureEd25519",
              "value": "XcuUoeHpqMclrV+azfpz2LTtTKLVvGTyfFB5TIYKma/W2ltIqwP6QEW3WVn7PfCpxDuklnEJYr8bucTP3qzuCw=="
            }
          },
          {
            "validator_address": "83BB1B88D3DBB20AD845FECA07749EBD87D3754D",
            "validator_index": "59",
            "height": "3430",
            "round": "1",
            "timestamp": "2018-07-30T10:47:30.83715325Z",
            "type": 2,
            "block_id": {
              "hash": "9080B798601EB58048C7E8AAB17FDDABFD2248A8",
              "parts": {
                "total": "1",
                "hash": "D736CF3A5C6AFCC7BDF174A0F9A68C1B6DAB5DE3"
              }
            },
            "signature": {
              "type": "tendermint/SignatureEd25519",
              "value": "6PcLJtBP1jsNO5ONijrOskF3x+u7UZvqEJ/MWI9NFsa1POpuwQS9cn7/Ns7HPtz0zwxofMA4VpZjo/OQ0JSjAA=="
            }
          },
          null,
          null,
          {
            "validator_address": "8F45617BF45B10A3F8283DEBDB35E38C7CA43237",
            "validator_index": "62",
            "height": "3430",
            "round": "1",
            "timestamp": "2018-07-30T10:47:30.559486157Z",
            "type": 2,
            "block_id": {
              "hash": "9080B798601EB58048C7E8AAB17FDDABFD2248A8",
              "parts": {
                "total": "1",
                "hash": "D736CF3A5C6AFCC7BDF174A0F9A68C1B6DAB5DE3"
              }
            },
            "signature": {
              "type": "tendermint/SignatureEd25519",
              "value": "bnzTO7LpjXJXbDXhSu433PlMMKAKGneM2tdBDsvxM2OU5MoF1CD5FEdhbGCvTspscgbMgx7jm2U+dWqrzzYBCg=="
            }
          },
          null,
          {
            "validator_address": "95980831E186F2540F6E9FB6C8E74DE2401405AC",
            "validator_index": "64",
            "height": "3430",
            "round": "1",
            "timestamp": "2018-07-30T10:47:30.676280556Z",
            "type": 2,
            "block_id": {
              "hash": "9080B798601EB58048C7E8AAB17FDDABFD2248A8",
              "parts": {
                "total": "1",
                "hash": "D736CF3A5C6AFCC7BDF174A0F9A68C1B6DAB5DE3"
              }
            },
            "signature": {
              "type": "tendermint/SignatureEd25519",
              "value": "31+xXEmrF/KtPxrAGfyE6UyynPeXGLv34qFjL2s+8P9j84jfazA5/m+HvoyuwBTlskKLPlEN6a1rOVBRWwI6AA=="
            }
          },
          {
            "validator_address": "95FAFBC1E0579C83D290A063020CE87C5334BD9B",
            "validator_index": "65",
            "height": "3430",
            "round": "1",
            "timestamp": "2018-07-30T10:47:30.664897301Z",
            "type": 2,
            "block_id": {
              "hash": "9080B798601EB58048C7E8AAB17FDDABFD2248A8",
              "parts": {
                "total": "1",
                "hash": "D736CF3A5C6AFCC7BDF174A0F9A68C1B6DAB5DE3"
              }
            },
            "signature": {
              "type": "tendermint/SignatureEd25519",
              "value": "crfpBip0qjz3g7pULrz2oD39zbYDlxeqlTuPrr3g95gwLC7yI2TCve8kJYAITy9sXe5jTF5V3zdKQJvWZHXTAg=="
            }
          },
          {
            "validator_address": "96BDE45EC52606CF5CB59853097871AD60680549",
            "validator_index": "66",
            "height": "3430",
            "round": "1",
            "timestamp": "2018-07-30T10:47:30.646319112Z",
            "type": 2,
            "block_id": {
              "hash": "9080B798601EB58048C7E8AAB17FDDABFD2248A8",
              "parts": {
                "total": "1",
                "hash": "D736CF3A5C6AFCC7BDF174A0F9A68C1B6DAB5DE3"
              }
            },
            "signature": {
              "type": "tendermint/SignatureEd25519",
              "value": "GjX87ukNiW3RADCp3EyNMP5nPg7DA7feKxyprAzc+vk/E96PRd6J+vsvS9CsEMP0JJx3E5E2Bnk+8kx73HdlBg=="
            }
          },
          {
            "validator_address": "970CD321881185BF83DB2923C321B0E75FDBB2B8",
            "validator_index": "67",
            "height": "3430",
            "round": "1",
            "timestamp": "2018-07-30T10:47:30.646109205Z",
            "type": 2,
            "block_id": {
              "hash": "9080B798601EB58048C7E8AAB17FDDABFD2248A8",
              "parts": {
                "total": "1",
                "hash": "D736CF3A5C6AFCC7BDF174A0F9A68C1B6DAB5DE3"
              }
            },
            "signature": {
              "type": "tendermint/SignatureEd25519",
              "value": "ZwCKLrQUZeI5YlIn/HjR7kMuF5KnT5Joz4nUXVx9svU2cR3a/0B1C2FjpyqONLx8Pv1WPkDaBFfy2Q1CvP4ODw=="
            }
          },
          null,
          {
            "validator_address": "9C29C9B76D27586E4D9AD2AED0E943162645E55C",
            "validator_index": "69",
            "height": "3430",
            "round": "1",
            "timestamp": "2018-07-30T10:47:30.526288426Z",
            "type": 2,
            "block_id": {
              "hash": "9080B798601EB58048C7E8AAB17FDDABFD2248A8",
              "parts": {
                "total": "1",
                "hash": "D736CF3A5C6AFCC7BDF174A0F9A68C1B6DAB5DE3"
              }
            },
            "signature": {
              "type": "tendermint/SignatureEd25519",
              "value": "j7/edIyKCXzaclFYngjfqY3JE5hTUUgOz+HZswILncMBHWNuZTqnG82KYeZM5g7b97pAOjVxZrmWjXWUMHY0BQ=="
            }
          },
          {
            "validator_address": "9D93AD02FE1BD7E76B9E58D7EB461088EAD011E5",
            "validator_index": "70",
            "height": "3430",
            "round": "1",
            "timestamp": "2018-07-30T10:47:30.572307659Z",
            "type": 2,
            "block_id": {
              "hash": "9080B798601EB58048C7E8AAB17FDDABFD2248A8",
              "parts": {
                "total": "1",
                "hash": "D736CF3A5C6AFCC7BDF174A0F9A68C1B6DAB5DE3"
              }
            },
            "signature": {
              "type": "tendermint/SignatureEd25519",
              "value": "Ng/DegwjmjGy0x8SlZIfg9uf/QgDNmEvfQlKenXDkbxtyNcnTM2feDgfR+09HE+FsGYhVKOG25MtVtpTklynCA=="
            }
          },
          null,
          {
            "validator_address": "A0A6466F4ABEA09C3B55E3709AFDE217A103209F",
            "validator_index": "72",
            "height": "3430",
            "round": "1",
            "timestamp": "2018-07-30T10:47:30.588895933Z",
            "type": 2,
            "block_id": {
              "hash": "9080B798601EB58048C7E8AAB17FDDABFD2248A8",
              "parts": {
                "total": "1",
                "hash": "D736CF3A5C6AFCC7BDF174A0F9A68C1B6DAB5DE3"
              }
            },
            "signature": {
              "type": "tendermint/SignatureEd25519",
              "value": "y4KIUWIkO78wkK28yQEgWMUoMrtDHHCkXTPyEwgW2JMBu7xci15Q2iy3RRxn823Aqfp96kqL8nZqRROCFC4xDQ=="
            }
          },
          {
            "validator_address": "A5868971300F155020634D7BB49C7634F7AACCD3",
            "validator_index": "73",
            "height": "3430",
            "round": "1",
            "timestamp": "2018-07-30T10:47:30.626673499Z",
            "type": 2,
            "block_id": {
              "hash": "9080B798601EB58048C7E8AAB17FDDABFD2248A8",
              "parts": {
                "total": "1",
                "hash": "D736CF3A5C6AFCC7BDF174A0F9A68C1B6DAB5DE3"
              }
            },
            "signature": {
              "type": "tendermint/SignatureEd25519",
              "value": "jCsnhOQsibqiRcx3Z5QbZn/eERgwDyodCRxDADb+FunPCmhtUHgBavbWKe62kaA/FTtybQoXAWIfw6MmFG2VAA=="
            }
          },
          {
            "validator_address": "A6B3A5B5D982CFD7B5FDFA15CF5A720E7AE25E7F",
            "validator_index": "74",
            "height": "3430",
            "round": "1",
            "timestamp": "2018-07-30T10:47:30.628881493Z",
            "type": 2,
            "block_id": {
              "hash": "9080B798601EB58048C7E8AAB17FDDABFD2248A8",
              "parts": {
                "total": "1",
                "hash": "D736CF3A5C6AFCC7BDF174A0F9A68C1B6DAB5DE3"
              }
            },
            "signature": {
              "type": "tendermint/SignatureEd25519",
              "value": "HKRXDJrlJg+N30xm/N5+YzvMRoS73RAlhYrfKEA7OFQS509ADLO6ycTPrSBJsd0+jaPUdi0VDDsirjKOI4eLAw=="
            }
          },
          {
            "validator_address": "AC96444A9083890B7C7B430DB17BF1D3EA5EED04",
            "validator_index": "75",
            "height": "3430",
            "round": "1",
            "timestamp": "2018-07-30T10:47:30.6826878Z",
            "type": 2,
            "block_id": {
              "hash": "9080B798601EB58048C7E8AAB17FDDABFD2248A8",
              "parts": {
                "total": "1",
                "hash": "D736CF3A5C6AFCC7BDF174A0F9A68C1B6DAB5DE3"
              }
            },
            "signature": {
              "type": "tendermint/SignatureEd25519",
              "value": "PqPueiflgA6ZXA/K2Vf9ifnLny9CtD0nupzEL/HT9JKH77pqsW4lxj9qA4CJuhoZeNBDCmyH9X7zxgSFicvPDQ=="
            }
          },
          {
            "validator_address": "ACB97FDA2D940AF0709B73537C458EB988AD2893",
            "validator_index": "76",
            "height": "3430",
            "round": "1",
            "timestamp": "2018-07-30T10:47:30.572813521Z",
            "type": 2,
            "block_id": {
              "hash": "9080B798601EB58048C7E8AAB17FDDABFD2248A8",
              "parts": {
                "total": "1",
                "hash": "D736CF3A5C6AFCC7BDF174A0F9A68C1B6DAB5DE3"
              }
            },
            "signature": {
              "type": "tendermint/SignatureEd25519",
              "value": "lhNpvFurY5w6luPusrjXO4+CLOfCYsUOIZTAk6e1VJOZaNM+XibQ/XTM+sv06NYxraL0FUDkc8kEHXQEvqWgBA=="
            }
          },
          {
            "validator_address": "B197425B3210375F211661DE02EF2AE36580EB0F",
            "validator_index": "77",
            "height": "3430",
            "round": "1",
            "timestamp": "2018-07-30T10:47:30.548650573Z",
            "type": 2,
            "block_id": {
              "hash": "9080B798601EB58048C7E8AAB17FDDABFD2248A8",
              "parts": {
                "total": "1",
                "hash": "D736CF3A5C6AFCC7BDF174A0F9A68C1B6DAB5DE3"
              }
            },
            "signature": {
              "type": "tendermint/SignatureEd25519",
              "value": "8sn6NcHhL2gpirImWaEKzUne8c1h1baCGdA4sKIJWxv3KkvPYxr7YQMHe0rGROJkQjhyL8y6FFg71luIlQ7eDQ=="
            }
          },
          {
            "validator_address": "B45E54D2D1CB5A4CCD1D49016608C18E7C56B270",
            "validator_index": "78",
            "height": "3430",
            "round": "1",
            "timestamp": "2018-07-30T10:47:30.718072267Z",
            "type": 2,
            "block_id": {
              "hash": "9080B798601EB58048C7E8AAB17FDDABFD2248A8",
              "parts": {
                "total": "1",
                "hash": "D736CF3A5C6AFCC7BDF174A0F9A68C1B6DAB5DE3"
              }
            },
            "signature": {
              "type": "tendermint/SignatureEd25519",
              "value": "RQcsOfiUIBHgQYuanWe8HmCZ2CZ1E+IVcPjxNAzdzfWf+KzsnG7qFMcbCMl3FGn4vpVXSP1X4ms1n+KUEPLLCQ=="
            }
          },
          {
            "validator_address": "B59A34C0BE4EC73AF6A67D274F1695C9259C237C",
            "validator_index": "79",
            "height": "3430",
            "round": "1",
            "timestamp": "2018-07-30T10:47:30.638745724Z",
            "type": 2,
            "block_id": {
              "hash": "9080B798601EB58048C7E8AAB17FDDABFD2248A8",
              "parts": {
                "total": "1",
                "hash": "D736CF3A5C6AFCC7BDF174A0F9A68C1B6DAB5DE3"
              }
            },
            "signature": {
              "type": "tendermint/SignatureEd25519",
              "value": "La9+arMbEKKQexzHLXyDsE1xfXbOuFIWmc72bXUJn+T5y+DecdMGzOvjRQrLStCTS0dTWmg5CupTtHIFCqf/DQ=="
            }
          },
          {
            "validator_address": "BC36FEDD6EF6071118A3E51859DF3831A2EC4782",
            "validator_index": "80",
            "height": "3430",
            "round": "1",
            "timestamp": "2018-07-30T10:47:30.655340331Z",
            "type": 2,
            "block_id": {
              "hash": "9080B798601EB58048C7E8AAB17FDDABFD2248A8",
              "parts": {
                "total": "1",
                "hash": "D736CF3A5C6AFCC7BDF174A0F9A68C1B6DAB5DE3"
              }
            },
            "signature": {
              "type": "tendermint/SignatureEd25519",
              "value": "6jBtLJHUU8CZ3607ACxRC7QcoV933+8wjDeJBsejo1J6EnVAFVWkkVWq9MYycGXcv51tLze8DfT72lihprovCg=="
            }
          },
          {
            "validator_address": "BD9D0DA513BF099DB4BB6E725A4E19832789882F",
            "validator_index": "81",
            "height": "3430",
            "round": "1",
            "timestamp": "2018-07-30T10:47:30.597780906Z",
            "type": 2,
            "block_id": {
              "hash": "9080B798601EB58048C7E8AAB17FDDABFD2248A8",
              "parts": {
                "total": "1",
                "hash": "D736CF3A5C6AFCC7BDF174A0F9A68C1B6DAB5DE3"
              }
            },
            "signature": {
              "type": "tendermint/SignatureEd25519",
              "value": "o37U2oK1YyDbrlUFjDTqlMN61oEaiToliHbVZC3Bsp9zdyvmk2Fn/834ILK26MkqskBEcujKhPnLU9yZ496tBA=="
            }
          },
          null,
          {
            "validator_address": "C39A8A2B85198DCB8F23AD1F6C198E2BA7AB5D60",
            "validator_index": "83",
            "height": "3430",
            "round": "1",
            "timestamp": "2018-07-30T10:47:30.568586976Z",
            "type": 2,
            "block_id": {
              "hash": "9080B798601EB58048C7E8AAB17FDDABFD2248A8",
              "parts": {
                "total": "1",
                "hash": "D736CF3A5C6AFCC7BDF174A0F9A68C1B6DAB5DE3"
              }
            },
            "signature": {
              "type": "tendermint/SignatureEd25519",
              "value": "kidX4v+BLS3dwHaY0KwDCEJiEMil//xNLqITPSldW0bGtpYS3ax10rZ701/LUbXddRwB0os+qex7RCcLJlEyDA=="
            }
          },
          {
            "validator_address": "C4335190C3B5BD4BA5568BC0F99C34162D940D08",
            "validator_index": "84",
            "height": "3430",
            "round": "1",
            "timestamp": "2018-07-30T10:47:30.734923544Z",
            "type": 2,
            "block_id": {
              "hash": "9080B798601EB58048C7E8AAB17FDDABFD2248A8",
              "parts": {
                "total": "1",
                "hash": "D736CF3A5C6AFCC7BDF174A0F9A68C1B6DAB5DE3"
              }
            },
            "signature": {
              "type": "tendermint/SignatureEd25519",
              "value": "74kgqdcRjTWVnik6h0g087oApJrGJDxeavE04WkntN0wK2+D1ZL/YBcSeAlPudtbEO9Mqd6Ba/lW/TzTxr09Dw=="
            }
          },
          null,
          {
            "validator_address": "CEB97DB5CB18270247ABDE6CF2F84F9AEE8A2904",
            "validator_index": "86",
            "height": "3430",
            "round": "1",
            "timestamp": "2018-07-30T10:47:30.238095459Z",
            "type": 2,
            "block_id": {
              "hash": "9080B798601EB58048C7E8AAB17FDDABFD2248A8",
              "parts": {
                "total": "1",
                "hash": "D736CF3A5C6AFCC7BDF174A0F9A68C1B6DAB5DE3"
              }
            },
            "signature": {
              "type": "tendermint/SignatureEd25519",
              "value": "CQGV/x6Nz5M4ZWyDoZd+egeZPn9ZT6pqgsimBEpR5APuoMDiolztg966bzCNIsDs3vDNP4vT3cbNHBEfBXuxAg=="
            }
          },
          {
            "validator_address": "D2134B826A1E25A955905CB79A4D8731CAFA0CCE",
            "validator_index": "87",
            "height": "3430",
            "round": "1",
            "timestamp": "2018-07-30T10:47:30.756020731Z",
            "type": 2,
            "block_id": {
              "hash": "9080B798601EB58048C7E8AAB17FDDABFD2248A8",
              "parts": {
                "total": "1",
                "hash": "D736CF3A5C6AFCC7BDF174A0F9A68C1B6DAB5DE3"
              }
            },
            "signature": {
              "type": "tendermint/SignatureEd25519",
              "value": "F7f08dkk9iqOGY5TaqcJHSEtkXeMfkOEk+2N1kq+zSPNEDUcdZk3XaOTPHlh62b5qh/W0yeeRVPPZ/0Rul93Dg=="
            }
          },
          null,
          {
            "validator_address": "D6285C3422C8886445D53757CBE12D2B91B5A9D0",
            "validator_index": "89",
            "height": "3430",
            "round": "1",
            "timestamp": "2018-07-30T10:47:12.789562898Z",
            "type": 2,
            "block_id": {
              "hash": "9080B798601EB58048C7E8AAB17FDDABFD2248A8",
              "parts": {
                "total": "1",
                "hash": "D736CF3A5C6AFCC7BDF174A0F9A68C1B6DAB5DE3"
              }
            },
            "signature": {
              "type": "tendermint/SignatureEd25519",
              "value": "6jVSuOfJrYVPCbJFaerkfnNHEc3hcage6jYhQLhX+aBMWMMKtnD8ID/P1/0XvXUTRfkCJUt4K1l2TOeFsYULDQ=="
            }
          },
          null,
          null,
          {
            "validator_address": "DB7E6732471D3EA5C90C17A9974D9F88AB45F2FB",
            "validator_index": "92",
            "height": "3430",
            "round": "1",
            "timestamp": "2018-07-30T10:47:30.652522097Z",
            "type": 2,
            "block_id": {
              "hash": "9080B798601EB58048C7E8AAB17FDDABFD2248A8",
              "parts": {
                "total": "1",
                "hash": "D736CF3A5C6AFCC7BDF174A0F9A68C1B6DAB5DE3"
              }
            },
            "signature": {
              "type": "tendermint/SignatureEd25519",
              "value": "RZVUevPBBWGNsergYVIPGp/FewZ7y+fxU9szw10CSa6wS7blCJ47hH6xz8qFuum3hPQ+4sYJCvdHx7vOtniNCA=="
            }
          },
          {
            "validator_address": "DF54B862410BCD9B5C516FBB6C56BDC826ED6FA7",
            "validator_index": "93",
            "height": "3430",
            "round": "1",
            "timestamp": "2018-07-30T10:47:30.744163358Z",
            "type": 2,
            "block_id": {
              "hash": "9080B798601EB58048C7E8AAB17FDDABFD2248A8",
              "parts": {
                "total": "1",
                "hash": "D736CF3A5C6AFCC7BDF174A0F9A68C1B6DAB5DE3"
              }
            },
            "signature": {
              "type": "tendermint/SignatureEd25519",
              "value": "umfCL5SxbN+msfPu7ri1H8nI698wc2gmQob7M4QG4vBVu9RPMwg8ww96etGszRgK/UY7463IB+75GEltZVFJAQ=="
            }
          },
          {
            "validator_address": "DFAF0C8B1B78D6D552B0189DE3ACA351439A1319",
            "validator_index": "94",
            "height": "3430",
            "round": "1",
            "timestamp": "2018-07-30T10:47:30.533208627Z",
            "type": 2,
            "block_id": {
              "hash": "9080B798601EB58048C7E8AAB17FDDABFD2248A8",
              "parts": {
                "total": "1",
                "hash": "D736CF3A5C6AFCC7BDF174A0F9A68C1B6DAB5DE3"
              }
            },
            "signature": {
              "type": "tendermint/SignatureEd25519",
              "value": "Vs4MVFqSHDKy05tl5vaxl4YQ29PFE9VZcN9CqmZ+At8spBg/pbDlT3tmyTL1pB4PFOsDPCZgxpdA0ic0UvNFDw=="
            }
          },
          {
            "validator_address": "E1DBC77881161A5A3A8536A57536EAE546A75D69",
            "validator_index": "95",
            "height": "3430",
            "round": "1",
            "timestamp": "2018-07-30T10:47:30.544276987Z",
            "type": 2,
            "block_id": {
              "hash": "9080B798601EB58048C7E8AAB17FDDABFD2248A8",
              "parts": {
                "total": "1",
                "hash": "D736CF3A5C6AFCC7BDF174A0F9A68C1B6DAB5DE3"
              }
            },
            "signature": {
              "type": "tendermint/SignatureEd25519",
              "value": "157IdDEpCgwEBHj8TyrN06WnuQVpYYUhi13+IvMDs+UUB+4ucqMo/tqjyuFwC74yIP2mSQWIWFYe6ql3sA2jDQ=="
            }
          },
          {
            "validator_address": "E300E9D484374C1D3E97C1D93CAC3B160A056298",
            "validator_index": "96",
            "height": "3430",
            "round": "1",
            "timestamp": "2018-07-30T10:47:30.85431004Z",
            "type": 2,
            "block_id": {
              "hash": "9080B798601EB58048C7E8AAB17FDDABFD2248A8",
              "parts": {
                "total": "1",
                "hash": "D736CF3A5C6AFCC7BDF174A0F9A68C1B6DAB5DE3"
              }
            },
            "signature": {
              "type": "tendermint/SignatureEd25519",
              "value": "o7yg7vE5c93nlWXwIGQQupR1o6MVqY0Q8orQZbq03HlvsRqhDldwDfEz1AFiCCjKwey8oFT9BAqtyBel8c+2BQ=="
            }
          },
          {
            "validator_address": "E39B5778E0D4297A46F45CF6940B0A163A430FF8",
            "validator_index": "97",
            "height": "3430",
            "round": "1",
            "timestamp": "2018-07-30T10:47:30.649589434Z",
            "type": 2,
            "block_id": {
              "hash": "9080B798601EB58048C7E8AAB17FDDABFD2248A8",
              "parts": {
                "total": "1",
                "hash": "D736CF3A5C6AFCC7BDF174A0F9A68C1B6DAB5DE3"
              }
            },
            "signature": {
              "type": "tendermint/SignatureEd25519",
              "value": "znNm/RPA9vsNJU2LNep3FNUlL4TnAUCMK6PD/Uku1XLYVb3SB47kuBNemfbeJxH2NbgxSzCpcQDGjhzgKhulBw=="
            }
          },
          null,
          {
            "validator_address": "E42F8AEABB685219F7027F54D2B0DBC7846F633A",
            "validator_index": "99",
            "height": "3430",
            "round": "1",
            "timestamp": "2018-07-30T10:47:30.063218062Z",
            "type": 2,
            "block_id": {
              "hash": "9080B798601EB58048C7E8AAB17FDDABFD2248A8",
              "parts": {
                "total": "1",
                "hash": "D736CF3A5C6AFCC7BDF174A0F9A68C1B6DAB5DE3"
              }
            },
            "signature": {
              "type": "tendermint/SignatureEd25519",
              "value": "DxN6fM+pYUnNrV+xPBDaQkMlRpHTCdqGr4NTcK0F1vyN5qS8SWQqrQKmmjuLZqgru15VNTPOHHH4ASvvqHGKCw=="
            }
          },
          {
            "validator_address": "E4E6C2E81269DFFA196C17F98240E491479A6008",
            "validator_index": "100",
            "height": "3430",
            "round": "1",
            "timestamp": "2018-07-30T10:47:30.682035611Z",
            "type": 2,
            "block_id": {
              "hash": "9080B798601EB58048C7E8AAB17FDDABFD2248A8",
              "parts": {
                "total": "1",
                "hash": "D736CF3A5C6AFCC7BDF174A0F9A68C1B6DAB5DE3"
              }
            },
            "signature": {
              "type": "tendermint/SignatureEd25519",
              "value": "FmzLBLIMPheco21Rj9X7l/erNWFfhu7JcnUVX5PyWfRd+0WsLBEKLYjUeauEXImav1c8yt0LQZmRFDQANuPeDw=="
            }
          },
          null,
          {
            "validator_address": "E6A7079D584B163750BE0831227F6B685DEAF3C1",
            "validator_index": "102",
            "height": "3430",
            "round": "1",
            "timestamp": "2018-07-30T10:47:30.704391914Z",
            "type": 2,
            "block_id": {
              "hash": "9080B798601EB58048C7E8AAB17FDDABFD2248A8",
              "parts": {
                "total": "1",
                "hash": "D736CF3A5C6AFCC7BDF174A0F9A68C1B6DAB5DE3"
              }
            },
            "signature": {
              "type": "tendermint/SignatureEd25519",
              "value": "CaaxSnzWL64GFO17A97up4FHWlhnLkb6i19GDaXqTdyj00Gv/fBAv3coR2GqXlcT7d+UZUSRf17QEA4LdUo4Dw=="
            }
          },
          {
            "validator_address": "E7A30077D5D11867D3EAF99ED45BFDC1EB834509",
            "validator_index": "103",
            "height": "3430",
            "round": "1",
            "timestamp": "2018-07-30T10:47:30.668409631Z",
            "type": 2,
            "block_id": {
              "hash": "9080B798601EB58048C7E8AAB17FDDABFD2248A8",
              "parts": {
                "total": "1",
                "hash": "D736CF3A5C6AFCC7BDF174A0F9A68C1B6DAB5DE3"
              }
            },
            "signature": {
              "type": "tendermint/SignatureEd25519",
              "value": "mW+ByGXtM1Pb9TB/PT5flPFvWbg7V5gyvKOjk0tdYYwQQYTs7lSkM7qZ008FakeXTNQsfPtFl5lsI/ElnwNVBg=="
            }
          },
          {
            "validator_address": "EBC613967F66F4EC306852CDF58B4F151CF16738",
            "validator_index": "104",
            "height": "3430",
            "round": "1",
            "timestamp": "2018-07-30T10:47:30.647063339Z",
            "type": 2,
            "block_id": {
              "hash": "9080B798601EB58048C7E8AAB17FDDABFD2248A8",
              "parts": {
                "total": "1",
                "hash": "D736CF3A5C6AFCC7BDF174A0F9A68C1B6DAB5DE3"
              }
            },
            "signature": {
              "type": "tendermint/SignatureEd25519",
              "value": "4tt3d7iyrOOaQN68kUMACH1Vt32iaxQPezQl4UalUAcDKmRagXb7Pg1EnClMal5O95TGy2POy7/dgnFN+nWzBw=="
            }
          },
          null,
          {
            "validator_address": "EC95B111D032181E1EC3B5E8875C5BB8E4AE7140",
            "validator_index": "106",
            "height": "3430",
            "round": "1",
            "timestamp": "2018-07-30T10:47:30.504850192Z",
            "type": 2,
            "block_id": {
              "hash": "9080B798601EB58048C7E8AAB17FDDABFD2248A8",
              "parts": {
                "total": "1",
                "hash": "D736CF3A5C6AFCC7BDF174A0F9A68C1B6DAB5DE3"
              }
            },
            "signature": {
              "type": "tendermint/SignatureEd25519",
              "value": "LA1DepHFB9bKS7Pb+mq9SPm7T+KlPlUVE0hhiRGZBkspmqbHV83CHncBNDDxrid9w1RITBabt94hbTBfZEt2Dw=="
            }
          },
          {
            "validator_address": "F13C1805E8131C9B47E2A46818F57D8A2841E578",
            "validator_index": "107",
            "height": "3430",
            "round": "1",
            "timestamp": "2018-07-30T10:47:30.655944706Z",
            "type": 2,
            "block_id": {
              "hash": "9080B798601EB58048C7E8AAB17FDDABFD2248A8",
              "parts": {
                "total": "1",
                "hash": "D736CF3A5C6AFCC7BDF174A0F9A68C1B6DAB5DE3"
              }
            },
            "signature": {
              "type": "tendermint/SignatureEd25519",
              "value": "Q3Awn90kvPwoFB5YAN0q1lFFuWyKi3iVyx5kUh+ZYAUF/AAZBuf2LmxhTtnwdAmibGw0flKeDGvzaDYVOOGlDw=="
            }
          },
          {
            "validator_address": "F23FF36BD5B90C33CE3A03ED72DBDCF5EC07D6AF",
            "validator_index": "108",
            "height": "3430",
            "round": "1",
            "timestamp": "2018-07-30T10:47:30.664937522Z",
            "type": 2,
            "block_id": {
              "hash": "9080B798601EB58048C7E8AAB17FDDABFD2248A8",
              "parts": {
                "total": "1",
                "hash": "D736CF3A5C6AFCC7BDF174A0F9A68C1B6DAB5DE3"
              }
            },
            "signature": {
              "type": "tendermint/SignatureEd25519",
              "value": "eEapBFGpX6XJTIt39w8D/zP8mgzGQ2WyrSzhXq4H9/PD377oDkbsHCg1hHiTLC2FoU9Fs2z5bXsQ+LKcQpFLDA=="
            }
          },
          {
            "validator_address": "F4268597DE93E3E2CED38845010F8AA34E2A879E",
            "validator_index": "109",
            "height": "3430",
            "round": "1",
            "timestamp": "2018-07-30T10:47:30.665169911Z",
            "type": 2,
            "block_id": {
              "hash": "9080B798601EB58048C7E8AAB17FDDABFD2248A8",
              "parts": {
                "total": "1",
                "hash": "D736CF3A5C6AFCC7BDF174A0F9A68C1B6DAB5DE3"
              }
            },
            "signature": {
              "type": "tendermint/SignatureEd25519",
              "value": "/Go1EPvj50bRI7qIDVV30eKI+oAN98VySYxORdCD+9ysGosGlFLkhPGkCzkjf7l+yWOnhArd/B95TBppQZAEDQ=="
            }
          },
          null,
          null,
          {
            "validator_address": "FB6AC8B89A1C585F26410FF259952A432A7A3FDB",
            "validator_index": "112",
            "height": "3430",
            "round": "1",
            "timestamp": "2018-07-30T10:47:30.645736819Z",
            "type": 2,
            "block_id": {
              "hash": "9080B798601EB58048C7E8AAB17FDDABFD2248A8",
              "parts": {
                "total": "1",
                "hash": "D736CF3A5C6AFCC7BDF174A0F9A68C1B6DAB5DE3"
              }
            },
            "signature": {
              "type": "tendermint/SignatureEd25519",
              "value": "ryHn55UuDnBSmifIt0+MzmRrzEciTFgIHOchAX5FutGBVmXUwxPyrZ2e2ZCdvYNy3uhnZ+uctcFEVszzPyk9BA=="
            }
          },
          null,
          {
            "validator_address": "FF3F3FCBCE7E62D7AD5506FF846EC4518D980515",
            "validator_index": "114",
            "height": "3430",
            "round": "1",
            "timestamp": "2018-07-30T10:47:30.613154769Z",
            "type": 2,
            "block_id": {
              "hash": "9080B798601EB58048C7E8AAB17FDDABFD2248A8",
              "parts": {
                "total": "1",
                "hash": "D736CF3A5C6AFCC7BDF174A0F9A68C1B6DAB5DE3"
              }
            },
            "signature": {
              "type": "tendermint/SignatureEd25519",
              "value": "CIJz1jHnSEVKPAX+k+zKmmSXnxDYy6gCV3NxhO2kDDtaqkUwh809Sk2SZ6Ys9Gb3VKFm0XBIZAbD1P0VVTuUDQ=="
            }
          }
        ]
      }
    },
    "canonical": true
  }
}