{
  "jsonrpc": "2.0",
  "id": "",
  "result": {
    "SignedHeader": {
      "header": {
        "chain_id": "gaia-7004",
        "height": "38080",
        "time": "2018-08-01T21:39:09.391749133Z",
        "num_txs": "0",
        "last_block_id": {
          "hash": "F2C401C752D428DADEB38E30A30AE3764F5958ED",
          "parts": {
            "total": "1",
            "hash": "BD79D638169D5ACF34FEAE9FE5512A663A420A33"
          }
        },
        "total_txs": "1863",
        "last_commit_hash": "2B597DECD55739A616B48EC53CAF2AC6D8DE07CC",
        "data_hash": "",
        "validators_hash": "8BDE5C7D0CB87BCC0FBA2D2A6EB79BD9A95A18C0",
        "consensus_hash": "D6B74BB35BDFFD8392340F2A379173548AE188FE",
        "app_hash": "3AA2463DA7ED7261A8CDE6AF544A6E9A3D322D78",
        "last_results_hash": "",
        "evidence_hash": ""
      },
      "commit": {
        "block_id": {
          "hash": "F4359259F2A9038D38677AFF5DFCA385DBE355A2",
          "parts": {
            "total": "1",
            "hash": "C59EC840BE7A3657E7EA00DFB0A124A9B7978264"
          }
        },
        "precommits": [
          {
            "validator_address": "029359C0C768096273A68ABC902A6B17AC8D1D70",
            "validator_index": "0",
            "height": "38080",
            "round": "1",
            "timestamp": "2018-08-01T21:39:10.355683498Z",
            "type": 2,
            "block_id": {
              "hash": "F4359259F2A9038D38677AFF5DFCA385DBE355A2",
              "parts": {
                "total": "1",
                "hash": "C59EC840BE7A3657E7EA00DFB0A124A9B7978264"
              }
            },
            "signature": {
              "type": "tendermint/SignatureEd25519",
              "value": "8ji94YOuRzmySYG3wbL8SbiPqCxfafHbgE89z8HDsFwYM0OHU7d4VOD+iamzGMSYNm5LH4GiNH3icUhNe39JDg=="
            }
          },
          {
            "validator_address": "02FE4B97A8387F39D1AC19E0C1702B3CC614812F",
            "validator_index": "1",
            "height": "38080",
            "round": "1",
            "timestamp": "2018-08-01T21:39:10.258187973Z",
            "type": 2,
            "block_id": {
              "hash": "F4359259F2A9038D38677AFF5DFCA385DBE355A2",
              "parts": {
                "total": "1",
                "hash": "C59EC840BE7A3657E7EA00DFB0A124A9B7978264"
              }
            },
            "signature": {
              "type": "tendermint/SignatureEd25519",
              "value": "3sOxDlqPt2QW/gwQWe7NFCQRQh6YFlSfc4ZueqqVgAl6bNKfMxNOd7ZXj9OAOVhXwBB6hV+Nl885DIzFMF+6DA=="
            }
          },
          {
            "validator_address": "0548261C50222FD710EB5EBDF03A0E6567B21D20",
            "validator_index": "2",
            "height": "38080",
            "round": "1",
            "timestamp": "2018-08-01T21:39:10.368568712Z",
            "type": 2,
            "block_id": {
              "hash": "F4359259F2A9038D38677AFF5DFCA385DBE355A2",
              "parts": {
                "total": "1",
                "hash": "C59EC840BE7A3657E7EA00DFB0A124A9B7978264"
              }
            },
            "signature": {
              "type": "tendermint/SignatureEd25519",
              "value": "EZN3q35/bg2taIQh/sBPIXVKm15nVPnQT7S5p+3rj4eWVJJ9dJXGODBnw52wvW7G7mIlsonabPkQ54b2Aar2CQ=="
            }
          },
          {
            "validator_address": "0665ADBF9B120B7617BF955AA5653A1992C82B11",
            "validator_index": "3",
            "height": "38080",
            "round": "1",
            "timestamp": "2018-08-01T21:39:10.279632557Z",
            "type": 2,
            "block_id": {
              "hash": "F4359259F2A9038D38677AFF5DFCA385DBE355A2",
              "parts": {
                "total": "1",
                "hash": "C59EC840BE7A3657E7EA00DFB0A124A9B7978264"
              }
            },
            "signature": {
              "type": "tendermint/SignatureEd25519",
              "value": "AUrV/eyArg1cJGlkQn7gWgcByqIFWJ2rWUKug2WqWJ64mTnVqi1D/j+KaSqnG8nYLN8qfXSuJU46IOlS9xoRDw=="
            }
          },
          {
            "validator_address": "09145E611CC27EEB944FC5A956DDF710F943B9EF",
            "validator_index": "4",
            "height": "38080",
            "round": "1",
            "timestamp": "2018-08-01T21:39:10.330657954Z",
            "type": 2,
            "block_id": {
              "hash": "F4359259F2A9038D38677AFF5DFCA385DBE355A2",
              "parts": {
                "total": "1",
                "hash": "C59EC840BE7A3657E7EA00DFB0A124A9B7978264"
              }
            },
            "signature": {
              "type": "tendermint/SignatureEd25519",
              "value": "++TQ4tPjW8L+kONFrAp8Isaz51e+GOZJm+ntnPvqRPpMjryV+mMNYFUN3nTNGlCfBkKQzdsfEpYl+Wx+h95bAg=="
            }
          },
          {
            "validator_address": "0989D0355A104B67AE0AE028C68FB610690E174B",
            "validator_index": "5",
            "height": "38080",
            "round": "1",
            "timestamp": "2018-08-01T21:39:10.363419376Z",
            "type": 2,
            "block_id": {
              "hash": "F4359259F2A9038D38677AFF5DFCA385DBE355A2",
              "parts": {
                "total": "1",
                "hash": "C59EC840BE7A3657E7EA00DFB0A124A9B7978264"
              }
            },
            "signature": {
              "type": "tendermint/SignatureEd25519",
              "value": "+FAxORI7j2efw+TnVeT5noMnCOaSiLjxq4KrFc7afYoZX4Ql1LeukCS6A78JZiQ75Rxi2YRe9fWUzhyEOgXoCQ=="
            }
          },
          {
            "validator_address": "0A692DBFFE9E5DD28E7DECC33CED1AEB4C0D014E",
            "validator_index": "6",
            "height": "38080",
            "round": "1",
            "timestamp": "2018-08-01T21:39:10.440015544Z",
            "type": 2,
            "block_id": {
              "hash": "F4359259F2A9038D38677AFF5DFCA385DBE355A2",
              "parts": {
                "total": "1",
                "hash": "C59EC840BE7A3657E7EA00DFB0A124A9B7978264"
              }
            },
            "signature": {
              "type": "tendermint/SignatureEd25519",
              "value": "VZCGWCxZQz7JEyuYnYXl8sAMeMpuHbYDiBOC5LYou1Q+LbV7HsMQFvbRgi36nGi+wfDSbotvRutc7DN57bByDQ=="
            }
          },
          {
            "validator_address": "0DDF97111D73DB825138EC15EC27DE5FE8536901",
            "validator_index": "7",
            "height": "38080",
            "round": "1",
            "timestamp": "2018-08-01T21:39:10.410861379Z",
            "type": 2,
            "block_id": {
              "hash": "F4359259F2A9038D38677AFF5DFCA385DBE355A2",
              "parts": {
                "total": "1",
                "hash": "C59EC840BE7A3657E7EA00DFB0A124A9B7978264"
              }
            },
            "signature": {
              "type": "tendermint/SignatureEd25519",
              "value": "Wqxb8uQlkM6jidDtEFg2LG0cS2IMN4wt9g8JDlmKesgYdPMLXO7T92o34oiHU3+thmb7d4KkU9wosxFjTIExDQ=="
            }
          },
          {
            "validator_address": "1751786EFC085D5331C61168FFFC8202EA151B4E",
            "validator_index": "8",
            "height": "38080",
            "round": "1",
            "timestamp": "2018-08-01T21:39:09.94165748Z",
            "type": 2,
            "block_id": {
              "hash": "F4359259F2A9038D38677AFF5DFCA385DBE355A2",
              "parts": {
                "total": "1",
                "hash": "C59EC840BE7A3657E7EA00DFB0A124A9B7978264"
              }
            },
            "signature": {
              "type": "tendermint/SignatureEd25519",
              "value": "xqvM0dv/qzWE+esfAPvRdtzGL+z3laPPJXj/w4nYdoorGwc3+9PRLHjLk/LqA7S4PVJc5TpVzmf4aK+3MIdtDA=="
            }
          },
          {
            "validator_address": "17BB5CD01E8940FAFB948A04D5FA5A0645E5822E",
            "validator_index": "9",
            "height": "38080",
            "round": "1",
            "timestamp": "2018-08-01T21:39:10.33970364Z",
            "type": 2,
            "block_id": {
              "hash": "F4359259F2A9038D38677AFF5DFCA385DBE355A2",
              "parts": {
                "total": "1",
                "hash": "C59EC840BE7A3657E7EA00DFB0A124A9B7978264"
              }
            },
            "signature": {
              "type": "tendermint/SignatureEd25519",
              "value": "INd0EACBzEoMM2PxHapxkewSlM4TU/7DtxON+CHb+bXnEjgje209iOibM6DwjJEwsLsC1dg8FBlHrgIzEkdyAw=="
            }
          },
          {
            "validator_address": "1C683A87904BC38F05004FE83301A3A3E35447EB",
            "validator_index": "10",
            "height": "38080",
            "round": "1",
            "timestamp": "2018-08-01T21:39:10.262727711Z",
            "type": 2,
            "block_id": {
              "hash": "F4359259F2A9038D38677AFF5DFCA385DBE355A2",
              "parts": {
                "total": "1",
                "hash": "C59EC840BE7A3657E7EA00DFB0A124A9B7978264"
              }
            },
            "signature": {
              "type": "tendermint/SignatureEd25519",
              "value": "3xVNv9DjnHuiKvCzdvC/PrTNe7wtppksjRlklDGMk+k7+UFPzOMz0JVh+mFNE12dPNSAiXNGGfLDbz4R/GI3Dw=="
            }
          },
          {
            "validator_address": "1E9CE94FD0BA5CFEB901F90BC658D64D85B134D2",
            "validator_index": "11",
            "height": "38080",
            "round": "1",
            "timestamp": "2018-08-01T21:39:10.331584105Z",
            "type": 2,
            "block_id": {
              "hash": "F4359259F2A9038D38677AFF5DFCA385DBE355A2",
              "parts": {
                "total": "1",
                "hash": "C59EC840BE7A3657E7EA00DFB0A124A9B7978264"
              }
            },
            "signature": {
              "type": "tendermint/SignatureEd25519",
              "value": "cZGd8FdLgL4sfNdg8qoiDzsopnl0nQk736OMe4pkyRD/CNBnLmBWnsCnps8w6rrfEuy/8OvdubukeET8NLBTDg=="
            }
          },
          {
            "validator_address": "1ECD8C5FE1341D74CDC633A245DD56858DE2F9A2",
            "validator_index": "12",
            "height": "38080",
            "round": "1",
            "timestamp": "2018-08-01T21:39:10.425325413Z",
            "type": 2,
            "block_id": {
              "hash": "F4359259F2A9038D38677AFF5DFCA385DBE355A2",
              "parts": {
                "total": "1",
                "hash": "C59EC840BE7A3657E7EA00DFB0A124A9B7978264"
              }
            },
            "signature": {
              "type": "tendermint/SignatureEd25519",
              "value": "Rz+svs+D7riFoGWqzoljNHcxoOY0Ee0jAqeHaf3FFO2YYkpB0t36226DuLfzuZo5/V0sjuysJIuvDRB5JWLmAA=="
            }
          },
          {
            "validator_address": "1F3A68CAAD483768AA2BF667DEF10F7104C89928",
            "validator_index": "13",
            "height": "38080",
            "round": "1",
            "timestamp": "2018-08-01T21:39:10.284107136Z",
            "type": 2,
            "block_id": {
              "hash": "F4359259F2A9038D38677AFF5DFCA385DBE355A2",
              "parts": {
                "total": "1",
                "hash": "C59EC840BE7A3657E7EA00DFB0A124A9B7978264"
              }
            },
            "signature": {
              "type": "tendermint/SignatureEd25519",
              "value": "bUZvFYSmHX2vMkkdxl6uv8KeqrzJ5K86qwyK8TDuWyFDhLIjpDhTKOESYI2OptzvJlqneqrP/w9rSDDGM0YdAA=="
            }
          },
          {
            "validator_address": "1F61153F26C2DF27E15874268D30326287323352",
            "validator_index": "14",
            "height": "38080",
            "round": "1",
            "timestamp": "2018-08-01T21:39:10.379047336Z",
            "type": 2,
            "block_id": {
              "hash": "F4359259F2A9038D38677AFF5DFCA385DBE355A2",
              "parts": {
                "total": "1",
                "hash": "C59EC840BE7A3657E7EA00DFB0A124A9B7978264"
              }
            },
            "signature": {
              "type": "tendermint/SignatureEd25519",
              "value": "yUXClYUjRoP/OJ3YBdmyKd8q1alD/rrAtA0UIZRN8yG3YNvouBfju/2VDVvov1RsvHkIikifI+yF75pBxxgcDQ=="
            }
          },
          {
            "validator_address": "23897586D68E2AC1C78E0EF5BB5DF5C8EAB18F50",
            "validator_index": "15",
            "height": "38080",
            "round": "1",
            "timestamp": "2018-08-01T21:39:10.332244927Z",
            "type": 2,
            "block_id": {
              "hash": "F4359259F2A9038D38677AFF5DFCA385DBE355A2",
              "parts": {
                "total": "1",
                "hash": "C59EC840BE7A3657E7EA00DFB0A124A9B7978264"
              }
            },
            "signature": {
              "type": "tendermint/SignatureEd25519",
              "value": "p20H6OsR4UL2qEzMqM+NsMifinBdxhXtZAC6SVUTZ8+SqFakeVCjIqJWjfSNX+/NBVNzyQhbkrL10dYHM3SsDA=="
            }
          },
          {
            "validator_address": "28770D17E8530825E7310A0659308654B7EC9682",
            "validator_index": "16",
            "height": "38080",
            "round": "1",
            "timestamp": "2018-08-01T21:39:10.287883795Z",
            "type": 2,
            "block_id": {
              "hash": "F4359259F2A9038D38677AFF5DFCA385DBE355A2",
              "parts": {
                "total": "1",
                "hash": "C59EC840BE7A3657E7EA00DFB0A124A9B7978264"
              }
            },
            "signature": {
              "type": "tendermint/SignatureEd25519",
              "value": "0iwIPaGtXB33xs+J0/kbHdnQaaQAa24kXYoBIYtA9u4hD3brFOBF160OuNcXgNSm9dX2n4PtqF35IBhTvdQdBw=="
            }
          },
          {
            "validator_address": "2A92EC3C642140202298D0E245095E0ECFC25228",
            "validator_index": "17",
            "height": "38080",
            "round": "1",
            "timestamp": "2018-08-01T21:39:10.336107846Z",
            "type": 2,
            "block_id": {
              "hash": "F4359259F2A9038D38677AFF5DFCA385DBE355A2",
              "parts": {
                "total": "1",
                "hash": "C59EC840BE7A3657E7EA00DFB0A124A9B7978264"
              }
            },
            "signature": {
              "type": "tendermint/SignatureEd25519",
              "value": "fioT2va49DERiBYj8SNLeGqr+IYBetPOExj5jMN8iG7+Q730pODRJS14tW5LFqt0UP4JHaAS0FcJgqQxQzM9Aw=="
            }
          },
          {
            "validator_address": "33412C9A69C60CB0FAA24A5C5B3A906DE24B47C2",
            "validator_index": "18",
            "height": "38080",
            "round": "1",
            "timestamp": "2018-08-01T21:39:10.316199859Z",
            "type": 2,
            "block_id": {
              "hash": "F4359259F2A9038D38677AFF5DFCA385DBE355A2",
              "parts": {
                "total": "1",
                "hash": "C59EC840BE7A3657E7EA00DFB0A124A9B7978264"
              }
            },
            "signature": {
              "type": "tendermint/SignatureEd25519",
              "value": "V4NAOBXgFdV05x+UXbMgTsqzVia3HYgGd/dCcvzGF+7s65Z5tZ/TbKsIbW50ALBLvv/mt1sejHcTY76IrI1eDw=="
            }
          },
          {
            "validator_address": "36E9B7FAEC964F97D84C028ED62493E373AD0B38",
            "validator_index": "19",
            "height": "38080",
            "round": "1",
            "timestamp": "2018-08-01T21:39:10.457083462Z",
            "type": 2,
            "block_id": {
              "hash": "F4359259F2A9038D38677AFF5DFCA385DBE355A2",
              "parts": {
                "total": "1",
                "hash": "C59EC840BE7A3657E7EA00DFB0A124A9B7978264"
              }
            },
            "signature": {
              "type": "tendermint/SignatureEd25519",
              "value": "9rCBpegAoMXgouBrQMB3hTjiYj4DWKcDHZsq1xx81jKhCc9oW9uaAyTnHHfr9qNL+htbpR9p5rd//WDUKnZkCQ=="
            }
          },
          {
            "validator_address": "38A8D85D36BEA2E5FCF8A1E778F53628E450EF13",
            "validator_index": "20",
            "height": "38080",
            "round": "1",
            "timestamp": "2018-08-01T21:39:10.377865992Z",
            "type": 2,
            "block_id": {
              "hash": "F4359259F2A9038D38677AFF5DFCA385DBE355A2",
              "parts": {
                "total": "1",
                "hash": "C59EC840BE7A3657E7EA00DFB0A124A9B7978264"
              }
            },
            "signature": {
              "type": "tendermint/SignatureEd25519",
              "value": "U6EFjATYBgr8Tsgu5n9bl/pdeF/L8fe3ElEHs2eFQljBkaoNTHDkUfDqrovYj6nUnFC6TSgObKm0ZugFju1+Cg=="
            }
          },
          {
            "validator_address": "39DFDA0C5DB84B269642188B23253508537798E6",
            "validator_index": "21",
            "height": "38080",
            "round": "1",
            "timestamp": "2018-08-01T21:39:10.276995665Z",
            "type": 2,
            "block_id": {
              "hash": "F4359259F2A9038D38677AFF5DFCA385DBE355A2",
              "parts": {
                "total": "1",
                "hash": "C59EC840BE7A3657E7EA00DFB0A124A9B7978264"
              }
            },
            "signature": {
              "type": "tendermint/SignatureEd25519",
              "value": "Xuj9+prWLsMJpLnB5vOiJllfPdlDaOZg6BUaSVwDntOsHby4cpMcycpS4eLydzchnGkVbU7JeMjqkQMZ/u5FCQ=="
            }
          },
          {
            "validator_address": "3AC99B708404452366E0953A4BE849226DC86CBC",
            "validator_index": "22",
            "height": "38080",
            "round": "1",
            "timestamp": "2018-08-01T21:39:10.387943653Z",
            "type": 2,
            "block_id": {
              "hash": "F4359259F2A9038D38677AFF5DFCA385DBE355A2",
              "parts": {
                "total": "1",
                "hash": "C59EC840BE7A3657E7EA00DFB0A124A9B7978264"
              }
            },
            "signature": {
              "type": "tendermint/SignatureEd25519",
              "value": "s3p/IhBpFe+VIOq32c9SA3l/vTdAj52a1bD0BaRVJCNQjM50Mez1el9GdgSyLmhL8lH1HxtjZrJddb8DwBVQCg=="
            }
          },
          {
            "validator_address": "3DCB822A10ED319EC7C4393D8E3FD4A41B15AAF2",
            "validator_index": "23",
            "height": "38080",
            "round": "1",
            "timestamp": "2018-08-01T21:39:10.313729092Z",
            "type": 2,
            "block_id": {
              "hash": "F4359259F2A9038D38677AFF5DFCA385DBE355A2",
              "parts": {
                "total": "1",
                "hash": "C59EC840BE7A3657E7EA00DFB0A124A9B7978264"
              }
            },
            "signature": {
              "type": "tendermint/SignatureEd25519",
              "value": "+P2URbvzdnJBKfapYkFTTQy0SvO2idt1113yPOwkAdR1Nkhd3FJJrtB1byrx9khhEFKTw0ZN51ytarh15eIpDA=="
            }
          },
          {
            "validator_address": "3E899BA36A93C7370347BD5FE85909F2ECD93F8C",
            "validator_index": "24",
            "height": "38080",
            "round": "1",
            "timestamp": "2018-08-01T21:39:10.351554247Z",
            "type": 2,
            "block_id": {
              "hash": "F4359259F2A9038D38677AFF5DFCA385DBE355A2",
              "parts": {
                "total": "1",
                "hash": "C59EC840BE7A3657E7EA00DFB0A124A9B7978264"
              }
            },
            "signature": {
              "type": "tendermint/SignatureEd25519",
              "value": "mPkfDQsZ1zAPjvKayzJAEy0MF2zMyBPTvb626qzbaxJ3wnnG465FsJRecd7czkRCIKIGbZKmfun0V11T6dvJDA=="
            }
          },
          {
            "validator_address": "41CAB2E29E7D0F2282E3275938F188FF9386B84C",
            "validator_index": "25",
            "height": "38080",
            "round": "1",
            "timestamp": "2018-08-01T21:39:10.307039533Z",
            "type": 2,
            "block_id": {
              "hash": "F4359259F2A9038D38677AFF5DFCA385DBE355A2",
              "parts": {
                "total": "1",
                "hash": "C59EC840BE7A3657E7EA00DFB0A124A9B7978264"
              }
            },
            "signature": {
              "type": "tendermint/SignatureEd25519",
              "value": "NoV3TOngX102xUjkFijlJx1UqyTslAgOK0G+PSSAVDbZKmt+qTuNT+2HamGqeeiZqujrKaKJr11fxZL3jFa1AA=="
            }
          },
          {
            "validator_address": "462B656869DB02A8FD1077E255F8CC7401DC37C6",
            "validator_index": "26",
            "height": "38080",
            "round": "1",
            "timestamp": "2018-08-01T21:39:10.298314788Z",
            "type": 2,
            "block_id": {
              "hash": "F4359259F2A9038D38677AFF5DFCA385DBE355A2",
              "parts": {
                "total": "1",
                "hash": "C59EC840BE7A3657E7EA00DFB0A124A9B7978264"
              }
            },
            "signature": {
              "type": "tendermint/SignatureEd25519",
              "value": "a5D1DmhvFzdwUDzTWCdz03oJrV/xXtDJRBr/bjSlm9M10j9M9d/0z4qiBfWq12bAB4x9TCMmKJ/DhfWVZQAgDQ=="
            }
          },
          {
            "validator_address": "48E5118163E5442068A1B5A42D2EEDBB75724935",
            "validator_index": "27",
            "height": "38080",
            "round": "1",
            "timestamp": "2018-08-01T21:39:10.431019256Z",
            "type": 2,
            "block_id": {
              "hash": "F4359259F2A9038D38677AFF5DFCA385DBE355A2",
              "parts": {
                "total": "1",
                "hash": "C59EC840BE7A3657E7EA00DFB0A124A9B7978264"
              }
            },
            "signature": {
              "type": "tendermint/SignatureEd25519",
              "value": "S0fC1lfUwR2DrZprPh8/8uR+mM8XWzv0x0mO0KwxdL5rJFGOz+MJKUR5O0p6m3kRr1yRTATfjLhbAU4LQFBCDA=="
            }
          },
          {
            "validator_address": "49103C58AFD9C7C069F55EBA218F3DFD9AEA74F9",
            "validator_index": "28",
            "height": "38080",
            "round": "1",
            "timestamp": "2018-08-01T21:39:10.380841572Z",
            "type": 2,
            "block_id": {
              "hash": "F4359259F2A9038D38677AFF5DFCA385DBE355A2",
              "parts": {
                "total": "1",
                "hash": "C59EC840BE7A3657E7EA00DFB0A124A9B7978264"
              }
            },
            "signature": {
              "type": "tendermint/SignatureEd25519",
              "value": "bfRrWvLtZJUHA+S9vLQw6owWz/OCCizCmCyhsqHhMRkI+dvhFL99dGLU0uwZzoUWzVM8Fth+Qxq+GPc2eUuTDA=="
            }
          },
          {
            "validator_address": "4944F8BBBB5303E17BC0607DF332320EDBC750EA",
            "validator_index": "29",
            "height": "38080",
            "round": "1",
            "timestamp": "2018-08-01T21:39:10.282871617Z",
            "type": 2,
            "block_id": {
              "hash": "F4359259F2A9038D38677AFF5DFCA385DBE355A2",
              "parts": {
                "total": "1",
                "hash": "C59EC840BE7A3657E7EA00DFB0A124A9B7978264"
              }
            },
            "signature": {
              "type": "tendermint/SignatureEd25519",
              "value": "qocJk0t2HK/IfG7ugI4akjC6PJINz+DPGFXsiNWhyQOvkRuVj722vtL2V6yOMH2II/tiwrpcWHLX1vKR31NLCw=="
            }
          },
          {
            "validator_address": "49841599DE675157CBE1E7D6B35BF8FFC23BD5CB",
            "validator_index": "30",
            "height": "38080",
            "round": "1",
            "timestamp": "2018-08-01T21:39:10.266314933Z",
            "type": 2,
            "block_id": {
              "hash": "F4359259F2A9038D38677AFF5DFCA385DBE355A2",
              "parts": {
                "total": "1",
                "hash": "C59EC840BE7A3657E7EA00DFB0A124A9B7978264"
              }
            },
            "signature": {
              "type": "tendermint/SignatureEd25519",
              "value": "XvhOykN0876dheporuRhTcQeOy/UQCaBJrsnqHG/KTGr2vkyItfOpN/jIswUTe7s4onuNv4Mc8ReHRsl8ddyCw=="
            }
          },
          {
            "validator_address": "51386C2CF9556821D114D7E4945806802BADB28D",
            "validator_index": "31",
            "height": "38080",
            "round": "1",
            "timestamp": "2018-08-01T21:39:10.288304365Z",
            "type": 2,
            "block_id": {
              "hash": "F4359259F2A9038D38677AFF5DFCA385DBE355A2",
              "parts": {
                "total": "1",
                "hash": "C59EC840BE7A3657E7EA00DFB0A124A9B7978264"
              }
            },
            "signature": {
              "type": "tendermint/SignatureEd25519",
              "value": "yQi5WDP+eeU5oQKsf7sIu+BvwZvEFnUCo5ZqEb2MAz6BIYU5NL5OjcXyrGEq81LJsZAYtUzpF3UWUPW0ELdlDw=="
            }
          },
          {
            "validator_address": "543564ECA3AFEFADC73EE8591AAC3A96F079BC8A",
            "validator_index": "32",
            "height": "38080",
            "round": "1",
            "timestamp": "2018-08-01T21:39:10.328298229Z",
            "type": 2,
            "block_id": {
              "hash": "F4359259F2A9038D38677AFF5DFCA385DBE355A2",
              "parts": {
                "total": "1",
                "hash": "C59EC840BE7A3657E7EA00DFB0A124A9B7978264"
              }
            },
            "signature": {
              "type": "tendermint/SignatureEd25519",
              "value": "zYiXAvDRWYghNbdWvxYQzGyJl2mk9bFYVyGVshQ7tkeiEJEBFVZZAkPZgs2zE71xOKlwK5Z33EP8iOmJhdlPDg=="
            }
          },
          {
            "validator_address": "55D67B1A6DC13E96F8754A5A42EABC20F7F86664",
            "validator_index": "33",
            "height": "38080",
            "round": "1",
            "timestamp": "2018-08-01T21:39:10.304908919Z",
            "type": 2,
            "block_id": {
              "hash": "F4359259F2A9038D38677AFF5DFCA385DBE355A2",
              "parts": {
                "total": "1",
                "hash": "C59EC840BE7A3657E7EA00DFB0A124A9B7978264"
              }
            },
            "signature": {
              "type": "tendermint/SignatureEd25519",
              "value": "iZrFpgRbnfnm132G+FMJlxhc/rk9DHjwHq5vBDs3Rs3BcVeVLWIEj+YDk3idFbZxIsO/vsqUmBepqaFRZ/V4DQ=="
            }
          },
          {
            "validator_address": "570B6A755ED339EAC56BB3390A48069F6AC9449B",
            "validator_index": "34",
            "height": "38080",
            "round": "1",
            "timestamp": "2018-08-01T21:39:18.043153323Z",
            "type": 2,
            "block_id": {
              "hash": "F4359259F2A9038D38677AFF5DFCA385DBE355A2",
              "parts": {
                "total": "1",
                "hash": "C59EC840BE7A3657E7EA00DFB0A124A9B7978264"
              }
            },
            "signature": {
              "type": "tendermint/SignatureEd25519",
              "value": "enJfDHxzgBTuZcCVcLuN1gk7+5H7DroX0PIUNNi44TnXt2FjxSDDBUYiU1lqOJ8BRtQLqzyoc8HxbnG+91KMDg=="
            }
          },
          {
            "validator_address": "5BDF8EA41B1835FBAD865B181A2A4B23F511B5E4",
            "validator_index": "35",
            "height": "38080",
            "round": "1",
            "timestamp": "2018-08-01T21:39:10.284564701Z",
            "type": 2,
            "block_id": {
              "hash": "F4359259F2A9038D38677AFF5DFCA385DBE355A2",
              "parts": {
                "total": "1",
                "hash": "C59EC840BE7A3657E7EA00DFB0A124A9B7978264"
              }
            },
            "signature": {
              "type": "tendermint/SignatureEd25519",
              "value": "OLZwLPtId+ULxs4SQA7wbEpbFrlzubWe2AMKlFe5mw1GIi1PnssVp1W6v6ZDk1ByiUiESHLfHPpSjvtu1SvmCg=="
            }
          },
          {
            "validator_address": "60229E2E273297FE00219E46DFFB8F76844CDEF9",
            "validator_index": "36",
            "height": "38080",
            "round": "1",
            "timestamp": "2018-08-01T21:39:08.165299149Z",
            "type": 2,
            "block_id": {
              "hash": "F4359259F2A9038D38677AFF5DFCA385DBE355A2",
              "parts": {
                "total": "1",
                "hash": "C59EC840BE7A3657E7EA00DFB0A124A9B7978264"
              }
            },
            "signature": {
              "type": "tendermint/SignatureEd25519",
              "value": "reACeAmTHdaXdjjrymR8LQYC/CSk/fLYYPANuJ+71IOABTMUMFz6ZjFDCkvWgV+2rbTzMNcTL3nrnVfhfg8yCw=="
            }
          },
          {
            "validator_address": "62410D6D1CD98278136E4D0738AA0EA273CDFC54",
            "validator_index": "37",
            "height": "38080",
            "round": "1",
            "timestamp": "2018-08-01T21:39:10.290784005Z",
            "type": 2,
            "block_id": {
              "hash": "F4359259F2A9038D38677AFF5DFCA385DBE355A2",
              "parts": {
                "total": "1",
                "hash": "C59EC840BE7A3657E7EA00DFB0A124A9B7978264"
              }
            },
            "signature": {
              "type": "tendermint/SignatureEd25519",
              "value": "zu+a+AhPdzFNXDnZOWVBxihiHR3YKLTbqz5yl56fAQf6ovRLbrjllSn/wRZSrQCpDFRSY35POYTdOviSmI/xBg=="
            }
          },
          {
            "validator_address": "632F5C139A5A9DFBFE5111DEE29FCFB6157207DC",
            "validator_index": "38",
            "height": "38080",
            "round": "1",
            "timestamp": "2018-08-01T21:39:10.33194655Z",
            "type": 2,
            "block_id": {
              "hash": "F4359259F2A9038D38677AFF5DFCA385DBE355A2",
              "parts": {
                "total": "1",
                "hash": "C59EC840BE7A3657E7EA00DFB0A124A9B7978264"
              }
            },
            "signature": {
              "type": "tendermint/SignatureEd25519",
              "value": "BiZBunPCpGgc7sEz2OFgdwPDsCSiaLK2yaKkfexebzdG9vp1ajpQtuatz2vmi+bY3MM3cHokyNRzBNej1e8HCw=="
            }
          },
          {
            "validator_address": "64F57F8E796A9B7B590C1EFA4123988C86631D39",
            "validator_index": "39",
            "height": "38080",
            "round": "1",
            "timestamp": "2018-08-01T21:39:10.267112061Z",
            "type": 2,
            "block_id": {
              "hash": "F4359259F2A9038D38677AFF5DFCA385DBE355A2",
              "parts": {
                "total": "1",
                "hash": "C59EC840BE7A3657E7EA00DFB0A124A9B7978264"
              }
            },
            "signature": {
              "type": "tendermint/SignatureEd25519",
              "value": "wdYOtgmF20UdRkXH3gCnLq8nPaiyJ9cRoxiE1kqfyObOY6RJX6ZLGHXSYbFpkf/ZN4L8v3pka5c15vlkNjFwDQ=="
            }
          },
          {
            "validator_address": "69D99B2C66043ACBEAA8447525C356AFC6408E0C",
            "validator_index": "40",
            "height": "38080",
            "round": "1",
            "timestamp": "2018-08-01T21:39:10.379195092Z",
            "type": 2,
            "block_id": {
              "hash": "F4359259F2A9038D38677AFF5DFCA385DBE355A2",
              "parts": {
                "total": "1",
                "hash": "C59EC840BE7A3657E7EA00DFB0A124A9B7978264"
              }
            },
            "signature": {
              "type": "tendermint/SignatureEd25519",
              "value": "B4VVgLIP+tRztOUvOa+loEFkAtMBmi3hA7RbC6fJOveZxyPfffK6kjo9phQS8Z0DqY4bVcROGPwZWlgISwMaAg=="
            }
          },
          {
            "validator_address": "69EDADFA4A803E9DBF548C900D4A465E7D154262",
            "validator_index": "41",
            "height": "38080",
            "round": "1",
            "timestamp": "2018-08-01T21:39:10.460309159Z",
            "type": 2,
            "block_id": {
              "hash": "F4359259F2A9038D38677AFF5DFCA385DBE355A2",
              "parts": {
                "total": "1",
                "hash": "C59EC840BE7A3657E7EA00DFB0A124A9B7978264"
              }
            },
            "signature": {
              "type": "tendermint/SignatureEd25519",
              "value": "iSlTjdu0utdHX0nQItBqAhQdQ91xa0B+anj6DY6L1XJuaY4cnMGr39bK1S4CTdXdgsXar7IBY9waZDtXOZfKAw=="
            }
          },
          {
            "validator_address": "6D3AD380E398D8592B03AA124BAFED5F125DF863",
            "validator_index": "42",
            "height": "38080",
            "round": "1",
            "timestamp": "2018-08-01T21:38:07.9431695Z",
            "type": 2,
            "block_id": {
              "hash": "F4359259F2A9038D38677AFF5DFCA385DBE355A2",
              "parts": {
                "total": "1",
                "hash": "C59EC840BE7A3657E7EA00DFB0A124A9B7978264"
              }
            },
            "signature": {
              "type": "tendermint/SignatureEd25519",
              "value": "nxQbYgLoCAKi+Iu/QyPtLsTpaw1l3e2X+M+7jVmNkXTMdqIMBSnrHk34Y9Plph/YJcA5VW/n3aHeltbLX1zVDw=="
            }
          },
          {
            "validator_address": "6F6C93B8BF3495063FEC9B5C771158607F4AE9D6",
            "validator_index": "43",
            "height": "38080",
            "round": "1",
            "timestamp": "2018-08-01T21:39:10.47357895Z",
            "type": 2,
            "block_id": {
              "hash": "F4359259F2A9038D38677AFF5DFCA385DBE355A2",
              "parts": {
                "total": "1",
                "hash": "C59EC840BE7A3657E7EA00DFB0A124A9B7978264"
              }
            },
            "signature": {
              "type": "tendermint/SignatureEd25519",
              "value": "MvxfYRfzTYXOxUVMw85stc4c3M973DxP81Io0eicTrtHvdkKF9ZLWhDrY5MI5sux3Uz1BmL7CndQpH8K878kBg=="
            }
          },
          {
            "validator_address": "732CEEF54C374DDC6ADECBFD707AEFD07FEDC143",
            "validator_index": "44",
            "height": "38080",
            "round": "1",
            "timestamp": "2018-08-01T21:39:10.351293805Z",
            "type": 2,
            "block_id": {
              "hash": "F4359259F2A9038D38677AFF5DFCA385DBE355A2",
              "parts": {
                "total": "1",
                "hash": "C59EC840BE7A3657E7EA00DFB0A124A9B7978264"
              }
            },
            "signature": {
              "type": "tendermint/SignatureEd25519",
              "value": "c0XjJbucoDB/mSJ/HeMvBVLrJJDsh1ZmolAG9EhlxPrxxZkwHrL5VHaTVNdvvZhkR2GqXY+j+9qMf2O4Ah2LAg=="
            }
          },
          {
            "validator_address": "7393D691BFAE9661918C09932D4D9060AB40939B",
            "validator_index": "45",
            "height": "38080",
            "round": "1",
            "timestamp": "2018-08-01T21:39:10.466144079Z",
            "type": 2,
            "block_id": {
              "hash": "F4359259F2A9038D38677AFF5DFCA385DBE355A2",
              "parts": {
                "total": "1",
                "hash": "C59EC840BE7A3657E7EA00DFB0A124A9B7978264"
              }
            },
            "signature": {
              "type": "tendermint/SignatureEd25519",
              "value": "P78nY6pgYKqEijLn/K8fZmrUMgFw7mrN/30RNb/1hWkTAdO4BSYoMQ3FhRDuWaGxKR2+wBIYm9dol82liLC5CA=="
            }
          },
          {
            "validator_address": "751E43437224E8BB6D1569B3E2B2616B6E7F4397",
            "validator_index": "46",
            "height": "38080",
            "round": "1",
            "timestamp": "2018-08-01T21:39:10.330905746Z",
            "type": 2,
            "block_id": {
              "hash": "F4359259F2A9038D38677AFF5DFCA385DBE355A2",
              "parts": {
                "total": "1",
                "hash": "C59EC840BE7A3657E7EA00DFB0A124A9B7978264"
              }
            },
            "signature": {
              "type": "tendermint/SignatureEd25519",
              "value": "xyA0jWne0sHnsUjSLcJDDKcSm7Yr3NsBmEfCulZlnLSfOt7nzeBWC+KB1Uf0PYA0eP6eOne49MJo4GW/0TN0AA=="
            }
          },
          {
            "validator_address": "7EB7593F519F1180C7E872D0494611464EDF03AE",
            "validator_index": "47",
            "height": "38080",
            "round": "1",
            "timestamp": "2018-08-01T21:39:10.511047046Z",
            "type": 2,
            "block_id": {
              "hash": "F4359259F2A9038D38677AFF5DFCA385DBE355A2",
              "parts": {
                "total": "1",
                "hash": "C59EC840BE7A3657E7EA00DFB0A124A9B7978264"
              }
            },
            "signature": {
              "type": "tendermint/SignatureEd25519",
              "value": "Lw8Ky4XTV41LGjZsWJdr7igEizioVSnS4bNJwuS3FHvOlSq4KyCxhzWmTwwpslprXohhLsR1/HaBzGp4o+++DQ=="
            }
          },
          null,
          {
            "validator_address": "83AB321E012C57746689FED3A6064DF331F81007",
            "validator_index": "49",
            "height": "38080",
            "round": "1",
            "timestamp": "2018-08-01T21:39:10.398291017Z",
            "type": 2,
            "block_id": {
              "hash": "F4359259F2A9038D38677AFF5DFCA385DBE355A2",
              "parts": {
                "total": "1",
                "hash": "C59EC840BE7A3657E7EA00DFB0A124A9B7978264"
              }
            },
            "signature": {
              "type": "tendermint/SignatureEd25519",
              "value": "xMbXMj2BMhEFLolFkLAQpPsRvItzo6zRx3AS6Rq3OUOZTk1gke9hV7JNkMg4Gteop6xoWVxY2Oydp1jBsHXgCg=="
            }
          },
          {
            "validator_address": "83BB1B88D3DBB20AD845FECA07749EBD87D3754D",
            "validator_index": "50",
            "height": "38080",
            "round": "1",
            "timestamp": "2018-08-01T21:39:10.535961735Z",
            "type": 2,
            "block_id": {
              "hash": "F4359259F2A9038D38677AFF5DFCA385DBE355A2",
              "parts": {
                "total": "1",
                "hash": "C59EC840BE7A3657E7EA00DFB0A124A9B7978264"
              }
            },
            "signature": {
              "type": "tendermint/SignatureEd25519",
              "value": "d/dpuzChvD5OSvIAR/fGWmZVXHy4fIed+U4DCC80hnVmMwJOeaFcMHQgExv/6zbq3L239Pzjomo9HDwS9KFlBQ=="
            }
          },
          {
            "validator_address": "8F06FE1FD042683C426137FBC4BBAA4288924217",
            "validator_index": "51",
            "height": "38080",
            "round": "1",
            "timestamp": "2018-08-01T21:39:10.283918219Z",
            "type": 2,
            "block_id": {
              "hash": "F4359259F2A9038D38677AFF5DFCA385DBE355A2",
              "parts": {
                "total": "1",
                "hash": "C59EC840BE7A3657E7EA00DFB0A124A9B7978264"
              }
            },
            "signature": {
              "type": "tendermint/SignatureEd25519",
              "value": "Ja7e4O6BAK/CXWpRSouEIirxZmbgnaiV9q4RN6fRnF74tzXitI6rsAdq/Zd0y/O2IEQ7ZoVBuJ8/VM0qPUk2Dg=="
            }
          },
          {
            "validator_address": "8F45617BF45B10A3F8283DEBDB35E38C7CA43237",
            "validator_index": "52",
            "height": "38080",
            "round": "1",
            "timestamp": "2018-08-01T21:39:10.294876014Z",
            "type": 2,
            "block_id": {
              "hash": "F4359259F2A9038D38677AFF5DFCA385DBE355A2",
              "parts": {
                "total": "1",
                "hash": "C59EC840BE7A3657E7EA00DFB0A124A9B7978264"
              }
            },
            "signature": {
              "type": "tendermint/SignatureEd25519",
              "value": "Lk6GaYHTuB3Kb0fE9lPQXqWDsj8+LcrIu22E0dV/ez4q18by/6rZf+5lV6R1bZomV0n4caNMKUoCLqWuIbNBDQ=="
            }
          },
          {
            "validator_address": "95980831E186F2540F6E9FB6C8E74DE2401405AC",
            "validator_index": "53",
            "height": "38080",
            "round": "1",
            "timestamp": "2018-08-01T21:39:10.322583308Z",
            "type": 2,
            "block_id": {
              "hash": "F4359259F2A9038D38677AFF5DFCA385DBE355A2",
              "parts": {
                "total": "1",
                "hash": "C59EC840BE7A3657E7EA00DFB0A124A9B7978264"
              }
            },
            "signature": {
              "type": "tendermint/SignatureEd25519",
              "value": "SVsd0rVXg2F/CmrCzpyfTa8lIdOFkw69/nYlDNlbqgANCxw3HH6vru4pK3debXzL03yPqHCc1Q94mBQU5FRICg=="
            }
          },
          {
            "validator_address": "95FAFBC1E0579C83D290A063020CE87C5334BD9B",
            "validator_index": "54",
            "height": "38080",
            "round": "1",
            "timestamp": "2018-08-01T21:39:10.288091921Z",
            "type": 2,
            "block_id": {
              "hash": "F4359259F2A9038D38677AFF5DFCA385DBE355A2",
              "parts": {
                "total": "1",
                "hash": "C59EC840BE7A3657E7EA00DFB0A124A9B7978264"
              }
            },
            "signature": {
              "type": "tendermint/SignatureEd25519",
              "value": "7fVrUReinN6o246egdurA7TsicYuT2QNKsMzCY9g6Ms4bR/sEPdb8bUoGlYvmj4DrGN7kTOxDKWqofVlymdjAg=="
            }
          },
          {
            "validator_address": "96BDE45EC52606CF5CB59853097871AD60680549",
            "validator_index": "55",
            "height": "38080",
            "round": "1",
            "timestamp": "2018-08-01T21:39:10.359099479Z",
            "type": 2,
            "block_id": {
              "hash": "F4359259F2A9038D38677AFF5DFCA385DBE355A2",
              "parts": {
                "total": "1",
                "hash": "C59EC840BE7A3657E7EA00DFB0A124A9B7978264"
              }
            },
            "signature": {
              "type": "tendermint/SignatureEd25519",
              "value": "SdcV4ZMYrZvwL3HRTR0byu4xV+GighyBsA75xYklMg8ljuh9fA16VhZ+Q48e9AeHtrV5ioCy/nAWI/jTmFPaAQ=="
            }
          },
          {
            "validator_address": "970CD321881185BF83DB2923C321B0E75FDBB2B8",
            "validator_index": "56",
            "height": "38080",
            "round": "1",
            "timestamp": "2018-08-01T21:39:10.408368002Z",
            "type": 2,
            "block_id": {
              "hash": "F4359259F2A9038D38677AFF5DFCA385DBE355A2",
              "parts": {
                "total": "1",
                "hash": "C59EC840BE7A3657E7EA00DFB0A124A9B7978264"
              }
            },
            "signature": {
              "type": "tendermint/SignatureEd25519",
              "value": "fL8ulbh5Lz6abHewAgjnOqv2b8aHC2qQ8KYKrfAeT518Eaqdu2GSws95jXE0gtHbKuOaCQdtx32AoE1rQhuMDA=="
            }
          },
          {
            "validator_address": "97DBB3D4B3D6C29287244864448F651DD5B07390",
            "validator_index": "57",
            "height": "38080",
            "round": "1",
            "timestamp": "2018-08-01T21:39:10.415986792Z",
            "type": 2,
            "block_id": {
              "hash": "F4359259F2A9038D38677AFF5DFCA385DBE355A2",
              "parts": {
                "total": "1",
                "hash": "C59EC840BE7A3657E7EA00DFB0A124A9B7978264"
              }
            },
            "signature": {
              "type": "tendermint/SignatureEd25519",
              "value": "9lCXyqV6s21krZf1TCMwtUwyPQticUlDfphZpS4OoN+D3GMg/pCidU18fxfebmzxP3xXDdkgHXrQjDr4oYIjCg=="
            }
          },
          {
            "validator_address": "9C29C9B76D27586E4D9AD2AED0E943162645E55C",
            "validator_index": "58",
            "height": "38080",
            "round": "1",
            "timestamp": "2018-08-01T21:39:10.265942951Z",
            "type": 2,
            "block_id": {
              "hash": "F4359259F2A9038D38677AFF5DFCA385DBE355A2",
              "parts": {
                "total": "1",
                "hash": "C59EC840BE7A3657E7EA00DFB0A124A9B7978264"
              }
            },
            "signature": {
              "type": "tendermint/SignatureEd25519",
              "value": "aKJ/Vl71UiQkVZ22uDi6bSuPUaRqe+jLrwcV1LVy04w92q0YLXyXcxlnvPAJO2jldcvUfxml4ur4l/dHDr5nAA=="
            }
          },
          {
            "validator_address": "9D93AD02FE1BD7E76B9E58D7EB461088EAD011E5",
            "validator_index": "59",
            "height": "38080",
            "round": "1",
            "timestamp": "2018-08-01T21:39:10.242097136Z",
            "type": 2,
            "block_id": {
              "hash": "F4359259F2A9038D38677AFF5DFCA385DBE355A2",
              "parts": {
                "total": "1",
                "hash": "C59EC840BE7A3657E7EA00DFB0A124A9B7978264"
              }
            },
            "signature": {
              "type": "tendermint/SignatureEd25519",
              "value": "QiLqAnLZ5PTFjiNX4i4W8bb5/UWXjpJVPKH1FE+ri1RIMmYrgXj4Z1Q8bMDLw7hFO4qZ9RG/YZpMXnLXrpLlBg=="
            }
          },
          {
            "validator_address": "A0A6466F4ABEA09C3B55E3709AFDE217A103209F",
            "validator_index": "60",
            "height": "38080",
            "round": "1",
            "timestamp": "2018-08-01T21:39:10.308400404Z",
            "type": 2,
            "block_id": {
              "hash": "F4359259F2A9038D38677AFF5DFCA385DBE355A2",
              "parts": {
                "total": "1",
                "hash": "C59EC840BE7A3657E7EA00DFB0A124A9B7978264"
              }
            },
            "signature": {
              "type": "tendermint/SignatureEd25519",
              "value": "oQDqivsGJnDb4rr7Wp5TiNwqZAwpJh547b87Qz1xB7k2J0SUIIONFR8kFBR6Ts9VP5wORudAhul5bpzgqjfWDg=="
            }
          },
          {
            "validator_address": "A5868971300F155020634D7BB49C7634F7AACCD3",
            "validator_index": "61",
            "height": "38080",
            "round": "1",
            "timestamp": "2018-08-01T21:39:10.316616522Z",
            "type": 2,
            "block_id": {
              "hash": "F4359259F2A9038D38677AFF5DFCA385DBE355A2",
              "parts": {
                "total": "1",
                "hash": "C59EC840BE7A3657E7EA00DFB0A124A9B7978264"
              }
            },
            "signature": {
              "type": "tendermint/SignatureEd25519",
              "value": "z1OBJ2m6KIOoCrTtOFRWvhMlajIKz+fr4sIfagPzl4QU8asO/RT4tigP7zJ1KuRbcrLxEe72a4Uc3Rutfh+7Dg=="
            }
          },
          {
            "validator_address": "A6B3A5B5D982CFD7B5FDFA15CF5A720E7AE25E7F",
            "validator_index": "62",
            "height": "38080",
            "round": "1",
            "timestamp": "2018-08-01T21:39:10.535756095Z",
            "type": 2,
            "block_id": {
              "hash": "F4359259F2A9038D38677AFF5DFCA385DBE355A2",
              "parts": {
                "total": "1",
                "hash": "C59EC840BE7A3657E7EA00DFB0A124A9B7978264"
              }
            },
            "signature": {
              "type": "tendermint/SignatureEd25519",
              "value": "H6v7qkPY88RF8GqRk551FWkHtEnZ4mkVsnlBat/bdqGAV7Qptkz4W6VHinucpWcDzrO0I+Ocw2rcRfsMoA08BQ=="
            }
          },
          {
            "validator_address": "AC96444A9083890B7C7B430DB17BF1D3EA5EED04",
            "validator_index": "63",
            "height": "38080",
            "round": "1",
            "timestamp": "2018-08-01T21:39:10.39094145Z",
            "type": 2,
            "block_id": {
              "hash": "F4359259F2A9038D38677AFF5DFCA385DBE355A2",
              "parts": {
                "total": "1",
                "hash": "C59EC840BE7A3657E7EA00DFB0A124A9B7978264"
              }
            },
            "signature": {
              "type": "tendermint/SignatureEd25519",
              "value": "P2A+sWhMrsmXt2uBOS+hI65+R6UenTjlnf0O3jv+3hxpaNUpvP26Ts3FMtlGEvpwjD5h6tHTg6DxL1ajBT0vDg=="
            }
          },
          {
            "validator_address": "ACB97FDA2D940AF0709B73537C458EB988AD2893",
            "validator_index": "64",
            "height": "38080",
            "round": "1",
            "timestamp": "2018-08-01T21:39:10.306804949Z",
            "type": 2,
            "block_id": {
              "hash": "F4359259F2A9038D38677AFF5DFCA385DBE355A2",
              "parts": {
                "total": "1",
                "hash": "C59EC840BE7A3657E7EA00DFB0A124A9B7978264"
              }
            },
            "signature": {
              "type": "tendermint/SignatureEd25519",
              "value": "sVohHWR35WxKmHQ9Fp8RgM2RsgwdGJ1TtaIRDAyBVNkJtjGA7BsJ5yXziOapMMBN3yeFujVqyEmKUDnhS4oHAg=="
            }
          },
          {
            "validator_address": "B197425B3210375F211661DE02EF2AE36580EB0F",
            "validator_index": "65",
            "height": "38080",
            "round": "1",
            "timestamp": "2018-08-01T21:39:10.337892571Z",
            "type": 2,
            "block_id": {
              "hash": "F4359259F2A9038D38677AFF5DFCA385DBE355A2",
              "parts": {
                "total": "1",
                "hash": "C59EC840BE7A3657E7EA00DFB0A124A9B7978264"
              }
            },
            "signature": {
              "type": "tendermint/SignatureEd25519",
              "value": "558fg8+ZqkBe8HqzaXWcu+G50Ip+3J0FqKoJ4+DEmlFhLeJLq6U1epgk8Ao6qEO3Ini2GHj34uD4RMdgRJVyDw=="
            }
          },
          {
            "validator_address": "B45E54D2D1CB5A4CCD1D49016608C18E7C56B270",
            "validator_index": "66",
            "height": "38080",
            "round": "1",
            "timestamp": "2018-08-01T21:39:10.457903188Z",
            "type": 2,
            "block_id": {
              "hash": "F4359259F2A9038D38677AFF5DFCA385DBE355A2",
              "parts": {
                "total": "1",
                "hash": "C59EC840BE7A3657E7EA00DFB0A124A9B7978264"
              }
            },
            "signature": {
              "type": "tendermint/SignatureEd25519",
              "value": "fb+vPA77BDir5kGlQray/DKCxveXtoicEfhRXaut/XW8K6xomAmgukdIMIYO5vShEoQBJnFUwSPZTr++YNK+AQ=="
            }
          },
          {
            "validator_address": "BB1276BE89834835428664408917649FEEF5D90C",
            "validator_index": "67",
            "height": "38080",
            "round": "1",
            "timestamp": "2018-08-01T21:39:10.385739733Z",
            "type": 2,
            "block_id": {
              "hash": "F4359259F2A9038D38677AFF5DFCA385DBE355A2",
              "parts": {
                "total": "1",
                "hash": "C59EC840BE7A3657E7EA00DFB0A124A9B7978264"
              }
            },
            "signature": {
              "type": "tendermint/SignatureEd25519",
              "value": "tRNiExDJyj8KTbF+UWg5v4nM2IfkcCEp3tcw3qsZux+Y6+0zKlka8Vyd8YtRN1+e8xz9Y59tmQh6niF5yrELBg=="
            }
          },
          {
            "validator_address": "BC36FEDD6EF6071118A3E51859DF3831A2EC4782",
            "validator_index": "68",
            "height": "38080",
            "round": "1",
            "timestamp": "2018-08-01T21:39:10.361058216Z",
            "type": 2,
            "block_id": {
              "hash": "F4359259F2A9038D38677AFF5DFCA385DBE355A2",
              "parts": {
                "total": "1",
                "hash": "C59EC840BE7A3657E7EA00DFB0A124A9B7978264"
              }
            },
            "signature": {
              "type": "tendermint/SignatureEd25519",
              "value": "O6S8+ZyW8IaCXxv7oSgmhRITawOaKS81saFErhcurjlFJ8ihgFB3V13UAVmRRglqtDk2DCiapCgMAI1xOHJ2AQ=="
            }
          },
          {
            "validator_address": "BD9D0DA513BF099DB4BB6E725A4E19832789882F",
            "validator_index": "69",
            "height": "38080",
            "round": "1",
            "timestamp": "2018-08-01T21:39:10.302861554Z",
            "type": 2,
            "block_id": {
              "hash": "F4359259F2A9038D38677AFF5DFCA385DBE355A2",
              "parts": {
                "total": "1",
                "hash": "C59EC840BE7A3657E7EA00DFB0A124A9B7978264"
              }
            },
            "signature": {
              "type": "tendermint/SignatureEd25519",
              "value": "Gm0ZkHsOHjqxabCENbgLIykJZtZUZAX1B07oimgZUk2dHfJgi0tOv3Xztn2VgQ44ueTDA+e7g1Wyp7qD1EafCA=="
            }
          },
          {
            "validator_address": "C1134A2FF8F7338E7CDB3FE57DDD2A655DEB1E22",
            "validator_index": "70",
            "height": "38080",
            "round": "1",
            "timestamp": "2018-08-01T21:39:10.405733909Z",
            "type": 2,
            "block_id": {
              "hash": "F4359259F2A9038D38677AFF5DFCA385DBE355A2",
              "parts": {
                "total": "1",
                "hash": "C59EC840BE7A3657E7EA00DFB0A124A9B7978264"
              }
            },
            "signature": {
              "type": "tendermint/SignatureEd25519",
              "value": "+Hl6vwz5z+F901gOTU5ozFcWpnRfN9nkGT2B/RHmgr9DSeAfJaypea/djoQ9srTgU17JXg7ONVpqrESeChVyCg=="
            }
          },
          {
            "validator_address": "C39A8A2B85198DCB8F23AD1F6C198E2BA7AB5D60",
            "validator_index": "71",
            "height": "38080",
            "round": "1",
            "timestamp": "2018-08-01T21:39:10.287275597Z",
            "type": 2,
            "block_id": {
              "hash": "F4359259F2A9038D38677AFF5DFCA385DBE355A2",
              "parts": {
                "total": "1",
                "hash": "C59EC840BE7A3657E7EA00DFB0A124A9B7978264"
              }
            },
            "signature": {
              "type": "tendermint/SignatureEd25519",
              "value": "UBMkgR7bxdyJjlX/pDI2bXMkCr2/ZMVclK/AfjRrat0wMCWWwKjNDbr22BD/veOl7c/mBTGJ459oBwROLKklCA=="
            }
          },
          {
            "validator_address": "C4335190C3B5BD4BA5568BC0F99C34162D940D08",
            "validator_index": "72",
            "height": "38080",
            "round": "1",
            "timestamp": "2018-08-01T21:39:10.331460283Z",
            "type": 2,
            "block_id": {
              "hash": "F4359259F2A9038D38677AFF5DFCA385DBE355A2",
              "parts": {
                "total": "1",
                "hash": "C59EC840BE7A3657E7EA00DFB0A124A9B7978264"
              }
            },
            "signature": {
              "type": "tendermint/SignatureEd25519",
              "value": "lXXfNPP6r+lFj7Gie2/KcE1LtvVBmCuXSrTZfCjDYHa0Wn1yLvRKfvGFCmMYhYSXJwWLLCgMizxegXf/ARvEAw=="
            }
          },
          {
            "validator_address": "C561CFA081677046376396922E7576E5F7B316AD",
            "validator_index": "73",
            "height": "38080",
            "round": "1",
            "timestamp": "2018-08-01T21:39:10.465336824Z",
            "type": 2,
            "block_id": {
              "hash": "F4359259F2A9038D38677AFF5DFCA385DBE355A2",
              "parts": {
                "total": "1",
                "hash": "C59EC840BE7A3657E7EA00DFB0A124A9B7978264"
              }
            },
            "signature": {
              "type": "tendermint/SignatureEd25519",
              "value": "aYdk3MjCxRyfjPMfdWkpkfxEX35qCKuh4H6D5V6JNjrlikgV6UGhH1iA2S8w+N84v3jN52z6YoNRoycSPEYXBQ=="
            }
          },
          {
            "validator_address": "CE589EA77B056D268D30D1DC1D68A70E0F885E95",
            "validator_index": "74",
            "height": "38080",
            "round": "1",
            "timestamp": "2018-08-01T21:39:10.32502181Z",
            "type": 2,
            "block_id": {
              "hash": "F4359259F2A9038D38677AFF5DFCA385DBE355A2",
              "parts": {
                "total": "1",
                "hash": "C59EC840BE7A3657E7EA00DFB0A124A9B7978264"
              }
            },
            "signature": {
              "type": "tendermint/SignatureEd25519",
              "value": "7TjgXe0mLJpinTwaaDmqX5eynAQ7xKNNgtQH2yeekVSvNNJsjEtg8Jrf6xMoE+t96JNh9tDjYaQ/MRvHiE/ZAA=="
            }
          },
          {
            "validator_address": "CEB97DB5CB18270247ABDE6CF2F84F9AEE8A2904",
            "validator_index": "75",
            "height": "38080",
            "round": "1",
            "timestamp": "2018-08-01T21:39:11.058504204Z",
            "type": 2,
            "block_id": {
              "hash": "F4359259F2A9038D38677AFF5DFCA385DBE355A2",
              "parts": {
                "total": "1",
                "hash": "C59EC840BE7A3657E7EA00DFB0A124A9B7978264"
              }
            },
            "signature": {
              "type": "tendermint/SignatureEd25519",
              "value": "yWHK9n2xzsUJZ2leWCEPmUeGcMHxfWXU9zzHsYYomFGj7FlRSzU/XnxTIRFhk0npgSVuTITUJczc/y+LFKk1BQ=="
            }
          },
          {
            "validator_address": "CF205769734F5758CC39F907EFB73D6BAF915FB1",
            "validator_index": "76",
            "height": "38080",
            "round": "1",
            "timestamp": "2018-08-01T21:39:10.476453261Z",
            "type": 2,
            "block_id": {
              "hash": "F4359259F2A9038D38677AFF5DFCA385DBE355A2",
              "parts": {
                "total": "1",
                "hash": "C59EC840BE7A3657E7EA00DFB0A124A9B7978264"
              }
            },
            "signature": {
              "type": "tendermint/SignatureEd25519",
              "value": "O/tU5eG+IRThEVEON9HcL6rmXax5H+MRUWioPSddRcQ2qrDVwhWu2dEfh1qY14uCEjq0OFGaOUI6VxDpoRbrBQ=="
            }
          },
          {
            "validator_address": "D2134B826A1E25A955905CB79A4D8731CAFA0CCE",
            "validator_index": "77",
            "height": "38080",
            "round": "1",
            "timestamp": "2018-08-01T21:39:10.421842534Z",
            "type": 2,
            "block_id": {
              "hash": "F4359259F2A9038D38677AFF5DFCA385DBE355A2",
              "parts": {
                "total": "1",
                "hash": "C59EC840BE7A3657E7EA00DFB0A124A9B7978264"
              }
            },
            "signature": {
              "type": "tendermint/SignatureEd25519",
              "value": "Am1KimXchqIv5XNH6UKMoSlb/MzoPwW4Cr5FV6Rp55hQpcGnryXh45aiQwWrYOvJs1m+oQik86TnYo5M3TOqBQ=="
            }
          },
          {
            "validator_address": "D6285C3422C8886445D53757CBE12D2B91B5A9D0",
            "validator_index": "78",
            "height": "38080",
            "round": "1",
            "timestamp": "2018-08-01T21:38:53.384606329Z",
            "type": 2,
            "block_id": {
              "hash": "F4359259F2A9038D38677AFF5DFCA385DBE355A2",
              "parts": {
                "total": "1",
                "hash": "C59EC840BE7A3657E7EA00DFB0A124A9B7978264"
              }
            },
            "signature": {
              "type": "tendermint/SignatureEd25519",
              "value": "AO5zECxcGuGr8YqgxzeXmbYEfbzykG9vsybU6G8kMkURI0k6nXvdWVRbq35olJ1xHEaADD8/rVWD1QrRES/4AQ=="
            }
          },
          {
            "validator_address": "D77FB84A729972CD3E757C9BEB61561855832B92",
            "validator_index": "79",
            "height": "38080",
            "round": "1",
            "timestamp": "2018-08-01T21:39:10.426547283Z",
            "type": 2,
            "block_id": {
              "hash": "F4359259F2A9038D38677AFF5DFCA385DBE355A2",
              "parts": {
                "total": "1",
                "hash": "C59EC840BE7A3657E7EA00DFB0A124A9B7978264"
              }
            },
            "signature": {
              "type": "tendermint/SignatureEd25519",
              "value": "AY78RdkO8vCWgqbdTtoyRQWXHTDQwJjEXm40Ge3WeyKo/+JXhuB1Bb4i7G9CAx6/V87Tnum6jeZRwj/KvJQTCg=="
            }
          },
          {
            "validator_address": "DB7E6732471D3EA5C90C17A9974D9F88AB45F2FB",
            "validator_index": "80",
            "height": "38080",
            "round": "1",
            "timestamp": "2018-08-01T21:39:10.357303842Z",
            "type": 2,
            "block_id": {
              "hash": "F4359259F2A9038D38677AFF5DFCA385DBE355A2",
              "parts": {
                "total": "1",
                "hash": "C59EC840BE7A3657E7EA00DFB0A124A9B7978264"
              }
            },
            "signature": {
              "type": "tendermint/SignatureEd25519",
              "value": "GTA9gDo28l68vZPOCiq5DI20iOOQrxxak1fZZ5w9+UWfxa9JI/cRvUkKpB2bWixfabAzu1eDjjId6vEy6rvtCw=="
            }
          },
          {
            "validator_address": "DF54B862410BCD9B5C516FBB6C56BDC826ED6FA7",
            "validator_index": "81",
            "height": "38080",
            "round": "1",
            "timestamp": "2018-08-01T21:39:10.455211851Z",
            "type": 2,
            "block_id": {
              "hash": "F4359259F2A9038D38677AFF5DFCA385DBE355A2",
              "parts": {
                "total": "1",
                "hash": "C59EC840BE7A3657E7EA00DFB0A124A9B7978264"
              }
            },
            "signature": {
              "type": "tendermint/SignatureEd25519",
              "value": "l9GL5+NbCHNdPH0SUwZjYzOfk4QoQYQffdMlMYORrSOtmkpFpquvBa/F/xyiB8w9TB3JYOFqPfG+Y1nMv+VmAQ=="
            }
          },
          {
            "validator_address": "DFAF0C8B1B78D6D552B0189DE3ACA351439A1319",
            "validator_index": "82",
            "height": "38080",
            "round": "1",
            "timestamp": "2018-08-01T21:39:10.293151892Z",
            "type": 2,
            "block_id": {
              "hash": "F4359259F2A9038D38677AFF5DFCA385DBE355A2",
              "parts": {
                "total": "1",
                "hash": "C59EC840BE7A3657E7EA00DFB0A124A9B7978264"
              }
            },
            "signature": {
              "type": "tendermint/SignatureEd25519",
              "value": "lFCxiEPNOFbpCPZJmaPGvUXEL15bjAt24lxwekabXC7FSeyij8WQ1MBJpBtHS9M++nlrrqcdo2IY9mpG9538DQ=="
            }
          },
          {
            "validator_address": "E1DBC77881161A5A3A8536A57536EAE546A75D69",
            "validator_index": "83",
            "height": "38080",
            "round": "1",
            "timestamp": "2018-08-01T21:39:10.217488613Z",
            "type": 2,
            "block_id": {
              "hash": "F4359259F2A9038D38677AFF5DFCA385DBE355A2",
              "parts": {
                "total": "1",
                "hash": "C59EC840BE7A3657E7EA00DFB0A124A9B7978264"
              }
            },
            "signature": {
              "type": "tendermint/SignatureEd25519",
              "value": "CRON0lguuPXcVHQFA1MgWT0ZYr4XBuOvasa6ixcweCwPYuxkvPmc6hsXRHTTVyPU3kF49OI4YND4FQ3H+eivCA=="
            }
          },
          {
            "validator_address": "E300E9D484374C1D3E97C1D93CAC3B160A056298",
            "validator_index": "84",
            "height": "38080",
            "round": "1",
            "timestamp": "2018-08-01T21:39:10.602369091Z",
            "type": 2,
            "block_id": {
              "hash": "F4359259F2A9038D38677AFF5DFCA385DBE355A2",
              "parts": {
                "total": "1",
                "hash": "C59EC840BE7A3657E7EA00DFB0A124A9B7978264"
              }
            },
            "signature": {
              "type": "tendermint/SignatureEd25519",
              "value": "82/RioC6vqw3N6F9IxIJXNmDqjaQF+hMrTjgPgXeffsUulTpa50y/j3ncSTfjsDg3+UgVhj1JYRFCcoirN0ZDA=="
            }
          },
          {
            "validator_address": "E39B5778E0D4297A46F45CF6940B0A163A430FF8",
            "validator_index": "85",
            "height": "38080",
            "round": "1",
            "timestamp": "2018-08-01T21:39:10.368654612Z",
            "type": 2,
            "block_id": {
              "hash": "F4359259F2A9038D38677AFF5DFCA385DBE355A2",
              "parts": {
                "total": "1",
                "hash": "C59EC840BE7A3657E7EA00DFB0A124A9B7978264"
              }
            },
            "signature": {
              "type": "tendermint/SignatureEd25519",
              "value": "xs+ggXB/h8oRbsdnV+dtPJEcVoDFqWCMU7PZaZptW36TJKf1cX3PUthfdW+QMTtYucmK9Ls2g+2g7k5DeWZRCw=="
            }
          },
          {
            "validator_address": "E3B19738F7132F950668504D326C7660F159D170",
            "validator_index": "86",
            "height": "38080",
            "round": "1",
            "timestamp": "2018-08-01T21:39:10.290271969Z",
            "type": 2,
            "block_id": {
              "hash": "F4359259F2A9038D38677AFF5DFCA385DBE355A2",
              "parts": {
                "total": "1",
                "hash": "C59EC840BE7A3657E7EA00DFB0A124A9B7978264"
              }
            },
            "signature": {
              "type": "tendermint/SignatureEd25519",
              "value": "R0zlBOLpF3337jX6Zu1dDnnv/6pzCDk4wBWh8XV3L3Wraj9f0DysQ35L4+jUspMgp28FhP3HxGU4KeQ/lVcYCw=="
            }
          },
          {
            "validator_address": "E42F8AEABB685219F7027F54D2B0DBC7846F633A",
            "validator_index": "87",
            "height": "38080",
            "round": "1",
            "timestamp": "2018-08-01T21:39:09.494534392Z",
            "type": 2,
            "block_id": {
              "hash": "F4359259F2A9038D38677AFF5DFCA385DBE355A2",
              "parts": {
                "total": "1",
                "hash": "C59EC840BE7A3657E7EA00DFB0A124A9B7978264"
              }
            },
            "signature": {
              "type": "tendermint/SignatureEd25519",
              "value": "BzHo9hmGLexySdkFj901ljcq/VRoVgm9OjWqFGEFWNF0IpxODKsRdsnHUpwJzrJADGvot2JyZyOCkz1GarNhBw=="
            }
          },
          {
            "validator_address": "E4E6C2E81269DFFA196C17F98240E491479A6008",
            "validator_index": "88",
            "height": "38080",
            "round": "1",
            "timestamp": "2018-08-01T21:39:10.389045028Z",
            "type": 2,
            "block_id": {
              "hash": "F4359259F2A9038D38677AFF5DFCA385DBE355A2",
              "parts": {
                "total": "1",
                "hash": "C59EC840BE7A3657E7EA00DFB0A124A9B7978264"
              }
            },
            "signature": {
              "type": "tendermint/SignatureEd25519",
              "value": "Ya1GNqlKfehJKKZ8VccbggJmnmCWVEO++Fk1ZklNO4go4P5xP4lhu8R0s4Ugren+mi/e0n88nPNzNyOMMF5UAQ=="
            }
          },
          {
            "validator_address": "E4FEB2846F4F3B0ECDCBE9C9DCB2248248A5AF0F",
            "validator_index": "89",
            "height": "38080",
            "round": "1",
            "timestamp": "2018-08-01T21:39:10.616343267Z",
            "type": 2,
            "block_id": {
              "hash": "F4359259F2A9038D38677AFF5DFCA385DBE355A2",
              "parts": {
                "total": "1",
                "hash": "C59EC840BE7A3657E7EA00DFB0A124A9B7978264"
              }
            },
            "signature": {
              "type": "tendermint/SignatureEd25519",
              "value": "33S0L+0wP/ibAFCBVU+wCBRXQ7voSjSq2MJnWKXxNY2dC33Nk/X7M5U0qYcXyVR6LjJKkZV33HKsIS2cTB/rDA=="
            }
          },
          {
            "validator_address": "E50ADECD5FD27FA2CD610C07F8AED36A2FC4A6A6",
            "validator_index": "90",
            "height": "38080",
            "round": "1",
            "timestamp": "2018-08-01T21:39:10.290958063Z",
            "type": 2,
            "block_id": {
              "hash": "F4359259F2A9038D38677AFF5DFCA385DBE355A2",
              "parts": {
                "total": "1",
                "hash": "C59EC840BE7A3657E7EA00DFB0A124A9B7978264"
              }
            },
            "signature": {
              "type": "tendermint/SignatureEd25519",
              "value": "Shh9OqEzvNvZPF4JHUmyd8D+PsmLw1Pa0NuPDtqYxIWsrfVhZTNougTaz5RU5Yy8OVDCyCOaZik8ZSS9dV4EBA=="
            }
          },
          {
            "validator_address": "E6A7079D584B163750BE0831227F6B685DEAF3C1",
            "validator_index": "91",
            "height": "38080",
            "round": "1",
            "timestamp": "2018-08-01T21:39:10.404244925Z",
            "type": 2,
            "block_id": {
              "hash": "F4359259F2A9038D38677AFF5DFCA385DBE355A2",
              "parts": {
                "total": "1",
                "hash": "C59EC840BE7A3657E7EA00DFB0A124A9B7978264"
              }
            },
            "signature": {
              "type": "tendermint/SignatureEd25519",
              "value": "JLAzoHinxuppyZ7ItoNzdBPTIUgy5h2j0at3D19yOfnCRfNy+1vrsfjsXovpu7vp33rfSl10dyRMyeyAA5/xAQ=="
            }
          },
          {
            "validator_address": "E7A30077D5D11867D3EAF99ED45BFDC1EB834509",
            "validator_index": "92",
            "height": "38080",
            "round": "1",
            "timestamp": "2018-08-01T21:39:10.342226631Z",
            "type": 2,
            "block_id": {
              "hash": "F4359259F2A9038D38677AFF5DFCA385DBE355A2",
              "parts": {
                "total": "1",
                "hash": "C59EC840BE7A3657E7EA00DFB0A124A9B7978264"
              }
            },
            "signature": {
              "type": "tendermint/SignatureEd25519",
              "value": "uMuMF3HYFOrbDhemWypJuDb1aZldgD0jSbcbg/P7aDVh+2HiFWY7qtYUnStUbCuYQ7RZsP0tOLLaAkuOd+47DA=="
            }
          },
          null,
          {
            "validator_address": "EC3401441726C40ECC7E51F744483B05BC6DE9BD",
            "validator_index": "94",
            "height": "38080",
            "round": "1",
            "timestamp": "2018-08-01T21:39:10.322581395Z",
            "type": 2,
            "block_id": {
              "hash": "F4359259F2A9038D38677AFF5DFCA385DBE355A2",
              "parts": {
                "total": "1",
                "hash": "C59EC840BE7A3657E7EA00DFB0A124A9B7978264"
              }
            },
            "signature": {
              "type": "tendermint/SignatureEd25519",
              "value": "L5lxrr75eLg7dYYKOdy7fi7z/1MIgEqzKi9Jnh6X7M96DYRWjqWiW/TucUBlpoVe0hTEBhGZ1Laf+/MhSLIFCg=="
            }
          },
          {
            "validator_address": "EC95B111D032181E1EC3B5E8875C5BB8E4AE7140",
            "validator_index": "95",
            "height": "38080",
            "round": "1",
            "timestamp": "2018-08-01T21:39:10.304375089Z",
            "type": 2,
            "block_id": {
              "hash": "F4359259F2A9038D38677AFF5DFCA385DBE355A2",
              "parts": {
                "total": "1",
                "hash": "C59EC840BE7A3657E7EA00DFB0A124A9B7978264"
              }
            },
            "signature": {
              "type": "tendermint/SignatureEd25519",
              "value": "d6dtHNcmZgw7bKDUKkYiESkbRaxqtAJp7zmhNvSS/0lkIcmrvVJl48cKvhj2oKKJuWlooCs3l99wqCdX3Q+ACQ=="
            }
          },
          {
            "validator_address": "F23FF36BD5B90C33CE3A03ED72DBDCF5EC07D6AF",
            "validator_index": "96",
            "height": "38080",
            "round": "1",
            "timestamp": "2018-08-01T21:39:10.319396644Z",
            "type": 2,
            "block_id": {
              "hash": "F4359259F2A9038D38677AFF5DFCA385DBE355A2",
              "parts": {
                "total": "1",
                "hash": "C59EC840BE7A3657E7EA00DFB0A124A9B7978264"
              }
            },
            "signature": {
              "type": "tendermint/SignatureEd25519",
              "value": "q9PyGGPouFy2ri0e7yXYOQJod3YKOWToV1d0lYMxYJs3nNbUMmmhfiRKX91N0hFNqedaaIFRMThHflo8/M+0AQ=="
            }
          },
          {
            "validator_address": "F4268597DE93E3E2CED38845010F8AA34E2A879E",
            "validator_index": "97",
            "height": "38080",
            "round": "1",
            "timestamp": "2018-08-01T21:39:10.323770474Z",
            "type": 2,
            "block_id": {
              "hash": "F4359259F2A9038D38677AFF5DFCA385DBE355A2",
              "parts": {
                "total": "1",
                "hash": "C59EC840BE7A3657E7EA00DFB0A124A9B7978264"
              }
            },
            "signature": {
              "type": "tendermint/SignatureEd25519",
              "value": "tfNdnABYXKCmTsvmIsGQ+4/WH9RfpqwgPNscOj5RoW6kDiMfa3G8TZ6N2saDnp1KKYyYFg6vtHFhjwJshxQ+Bw=="
            }
          },
          {
            "validator_address": "F4DEB417999B04BE2EFF9FFE03FA373D86011CC0",
            "validator_index": "98",
            "height": "38080",
            "round": "1",
            "timestamp": "2018-08-01T21:39:10.364268682Z",
            "type": 2,
            "block_id": {
              "hash": "F4359259F2A9038D38677AFF5DFCA385DBE355A2",
              "parts": {
                "total": "1",
                "hash": "C59EC840BE7A3657E7EA00DFB0A124A9B7978264"
              }
            },
            "signature": {
              "type": "tendermint/SignatureEd25519",
              "value": "bBiSNoYJQud9RJpMA5WdNonljI1gt56ua0qUEoNaBtPnqc/tsrb31XIvNXZ1uMW5cNjDVNEZR8RTHwyVUfzPAw=="
            }
          },
          {
            "validator_address": "F6738260186D33D9C14FC6E7017AFE6BB952A63D",
            "validator_index": "99",
            "height": "38080",
            "round": "1",
            "timestamp": "2018-08-01T21:39:10.361618664Z",
            "type": 2,
            "block_id": {
              "hash": "F4359259F2A9038D38677AFF5DFCA385DBE355A2",
              "parts": {
                "total": "1",
                "hash": "C59EC840BE7A3657E7EA00DFB0A124A9B7978264"
              }
            },
            "signature": {
              "type": "tendermint/SignatureEd25519",
              "value": "90jyDsM5/qzb5R3ca22JDGIyCbxqCOgp4OBbh72Cfyj3SJF2LkTQKKGkPqjPARsy8F5QdRQHbR6nMQNlnod1Dw=="
            }
          },
          {
            "validator_address": "FF3F3FCBCE7E62D7AD5506FF846EC4518D980515",
            "validator_index": "100",
            "height": "38080",
            "round": "1",
            "timestamp": "2018-08-01T21:39:10.219987097Z",
            "type": 2,
            "block_id": {
              "hash": "F4359259F2A9038D38677AFF5DFCA385DBE355A2",
              "parts": {
                "total": "1",
                "hash": "C59EC840BE7A3657E7EA00DFB0A124A9B7978264"
              }
            },
            "signature": {
              "type": "tendermint/SignatureEd25519",
              "value": "cHCG4IT3LyxLRbrf4YUPwlTUplbYWdGFp198hdIGMZfl+8lVyk8mKvbY1rPkNZvbc0XQY88bLLd+yUklV2haCw=="
            }
          }
        ]
      }
    },
    "canonical": true
  }
}