{
  "jsonrpc": "2.0",
  "id": "",
  "result": {
    "SignedHeader": {
      "header": {
        "chain_id": "gaia-7004",
        "height": "38943",
        "time": "2018-08-01T23:13:24.097964203Z",
        "num_txs": "0",
        "last_block_id": {
          "hash": "B6B773DD5EF21416A841D2257735E3CE89AF4055",
          "parts": {
            "total": "1",
            "hash": "8D9D96A73AA9173DB2574C03A44D53A256E84326"
          }
        },
        "total_txs": "1863",
        "last_commit_hash": "3F93AFA0C93936DA69619AF84382AF8C49A3BE3A",
        "data_hash": "",
        "validators_hash": "8BDE5C7D0CB87BCC0FBA2D2A6EB79BD9A95A18C0",
        "consensus_hash": "D6B74BB35BDFFD8392340F2A379173548AE188FE",
        "app_hash": "39107EB19CB7889F07AA0ABB8F05BCAD937C6D7F",
        "last_results_hash": "",
        "evidence_hash": ""
      },
      "commit": {
        "block_id": {
          "hash": "A80AEDD7B9B1DCEB5AA1A88983DBC200055866A1",
          "parts": {
            "total": "1",
            "hash": "57FCCB32CDDDBB867C48E617DAE0290880CDC34E"
          }
        },
        "precommits": [
          {
            "validator_address": "029359C0C768096273A68ABC902A6B17AC8D1D70",
            "validator_index": "0",
            "height": "38943",
            "round": "0",
            "timestamp": "2018-08-01T23:13:24.930738885Z",
            "type": 2,
            "block_id": {
              "hash": "A80AEDD7B9B1DCEB5AA1A88983DBC200055866A1",
              "parts": {
                "total": "1",
                "hash": "57FCCB32CDDDBB867C48E617DAE0290880CDC34E"
              }
            },
            "signature": {
              "type": "tendermint/SignatureEd25519",
              "value": "K9ufXulcKe33+nlLQCJmL1E2BTDcCh9D/1D9dSlKqBWrODKwA0APhTSKFgOXVYVS/iZTBtRiHg2aFfA0BJKAAA=="
            }
          },
          {
            "validator_address": "02FE4B97A8387F39D1AC19E0C1702B3CC614812F",
            "validator_index": "1",
            "height": "38943",
            "round": "0",
            "timestamp": "2018-08-01T23:13:24.908626687Z",
            "type": 2,
            "block_id": {
              "hash": "A80AEDD7B9B1DCEB5AA1A88983DBC200055866A1",
              "parts": {
                "total": "1",
                "hash": "57FCCB32CDDDBB867C48E617DAE0290880CDC34E"
              }
            },
            "signature": {
              "type": "tendermint/SignatureEd25519",
              "value": "Qz+YHe/wUQ0l+oC2tugf6stvv+5aygzVCFc76Es6TpEuFi+R/9yK+BNsbihhq8OAxqSjhALNaBWj0ZZ2ifc3CQ=="
            }
          },
          {
            "validator_address": "0548261C50222FD710EB5EBDF03A0E6567B21D20",
            "validator_index": "2",
            "height": "38943",
            "round": "0",
            "timestamp": "2018-08-01T23:13:24.956537612Z",
            "type": 2,
            "block_id": {
              "hash": "A80AEDD7B9B1DCEB5AA1A88983DBC200055866A1",
              "parts": {
                "total": "1",
                "hash": "57FCCB32CDDDBB867C48E617DAE0290880CDC34E"
              }
            },
            "signature": {
              "type": "tendermint/SignatureEd25519",
              "value": "xIu+/MnVopriGg50hENHdLI8MI/qEE/6xJjHMQlXXcwIPn31133qEfCV3HEdw669Lz3lX8ShSyVsqN/acWD7DQ=="
            }
          },
          {
            "validator_address": "0665ADBF9B120B7617BF955AA5653A1992C82B11",
            "validator_index": "3",
            "height": "38943",
            "round": "0",
            "timestamp": "2018-08-01T23:13:24.925256445Z",
            "type": 2,
            "block_id": {
              "hash": "A80AEDD7B9B1DCEB5AA1A88983DBC200055866A1",
              "parts": {
                "total": "1",
                "hash": "57FCCB32CDDDBB867C48E617DAE0290880CDC34E"
              }
            },
            "signature": {
              "type": "tendermint/SignatureEd25519",
              "value": "tv/OUpJmVFK05zS8lVmcyMzPQtefb6Ih7DN8LgzoiTjr3YsiP1YUJ9WBsSL1of6di1hHb/aR53TCxHlpASh6DQ=="
            }
          },
          {
            "validator_address": "09145E611CC27EEB944FC5A956DDF710F943B9EF",
            "validator_index": "4",
            "height": "38943",
            "round": "0",
            "timestamp": "2018-08-01T23:13:24.958675061Z",
            "type": 2,
            "block_id": {
              "hash": "A80AEDD7B9B1DCEB5AA1A88983DBC200055866A1",
              "parts": {
                "total": "1",
                "hash": "57FCCB32CDDDBB867C48E617DAE0290880CDC34E"
              }
            },
            "signature": {
              "type": "tendermint/SignatureEd25519",
              "value": "EGj6QS6Z/S5yKaNTTxKarhgHIrA8019RbyCDIGUb8+QfASEWTA7rtjGpS3GfCZWI2fe51VtLsll4Iapss3JrCQ=="
            }
          },
          {
            "validator_address": "0989D0355A104B67AE0AE028C68FB610690E174B",
            "validator_index": "5",
            "height": "38943",
            "round": "0",
            "timestamp": "2018-08-01T23:13:24.901001038Z",
            "type": 2,
            "block_id": {
              "hash": "A80AEDD7B9B1DCEB5AA1A88983DBC200055866A1",
              "parts": {
                "total": "1",
                "hash": "57FCCB32CDDDBB867C48E617DAE0290880CDC34E"
              }
            },
            "signature": {
              "type": "tendermint/SignatureEd25519",
              "value": "DIkz9800+9t6Ukhk9+b51C9H9F21RUyF7mSwqjcbHXBvhe2dc8AWmJa3SxpFScjIFdrSIsTXUBPyNeWwMVW0BQ=="
            }
          },
          {
            "validator_address": "0A692DBFFE9E5DD28E7DECC33CED1AEB4C0D014E",
            "validator_index": "6",
            "height": "38943",
            "round": "0",
            "timestamp": "2018-08-01T23:13:25.108153735Z",
            "type": 2,
            "block_id": {
              "hash": "A80AEDD7B9B1DCEB5AA1A88983DBC200055866A1",
              "parts": {
                "total": "1",
                "hash": "57FCCB32CDDDBB867C48E617DAE0290880CDC34E"
              }
            },
            "signature": {
              "type": "tendermint/SignatureEd25519",
              "value": "Jn5nAhEckveJQiUasnGZoOm03zTIfrDAs2lW9L/QY9ijQ0KtWLHb74CV5lXVuPNu3ysyYbBxpTgn1gPqafexAw=="
            }
          },
          null,
          {
            "validator_address": "1751786EFC085D5331C61168FFFC8202EA151B4E",
            "validator_index": "8",
            "height": "38943",
            "round": "0",
            "timestamp": "2018-08-01T23:13:24.525657348Z",
            "type": 2,
            "block_id": {
              "hash": "A80AEDD7B9B1DCEB5AA1A88983DBC200055866A1",
              "parts": {
                "total": "1",
                "hash": "57FCCB32CDDDBB867C48E617DAE0290880CDC34E"
              }
            },
            "signature": {
              "type": "tendermint/SignatureEd25519",
              "value": "OLay8mwCcJr/sSkwOC5HG5CeaCKlIbINn9Fg/tvcX1IHLSJbRPA1iTdtInF1BjsL5BYM57+Nbov9wTOQuOBaCg=="
            }
          },
          {
            "validator_address": "17BB5CD01E8940FAFB948A04D5FA5A0645E5822E",
            "validator_index": "9",
            "height": "38943",
            "round": "0",
            "timestamp": "2018-08-01T23:13:24.937119665Z",
            "type": 2,
            "block_id": {
              "hash": "A80AEDD7B9B1DCEB5AA1A88983DBC200055866A1",
              "parts": {
                "total": "1",
                "hash": "57FCCB32CDDDBB867C48E617DAE0290880CDC34E"
              }
            },
            "signature": {
              "type": "tendermint/SignatureEd25519",
              "value": "wD6HtoMPDveinZarP9NtD3zoR5CMOPao5Tr9Vj9d1VJ/GX2MdrZ2sqDA6q/0OZbCL9H7pbp8nEWkZY/BvxuPCA=="
            }
          },
          {
            "validator_address": "1C683A87904BC38F05004FE83301A3A3E35447EB",
            "validator_index": "10",
            "height": "38943",
            "round": "0",
            "timestamp": "2018-08-01T23:13:24.924189478Z",
            "type": 2,
            "block_id": {
              "hash": "A80AEDD7B9B1DCEB5AA1A88983DBC200055866A1",
              "parts": {
                "total": "1",
                "hash": "57FCCB32CDDDBB867C48E617DAE0290880CDC34E"
              }
            },
            "signature": {
              "type": "tendermint/SignatureEd25519",
              "value": "G95vgWVmH3pC5p0+QNqnuCX+fSvDHUC+nni0LGaSr1OSQfOr9cXsJOlGwuq6xiCAv6p14wlzJPKYeHAOYe2CDw=="
            }
          },
          {
            "validator_address": "1E9CE94FD0BA5CFEB901F90BC658D64D85B134D2",
            "validator_index": "11",
            "height": "38943",
            "round": "0",
            "timestamp": "2018-08-01T23:13:24.956686502Z",
            "type": 2,
            "block_id": {
              "hash": "A80AEDD7B9B1DCEB5AA1A88983DBC200055866A1",
              "parts": {
                "total": "1",
                "hash": "57FCCB32CDDDBB867C48E617DAE0290880CDC34E"
              }
            },
            "signature": {
              "type": "tendermint/SignatureEd25519",
              "value": "W4y+xVCGehNut2skflEWszAA2VMKQXdEjhvCHbAYHpDrF+1W7AxY37tm7NA+tjfsh1nYyJtwgcs+lD9M043FAg=="
            }
          },
          {
            "validator_address": "1ECD8C5FE1341D74CDC633A245DD56858DE2F9A2",
            "validator_index": "12",
            "height": "38943",
            "round": "0",
            "timestamp": "2018-08-01T23:13:25.114776208Z",
            "type": 2,
            "block_id": {
              "hash": "A80AEDD7B9B1DCEB5AA1A88983DBC200055866A1",
              "parts": {
                "total": "1",
                "hash": "57FCCB32CDDDBB867C48E617DAE0290880CDC34E"
              }
            },
            "signature": {
              "type": "tendermint/SignatureEd25519",
              "value": "VCw3fb35wGhSPg7NOCLeNAfiZI4G//oyPgMCXgKF/Ew8fpYUySmQvvlTQBrqPbGRsXgN3Tm19kDUUMsz0skaCg=="
            }
          },
          {
            "validator_address": "1F3A68CAAD483768AA2BF667DEF10F7104C89928",
            "validator_index": "13",
            "height": "38943",
            "round": "0",
            "timestamp": "2018-08-01T23:13:24.948226504Z",
            "type": 2,
            "block_id": {
              "hash": "A80AEDD7B9B1DCEB5AA1A88983DBC200055866A1",
              "parts": {
                "total": "1",
                "hash": "57FCCB32CDDDBB867C48E617DAE0290880CDC34E"
              }
            },
            "signature": {
              "type": "tendermint/SignatureEd25519",
              "value": "Us6R32wyUZih1fymjX6UbhJZCkBIZu7RVGVcoT7JWcrj5bkfaimIukl48kYbrZPIdCYNCoPxibquJK7f3Y2ZCQ=="
            }
          },
          {
            "validator_address": "1F61153F26C2DF27E15874268D30326287323352",
            "validator_index": "14",
            "height": "38943",
            "round": "0",
            "timestamp": "2018-08-01T23:13:25.012522947Z",
            "type": 2,
            "block_id": {
              "hash": "A80AEDD7B9B1DCEB5AA1A88983DBC200055866A1",
              "parts": {
                "total": "1",
                "hash": "57FCCB32CDDDBB867C48E617DAE0290880CDC34E"
              }
            },
            "signature": {
              "type": "tendermint/SignatureEd25519",
              "value": "5y7SE1+bwr+LWzeUQi9h/i3JNDy3t/WkytGwt4FqmxCa0fKt5pjrWFioeVRCrze1qGHGcEbfSvz3IbENv7fICQ=="
            }
          },
          {
            "validator_address": "23897586D68E2AC1C78E0EF5BB5DF5C8EAB18F50",
            "validator_index": "15",
            "height": "38943",
            "round": "0",
            "timestamp": "2018-08-01T23:13:24.933504038Z",
            "type": 2,
            "block_id": {
              "hash": "A80AEDD7B9B1DCEB5AA1A88983DBC200055866A1",
              "parts": {
                "total": "1",
                "hash": "57FCCB32CDDDBB867C48E617DAE0290880CDC34E"
              }
            },
            "signature": {
              "type": "tendermint/SignatureEd25519",
              "value": "DRmMeMGAOX/vIdUGjfgD193uWzqPg1JUhp9Fn7tMtxLHnAQEbmomYB73BADBLb0zlF3vpeT8613Hb9RfszoxCA=="
            }
          },
          {
            "validator_address": "28770D17E8530825E7310A0659308654B7EC9682",
            "validator_index": "16",
            "height": "38943",
            "round": "0",
            "timestamp": "2018-08-01T23:13:24.877195293Z",
            "type": 2,
            "block_id": {
              "hash": "A80AEDD7B9B1DCEB5AA1A88983DBC200055866A1",
              "parts": {
                "total": "1",
                "hash": "57FCCB32CDDDBB867C48E617DAE0290880CDC34E"
              }
            },
            "signature": {
              "type": "tendermint/SignatureEd25519",
              "value": "z4NwYuvIyRlJwOQCd2414aPUT7MhBlySZmH1OIipUmUzFhZ6wMZjIMu0/prEoeRAPc7bB8qLjBguZ+bMx6eDCA=="
            }
          },
          {
            "validator_address": "2A92EC3C642140202298D0E245095E0ECFC25228",
            "validator_index": "17",
            "height": "38943",
            "round": "0",
            "timestamp": "2018-08-01T23:13:24.98180331Z",
            "type": 2,
            "block_id": {
              "hash": "A80AEDD7B9B1DCEB5AA1A88983DBC200055866A1",
              "parts": {
                "total": "1",
                "hash": "57FCCB32CDDDBB867C48E617DAE0290880CDC34E"
              }
            },
            "signature": {
              "type": "tendermint/SignatureEd25519",
              "value": "tTYMAshc6aBziC0rZ6mlV4Rq0H2ibE8l+GCne4RdhL7C0RwZp/xRuJ2zL4yyCJxsKgaAS2YOfphMqCwjyqiwDw=="
            }
          },
          {
            "validator_address": "33412C9A69C60CB0FAA24A5C5B3A906DE24B47C2",
            "validator_index": "18",
            "height": "38943",
            "round": "0",
            "timestamp": "2018-08-01T23:13:24.931097715Z",
            "type": 2,
            "block_id": {
              "hash": "A80AEDD7B9B1DCEB5AA1A88983DBC200055866A1",
              "parts": {
                "total": "1",
                "hash": "57FCCB32CDDDBB867C48E617DAE0290880CDC34E"
              }
            },
            "signature": {
              "type": "tendermint/SignatureEd25519",
              "value": "JKeWkbbMMjJ+/efpyWTi2yykr56aIvPTeR2pNHl1JyRH7VzLIABWCHR1hAe3W4Eo0b4WqlcSxlTdbodT3LgBAQ=="
            }
          },
          {
            "validator_address": "36E9B7FAEC964F97D84C028ED62493E373AD0B38",
            "validator_index": "19",
            "height": "38943",
            "round": "0",
            "timestamp": "2018-08-01T23:13:25.014923267Z",
            "type": 2,
            "block_id": {
              "hash": "A80AEDD7B9B1DCEB5AA1A88983DBC200055866A1",
              "parts": {
                "total": "1",
                "hash": "57FCCB32CDDDBB867C48E617DAE0290880CDC34E"
              }
            },
            "signature": {
              "type": "tendermint/SignatureEd25519",
              "value": "KfUnxUJUpHF0pztmi8l2znn7o2r1jC42XDPkpvqpeG05wlTQc7bVunIqAL1a4huJ28pgqCt+pXvb2HIwIPCbDA=="
            }
          },
          {
            "validator_address": "38A8D85D36BEA2E5FCF8A1E778F53628E450EF13",
            "validator_index": "20",
            "height": "38943",
            "round": "0",
            "timestamp": "2018-08-01T23:13:25.017995505Z",
            "type": 2,
            "block_id": {
              "hash": "A80AEDD7B9B1DCEB5AA1A88983DBC200055866A1",
              "parts": {
                "total": "1",
                "hash": "57FCCB32CDDDBB867C48E617DAE0290880CDC34E"
              }
            },
            "signature": {
              "type": "tendermint/SignatureEd25519",
              "value": "sDm9a+qrWui74sB1Q8JxZnD779V745rzXODcpalJeiPbOi6VE0iwk3DIY72DHPIoydYYLJUzpT76GzSp4LgFCQ=="
            }
          },
          {
            "validator_address": "39DFDA0C5DB84B269642188B23253508537798E6",
            "validator_index": "21",
            "height": "38943",
            "round": "0",
            "timestamp": "2018-08-01T23:13:24.893180353Z",
            "type": 2,
            "block_id": {
              "hash": "A80AEDD7B9B1DCEB5AA1A88983DBC200055866A1",
              "parts": {
                "total": "1",
                "hash": "57FCCB32CDDDBB867C48E617DAE0290880CDC34E"
              }
            },
            "signature": {
              "type": "tendermint/SignatureEd25519",
              "value": "1xScrPm2hlgl5/DhsES9ytZa7KnU4/zVq23yt7gENBEX1Mcopz7FQ127IJUhkWZviIzwFP0fFRQKquWSO/mCBA=="
            }
          },
          {
            "validator_address": "3AC99B708404452366E0953A4BE849226DC86CBC",
            "validator_index": "22",
            "height": "38943",
            "round": "0",
            "timestamp": "2018-08-01T23:13:25.001915581Z",
            "type": 2,
            "block_id": {
              "hash": "A80AEDD7B9B1DCEB5AA1A88983DBC200055866A1",
              "parts": {
                "total": "1",
                "hash": "57FCCB32CDDDBB867C48E617DAE0290880CDC34E"
              }
            },
            "signature": {
              "type": "tendermint/SignatureEd25519",
              "value": "0GgYZhu4UJe5Rs6YDFWPDjJOOzXgxSMmFtN3iqGHhY4TQEH6PH3wHIw2WPcZaEsUKDNczt6NZwnsgf8ejaZHAA=="
            }
          },
          {
            "validator_address": "3DCB822A10ED319EC7C4393D8E3FD4A41B15AAF2",
            "validator_index": "23",
            "height": "38943",
            "round": "0",
            "timestamp": "2018-08-01T23:13:24.914968704Z",
            "type": 2,
            "block_id": {
              "hash": "A80AEDD7B9B1DCEB5AA1A88983DBC200055866A1",
              "parts": {
                "total": "1",
                "hash": "57FCCB32CDDDBB867C48E617DAE0290880CDC34E"
              }
            },
            "signature": {
              "type": "tendermint/SignatureEd25519",
              "value": "oOYDu4/2EO0R5AEs6pdpI+gzWzaPCOCNBOhTG7i6eMYsz8iWp5sFcJcjG53dYIOfnd2fYMg4HrC5vJafIpvaCg=="
            }
          },
          {
            "validator_address": "3E899BA36A93C7370347BD5FE85909F2ECD93F8C",
            "validator_index": "24",
            "height": "38943",
            "round": "0",
            "timestamp": "2018-08-01T23:13:24.96695248Z",
            "type": 2,
            "block_id": {
              "hash": "A80AEDD7B9B1DCEB5AA1A88983DBC200055866A1",
              "parts": {
                "total": "1",
                "hash": "57FCCB32CDDDBB867C48E617DAE0290880CDC34E"
              }
            },
            "signature": {
              "type": "tendermint/SignatureEd25519",
              "value": "ViBXCqTe8DR2lnquz9yjMQJaaF9KNl/1jAleIBZaA7/p2r9z1VDawahDDrIYH3bp8PyhLeKU6s7L7eJhqg/0BQ=="
            }
          },
          {
            "validator_address": "41CAB2E29E7D0F2282E3275938F188FF9386B84C",
            "validator_index": "25",
            "height": "38943",
            "round": "0",
            "timestamp": "2018-08-01T23:13:24.954415321Z",
            "type": 2,
            "block_id": {
              "hash": "A80AEDD7B9B1DCEB5AA1A88983DBC200055866A1",
              "parts": {
                "total": "1",
                "hash": "57FCCB32CDDDBB867C48E617DAE0290880CDC34E"
              }
            },
            "signature": {
              "type": "tendermint/SignatureEd25519",
              "value": "dj46xzzXNXP6oJpVi6L/kD2TODo6DZl5CS4UOUS8MQw62WuOSb/S4n2r+ZgTL/uaRHcp6+MASXv3HyRiDWriCg=="
            }
          },
          {
            "validator_address": "462B656869DB02A8FD1077E255F8CC7401DC37C6",
            "validator_index": "26",
            "height": "38943",
            "round": "0",
            "timestamp": "2018-08-01T23:13:24.903250782Z",
            "type": 2,
            "block_id": {
              "hash": "A80AEDD7B9B1DCEB5AA1A88983DBC200055866A1",
              "parts": {
                "total": "1",
                "hash": "57FCCB32CDDDBB867C48E617DAE0290880CDC34E"
              }
            },
            "signature": {
              "type": "tendermint/SignatureEd25519",
              "value": "tVVyFKHtQ9TyaACyah62b4J06sFUzcJd2u7XymXTH7v3W0HyQQMhUXeOgS/zJoQgcYUHux1LOgYy3A68VkqZAw=="
            }
          },
          {
            "validator_address": "48E5118163E5442068A1B5A42D2EEDBB75724935",
            "validator_index": "27",
            "height": "38943",
            "round": "0",
            "timestamp": "2018-08-01T23:13:25.051137211Z",
            "type": 2,
            "block_id": {
              "hash": "A80AEDD7B9B1DCEB5AA1A88983DBC200055866A1",
              "parts": {
                "total": "1",
                "hash": "57FCCB32CDDDBB867C48E617DAE0290880CDC34E"
              }
            },
            "signature": {
              "type": "tendermint/SignatureEd25519",
              "value": "7cgNwvtxS25bWS8xKAQDX1gbn5c9Fdej7aPFUWqKJO5H6KdAULSyuwf/+neKNk3i2p8g5CUjUyYmmcFeotvIAg=="
            }
          },
          {
            "validator_address": "49103C58AFD9C7C069F55EBA218F3DFD9AEA74F9",
            "validator_index": "28",
            "height": "38943",
            "round": "0",
            "timestamp": "2018-08-01T23:13:24.915142496Z",
            "type": 2,
            "block_id": {
              "hash": "A80AEDD7B9B1DCEB5AA1A88983DBC200055866A1",
              "parts": {
                "total": "1",
                "hash": "57FCCB32CDDDBB867C48E617DAE0290880CDC34E"
              }
            },
            "signature": {
              "type": "tendermint/SignatureEd25519",
              "value": "X+X8lWV+hK6fJLjhR54aMsJ9zXhvs+VEnuJ9d38XYNMyEhxp9WFFXW19c90k9roPvIGYcA5BzuJ4B2NnvAM/AQ=="
            }
          },
          null,
          {
            "validator_address": "49841599DE675157CBE1E7D6B35BF8FFC23BD5CB",
            "validator_index": "30",
            "height": "38943",
            "round": "0",
            "timestamp": "2018-08-01T23:13:24.88463013Z",
            "type": 2,
            "block_id": {
              "hash": "A80AEDD7B9B1DCEB5AA1A88983DBC200055866A1",
              "parts": {
                "total": "1",
                "hash": "57FCCB32CDDDBB867C48E617DAE0290880CDC34E"
              }
            },
            "signature": {
              "type": "tendermint/SignatureEd25519",
              "value": "fjHnKgqe3vnU8KYvGyGkmAqHBptv8weQaScn60icFdcB0a6AcWtMPcSUtDiZuuzPFRM3b8IQyuOeIg6SfpeEDA=="
            }
          },
          {
            "validator_address": "51386C2CF9556821D114D7E4945806802BADB28D",
            "validator_index": "31",
            "height": "38943",
            "round": "0",
            "timestamp": "2018-08-01T23:13:24.931826482Z",
            "type": 2,
            "block_id": {
              "hash": "A80AEDD7B9B1DCEB5AA1A88983DBC200055866A1",
              "parts": {
                "total": "1",
                "hash": "57FCCB32CDDDBB867C48E617DAE0290880CDC34E"
              }
            },
            "signature": {
              "type": "tendermint/SignatureEd25519",
              "value": "oZ2Wqjv0OIZzylISvC6xIl0CSVmeAU0r1n+8iL7IIoQFDBxgslvYI45fgJ/IrrBOXZ19dLJzYu1aCkec7nxYDA=="
            }
          },
          {
            "validator_address": "543564ECA3AFEFADC73EE8591AAC3A96F079BC8A",
            "validator_index": "32",
            "height": "38943",
            "round": "0",
            "timestamp": "2018-08-01T23:13:24.888607558Z",
            "type": 2,
            "block_id": {
              "hash": "A80AEDD7B9B1DCEB5AA1A88983DBC200055866A1",
              "parts": {
                "total": "1",
                "hash": "57FCCB32CDDDBB867C48E617DAE0290880CDC34E"
              }
            },
            "signature": {
              "type": "tendermint/SignatureEd25519",
              "value": "qZf/bxHMTYLm7bWaAwn78zFcsfZAbYoJD6Xe973toxbZJw2EzxjhTDEVBrkFCEidXNfzVv8S/u1h/9RlT6tbBQ=="
            }
          },
          {
            "validator_address": "55D67B1A6DC13E96F8754A5A42EABC20F7F86664",
            "validator_index": "33",
            "height": "38943",
            "round": "0",
            "timestamp": "2018-08-01T23:13:24.957485065Z",
            "type": 2,
            "block_id": {
              "hash": "A80AEDD7B9B1DCEB5AA1A88983DBC200055866A1",
              "parts": {
                "total": "1",
                "hash": "57FCCB32CDDDBB867C48E617DAE0290880CDC34E"
              }
            },
            "signature": {
              "type": "tendermint/SignatureEd25519",
              "value": "5kKd+gzg08LDuUqtNXXogiWm9NWYrBWEu2mg92VERY2jEaE4xwFtEpeQUzFwBx1lx5WQXR198xW2GgZjt19UBA=="
            }
          },
          {
            "validator_address": "570B6A755ED339EAC56BB3390A48069F6AC9449B",
            "validator_index": "34",
            "height": "38943",
            "round": "0",
            "timestamp": "2018-08-01T23:13:32.913685024Z",
            "type": 2,
            "block_id": {
              "hash": "A80AEDD7B9B1DCEB5AA1A88983DBC200055866A1",
              "parts": {
                "total": "1",
                "hash": "57FCCB32CDDDBB867C48E617DAE0290880CDC34E"
              }
            },
            "signature": {
              "type": "tendermint/SignatureEd25519",
              "value": "MMuumGmTItXh4oOQoQyFIxSMw+et+jwtgV69g4fU3dXZ713R0y1AOwUrtQt2Hmv8MUF0/xogzBcnt3ZPgtepBw=="
            }
          },
          {
            "validator_address": "5BDF8EA41B1835FBAD865B181A2A4B23F511B5E4",
            "validator_index": "35",
            "height": "38943",
            "round": "0",
            "timestamp": "2018-08-01T23:13:24.902877668Z",
            "type": 2,
            "block_id": {
              "hash": "A80AEDD7B9B1DCEB5AA1A88983DBC200055866A1",
              "parts": {
                "total": "1",
                "hash": "57FCCB32CDDDBB867C48E617DAE0290880CDC34E"
              }
            },
            "signature": {
              "type": "tendermint/SignatureEd25519",
              "value": "frOQDH6c+MbZFKKLcBYg/CH8JoK6r+hnASwVcglMRTefrFSKmhqN3gjtlgMjP6vWfR5zS9jEb1G/J/SCqmWBDQ=="
            }
          },
          {
            "validator_address": "60229E2E273297FE00219E46DFFB8F76844CDEF9",
            "validator_index": "36",
            "height": "38943",
            "round": "0",
            "timestamp": "2018-08-01T23:13:22.731554863Z",
            "type": 2,
            "block_id": {
              "hash": "A80AEDD7B9B1DCEB5AA1A88983DBC200055866A1",
              "parts": {
                "total": "1",
                "hash": "57FCCB32CDDDBB867C48E617DAE0290880CDC34E"
              }
            },
            "signature": {
              "type": "tendermint/SignatureEd25519",
              "value": "XKx9Rd0+tIL11LqyCm++RRJRgYD2VUrRfUqfS08aCFm7Lqc3jfkxWelWJIzXqbvbeHR2t643M1wUWoJIRqJcCg=="
            }
          },
          {
            "validator_address": "62410D6D1CD98278136E4D0738AA0EA273CDFC54",
            "validator_index": "37",
            "height": "38943",
            "round": "0",
            "timestamp": "2018-08-01T23:13:24.893457861Z",
            "type": 2,
            "block_id": {
              "hash": "A80AEDD7B9B1DCEB5AA1A88983DBC200055866A1",
              "parts": {
                "total": "1",
                "hash": "57FCCB32CDDDBB867C48E617DAE0290880CDC34E"
              }
            },
            "signature": {
              "type": "tendermint/SignatureEd25519",
              "value": "Q4hLiqi35FznwwHmMzeJkitoiij2ZcUysPDFFHAk0YxVBB/hSE42U6F2idglD7sKrHyQ21Jx9BzeZSalx6cGAA=="
            }
          },
          {
            "validator_address": "632F5C139A5A9DFBFE5111DEE29FCFB6157207DC",
            "validator_index": "38",
            "height": "38943",
            "round": "0",
            "timestamp": "2018-08-01T23:13:24.948540583Z",
            "type": 2,
            "block_id": {
              "hash": "A80AEDD7B9B1DCEB5AA1A88983DBC200055866A1",
              "parts": {
                "total": "1",
                "hash": "57FCCB32CDDDBB867C48E617DAE0290880CDC34E"
              }
            },
            "signature": {
              "type": "tendermint/SignatureEd25519",
              "value": "b5DFiD5R7R5036qmgnz3TqWU/rTjSiDEu866QoHNdZwnhIrQv2G5uqfTJJGZAg+NvwU+AzlHjt9IgOx4bFM5BQ=="
            }
          },
          {
            "validator_address": "64F57F8E796A9B7B590C1EFA4123988C86631D39",
            "validator_index": "39",
            "height": "38943",
            "round": "0",
            "timestamp": "2018-08-01T23:13:24.876806642Z",
            "type": 2,
            "block_id": {
              "hash": "A80AEDD7B9B1DCEB5AA1A88983DBC200055866A1",
              "parts": {
                "total": "1",
                "hash": "57FCCB32CDDDBB867C48E617DAE0290880CDC34E"
              }
            },
            "signature": {
              "type": "tendermint/SignatureEd25519",
              "value": "hvkygD/cpw+FmlnGrXK5SZQWXorOQJ06K1lC7eCSU9r/tSnV4wMjzK1TcibpklXX+H/9YDmFJq6aPezIyMuiBA=="
            }
          },
          {
            "validator_address": "69D99B2C66043ACBEAA8447525C356AFC6408E0C",
            "validator_index": "40",
            "height": "38943",
            "round": "0",
            "timestamp": "2018-08-01T23:13:25.091018175Z",
            "type": 2,
            "block_id": {
              "hash": "A80AEDD7B9B1DCEB5AA1A88983DBC200055866A1",
              "parts": {
                "total": "1",
                "hash": "57FCCB32CDDDBB867C48E617DAE0290880CDC34E"
              }
            },
            "signature": {
              "type": "tendermint/SignatureEd25519",
              "value": "JoxKd231nlFjziZgTNyE9mFREu9fhG9ih/h1KbKrWJAeM+CM2P+JNuwxpnX5f8dR9IASoC4/GPaWOl/6Sf1DCA=="
            }
          },
          {
            "validator_address": "69EDADFA4A803E9DBF548C900D4A465E7D154262",
            "validator_index": "41",
            "height": "38943",
            "round": "0",
            "timestamp": "2018-08-01T23:13:25.116952292Z",
            "type": 2,
            "block_id": {
              "hash": "A80AEDD7B9B1DCEB5AA1A88983DBC200055866A1",
              "parts": {
                "total": "1",
                "hash": "57FCCB32CDDDBB867C48E617DAE0290880CDC34E"
              }
            },
            "signature": {
              "type": "tendermint/SignatureEd25519",
              "value": "I0TnCE+/2pCplN42KOXczOKKL+mmGRVZrYF5hYKIfhqHBtBJXNpITOmsmtYXKJwlYl9mH7gSG9EYqApFM95+CA=="
            }
          },
          {
            "validator_address": "6D3AD380E398D8592B03AA124BAFED5F125DF863",
            "validator_index": "42",
            "height": "38943",
            "round": "0",
            "timestamp": "2018-08-01T23:12:22.423021687Z",
            "type": 2,
            "block_id": {
              "hash": "A80AEDD7B9B1DCEB5AA1A88983DBC200055866A1",
              "parts": {
                "total": "1",
                "hash": "57FCCB32CDDDBB867C48E617DAE0290880CDC34E"
              }
            },
            "signature": {
              "type": "tendermint/SignatureEd25519",
              "value": "HtwXeuSO/cVeCg3Ix6n1l4ShqWsvkkIHw6NyNiizF5W+qp9iK8JlkQGsb7IvLcEjR5IIJ7b9BlrnYkwu2WudAQ=="
            }
          },
          {
            "validator_address": "6F6C93B8BF3495063FEC9B5C771158607F4AE9D6",
            "validator_index": "43",
            "height": "38943",
            "round": "0",
            "timestamp": "2018-08-01T23:13:25.051783625Z",
            "type": 2,
            "block_id": {
              "hash": "A80AEDD7B9B1DCEB5AA1A88983DBC200055866A1",
              "parts": {
                "total": "1",
                "hash": "57FCCB32CDDDBB867C48E617DAE0290880CDC34E"
              }
            },
            "signature": {
              "type": "tendermint/SignatureEd25519",
              "value": "rXyIbv/OOmgeNApVRr0PV9UWP7LV5kMsLcF2PrbQkUy3/g72L91fXKTvWxVnCYar1lGl2oHU0JfWonUNIG1GBw=="
            }
          },
          {
            "validator_address": "732CEEF54C374DDC6ADECBFD707AEFD07FEDC143",
            "validator_index": "44",
            "height": "38943",
            "round": "0",
            "timestamp": "2018-08-01T23:13:25.083149636Z",
            "type": 2,
            "block_id": {
              "hash": "A80AEDD7B9B1DCEB5AA1A88983DBC200055866A1",
              "parts": {
                "total": "1",
                "hash": "57FCCB32CDDDBB867C48E617DAE0290880CDC34E"
              }
            },
            "signature": {
              "type": "tendermint/SignatureEd25519",
              "value": "Nf04d/QkpRkqVY6bSzAqpLY/47nTueIe4Tos/uZDGUWDRz/S/dXAQlD0Xt0Ko9p7jPAq0XASFAHX5thGyevfCg=="
            }
          },
          {
            "validator_address": "7393D691BFAE9661918C09932D4D9060AB40939B",
            "validator_index": "45",
            "height": "38943",
            "round": "0",
            "timestamp": "2018-08-01T23:13:25.1112982Z",
            "type": 2,
            "block_id": {
              "hash": "A80AEDD7B9B1DCEB5AA1A88983DBC200055866A1",
              "parts": {
                "total": "1",
                "hash": "57FCCB32CDDDBB867C48E617DAE0290880CDC34E"
              }
            },
            "signature": {
              "type": "tendermint/SignatureEd25519",
              "value": "3raqSlVME86tZdoKe4+dB0axd7F0OknZF8W8ldr0MRclJzxKAfR6tqJDqyprqONkaCoRVfFTbvZmkxET7AsdBQ=="
            }
          },
          {
            "validator_address": "751E43437224E8BB6D1569B3E2B2616B6E7F4397",
            "validator_index": "46",
            "height": "38943",
            "round": "0",
            "timestamp": "2018-08-01T23:13:24.919644866Z",
            "type": 2,
            "block_id": {
              "hash": "A80AEDD7B9B1DCEB5AA1A88983DBC200055866A1",
              "parts": {
                "total": "1",
                "hash": "57FCCB32CDDDBB867C48E617DAE0290880CDC34E"
              }
            },
            "signature": {
              "type": "tendermint/SignatureEd25519",
              "value": "E4kCIHymTpx2n5VjowqXR2HISxI8MMdYAM3kZw7X9qA1oAwQ1zKjW1Jz+UmaE6sijkilIpwP9XMVmog3Drs3Dw=="
            }
          },
          {
            "validator_address": "7EB7593F519F1180C7E872D0494611464EDF03AE",
            "validator_index": "47",
            "height": "38943",
            "round": "0",
            "timestamp": "2018-08-01T23:13:25.341318055Z",
            "type": 2,
            "block_id": {
              "hash": "A80AEDD7B9B1DCEB5AA1A88983DBC200055866A1",
              "parts": {
                "total": "1",
                "hash": "57FCCB32CDDDBB867C48E617DAE0290880CDC34E"
              }
            },
            "signature": {
              "type": "tendermint/SignatureEd25519",
              "value": "x9G5Lc+C0U9ff7FcYN0ZzrBw6c3kaLDDUzAP6wK11Tandz3127pi/dkaWnboUMLhLSbx05eJoJP/VScJDSjgBw=="
            }
          },
          null,
          {
            "validator_address": "83AB321E012C57746689FED3A6064DF331F81007",
            "validator_index": "49",
            "height": "38943",
            "round": "0",
            "timestamp": "2018-08-01T23:13:24.965295307Z",
            "type": 2,
            "block_id": {
              "hash": "A80AEDD7B9B1DCEB5AA1A88983DBC200055866A1",
              "parts": {
                "total": "1",
                "hash": "57FCCB32CDDDBB867C48E617DAE0290880CDC34E"
              }
            },
            "signature": {
              "type": "tendermint/SignatureEd25519",
              "value": "ACnMEXQLka077mYYGqSi87dFTXDpM8ltVPSQRtZo7ExKH+URZDCSKuwY3rnF80fRT3p/3+oAV3OGnaZxwg7UCg=="
            }
          },
          {
            "validator_address": "83BB1B88D3DBB20AD845FECA07749EBD87D3754D",
            "validator_index": "50",
            "height": "38943",
            "round": "0",
            "timestamp": "2018-08-01T23:13:25.244994115Z",
            "type": 2,
            "block_id": {
              "hash": "A80AEDD7B9B1DCEB5AA1A88983DBC200055866A1",
              "parts": {
                "total": "1",
                "hash": "57FCCB32CDDDBB867C48E617DAE0290880CDC34E"
              }
            },
            "signature": {
              "type": "tendermint/SignatureEd25519",
              "value": "3Gi+P7QqoXuSHYGPYIFecU04zMcfTWNYL4fUmBaVP4XkvSDbhy51jWGycBm5T3JgCOSpXBymW+RQRxuKApkZDg=="
            }
          },
          {
            "validator_address": "8F06FE1FD042683C426137FBC4BBAA4288924217",
            "validator_index": "51",
            "height": "38943",
            "round": "0",
            "timestamp": "2018-08-01T23:13:24.949721526Z",
            "type": 2,
            "block_id": {
              "hash": "A80AEDD7B9B1DCEB5AA1A88983DBC200055866A1",
              "parts": {
                "total": "1",
                "hash": "57FCCB32CDDDBB867C48E617DAE0290880CDC34E"
              }
            },
            "signature": {
              "type": "tendermint/SignatureEd25519",
              "value": "socukCMP8PkrvZeRZyYk2QbC6ISzuMe+8RoT5uNafhUFrAYf4r5k2UYMURPOOAY/4TxoaAIhAdX/U4zaQcjWBw=="
            }
          },
          {
            "validator_address": "8F45617BF45B10A3F8283DEBDB35E38C7CA43237",
            "validator_index": "52",
            "height": "38943",
            "round": "0",
            "timestamp": "2018-08-01T23:13:24.928079391Z",
            "type": 2,
            "block_id": {
              "hash": "A80AEDD7B9B1DCEB5AA1A88983DBC200055866A1",
              "parts": {
                "total": "1",
                "hash": "57FCCB32CDDDBB867C48E617DAE0290880CDC34E"
              }
            },
            "signature": {
              "type": "tendermint/SignatureEd25519",
              "value": "nbPK0N82fYw18hsvqc+aJjcvSXkXycjFAghhBjjQrV2/E4dNoKswmosLBKcy39/oJ7cNzIeS7gN+Eca2HjSkCg=="
            }
          },
          {
            "validator_address": "95980831E186F2540F6E9FB6C8E74DE2401405AC",
            "validator_index": "53",
            "height": "38943",
            "round": "0",
            "timestamp": "2018-08-01T23:13:24.888016775Z",
            "type": 2,
            "block_id": {
              "hash": "A80AEDD7B9B1DCEB5AA1A88983DBC200055866A1",
              "parts": {
                "total": "1",
                "hash": "57FCCB32CDDDBB867C48E617DAE0290880CDC34E"
              }
            },
            "signature": {
              "type": "tendermint/SignatureEd25519",
              "value": "XZ4xPQSkOYUwdMaMgOcKpe4pWZx68pV5uCQUtZ5VSyuC2UhOJosRI+Ooz86i8C1fNLbWTePwK5YtI8ARGN8nAQ=="
            }
          },
          {
            "validator_address": "95FAFBC1E0579C83D290A063020CE87C5334BD9B",
            "validator_index": "54",
            "height": "38943",
            "round": "0",
            "timestamp": "2018-08-01T23:13:24.902803611Z",
            "type": 2,
            "block_id": {
              "hash": "A80AEDD7B9B1DCEB5AA1A88983DBC200055866A1",
              "parts": {
                "total": "1",
                "hash": "57FCCB32CDDDBB867C48E617DAE0290880CDC34E"
              }
            },
            "signature": {
              "type": "tendermint/SignatureEd25519",
              "value": "OTyq7b/qec9rK5z2xGkF6zbDy2GZH1v5D8wmXdfI0/ioyZp3Ni/GKEhEA5jTaVe6Y8kncIVvDxeDuHc7r2H1Dg=="
            }
          },
          {
            "validator_address": "96BDE45EC52606CF5CB59853097871AD60680549",
            "validator_index": "55",
            "height": "38943",
            "round": "0",
            "timestamp": "2018-08-01T23:13:24.915205017Z",
            "type": 2,
            "block_id": {
              "hash": "A80AEDD7B9B1DCEB5AA1A88983DBC200055866A1",
              "parts": {
                "total": "1",
                "hash": "57FCCB32CDDDBB867C48E617DAE0290880CDC34E"
              }
            },
            "signature": {
              "type": "tendermint/SignatureEd25519",
              "value": "CrVKknuJ2xwnrtYmPDC6jc85ErHQWZyru7TDBrI92EnDRV8QZJup6nyLVO1n2METVv6NE25Xf+Wqnl5SwSg6Dg=="
            }
          },
          {
            "validator_address": "970CD321881185BF83DB2923C321B0E75FDBB2B8",
            "validator_index": "56",
            "height": "38943",
            "round": "0",
            "timestamp": "2018-08-01T23:13:25.021561995Z",
            "type": 2,
            "block_id": {
              "hash": "A80AEDD7B9B1DCEB5AA1A88983DBC200055866A1",
              "parts": {
                "total": "1",
                "hash": "57FCCB32CDDDBB867C48E617DAE0290880CDC34E"
              }
            },
            "signature": {
              "type": "tendermint/SignatureEd25519",
              "value": "Sbl83x2tx9MtmGNemd6tL7rND0iXg+1MD6O6ejxv709og8d71GQVKep8eOIzfizmEEORgdMuC8GF4UZFhYMwBA=="
            }
          },
          {
            "validator_address": "97DBB3D4B3D6C29287244864448F651DD5B07390",
            "validator_index": "57",
            "height": "38943",
            "round": "0",
            "timestamp": "2018-08-01T23:13:25.093176746Z",
            "type": 2,
            "block_id": {
              "hash": "A80AEDD7B9B1DCEB5AA1A88983DBC200055866A1",
              "parts": {
                "total": "1",
                "hash": "57FCCB32CDDDBB867C48E617DAE0290880CDC34E"
              }
            },
            "signature": {
              "type": "tendermint/SignatureEd25519",
              "value": "GJrIiFd1crl5PHVkn2mpy34pl37TC57m+ujxGT17NPZLd8Qxb3//XOu0F5Ig8OnWooM87RgORu0Bv2s/a5flAA=="
            }
          },
          {
            "validator_address": "9C29C9B76D27586E4D9AD2AED0E943162645E55C",
            "validator_index": "58",
            "height": "38943",
            "round": "0",
            "timestamp": "2018-08-01T23:13:24.890217328Z",
            "type": 2,
            "block_id": {
              "hash": "A80AEDD7B9B1DCEB5AA1A88983DBC200055866A1",
              "parts": {
                "total": "1",
                "hash": "57FCCB32CDDDBB867C48E617DAE0290880CDC34E"
              }
            },
            "signature": {
              "type": "tendermint/SignatureEd25519",
              "value": "hkDFAS8KDqJiGeNWcyXn5yokJGbCobuhQlNNe5gf635JuXbFoJQ06eGHYX8sWGz+bu33Z+/5G9y9xco0JithAw=="
            }
          },
          {
            "validator_address": "9D93AD02FE1BD7E76B9E58D7EB461088EAD011E5",
            "validator_index": "59",
            "height": "38943",
            "round": "0",
            "timestamp": "2018-08-01T23:13:24.87871057Z",
            "type": 2,
            "block_id": {
              "hash": "A80AEDD7B9B1DCEB5AA1A88983DBC200055866A1",
              "parts": {
                "total": "1",
                "hash": "57FCCB32CDDDBB867C48E617DAE0290880CDC34E"
              }
            },
            "signature": {
              "type": "tendermint/SignatureEd25519",
              "value": "qlOmvi9rDgdGxol+v7pJtgq4QsHkzFlGGJwQggDfolUJx7wmpiaLAor1cVKj0YAD6BJ6PMRWaQmNR3sdMlMwDw=="
            }
          },
          {
            "validator_address": "A0A6466F4ABEA09C3B55E3709AFDE217A103209F",
            "validator_index": "60",
            "height": "38943",
            "round": "0",
            "timestamp": "2018-08-01T23:13:24.907910842Z",
            "type": 2,
            "block_id": {
              "hash": "A80AEDD7B9B1DCEB5AA1A88983DBC200055866A1",
              "parts": {
                "total": "1",
                "hash": "57FCCB32CDDDBB867C48E617DAE0290880CDC34E"
              }
            },
            "signature": {
              "type": "tendermint/SignatureEd25519",
              "value": "qqYiyeqUnuHd0jfd4yl5S8HOvpj6n7WMTgdHWjaXCkdOcWMvKDZvTMHkjAygYJqD/5pVYbctGD02kDzXON+eCw=="
            }
          },
          {
            "validator_address": "A5868971300F155020634D7BB49C7634F7AACCD3",
            "validator_index": "61",
            "height": "38943",
            "round": "0",
            "timestamp": "2018-08-01T23:13:24.934518446Z",
            "type": 2,
            "block_id": {
              "hash": "A80AEDD7B9B1DCEB5AA1A88983DBC200055866A1",
              "parts": {
                "total": "1",
                "hash": "57FCCB32CDDDBB867C48E617DAE0290880CDC34E"
              }
            },
            "signature": {
              "type": "tendermint/SignatureEd25519",
              "value": "POTfUFMFgiOMwhgfX13QNFSIUVY6+t9i+IFuc+VUloUVVSgRJPaPZFcsW5BNFhxH4NxwSjhkdnuZGZl4hqqFDA=="
            }
          },
          {
            "validator_address": "A6B3A5B5D982CFD7B5FDFA15CF5A720E7AE25E7F",
            "validator_index": "62",
            "height": "38943",
            "round": "0",
            "timestamp": "2018-08-01T23:13:25.119896198Z",
            "type": 2,
            "block_id": {
              "hash": "A80AEDD7B9B1DCEB5AA1A88983DBC200055866A1",
              "parts": {
                "total": "1",
                "hash": "57FCCB32CDDDBB867C48E617DAE0290880CDC34E"
              }
            },
            "signature": {
              "type": "tendermint/SignatureEd25519",
              "value": "7dmxh+Ek3OXd2m87KHpI3F8RQsuHksJqW87fOwx4jm0Ldz1m4on4H0pszEAalbaEbdw6qL1CmccET0drv+YeCw=="
            }
          },
          {
            "validator_address": "AC96444A9083890B7C7B430DB17BF1D3EA5EED04",
            "validator_index": "63",
            "height": "38943",
            "round": "0",
            "timestamp": "2018-08-01T23:13:24.983237304Z",
            "type": 2,
            "block_id": {
              "hash": "A80AEDD7B9B1DCEB5AA1A88983DBC200055866A1",
              "parts": {
                "total": "1",
                "hash": "57FCCB32CDDDBB867C48E617DAE0290880CDC34E"
              }
            },
            "signature": {
              "type": "tendermint/SignatureEd25519",
              "value": "5QIqJtBUKufCvL9WHLvE5wA38lHyYwZ6Bk3/80M2MOOiMBFwO4ylbyT+1K1LR4oRV/QlGCOFfCGTOdGSQ54mAg=="
            }
          },
          {
            "validator_address": "ACB97FDA2D940AF0709B73537C458EB988AD2893",
            "validator_index": "64",
            "height": "38943",
            "round": "0",
            "timestamp": "2018-08-01T23:13:24.876331103Z",
            "type": 2,
            "block_id": {
              "hash": "A80AEDD7B9B1DCEB5AA1A88983DBC200055866A1",
              "parts": {
                "total": "1",
                "hash": "57FCCB32CDDDBB867C48E617DAE0290880CDC34E"
              }
            },
            "signature": {
              "type": "tendermint/SignatureEd25519",
              "value": "VTfILvzW+HZvyM8ZxDAa6xmUJBsCbWzKKGF8PNwLK6XIdIy2fMabcKcWyX2Kl56QDzhLajslI27IkW5KpqdIDA=="
            }
          },
          {
            "validator_address": "B197425B3210375F211661DE02EF2AE36580EB0F",
            "validator_index": "65",
            "height": "38943",
            "round": "0",
            "timestamp": "2018-08-01T23:13:24.939725635Z",
            "type": 2,
            "block_id": {
              "hash": "A80AEDD7B9B1DCEB5AA1A88983DBC200055866A1",
              "parts": {
                "total": "1",
                "hash": "57FCCB32CDDDBB867C48E617DAE0290880CDC34E"
              }
            },
            "signature": {
              "type": "tendermint/SignatureEd25519",
              "value": "a4GhgVbrRYwBxfxq40drHZhAIQmM0ceigMybnoS3/Y6gn4SYh3P0F5gUCRS0BGHDdYcE5syMAXDAYT2oB5f5DA=="
            }
          },
          {
            "validator_address": "B45E54D2D1CB5A4CCD1D49016608C18E7C56B270",
            "validator_index": "66",
            "height": "38943",
            "round": "0",
            "timestamp": "2018-08-01T23:13:24.979791903Z",
            "type": 2,
            "block_id": {
              "hash": "A80AEDD7B9B1DCEB5AA1A88983DBC200055866A1",
              "parts": {
                "total": "1",
                "hash": "57FCCB32CDDDBB867C48E617DAE0290880CDC34E"
              }
            },
            "signature": {
              "type": "tendermint/SignatureEd25519",
              "value": "YmQOzvXIweMwDDzFz56dnT/quJ+zBGN+Gj5CYN5x3xMPpwrLnKfbYDPwZAJkb4zXZhSVZ6LAGrAQyeR2D/v/Cw=="
            }
          },
          {
            "validator_address": "BB1276BE89834835428664408917649FEEF5D90C",
            "validator_index": "67",
            "height": "38943",
            "round": "0",
            "timestamp": "2018-08-01T23:13:24.939993329Z",
            "type": 2,
            "block_id": {
              "hash": "A80AEDD7B9B1DCEB5AA1A88983DBC200055866A1",
              "parts": {
                "total": "1",
                "hash": "57FCCB32CDDDBB867C48E617DAE0290880CDC34E"
              }
            },
            "signature": {
              "type": "tendermint/SignatureEd25519",
              "value": "WqVt923s0bkzexNu8VYOWM3snYWZfkpIoaSbKGvwxL5pQFZGFMPf6Yl03bO59S86RWqWc4k4NeiRu1evkoifBA=="
            }
          },
          {
            "validator_address": "BC36FEDD6EF6071118A3E51859DF3831A2EC4782",
            "validator_index": "68",
            "height": "38943",
            "round": "0",
            "timestamp": "2018-08-01T23:13:24.968982287Z",
            "type": 2,
            "block_id": {
              "hash": "A80AEDD7B9B1DCEB5AA1A88983DBC200055866A1",
              "parts": {
                "total": "1",
                "hash": "57FCCB32CDDDBB867C48E617DAE0290880CDC34E"
              }
            },
            "signature": {
              "type": "tendermint/SignatureEd25519",
              "value": "ielY56SPxMdA5hcDARZp9KoOahV5+BEwlUVeVmd7x1jYPZmgOmY75/4GbvPrbcS9bLXRtdMzZcgElqWhMOZkAQ=="
            }
          },
          {
            "validator_address": "BD9D0DA513BF099DB4BB6E725A4E19832789882F",
            "validator_index": "69",
            "height": "38943",
            "round": "0",
            "timestamp": "2018-08-01T23:13:24.948233752Z",
            "type": 2,
            "block_id": {
              "hash": "A80AEDD7B9B1DCEB5AA1A88983DBC200055866A1",
              "parts": {
                "total": "1",
                "hash": "57FCCB32CDDDBB867C48E617DAE0290880CDC34E"
              }
            },
            "signature": {
              "type": "tendermint/SignatureEd25519",
              "value": "drRe15HGnOTb3MULRnPa3ng9NqSkjaiqF0cPlJIGdwlIQttYbOjAe3dK8lIxTIgyiGzNZIPWLGubh0Ej7dxpAg=="
            }
          },
          {
            "validator_address": "C1134A2FF8F7338E7CDB3FE57DDD2A655DEB1E22",
            "validator_index": "70",
            "height": "38943",
            "round": "0",
            "timestamp": "2018-08-01T23:13:24.815399795Z",
            "type": 2,
            "block_id": {
              "hash": "A80AEDD7B9B1DCEB5AA1A88983DBC200055866A1",
              "parts": {
                "total": "1",
                "hash": "57FCCB32CDDDBB867C48E617DAE0290880CDC34E"
              }
            },
            "signature": {
              "type": "tendermint/SignatureEd25519",
              "value": "8tLrOei+9xE8r8JuVJ/6AXiHDxN248V5Fk6Ejvn6bRCUdeYAGyLz9JtUZC/FKtkqGowsbS0GDZjHcOvxzMN7AQ=="
            }
          },
          {
            "validator_address": "C39A8A2B85198DCB8F23AD1F6C198E2BA7AB5D60",
            "validator_index": "71",
            "height": "38943",
            "round": "0",
            "timestamp": "2018-08-01T23:13:25.073295988Z",
            "type": 2,
            "block_id": {
              "hash": "A80AEDD7B9B1DCEB5AA1A88983DBC200055866A1",
              "parts": {
                "total": "1",
                "hash": "57FCCB32CDDDBB867C48E617DAE0290880CDC34E"
              }
            },
            "signature": {
              "type": "tendermint/SignatureEd25519",
              "value": "CeDKgSR3ZmuWM2kdG4O6ba6Ip20/rVvrhu3nhm6jObY4aJyK0tJlfbdw5DA9FnyCTh0SmGdI700qV0024MeoBw=="
            }
          },
          {
            "validator_address": "C4335190C3B5BD4BA5568BC0F99C34162D940D08",
            "validator_index": "72",
            "height": "38943",
            "round": "0",
            "timestamp": "2018-08-01T23:13:24.96394867Z",
            "type": 2,
            "block_id": {
              "hash": "A80AEDD7B9B1DCEB5AA1A88983DBC200055866A1",
              "parts": {
                "total": "1",
                "hash": "57FCCB32CDDDBB867C48E617DAE0290880CDC34E"
              }
            },
            "signature": {
              "type": "tendermint/SignatureEd25519",
              "value": "1nGYRZSnmHkkS2ZVdTeStbOwifiHUx4hF0Qxyd5ovBM8hBltWtbZ+VL6EHJ2A2uLeVU0oBVrCndiqeX3o14uAQ=="
            }
          },
          {
            "validator_address": "C561CFA081677046376396922E7576E5F7B316AD",
            "validator_index": "73",
            "height": "38943",
            "round": "0",
            "timestamp": "2018-08-01T23:13:25.027040984Z",
            "type": 2,
            "block_id": {
              "hash": "A80AEDD7B9B1DCEB5AA1A88983DBC200055866A1",
              "parts": {
                "total": "1",
                "hash": "57FCCB32CDDDBB867C48E617DAE0290880CDC34E"
              }
            },
            "signature": {
              "type": "tendermint/SignatureEd25519",
              "value": "Er9cGVTQrKZh/1eTRTHRwerFLFWyAt2fgX7CyhzyWgmswHBjdJuxmEi0PxULTLMJmBNlQ4ssyifrQILRnAjTDQ=="
            }
          },
          {
            "validator_address": "CE589EA77B056D268D30D1DC1D68A70E0F885E95",
            "validator_index": "74",
            "height": "38943",
            "round": "0",
            "timestamp": "2018-08-01T23:13:24.963760752Z",
            "type": 2,
            "block_id": {
              "hash": "A80AEDD7B9B1DCEB5AA1A88983DBC200055866A1",
              "parts": {
                "total": "1",
                "hash": "57FCCB32CDDDBB867C48E617DAE0290880CDC34E"
              }
            },
            "signature": {
              "type": "tendermint/SignatureEd25519",
              "value": "qgeXbIPLz+x1RdShoVHmrlfZG4sMDaJAV7KQvIseDZZEV6xskHv1KsTm0xAqwM6FkCXZYiiGax1tYtQXznUQBQ=="
            }
          },
          {
            "validator_address": "CEB97DB5CB18270247ABDE6CF2F84F9AEE8A2904",
            "validator_index": "75",
            "height": "38943",
            "round": "0",
            "timestamp": "2018-08-01T23:13:25.771290015Z",
            "type": 2,
            "block_id": {
              "hash": "A80AEDD7B9B1DCEB5AA1A88983DBC200055866A1",
              "parts": {
                "total": "1",
                "hash": "57FCCB32CDDDBB867C48E617DAE0290880CDC34E"
              }
            },
            "signature": {
              "type": "tendermint/SignatureEd25519",
              "value": "hNQNiuUygp1+CLepX7xOMGF1qKZY4CKUSjLzZKmbgUkgcASykhhVeSK2+Eu0utbGJTCjCs+/gEeF2fdDVuz+Bw=="
            }
          },
          {
            "validator_address": "CF205769734F5758CC39F907EFB73D6BAF915FB1",
            "validator_index": "76",
            "height": "38943",
            "round": "0",
            "timestamp": "2018-08-01T23:13:25.200975151Z",
            "type": 2,
            "block_id": {
              "hash": "A80AEDD7B9B1DCEB5AA1A88983DBC200055866A1",
              "parts": {
                "total": "1",
                "hash": "57FCCB32CDDDBB867C48E617DAE0290880CDC34E"
              }
            },
            "signature": {
              "type": "tendermint/SignatureEd25519",
              "value": "1P98ncYt9B0pQYNzwqhYCsfwF43TmuTw1YVc23Fxo99wCuuiHJSyF1TsMLILbb1PuwSJdeQhlnrKKtEJ+IHRDA=="
            }
          },
          {
            "validator_address": "D2134B826A1E25A955905CB79A4D8731CAFA0CCE",
            "validator_index": "77",
            "height": "38943",
            "round": "0",
            "timestamp": "2018-08-01T23:13:25.078085104Z",
            "type": 2,
            "block_id": {
              "hash": "A80AEDD7B9B1DCEB5AA1A88983DBC200055866A1",
              "parts": {
                "total": "1",
                "hash": "57FCCB32CDDDBB867C48E617DAE0290880CDC34E"
              }
            },
            "signature": {
              "type": "tendermint/SignatureEd25519",
              "value": "uIMXE+zJbaTsbSr9SrLEOUxicbqYKMxNkeys1acaDkrpXx94P1OXXVyhGblslaqJZy6FdeKM1QsCNW+qoegtBg=="
            }
          },
          {
            "validator_address": "D6285C3422C8886445D53757CBE12D2B91B5A9D0",
            "validator_index": "78",
            "height": "38943",
            "round": "0",
            "timestamp": "2018-08-01T23:13:08.12579422Z",
            "type": 2,
            "block_id": {
              "hash": "A80AEDD7B9B1DCEB5AA1A88983DBC200055866A1",
              "parts": {
                "total": "1",
                "hash": "57FCCB32CDDDBB867C48E617DAE0290880CDC34E"
              }
            },
            "signature": {
              "type": "tendermint/SignatureEd25519",
              "value": "UyaWq5Qn1GDcYWXl98rzRClYKhX18coCWM2jCgkYeA5wePWTUrq3XNvI+koVxJTMTgAgi2tQ9U+YO6Xh7AExDg=="
            }
          },
          {
            "validator_address": "D77FB84A729972CD3E757C9BEB61561855832B92",
            "validator_index": "79",
            "height": "38943",
            "round": "0",
            "timestamp": "2018-08-01T23:13:25.059584408Z",
            "type": 2,
            "block_id": {
              "hash": "A80AEDD7B9B1DCEB5AA1A88983DBC200055866A1",
              "parts": {
                "total": "1",
                "hash": "57FCCB32CDDDBB867C48E617DAE0290880CDC34E"
              }
            },
            "signature": {
              "type": "tendermint/SignatureEd25519",
              "value": "83YcQtl6YfoPFPEtCXkrDay1NFghbxvXry6LzKbE5HD5sAMuYy9y/6I5x2uLEPEmJ1mjy2g/Dz6gfH2BKBVuAg=="
            }
          },
          {
            "validator_address": "DB7E6732471D3EA5C90C17A9974D9F88AB45F2FB",
            "validator_index": "80",
            "height": "38943",
            "round": "0",
            "timestamp": "2018-08-01T23:13:24.917266078Z",
            "type": 2,
            "block_id": {
              "hash": "A80AEDD7B9B1DCEB5AA1A88983DBC200055866A1",
              "parts": {
                "total": "1",
                "hash": "57FCCB32CDDDBB867C48E617DAE0290880CDC34E"
              }
            },
            "signature": {
              "type": "tendermint/SignatureEd25519",
              "value": "3w/TYnRPSw4CzFiX2sfQc+q7hhudSBSjlgX5Xjeeso5rZivPGHPimpOhxp3exk3mmX9W/Bz9VrnsRsUV91d/CA=="
            }
          },
          {
            "validator_address": "DF54B862410BCD9B5C516FBB6C56BDC826ED6FA7",
            "validator_index": "81",
            "height": "38943",
            "round": "0",
            "timestamp": "2018-08-01T23:13:25.00170253Z",
            "type": 2,
            "block_id": {
              "hash": "A80AEDD7B9B1DCEB5AA1A88983DBC200055866A1",
              "parts": {
                "total": "1",
                "hash": "57FCCB32CDDDBB867C48E617DAE0290880CDC34E"
              }
            },
            "signature": {
              "type": "tendermint/SignatureEd25519",
              "value": "p2m7qglDol+wVpLNNT5FUCQN2Vc6SmA8Jo3p99xCYY31sF9ZfLKTovr/srxlQRJXFyX7dtMJX2BtoV5p7joHCg=="
            }
          },
          {
            "validator_address": "DFAF0C8B1B78D6D552B0189DE3ACA351439A1319",
            "validator_index": "82",
            "height": "38943",
            "round": "0",
            "timestamp": "2018-08-01T23:13:24.949248449Z",
            "type": 2,
            "block_id": {
              "hash": "A80AEDD7B9B1DCEB5AA1A88983DBC200055866A1",
              "parts": {
                "total": "1",
                "hash": "57FCCB32CDDDBB867C48E617DAE0290880CDC34E"
              }
            },
            "signature": {
              "type": "tendermint/SignatureEd25519",
              "value": "2U6n6X7Y9cAyahyVkMA2GOnMXmizN+RKk1aHF6lzHnN20D4UgSsdOjRC9JbSVpSa8tAaFdJMl6sOTKojxCGVCA=="
            }
          },
          {
            "validator_address": "E1DBC77881161A5A3A8536A57536EAE546A75D69",
            "validator_index": "83",
            "height": "38943",
            "round": "0",
            "timestamp": "2018-08-01T23:13:24.863058769Z",
            "type": 2,
            "block_id": {
              "hash": "A80AEDD7B9B1DCEB5AA1A88983DBC200055866A1",
              "parts": {
                "total": "1",
                "hash": "57FCCB32CDDDBB867C48E617DAE0290880CDC34E"
              }
            },
            "signature": {
              "type": "tendermint/SignatureEd25519",
              "value": "EO1DDBYJG8zQgQ820dXqnIcTFh7Im035H1N5l0Ad2JBry6U5V5P5cDLbtlNPr4PK7HrTmnOAXwSrRlMV8sMMBA=="
            }
          },
          {
            "validator_address": "E300E9D484374C1D3E97C1D93CAC3B160A056298",
            "validator_index": "84",
            "height": "38943",
            "round": "0",
            "timestamp": "2018-08-01T23:13:25.185681707Z",
            "type": 2,
            "block_id": {
              "hash": "A80AEDD7B9B1DCEB5AA1A88983DBC200055866A1",
              "parts": {
                "total": "1",
                "hash": "57FCCB32CDDDBB867C48E617DAE0290880CDC34E"
              }
            },
            "signature": {
              "type": "tendermint/SignatureEd25519",
              "value": "PhIfNahY71NHy/htxXNIDAgyU0o6S+p5rZZex5i0bcPERHqr0Oh1+gA5catl9//+bTfM1cmNzI3gniqraPbsBA=="
            }
          },
          {
            "validator_address": "E39B5778E0D4297A46F45CF6940B0A163A430FF8",
            "validator_index": "85",
            "height": "38943",
            "round": "0",
            "timestamp": "2018-08-01T23:13:24.941634966Z",
            "type": 2,
            "block_id": {
              "hash": "A80AEDD7B9B1DCEB5AA1A88983DBC200055866A1",
              "parts": {
                "total": "1",
                "hash": "57FCCB32CDDDBB867C48E617DAE0290880CDC34E"
              }
            },
            "signature": {
              "type": "tendermint/SignatureEd25519",
              "value": "sY3kXaANrttNOLihoBSnAoaTzEFeZ5R9rJRgDeA+nZGyjUTfWbdHsqzUZmilvDlE863bkUdhDxl0CpZ693TnBg=="
            }
          },
          {
            "validator_address": "E3B19738F7132F950668504D326C7660F159D170",
            "validator_index": "86",
            "height": "38943",
            "round": "0",
            "timestamp": "2018-08-01T23:13:24.87375523Z",
            "type": 2,
            "block_id": {
              "hash": "A80AEDD7B9B1DCEB5AA1A88983DBC200055866A1",
              "parts": {
                "total": "1",
                "hash": "57FCCB32CDDDBB867C48E617DAE0290880CDC34E"
              }
            },
            "signature": {
              "type": "tendermint/SignatureEd25519",
              "value": "XIuyB9Ax5q54fM20h0TVDxQqRGpP77zbQI8xai/gttye98HvBYM2mkj3j0JHEvmjrhttYsjRtU0dO00/kr5dCg=="
            }
          },
          {
            "validator_address": "E42F8AEABB685219F7027F54D2B0DBC7846F633A",
            "validator_index": "87",
            "height": "38943",
            "round": "0",
            "timestamp": "2018-08-01T23:13:24.107652696Z",
            "type": 2,
            "block_id": {
              "hash": "A80AEDD7B9B1DCEB5AA1A88983DBC200055866A1",
              "parts": {
                "total": "1",
                "hash": "57FCCB32CDDDBB867C48E617DAE0290880CDC34E"
              }
            },
            "signature": {
              "type": "tendermint/SignatureEd25519",
              "value": "m2/WoVEjQIwvK4rD2AQ4dSAJ00BnC01WdlmyOa5tQmeZbIG+LwMwavQ+owlqNpP4KX2N5M4vhECpilaw1zw+Cg=="
            }
          },
          {
            "validator_address": "E4E6C2E81269DFFA196C17F98240E491479A6008",
            "validator_index": "88",
            "height": "38943",
            "round": "0",
            "timestamp": "2018-08-01T23:13:25.008218499Z",
            "type": 2,
            "block_id": {
              "hash": "A80AEDD7B9B1DCEB5AA1A88983DBC200055866A1",
              "parts": {
                "total": "1",
                "hash": "57FCCB32CDDDBB867C48E617DAE0290880CDC34E"
              }
            },
            "signature": {
              "type": "tendermint/SignatureEd25519",
              "value": "uq0Yq5B5VWyyIrFzRfgWtcETV/43M/GDgA7YdKLZZx88dYjmtvZt05iLeQYdj8DkbhNzJYSzDdZrjwmDeqVIBA=="
            }
          },
          {
            "validator_address": "E4FEB2846F4F3B0ECDCBE9C9DCB2248248A5AF0F",
            "validator_index": "89",
            "height": "38943",
            "round": "0",
            "timestamp": "2018-08-01T23:13:24.68422095Z",
            "type": 2,
            "block_id": {
              "hash": "A80AEDD7B9B1DCEB5AA1A88983DBC200055866A1",
              "parts": {
                "total": "1",
                "hash": "57FCCB32CDDDBB867C48E617DAE0290880CDC34E"
              }
            },
            "signature": {
              "type": "tendermint/SignatureEd25519",
              "value": "OLO78Nps1q8+dh01AAARsY1yrXfdcekLfvJrJtoPWy3sUIaEGdOh+JTRE/5ZjJaie3AiZJVWqdEP4SIImnExDQ=="
            }
          },
          {
            "validator_address": "E50ADECD5FD27FA2CD610C07F8AED36A2FC4A6A6",
            "validator_index": "90",
            "height": "38943",
            "round": "0",
            "timestamp": "2018-08-01T23:13:24.894993624Z",
            "type": 2,
            "block_id": {
              "hash": "A80AEDD7B9B1DCEB5AA1A88983DBC200055866A1",
              "parts": {
                "total": "1",
                "hash": "57FCCB32CDDDBB867C48E617DAE0290880CDC34E"
              }
            },
            "signature": {
              "type": "tendermint/SignatureEd25519",
              "value": "cpyvKigscyrKORTCIcxCk5OdSDwU1jtBVRyMxdL3EGKf8qlO2BchQYTxLp2vZ7ZyWqer/QqT7mVUUwaujQU3Dg=="
            }
          },
          {
            "validator_address": "E6A7079D584B163750BE0831227F6B685DEAF3C1",
            "validator_index": "91",
            "height": "38943",
            "round": "0",
            "timestamp": "2018-08-01T23:13:24.998267805Z",
            "type": 2,
            "block_id": {
              "hash": "A80AEDD7B9B1DCEB5AA1A88983DBC200055866A1",
              "parts": {
                "total": "1",
                "hash": "57FCCB32CDDDBB867C48E617DAE0290880CDC34E"
              }
            },
            "signature": {
              "type": "tendermint/SignatureEd25519",
              "value": "/MXgmqNhT66m0OY3GS1e2oywhDL9Wvs5rOiseZEXmEtAooFn6PW0lCON2xDcl0QEzY9agDhRrcJARUy6VoHlAw=="
            }
          },
          {
            "validator_address": "E7A30077D5D11867D3EAF99ED45BFDC1EB834509",
            "validator_index": "92",
            "height": "38943",
            "round": "0",
            "timestamp": "2018-08-01T23:13:24.894057638Z",
            "type": 2,
            "block_id": {
              "hash": "A80AEDD7B9B1DCEB5AA1A88983DBC200055866A1",
              "parts": {
                "total": "1",
                "hash": "57FCCB32CDDDBB867C48E617DAE0290880CDC34E"
              }
            },
            "signature": {
              "type": "tendermint/SignatureEd25519",
              "value": "eMOlY+Hw90eA1DLiF+pOBXVPnHVRSrGeKlhA6KdSaEsJWqOvToUSv6hvD0tul8fECY0QDRn83JI6TrJnnnVsBw=="
            }
          },
          {
            "validator_address": "EBC613967F66F4EC306852CDF58B4F151CF16738",
            "validator_index": "93",
            "height": "38943",
            "round": "0",
            "timestamp": "2018-08-01T23:13:24.993700405Z",
            "type": 2,
            "block_id": {
              "hash": "A80AEDD7B9B1DCEB5AA1A88983DBC200055866A1",
              "parts": {
                "total": "1",
                "hash": "57FCCB32CDDDBB867C48E617DAE0290880CDC34E"
              }
            },
            "signature": {
              "type": "tendermint/SignatureEd25519",
              "value": "wNWUHxWp+0JJksZuTAjR2zycC4Dd8yOBES8+RZngMbcW8KBQ26tDAOLpelcfIOk6/m7kWUEDlBYW5hMke5smCw=="
            }
          },
          {
            "validator_address": "EC3401441726C40ECC7E51F744483B05BC6DE9BD",
            "validator_index": "94",
            "height": "38943",
            "round": "0",
            "timestamp": "2018-08-01T23:13:24.966228766Z",
            "type": 2,
            "block_id": {
              "hash": "A80AEDD7B9B1DCEB5AA1A88983DBC200055866A1",
              "parts": {
                "total": "1",
                "hash": "57FCCB32CDDDBB867C48E617DAE0290880CDC34E"
              }
            },
            "signature": {
              "type": "tendermint/SignatureEd25519",
              "value": "GA8ThfFI5VOFe4eqBUjha12Y/JUZpUxoDniNML8OoTNj+XtJDD2dCyKznURPrYUOQ6yQPMMV9bzUpPpmtXy6DA=="
            }
          },
          {
            "validator_address": "EC95B111D032181E1EC3B5E8875C5BB8E4AE7140",
            "validator_index": "95",
            "height": "38943",
            "round": "0",
            "timestamp": "2018-08-01T23:13:24.906824113Z",
            "type": 2,
            "block_id": {
              "hash": "A80AEDD7B9B1DCEB5AA1A88983DBC200055866A1",
              "parts": {
                "total": "1",
                "hash": "57FCCB32CDDDBB867C48E617DAE0290880CDC34E"
              }
            },
            "signature": {
              "type": "tendermint/SignatureEd25519",
              "value": "XYD7eSi3hlVXHLTCXfoI82EVlOCFA2XIL4z35N0Tadmnj1KuFouJ6lork9nOZbDogAhah9b/88ru37k0pfn7DQ=="
            }
          },
          {
            "validator_address": "F23FF36BD5B90C33CE3A03ED72DBDCF5EC07D6AF",
            "validator_index": "96",
            "height": "38943",
            "round": "0",
            "timestamp": "2018-08-01T23:13:24.913188515Z",
            "type": 2,
            "block_id": {
              "hash": "A80AEDD7B9B1DCEB5AA1A88983DBC200055866A1",
              "parts": {
                "total": "1",
                "hash": "57FCCB32CDDDBB867C48E617DAE0290880CDC34E"
              }
            },
            "signature": {
              "type": "tendermint/SignatureEd25519",
              "value": "/K8oI3nDDI77xzustSTq7G9n9HwOXI4cN5/wPH4M/lHP5qCXIFdvZyxyHyNrd0ZYCEEL2QpDza6If88Gxhg9Cw=="
            }
          },
          {
            "validator_address": "F4268597DE93E3E2CED38845010F8AA34E2A879E",
            "validator_index": "97",
            "height": "38943",
            "round": "0",
            "timestamp": "2018-08-01T23:13:24.967514387Z",
            "type": 2,
            "block_id": {
              "hash": "A80AEDD7B9B1DCEB5AA1A88983DBC200055866A1",
              "parts": {
                "total": "1",
                "hash": "57FCCB32CDDDBB867C48E617DAE0290880CDC34E"
              }
            },
            "signature": {
              "type": "tendermint/SignatureEd25519",
              "value": "fwojBIGUYnz7FTYthbYxeHV5mqhVe97fK6N1F4uch5Zb1yqCoq2f8pF66z8v7F6KbvebTi0RWv7ioeSC9RZzBA=="
            }
          },
          {
            "validator_address": "F4DEB417999B04BE2EFF9FFE03FA373D86011CC0",
            "validator_index": "98",
            "height": "38943",
            "round": "0",
            "timestamp": "2018-08-01T23:13:24.957121704Z",
            "type": 2,
            "block_id": {
              "hash": "A80AEDD7B9B1DCEB5AA1A88983DBC200055866A1",
              "parts": {
                "total": "1",
                "hash": "57FCCB32CDDDBB867C48E617DAE0290880CDC34E"
              }
            },
            "signature": {
              "type": "tendermint/SignatureEd25519",
              "value": "mBbKexdsf6AAdatte7lc1TKfuXAK4EiW5EXVC0dFzxmxVAwh6oSlDztG8maZu6siZPZWWI4E6YLKWv0g4Q6GBw=="
            }
          },
          {
            "validator_address": "F6738260186D33D9C14FC6E7017AFE6BB952A63D",
            "validator_index": "99",
            "height": "38943",
            "round": "0",
            "timestamp": "2018-08-01T23:13:24.926098006Z",
            "type": 2,
            "block_id": {
              "hash": "A80AEDD7B9B1DCEB5AA1A88983DBC200055866A1",
              "parts": {
                "total": "1",
                "hash": "57FCCB32CDDDBB867C48E617DAE0290880CDC34E"
              }
            },
            "signature": {
              "type": "tendermint/SignatureEd25519",
              "value": "IFL+mHzjvVaAp6N38dBdAkOHBURadgVFxR3p/yOCnvGDhrwSJojCtsY2iofXm9c5VQCb4eCvHyWfKZTk40k8BA=="
            }
          },
          {
            "validator_address": "FF3F3FCBCE7E62D7AD5506FF846EC4518D980515",
            "validator_index": "100",
            "height": "38943",
            "round": "0",
            "timestamp": "2018-08-01T23:13:24.866517792Z",
            "type": 2,
            "block_id": {
              "hash": "A80AEDD7B9B1DCEB5AA1A88983DBC200055866A1",
              "parts": {
                "total": "1",
                "hash": "57FCCB32CDDDBB867C48E617DAE0290880CDC34E"
              }
            },
            "signature": {
              "type": "tendermint/SignatureEd25519",
              "value": "o+tjOurB1Zz3AKBaBZqJdq722whCv3OyrYVpcHxCsrNxlIPdlfTW+8Azuh5qfQetAZ2UDklPdg2eWoj/hMFBCQ=="
            }
          }
        ]
      }
    },
    "canonical": true
  }
}