{
  "jsonrpc": "2.0",
  "id": "",
  "result": {
    "SignedHeader": {
      "header": {
        "chain_id": "gaia-7004",
        "height": "39696",
        "time": "2018-08-02T00:35:43.832088474Z",
        "num_txs": "0",
        "last_block_id": {
          "hash": "EC0881CBCF47A716B969AE69F4D7F46926E98919",
          "parts": {
            "total": "1",
            "hash": "9AC8E1EB628E0781D3CDE79DEC7FAF28F9BB0984"
          }
        },
        "total_txs": "1878",
        "last_commit_hash": "B883070A3ABBDF295AFE928B741F02CDD4E6BBA6",
        "data_hash": "",
        "validators_hash": "9E30A8CE34B9FFC7148667D372D9E94A0122090E",
        "consensus_hash": "D6B74BB35BDFFD8392340F2A379173548AE188FE",
        "app_hash": "F4CBE95257ED04ACC70288D010419F9F7CD988CE",
        "last_results_hash": "",
        "evidence_hash": ""
      },
      "commit": {
        "block_id": {
          "hash": "F26B3F89A226A60F341534CCDD57D992FB6DF0E2",
          "parts": {
            "total": "1",
            "hash": "4A8E933ABAF85B2ABC75A5B76D130F947FFAE1C2"
          }
        },
        "precommits": [
          {
            "validator_address": "029359C0C768096273A68ABC902A6B17AC8D1D70",
            "validator_index": "0",
            "height": "39696",
            "round": "1",
            "timestamp": "2018-08-02T00:35:44.783893837Z",
            "type": 2,
            "block_id": {
              "hash": "F26B3F89A226A60F341534CCDD57D992FB6DF0E2",
              "parts": {
                "total": "1",
                "hash": "4A8E933ABAF85B2ABC75A5B76D130F947FFAE1C2"
              }
            },
            "signature": {
              "type": "tendermint/SignatureEd25519",
              "value": "vXGGVZdoyuJdLCSjdpOU7QUhtPybA2+kFqOSPErIZKwWbITQiyhB17maMi88XHSzmrYNfMgkgzxVFzLWBVN5Bg=="
            }
          },
          {
            "validator_address": "02FE4B97A8387F39D1AC19E0C1702B3CC614812F",
            "validator_index": "1",
            "height": "39696",
            "round": "1",
            "timestamp": "2018-08-02T00:35:44.79068985Z",
            "type": 2,
            "block_id": {
              "hash": "F26B3F89A226A60F341534CCDD57D992FB6DF0E2",
              "parts": {
                "total": "1",
                "hash": "4A8E933ABAF85B2ABC75A5B76D130F947FFAE1C2"
              }
            },
            "signature": {
              "type": "tendermint/SignatureEd25519",
              "value": "ZXVTvIADTbNHeB8g9+kbuKLZRxaUbBFCgpXOyfh7lVwR9Ep219X0Xq9O6o+JTJv2XttPSHuwptjrMn0GZDOrBA=="
            }
          },
          {
            "validator_address": "0548261C50222FD710EB5EBDF03A0E6567B21D20",
            "validator_index": "2",
            "height": "39696",
            "round": "1",
            "timestamp": "2018-08-02T00:35:44.86826616Z",
            "type": 2,
            "block_id": {
              "hash": "F26B3F89A226A60F341534CCDD57D992FB6DF0E2",
              "parts": {
                "total": "1",
                "hash": "4A8E933ABAF85B2ABC75A5B76D130F947FFAE1C2"
              }
            },
            "signature": {
              "type": "tendermint/SignatureEd25519",
              "value": "g094LyBVsEJwa32skjE0Xn4kb2Lo6+16Ov7iSIbza4IzPPIeNnaM6EMSFkCde/Uo0GUCLQFMKROQKKJDG4ocCA=="
            }
          },
          {
            "validator_address": "0665ADBF9B120B7617BF955AA5653A1992C82B11",
            "validator_index": "3",
            "height": "39696",
            "round": "1",
            "timestamp": "2018-08-02T00:35:44.759389804Z",
            "type": 2,
            "block_id": {
              "hash": "F26B3F89A226A60F341534CCDD57D992FB6DF0E2",
              "parts": {
                "total": "1",
                "hash": "4A8E933ABAF85B2ABC75A5B76D130F947FFAE1C2"
              }
            },
            "signature": {
              "type": "tendermint/SignatureEd25519",
              "value": "0aNgCLQQZPAN7U5/cMm4YWlIJuIoseZViOlFOtedwp1LcJbt+W9TM6Uxi9WfhEq8zBDlYiZZ0r5KhphGHZWHDg=="
            }
          },
          {
            "validator_address": "09145E611CC27EEB944FC5A956DDF710F943B9EF",
            "validator_index": "4",
            "height": "39696",
            "round": "1",
            "timestamp": "2018-08-02T00:35:44.846039405Z",
            "type": 2,
            "block_id": {
              "hash": "F26B3F89A226A60F341534CCDD57D992FB6DF0E2",
              "parts": {
                "total": "1",
                "hash": "4A8E933ABAF85B2ABC75A5B76D130F947FFAE1C2"
              }
            },
            "signature": {
              "type": "tendermint/SignatureEd25519",
              "value": "7ZYkkVXVBXu1mdWt8GlrjHrfvzxprqERrIXm+gujp6LnwIjgeoUNZgdo4E7JLelKvSSBN70uV/SIkid/8nMdBg=="
            }
          },
          {
            "validator_address": "0989D0355A104B67AE0AE028C68FB610690E174B",
            "validator_index": "5",
            "height": "39696",
            "round": "1",
            "timestamp": "2018-08-02T00:35:44.812572641Z",
            "type": 2,
            "block_id": {
              "hash": "F26B3F89A226A60F341534CCDD57D992FB6DF0E2",
              "parts": {
                "total": "1",
                "hash": "4A8E933ABAF85B2ABC75A5B76D130F947FFAE1C2"
              }
            },
            "signature": {
              "type": "tendermint/SignatureEd25519",
              "value": "K/a6oKDbpSbTAvfOFAbKOk6mjQ1c16Dj6GIGP9R8LvCrizBRsfkjny94rIsd2U/NBYn2df5BOBXaXVH31HDYAw=="
            }
          },
          {
            "validator_address": "0A692DBFFE9E5DD28E7DECC33CED1AEB4C0D014E",
            "validator_index": "6",
            "height": "39696",
            "round": "1",
            "timestamp": "2018-08-02T00:35:44.895040424Z",
            "type": 2,
            "block_id": {
              "hash": "F26B3F89A226A60F341534CCDD57D992FB6DF0E2",
              "parts": {
                "total": "1",
                "hash": "4A8E933ABAF85B2ABC75A5B76D130F947FFAE1C2"
              }
            },
            "signature": {
              "type": "tendermint/SignatureEd25519",
              "value": "xOmca/aUuJO+p7v7UG+KfrByroYkVDQb7Ry++8xUsZ1SH9hktoyAXOSfeVnDymPjsBgejre95GY+TzDm/2yGCQ=="
            }
          },
          null,
          {
            "validator_address": "1751786EFC085D5331C61168FFFC8202EA151B4E",
            "validator_index": "8",
            "height": "39696",
            "round": "1",
            "timestamp": "2018-08-02T00:35:44.459471544Z",
            "type": 2,
            "block_id": {
              "hash": "F26B3F89A226A60F341534CCDD57D992FB6DF0E2",
              "parts": {
                "total": "1",
                "hash": "4A8E933ABAF85B2ABC75A5B76D130F947FFAE1C2"
              }
            },
            "signature": {
              "type": "tendermint/SignatureEd25519",
              "value": "HtukTVS69UC/2IeQf5IhQ/9C25MYwV0lUwYDBN4GpRr52segR202ImXcyAZSC/kyBbipB2y/+PmTyh60efkcAQ=="
            }
          },
          {
            "validator_address": "17BB5CD01E8940FAFB948A04D5FA5A0645E5822E",
            "validator_index": "9",
            "height": "39696",
            "round": "1",
            "timestamp": "2018-08-02T00:35:44.774454011Z",
            "type": 2,
            "block_id": {
              "hash": "F26B3F89A226A60F341534CCDD57D992FB6DF0E2",
              "parts": {
                "total": "1",
                "hash": "4A8E933ABAF85B2ABC75A5B76D130F947FFAE1C2"
              }
            },
            "signature": {
              "type": "tendermint/SignatureEd25519",
              "value": "Wws7pEttfLfLgVdWK3ECMnlhqCDDyyW173lDxnFyq6UGStIdICc7tDiz25E78jeCJqUmsqIUguxZNQ4sQOkGBg=="
            }
          },
          {
            "validator_address": "1C683A87904BC38F05004FE83301A3A3E35447EB",
            "validator_index": "10",
            "height": "39696",
            "round": "1",
            "timestamp": "2018-08-02T00:35:44.762579557Z",
            "type": 2,
            "block_id": {
              "hash": "F26B3F89A226A60F341534CCDD57D992FB6DF0E2",
              "parts": {
                "total": "1",
                "hash": "4A8E933ABAF85B2ABC75A5B76D130F947FFAE1C2"
              }
            },
            "signature": {
              "type": "tendermint/SignatureEd25519",
              "value": "omVcF8bNy55QWjuyFvm/04AaBg4PvjNIZfGCfxaNZTPDS8FHNo/wBvrtNBe/opurLEyhwmi6k2Ow/bQPnahWAA=="
            }
          },
          {
            "validator_address": "1E9CE94FD0BA5CFEB901F90BC658D64D85B134D2",
            "validator_index": "11",
            "height": "39696",
            "round": "1",
            "timestamp": "2018-08-02T00:35:44.834262068Z",
            "type": 2,
            "block_id": {
              "hash": "F26B3F89A226A60F341534CCDD57D992FB6DF0E2",
              "parts": {
                "total": "1",
                "hash": "4A8E933ABAF85B2ABC75A5B76D130F947FFAE1C2"
              }
            },
            "signature": {
              "type": "tendermint/SignatureEd25519",
              "value": "NVX7H+APzHR2vEY9eXvInDNQvIkW319nRnQJaJFGjPCeu8AYVuawL7qdD5/iwYIQjIFYTc3jvrpnjebwa6rIAQ=="
            }
          },
          {
            "validator_address": "1ECD8C5FE1341D74CDC633A245DD56858DE2F9A2",
            "validator_index": "12",
            "height": "39696",
            "round": "1",
            "timestamp": "2018-08-02T00:35:44.926386616Z",
            "type": 2,
            "block_id": {
              "hash": "F26B3F89A226A60F341534CCDD57D992FB6DF0E2",
              "parts": {
                "total": "1",
                "hash": "4A8E933ABAF85B2ABC75A5B76D130F947FFAE1C2"
              }
            },
            "signature": {
              "type": "tendermint/SignatureEd25519",
              "value": "tLTQC+B3MbkK7NJjvYwnMhn7TAksiwsvKkhyA4gfOXMHeroOx85B7ZwSFaoPiGW2Ottz6um5BsBkk9p2Fg21Aw=="
            }
          },
          {
            "validator_address": "1F3A68CAAD483768AA2BF667DEF10F7104C89928",
            "validator_index": "13",
            "height": "39696",
            "round": "1",
            "timestamp": "2018-08-02T00:35:44.835379695Z",
            "type": 2,
            "block_id": {
              "hash": "F26B3F89A226A60F341534CCDD57D992FB6DF0E2",
              "parts": {
                "total": "1",
                "hash": "4A8E933ABAF85B2ABC75A5B76D130F947FFAE1C2"
              }
            },
            "signature": {
              "type": "tendermint/SignatureEd25519",
              "value": "YIwg+VTf55t2hmiRVReVTB63dqQBaJI6WzkwNETZeqIEQEm5SUKVzJ+f5AFl8F52xpZp/NMvuKZ7pxYDHu7CBQ=="
            }
          },
          {
            "validator_address": "1F61153F26C2DF27E15874268D30326287323352",
            "validator_index": "14",
            "height": "39696",
            "round": "1",
            "timestamp": "2018-08-02T00:35:44.846868877Z",
            "type": 2,
            "block_id": {
              "hash": "F26B3F89A226A60F341534CCDD57D992FB6DF0E2",
              "parts": {
                "total": "1",
                "hash": "4A8E933ABAF85B2ABC75A5B76D130F947FFAE1C2"
              }
            },
            "signature": {
              "type": "tendermint/SignatureEd25519",
              "value": "5wJlAFDOoRkP63Xh/1aqbABTpforIesxjxlt6v/U3037tPnIQIygQsyEiDxM6RijcitO+RY52hyoFMJdQM+TCQ=="
            }
          },
          {
            "validator_address": "23897586D68E2AC1C78E0EF5BB5DF5C8EAB18F50",
            "validator_index": "15",
            "height": "39696",
            "round": "1",
            "timestamp": "2018-08-02T00:35:44.799655412Z",
            "type": 2,
            "block_id": {
              "hash": "F26B3F89A226A60F341534CCDD57D992FB6DF0E2",
              "parts": {
                "total": "1",
                "hash": "4A8E933ABAF85B2ABC75A5B76D130F947FFAE1C2"
              }
            },
            "signature": {
              "type": "tendermint/SignatureEd25519",
              "value": "M4NKwiWazihCCAvbTpU8lm8X/pqGgze9u1Eegb0DB4t0VAI1+x8kZX8u2nWZ2RkL1MbSgxBU4ec2RmGtNv3/CQ=="
            }
          },
          {
            "validator_address": "28770D17E8530825E7310A0659308654B7EC9682",
            "validator_index": "16",
            "height": "39696",
            "round": "1",
            "timestamp": "2018-08-02T00:35:44.739677071Z",
            "type": 2,
            "block_id": {
              "hash": "F26B3F89A226A60F341534CCDD57D992FB6DF0E2",
              "parts": {
                "total": "1",
                "hash": "4A8E933ABAF85B2ABC75A5B76D130F947FFAE1C2"
              }
            },
            "signature": {
              "type": "tendermint/SignatureEd25519",
              "value": "EbXpEhqO83Pd+esPSFuykyJWNL0r8EGe9HcAm150iEpa5p9W18Cn2xE8WyIFkQFWGPLeCWfkOHBo9wWmvbg0Dg=="
            }
          },
          {
            "validator_address": "2A92EC3C642140202298D0E245095E0ECFC25228",
            "validator_index": "17",
            "height": "39696",
            "round": "1",
            "timestamp": "2018-08-02T00:35:44.850503076Z",
            "type": 2,
            "block_id": {
              "hash": "F26B3F89A226A60F341534CCDD57D992FB6DF0E2",
              "parts": {
                "total": "1",
                "hash": "4A8E933ABAF85B2ABC75A5B76D130F947FFAE1C2"
              }
            },
            "signature": {
              "type": "tendermint/SignatureEd25519",
              "value": "JUy19lDLb3Fgwx8nZrwB7mng/9T9wv6WSVtIAk2tsa4g7AuTdJTlTTW681eCRP7Jxlxh2j+4DMVDr/6uGvqODg=="
            }
          },
          {
            "validator_address": "33412C9A69C60CB0FAA24A5C5B3A906DE24B47C2",
            "validator_index": "18",
            "height": "39696",
            "round": "1",
            "timestamp": "2018-08-02T00:35:44.81942344Z",
            "type": 2,
            "block_id": {
              "hash": "F26B3F89A226A60F341534CCDD57D992FB6DF0E2",
              "parts": {
                "total": "1",
                "hash": "4A8E933ABAF85B2ABC75A5B76D130F947FFAE1C2"
              }
            },
            "signature": {
              "type": "tendermint/SignatureEd25519",
              "value": "1REHYo+NjVKBa0Rl9P/V/+8cL1vx+cHyISpSwRJlLvgy+fZ7hIhEgamSVIlJ6XCiafx6jurteG1sH30j5mSKDg=="
            }
          },
          {
            "validator_address": "36E9B7FAEC964F97D84C028ED62493E373AD0B38",
            "validator_index": "19",
            "height": "39696",
            "round": "1",
            "timestamp": "2018-08-02T00:35:44.916186904Z",
            "type": 2,
            "block_id": {
              "hash": "F26B3F89A226A60F341534CCDD57D992FB6DF0E2",
              "parts": {
                "total": "1",
                "hash": "4A8E933ABAF85B2ABC75A5B76D130F947FFAE1C2"
              }
            },
            "signature": {
              "type": "tendermint/SignatureEd25519",
              "value": "k/pWSnNhz/14cyqJwaQLut0jNRHU9hHCZ3ZbYON+WH9axzSL5hN/5sxtA5id3h3axhTIZohAIhUrblcoXDD3Bg=="
            }
          },
          {
            "validator_address": "38A8D85D36BEA2E5FCF8A1E778F53628E450EF13",
            "validator_index": "20",
            "height": "39696",
            "round": "1",
            "timestamp": "2018-08-02T00:35:44.997400103Z",
            "type": 2,
            "block_id": {
              "hash": "F26B3F89A226A60F341534CCDD57D992FB6DF0E2",
              "parts": {
                "total": "1",
                "hash": "4A8E933ABAF85B2ABC75A5B76D130F947FFAE1C2"
              }
            },
            "signature": {
              "type": "tendermint/SignatureEd25519",
              "value": "Zu9v6zs1myD7UXs7fV0aVAdNBUVIa/M8sAAJcaAov7W8Y4iHgyzrEiapoUTV5+7YrDFl+Qr9PvC+RChD4NyVBw=="
            }
          },
          {
            "validator_address": "39DFDA0C5DB84B269642188B23253508537798E6",
            "validator_index": "21",
            "height": "39696",
            "round": "1",
            "timestamp": "2018-08-02T00:35:44.700358828Z",
            "type": 2,
            "block_id": {
              "hash": "F26B3F89A226A60F341534CCDD57D992FB6DF0E2",
              "parts": {
                "total": "1",
                "hash": "4A8E933ABAF85B2ABC75A5B76D130F947FFAE1C2"
              }
            },
            "signature": {
              "type": "tendermint/SignatureEd25519",
              "value": "wH0+Q/sPj78MiRGctZGZnOuBJId2uBDU7B8IdNxjVJRmqQupRMlrvrTSDud2SPt5p33hvjE5+YrXU6CsxmlhBQ=="
            }
          },
          {
            "validator_address": "3AC99B708404452366E0953A4BE849226DC86CBC",
            "validator_index": "22",
            "height": "39696",
            "round": "1",
            "timestamp": "2018-08-02T00:35:44.827001045Z",
            "type": 2,
            "block_id": {
              "hash": "F26B3F89A226A60F341534CCDD57D992FB6DF0E2",
              "parts": {
                "total": "1",
                "hash": "4A8E933ABAF85B2ABC75A5B76D130F947FFAE1C2"
              }
            },
            "signature": {
              "type": "tendermint/SignatureEd25519",
              "value": "wcgXn1955nkdbG9NZju1FhBRHjLShiUhYxdo8e4pcfJ14HzuFzTxOA6xNww4h7TVt2AAwwX2pauzgoP9YIh4CQ=="
            }
          },
          {
            "validator_address": "3DCB822A10ED319EC7C4393D8E3FD4A41B15AAF2",
            "validator_index": "23",
            "height": "39696",
            "round": "1",
            "timestamp": "2018-08-02T00:35:44.751059273Z",
            "type": 2,
            "block_id": {
              "hash": "F26B3F89A226A60F341534CCDD57D992FB6DF0E2",
              "parts": {
                "total": "1",
                "hash": "4A8E933ABAF85B2ABC75A5B76D130F947FFAE1C2"
              }
            },
            "signature": {
              "type": "tendermint/SignatureEd25519",
              "value": "OL6FHNmSLdeGK95ddAxBB3DZ80K6YkwJtyLexlhA5sGK84fbZUeaMG9B3fiJPsRiwALoPoOMIVO8tm7EBU1JCw=="
            }
          },
          {
            "validator_address": "3E899BA36A93C7370347BD5FE85909F2ECD93F8C",
            "validator_index": "24",
            "height": "39696",
            "round": "1",
            "timestamp": "2018-08-02T00:35:44.811115039Z",
            "type": 2,
            "block_id": {
              "hash": "F26B3F89A226A60F341534CCDD57D992FB6DF0E2",
              "parts": {
                "total": "1",
                "hash": "4A8E933ABAF85B2ABC75A5B76D130F947FFAE1C2"
              }
            },
            "signature": {
              "type": "tendermint/SignatureEd25519",
              "value": "SxIgzsEBfhiT/PlmWz59biLUNiG8+lvCv+AwLJ36/ALZy+5aa8dvEHX/mBl8/OKWLSoUue7Ld2pArDYV2kkDDg=="
            }
          },
          {
            "validator_address": "41CAB2E29E7D0F2282E3275938F188FF9386B84C",
            "validator_index": "25",
            "height": "39696",
            "round": "1",
            "timestamp": "2018-08-02T00:35:44.808916656Z",
            "type": 2,
            "block_id": {
              "hash": "F26B3F89A226A60F341534CCDD57D992FB6DF0E2",
              "parts": {
                "total": "1",
                "hash": "4A8E933ABAF85B2ABC75A5B76D130F947FFAE1C2"
              }
            },
            "signature": {
              "type": "tendermint/SignatureEd25519",
              "value": "Ts1HOsqDu6O7sxCI8r1EugjHQiYQ6s7n0zmtjFnIeBz767/zJrogMP4wkTVc9A3znXMlAJQysjgGnID1e58XBg=="
            }
          },
          {
            "validator_address": "462B656869DB02A8FD1077E255F8CC7401DC37C6",
            "validator_index": "26",
            "height": "39696",
            "round": "1",
            "timestamp": "2018-08-02T00:35:44.75218444Z",
            "type": 2,
            "block_id": {
              "hash": "F26B3F89A226A60F341534CCDD57D992FB6DF0E2",
              "parts": {
                "total": "1",
                "hash": "4A8E933ABAF85B2ABC75A5B76D130F947FFAE1C2"
              }
            },
            "signature": {
              "type": "tendermint/SignatureEd25519",
              "value": "DgLGb8bS5MbnTT7pK9YZEz9GV3rRt9F1Z/zLFIfA6wyWx1mjBqMrh4JfF8SvA8gOJLpBBYbPwKFDmTne76t9CQ=="
            }
          },
          {
            "validator_address": "48E5118163E5442068A1B5A42D2EEDBB75724935",
            "validator_index": "27",
            "height": "39696",
            "round": "1",
            "timestamp": "2018-08-02T00:35:44.902638809Z",
            "type": 2,
            "block_id": {
              "hash": "F26B3F89A226A60F341534CCDD57D992FB6DF0E2",
              "parts": {
                "total": "1",
                "hash": "4A8E933ABAF85B2ABC75A5B76D130F947FFAE1C2"
              }
            },
            "signature": {
              "type": "tendermint/SignatureEd25519",
              "value": "zbTRX14YbeDOD+jdLkR327kYe2tOASnLbb28oz/6SmWFOGpEB1RC1JEjBj3s7/8HspjwZJYABHyPqHG55VLYAw=="
            }
          },
          {
            "validator_address": "49103C58AFD9C7C069F55EBA218F3DFD9AEA74F9",
            "validator_index": "28",
            "height": "39696",
            "round": "1",
            "timestamp": "2018-08-02T00:35:44.811090939Z",
            "type": 2,
            "block_id": {
              "hash": "F26B3F89A226A60F341534CCDD57D992FB6DF0E2",
              "parts": {
                "total": "1",
                "hash": "4A8E933ABAF85B2ABC75A5B76D130F947FFAE1C2"
              }
            },
            "signature": {
              "type": "tendermint/SignatureEd25519",
              "value": "RjwP2JGjDzQhVvSa626vSP0St3n1zS2bcTpBxDxjLkyCdRzpOaJs7eWB1SJ6sY0T0efc7A+syCmOvF7LOz01AA=="
            }
          },
          null,
          {
            "validator_address": "49841599DE675157CBE1E7D6B35BF8FFC23BD5CB",
            "validator_index": "30",
            "height": "39696",
            "round": "1",
            "timestamp": "2018-08-02T00:35:44.730751577Z",
            "type": 2,
            "block_id": {
              "hash": "F26B3F89A226A60F341534CCDD57D992FB6DF0E2",
              "parts": {
                "total": "1",
                "hash": "4A8E933ABAF85B2ABC75A5B76D130F947FFAE1C2"
              }
            },
            "signature": {
              "type": "tendermint/SignatureEd25519",
              "value": "npGo4+Pc36ZwfZi1TrejRA3z+tJ+fIryM4I5vhKI5zOGM59fEuL/0x78SOdiwniRjVuP9KSU7+P7k1W5ua+9Cw=="
            }
          },
          {
            "validator_address": "51386C2CF9556821D114D7E4945806802BADB28D",
            "validator_index": "31",
            "height": "39696",
            "round": "1",
            "timestamp": "2018-08-02T00:35:44.790308392Z",
            "type": 2,
            "block_id": {
              "hash": "F26B3F89A226A60F341534CCDD57D992FB6DF0E2",
              "parts": {
                "total": "1",
                "hash": "4A8E933ABAF85B2ABC75A5B76D130F947FFAE1C2"
              }
            },
            "signature": {
              "type": "tendermint/SignatureEd25519",
              "value": "IB1cYeVLvUTf5f+QMFOQlJJe3/sRBXAUMCzLywACGssqz6J+6F2/WEjw/W+fzrFMxiJSZsYud7SjQFbn1gFWCg=="
            }
          },
          {
            "validator_address": "543564ECA3AFEFADC73EE8591AAC3A96F079BC8A",
            "validator_index": "32",
            "height": "39696",
            "round": "1",
            "timestamp": "2018-08-02T00:35:44.789707456Z",
            "type": 2,
            "block_id": {
              "hash": "F26B3F89A226A60F341534CCDD57D992FB6DF0E2",
              "parts": {
                "total": "1",
                "hash": "4A8E933ABAF85B2ABC75A5B76D130F947FFAE1C2"
              }
            },
            "signature": {
              "type": "tendermint/SignatureEd25519",
              "value": "13bpUSPuYGMvlCQHm8XJ29jSiGDG2U6OxoKxkVVh6GEDCAf074P486iWKa2Ow/fwBbUJ4Tq4gcR2pv07612qDQ=="
            }
          },
          {
            "validator_address": "55D67B1A6DC13E96F8754A5A42EABC20F7F86664",
            "validator_index": "33",
            "height": "39696",
            "round": "1",
            "timestamp": "2018-08-02T00:35:44.791515694Z",
            "type": 2,
            "block_id": {
              "hash": "F26B3F89A226A60F341534CCDD57D992FB6DF0E2",
              "parts": {
                "total": "1",
                "hash": "4A8E933ABAF85B2ABC75A5B76D130F947FFAE1C2"
              }
            },
            "signature": {
              "type": "tendermint/SignatureEd25519",
              "value": "EAEnt6SrN+B7TTd1QYdt4o4CEJDgcWyBAW9iThAmCBP+nXLlBimOR+t3SU3/GZ8ZOXTALzUosjhQILpgtTmFBg=="
            }
          },
          {
            "validator_address": "570B6A755ED339EAC56BB3390A48069F6AC9449B",
            "validator_index": "34",
            "height": "39696",
            "round": "1",
            "timestamp": "2018-08-02T00:35:52.872976626Z",
            "type": 2,
            "block_id": {
              "hash": "F26B3F89A226A60F341534CCDD57D992FB6DF0E2",
              "parts": {
                "total": "1",
                "hash": "4A8E933ABAF85B2ABC75A5B76D130F947FFAE1C2"
              }
            },
            "signature": {
              "type": "tendermint/SignatureEd25519",
              "value": "akPd7y/JER/vHhUd5/gEXAa1p5DYvGL0WPillEl6Ol75Zh1khnm+3NPis2DcI8lF60c2YfrQW9NLTAGDQ8f6CQ=="
            }
          },
          {
            "validator_address": "5BDF8EA41B1835FBAD865B181A2A4B23F511B5E4",
            "validator_index": "35",
            "height": "39696",
            "round": "1",
            "timestamp": "2018-08-02T00:35:44.76347889Z",
            "type": 2,
            "block_id": {
              "hash": "F26B3F89A226A60F341534CCDD57D992FB6DF0E2",
              "parts": {
                "total": "1",
                "hash": "4A8E933ABAF85B2ABC75A5B76D130F947FFAE1C2"
              }
            },
            "signature": {
              "type": "tendermint/SignatureEd25519",
              "value": "URf+5Ly1xUTcurni+rN/O/9j4stysNA+4UJsAIp2uvjQT7aOop6Ks7GA3VHuAN+HmZxH6zy6cWt86YZ4bIgmDg=="
            }
          },
          {
            "validator_address": "60229E2E273297FE00219E46DFFB8F76844CDEF9",
            "validator_index": "36",
            "height": "39696",
            "round": "1",
            "timestamp": "2018-08-02T00:35:42.545441995Z",
            "type": 2,
            "block_id": {
              "hash": "F26B3F89A226A60F341534CCDD57D992FB6DF0E2",
              "parts": {
                "total": "1",
                "hash": "4A8E933ABAF85B2ABC75A5B76D130F947FFAE1C2"
              }
            },
            "signature": {
              "type": "tendermint/SignatureEd25519",
              "value": "iwkk+pgFSjpK0fx3B0370/U4upzMdz1kefJe1aD1/AcD2nxiv0WbqT2i142tQXsWTh54AufoOCOB1+bSOB6ADA=="
            }
          },
          {
            "validator_address": "62410D6D1CD98278136E4D0738AA0EA273CDFC54",
            "validator_index": "37",
            "height": "39696",
            "round": "1",
            "timestamp": "2018-08-02T00:35:44.739790876Z",
            "type": 2,
            "block_id": {
              "hash": "F26B3F89A226A60F341534CCDD57D992FB6DF0E2",
              "parts": {
                "total": "1",
                "hash": "4A8E933ABAF85B2ABC75A5B76D130F947FFAE1C2"
              }
            },
            "signature": {
              "type": "tendermint/SignatureEd25519",
              "value": "yoNbwysRyVhum3BdvNhSWvkgiR9fsdw/6C1al1xAsvGtmfwttd2pei7YIp9UHOKS+V7mJHKr8jXCW7xU9Ru+AA=="
            }
          },
          {
            "validator_address": "632F5C139A5A9DFBFE5111DEE29FCFB6157207DC",
            "validator_index": "38",
            "height": "39696",
            "round": "1",
            "timestamp": "2018-08-02T00:35:44.795227531Z",
            "type": 2,
            "block_id": {
              "hash": "F26B3F89A226A60F341534CCDD57D992FB6DF0E2",
              "parts": {
                "total": "1",
                "hash": "4A8E933ABAF85B2ABC75A5B76D130F947FFAE1C2"
              }
            },
            "signature": {
              "type": "tendermint/SignatureEd25519",
              "value": "k7cDlxX4nIYFYbVuZTe6QEDOeNfC1Yp142t2KjJ4GZe1owT299ojzoz1UaW3a9d7cV/YBMJkTkjTnUogQrySCQ=="
            }
          },
          {
            "validator_address": "64F57F8E796A9B7B590C1EFA4123988C86631D39",
            "validator_index": "39",
            "height": "39696",
            "round": "1",
            "timestamp": "2018-08-02T00:35:44.78412396Z",
            "type": 2,
            "block_id": {
              "hash": "F26B3F89A226A60F341534CCDD57D992FB6DF0E2",
              "parts": {
                "total": "1",
                "hash": "4A8E933ABAF85B2ABC75A5B76D130F947FFAE1C2"
              }
            },
            "signature": {
              "type": "tendermint/SignatureEd25519",
              "value": "PNuwxTUqRoC2j2WLPtiO82fmYUya3LMdxxdWZ3lhEDccvwMifGx1aAFtaWEHuTxgdqrgWQFktkFmPX+b7Oh2Bw=="
            }
          },
          {
            "validator_address": "69D99B2C66043ACBEAA8447525C356AFC6408E0C",
            "validator_index": "40",
            "height": "39696",
            "round": "1",
            "timestamp": "2018-08-02T00:35:44.970744993Z",
            "type": 2,
            "block_id": {
              "hash": "F26B3F89A226A60F341534CCDD57D992FB6DF0E2",
              "parts": {
                "total": "1",
                "hash": "4A8E933ABAF85B2ABC75A5B76D130F947FFAE1C2"
              }
            },
            "signature": {
              "type": "tendermint/SignatureEd25519",
              "value": "Mer+rJDVeujUiYFJfFekzw3jhSuBinn8rf6Ll/fFukZvsIieOhUT1tHpSxjIPvDRHgfvzDvVvSxmlq3UdG+yCw=="
            }
          },
          {
            "validator_address": "69EDADFA4A803E9DBF548C900D4A465E7D154262",
            "validator_index": "41",
            "height": "39696",
            "round": "1",
            "timestamp": "2018-08-02T00:35:44.930010794Z",
            "type": 2,
            "block_id": {
              "hash": "F26B3F89A226A60F341534CCDD57D992FB6DF0E2",
              "parts": {
                "total": "1",
                "hash": "4A8E933ABAF85B2ABC75A5B76D130F947FFAE1C2"
              }
            },
            "signature": {
              "type": "tendermint/SignatureEd25519",
              "value": "DvrB0e4ni50B4+95czamfZzAPRZRSfzrV5yJk5y/yUdXh3XYdcr0dVcdGwvFy8h52qw22CQAbjz68eteG4kEDw=="
            }
          },
          {
            "validator_address": "6D3AD380E398D8592B03AA124BAFED5F125DF863",
            "validator_index": "42",
            "height": "39696",
            "round": "1",
            "timestamp": "2018-08-02T00:34:42.322754165Z",
            "type": 2,
            "block_id": {
              "hash": "F26B3F89A226A60F341534CCDD57D992FB6DF0E2",
              "parts": {
                "total": "1",
                "hash": "4A8E933ABAF85B2ABC75A5B76D130F947FFAE1C2"
              }
            },
            "signature": {
              "type": "tendermint/SignatureEd25519",
              "value": "7Uy7E9dQL5zvdMYNyaQJbdbdY/ygPATGEbC+/r0B1Gb2d4FN5ri8t1ztjDj/3ZzpV0d6njHtSwkqmDG4UQBuAA=="
            }
          },
          {
            "validator_address": "6F6C93B8BF3495063FEC9B5C771158607F4AE9D6",
            "validator_index": "43",
            "height": "39696",
            "round": "1",
            "timestamp": "2018-08-02T00:35:44.911627345Z",
            "type": 2,
            "block_id": {
              "hash": "F26B3F89A226A60F341534CCDD57D992FB6DF0E2",
              "parts": {
                "total": "1",
                "hash": "4A8E933ABAF85B2ABC75A5B76D130F947FFAE1C2"
              }
            },
            "signature": {
              "type": "tendermint/SignatureEd25519",
              "value": "kSn6BekGPrspV2Fr8WXCO1KTnGUkWjo60HKdrbj42K9mHpsPPtISV9DaGhq3aJKHOMu9PmbVfkxpc1CQgoiKCg=="
            }
          },
          {
            "validator_address": "732CEEF54C374DDC6ADECBFD707AEFD07FEDC143",
            "validator_index": "44",
            "height": "39696",
            "round": "1",
            "timestamp": "2018-08-02T00:35:44.935509141Z",
            "type": 2,
            "block_id": {
              "hash": "F26B3F89A226A60F341534CCDD57D992FB6DF0E2",
              "parts": {
                "total": "1",
                "hash": "4A8E933ABAF85B2ABC75A5B76D130F947FFAE1C2"
              }
            },
            "signature": {
              "type": "tendermint/SignatureEd25519",
              "value": "MvR8sWCBY06AWsCVVVZyVF2MDRXcSpkKA+dvb/BE+I7UaLGBFp6T6i57Ke7PW2iAwMVrdgmqPEnpgYaMEoikCg=="
            }
          },
          {
            "validator_address": "751E43437224E8BB6D1569B3E2B2616B6E7F4397",
            "validator_index": "45",
            "height": "39696",
            "round": "1",
            "timestamp": "2018-08-02T00:35:44.815599194Z",
            "type": 2,
            "block_id": {
              "hash": "F26B3F89A226A60F341534CCDD57D992FB6DF0E2",
              "parts": {
                "total": "1",
                "hash": "4A8E933ABAF85B2ABC75A5B76D130F947FFAE1C2"
              }
            },
            "signature": {
              "type": "tendermint/SignatureEd25519",
              "value": "mYdILBBMswZjplVGrX8NOL9DZ3MwQiqlgU6H9CVeVnpv1ycWs6hJp4vuoq6o1vMU5AhVHLZ1EdQlzq+ov+DACg=="
            }
          },
          {
            "validator_address": "7EB7593F519F1180C7E872D0494611464EDF03AE",
            "validator_index": "46",
            "height": "39696",
            "round": "1",
            "timestamp": "2018-08-02T00:35:45.036701477Z",
            "type": 2,
            "block_id": {
              "hash": "F26B3F89A226A60F341534CCDD57D992FB6DF0E2",
              "parts": {
                "total": "1",
                "hash": "4A8E933ABAF85B2ABC75A5B76D130F947FFAE1C2"
              }
            },
            "signature": {
              "type": "tendermint/SignatureEd25519",
              "value": "SiUY2Mlv1ojc4oIm+J8sk77tnuRdR3BHmXKHzvMyx+c2KlTjq40tnhzPYpQ+Za++KPBreOD7WD16CwhBi3zYCw=="
            }
          },
          null,
          {
            "validator_address": "83AB321E012C57746689FED3A6064DF331F81007",
            "validator_index": "48",
            "height": "39696",
            "round": "1",
            "timestamp": "2018-08-02T00:35:44.800416162Z",
            "type": 2,
            "block_id": {
              "hash": "F26B3F89A226A60F341534CCDD57D992FB6DF0E2",
              "parts": {
                "total": "1",
                "hash": "4A8E933ABAF85B2ABC75A5B76D130F947FFAE1C2"
              }
            },
            "signature": {
              "type": "tendermint/SignatureEd25519",
              "value": "gLySJCqZYINFSmlH6obsGjSF4odFendLy9hEcDY9dDzxiFUVRpV8C71zACnkodYFdTkJRZ3OAW2MEzXW1DA0CA=="
            }
          },
          {
            "validator_address": "83BB1B88D3DBB20AD845FECA07749EBD87D3754D",
            "validator_index": "49",
            "height": "39696",
            "round": "1",
            "timestamp": "2018-08-02T00:35:44.956278635Z",
            "type": 2,
            "block_id": {
              "hash": "F26B3F89A226A60F341534CCDD57D992FB6DF0E2",
              "parts": {
                "total": "1",
                "hash": "4A8E933ABAF85B2ABC75A5B76D130F947FFAE1C2"
              }
            },
            "signature": {
              "type": "tendermint/SignatureEd25519",
              "value": "2PYNyOYOwaWwzTGV5puiAvXCphd06RhU1xnKBpnMSz630CMUo+XEeqDB/TqWQShiD/ESGS/4TUUl9qq8hCCfDA=="
            }
          },
          {
            "validator_address": "8F06FE1FD042683C426137FBC4BBAA4288924217",
            "validator_index": "50",
            "height": "39696",
            "round": "1",
            "timestamp": "2018-08-02T00:35:44.820387046Z",
            "type": 2,
            "block_id": {
              "hash": "F26B3F89A226A60F341534CCDD57D992FB6DF0E2",
              "parts": {
                "total": "1",
                "hash": "4A8E933ABAF85B2ABC75A5B76D130F947FFAE1C2"
              }
            },
            "signature": {
              "type": "tendermint/SignatureEd25519",
              "value": "VSIDaJKOiTZrX0SKysvreOEQvGf+gpSsGcjkjqZXi++MMvdWgjimM8UGjlrARMg7ZPx34P5lBxpObmv4PTjUDA=="
            }
          },
          {
            "validator_address": "8F45617BF45B10A3F8283DEBDB35E38C7CA43237",
            "validator_index": "51",
            "height": "39696",
            "round": "1",
            "timestamp": "2018-08-02T00:35:44.794099707Z",
            "type": 2,
            "block_id": {
              "hash": "F26B3F89A226A60F341534CCDD57D992FB6DF0E2",
              "parts": {
                "total": "1",
                "hash": "4A8E933ABAF85B2ABC75A5B76D130F947FFAE1C2"
              }
            },
            "signature": {
              "type": "tendermint/SignatureEd25519",
              "value": "Meu/gD2UIB3pDjO8AMl5DJR0XpD5CKDINra6WcquToOHdFupp2tFU2IXMDZ5RERqz54hf1+HIq3O00sPHvnLCQ=="
            }
          },
          {
            "validator_address": "95980831E186F2540F6E9FB6C8E74DE2401405AC",
            "validator_index": "52",
            "height": "39696",
            "round": "1",
            "timestamp": "2018-08-02T00:35:44.891554027Z",
            "type": 2,
            "block_id": {
              "hash": "F26B3F89A226A60F341534CCDD57D992FB6DF0E2",
              "parts": {
                "total": "1",
                "hash": "4A8E933ABAF85B2ABC75A5B76D130F947FFAE1C2"
              }
            },
            "signature": {
              "type": "tendermint/SignatureEd25519",
              "value": "fDh3EUqpU0s3hRvJIzvR3QjySGoNW0t+CK3u1YjLeS5bGaHyeSIsMe4tQUhmvAMZKrTVBqXXUv02gy+kRVSPBg=="
            }
          },
          {
            "validator_address": "95FAFBC1E0579C83D290A063020CE87C5334BD9B",
            "validator_index": "53",
            "height": "39696",
            "round": "1",
            "timestamp": "2018-08-02T00:35:44.784427508Z",
            "type": 2,
            "block_id": {
              "hash": "F26B3F89A226A60F341534CCDD57D992FB6DF0E2",
              "parts": {
                "total": "1",
                "hash": "4A8E933ABAF85B2ABC75A5B76D130F947FFAE1C2"
              }
            },
            "signature": {
              "type": "tendermint/SignatureEd25519",
              "value": "NPV9mqNShqBqkIjUJPd88AetyzxdGY6MJ90DUNa90VJkt2bPBcmx6iOJVKW3J15LjLSoNsB4L68ptZ7pMmC2AA=="
            }
          },
          {
            "validator_address": "96BDE45EC52606CF5CB59853097871AD60680549",
            "validator_index": "54",
            "height": "39696",
            "round": "1",
            "timestamp": "2018-08-02T00:35:44.748075043Z",
            "type": 2,
            "block_id": {
              "hash": "F26B3F89A226A60F341534CCDD57D992FB6DF0E2",
              "parts": {
                "total": "1",
                "hash": "4A8E933ABAF85B2ABC75A5B76D130F947FFAE1C2"
              }
            },
            "signature": {
              "type": "tendermint/SignatureEd25519",
              "value": "CFL3W7MYQaZ269zEZ2cj9LJMSSaRKO975TNWOa713PVBAQkTludqSwyCfR5FrMLGmGzjqa/2hgFBg9DXftR1Bw=="
            }
          },
          {
            "validator_address": "970CD321881185BF83DB2923C321B0E75FDBB2B8",
            "validator_index": "55",
            "height": "39696",
            "round": "1",
            "timestamp": "2018-08-02T00:35:44.926805345Z",
            "type": 2,
            "block_id": {
              "hash": "F26B3F89A226A60F341534CCDD57D992FB6DF0E2",
              "parts": {
                "total": "1",
                "hash": "4A8E933ABAF85B2ABC75A5B76D130F947FFAE1C2"
              }
            },
            "signature": {
              "type": "tendermint/SignatureEd25519",
              "value": "miE06uwPPeKyPaRvTryOxWGTB4I5YficOvmuBOAeDX0Kfw+Pf6mt9zIwvG0EE+OsFHy+8QoNJhFULdbzOAFCAg=="
            }
          },
          {
            "validator_address": "97DBB3D4B3D6C29287244864448F651DD5B07390",
            "validator_index": "56",
            "height": "39696",
            "round": "1",
            "timestamp": "2018-08-02T00:35:44.862748821Z",
            "type": 2,
            "block_id": {
              "hash": "F26B3F89A226A60F341534CCDD57D992FB6DF0E2",
              "parts": {
                "total": "1",
                "hash": "4A8E933ABAF85B2ABC75A5B76D130F947FFAE1C2"
              }
            },
            "signature": {
              "type": "tendermint/SignatureEd25519",
              "value": "304dcGws4sqFabaEoagHaDL/jitGe/hmSFLcpgwU3Aciz9RdWsozZ8caYPmhPJyPzdnIQ1jDI9l5a/3enFeWDA=="
            }
          },
          {
            "validator_address": "9C29C9B76D27586E4D9AD2AED0E943162645E55C",
            "validator_index": "57",
            "height": "39696",
            "round": "1",
            "timestamp": "2018-08-02T00:35:44.727676878Z",
            "type": 2,
            "block_id": {
              "hash": "F26B3F89A226A60F341534CCDD57D992FB6DF0E2",
              "parts": {
                "total": "1",
                "hash": "4A8E933ABAF85B2ABC75A5B76D130F947FFAE1C2"
              }
            },
            "signature": {
              "type": "tendermint/SignatureEd25519",
              "value": "G8eSwOZLHJ3ApQmz4h8mva3F/wikC6C4/pIj2wc7dNstqT7zEdZFOc60/2TWHDq7AroS/VbUhvKPvBsJfrUkBw=="
            }
          },
          {
            "validator_address": "9D93AD02FE1BD7E76B9E58D7EB461088EAD011E5",
            "validator_index": "58",
            "height": "39696",
            "round": "1",
            "timestamp": "2018-08-02T00:35:44.725514289Z",
            "type": 2,
            "block_id": {
              "hash": "F26B3F89A226A60F341534CCDD57D992FB6DF0E2",
              "parts": {
                "total": "1",
                "hash": "4A8E933ABAF85B2ABC75A5B76D130F947FFAE1C2"
              }
            },
            "signature": {
              "type": "tendermint/SignatureEd25519",
              "value": "Zp8LRg/hsBCf39OC2sdPfGoVGeVcVrT9YS+T+jQlEpczNcPaGdW1x5EA7/SO2UAcZSVF3yJOirq1Gq8b+zsjDA=="
            }
          },
          {
            "validator_address": "A0A6466F4ABEA09C3B55E3709AFDE217A103209F",
            "validator_index": "59",
            "height": "39696",
            "round": "1",
            "timestamp": "2018-08-02T00:35:44.790240613Z",
            "type": 2,
            "block_id": {
              "hash": "F26B3F89A226A60F341534CCDD57D992FB6DF0E2",
              "parts": {
                "total": "1",
                "hash": "4A8E933ABAF85B2ABC75A5B76D130F947FFAE1C2"
              }
            },
            "signature": {
              "type": "tendermint/SignatureEd25519",
              "value": "SrPIz4ZjuhGIKgLPOUQqHhbl4MVCM2ZQ4nN3ugE/+SRlVnq4woBtHOSY+HIyQ0VSsW7o3E5XCBCoq69Uo4FtAQ=="
            }
          },
          {
            "validator_address": "A5868971300F155020634D7BB49C7634F7AACCD3",
            "validator_index": "60",
            "height": "39696",
            "round": "1",
            "timestamp": "2018-08-02T00:35:44.808004556Z",
            "type": 2,
            "block_id": {
              "hash": "F26B3F89A226A60F341534CCDD57D992FB6DF0E2",
              "parts": {
                "total": "1",
                "hash": "4A8E933ABAF85B2ABC75A5B76D130F947FFAE1C2"
              }
            },
            "signature": {
              "type": "tendermint/SignatureEd25519",
              "value": "SqkqZCeha0WGYANfLvc377K3EBYmP1e8USICdUwVMU4Ptc4VuDWavd5+jMX4RTzDis153bIRj5ulhUgRT+KlAw=="
            }
          },
          {
            "validator_address": "A6B3A5B5D982CFD7B5FDFA15CF5A720E7AE25E7F",
            "validator_index": "61",
            "height": "39696",
            "round": "1",
            "timestamp": "2018-08-02T00:35:45.13312898Z",
            "type": 2,
            "block_id": {
              "hash": "F26B3F89A226A60F341534CCDD57D992FB6DF0E2",
              "parts": {
                "total": "1",
                "hash": "4A8E933ABAF85B2ABC75A5B76D130F947FFAE1C2"
              }
            },
            "signature": {
              "type": "tendermint/SignatureEd25519",
              "value": "OUsLGhnSx0Cv3GQb5TMRa0ZlM0H73R/71l/clsns4o47l9gH95/holQtu9q6LMloGl6izqss+LcNNvAkeXzCAA=="
            }
          },
          {
            "validator_address": "AC96444A9083890B7C7B430DB17BF1D3EA5EED04",
            "validator_index": "62",
            "height": "39696",
            "round": "1",
            "timestamp": "2018-08-02T00:35:44.875092411Z",
            "type": 2,
            "block_id": {
              "hash": "F26B3F89A226A60F341534CCDD57D992FB6DF0E2",
              "parts": {
                "total": "1",
                "hash": "4A8E933ABAF85B2ABC75A5B76D130F947FFAE1C2"
              }
            },
            "signature": {
              "type": "tendermint/SignatureEd25519",
              "value": "ih/Y7g68hJp4OnZfySTxEfMzbJm/RshyZo5FZFjbEoNIKnTxdj1LYS/YvblgrbLYfARCmh+UFyl0cu7aLtz9Dg=="
            }
          },
          {
            "validator_address": "ACB97FDA2D940AF0709B73537C458EB988AD2893",
            "validator_index": "63",
            "height": "39696",
            "round": "1",
            "timestamp": "2018-08-02T00:35:44.775571517Z",
            "type": 2,
            "block_id": {
              "hash": "F26B3F89A226A60F341534CCDD57D992FB6DF0E2",
              "parts": {
                "total": "1",
                "hash": "4A8E933ABAF85B2ABC75A5B76D130F947FFAE1C2"
              }
            },
            "signature": {
              "type": "tendermint/SignatureEd25519",
              "value": "Fu8OPS1LehdQZIrxCFAj5wIce9LwuRU/CciFAgbVJWiBAA0ELdBkUaPR6XWH7yIJzA1s2/8APsdgUCE78TNGAQ=="
            }
          },
          {
            "validator_address": "B197425B3210375F211661DE02EF2AE36580EB0F",
            "validator_index": "64",
            "height": "39696",
            "round": "1",
            "timestamp": "2018-08-02T00:35:44.817625507Z",
            "type": 2,
            "block_id": {
              "hash": "F26B3F89A226A60F341534CCDD57D992FB6DF0E2",
              "parts": {
                "total": "1",
                "hash": "4A8E933ABAF85B2ABC75A5B76D130F947FFAE1C2"
              }
            },
            "signature": {
              "type": "tendermint/SignatureEd25519",
              "value": "Y/gVQ1Fq8YvxcsLGMMNhNI/PGbKA9G0sTM+eOGYKDuyfWUPIJ4grxJBfBvCzXR/r9rwktPTJGgfQ9cfbUM4gBQ=="
            }
          },
          {
            "validator_address": "B45E54D2D1CB5A4CCD1D49016608C18E7C56B270",
            "validator_index": "65",
            "height": "39696",
            "round": "1",
            "timestamp": "2018-08-02T00:35:44.894191552Z",
            "type": 2,
            "block_id": {
              "hash": "F26B3F89A226A60F341534CCDD57D992FB6DF0E2",
              "parts": {
                "total": "1",
                "hash": "4A8E933ABAF85B2ABC75A5B76D130F947FFAE1C2"
              }
            },
            "signature": {
              "type": "tendermint/SignatureEd25519",
              "value": "/lueumXaMGmL8tZlXKnobQkLvjdvpkvcoJJBDcsIUBrtUxOfZmH5eot4GJzpnFGmYp2Zn0+7LVYAT2QFXb+vBA=="
            }
          },
          {
            "validator_address": "BB1276BE89834835428664408917649FEEF5D90C",
            "validator_index": "66",
            "height": "39696",
            "round": "1",
            "timestamp": "2018-08-02T00:35:44.872357966Z",
            "type": 2,
            "block_id": {
              "hash": "F26B3F89A226A60F341534CCDD57D992FB6DF0E2",
              "parts": {
                "total": "1",
                "hash": "4A8E933ABAF85B2ABC75A5B76D130F947FFAE1C2"
              }
            },
            "signature": {
              "type": "tendermint/SignatureEd25519",
              "value": "VRVmGOEq6O0NOIC5sh5fZnK/RTN9s0Kf7vvw65cEQ4ItFRe+ndZuuLQk5Q/NjQra5l0TvrCIZTnHNM6HcUATAA=="
            }
          },
          {
            "validator_address": "BC36FEDD6EF6071118A3E51859DF3831A2EC4782",
            "validator_index": "67",
            "height": "39696",
            "round": "1",
            "timestamp": "2018-08-02T00:35:44.838518752Z",
            "type": 2,
            "block_id": {
              "hash": "F26B3F89A226A60F341534CCDD57D992FB6DF0E2",
              "parts": {
                "total": "1",
                "hash": "4A8E933ABAF85B2ABC75A5B76D130F947FFAE1C2"
              }
            },
            "signature": {
              "type": "tendermint/SignatureEd25519",
              "value": "AcUNC7l8Grt7Vgm2oPuFkjGcp9Q02gbBgJZsjbG+LGPe73cnDH5Es+V6F56JnohtokXiu3T2HCSLbi+K44ozCQ=="
            }
          },
          {
            "validator_address": "BD9D0DA513BF099DB4BB6E725A4E19832789882F",
            "validator_index": "68",
            "height": "39696",
            "round": "1",
            "timestamp": "2018-08-02T00:35:44.781358072Z",
            "type": 2,
            "block_id": {
              "hash": "F26B3F89A226A60F341534CCDD57D992FB6DF0E2",
              "parts": {
                "total": "1",
                "hash": "4A8E933ABAF85B2ABC75A5B76D130F947FFAE1C2"
              }
            },
            "signature": {
              "type": "tendermint/SignatureEd25519",
              "value": "bxojKsZITDqQ9kvU7tjKRGeCdxPRwAK+vuS+RRBivUtE1vRCI5zCXb6R8zT6wKNaG0M6h+tDeGw8TLoBO6iyBA=="
            }
          },
          {
            "validator_address": "C1134A2FF8F7338E7CDB3FE57DDD2A655DEB1E22",
            "validator_index": "69",
            "height": "39696",
            "round": "1",
            "timestamp": "2018-08-02T00:35:43.92661929Z",
            "type": 2,
            "block_id": {
              "hash": "F26B3F89A226A60F341534CCDD57D992FB6DF0E2",
              "parts": {
                "total": "1",
                "hash": "4A8E933ABAF85B2ABC75A5B76D130F947FFAE1C2"
              }
            },
            "signature": {
              "type": "tendermint/SignatureEd25519",
              "value": "6EV54NEZeDC9qAlwiOr1RmrZRtbglVUzhGUZ11Xi3Lp4su5GWdweJGmrAc+Tw0aKRgt7Lg6YCy0FbTydKqh6Dg=="
            }
          },
          {
            "validator_address": "C39A8A2B85198DCB8F23AD1F6C198E2BA7AB5D60",
            "validator_index": "70",
            "height": "39696",
            "round": "1",
            "timestamp": "2018-08-02T00:35:45.321204608Z",
            "type": 2,
            "block_id": {
              "hash": "F26B3F89A226A60F341534CCDD57D992FB6DF0E2",
              "parts": {
                "total": "1",
                "hash": "4A8E933ABAF85B2ABC75A5B76D130F947FFAE1C2"
              }
            },
            "signature": {
              "type": "tendermint/SignatureEd25519",
              "value": "CCSx6dtPrbQN6BGcH23ngTeLqXpZzr1n3X8L0qhMhebb1LaQRM0f9pR9CNAisKcGPVzUv5xAyDm/Dt6zfxJ0CQ=="
            }
          },
          {
            "validator_address": "C4335190C3B5BD4BA5568BC0F99C34162D940D08",
            "validator_index": "71",
            "height": "39696",
            "round": "1",
            "timestamp": "2018-08-02T00:35:44.855521193Z",
            "type": 2,
            "block_id": {
              "hash": "F26B3F89A226A60F341534CCDD57D992FB6DF0E2",
              "parts": {
                "total": "1",
                "hash": "4A8E933ABAF85B2ABC75A5B76D130F947FFAE1C2"
              }
            },
            "signature": {
              "type": "tendermint/SignatureEd25519",
              "value": "X2QFlE0gBWk1XuS1G8h3dqjg72pzwlw4AaH1jqH6h8/iZAKbzn6tmzwa62wdlH/3tEREnFvYZp+t8RMKmc1sCw=="
            }
          },
          {
            "validator_address": "C561CFA081677046376396922E7576E5F7B316AD",
            "validator_index": "72",
            "height": "39696",
            "round": "1",
            "timestamp": "2018-08-02T00:35:44.931057083Z",
            "type": 2,
            "block_id": {
              "hash": "F26B3F89A226A60F341534CCDD57D992FB6DF0E2",
              "parts": {
                "total": "1",
                "hash": "4A8E933ABAF85B2ABC75A5B76D130F947FFAE1C2"
              }
            },
            "signature": {
              "type": "tendermint/SignatureEd25519",
              "value": "cwuHLe0hKBBUVSybgFCjOz4/3fio3dHYwUvlMOHlmrN6KgJAuwUx/mHfPMjCsxo20U9KG/C36p5pokAJV50xDw=="
            }
          },
          {
            "validator_address": "CE589EA77B056D268D30D1DC1D68A70E0F885E95",
            "validator_index": "73",
            "height": "39696",
            "round": "1",
            "timestamp": "2018-08-02T00:35:44.872858105Z",
            "type": 2,
            "block_id": {
              "hash": "F26B3F89A226A60F341534CCDD57D992FB6DF0E2",
              "parts": {
                "total": "1",
                "hash": "4A8E933ABAF85B2ABC75A5B76D130F947FFAE1C2"
              }
            },
            "signature": {
              "type": "tendermint/SignatureEd25519",
              "value": "Ml8v80PebiavSXDrS7A3afsaZe2mG5FonlaDhcuGfL251cnJxt72LwNr2tYPOhrJisqC35wAtMx5GthXwkPKCw=="
            }
          },
          {
            "validator_address": "CEB97DB5CB18270247ABDE6CF2F84F9AEE8A2904",
            "validator_index": "74",
            "height": "39696",
            "round": "1",
            "timestamp": "2018-08-02T00:35:45.647639914Z",
            "type": 2,
            "block_id": {
              "hash": "F26B3F89A226A60F341534CCDD57D992FB6DF0E2",
              "parts": {
                "total": "1",
                "hash": "4A8E933ABAF85B2ABC75A5B76D130F947FFAE1C2"
              }
            },
            "signature": {
              "type": "tendermint/SignatureEd25519",
              "value": "04AcPWEJzjqoNFFti8uPZfYhSKFg5f5+N8nadNrtAEF++5oUO4/w8oNnwRBHeYuAIeIyWQ8v/4ttyi5AK65aDA=="
            }
          },
          {
            "validator_address": "CF205769734F5758CC39F907EFB73D6BAF915FB1",
            "validator_index": "75",
            "height": "39696",
            "round": "1",
            "timestamp": "2018-08-02T00:35:44.999182057Z",
            "type": 2,
            "block_id": {
              "hash": "F26B3F89A226A60F341534CCDD57D992FB6DF0E2",
              "parts": {
                "total": "1",
                "hash": "4A8E933ABAF85B2ABC75A5B76D130F947FFAE1C2"
              }
            },
            "signature": {
              "type": "tendermint/SignatureEd25519",
              "value": "FvTpzTbiU+aQ1V+WAO+Dw+pz6KiSgENuswqWzKgJYyKmw76Hjm180Vp5sZPB8RyjfmpHaBUTb/WCThOmS53eBA=="
            }
          },
          {
            "validator_address": "D2134B826A1E25A955905CB79A4D8731CAFA0CCE",
            "validator_index": "76",
            "height": "39696",
            "round": "1",
            "timestamp": "2018-08-02T00:35:44.935975685Z",
            "type": 2,
            "block_id": {
              "hash": "F26B3F89A226A60F341534CCDD57D992FB6DF0E2",
              "parts": {
                "total": "1",
                "hash": "4A8E933ABAF85B2ABC75A5B76D130F947FFAE1C2"
              }
            },
            "signature": {
              "type": "tendermint/SignatureEd25519",
              "value": "MEZ/tmoj4ymscAX1wH4c/C/+wai0vcBch9DX0s6YpkWiMRie1+M5PMx9QwIoOpNfpivcPjJCc9FGe/dQT4lLDA=="
            }
          },
          {
            "validator_address": "D6285C3422C8886445D53757CBE12D2B91B5A9D0",
            "validator_index": "77",
            "height": "39696",
            "round": "1",
            "timestamp": "2018-08-02T00:35:27.995840372Z",
            "type": 2,
            "block_id": {
              "hash": "F26B3F89A226A60F341534CCDD57D992FB6DF0E2",
              "parts": {
                "total": "1",
                "hash": "4A8E933ABAF85B2ABC75A5B76D130F947FFAE1C2"
              }
            },
            "signature": {
              "type": "tendermint/SignatureEd25519",
              "value": "z/4iwU54RR87bjfMAatQ58uFqCZ55oGGuiXL6Q9agiKhp3Fc4FMOnnmWY8gaWLd1aN78xTXYZBCdwMQUPQ8cBg=="
            }
          },
          {
            "validator_address": "D77FB84A729972CD3E757C9BEB61561855832B92",
            "validator_index": "78",
            "height": "39696",
            "round": "1",
            "timestamp": "2018-08-02T00:35:44.901695904Z",
            "type": 2,
            "block_id": {
              "hash": "F26B3F89A226A60F341534CCDD57D992FB6DF0E2",
              "parts": {
                "total": "1",
                "hash": "4A8E933ABAF85B2ABC75A5B76D130F947FFAE1C2"
              }
            },
            "signature": {
              "type": "tendermint/SignatureEd25519",
              "value": "z4BQnWzpEOWMsScNR0+ygHQqS/PYDMDpl6uAuQFENkb3kNHOcHE0otCVpuVyX4eTw1je4jo9FIl1qBIKrc6LAQ=="
            }
          },
          {
            "validator_address": "DB7E6732471D3EA5C90C17A9974D9F88AB45F2FB",
            "validator_index": "79",
            "height": "39696",
            "round": "1",
            "timestamp": "2018-08-02T00:35:44.846008547Z",
            "type": 2,
            "block_id": {
              "hash": "F26B3F89A226A60F341534CCDD57D992FB6DF0E2",
              "parts": {
                "total": "1",
                "hash": "4A8E933ABAF85B2ABC75A5B76D130F947FFAE1C2"
              }
            },
            "signature": {
              "type": "tendermint/SignatureEd25519",
              "value": "+p16aJyGCTjBn1a8valTQJWqlLDBO/BNl9FvF5a7oyLOfqhitXJlGOJnuFImNOeFHpdOhHvKiviWHbV3P7GKCQ=="
            }
          },
          {
            "validator_address": "DF54B862410BCD9B5C516FBB6C56BDC826ED6FA7",
            "validator_index": "80",
            "height": "39696",
            "round": "1",
            "timestamp": "2018-08-02T00:35:44.873745293Z",
            "type": 2,
            "block_id": {
              "hash": "F26B3F89A226A60F341534CCDD57D992FB6DF0E2",
              "parts": {
                "total": "1",
                "hash": "4A8E933ABAF85B2ABC75A5B76D130F947FFAE1C2"
              }
            },
            "signature": {
              "type": "tendermint/SignatureEd25519",
              "value": "DDj4jelV7/fbgVIlZBgH/wRMqrvb2Kabg+b6qtM5NjHBNmLn4RQuJ7iQNYZhD3n7WTczL/USVPD+iYObpCTsAg=="
            }
          },
          {
            "validator_address": "DFAF0C8B1B78D6D552B0189DE3ACA351439A1319",
            "validator_index": "81",
            "height": "39696",
            "round": "1",
            "timestamp": "2018-08-02T00:35:44.745897719Z",
            "type": 2,
            "block_id": {
              "hash": "F26B3F89A226A60F341534CCDD57D992FB6DF0E2",
              "parts": {
                "total": "1",
                "hash": "4A8E933ABAF85B2ABC75A5B76D130F947FFAE1C2"
              }
            },
            "signature": {
              "type": "tendermint/SignatureEd25519",
              "value": "bUFHjq0H7ts+Obd59xG0JwckOORlfUEX4qRmbCAfb7+G4VdTw3+rICynKAc12tufzKkN25JoDlO/Gdo06cTHCg=="
            }
          },
          {
            "validator_address": "E1DBC77881161A5A3A8536A57536EAE546A75D69",
            "validator_index": "82",
            "height": "39696",
            "round": "1",
            "timestamp": "2018-08-02T00:35:44.701711105Z",
            "type": 2,
            "block_id": {
              "hash": "F26B3F89A226A60F341534CCDD57D992FB6DF0E2",
              "parts": {
                "total": "1",
                "hash": "4A8E933ABAF85B2ABC75A5B76D130F947FFAE1C2"
              }
            },
            "signature": {
              "type": "tendermint/SignatureEd25519",
              "value": "gIdF8YVkrRgEWlI4S8dDUXgYrOfjB+yjGQpKF7ZzM03P3UHFPs7+sgeqFBj50zZcCqjOnBqP/L1At1rmKqenBw=="
            }
          },
          {
            "validator_address": "E300E9D484374C1D3E97C1D93CAC3B160A056298",
            "validator_index": "83",
            "height": "39696",
            "round": "1",
            "timestamp": "2018-08-02T00:35:45.031390848Z",
            "type": 2,
            "block_id": {
              "hash": "F26B3F89A226A60F341534CCDD57D992FB6DF0E2",
              "parts": {
                "total": "1",
                "hash": "4A8E933ABAF85B2ABC75A5B76D130F947FFAE1C2"
              }
            },
            "signature": {
              "type": "tendermint/SignatureEd25519",
              "value": "uDDH3VLPfm8C2H7pZND4Li38uc6afrcrwWzjVC8n83LkpR889J4b20+Yk//63pCDSM9XrgiN4zRZrU7jKfIoCQ=="
            }
          },
          {
            "validator_address": "E39B5778E0D4297A46F45CF6940B0A163A430FF8",
            "validator_index": "84",
            "height": "39696",
            "round": "1",
            "timestamp": "2018-08-02T00:35:44.84420651Z",
            "type": 2,
            "block_id": {
              "hash": "F26B3F89A226A60F341534CCDD57D992FB6DF0E2",
              "parts": {
                "total": "1",
                "hash": "4A8E933ABAF85B2ABC75A5B76D130F947FFAE1C2"
              }
            },
            "signature": {
              "type": "tendermint/SignatureEd25519",
              "value": "woc4Yv6NBNo5ddukV2dVMnWLbdZzONTYns0xmxKooVbBACDMNRtMGBRoPAIwrtL+YfDesecGQstkUE1MjtchAw=="
            }
          },
          {
            "validator_address": "E3B19738F7132F950668504D326C7660F159D170",
            "validator_index": "85",
            "height": "39696",
            "round": "1",
            "timestamp": "2018-08-02T00:35:44.7751885Z",
            "type": 2,
            "block_id": {
              "hash": "F26B3F89A226A60F341534CCDD57D992FB6DF0E2",
              "parts": {
                "total": "1",
                "hash": "4A8E933ABAF85B2ABC75A5B76D130F947FFAE1C2"
              }
            },
            "signature": {
              "type": "tendermint/SignatureEd25519",
              "value": "m+FgfufyHmEwTKHRYrJCxRk/E96JOAWHpJaHIxIgdnlISJ1NIgf3sCnHhk4NkQo6Ooc4lMaYnYM8zlU38DdWAQ=="
            }
          },
          {
            "validator_address": "E42F8AEABB685219F7027F54D2B0DBC7846F633A",
            "validator_index": "86",
            "height": "39696",
            "round": "1",
            "timestamp": "2018-08-02T00:35:43.870633565Z",
            "type": 2,
            "block_id": {
              "hash": "F26B3F89A226A60F341534CCDD57D992FB6DF0E2",
              "parts": {
                "total": "1",
                "hash": "4A8E933ABAF85B2ABC75A5B76D130F947FFAE1C2"
              }
            },
            "signature": {
              "type": "tendermint/SignatureEd25519",
              "value": "M/I4mXeFFvYLH4FMjkL73LcjS6jXBq1sRyiHPxT+wAXrhQwTT5igo/Dt+3n/BmSNLzFg/xNij/FGOVtE8NoUDg=="
            }
          },
          {
            "validator_address": "E4E6C2E81269DFFA196C17F98240E491479A6008",
            "validator_index": "87",
            "height": "39696",
            "round": "1",
            "timestamp": "2018-08-02T00:35:44.825467473Z",
            "type": 2,
            "block_id": {
              "hash": "F26B3F89A226A60F341534CCDD57D992FB6DF0E2",
              "parts": {
                "total": "1",
                "hash": "4A8E933ABAF85B2ABC75A5B76D130F947FFAE1C2"
              }
            },
            "signature": {
              "type": "tendermint/SignatureEd25519",
              "value": "TU3VFUpBd0UYAbnLqn6aEbIUFU+x1piNg2CtBBqEZaC1TR+135jBBAGdgYq7DZjJm+Gqfp7NG4oGj3OK2CY3Cw=="
            }
          },
          {
            "validator_address": "E4FEB2846F4F3B0ECDCBE9C9DCB2248248A5AF0F",
            "validator_index": "88",
            "height": "39696",
            "round": "1",
            "timestamp": "2018-08-02T00:35:44.560969397Z",
            "type": 2,
            "block_id": {
              "hash": "F26B3F89A226A60F341534CCDD57D992FB6DF0E2",
              "parts": {
                "total": "1",
                "hash": "4A8E933ABAF85B2ABC75A5B76D130F947FFAE1C2"
              }
            },
            "signature": {
              "type": "tendermint/SignatureEd25519",
              "value": "c5xECf0tvbK80eWn5rGaB8oURlsGls84XgKGD+fwXl4Bi6Q8xzz8YhIX7itql7IflggRYJYFmdRJhzEj0WQBDA=="
            }
          },
          {
            "validator_address": "E50ADECD5FD27FA2CD610C07F8AED36A2FC4A6A6",
            "validator_index": "89",
            "height": "39696",
            "round": "1",
            "timestamp": "2018-08-02T00:35:44.747303995Z",
            "type": 2,
            "block_id": {
              "hash": "F26B3F89A226A60F341534CCDD57D992FB6DF0E2",
              "parts": {
                "total": "1",
                "hash": "4A8E933ABAF85B2ABC75A5B76D130F947FFAE1C2"
              }
            },
            "signature": {
              "type": "tendermint/SignatureEd25519",
              "value": "cVTM0LnDKPR3jA+l4gTlIDqv3zoLldpQnpAfgbqB+33hQ+KSwAl5oTHMF+H8DEll5/eGnQ3tX8gIro+Afh4JAg=="
            }
          },
          {
            "validator_address": "E6A7079D584B163750BE0831227F6B685DEAF3C1",
            "validator_index": "90",
            "height": "39696",
            "round": "1",
            "timestamp": "2018-08-02T00:35:44.881993449Z",
            "type": 2,
            "block_id": {
              "hash": "F26B3F89A226A60F341534CCDD57D992FB6DF0E2",
              "parts": {
                "total": "1",
                "hash": "4A8E933ABAF85B2ABC75A5B76D130F947FFAE1C2"
              }
            },
            "signature": {
              "type": "tendermint/SignatureEd25519",
              "value": "ENyyz7Bx8brsn+rHped36FahU3xg0DZfea3ib4ptUHHUFypph/Vby5BRVyh9/EXZPtjtBnj6X6kyYSdRqGDXAw=="
            }
          },
          {
            "validator_address": "E7A30077D5D11867D3EAF99ED45BFDC1EB834509",
            "validator_index": "91",
            "height": "39696",
            "round": "1",
            "timestamp": "2018-08-02T00:35:44.788003646Z",
            "type": 2,
            "block_id": {
              "hash": "F26B3F89A226A60F341534CCDD57D992FB6DF0E2",
              "parts": {
                "total": "1",
                "hash": "4A8E933ABAF85B2ABC75A5B76D130F947FFAE1C2"
              }
            },
            "signature": {
              "type": "tendermint/SignatureEd25519",
              "value": "JjWH9yCpDMthKMMhHQqUKgVOnAmqEuJdr7hB3YsdHL1y86EPwYl1iV33G4SH/bEZndsbmR1GYvP0AJEI0QEZBA=="
            }
          },
          {
            "validator_address": "EBC613967F66F4EC306852CDF58B4F151CF16738",
            "validator_index": "92",
            "height": "39696",
            "round": "1",
            "timestamp": "2018-08-02T00:35:44.949735239Z",
            "type": 2,
            "block_id": {
              "hash": "F26B3F89A226A60F341534CCDD57D992FB6DF0E2",
              "parts": {
                "total": "1",
                "hash": "4A8E933ABAF85B2ABC75A5B76D130F947FFAE1C2"
              }
            },
            "signature": {
              "type": "tendermint/SignatureEd25519",
              "value": "q0m72+87JXLYcD3Ax5+NC6185Vsic3+hNilhGuGByXhCosr7W5mLQ+TdFBk98Io4M9WD6SClOKNn7B325HvFDA=="
            }
          },
          {
            "validator_address": "EC3401441726C40ECC7E51F744483B05BC6DE9BD",
            "validator_index": "93",
            "height": "39696",
            "round": "1",
            "timestamp": "2018-08-02T00:35:44.77926401Z",
            "type": 2,
            "block_id": {
              "hash": "F26B3F89A226A60F341534CCDD57D992FB6DF0E2",
              "parts": {
                "total": "1",
                "hash": "4A8E933ABAF85B2ABC75A5B76D130F947FFAE1C2"
              }
            },
            "signature": {
              "type": "tendermint/SignatureEd25519",
              "value": "z64ZJd+IiFGoSHOaa6Iji20KGQ6WUwojNy6s+LhGLIqrFEBWV2qlbolzWuH1LyXB//CxAJolH68Lf0eYuAoMAg=="
            }
          },
          {
            "validator_address": "EC95B111D032181E1EC3B5E8875C5BB8E4AE7140",
            "validator_index": "94",
            "height": "39696",
            "round": "1",
            "timestamp": "2018-08-02T00:35:44.828389974Z",
            "type": 2,
            "block_id": {
              "hash": "F26B3F89A226A60F341534CCDD57D992FB6DF0E2",
              "parts": {
                "total": "1",
                "hash": "4A8E933ABAF85B2ABC75A5B76D130F947FFAE1C2"
              }
            },
            "signature": {
              "type": "tendermint/SignatureEd25519",
              "value": "tq/SH+O4m/yRED1BxLjTrSMvNGJIvGzddm/wsQEFBSPe+9NuN+PnDboD7Or6P1JUciho3AAO+OlPqMGH/kdrCA=="
            }
          },
          {
            "validator_address": "F23FF36BD5B90C33CE3A03ED72DBDCF5EC07D6AF",
            "validator_index": "95",
            "height": "39696",
            "round": "1",
            "timestamp": "2018-08-02T00:35:44.847519668Z",
            "type": 2,
            "block_id": {
              "hash": "F26B3F89A226A60F341534CCDD57D992FB6DF0E2",
              "parts": {
                "total": "1",
                "hash": "4A8E933ABAF85B2ABC75A5B76D130F947FFAE1C2"
              }
            },
            "signature": {
              "type": "tendermint/SignatureEd25519",
              "value": "JLBo7QY3G9riy7PEasvi/e0jmsp7WUwEkUeFNKT4G+ubqDu+hCRya10muf2XZ2BoTROjvPqp08uxwKLAXfFnAw=="
            }
          },
          {
            "validator_address": "F4268597DE93E3E2CED38845010F8AA34E2A879E",
            "validator_index": "96",
            "height": "39696",
            "round": "1",
            "timestamp": "2018-08-02T00:35:44.82133505Z",
            "type": 2,
            "block_id": {
              "hash": "F26B3F89A226A60F341534CCDD57D992FB6DF0E2",
              "parts": {
                "total": "1",
                "hash": "4A8E933ABAF85B2ABC75A5B76D130F947FFAE1C2"
              }
            },
            "signature": {
              "type": "tendermint/SignatureEd25519",
              "value": "VfhW8JLfz9O/BIbmREn/kjc/XmD0iP1xNy+ohWwS4qu6/lK6Ut31aJpRATADQml2mYw9edMu8WaFP/R9ziqIBA=="
            }
          },
          {
            "validator_address": "F4DEB417999B04BE2EFF9FFE03FA373D86011CC0",
            "validator_index": "97",
            "height": "39696",
            "round": "1",
            "timestamp": "2018-08-02T00:35:44.82057015Z",
            "type": 2,
            "block_id": {
              "hash": "F26B3F89A226A60F341534CCDD57D992FB6DF0E2",
              "parts": {
                "total": "1",
                "hash": "4A8E933ABAF85B2ABC75A5B76D130F947FFAE1C2"
              }
            },
            "signature": {
              "type": "tendermint/SignatureEd25519",
              "value": "ESzPDnZDQ1bUDkrZ8VwUyRj5v6BJfcblcSGqZkgTtRTrEJf63w4oZwvklWm5sixSvdpk66mZuXq+U0R6EHZfCQ=="
            }
          },
          {
            "validator_address": "F6738260186D33D9C14FC6E7017AFE6BB952A63D",
            "validator_index": "98",
            "height": "39696",
            "round": "1",
            "timestamp": "2018-08-02T00:35:44.807730485Z",
            "type": 2,
            "block_id": {
              "hash": "F26B3F89A226A60F341534CCDD57D992FB6DF0E2",
              "parts": {
                "total": "1",
                "hash": "4A8E933ABAF85B2ABC75A5B76D130F947FFAE1C2"
              }
            },
            "signature": {
              "type": "tendermint/SignatureEd25519",
              "value": "wUT2FtABdxWRcVgCM8X9XCWQFXkDzVYIQjjy+Q5nnAOriWNBM/q7i/PTxs24ZzTcZqQ7i5xwnzkr2FA7x3hJDg=="
            }
          },
          {
            "validator_address": "FD8D304F0278229077114B05BED9DABD382D49D8",
            "validator_index": "99",
            "height": "39696",
            "round": "1",
            "timestamp": "2018-08-02T00:35:44.827740463Z",
            "type": 2,
            "block_id": {
              "hash": "F26B3F89A226A60F341534CCDD57D992FB6DF0E2",
              "parts": {
                "total": "1",
                "hash": "4A8E933ABAF85B2ABC75A5B76D130F947FFAE1C2"
              }
            },
            "signature": {
              "type": "tendermint/SignatureEd25519",
              "value": "6iHYZcLsohYhYYRToFDHR56wZUXBoFaNmpYG8un7duHhQmYrKyp9gjbttAoIL9aCTDg/ZO/otKYBBlHOmefpDA=="
            }
          },
          {
            "validator_address": "FF3F3FCBCE7E62D7AD5506FF846EC4518D980515",
            "validator_index": "100",
            "height": "39696",
            "round": "1",
            "timestamp": "2018-08-02T00:35:44.707367431Z",
            "type": 2,
            "block_id": {
              "hash": "F26B3F89A226A60F341534CCDD57D992FB6DF0E2",
              "parts": {
                "total": "1",
                "hash": "4A8E933ABAF85B2ABC75A5B76D130F947FFAE1C2"
              }
            },
            "signature": {
              "type": "tendermint/SignatureEd25519",
              "value": "aJQygMuaHdt1A2xULB6foICIU3aB+zpu/QPq+Nbe5ZIrWTDl68ExdvvjrBjfQKwI6VH35IPfqULuPtyRyTh6CQ=="
            }
          }
        ]
      }
    },
    "canonical": true
  }
}