{
  "jsonrpc": "2.0",
  "id": "",
  "result": {
    "SignedHeader": {
      "header": {
        "chain_id": "gaia-7004",
        "height": "40709",
        "time": "2018-08-02T02:26:13.100053625Z",
        "num_txs": "0",
        "last_block_id": {
          "hash": "2C3DFAE3204A5DBC974EF09335EABAB084A529A9",
          "parts": {
            "total": "1",
            "hash": "B4BE7E92EE449ADCDA2532A3A776CD85E6E93B1A"
          }
        },
        "total_txs": "1920",
        "last_commit_hash": "3440CE5C80551FF6CD3C719156F6D2778052E4C7",
        "data_hash": "",
        "validators_hash": "CFA43B52F30C8AEEB34F0AE225DFB2F9D9946BBB",
        "consensus_hash": "D6B74BB35BDFFD8392340F2A379173548AE188FE",
        "app_hash": "31B2AB6283A8976221334901D5AFF4B3620AA639",
        "last_results_hash": "",
        "evidence_hash": ""
      },
      "commit": {
        "block_id": {
          "hash": "679BCC25AE8ECEBB48BA433751E29FDD1DAAECA4",
          "parts": {
            "total": "1",
            "hash": "0F6BAAB142EC258EEEC9CE3AF8F95DFF88CD40AE"
          }
        },
        "precommits": [
          {
            "validator_address": "029359C0C768096273A68ABC902A6B17AC8D1D70",
            "validator_index": "0",
            "height": "40709",
            "round": "1",
            "timestamp": "2018-08-02T02:26:14.011351756Z",
            "type": 2,
            "block_id": {
              "hash": "679BCC25AE8ECEBB48BA433751E29FDD1DAAECA4",
              "parts": {
                "total": "1",
                "hash": "0F6BAAB142EC258EEEC9CE3AF8F95DFF88CD40AE"
              }
            },
            "signature": {
              "type": "tendermint/SignatureEd25519",
              "value": "XKmVhK+SIhcL0Gk8htbIk9bF5UNA+t0QP9F2hoe7azfpSadZWfiIXs5nxQbtnw/rsP5wbMNoTTeGt0jIragnDg=="
            }
          },
          {
            "validator_address": "02FE4B97A8387F39D1AC19E0C1702B3CC614812F",
            "validator_index": "1",
            "height": "40709",
            "round": "1",
            "timestamp": "2018-08-02T02:26:13.966796702Z",
            "type": 2,
            "block_id": {
              "hash": "679BCC25AE8ECEBB48BA433751E29FDD1DAAECA4",
              "parts": {
                "total": "1",
                "hash": "0F6BAAB142EC258EEEC9CE3AF8F95DFF88CD40AE"
              }
            },
            "signature": {
              "type": "tendermint/SignatureEd25519",
              "value": "XoEGtdfxxMn/1dTKkPyRli3YhL1vCzZ9Y8eFnkaeTNAl2DbbGSCsRkLu+ASa+XcyOQooUBRFbi1oCTi+auoHCw=="
            }
          },
          {
            "validator_address": "0548261C50222FD710EB5EBDF03A0E6567B21D20",
            "validator_index": "2",
            "height": "40709",
            "round": "1",
            "timestamp": "2018-08-02T02:26:14.107039718Z",
            "type": 2,
            "block_id": {
              "hash": "679BCC25AE8ECEBB48BA433751E29FDD1DAAECA4",
              "parts": {
                "total": "1",
                "hash": "0F6BAAB142EC258EEEC9CE3AF8F95DFF88CD40AE"
              }
            },
            "signature": {
              "type": "tendermint/SignatureEd25519",
              "value": "JOx2QiAIIubytif/pflPl0BbTvaRoDmYPiYXg4DM+Nn0ju6lQelXqfNoZAbFg8qJ5oHLSrsm68NqOWys99wsDg=="
            }
          },
          {
            "validator_address": "0665ADBF9B120B7617BF955AA5653A1992C82B11",
            "validator_index": "3",
            "height": "40709",
            "round": "1",
            "timestamp": "2018-08-02T02:26:13.96294481Z",
            "type": 2,
            "block_id": {
              "hash": "679BCC25AE8ECEBB48BA433751E29FDD1DAAECA4",
              "parts": {
                "total": "1",
                "hash": "0F6BAAB142EC258EEEC9CE3AF8F95DFF88CD40AE"
              }
            },
            "signature": {
              "type": "tendermint/SignatureEd25519",
              "value": "pAgROCSnG4pUESRt5URI5FVQtyC8BNHJhxPez+Fw5pt9/xroUmBuNvN3VKW4ua5lQBkWwzWqBVuy0vYlpQKrCg=="
            }
          },
          {
            "validator_address": "09145E611CC27EEB944FC5A956DDF710F943B9EF",
            "validator_index": "4",
            "height": "40709",
            "round": "1",
            "timestamp": "2018-08-02T02:26:14.039522681Z",
            "type": 2,
            "block_id": {
              "hash": "679BCC25AE8ECEBB48BA433751E29FDD1DAAECA4",
              "parts": {
                "total": "1",
                "hash": "0F6BAAB142EC258EEEC9CE3AF8F95DFF88CD40AE"
              }
            },
            "signature": {
              "type": "tendermint/SignatureEd25519",
              "value": "MVBxkZhBKrv3Z5UbUze7uDqwkSm6pwUfI+3gVPxOaMUdVSLgtNw5VIzCXc+vYnzAZhno/c4IGhUDBeInLdrFAg=="
            }
          },
          {
            "validator_address": "0989D0355A104B67AE0AE028C68FB610690E174B",
            "validator_index": "5",
            "height": "40709",
            "round": "1",
            "timestamp": "2018-08-02T02:26:14.034419299Z",
            "type": 2,
            "block_id": {
              "hash": "679BCC25AE8ECEBB48BA433751E29FDD1DAAECA4",
              "parts": {
                "total": "1",
                "hash": "0F6BAAB142EC258EEEC9CE3AF8F95DFF88CD40AE"
              }
            },
            "signature": {
              "type": "tendermint/SignatureEd25519",
              "value": "tGrLY7QP6UYz/NBQnQNEQdn03e/667HJ0QQn6OcVB2WqSZf3fhpNKRn+RMoDglv+WgG/59hFxJzZoh1DvWHMBw=="
            }
          },
          {
            "validator_address": "0A692DBFFE9E5DD28E7DECC33CED1AEB4C0D014E",
            "validator_index": "6",
            "height": "40709",
            "round": "1",
            "timestamp": "2018-08-02T02:26:14.187880568Z",
            "type": 2,
            "block_id": {
              "hash": "679BCC25AE8ECEBB48BA433751E29FDD1DAAECA4",
              "parts": {
                "total": "1",
                "hash": "0F6BAAB142EC258EEEC9CE3AF8F95DFF88CD40AE"
              }
            },
            "signature": {
              "type": "tendermint/SignatureEd25519",
              "value": "IGKW6UkArHrcMngWlfni+OaVXT7tiUaawUqUDoR++GeTZyzFVXRM1towpyY+hml1wwdlCydlvbJktlPd5gSbAQ=="
            }
          },
          null,
          {
            "validator_address": "1751786EFC085D5331C61168FFFC8202EA151B4E",
            "validator_index": "8",
            "height": "40709",
            "round": "1",
            "timestamp": "2018-08-02T02:26:13.563699251Z",
            "type": 2,
            "block_id": {
              "hash": "679BCC25AE8ECEBB48BA433751E29FDD1DAAECA4",
              "parts": {
                "total": "1",
                "hash": "0F6BAAB142EC258EEEC9CE3AF8F95DFF88CD40AE"
              }
            },
            "signature": {
              "type": "tendermint/SignatureEd25519",
              "value": "I8+hnvFsJeMgqBMIPTb0xgVIVzn55wUykVoVMLocoiq3N8GMQ6KwWpu/aySFMEeKkYKBICYyMAoCNGojVVykDA=="
            }
          },
          {
            "validator_address": "17BB5CD01E8940FAFB948A04D5FA5A0645E5822E",
            "validator_index": "9",
            "height": "40709",
            "round": "1",
            "timestamp": "2018-08-02T02:26:14.022186915Z",
            "type": 2,
            "block_id": {
              "hash": "679BCC25AE8ECEBB48BA433751E29FDD1DAAECA4",
              "parts": {
                "total": "1",
                "hash": "0F6BAAB142EC258EEEC9CE3AF8F95DFF88CD40AE"
              }
            },
            "signature": {
              "type": "tendermint/SignatureEd25519",
              "value": "cyDag1JPfgm+z9vblGRGHxs87XAxzmAQ45YlfMYBq4HjPC/Zh9HK/2PhnEKGOi4479LBSMCtQXKiL6Kd8QnQAw=="
            }
          },
          {
            "validator_address": "1C683A87904BC38F05004FE83301A3A3E35447EB",
            "validator_index": "10",
            "height": "40709",
            "round": "1",
            "timestamp": "2018-08-02T02:26:14.043737765Z",
            "type": 2,
            "block_id": {
              "hash": "679BCC25AE8ECEBB48BA433751E29FDD1DAAECA4",
              "parts": {
                "total": "1",
                "hash": "0F6BAAB142EC258EEEC9CE3AF8F95DFF88CD40AE"
              }
            },
            "signature": {
              "type": "tendermint/SignatureEd25519",
              "value": "shpbkKRmfSMWSicJdnQRHqgJxE00VBJycFXUVjCgiPhPOhadd1/T/C5t/HZBZ0seEFJdmNAouuR+niJc9oT1Dg=="
            }
          },
          {
            "validator_address": "1E9CE94FD0BA5CFEB901F90BC658D64D85B134D2",
            "validator_index": "11",
            "height": "40709",
            "round": "1",
            "timestamp": "2018-08-02T02:26:14.028941424Z",
            "type": 2,
            "block_id": {
              "hash": "679BCC25AE8ECEBB48BA433751E29FDD1DAAECA4",
              "parts": {
                "total": "1",
                "hash": "0F6BAAB142EC258EEEC9CE3AF8F95DFF88CD40AE"
              }
            },
            "signature": {
              "type": "tendermint/SignatureEd25519",
              "value": "efZE9wrS/ovFxE1/4mMBXLGZTaQvvxy/wlz/4Mm1cC6qOfUVyUbUsODGhZsZnYeCc1zukpeaDrnHhWXTbPshBw=="
            }
          },
          {
            "validator_address": "1ECD8C5FE1341D74CDC633A245DD56858DE2F9A2",
            "validator_index": "12",
            "height": "40709",
            "round": "1",
            "timestamp": "2018-08-02T02:26:14.192849232Z",
            "type": 2,
            "block_id": {
              "hash": "679BCC25AE8ECEBB48BA433751E29FDD1DAAECA4",
              "parts": {
                "total": "1",
                "hash": "0F6BAAB142EC258EEEC9CE3AF8F95DFF88CD40AE"
              }
            },
            "signature": {
              "type": "tendermint/SignatureEd25519",
              "value": "8x4ZqxZzygZ3YvbidIbTofMNz8FxdbnnMihhO80muygYVmwS/p0NxxyeOutx5b95G9Z8BiIdKevQgDekCpWfCg=="
            }
          },
          {
            "validator_address": "1F3A68CAAD483768AA2BF667DEF10F7104C89928",
            "validator_index": "13",
            "height": "40709",
            "round": "1",
            "timestamp": "2018-08-02T02:26:14.026844728Z",
            "type": 2,
            "block_id": {
              "hash": "679BCC25AE8ECEBB48BA433751E29FDD1DAAECA4",
              "parts": {
                "total": "1",
                "hash": "0F6BAAB142EC258EEEC9CE3AF8F95DFF88CD40AE"
              }
            },
            "signature": {
              "type": "tendermint/SignatureEd25519",
              "value": "7vTdIrlPZn+mNvAQ9EQEGBX8c1dDyCC6vHzER07VWv4oXFaneKzS4Y/fbl1/fSkf5A9YkohjhsLT98VJOZFJBA=="
            }
          },
          {
            "validator_address": "1F61153F26C2DF27E15874268D30326287323352",
            "validator_index": "14",
            "height": "40709",
            "round": "1",
            "timestamp": "2018-08-02T02:26:14.128030867Z",
            "type": 2,
            "block_id": {
              "hash": "679BCC25AE8ECEBB48BA433751E29FDD1DAAECA4",
              "parts": {
                "total": "1",
                "hash": "0F6BAAB142EC258EEEC9CE3AF8F95DFF88CD40AE"
              }
            },
            "signature": {
              "type": "tendermint/SignatureEd25519",
              "value": "q/xzvRfF6BrG7BKLsDAGAE5NZG8X6qGAAxzqx4Aih2D5Hb7djJvNvSWLzFMZQnjClyy+j7QhAwoMx92UP+OsCg=="
            }
          },
          {
            "validator_address": "23897586D68E2AC1C78E0EF5BB5DF5C8EAB18F50",
            "validator_index": "15",
            "height": "40709",
            "round": "1",
            "timestamp": "2018-08-02T02:26:14.042359655Z",
            "type": 2,
            "block_id": {
              "hash": "679BCC25AE8ECEBB48BA433751E29FDD1DAAECA4",
              "parts": {
                "total": "1",
                "hash": "0F6BAAB142EC258EEEC9CE3AF8F95DFF88CD40AE"
              }
            },
            "signature": {
              "type": "tendermint/SignatureEd25519",
              "value": "h/wnM8yWkEjOSoK+nHbVP6H6jaO0QSIOxu0CDUQFXSXOPG1kayLCjz9DvjP1oGVZFqUPiRGU2WUruDo4511gBw=="
            }
          },
          {
            "validator_address": "28770D17E8530825E7310A0659308654B7EC9682",
            "validator_index": "16",
            "height": "40709",
            "round": "1",
            "timestamp": "2018-08-02T02:26:13.998024059Z",
            "type": 2,
            "block_id": {
              "hash": "679BCC25AE8ECEBB48BA433751E29FDD1DAAECA4",
              "parts": {
                "total": "1",
                "hash": "0F6BAAB142EC258EEEC9CE3AF8F95DFF88CD40AE"
              }
            },
            "signature": {
              "type": "tendermint/SignatureEd25519",
              "value": "xlkBsnbJyecvPHGQACU5YlwlvlXURU+rbH0uq7y6FwCApGgHpijE8NZYfmx9uDaUduGlT5Jr4JL2YQxxThQoCg=="
            }
          },
          {
            "validator_address": "2A92EC3C642140202298D0E245095E0ECFC25228",
            "validator_index": "17",
            "height": "40709",
            "round": "1",
            "timestamp": "2018-08-02T02:26:14.05081704Z",
            "type": 2,
            "block_id": {
              "hash": "679BCC25AE8ECEBB48BA433751E29FDD1DAAECA4",
              "parts": {
                "total": "1",
                "hash": "0F6BAAB142EC258EEEC9CE3AF8F95DFF88CD40AE"
              }
            },
            "signature": {
              "type": "tendermint/SignatureEd25519",
              "value": "edcmejdVRa5+4MRV92qLFJm9Cp8H0Kc+IiVsjHVyZK5i/WvvkbyzdRZjXnlVgMk/k6OxA0ZkkX7oc0fhY3XoAg=="
            }
          },
          null,
          {
            "validator_address": "36E9B7FAEC964F97D84C028ED62493E373AD0B38",
            "validator_index": "19",
            "height": "40709",
            "round": "1",
            "timestamp": "2018-08-02T02:26:14.179681034Z",
            "type": 2,
            "block_id": {
              "hash": "679BCC25AE8ECEBB48BA433751E29FDD1DAAECA4",
              "parts": {
                "total": "1",
                "hash": "0F6BAAB142EC258EEEC9CE3AF8F95DFF88CD40AE"
              }
            },
            "signature": {
              "type": "tendermint/SignatureEd25519",
              "value": "57g8VKbb73R6EN72ydbug1Ky7/DWWQJycN1QM2ecLO1K92lBTFFoVri9LjEUq07TXRRHJ0vrXw1yxQy2wcHnAw=="
            }
          },
          {
            "validator_address": "38A8D85D36BEA2E5FCF8A1E778F53628E450EF13",
            "validator_index": "20",
            "height": "40709",
            "round": "1",
            "timestamp": "2018-08-02T02:26:14.158191091Z",
            "type": 2,
            "block_id": {
              "hash": "679BCC25AE8ECEBB48BA433751E29FDD1DAAECA4",
              "parts": {
                "total": "1",
                "hash": "0F6BAAB142EC258EEEC9CE3AF8F95DFF88CD40AE"
              }
            },
            "signature": {
              "type": "tendermint/SignatureEd25519",
              "value": "ZmSpg6tySG50fEwC/MWN1oujA1JpHFQdYbfV8WrSaMhPekbMRAgngjkHyybgt4HpF+Hzb7R9EoMOFX6FQ1p5BQ=="
            }
          },
          {
            "validator_address": "39DFDA0C5DB84B269642188B23253508537798E6",
            "validator_index": "21",
            "height": "40709",
            "round": "1",
            "timestamp": "2018-08-02T02:26:14.01842088Z",
            "type": 2,
            "block_id": {
              "hash": "679BCC25AE8ECEBB48BA433751E29FDD1DAAECA4",
              "parts": {
                "total": "1",
                "hash": "0F6BAAB142EC258EEEC9CE3AF8F95DFF88CD40AE"
              }
            },
            "signature": {
              "type": "tendermint/SignatureEd25519",
              "value": "9o42i/n4ls8cgfggROoPAMAlEderuRtgDsQXXUCTIWvfpc3kpG7AKsCHDv6nCh/YH7CNLkbIW3z6+scrVwDzAA=="
            }
          },
          {
            "validator_address": "3AC99B708404452366E0953A4BE849226DC86CBC",
            "validator_index": "22",
            "height": "40709",
            "round": "1",
            "timestamp": "2018-08-02T02:26:14.150707338Z",
            "type": 2,
            "block_id": {
              "hash": "679BCC25AE8ECEBB48BA433751E29FDD1DAAECA4",
              "parts": {
                "total": "1",
                "hash": "0F6BAAB142EC258EEEC9CE3AF8F95DFF88CD40AE"
              }
            },
            "signature": {
              "type": "tendermint/SignatureEd25519",
              "value": "jyZLQm7xX8rNio6g6yYJZ2l0gaPNwkuXUAundZYSDpmBlwKkXw+3xYN/6Z/6A4Q65OUMTbaT/2hlOoRinDrRAA=="
            }
          },
          {
            "validator_address": "3DCB822A10ED319EC7C4393D8E3FD4A41B15AAF2",
            "validator_index": "23",
            "height": "40709",
            "round": "1",
            "timestamp": "2018-08-02T02:26:13.983151116Z",
            "type": 2,
            "block_id": {
              "hash": "679BCC25AE8ECEBB48BA433751E29FDD1DAAECA4",
              "parts": {
                "total": "1",
                "hash": "0F6BAAB142EC258EEEC9CE3AF8F95DFF88CD40AE"
              }
            },
            "signature": {
              "type": "tendermint/SignatureEd25519",
              "value": "GUymg3F8nyzrE7BA++RFmHYQg5x4/B6d4yDX7y7ur6xSPYSlA/UFXcg+HNqBGptzSJrhz/BwpvhCZPhT/2FHCw=="
            }
          },
          {
            "validator_address": "3E899BA36A93C7370347BD5FE85909F2ECD93F8C",
            "validator_index": "24",
            "height": "40709",
            "round": "1",
            "timestamp": "2018-08-02T02:26:14.078128714Z",
            "type": 2,
            "block_id": {
              "hash": "679BCC25AE8ECEBB48BA433751E29FDD1DAAECA4",
              "parts": {
                "total": "1",
                "hash": "0F6BAAB142EC258EEEC9CE3AF8F95DFF88CD40AE"
              }
            },
            "signature": {
              "type": "tendermint/SignatureEd25519",
              "value": "osRAUf+cvytDtTxLDvdyJc9FkAOxWrbBJF3h1nLa7d07xllwWIqulDK6OXwZk4LYUuFUUq+h9W47QIZnsMMSCQ=="
            }
          },
          {
            "validator_address": "41CAB2E29E7D0F2282E3275938F188FF9386B84C",
            "validator_index": "25",
            "height": "40709",
            "round": "1",
            "timestamp": "2018-08-02T02:26:14.062647519Z",
            "type": 2,
            "block_id": {
              "hash": "679BCC25AE8ECEBB48BA433751E29FDD1DAAECA4",
              "parts": {
                "total": "1",
                "hash": "0F6BAAB142EC258EEEC9CE3AF8F95DFF88CD40AE"
              }
            },
            "signature": {
              "type": "tendermint/SignatureEd25519",
              "value": "afWGZCIxvpyXRk5ZgKvEvLlgqSoOtFz3Y9Zc2b27tuNZ875bUWHJ0Q+SkPFvwvo2gifYz7RmhhdcrSYB4xDkCA=="
            }
          },
          {
            "validator_address": "462B656869DB02A8FD1077E255F8CC7401DC37C6",
            "validator_index": "26",
            "height": "40709",
            "round": "1",
            "timestamp": "2018-08-02T02:26:14.000385193Z",
            "type": 2,
            "block_id": {
              "hash": "679BCC25AE8ECEBB48BA433751E29FDD1DAAECA4",
              "parts": {
                "total": "1",
                "hash": "0F6BAAB142EC258EEEC9CE3AF8F95DFF88CD40AE"
              }
            },
            "signature": {
              "type": "tendermint/SignatureEd25519",
              "value": "MG5M6Pertp/qdL51Cgw9huonIcnnuuwinuJOOYXHVeJc/ED73NxQrBWO7FIJAwJwkTbIQ2pWJMXarw+Qs7WtBQ=="
            }
          },
          {
            "validator_address": "48E5118163E5442068A1B5A42D2EEDBB75724935",
            "validator_index": "27",
            "height": "40709",
            "round": "1",
            "timestamp": "2018-08-02T02:26:14.116733031Z",
            "type": 2,
            "block_id": {
              "hash": "679BCC25AE8ECEBB48BA433751E29FDD1DAAECA4",
              "parts": {
                "total": "1",
                "hash": "0F6BAAB142EC258EEEC9CE3AF8F95DFF88CD40AE"
              }
            },
            "signature": {
              "type": "tendermint/SignatureEd25519",
              "value": "4lb6VuXx7DnEj6qwqS8gBMr9xKPP0LtL/iNA9hRMSX6l7Fqe6bsAKK+h3LDwXNi6lVS8UVkOm7MakypKKDw8Bw=="
            }
          },
          {
            "validator_address": "49103C58AFD9C7C069F55EBA218F3DFD9AEA74F9",
            "validator_index": "28",
            "height": "40709",
            "round": "1",
            "timestamp": "2018-08-02T02:26:14.021532564Z",
            "type": 2,
            "block_id": {
              "hash": "679BCC25AE8ECEBB48BA433751E29FDD1DAAECA4",
              "parts": {
                "total": "1",
                "hash": "0F6BAAB142EC258EEEC9CE3AF8F95DFF88CD40AE"
              }
            },
            "signature": {
              "type": "tendermint/SignatureEd25519",
              "value": "Ci+GFwkziZyegYp9hiBqnp9D+DZF5lHIFd42mF+ngg/vpgJAk1THks4hEnnjh7F18ycCy8UoIshEGrcBfqQlCg=="
            }
          },
          null,
          {
            "validator_address": "49841599DE675157CBE1E7D6B35BF8FFC23BD5CB",
            "validator_index": "30",
            "height": "40709",
            "round": "1",
            "timestamp": "2018-08-02T02:26:13.966928515Z",
            "type": 2,
            "block_id": {
              "hash": "679BCC25AE8ECEBB48BA433751E29FDD1DAAECA4",
              "parts": {
                "total": "1",
                "hash": "0F6BAAB142EC258EEEC9CE3AF8F95DFF88CD40AE"
              }
            },
            "signature": {
              "type": "tendermint/SignatureEd25519",
              "value": "7Axguxy0W8JVWj5jYR7ykj9fWXS9hDb3g0/8te0yUSJ+bWhCbceJm4Bwdb1qururpG2p7xFZzI7Df/x60wf+Cw=="
            }
          },
          {
            "validator_address": "51386C2CF9556821D114D7E4945806802BADB28D",
            "validator_index": "31",
            "height": "40709",
            "round": "1",
            "timestamp": "2018-08-02T02:26:14.039380793Z",
            "type": 2,
            "block_id": {
              "hash": "679BCC25AE8ECEBB48BA433751E29FDD1DAAECA4",
              "parts": {
                "total": "1",
                "hash": "0F6BAAB142EC258EEEC9CE3AF8F95DFF88CD40AE"
              }
            },
            "signature": {
              "type": "tendermint/SignatureEd25519",
              "value": "Xrw6V42/NETJrUyfBnuFORi103kQjbZyA+36gHpG4Gz8DCHVVS7pYmr6GHoUeQ59ZqvEpwc4Ejw6+O7pkSKXDA=="
            }
          },
          {
            "validator_address": "543564ECA3AFEFADC73EE8591AAC3A96F079BC8A",
            "validator_index": "32",
            "height": "40709",
            "round": "1",
            "timestamp": "2018-08-02T02:26:14.027274843Z",
            "type": 2,
            "block_id": {
              "hash": "679BCC25AE8ECEBB48BA433751E29FDD1DAAECA4",
              "parts": {
                "total": "1",
                "hash": "0F6BAAB142EC258EEEC9CE3AF8F95DFF88CD40AE"
              }
            },
            "signature": {
              "type": "tendermint/SignatureEd25519",
              "value": "WBXjcudSX7MDEvwO5C35bkCo/RwKVHWYOpNwyf/WqGDMvVszpFUuQeGgdbnrUJwylvxt3zdUHRgiAmC3jhB2DA=="
            }
          },
          {
            "validator_address": "55D67B1A6DC13E96F8754A5A42EABC20F7F86664",
            "validator_index": "33",
            "height": "40709",
            "round": "1",
            "timestamp": "2018-08-02T02:26:14.029940132Z",
            "type": 2,
            "block_id": {
              "hash": "679BCC25AE8ECEBB48BA433751E29FDD1DAAECA4",
              "parts": {
                "total": "1",
                "hash": "0F6BAAB142EC258EEEC9CE3AF8F95DFF88CD40AE"
              }
            },
            "signature": {
              "type": "tendermint/SignatureEd25519",
              "value": "2WLyi47iRM2bsS4YTAbX7tgCCKFrtw8BZLR6Ojl+jDvfjlD1f9aghVZdweq7e0MsVDhh04UrL8M7gUgAQiKHBw=="
            }
          },
          {
            "validator_address": "570B6A755ED339EAC56BB3390A48069F6AC9449B",
            "validator_index": "34",
            "height": "40709",
            "round": "1",
            "timestamp": "2018-08-02T02:26:22.387406542Z",
            "type": 2,
            "block_id": {
              "hash": "679BCC25AE8ECEBB48BA433751E29FDD1DAAECA4",
              "parts": {
                "total": "1",
                "hash": "0F6BAAB142EC258EEEC9CE3AF8F95DFF88CD40AE"
              }
            },
            "signature": {
              "type": "tendermint/SignatureEd25519",
              "value": "dh9RqtgBkZufDuhP3RCFwMk3htSeHbtRSi0TpuBuzMkldBvj7OcQMuvpIeFLQ8scMOWad+TdJVLahMTgUT1SAQ=="
            }
          },
          {
            "validator_address": "5BDF8EA41B1835FBAD865B181A2A4B23F511B5E4",
            "validator_index": "35",
            "height": "40709",
            "round": "1",
            "timestamp": "2018-08-02T02:26:13.974321098Z",
            "type": 2,
            "block_id": {
              "hash": "679BCC25AE8ECEBB48BA433751E29FDD1DAAECA4",
              "parts": {
                "total": "1",
                "hash": "0F6BAAB142EC258EEEC9CE3AF8F95DFF88CD40AE"
              }
            },
            "signature": {
              "type": "tendermint/SignatureEd25519",
              "value": "7BaucU4cC/PFF4y0+TV5U9G6w7wcWpH5bW0YGlgt/PnAIfU6I1L170+4XJdZbrBCMVTlCMQ7RRF8IPaPLPyYDg=="
            }
          },
          {
            "validator_address": "60229E2E273297FE00219E46DFFB8F76844CDEF9",
            "validator_index": "36",
            "height": "40709",
            "round": "1",
            "timestamp": "2018-08-02T02:26:11.730993184Z",
            "type": 2,
            "block_id": {
              "hash": "679BCC25AE8ECEBB48BA433751E29FDD1DAAECA4",
              "parts": {
                "total": "1",
                "hash": "0F6BAAB142EC258EEEC9CE3AF8F95DFF88CD40AE"
              }
            },
            "signature": {
              "type": "tendermint/SignatureEd25519",
              "value": "kj2JlpB4PTDm61SY2iXoKDkiXGaDapYi9Qfnxh5K00do7qIv5R3brduMw/OcPBnXRE2fDxSmE7hxE5NdbZt/CQ=="
            }
          },
          {
            "validator_address": "62410D6D1CD98278136E4D0738AA0EA273CDFC54",
            "validator_index": "37",
            "height": "40709",
            "round": "1",
            "timestamp": "2018-08-02T02:26:13.97637029Z",
            "type": 2,
            "block_id": {
              "hash": "679BCC25AE8ECEBB48BA433751E29FDD1DAAECA4",
              "parts": {
                "total": "1",
                "hash": "0F6BAAB142EC258EEEC9CE3AF8F95DFF88CD40AE"
              }
            },
            "signature": {
              "type": "tendermint/SignatureEd25519",
              "value": "E7o/mcquW9qaNbvO93qs+GXz+D/gTvXk9CqEwLImxJUmibmdkugvJORaLjiqnr9dyY19xDXAZLcTBhSaydytBQ=="
            }
          },
          {
            "validator_address": "632F5C139A5A9DFBFE5111DEE29FCFB6157207DC",
            "validator_index": "38",
            "height": "40709",
            "round": "1",
            "timestamp": "2018-08-02T02:26:14.097857568Z",
            "type": 2,
            "block_id": {
              "hash": "679BCC25AE8ECEBB48BA433751E29FDD1DAAECA4",
              "parts": {
                "total": "1",
                "hash": "0F6BAAB142EC258EEEC9CE3AF8F95DFF88CD40AE"
              }
            },
            "signature": {
              "type": "tendermint/SignatureEd25519",
              "value": "uF3wXqLbgDF6RPGmO/+PWlJ+vwGnhN5yZQGn+FxiMxbGKeKmrtqiL/l2MrkAq3il4rmlKfK9FvFYty5Va+naDw=="
            }
          },
          {
            "validator_address": "64F57F8E796A9B7B590C1EFA4123988C86631D39",
            "validator_index": "39",
            "height": "40709",
            "round": "1",
            "timestamp": "2018-08-02T02:26:13.960548342Z",
            "type": 2,
            "block_id": {
              "hash": "679BCC25AE8ECEBB48BA433751E29FDD1DAAECA4",
              "parts": {
                "total": "1",
                "hash": "0F6BAAB142EC258EEEC9CE3AF8F95DFF88CD40AE"
              }
            },
            "signature": {
              "type": "tendermint/SignatureEd25519",
              "value": "Z5QI85EMw03eYePl9OV8WRXXj67J+GxinIuEFDIRezcrE2Pun/f1JkfTXdSecq1jVXZ9Ck/3jiXYxL1N458IDg=="
            }
          },
          {
            "validator_address": "69D99B2C66043ACBEAA8447525C356AFC6408E0C",
            "validator_index": "40",
            "height": "40709",
            "round": "1",
            "timestamp": "2018-08-02T02:26:14.084224884Z",
            "type": 2,
            "block_id": {
              "hash": "679BCC25AE8ECEBB48BA433751E29FDD1DAAECA4",
              "parts": {
                "total": "1",
                "hash": "0F6BAAB142EC258EEEC9CE3AF8F95DFF88CD40AE"
              }
            },
            "signature": {
              "type": "tendermint/SignatureEd25519",
              "value": "KXy/NNCJDpMdhrA0jgmCyizkXjngy3MtXWRXSb8F7W3nU9OgOW2P69st4icj9F7/FdE3cl6ZGCY5bZMrYvTADw=="
            }
          },
          {
            "validator_address": "69EDADFA4A803E9DBF548C900D4A465E7D154262",
            "validator_index": "41",
            "height": "40709",
            "round": "1",
            "timestamp": "2018-08-02T02:26:14.088849682Z",
            "type": 2,
            "block_id": {
              "hash": "679BCC25AE8ECEBB48BA433751E29FDD1DAAECA4",
              "parts": {
                "total": "1",
                "hash": "0F6BAAB142EC258EEEC9CE3AF8F95DFF88CD40AE"
              }
            },
            "signature": {
              "type": "tendermint/SignatureEd25519",
              "value": "ilqqlpF3DiaNh7sZKxNPu9bcB4nYddeRD6YIMsKglMRszXGxDlZ4Ub4+E0/5rn2GhZqPhFAxxzp5yfCLVBtiCg=="
            }
          },
          {
            "validator_address": "6D3AD380E398D8592B03AA124BAFED5F125DF863",
            "validator_index": "42",
            "height": "40709",
            "round": "1",
            "timestamp": "2018-08-02T02:25:11.464155743Z",
            "type": 2,
            "block_id": {
              "hash": "679BCC25AE8ECEBB48BA433751E29FDD1DAAECA4",
              "parts": {
                "total": "1",
                "hash": "0F6BAAB142EC258EEEC9CE3AF8F95DFF88CD40AE"
              }
            },
            "signature": {
              "type": "tendermint/SignatureEd25519",
              "value": "eprCtS1Y5COxXL5BGbhcMZnpC4f1WhSUXRD6hvb0QIyTFhJRtUHMu5WnhdjjSzcevtpE3u//NiDGU5cQABhTDg=="
            }
          },
          {
            "validator_address": "6F6C93B8BF3495063FEC9B5C771158607F4AE9D6",
            "validator_index": "43",
            "height": "40709",
            "round": "1",
            "timestamp": "2018-08-02T02:26:14.190399138Z",
            "type": 2,
            "block_id": {
              "hash": "679BCC25AE8ECEBB48BA433751E29FDD1DAAECA4",
              "parts": {
                "total": "1",
                "hash": "0F6BAAB142EC258EEEC9CE3AF8F95DFF88CD40AE"
              }
            },
            "signature": {
              "type": "tendermint/SignatureEd25519",
              "value": "057pDKblNf7cd76ANgG7FmakAEby1O6Kx9a9Imsr/jJ9TvCXKMjvK65UGEv4BGuoOff9okeFgSqhPV0wYjLnDA=="
            }
          },
          {
            "validator_address": "732CEEF54C374DDC6ADECBFD707AEFD07FEDC143",
            "validator_index": "44",
            "height": "40709",
            "round": "1",
            "timestamp": "2018-08-02T02:26:14.181488616Z",
            "type": 2,
            "block_id": {
              "hash": "679BCC25AE8ECEBB48BA433751E29FDD1DAAECA4",
              "parts": {
                "total": "1",
                "hash": "0F6BAAB142EC258EEEC9CE3AF8F95DFF88CD40AE"
              }
            },
            "signature": {
              "type": "tendermint/SignatureEd25519",
              "value": "nuryrIdYwOm8iNQk5WfBlKRBqtA+bnUYNZyAuYPoFgk9T8vbMoFfT/DymQCoxLPNcMVrMgcDGQkZvlRL/GItBg=="
            }
          },
          {
            "validator_address": "751E43437224E8BB6D1569B3E2B2616B6E7F4397",
            "validator_index": "45",
            "height": "40709",
            "round": "1",
            "timestamp": "2018-08-02T02:26:14.025837243Z",
            "type": 2,
            "block_id": {
              "hash": "679BCC25AE8ECEBB48BA433751E29FDD1DAAECA4",
              "parts": {
                "total": "1",
                "hash": "0F6BAAB142EC258EEEC9CE3AF8F95DFF88CD40AE"
              }
            },
            "signature": {
              "type": "tendermint/SignatureEd25519",
              "value": "haF4O69XRbOIYUuBwv205UQDlj22nJU+dUKK2LyFvzAWuLtWebMOZVPYZxfmHyyyfZnJPfNA3ehsGBeD7zogDg=="
            }
          },
          {
            "validator_address": "7EB7593F519F1180C7E872D0494611464EDF03AE",
            "validator_index": "46",
            "height": "40709",
            "round": "1",
            "timestamp": "2018-08-02T02:26:14.271140406Z",
            "type": 2,
            "block_id": {
              "hash": "679BCC25AE8ECEBB48BA433751E29FDD1DAAECA4",
              "parts": {
                "total": "1",
                "hash": "0F6BAAB142EC258EEEC9CE3AF8F95DFF88CD40AE"
              }
            },
            "signature": {
              "type": "tendermint/SignatureEd25519",
              "value": "353a///m5MacUOEWI7tfa58ma4IZAZbO2HhvJMt6DNw1UkTo77DrsigeVAGMSM5fUPl7Ya5SVeDbYQLjfoqjDQ=="
            }
          },
          null,
          {
            "validator_address": "83AB321E012C57746689FED3A6064DF331F81007",
            "validator_index": "48",
            "height": "40709",
            "round": "1",
            "timestamp": "2018-08-02T02:26:14.005710889Z",
            "type": 2,
            "block_id": {
              "hash": "679BCC25AE8ECEBB48BA433751E29FDD1DAAECA4",
              "parts": {
                "total": "1",
                "hash": "0F6BAAB142EC258EEEC9CE3AF8F95DFF88CD40AE"
              }
            },
            "signature": {
              "type": "tendermint/SignatureEd25519",
              "value": "UEAIxIe/WLtp+RgNAMSlUwQFosnvIbbI2NNHtPdDF/Ajf8yVkgU736ZG/gHdipA7Tk38U8r+XdFEM/EIYHEDDQ=="
            }
          },
          {
            "validator_address": "83BB1B88D3DBB20AD845FECA07749EBD87D3754D",
            "validator_index": "49",
            "height": "40709",
            "round": "1",
            "timestamp": "2018-08-02T02:26:14.180365282Z",
            "type": 2,
            "block_id": {
              "hash": "679BCC25AE8ECEBB48BA433751E29FDD1DAAECA4",
              "parts": {
                "total": "1",
                "hash": "0F6BAAB142EC258EEEC9CE3AF8F95DFF88CD40AE"
              }
            },
            "signature": {
              "type": "tendermint/SignatureEd25519",
              "value": "JbSUsz1oHLu9CEOnbeYDd8u5sDUOuSWJbH1BUvS/36DBlIP3kYzvyzSaIZHNNekLMg74bFOAkuaT81QpLY54AQ=="
            }
          },
          {
            "validator_address": "8F06FE1FD042683C426137FBC4BBAA4288924217",
            "validator_index": "50",
            "height": "40709",
            "round": "1",
            "timestamp": "2018-08-02T02:26:14.018811913Z",
            "type": 2,
            "block_id": {
              "hash": "679BCC25AE8ECEBB48BA433751E29FDD1DAAECA4",
              "parts": {
                "total": "1",
                "hash": "0F6BAAB142EC258EEEC9CE3AF8F95DFF88CD40AE"
              }
            },
            "signature": {
              "type": "tendermint/SignatureEd25519",
              "value": "vJnD9MN86ZCDUmD2puy2tJ5kW8I5y6mOQLoSRhJUAiGAHTy1XdzKwa+ApOSfBG4mKRbDqIyXYVAMp5QP6HZwCg=="
            }
          },
          {
            "validator_address": "8F45617BF45B10A3F8283DEBDB35E38C7CA43237",
            "validator_index": "51",
            "height": "40709",
            "round": "1",
            "timestamp": "2018-08-02T02:26:14.006964456Z",
            "type": 2,
            "block_id": {
              "hash": "679BCC25AE8ECEBB48BA433751E29FDD1DAAECA4",
              "parts": {
                "total": "1",
                "hash": "0F6BAAB142EC258EEEC9CE3AF8F95DFF88CD40AE"
              }
            },
            "signature": {
              "type": "tendermint/SignatureEd25519",
              "value": "I/WOjlo0VtW2KD6n7Qscbjv7pZjNMDsBEEDjG/Mg4Wbl6YpbsDmXixTT33yQbOPduZlnKJpOnOp5Pj3w4+MuAQ=="
            }
          },
          {
            "validator_address": "95980831E186F2540F6E9FB6C8E74DE2401405AC",
            "validator_index": "52",
            "height": "40709",
            "round": "1",
            "timestamp": "2018-08-02T02:26:14.122993052Z",
            "type": 2,
            "block_id": {
              "hash": "679BCC25AE8ECEBB48BA433751E29FDD1DAAECA4",
              "parts": {
                "total": "1",
                "hash": "0F6BAAB142EC258EEEC9CE3AF8F95DFF88CD40AE"
              }
            },
            "signature": {
              "type": "tendermint/SignatureEd25519",
              "value": "kK8fh7lqrpZfW35IheSLLEKBA4F6hWhi/jfRxZPuCaGbTdcdZDKYmD1fYxXqxzOhwTqtNpmrg338SFU2ZLyoCw=="
            }
          },
          {
            "validator_address": "95FAFBC1E0579C83D290A063020CE87C5334BD9B",
            "validator_index": "53",
            "height": "40709",
            "round": "1",
            "timestamp": "2018-08-02T02:26:14.072721153Z",
            "type": 2,
            "block_id": {
              "hash": "679BCC25AE8ECEBB48BA433751E29FDD1DAAECA4",
              "parts": {
                "total": "1",
                "hash": "0F6BAAB142EC258EEEC9CE3AF8F95DFF88CD40AE"
              }
            },
            "signature": {
              "type": "tendermint/SignatureEd25519",
              "value": "QO6VJOMo291JfWO607ypfoL6dKNibgWbKQDAkGtcCNWsviRVMl54euDKXi109fYudkqzpqzkFLjMCK4vD479Dw=="
            }
          },
          {
            "validator_address": "96BDE45EC52606CF5CB59853097871AD60680549",
            "validator_index": "54",
            "height": "40709",
            "round": "1",
            "timestamp": "2018-08-02T02:26:14.080255622Z",
            "type": 2,
            "block_id": {
              "hash": "679BCC25AE8ECEBB48BA433751E29FDD1DAAECA4",
              "parts": {
                "total": "1",
                "hash": "0F6BAAB142EC258EEEC9CE3AF8F95DFF88CD40AE"
              }
            },
            "signature": {
              "type": "tendermint/SignatureEd25519",
              "value": "3BOv0BdJYcVIkGRoaTIp2Ipb34EaR72IbzRj0qRuSyIluZVkcjj3E8s8ILmsvY2YOEEGSD5jYsT4VP1hataiBA=="
            }
          },
          {
            "validator_address": "970CD321881185BF83DB2923C321B0E75FDBB2B8",
            "validator_index": "55",
            "height": "40709",
            "round": "1",
            "timestamp": "2018-08-02T02:26:14.117290456Z",
            "type": 2,
            "block_id": {
              "hash": "679BCC25AE8ECEBB48BA433751E29FDD1DAAECA4",
              "parts": {
                "total": "1",
                "hash": "0F6BAAB142EC258EEEC9CE3AF8F95DFF88CD40AE"
              }
            },
            "signature": {
              "type": "tendermint/SignatureEd25519",
              "value": "YDSbTFqu1kBrSZObl646V/ImxYt3pSlBL4SAgio2t5IdhkiZYRTlobhoMG/Vdwpf69eUVLnUtFF+no+26UkMAw=="
            }
          },
          {
            "validator_address": "97DBB3D4B3D6C29287244864448F651DD5B07390",
            "validator_index": "56",
            "height": "40709",
            "round": "1",
            "timestamp": "2018-08-02T02:26:14.100080999Z",
            "type": 2,
            "block_id": {
              "hash": "679BCC25AE8ECEBB48BA433751E29FDD1DAAECA4",
              "parts": {
                "total": "1",
                "hash": "0F6BAAB142EC258EEEC9CE3AF8F95DFF88CD40AE"
              }
            },
            "signature": {
              "type": "tendermint/SignatureEd25519",
              "value": "w3oV944GrKKZsHb+FDFnUif5KGI8OlyGxoohZ/BuzA3uslcxs7RUnLSsJAxWU7n5zVMdw/mHOxIE5Mqs6zUNBg=="
            }
          },
          {
            "validator_address": "9C29C9B76D27586E4D9AD2AED0E943162645E55C",
            "validator_index": "57",
            "height": "40709",
            "round": "1",
            "timestamp": "2018-08-02T02:26:14.013234025Z",
            "type": 2,
            "block_id": {
              "hash": "679BCC25AE8ECEBB48BA433751E29FDD1DAAECA4",
              "parts": {
                "total": "1",
                "hash": "0F6BAAB142EC258EEEC9CE3AF8F95DFF88CD40AE"
              }
            },
            "signature": {
              "type": "tendermint/SignatureEd25519",
              "value": "MMDHfeV4mSGlU3wtK6x5csR5DKBpspTbaEBk5CW0qip4QH956PmGLBf+DZxRgAPLXgN6HbAvV0tMGerSCiXLCA=="
            }
          },
          {
            "validator_address": "9D93AD02FE1BD7E76B9E58D7EB461088EAD011E5",
            "validator_index": "58",
            "height": "40709",
            "round": "1",
            "timestamp": "2018-08-02T02:26:14.029127985Z",
            "type": 2,
            "block_id": {
              "hash": "679BCC25AE8ECEBB48BA433751E29FDD1DAAECA4",
              "parts": {
                "total": "1",
                "hash": "0F6BAAB142EC258EEEC9CE3AF8F95DFF88CD40AE"
              }
            },
            "signature": {
              "type": "tendermint/SignatureEd25519",
              "value": "YPIl77RYwhgJG5p7xOJnf3SW74CUxABfz0AMW7rctzj0Ovy8BktsCiMeI8RRXzsKKmpqmTUmcLo++WO8emg9Bg=="
            }
          },
          {
            "validator_address": "A0A6466F4ABEA09C3B55E3709AFDE217A103209F",
            "validator_index": "59",
            "height": "40709",
            "round": "1",
            "timestamp": "2018-08-02T02:26:14.006504825Z",
            "type": 2,
            "block_id": {
              "hash": "679BCC25AE8ECEBB48BA433751E29FDD1DAAECA4",
              "parts": {
                "total": "1",
                "hash": "0F6BAAB142EC258EEEC9CE3AF8F95DFF88CD40AE"
              }
            },
            "signature": {
              "type": "tendermint/SignatureEd25519",
              "value": "TYAyfIgO7w0zO46eLT2PUSzl6ruDgI47jFCjaBUTC/efqKYo0NUaByKBY7gMYho4RhL5w0Ne5q5Q/Yr0DyqNCw=="
            }
          },
          {
            "validator_address": "A5868971300F155020634D7BB49C7634F7AACCD3",
            "validator_index": "60",
            "height": "40709",
            "round": "1",
            "timestamp": "2018-08-02T02:26:14.033237069Z",
            "type": 2,
            "block_id": {
              "hash": "679BCC25AE8ECEBB48BA433751E29FDD1DAAECA4",
              "parts": {
                "total": "1",
                "hash": "0F6BAAB142EC258EEEC9CE3AF8F95DFF88CD40AE"
              }
            },
            "signature": {
              "type": "tendermint/SignatureEd25519",
              "value": "ObTSROeKC+1idi9+k6sxACNNQd3XogdFbt+iN9Cnn8X/pX9O6mYniBfrIUmAga4suMhsHIu/MCq2tsZtAYhaDg=="
            }
          },
          {
            "validator_address": "A6B3A5B5D982CFD7B5FDFA15CF5A720E7AE25E7F",
            "validator_index": "61",
            "height": "40709",
            "round": "1",
            "timestamp": "2018-08-02T02:26:14.330583732Z",
            "type": 2,
            "block_id": {
              "hash": "679BCC25AE8ECEBB48BA433751E29FDD1DAAECA4",
              "parts": {
                "total": "1",
                "hash": "0F6BAAB142EC258EEEC9CE3AF8F95DFF88CD40AE"
              }
            },
            "signature": {
              "type": "tendermint/SignatureEd25519",
              "value": "ItMsqAvjriZMtuuRjU6Jc6F9iVvDy8gd7TPKEkqzEB/0+Gv0sGWqt/0XPjmqHSj1v17f/vRP+IjY4BI8R/+fCQ=="
            }
          },
          {
            "validator_address": "AC96444A9083890B7C7B430DB17BF1D3EA5EED04",
            "validator_index": "62",
            "height": "40709",
            "round": "1",
            "timestamp": "2018-08-02T02:26:14.088300373Z",
            "type": 2,
            "block_id": {
              "hash": "679BCC25AE8ECEBB48BA433751E29FDD1DAAECA4",
              "parts": {
                "total": "1",
                "hash": "0F6BAAB142EC258EEEC9CE3AF8F95DFF88CD40AE"
              }
            },
            "signature": {
              "type": "tendermint/SignatureEd25519",
              "value": "HjDxet6UJqNZ3WU3rHrHpjKCqsrYL1l4cMCgazEBfNpmxJ9yU16AJpuH/KXd1nPesCj4wS9Ql39XW3G3Qjc4DA=="
            }
          },
          {
            "validator_address": "ACB97FDA2D940AF0709B73537C458EB988AD2893",
            "validator_index": "63",
            "height": "40709",
            "round": "1",
            "timestamp": "2018-08-02T02:26:14.062823434Z",
            "type": 2,
            "block_id": {
              "hash": "679BCC25AE8ECEBB48BA433751E29FDD1DAAECA4",
              "parts": {
                "total": "1",
                "hash": "0F6BAAB142EC258EEEC9CE3AF8F95DFF88CD40AE"
              }
            },
            "signature": {
              "type": "tendermint/SignatureEd25519",
              "value": "5hSrOjWt2JqFi1/qi9x8mDxltMGkSUXJEUuQHcFcwZIr/jA942/PC7X1SOpqnLcoOVdZGTPegw6lws9djSMhBQ=="
            }
          },
          {
            "validator_address": "B197425B3210375F211661DE02EF2AE36580EB0F",
            "validator_index": "64",
            "height": "40709",
            "round": "1",
            "timestamp": "2018-08-02T02:26:13.991032774Z",
            "type": 2,
            "block_id": {
              "hash": "679BCC25AE8ECEBB48BA433751E29FDD1DAAECA4",
              "parts": {
                "total": "1",
                "hash": "0F6BAAB142EC258EEEC9CE3AF8F95DFF88CD40AE"
              }
            },
            "signature": {
              "type": "tendermint/SignatureEd25519",
              "value": "fQsveg7Ddty7/3Jj88DN8MfnlvB/Ge1zlXKaoXp50jaKZgaHJ8dIoXoQerIj+J7Oi4gSYhhDKsIcA7upHeScCw=="
            }
          },
          {
            "validator_address": "B45E54D2D1CB5A4CCD1D49016608C18E7C56B270",
            "validator_index": "65",
            "height": "40709",
            "round": "1",
            "timestamp": "2018-08-02T02:26:14.164542492Z",
            "type": 2,
            "block_id": {
              "hash": "679BCC25AE8ECEBB48BA433751E29FDD1DAAECA4",
              "parts": {
                "total": "1",
                "hash": "0F6BAAB142EC258EEEC9CE3AF8F95DFF88CD40AE"
              }
            },
            "signature": {
              "type": "tendermint/SignatureEd25519",
              "value": "4BLijP8JWcRKVY/4LSsBjBA/K/AVwqh0idjHatJbhFQxazJSvXcMcArTB0WLF7w161dYSKD/E5+lJgVlaCsSDQ=="
            }
          },
          {
            "validator_address": "BB1276BE89834835428664408917649FEEF5D90C",
            "validator_index": "66",
            "height": "40709",
            "round": "1",
            "timestamp": "2018-08-02T02:26:14.034057044Z",
            "type": 2,
            "block_id": {
              "hash": "679BCC25AE8ECEBB48BA433751E29FDD1DAAECA4",
              "parts": {
                "total": "1",
                "hash": "0F6BAAB142EC258EEEC9CE3AF8F95DFF88CD40AE"
              }
            },
            "signature": {
              "type": "tendermint/SignatureEd25519",
              "value": "WTlLXO4JdgIcyzS7H1xXk6ECWJoEy+44LqbAZsTQHXOkm+s9tYhymNEJeC1n+ncJAL/Hl/o0rG1Jw2moUO6hAw=="
            }
          },
          {
            "validator_address": "BC36FEDD6EF6071118A3E51859DF3831A2EC4782",
            "validator_index": "67",
            "height": "40709",
            "round": "1",
            "timestamp": "2018-08-02T02:26:14.047254547Z",
            "type": 2,
            "block_id": {
              "hash": "679BCC25AE8ECEBB48BA433751E29FDD1DAAECA4",
              "parts": {
                "total": "1",
                "hash": "0F6BAAB142EC258EEEC9CE3AF8F95DFF88CD40AE"
              }
            },
            "signature": {
              "type": "tendermint/SignatureEd25519",
              "value": "PustBxHNeV7SYFdiwZxe3RmCBbpsCr0Ihb8aRMYhq20Xds/tF96SFUxx7daSJhxvcmJqZ0zqTBkKX5RHIF0cCQ=="
            }
          },
          {
            "validator_address": "BD9D0DA513BF099DB4BB6E725A4E19832789882F",
            "validator_index": "68",
            "height": "40709",
            "round": "1",
            "timestamp": "2018-08-02T02:26:14.01722944Z",
            "type": 2,
            "block_id": {
              "hash": "679BCC25AE8ECEBB48BA433751E29FDD1DAAECA4",
              "parts": {
                "total": "1",
                "hash": "0F6BAAB142EC258EEEC9CE3AF8F95DFF88CD40AE"
              }
            },
            "signature": {
              "type": "tendermint/SignatureEd25519",
              "value": "7qLv0wCimTRsZzerX4tUFScF35XUSVU6R0qaFW1gQf3lDNoP9MyvcLKUbkpAAwPQrNh3rr5kqzcmtRkIfdypCA=="
            }
          },
          {
            "validator_address": "C1134A2FF8F7338E7CDB3FE57DDD2A655DEB1E22",
            "validator_index": "69",
            "height": "40709",
            "round": "1",
            "timestamp": "2018-08-02T02:26:13.180576237Z",
            "type": 2,
            "block_id": {
              "hash": "679BCC25AE8ECEBB48BA433751E29FDD1DAAECA4",
              "parts": {
                "total": "1",
                "hash": "0F6BAAB142EC258EEEC9CE3AF8F95DFF88CD40AE"
              }
            },
            "signature": {
              "type": "tendermint/SignatureEd25519",
              "value": "xqb2PXN6BlDQzqj2kta8/wzq6xdEg4CfQHC5WQclnxLr9tq9wzdE67MWeOsfaFrU+uiRZ0L8OLVxQM4NySazAw=="
            }
          },
          {
            "validator_address": "C39A8A2B85198DCB8F23AD1F6C198E2BA7AB5D60",
            "validator_index": "70",
            "height": "40709",
            "round": "1",
            "timestamp": "2018-08-02T02:26:14.029475878Z",
            "type": 2,
            "block_id": {
              "hash": "679BCC25AE8ECEBB48BA433751E29FDD1DAAECA4",
              "parts": {
                "total": "1",
                "hash": "0F6BAAB142EC258EEEC9CE3AF8F95DFF88CD40AE"
              }
            },
            "signature": {
              "type": "tendermint/SignatureEd25519",
              "value": "kobjI/eafFMtytIPtM69ECDbUqxCa17jU/PL9lAU41Q5IQJhlmZKT7Ns1cmWg+/8wrvquaO0kcuo71r9Ya90CQ=="
            }
          },
          {
            "validator_address": "C4335190C3B5BD4BA5568BC0F99C34162D940D08",
            "validator_index": "71",
            "height": "40709",
            "round": "1",
            "timestamp": "2018-08-02T02:26:14.112826729Z",
            "type": 2,
            "block_id": {
              "hash": "679BCC25AE8ECEBB48BA433751E29FDD1DAAECA4",
              "parts": {
                "total": "1",
                "hash": "0F6BAAB142EC258EEEC9CE3AF8F95DFF88CD40AE"
              }
            },
            "signature": {
              "type": "tendermint/SignatureEd25519",
              "value": "OMOrO7jNny3zXStbMn0+saXBAZP1u2TJ2LRHBKqepXWNBLOLBKgPchAYFiH1HBuHcg0P7UiwyjSdgewFMt4LCQ=="
            }
          },
          {
            "validator_address": "C561CFA081677046376396922E7576E5F7B316AD",
            "validator_index": "72",
            "height": "40709",
            "round": "1",
            "timestamp": "2018-08-02T02:26:14.149398178Z",
            "type": 2,
            "block_id": {
              "hash": "679BCC25AE8ECEBB48BA433751E29FDD1DAAECA4",
              "parts": {
                "total": "1",
                "hash": "0F6BAAB142EC258EEEC9CE3AF8F95DFF88CD40AE"
              }
            },
            "signature": {
              "type": "tendermint/SignatureEd25519",
              "value": "ubdfq8G/r6iCWR/FmoqUAYXdwup7EESpJM6WgvTLozZ5/oYK2Ymupl61fkjxKFT5Q9GlvuUGHq4td7PzrxZgDw=="
            }
          },
          {
            "validator_address": "CE589EA77B056D268D30D1DC1D68A70E0F885E95",
            "validator_index": "73",
            "height": "40709",
            "round": "1",
            "timestamp": "2018-08-02T02:26:13.995926677Z",
            "type": 2,
            "block_id": {
              "hash": "679BCC25AE8ECEBB48BA433751E29FDD1DAAECA4",
              "parts": {
                "total": "1",
                "hash": "0F6BAAB142EC258EEEC9CE3AF8F95DFF88CD40AE"
              }
            },
            "signature": {
              "type": "tendermint/SignatureEd25519",
              "value": "nxgCcrf4POhmQYKnjcJZWZo13B28FHmNJvIMwgi6E9nOJujVwCf3JRp/Jh5SwnSa0/ad8xcK7BgmfalAeZwEBg=="
            }
          },
          {
            "validator_address": "CEB97DB5CB18270247ABDE6CF2F84F9AEE8A2904",
            "validator_index": "74",
            "height": "40709",
            "round": "1",
            "timestamp": "2018-08-02T02:26:15.028202027Z",
            "type": 2,
            "block_id": {
              "hash": "679BCC25AE8ECEBB48BA433751E29FDD1DAAECA4",
              "parts": {
                "total": "1",
                "hash": "0F6BAAB142EC258EEEC9CE3AF8F95DFF88CD40AE"
              }
            },
            "signature": {
              "type": "tendermint/SignatureEd25519",
              "value": "WjpOIpeu1ZNrnalJ9qSHpj+bIZIdWwddwd17FpCoHy3V9RodFXPrJGTSN8W64cCopBNh++DI256LR42d2gO0Dw=="
            }
          },
          {
            "validator_address": "D2134B826A1E25A955905CB79A4D8731CAFA0CCE",
            "validator_index": "75",
            "height": "40709",
            "round": "1",
            "timestamp": "2018-08-02T02:26:14.195716625Z",
            "type": 2,
            "block_id": {
              "hash": "679BCC25AE8ECEBB48BA433751E29FDD1DAAECA4",
              "parts": {
                "total": "1",
                "hash": "0F6BAAB142EC258EEEC9CE3AF8F95DFF88CD40AE"
              }
            },
            "signature": {
              "type": "tendermint/SignatureEd25519",
              "value": "qX7KAraj3LIecjCpXlkFQgxT5wP8e7p+1Z2lLM58DE5gqyugu3g+w9/F12wdvJSJxclYP0iCdWRwKxzNMaAtBQ=="
            }
          },
          {
            "validator_address": "D6285C3422C8886445D53757CBE12D2B91B5A9D0",
            "validator_index": "76",
            "height": "40709",
            "round": "1",
            "timestamp": "2018-08-02T02:25:57.242559194Z",
            "type": 2,
            "block_id": {
              "hash": "679BCC25AE8ECEBB48BA433751E29FDD1DAAECA4",
              "parts": {
                "total": "1",
                "hash": "0F6BAAB142EC258EEEC9CE3AF8F95DFF88CD40AE"
              }
            },
            "signature": {
              "type": "tendermint/SignatureEd25519",
              "value": "vYa1JSiIUPmInPtwkzWIOGVtJSIPrk1wYFvFb4p+fWB60HvPQ6Xk7Fyx2vQLsUU+dCMFJddHGqcaqW3S6cKoBg=="
            }
          },
          {
            "validator_address": "D77FB84A729972CD3E757C9BEB61561855832B92",
            "validator_index": "77",
            "height": "40709",
            "round": "1",
            "timestamp": "2018-08-02T02:26:14.152815225Z",
            "type": 2,
            "block_id": {
              "hash": "679BCC25AE8ECEBB48BA433751E29FDD1DAAECA4",
              "parts": {
                "total": "1",
                "hash": "0F6BAAB142EC258EEEC9CE3AF8F95DFF88CD40AE"
              }
            },
            "signature": {
              "type": "tendermint/SignatureEd25519",
              "value": "x9IRBRj/d5w+wz04LFgIc2jF2RRadojHyb0k+XMaoQK0VCOUHumOy95pgdyIKEzHn1qSQSAJvJC4nNWjqxZkBA=="
            }
          },
          {
            "validator_address": "DB7E6732471D3EA5C90C17A9974D9F88AB45F2FB",
            "validator_index": "78",
            "height": "40709",
            "round": "1",
            "timestamp": "2018-08-02T02:26:14.020449838Z",
            "type": 2,
            "block_id": {
              "hash": "679BCC25AE8ECEBB48BA433751E29FDD1DAAECA4",
              "parts": {
                "total": "1",
                "hash": "0F6BAAB142EC258EEEC9CE3AF8F95DFF88CD40AE"
              }
            },
            "signature": {
              "type": "tendermint/SignatureEd25519",
              "value": "t0t90pc5cB6WWU3OXGVPw0yoAQFl8Jw34tAoJ58sq4xKARDcko9/F7jPzY1vsEUIBqsNNldWGjKdg0g8KXN+CQ=="
            }
          },
          {
            "validator_address": "DF54B862410BCD9B5C516FBB6C56BDC826ED6FA7",
            "validator_index": "79",
            "height": "40709",
            "round": "1",
            "timestamp": "2018-08-02T02:26:14.159737883Z",
            "type": 2,
            "block_id": {
              "hash": "679BCC25AE8ECEBB48BA433751E29FDD1DAAECA4",
              "parts": {
                "total": "1",
                "hash": "0F6BAAB142EC258EEEC9CE3AF8F95DFF88CD40AE"
              }
            },
            "signature": {
              "type": "tendermint/SignatureEd25519",
              "value": "rHr/f3mzXee8RiLk8DtBOqg2J/QxHNJeY0CDspE0mjoGQmuXLt8h9W50A37IUa5Ic7lBDQfDCLf/8GpgZ7y+AA=="
            }
          },
          {
            "validator_address": "DFAF0C8B1B78D6D552B0189DE3ACA351439A1319",
            "validator_index": "80",
            "height": "40709",
            "round": "1",
            "timestamp": "2018-08-02T02:26:14.024939801Z",
            "type": 2,
            "block_id": {
              "hash": "679BCC25AE8ECEBB48BA433751E29FDD1DAAECA4",
              "parts": {
                "total": "1",
                "hash": "0F6BAAB142EC258EEEC9CE3AF8F95DFF88CD40AE"
              }
            },
            "signature": {
              "type": "tendermint/SignatureEd25519",
              "value": "FN/9sV1nC5dNwGzbVt0FOQ6jhp8oPQAEjZxKnBR3HN0zOugsCj+/r0xxkr9Yz7vSoIMJI0Q6apIqH6CAbO5GBA=="
            }
          },
          {
            "validator_address": "E1DBC77881161A5A3A8536A57536EAE546A75D69",
            "validator_index": "81",
            "height": "40709",
            "round": "1",
            "timestamp": "2018-08-02T02:26:14.003547682Z",
            "type": 2,
            "block_id": {
              "hash": "679BCC25AE8ECEBB48BA433751E29FDD1DAAECA4",
              "parts": {
                "total": "1",
                "hash": "0F6BAAB142EC258EEEC9CE3AF8F95DFF88CD40AE"
              }
            },
            "signature": {
              "type": "tendermint/SignatureEd25519",
              "value": "947wawz4NtKOynVNw36NE3ZYcK6ufuZQ/TFHPiS1FCFLgyhfZjwdLW7o3JGRXyzLSjLw9pN6Q2JzuV6V432TBA=="
            }
          },
          {
            "validator_address": "E300E9D484374C1D3E97C1D93CAC3B160A056298",
            "validator_index": "82",
            "height": "40709",
            "round": "1",
            "timestamp": "2018-08-02T02:26:14.286395991Z",
            "type": 2,
            "block_id": {
              "hash": "679BCC25AE8ECEBB48BA433751E29FDD1DAAECA4",
              "parts": {
                "total": "1",
                "hash": "0F6BAAB142EC258EEEC9CE3AF8F95DFF88CD40AE"
              }
            },
            "signature": {
              "type": "tendermint/SignatureEd25519",
              "value": "1aFo6Qj3MJNaUPtgee1UfUdSg1FrP8V721fCjSG9lDurhsLpG9SLY6ptGRZPMNJ6UpK4Pfm106LtqmrkHMLKAg=="
            }
          },
          {
            "validator_address": "E39B5778E0D4297A46F45CF6940B0A163A430FF8",
            "validator_index": "83",
            "height": "40709",
            "round": "1",
            "timestamp": "2018-08-02T02:26:14.018070583Z",
            "type": 2,
            "block_id": {
              "hash": "679BCC25AE8ECEBB48BA433751E29FDD1DAAECA4",
              "parts": {
                "total": "1",
                "hash": "0F6BAAB142EC258EEEC9CE3AF8F95DFF88CD40AE"
              }
            },
            "signature": {
              "type": "tendermint/SignatureEd25519",
              "value": "tyAmilsq8akbYuYYVUPHgT9bly0N2NDtLUsCQktd25+1NXLt+lau3OlzV0iUl/UCj0NU7mF3mq1b6C1eQBBTCQ=="
            }
          },
          {
            "validator_address": "E3B19738F7132F950668504D326C7660F159D170",
            "validator_index": "84",
            "height": "40709",
            "round": "1",
            "timestamp": "2018-08-02T02:26:13.94916193Z",
            "type": 2,
            "block_id": {
              "hash": "679BCC25AE8ECEBB48BA433751E29FDD1DAAECA4",
              "parts": {
                "total": "1",
                "hash": "0F6BAAB142EC258EEEC9CE3AF8F95DFF88CD40AE"
              }
            },
            "signature": {
              "type": "tendermint/SignatureEd25519",
              "value": "V4RRgui3xejJiZJbLqGIqCD8LTq/dMUDwhh+eUg9Ydx1bxqAIOqB/HY9/8Dw6O/MOUpp1k7a1hr4n473m/arCw=="
            }
          },
          {
            "validator_address": "E42F8AEABB685219F7027F54D2B0DBC7846F633A",
            "validator_index": "85",
            "height": "40709",
            "round": "1",
            "timestamp": "2018-08-02T02:26:13.110036943Z",
            "type": 2,
            "block_id": {
              "hash": "679BCC25AE8ECEBB48BA433751E29FDD1DAAECA4",
              "parts": {
                "total": "1",
                "hash": "0F6BAAB142EC258EEEC9CE3AF8F95DFF88CD40AE"
              }
            },
            "signature": {
              "type": "tendermint/SignatureEd25519",
              "value": "n33Wxunq3dHjrwcFhYzk37Clw9ynCBqM+xK6WgNNeo/Gkjq3JA+4Yh6xs3Sj0XJb/C1fpJJBnVt/ksu7DW4yCg=="
            }
          },
          {
            "validator_address": "E4E6C2E81269DFFA196C17F98240E491479A6008",
            "validator_index": "86",
            "height": "40709",
            "round": "1",
            "timestamp": "2018-08-02T02:26:14.087803358Z",
            "type": 2,
            "block_id": {
              "hash": "679BCC25AE8ECEBB48BA433751E29FDD1DAAECA4",
              "parts": {
                "total": "1",
                "hash": "0F6BAAB142EC258EEEC9CE3AF8F95DFF88CD40AE"
              }
            },
            "signature": {
              "type": "tendermint/SignatureEd25519",
              "value": "Px5KskJXHPFLMieivytz4nYOBlwATZoOrq/86B4u5pDgCE4dA/xDJj4fzH2z8Tlulp3/bqqyNoYMHz6F26ClAg=="
            }
          },
          {
            "validator_address": "E4FEB2846F4F3B0ECDCBE9C9DCB2248248A5AF0F",
            "validator_index": "87",
            "height": "40709",
            "round": "1",
            "timestamp": "2018-08-02T02:26:13.746541856Z",
            "type": 2,
            "block_id": {
              "hash": "679BCC25AE8ECEBB48BA433751E29FDD1DAAECA4",
              "parts": {
                "total": "1",
                "hash": "0F6BAAB142EC258EEEC9CE3AF8F95DFF88CD40AE"
              }
            },
            "signature": {
              "type": "tendermint/SignatureEd25519",
              "value": "Kb5EO/70hDj75SG9CKB0lvOmft/Y5QfVCwhXaxE9N+46tYfPm7Xqb0KWuOiV4w3hkwGfBBY9UdUlg3wM2edRDg=="
            }
          },
          {
            "validator_address": "E50ADECD5FD27FA2CD610C07F8AED36A2FC4A6A6",
            "validator_index": "88",
            "height": "40709",
            "round": "1",
            "timestamp": "2018-08-02T02:26:14.064426154Z",
            "type": 2,
            "block_id": {
              "hash": "679BCC25AE8ECEBB48BA433751E29FDD1DAAECA4",
              "parts": {
                "total": "1",
                "hash": "0F6BAAB142EC258EEEC9CE3AF8F95DFF88CD40AE"
              }
            },
            "signature": {
              "type": "tendermint/SignatureEd25519",
              "value": "AMYidMao7rclFipii6Rz/F5mUleBNVn9i01sp6i9BYledKzcvgnCJXJq82AvB6ghMyN59qkQX6bo3Og/Kxz1Cg=="
            }
          },
          {
            "validator_address": "E6A7079D584B163750BE0831227F6B685DEAF3C1",
            "validator_index": "89",
            "height": "40709",
            "round": "1",
            "timestamp": "2018-08-02T02:26:14.171407761Z",
            "type": 2,
            "block_id": {
              "hash": "679BCC25AE8ECEBB48BA433751E29FDD1DAAECA4",
              "parts": {
                "total": "1",
                "hash": "0F6BAAB142EC258EEEC9CE3AF8F95DFF88CD40AE"
              }
            },
            "signature": {
              "type": "tendermint/SignatureEd25519",
              "value": "9atzFgFQPRtyoCnYp4M7MWf9/VluW01PYwh3U7KDTtd2SsiBHr/aEdoe3AuUylIUhEeiaS9ZKJtkbLUTJQFYAA=="
            }
          },
          {
            "validator_address": "E7A30077D5D11867D3EAF99ED45BFDC1EB834509",
            "validator_index": "90",
            "height": "40709",
            "round": "1",
            "timestamp": "2018-08-02T02:26:14.047781462Z",
            "type": 2,
            "block_id": {
              "hash": "679BCC25AE8ECEBB48BA433751E29FDD1DAAECA4",
              "parts": {
                "total": "1",
                "hash": "0F6BAAB142EC258EEEC9CE3AF8F95DFF88CD40AE"
              }
            },
            "signature": {
              "type": "tendermint/SignatureEd25519",
              "value": "LubBOwpsfLOxkinqWIylJiqXBicKB8zPuCd7BIx++oPzBzejntLKefzYOEqb4KBnH+1UmoXRF+NPhJ7e2OGWDA=="
            }
          },
          {
            "validator_address": "EBC613967F66F4EC306852CDF58B4F151CF16738",
            "validator_index": "91",
            "height": "40709",
            "round": "1",
            "timestamp": "2018-08-02T02:26:14.108802095Z",
            "type": 2,
            "block_id": {
              "hash": "679BCC25AE8ECEBB48BA433751E29FDD1DAAECA4",
              "parts": {
                "total": "1",
                "hash": "0F6BAAB142EC258EEEC9CE3AF8F95DFF88CD40AE"
              }
            },
            "signature": {
              "type": "tendermint/SignatureEd25519",
              "value": "i1SaY8dfE3sbQe1OH8RzcOfd7ppYTeBAjkhMmZoNSi+xTgwbXrRYBtR4Fb5IQFA+XDu0rvRsyeP6lEvrUf6zCQ=="
            }
          },
          {
            "validator_address": "EC3401441726C40ECC7E51F744483B05BC6DE9BD",
            "validator_index": "92",
            "height": "40709",
            "round": "1",
            "timestamp": "2018-08-02T02:26:14.009093387Z",
            "type": 2,
            "block_id": {
              "hash": "679BCC25AE8ECEBB48BA433751E29FDD1DAAECA4",
              "parts": {
                "total": "1",
                "hash": "0F6BAAB142EC258EEEC9CE3AF8F95DFF88CD40AE"
              }
            },
            "signature": {
              "type": "tendermint/SignatureEd25519",
              "value": "m89wsS8JhreHA/M1V5Qeq69CCf3THdJ+CJMHLdCnRzqMVvBTjILTyLgzPSnzcuse7G1trg8TzkTJjJZbHybnDw=="
            }
          },
          {
            "validator_address": "EC95B111D032181E1EC3B5E8875C5BB8E4AE7140",
            "validator_index": "93",
            "height": "40709",
            "round": "1",
            "timestamp": "2018-08-02T02:26:13.950052192Z",
            "type": 2,
            "block_id": {
              "hash": "679BCC25AE8ECEBB48BA433751E29FDD1DAAECA4",
              "parts": {
                "total": "1",
                "hash": "0F6BAAB142EC258EEEC9CE3AF8F95DFF88CD40AE"
              }
            },
            "signature": {
              "type": "tendermint/SignatureEd25519",
              "value": "gdCV8J+NW9a4W1sNwLOMpGfC+a4TtH5lzmy+4O9jOqYMWkcDWlleTDxaI0XZ7Guwr9AxyQFnwTFD6x9S+I6ZCA=="
            }
          },
          {
            "validator_address": "F23FF36BD5B90C33CE3A03ED72DBDCF5EC07D6AF",
            "validator_index": "94",
            "height": "40709",
            "round": "1",
            "timestamp": "2018-08-02T02:26:14.109678113Z",
            "type": 2,
            "block_id": {
              "hash": "679BCC25AE8ECEBB48BA433751E29FDD1DAAECA4",
              "parts": {
                "total": "1",
                "hash": "0F6BAAB142EC258EEEC9CE3AF8F95DFF88CD40AE"
              }
            },
            "signature": {
              "type": "tendermint/SignatureEd25519",
              "value": "xTlmqYBaSYNPU6UkzrgcS4d+p34mH/dw1h5WxXCK27f5q4rhSXwvzzeNKwDMFyQ+bkTyvcZJlfk6H5dM2I0VCA=="
            }
          },
          {
            "validator_address": "F4268597DE93E3E2CED38845010F8AA34E2A879E",
            "validator_index": "95",
            "height": "40709",
            "round": "1",
            "timestamp": "2018-08-02T02:26:14.066936207Z",
            "type": 2,
            "block_id": {
              "hash": "679BCC25AE8ECEBB48BA433751E29FDD1DAAECA4",
              "parts": {
                "total": "1",
                "hash": "0F6BAAB142EC258EEEC9CE3AF8F95DFF88CD40AE"
              }
            },
            "signature": {
              "type": "tendermint/SignatureEd25519",
              "value": "oZw8Ur3S0la1GF2FwOWdDkEvi4MFBS5XzfSwckMq8h64NqkKZuowUzJqJKZNriI3r/3ATdIv+JdMUE3esOTEAw=="
            }
          },
          {
            "validator_address": "F4DEB417999B04BE2EFF9FFE03FA373D86011CC0",
            "validator_index": "96",
            "height": "40709",
            "round": "1",
            "timestamp": "2018-08-02T02:26:14.093700337Z",
            "type": 2,
            "block_id": {
              "hash": "679BCC25AE8ECEBB48BA433751E29FDD1DAAECA4",
              "parts": {
                "total": "1",
                "hash": "0F6BAAB142EC258EEEC9CE3AF8F95DFF88CD40AE"
              }
            },
            "signature": {
              "type": "tendermint/SignatureEd25519",
              "value": "FLf3K3R56DZCenMO6z8gMpJa/Cd97h4xT8kUeb8dIR5u8lS/HX3hw04EdVL6TX1A4YwOsQuuqgxh0Oy0KmsABg=="
            }
          },
          {
            "validator_address": "F6738260186D33D9C14FC6E7017AFE6BB952A63D",
            "validator_index": "97",
            "height": "40709",
            "round": "1",
            "timestamp": "2018-08-02T02:26:13.974383025Z",
            "type": 2,
            "block_id": {
              "hash": "679BCC25AE8ECEBB48BA433751E29FDD1DAAECA4",
              "parts": {
                "total": "1",
                "hash": "0F6BAAB142EC258EEEC9CE3AF8F95DFF88CD40AE"
              }
            },
            "signature": {
              "type": "tendermint/SignatureEd25519",
              "value": "C+J6NHBW5qNGuGjYusgePaq21bbWcLmTwHEvovw6V/X2BUlHtc/5wdH7JiLqC+bl9/MsU8FvRkxJNX63eVafBQ=="
            }
          },
          {
            "validator_address": "FD8D304F0278229077114B05BED9DABD382D49D8",
            "validator_index": "98",
            "height": "40709",
            "round": "1",
            "timestamp": "2018-08-02T02:26:14.052672889Z",
            "type": 2,
            "block_id": {
              "hash": "679BCC25AE8ECEBB48BA433751E29FDD1DAAECA4",
              "parts": {
                "total": "1",
                "hash": "0F6BAAB142EC258EEEC9CE3AF8F95DFF88CD40AE"
              }
            },
            "signature": {
              "type": "tendermint/SignatureEd25519",
              "value": "5xFJ1bcZCPYZ4b8ZMAbaVM2785dQAPAQR2TfGCPFzi3qXDnrY/irShlaQByCjCmo74BPNU4jSt0zKIumKhW/CQ=="
            }
          },
          {
            "validator_address": "FF3F3FCBCE7E62D7AD5506FF846EC4518D980515",
            "validator_index": "99",
            "height": "40709",
            "round": "1",
            "timestamp": "2018-08-02T02:26:13.96016915Z",
            "type": 2,
            "block_id": {
              "hash": "679BCC25AE8ECEBB48BA433751E29FDD1DAAECA4",
              "parts": {
                "total": "1",
                "hash": "0F6BAAB142EC258EEEC9CE3AF8F95DFF88CD40AE"
              }
            },
            "signature": {
              "type": "tendermint/SignatureEd25519",
              "value": "J2GRwHxWCdncDnzBvhY0cVbsP883vCDN4SoYul+5wdxjxdGbQJ2S3ZgcalqTjJk7wC98trLdTzrxtHRgRdgKBQ=="
            }
          }
        ]
      }
    },
    "canonical": true
  }
}