{
  "jsonrpc": "2.0",
  "id": "",
  "result": {
    "SignedHeader": {
      "header": {
        "chain_id": "gaia-7004",
        "height": "42643",
        "time": "2018-08-02T05:50:20.401798714Z",
        "num_txs": "0",
        "last_block_id": {
          "hash": "606274F1EF112FB7716BB7CEB3A03D3CEDBC662C",
          "parts": {
            "total": "1",
            "hash": "07FCC98B8EC2A3F78408EADDBC19AC3DF9390566"
          }
        },
        "total_txs": "2008",
        "last_commit_hash": "E309BC5CD27931792CAF049E788F005C9BB4B1FE",
        "data_hash": "",
        "validators_hash": "7F834681D8D9644FE0F706BB6D5A04C077595D31",
        "consensus_hash": "D6B74BB35BDFFD8392340F2A379173548AE188FE",
        "app_hash": "755F0923FFF947F63F3992E573C9D60AEA976890",
        "last_results_hash": "",
        "evidence_hash": ""
      },
      "commit": {
        "block_id": {
          "hash": "89C01A75892749F905326A17B691E6320A8594CA",
          "parts": {
            "total": "1",
            "hash": "9AF8F7E6429CD6B49253337B736D38CC64AC70C9"
          }
        },
        "precommits": [
          {
            "validator_address": "029359C0C768096273A68ABC902A6B17AC8D1D70",
            "validator_index": "0",
            "height": "42643",
            "round": "1",
            "timestamp": "2018-08-02T05:50:21.298227525Z",
            "type": 2,
            "block_id": {
              "hash": "89C01A75892749F905326A17B691E6320A8594CA",
              "parts": {
                "total": "1",
                "hash": "9AF8F7E6429CD6B49253337B736D38CC64AC70C9"
              }
            },
            "signature": {
              "type": "tendermint/SignatureEd25519",
              "value": "HJmlOSidF5rpHBmqVWMH2hwWf0HlzSqSTHt2XUSwYr+T0Rd50TswF63IxncpE1WzuwW2DqMaGcoUmFYpYRz+CA=="
            }
          },
          {
            "validator_address": "02FE4B97A8387F39D1AC19E0C1702B3CC614812F",
            "validator_index": "1",
            "height": "42643",
            "round": "1",
            "timestamp": "2018-08-02T05:50:21.314820338Z",
            "type": 2,
            "block_id": {
              "hash": "89C01A75892749F905326A17B691E6320A8594CA",
              "parts": {
                "total": "1",
                "hash": "9AF8F7E6429CD6B49253337B736D38CC64AC70C9"
              }
            },
            "signature": {
              "type": "tendermint/SignatureEd25519",
              "value": "9ehwoZErlJ6rwbaqQ9DovqAnvzmvMcdma4dZxKBI1F1Lfqdd5M8SIh3P0ZiN5GuTpPMwYF/3UZGazeQVpTQ5DQ=="
            }
          },
          {
            "validator_address": "0548261C50222FD710EB5EBDF03A0E6567B21D20",
            "validator_index": "2",
            "height": "42643",
            "round": "1",
            "timestamp": "2018-08-02T05:50:21.351265627Z",
            "type": 2,
            "block_id": {
              "hash": "89C01A75892749F905326A17B691E6320A8594CA",
              "parts": {
                "total": "1",
                "hash": "9AF8F7E6429CD6B49253337B736D38CC64AC70C9"
              }
            },
            "signature": {
              "type": "tendermint/SignatureEd25519",
              "value": "oSG1myBDQ/gcQhfycWOzljJs2iQxIa97FRVM3LPTWVE6PfOyAvk0e7s+NDZmbCp3N5ECGQHo4yIOk0gclO3HCg=="
            }
          },
          {
            "validator_address": "0665ADBF9B120B7617BF955AA5653A1992C82B11",
            "validator_index": "3",
            "height": "42643",
            "round": "1",
            "timestamp": "2018-08-02T05:50:21.284629099Z",
            "type": 2,
            "block_id": {
              "hash": "89C01A75892749F905326A17B691E6320A8594CA",
              "parts": {
                "total": "1",
                "hash": "9AF8F7E6429CD6B49253337B736D38CC64AC70C9"
              }
            },
            "signature": {
              "type": "tendermint/SignatureEd25519",
              "value": "mWjfYPN4a3iDTfKWdN3kayospGJFxWdNubYfTPTkFtqNtDgL9dH8rvFrQsAOd27wNDW/D6OHnGmekvn4bBJ9CA=="
            }
          },
          {
            "validator_address": "09145E611CC27EEB944FC5A956DDF710F943B9EF",
            "validator_index": "4",
            "height": "42643",
            "round": "1",
            "timestamp": "2018-08-02T05:50:21.26541544Z",
            "type": 2,
            "block_id": {
              "hash": "89C01A75892749F905326A17B691E6320A8594CA",
              "parts": {
                "total": "1",
                "hash": "9AF8F7E6429CD6B49253337B736D38CC64AC70C9"
              }
            },
            "signature": {
              "type": "tendermint/SignatureEd25519",
              "value": "+j9n7U2nMAguYZALlEs7mN2YVqzZPT53v98I1vj54zSMvUBwlkPefJ8uxeqFd7ZRXSq1Z0U9Why7cLsjXvGJAw=="
            }
          },
          {
            "validator_address": "0989D0355A104B67AE0AE028C68FB610690E174B",
            "validator_index": "5",
            "height": "42643",
            "round": "1",
            "timestamp": "2018-08-02T05:50:21.286856354Z",
            "type": 2,
            "block_id": {
              "hash": "89C01A75892749F905326A17B691E6320A8594CA",
              "parts": {
                "total": "1",
                "hash": "9AF8F7E6429CD6B49253337B736D38CC64AC70C9"
              }
            },
            "signature": {
              "type": "tendermint/SignatureEd25519",
              "value": "dHVguwDcW0OgJHAShb5iOknX4yDFILloEEumu2qts1qyqueTQzXfr4ttB8JBBzdvkZPXZKHmp1cthrygWpRODw=="
            }
          },
          {
            "validator_address": "0A692DBFFE9E5DD28E7DECC33CED1AEB4C0D014E",
            "validator_index": "6",
            "height": "42643",
            "round": "1",
            "timestamp": "2018-08-02T05:50:21.305469493Z",
            "type": 2,
            "block_id": {
              "hash": "89C01A75892749F905326A17B691E6320A8594CA",
              "parts": {
                "total": "1",
                "hash": "9AF8F7E6429CD6B49253337B736D38CC64AC70C9"
              }
            },
            "signature": {
              "type": "tendermint/SignatureEd25519",
              "value": "aFOC4+iO1qUcqMkYYtXjXlwlkCX/h8YJYQF5FNctQBMzU0zbJpzbjJS85qU9n+Q9PbuqAgpubxcTCMjOevbaBA=="
            }
          },
          null,
          {
            "validator_address": "1751786EFC085D5331C61168FFFC8202EA151B4E",
            "validator_index": "8",
            "height": "42643",
            "round": "1",
            "timestamp": "2018-08-02T05:50:20.993239669Z",
            "type": 2,
            "block_id": {
              "hash": "89C01A75892749F905326A17B691E6320A8594CA",
              "parts": {
                "total": "1",
                "hash": "9AF8F7E6429CD6B49253337B736D38CC64AC70C9"
              }
            },
            "signature": {
              "type": "tendermint/SignatureEd25519",
              "value": "TJarIEW+aNFFzodF76VJfiw+9kDYNmauDLFfsG/lKK3Q9rtn6Ztm0ODw4rN3Ka73UkZQDH2j2RpOI7NjtXTyDw=="
            }
          },
          {
            "validator_address": "17BB5CD01E8940FAFB948A04D5FA5A0645E5822E",
            "validator_index": "9",
            "height": "42643",
            "round": "1",
            "timestamp": "2018-08-02T05:50:21.256828533Z",
            "type": 2,
            "block_id": {
              "hash": "89C01A75892749F905326A17B691E6320A8594CA",
              "parts": {
                "total": "1",
                "hash": "9AF8F7E6429CD6B49253337B736D38CC64AC70C9"
              }
            },
            "signature": {
              "type": "tendermint/SignatureEd25519",
              "value": "PYwLzf1YS33pn2pp5N6ntT7Ai9DU/cslzfnLwdNh7u2Eg5HZU1Y+/BkCjWDYewfxgQTOCbFcMewN7O/dcdRBDQ=="
            }
          },
          {
            "validator_address": "1C683A87904BC38F05004FE83301A3A3E35447EB",
            "validator_index": "10",
            "height": "42643",
            "round": "1",
            "timestamp": "2018-08-02T05:50:21.350503364Z",
            "type": 2,
            "block_id": {
              "hash": "89C01A75892749F905326A17B691E6320A8594CA",
              "parts": {
                "total": "1",
                "hash": "9AF8F7E6429CD6B49253337B736D38CC64AC70C9"
              }
            },
            "signature": {
              "type": "tendermint/SignatureEd25519",
              "value": "/XfW2gG3jzMNOIJ4v0Ub3azH+cf9bEA9DMPNIEUH4PMbTXSNFoqfxeUS5Y3Ug2laf8we0TVMupi37PAPIH/5CQ=="
            }
          },
          {
            "validator_address": "1E9CE94FD0BA5CFEB901F90BC658D64D85B134D2",
            "validator_index": "11",
            "height": "42643",
            "round": "1",
            "timestamp": "2018-08-02T05:50:21.31608044Z",
            "type": 2,
            "block_id": {
              "hash": "89C01A75892749F905326A17B691E6320A8594CA",
              "parts": {
                "total": "1",
                "hash": "9AF8F7E6429CD6B49253337B736D38CC64AC70C9"
              }
            },
            "signature": {
              "type": "tendermint/SignatureEd25519",
              "value": "2ZQnUiLS8DWntSrG5Qd9Nv0B5lm8vSiFUCZTgj+nWNzV2fQcvJpwKxE4plz0/pa1N7jpyx4bmOZAS7dhameWAg=="
            }
          },
          {
            "validator_address": "1ECD8C5FE1341D74CDC633A245DD56858DE2F9A2",
            "validator_index": "12",
            "height": "42643",
            "round": "1",
            "timestamp": "2018-08-02T05:50:21.379228121Z",
            "type": 2,
            "block_id": {
              "hash": "89C01A75892749F905326A17B691E6320A8594CA",
              "parts": {
                "total": "1",
                "hash": "9AF8F7E6429CD6B49253337B736D38CC64AC70C9"
              }
            },
            "signature": {
              "type": "tendermint/SignatureEd25519",
              "value": "s90DjphDP9d94raerAm9+CXDiDttbqxGDF47Jlue8fQUdygKwuUlvfTmgGuxH+6fyvqcOmRVMqFpPXcVP29ZBw=="
            }
          },
          {
            "validator_address": "1F3A68CAAD483768AA2BF667DEF10F7104C89928",
            "validator_index": "13",
            "height": "42643",
            "round": "1",
            "timestamp": "2018-08-02T05:50:21.300239736Z",
            "type": 2,
            "block_id": {
              "hash": "89C01A75892749F905326A17B691E6320A8594CA",
              "parts": {
                "total": "1",
                "hash": "9AF8F7E6429CD6B49253337B736D38CC64AC70C9"
              }
            },
            "signature": {
              "type": "tendermint/SignatureEd25519",
              "value": "a9yEXa8hqXmBbFPDp6SYKotdI0CpB2qDqkn/8++JMFhhrcUjhb2rr0lb3jnq0QicbXaWtyuDCGgs6AXZK53+BQ=="
            }
          },
          {
            "validator_address": "1F61153F26C2DF27E15874268D30326287323352",
            "validator_index": "14",
            "height": "42643",
            "round": "1",
            "timestamp": "2018-08-02T05:50:21.412805726Z",
            "type": 2,
            "block_id": {
              "hash": "89C01A75892749F905326A17B691E6320A8594CA",
              "parts": {
                "total": "1",
                "hash": "9AF8F7E6429CD6B49253337B736D38CC64AC70C9"
              }
            },
            "signature": {
              "type": "tendermint/SignatureEd25519",
              "value": "OFNuFEYaWTQyyKiM6iB3vPimb4sMxpmM/VldKNkBxQMnmdiPqUAJXuBPo8oahpy5we9MhXjFKMX3HfNZ7B3HAw=="
            }
          },
          {
            "validator_address": "23897586D68E2AC1C78E0EF5BB5DF5C8EAB18F50",
            "validator_index": "15",
            "height": "42643",
            "round": "1",
            "timestamp": "2018-08-02T05:50:21.30309623Z",
            "type": 2,
            "block_id": {
              "hash": "89C01A75892749F905326A17B691E6320A8594CA",
              "parts": {
                "total": "1",
                "hash": "9AF8F7E6429CD6B49253337B736D38CC64AC70C9"
              }
            },
            "signature": {
              "type": "tendermint/SignatureEd25519",
              "value": "dyoF/qZfhA0qHrcUS/ezRhmZQ28W3GKXjC+UDsWA4pjVuXUGsmvHrIGb1r6PRZJY+GD6fMJPYdHtYYfoq/lpAw=="
            }
          },
          {
            "validator_address": "28770D17E8530825E7310A0659308654B7EC9682",
            "validator_index": "16",
            "height": "42643",
            "round": "1",
            "timestamp": "2018-08-02T05:50:21.2355653Z",
            "type": 2,
            "block_id": {
              "hash": "89C01A75892749F905326A17B691E6320A8594CA",
              "parts": {
                "total": "1",
                "hash": "9AF8F7E6429CD6B49253337B736D38CC64AC70C9"
              }
            },
            "signature": {
              "type": "tendermint/SignatureEd25519",
              "value": "JAiIhB7AGuLs2MqHP4fzudLpk3uOSaou9HWn8d9yYYWv1go3m96y1PQN2WGbgQUF4IZFG7oQVq095SE/TS7OCw=="
            }
          },
          {
            "validator_address": "2A92EC3C642140202298D0E245095E0ECFC25228",
            "validator_index": "17",
            "height": "42643",
            "round": "1",
            "timestamp": "2018-08-02T05:50:21.34353377Z",
            "type": 2,
            "block_id": {
              "hash": "89C01A75892749F905326A17B691E6320A8594CA",
              "parts": {
                "total": "1",
                "hash": "9AF8F7E6429CD6B49253337B736D38CC64AC70C9"
              }
            },
            "signature": {
              "type": "tendermint/SignatureEd25519",
              "value": "N7+8INhOsneWIb25L4ay2sE6ux1zoANw+AjpeenFVF2wiB7B4OzmwiipQQeUZB6Y8ZS34HpsoBuawtcAKm2ZCQ=="
            }
          },
          null,
          {
            "validator_address": "36E9B7FAEC964F97D84C028ED62493E373AD0B38",
            "validator_index": "19",
            "height": "42643",
            "round": "1",
            "timestamp": "2018-08-02T05:50:21.431625843Z",
            "type": 2,
            "block_id": {
              "hash": "89C01A75892749F905326A17B691E6320A8594CA",
              "parts": {
                "total": "1",
                "hash": "9AF8F7E6429CD6B49253337B736D38CC64AC70C9"
              }
            },
            "signature": {
              "type": "tendermint/SignatureEd25519",
              "value": "ww+oOvp2k8X3jWVLsER9IRgT7gkf/ISMhA+8kWz8afdt4b2Jsavz+GxnWE9tymaSomlBpqTblD9NNi44RER/AQ=="
            }
          },
          {
            "validator_address": "38A8D85D36BEA2E5FCF8A1E778F53628E450EF13",
            "validator_index": "20",
            "height": "42643",
            "round": "1",
            "timestamp": "2018-08-02T05:50:21.479894847Z",
            "type": 2,
            "block_id": {
              "hash": "89C01A75892749F905326A17B691E6320A8594CA",
              "parts": {
                "total": "1",
                "hash": "9AF8F7E6429CD6B49253337B736D38CC64AC70C9"
              }
            },
            "signature": {
              "type": "tendermint/SignatureEd25519",
              "value": "IyTzwZusIveFWQiDBmuedJEYQZwD0uHmGr3JrxMShfuxBeMCKIOjmPnB+LjhFanj077cMjFSM6IQzD7eWB0sCg=="
            }
          },
          {
            "validator_address": "39DFDA0C5DB84B269642188B23253508537798E6",
            "validator_index": "21",
            "height": "42643",
            "round": "1",
            "timestamp": "2018-08-02T05:50:21.2739357Z",
            "type": 2,
            "block_id": {
              "hash": "89C01A75892749F905326A17B691E6320A8594CA",
              "parts": {
                "total": "1",
                "hash": "9AF8F7E6429CD6B49253337B736D38CC64AC70C9"
              }
            },
            "signature": {
              "type": "tendermint/SignatureEd25519",
              "value": "b9cLc/GVeRcX3W+hxTfehkJoQRsldq1jUr5l+K+QGG8tE1tLKOUw9xP7EZGDr31jftqr3mfzXyZ+Rly3f5T1AQ=="
            }
          },
          {
            "validator_address": "3AC99B708404452366E0953A4BE849226DC86CBC",
            "validator_index": "22",
            "height": "42643",
            "round": "1",
            "timestamp": "2018-08-02T05:50:21.378733927Z",
            "type": 2,
            "block_id": {
              "hash": "89C01A75892749F905326A17B691E6320A8594CA",
              "parts": {
                "total": "1",
                "hash": "9AF8F7E6429CD6B49253337B736D38CC64AC70C9"
              }
            },
            "signature": {
              "type": "tendermint/SignatureEd25519",
              "value": "ZdvT1oin43aMSxDtx/+UwBx8XccTFJRSFt4Hi9Zxh8FyfG0EmzIn5bD1EGfsi73guHhifDy4dcH0mrWTaYRTDA=="
            }
          },
          {
            "validator_address": "3DCB822A10ED319EC7C4393D8E3FD4A41B15AAF2",
            "validator_index": "23",
            "height": "42643",
            "round": "1",
            "timestamp": "2018-08-02T05:50:21.266304623Z",
            "type": 2,
            "block_id": {
              "hash": "89C01A75892749F905326A17B691E6320A8594CA",
              "parts": {
                "total": "1",
                "hash": "9AF8F7E6429CD6B49253337B736D38CC64AC70C9"
              }
            },
            "signature": {
              "type": "tendermint/SignatureEd25519",
              "value": "0quPhEpvZ3kN0CsxnL6oVQrj4rdZkQYcLRM2RZL/Vb8PSVUdUjgC3gLDdLmG7u5UDDQbLkkBxuSGdQDwQwQwAA=="
            }
          },
          {
            "validator_address": "3E899BA36A93C7370347BD5FE85909F2ECD93F8C",
            "validator_index": "24",
            "height": "42643",
            "round": "1",
            "timestamp": "2018-08-02T05:50:21.294322736Z",
            "type": 2,
            "block_id": {
              "hash": "89C01A75892749F905326A17B691E6320A8594CA",
              "parts": {
                "total": "1",
                "hash": "9AF8F7E6429CD6B49253337B736D38CC64AC70C9"
              }
            },
            "signature": {
              "type": "tendermint/SignatureEd25519",
              "value": "833JMw8oc+k0Uvn6opk1F8rysZvnrPYE6Wp08wAfvrMTqkbscChy5XtdWFOIaS2ekWLLXCU7lMRyr4kZrdwTAA=="
            }
          },
          {
            "validator_address": "41CAB2E29E7D0F2282E3275938F188FF9386B84C",
            "validator_index": "25",
            "height": "42643",
            "round": "1",
            "timestamp": "2018-08-02T05:50:21.244937526Z",
            "type": 2,
            "block_id": {
              "hash": "89C01A75892749F905326A17B691E6320A8594CA",
              "parts": {
                "total": "1",
                "hash": "9AF8F7E6429CD6B49253337B736D38CC64AC70C9"
              }
            },
            "signature": {
              "type": "tendermint/SignatureEd25519",
              "value": "VEM4Bka0sIsJyiGhztEZ0oy8LS+avcuKuT9L3KX18wZ5bd1BeTj47/KU4UmKnBdTtXSzr2ryrIeBFRpF/stsAA=="
            }
          },
          {
            "validator_address": "462B656869DB02A8FD1077E255F8CC7401DC37C6",
            "validator_index": "26",
            "height": "42643",
            "round": "1",
            "timestamp": "2018-08-02T05:50:21.283973235Z",
            "type": 2,
            "block_id": {
              "hash": "89C01A75892749F905326A17B691E6320A8594CA",
              "parts": {
                "total": "1",
                "hash": "9AF8F7E6429CD6B49253337B736D38CC64AC70C9"
              }
            },
            "signature": {
              "type": "tendermint/SignatureEd25519",
              "value": "NyWBwU6yLP+0v6SxnXFUmFzliiXcOUTFCiR9wQn0izGWJ3F4DFwKf4p/dlE+0HBux//bH7EbI2Iwad1RXjpFBw=="
            }
          },
          {
            "validator_address": "48E5118163E5442068A1B5A42D2EEDBB75724935",
            "validator_index": "27",
            "height": "42643",
            "round": "1",
            "timestamp": "2018-08-02T05:50:21.411277427Z",
            "type": 2,
            "block_id": {
              "hash": "89C01A75892749F905326A17B691E6320A8594CA",
              "parts": {
                "total": "1",
                "hash": "9AF8F7E6429CD6B49253337B736D38CC64AC70C9"
              }
            },
            "signature": {
              "type": "tendermint/SignatureEd25519",
              "value": "nb/cxjDASpBBAIEvsxyV3geeG2qFaIGXiAKNbQIMyPtlSZGGf3tdlw6cH6HWNEEvRZWQ9TG436lhosAVz+rxDg=="
            }
          },
          {
            "validator_address": "49103C58AFD9C7C069F55EBA218F3DFD9AEA74F9",
            "validator_index": "28",
            "height": "42643",
            "round": "1",
            "timestamp": "2018-08-02T05:50:21.320274251Z",
            "type": 2,
            "block_id": {
              "hash": "89C01A75892749F905326A17B691E6320A8594CA",
              "parts": {
                "total": "1",
                "hash": "9AF8F7E6429CD6B49253337B736D38CC64AC70C9"
              }
            },
            "signature": {
              "type": "tendermint/SignatureEd25519",
              "value": "YXcSDmcWZ7XMSODRS6fRo+HzPLjK5GOR0RoK1Vn090FfmLu+XguuYyJahvG/USDoHl08vbuSr6dlKM0iuS4TBA=="
            }
          },
          {
            "validator_address": "4944F8BBBB5303E17BC0607DF332320EDBC750EA",
            "validator_index": "29",
            "height": "42643",
            "round": "1",
            "timestamp": "2018-08-02T05:50:21.249293754Z",
            "type": 2,
            "block_id": {
              "hash": "89C01A75892749F905326A17B691E6320A8594CA",
              "parts": {
                "total": "1",
                "hash": "9AF8F7E6429CD6B49253337B736D38CC64AC70C9"
              }
            },
            "signature": {
              "type": "tendermint/SignatureEd25519",
              "value": "20Xf1OKbSltsNbxB5J0/eP/pahOZVYnk0CbsZ0m8B6H9TpxJrTGPBYlcIsgmVcnHQOZoOGuidplSYqhug564AA=="
            }
          },
          {
            "validator_address": "49841599DE675157CBE1E7D6B35BF8FFC23BD5CB",
            "validator_index": "30",
            "height": "42643",
            "round": "1",
            "timestamp": "2018-08-02T05:50:21.274803956Z",
            "type": 2,
            "block_id": {
              "hash": "89C01A75892749F905326A17B691E6320A8594CA",
              "parts": {
                "total": "1",
                "hash": "9AF8F7E6429CD6B49253337B736D38CC64AC70C9"
              }
            },
            "signature": {
              "type": "tendermint/SignatureEd25519",
              "value": "/MB0Y8idztzSmKLPMgUBp4XtVCaSD5AE22CJvSAi5xFOLEtPlI+kuDbRzF4Tq7UECqqhkICcF7UitdrIHCFIBA=="
            }
          },
          {
            "validator_address": "51386C2CF9556821D114D7E4945806802BADB28D",
            "validator_index": "31",
            "height": "42643",
            "round": "1",
            "timestamp": "2018-08-02T05:50:21.322865532Z",
            "type": 2,
            "block_id": {
              "hash": "89C01A75892749F905326A17B691E6320A8594CA",
              "parts": {
                "total": "1",
                "hash": "9AF8F7E6429CD6B49253337B736D38CC64AC70C9"
              }
            },
            "signature": {
              "type": "tendermint/SignatureEd25519",
              "value": "16XEAvfLEh18FErKZZPToMZNfdsWVeRV43INePuQtpFET1fDdWxshpnAowlHuC9QK5VwLE4e/Kx/12BBcT9+Bg=="
            }
          },
          {
            "validator_address": "543564ECA3AFEFADC73EE8591AAC3A96F079BC8A",
            "validator_index": "32",
            "height": "42643",
            "round": "1",
            "timestamp": "2018-08-02T05:50:21.253230467Z",
            "type": 2,
            "block_id": {
              "hash": "89C01A75892749F905326A17B691E6320A8594CA",
              "parts": {
                "total": "1",
                "hash": "9AF8F7E6429CD6B49253337B736D38CC64AC70C9"
              }
            },
            "signature": {
              "type": "tendermint/SignatureEd25519",
              "value": "+if0vcx8knBHs7JHil9ZW/G6E3K2MjKEnjQ3dQKeji7Z1tfv9HB4KX1K3PJx6RwExSVu7EUlNxyAeMsPkJgBCA=="
            }
          },
          {
            "validator_address": "55D67B1A6DC13E96F8754A5A42EABC20F7F86664",
            "validator_index": "33",
            "height": "42643",
            "round": "1",
            "timestamp": "2018-08-02T05:50:21.266980966Z",
            "type": 2,
            "block_id": {
              "hash": "89C01A75892749F905326A17B691E6320A8594CA",
              "parts": {
                "total": "1",
                "hash": "9AF8F7E6429CD6B49253337B736D38CC64AC70C9"
              }
            },
            "signature": {
              "type": "tendermint/SignatureEd25519",
              "value": "/Q4KZaDKVvK/JCB8FNb2KUP3Q+qnkUkZO9IH2spOvkfLx6xbrUTi6m8IhiUWNLWjYjtYpDIEBLVoThSuvzYzAg=="
            }
          },
          {
            "validator_address": "570B6A755ED339EAC56BB3390A48069F6AC9449B",
            "validator_index": "34",
            "height": "42643",
            "round": "1",
            "timestamp": "2018-08-02T05:50:30.197679039Z",
            "type": 2,
            "block_id": {
              "hash": "89C01A75892749F905326A17B691E6320A8594CA",
              "parts": {
                "total": "1",
                "hash": "9AF8F7E6429CD6B49253337B736D38CC64AC70C9"
              }
            },
            "signature": {
              "type": "tendermint/SignatureEd25519",
              "value": "COkw1Zf1UhdQJ5/5MyfcHOKJUGB3w36A6Wh+VLP65E7qGaPMNvZ2UXDruWkLs5n4rpYcZ0lBmiIFN6LqPG7OCw=="
            }
          },
          {
            "validator_address": "5BDF8EA41B1835FBAD865B181A2A4B23F511B5E4",
            "validator_index": "35",
            "height": "42643",
            "round": "1",
            "timestamp": "2018-08-02T05:50:21.260243343Z",
            "type": 2,
            "block_id": {
              "hash": "89C01A75892749F905326A17B691E6320A8594CA",
              "parts": {
                "total": "1",
                "hash": "9AF8F7E6429CD6B49253337B736D38CC64AC70C9"
              }
            },
            "signature": {
              "type": "tendermint/SignatureEd25519",
              "value": "bQe71o96CD+zg4Nna9NRWDf9hwo+hWa9TOeP/iRDVkwteIWyjaD3sCaPNUi8JtIpd1VswS8U+ABWmX0I9HANAA=="
            }
          },
          {
            "validator_address": "60229E2E273297FE00219E46DFFB8F76844CDEF9",
            "validator_index": "36",
            "height": "42643",
            "round": "1",
            "timestamp": "2018-08-02T05:50:18.87627109Z",
            "type": 2,
            "block_id": {
              "hash": "89C01A75892749F905326A17B691E6320A8594CA",
              "parts": {
                "total": "1",
                "hash": "9AF8F7E6429CD6B49253337B736D38CC64AC70C9"
              }
            },
            "signature": {
              "type": "tendermint/SignatureEd25519",
              "value": "qFM6Ob1qJTCtS84BrhdembAdXA4ouqSZTDtvsFaJigRrVSjJ0Cn79h7bAvzlEDPyhjyyZ0wcrD1rFun9HH6ZAA=="
            }
          },
          {
            "validator_address": "62410D6D1CD98278136E4D0738AA0EA273CDFC54",
            "validator_index": "37",
            "height": "42643",
            "round": "1",
            "timestamp": "2018-08-02T05:50:21.279056079Z",
            "type": 2,
            "block_id": {
              "hash": "89C01A75892749F905326A17B691E6320A8594CA",
              "parts": {
                "total": "1",
                "hash": "9AF8F7E6429CD6B49253337B736D38CC64AC70C9"
              }
            },
            "signature": {
              "type": "tendermint/SignatureEd25519",
              "value": "VgjpBnfSCd/VoK3v4PJguOcZkOD0ZNE4IQiF6QlurrPY/yOI7//dxxzzzTff0hyh19demSnasPspydDctXCyCg=="
            }
          },
          {
            "validator_address": "632F5C139A5A9DFBFE5111DEE29FCFB6157207DC",
            "validator_index": "38",
            "height": "42643",
            "round": "1",
            "timestamp": "2018-08-02T05:50:21.389004451Z",
            "type": 2,
            "block_id": {
              "hash": "89C01A75892749F905326A17B691E6320A8594CA",
              "parts": {
                "total": "1",
                "hash": "9AF8F7E6429CD6B49253337B736D38CC64AC70C9"
              }
            },
            "signature": {
              "type": "tendermint/SignatureEd25519",
              "value": "AV9fggiC4R32wf1o3MLrVvjtuFBAsz9lDNFfLTXgbTmxIfJm7hJ+hoJvJqeHb5Dxox63xyDCNVYrYjm0KUr6Bw=="
            }
          },
          {
            "validator_address": "64F57F8E796A9B7B590C1EFA4123988C86631D39",
            "validator_index": "39",
            "height": "42643",
            "round": "1",
            "timestamp": "2018-08-02T05:50:21.260191182Z",
            "type": 2,
            "block_id": {
              "hash": "89C01A75892749F905326A17B691E6320A8594CA",
              "parts": {
                "total": "1",
                "hash": "9AF8F7E6429CD6B49253337B736D38CC64AC70C9"
              }
            },
            "signature": {
              "type": "tendermint/SignatureEd25519",
              "value": "2oMczVANo6WO0p1iiU5T+2oMOSZuKjAxjrXAYEttnIIXhkeXuF2SMlVUam6qSYNkZPnJibBlfLa27qAWNPF7Aw=="
            }
          },
          {
            "validator_address": "69D99B2C66043ACBEAA8447525C356AFC6408E0C",
            "validator_index": "40",
            "height": "42643",
            "round": "1",
            "timestamp": "2018-08-02T05:50:21.357653975Z",
            "type": 2,
            "block_id": {
              "hash": "89C01A75892749F905326A17B691E6320A8594CA",
              "parts": {
                "total": "1",
                "hash": "9AF8F7E6429CD6B49253337B736D38CC64AC70C9"
              }
            },
            "signature": {
              "type": "tendermint/SignatureEd25519",
              "value": "cvsTLho5JWppC2kdroglHAiDX02aDJyKY4PDYfwpXK/v0dwWUYsAtN70tcLQUEMCEJMWlyKH6NY6TRQ+kJjcCQ=="
            }
          },
          {
            "validator_address": "69EDADFA4A803E9DBF548C900D4A465E7D154262",
            "validator_index": "41",
            "height": "42643",
            "round": "1",
            "timestamp": "2018-08-02T05:50:21.381442538Z",
            "type": 2,
            "block_id": {
              "hash": "89C01A75892749F905326A17B691E6320A8594CA",
              "parts": {
                "total": "1",
                "hash": "9AF8F7E6429CD6B49253337B736D38CC64AC70C9"
              }
            },
            "signature": {
              "type": "tendermint/SignatureEd25519",
              "value": "TByzk1//U3P70gdXUuyIfVtrckNdb1Bjf0wn8KQav3fKIraGlMsOnba7wpP4SfxDr9NHdlMXCvEQYRRJGsyFDg=="
            }
          },
          {
            "validator_address": "6D3AD380E398D8592B03AA124BAFED5F125DF863",
            "validator_index": "42",
            "height": "42643",
            "round": "1",
            "timestamp": "2018-08-02T05:49:18.691776992Z",
            "type": 2,
            "block_id": {
              "hash": "89C01A75892749F905326A17B691E6320A8594CA",
              "parts": {
                "total": "1",
                "hash": "9AF8F7E6429CD6B49253337B736D38CC64AC70C9"
              }
            },
            "signature": {
              "type": "tendermint/SignatureEd25519",
              "value": "WpFiHLpZRukXMqU4sAhhbGnkLiQbR1S2F/mxcgCq/W0EXyM6niZs2YMbw84pb7mBxH3FUdMi4v5BGq7Hf5zEDA=="
            }
          },
          {
            "validator_address": "6F6C93B8BF3495063FEC9B5C771158607F4AE9D6",
            "validator_index": "43",
            "height": "42643",
            "round": "1",
            "timestamp": "2018-08-02T05:50:21.606015903Z",
            "type": 2,
            "block_id": {
              "hash": "89C01A75892749F905326A17B691E6320A8594CA",
              "parts": {
                "total": "1",
                "hash": "9AF8F7E6429CD6B49253337B736D38CC64AC70C9"
              }
            },
            "signature": {
              "type": "tendermint/SignatureEd25519",
              "value": "ZvQ/btdw5Qsu4kC3eTUnXejDADuyg4PAIhey861/48rEkOxO8IeRk0xy1mBLa/lFs08/DbaSpzLTyaLzeF7HAQ=="
            }
          },
          {
            "validator_address": "732CEEF54C374DDC6ADECBFD707AEFD07FEDC143",
            "validator_index": "44",
            "height": "42643",
            "round": "1",
            "timestamp": "2018-08-02T05:50:21.36570368Z",
            "type": 2,
            "block_id": {
              "hash": "89C01A75892749F905326A17B691E6320A8594CA",
              "parts": {
                "total": "1",
                "hash": "9AF8F7E6429CD6B49253337B736D38CC64AC70C9"
              }
            },
            "signature": {
              "type": "tendermint/SignatureEd25519",
              "value": "kdGIE43n8lFqcbFSKIcRdGKIJS/Ar2rktf3jV65VyBz9D2NipQN2L52oZ5pocXMctukUnxRRKYQXJbVuX+vFCg=="
            }
          },
          {
            "validator_address": "751E43437224E8BB6D1569B3E2B2616B6E7F4397",
            "validator_index": "45",
            "height": "42643",
            "round": "1",
            "timestamp": "2018-08-02T05:50:21.256008647Z",
            "type": 2,
            "block_id": {
              "hash": "89C01A75892749F905326A17B691E6320A8594CA",
              "parts": {
                "total": "1",
                "hash": "9AF8F7E6429CD6B49253337B736D38CC64AC70C9"
              }
            },
            "signature": {
              "type": "tendermint/SignatureEd25519",
              "value": "kY/osqIhOMrDIYun0oaN6SoDNQ14XOZnQFAi925iIWvHMWYg7ug1eh81jVz+9FFi9vXyyEyllSv2XFuBHMLmCg=="
            }
          },
          {
            "validator_address": "7EB7593F519F1180C7E872D0494611464EDF03AE",
            "validator_index": "46",
            "height": "42643",
            "round": "1",
            "timestamp": "2018-08-02T05:50:21.622333572Z",
            "type": 2,
            "block_id": {
              "hash": "89C01A75892749F905326A17B691E6320A8594CA",
              "parts": {
                "total": "1",
                "hash": "9AF8F7E6429CD6B49253337B736D38CC64AC70C9"
              }
            },
            "signature": {
              "type": "tendermint/SignatureEd25519",
              "value": "qfQ/0MsfZp+IVOtKBa9EBG9XINZ2n2/cYYYkUKwxHiWGyWC2eiLxhb4v4o7CkpYQJ8iHQvMgRUSlnk4drVnnBw=="
            }
          },
          {
            "validator_address": "8356899C8853BC6640D76F76E59743FFEEA57B81",
            "validator_index": "47",
            "height": "42643",
            "round": "1",
            "timestamp": "2018-08-02T05:50:21.297712659Z",
            "type": 2,
            "block_id": {
              "hash": "89C01A75892749F905326A17B691E6320A8594CA",
              "parts": {
                "total": "1",
                "hash": "9AF8F7E6429CD6B49253337B736D38CC64AC70C9"
              }
            },
            "signature": {
              "type": "tendermint/SignatureEd25519",
              "value": "PtIsdTDgbPBSYYRChvhPWBhRqU5JYz+v+zpvsx7MDDC6mMEgc0mMuq8N1hFgmtkTaNBlbUaiTM4ZFTb82MUQDA=="
            }
          },
          {
            "validator_address": "83AB321E012C57746689FED3A6064DF331F81007",
            "validator_index": "48",
            "height": "42643",
            "round": "1",
            "timestamp": "2018-08-02T05:50:21.34555533Z",
            "type": 2,
            "block_id": {
              "hash": "89C01A75892749F905326A17B691E6320A8594CA",
              "parts": {
                "total": "1",
                "hash": "9AF8F7E6429CD6B49253337B736D38CC64AC70C9"
              }
            },
            "signature": {
              "type": "tendermint/SignatureEd25519",
              "value": "Ddbzv4f6ZFO9Mb+fwLg8T9EyjcgARkyz7fgZw3ajIOEw2nyUS9wO7WftpK6SKRdqN2N8QhEAlU1hkrUl+xEnAQ=="
            }
          },
          {
            "validator_address": "8F06FE1FD042683C426137FBC4BBAA4288924217",
            "validator_index": "49",
            "height": "42643",
            "round": "1",
            "timestamp": "2018-08-02T05:50:21.327315593Z",
            "type": 2,
            "block_id": {
              "hash": "89C01A75892749F905326A17B691E6320A8594CA",
              "parts": {
                "total": "1",
                "hash": "9AF8F7E6429CD6B49253337B736D38CC64AC70C9"
              }
            },
            "signature": {
              "type": "tendermint/SignatureEd25519",
              "value": "XEBP7lFtDzl9g8NMuyl4g5NDamE7FpZ8EKncqnRdoB/fWYSpq1JW8ICVXUa2QJK59i+9E0lK5OcORvdcA2jmDw=="
            }
          },
          null,
          {
            "validator_address": "95980831E186F2540F6E9FB6C8E74DE2401405AC",
            "validator_index": "51",
            "height": "42643",
            "round": "1",
            "timestamp": "2018-08-02T05:50:21.323695299Z",
            "type": 2,
            "block_id": {
              "hash": "89C01A75892749F905326A17B691E6320A8594CA",
              "parts": {
                "total": "1",
                "hash": "9AF8F7E6429CD6B49253337B736D38CC64AC70C9"
              }
            },
            "signature": {
              "type": "tendermint/SignatureEd25519",
              "value": "ViXl00B6RxhXb0DZ2zDgcJUw4q63nHB3jjnwUjYIhTXeDFmD92aMBwmoSIc5pNfgCt8lpLpJBM/Ap6wlCvMVDA=="
            }
          },
          {
            "validator_address": "95FAFBC1E0579C83D290A063020CE87C5334BD9B",
            "validator_index": "52",
            "height": "42643",
            "round": "1",
            "timestamp": "2018-08-02T05:50:21.275382338Z",
            "type": 2,
            "block_id": {
              "hash": "89C01A75892749F905326A17B691E6320A8594CA",
              "parts": {
                "total": "1",
                "hash": "9AF8F7E6429CD6B49253337B736D38CC64AC70C9"
              }
            },
            "signature": {
              "type": "tendermint/SignatureEd25519",
              "value": "veevfL+YNgNpGGbZEXLU0eMxCyVRojuSxMKEUDJuUusjuGLM1K8dLf7j7Qlyu+gOQ0dzNATMoKJ12ixbElClCw=="
            }
          },
          {
            "validator_address": "96BDE45EC52606CF5CB59853097871AD60680549",
            "validator_index": "53",
            "height": "42643",
            "round": "1",
            "timestamp": "2018-08-02T05:50:21.245170097Z",
            "type": 2,
            "block_id": {
              "hash": "89C01A75892749F905326A17B691E6320A8594CA",
              "parts": {
                "total": "1",
                "hash": "9AF8F7E6429CD6B49253337B736D38CC64AC70C9"
              }
            },
            "signature": {
              "type": "tendermint/SignatureEd25519",
              "value": "eMseRDPg7i3UB41KMz3shcbErwl0QPkDH507HfGYmkrao+kKIqj+b0IKR0cNKwr4wgRAEUKslU9TObjjl30KCg=="
            }
          },
          {
            "validator_address": "970CD321881185BF83DB2923C321B0E75FDBB2B8",
            "validator_index": "54",
            "height": "42643",
            "round": "1",
            "timestamp": "2018-08-02T05:50:21.392365408Z",
            "type": 2,
            "block_id": {
              "hash": "89C01A75892749F905326A17B691E6320A8594CA",
              "parts": {
                "total": "1",
                "hash": "9AF8F7E6429CD6B49253337B736D38CC64AC70C9"
              }
            },
            "signature": {
              "type": "tendermint/SignatureEd25519",
              "value": "/CIIeoU+6S+kjj1hxf+qjDezssGOfHuEqf6uq53mgJFQ3QhWwTnMjKEX39YEAs+m3AhezGdMG2jUFJK0Am5IAQ=="
            }
          },
          {
            "validator_address": "97DBB3D4B3D6C29287244864448F651DD5B07390",
            "validator_index": "55",
            "height": "42643",
            "round": "1",
            "timestamp": "2018-08-02T05:50:21.398051071Z",
            "type": 2,
            "block_id": {
              "hash": "89C01A75892749F905326A17B691E6320A8594CA",
              "parts": {
                "total": "1",
                "hash": "9AF8F7E6429CD6B49253337B736D38CC64AC70C9"
              }
            },
            "signature": {
              "type": "tendermint/SignatureEd25519",
              "value": "xPTBq9n1gkwxaNWrRIMZb/RvltvWtKJmztPS4adpE+SDg6UU1uRbTEX3OOGKsU6s3mz0M4FlmFgbILnH5OOeDQ=="
            }
          },
          {
            "validator_address": "9C29C9B76D27586E4D9AD2AED0E943162645E55C",
            "validator_index": "56",
            "height": "42643",
            "round": "1",
            "timestamp": "2018-08-02T05:50:21.282297562Z",
            "type": 2,
            "block_id": {
              "hash": "89C01A75892749F905326A17B691E6320A8594CA",
              "parts": {
                "total": "1",
                "hash": "9AF8F7E6429CD6B49253337B736D38CC64AC70C9"
              }
            },
            "signature": {
              "type": "tendermint/SignatureEd25519",
              "value": "fSVWBMMEWOXTp8k+YTSctOdP841SOq0F6ETNAHmGY3gGiOlT2I/xNYdU306gu74s8zS2KkmHVsMHhGvJJJ/eAw=="
            }
          },
          {
            "validator_address": "9D93AD02FE1BD7E76B9E58D7EB461088EAD011E5",
            "validator_index": "57",
            "height": "42643",
            "round": "1",
            "timestamp": "2018-08-02T05:50:21.316818528Z",
            "type": 2,
            "block_id": {
              "hash": "89C01A75892749F905326A17B691E6320A8594CA",
              "parts": {
                "total": "1",
                "hash": "9AF8F7E6429CD6B49253337B736D38CC64AC70C9"
              }
            },
            "signature": {
              "type": "tendermint/SignatureEd25519",
              "value": "Ga1Z4ZQtIumtSXyF0iIxBnloErOeYZ9zEhZK9vn9RBaXeLi4IO7+i8NaFvGlkn0oB/7kWe7y7bWxq/s8btwvCQ=="
            }
          },
          {
            "validator_address": "A0A6466F4ABEA09C3B55E3709AFDE217A103209F",
            "validator_index": "58",
            "height": "42643",
            "round": "1",
            "timestamp": "2018-08-02T05:50:21.274444223Z",
            "type": 2,
            "block_id": {
              "hash": "89C01A75892749F905326A17B691E6320A8594CA",
              "parts": {
                "total": "1",
                "hash": "9AF8F7E6429CD6B49253337B736D38CC64AC70C9"
              }
            },
            "signature": {
              "type": "tendermint/SignatureEd25519",
              "value": "0Yj/zRlKF314TV0kn71sUJGbCZQGI++HU18vXhMF+QzgEBqkx5HVcJYRZGksdS+SPm4sr2BJkti0QnqrFjm/DQ=="
            }
          },
          {
            "validator_address": "A5868971300F155020634D7BB49C7634F7AACCD3",
            "validator_index": "59",
            "height": "42643",
            "round": "1",
            "timestamp": "2018-08-02T05:50:21.264369659Z",
            "type": 2,
            "block_id": {
              "hash": "89C01A75892749F905326A17B691E6320A8594CA",
              "parts": {
                "total": "1",
                "hash": "9AF8F7E6429CD6B49253337B736D38CC64AC70C9"
              }
            },
            "signature": {
              "type": "tendermint/SignatureEd25519",
              "value": "6fn7A4rGygjcczsNjhSEYIew9EPPzOLhKNc+Xtkf2Hm+VlGQtcJ+lWaqDiV5phFOrBjEjeTqXAYLVgVV6yW5CA=="
            }
          },
          {
            "validator_address": "A6B3A5B5D982CFD7B5FDFA15CF5A720E7AE25E7F",
            "validator_index": "60",
            "height": "42643",
            "round": "1",
            "timestamp": "2018-08-02T05:50:21.588957885Z",
            "type": 2,
            "block_id": {
              "hash": "89C01A75892749F905326A17B691E6320A8594CA",
              "parts": {
                "total": "1",
                "hash": "9AF8F7E6429CD6B49253337B736D38CC64AC70C9"
              }
            },
            "signature": {
              "type": "tendermint/SignatureEd25519",
              "value": "Z3eZTXAyNMGHWDsVQ09ZRsnmezN7QH/4A3Uz4KjSkrp0hEkrPls8jRIrsm9KPyckPm0FOP2zF5kh6d2OtnyfAA=="
            }
          },
          {
            "validator_address": "AC96444A9083890B7C7B430DB17BF1D3EA5EED04",
            "validator_index": "61",
            "height": "42643",
            "round": "1",
            "timestamp": "2018-08-02T05:50:21.383967035Z",
            "type": 2,
            "block_id": {
              "hash": "89C01A75892749F905326A17B691E6320A8594CA",
              "parts": {
                "total": "1",
                "hash": "9AF8F7E6429CD6B49253337B736D38CC64AC70C9"
              }
            },
            "signature": {
              "type": "tendermint/SignatureEd25519",
              "value": "A/LXlYqi8h1ZvV7ADflbUU135hB7SajVaGFdn5eEfUTAHifFvSVqDqIE4bzNynoE9cYwBBy/WVjyuRqb8ZaoCQ=="
            }
          },
          {
            "validator_address": "ACB97FDA2D940AF0709B73537C458EB988AD2893",
            "validator_index": "62",
            "height": "42643",
            "round": "1",
            "timestamp": "2018-08-02T05:50:21.251401355Z",
            "type": 2,
            "block_id": {
              "hash": "89C01A75892749F905326A17B691E6320A8594CA",
              "parts": {
                "total": "1",
                "hash": "9AF8F7E6429CD6B49253337B736D38CC64AC70C9"
              }
            },
            "signature": {
              "type": "tendermint/SignatureEd25519",
              "value": "fVe8ZoIasacAbD9ZXoRERpKj3vfywM66LIufrgv9qCL3rDysjVGYm+TQnUFStoJEtCi8OgGvrTaZc2fAxYgDDg=="
            }
          },
          {
            "validator_address": "B197425B3210375F211661DE02EF2AE36580EB0F",
            "validator_index": "63",
            "height": "42643",
            "round": "1",
            "timestamp": "2018-08-02T05:50:21.316435861Z",
            "type": 2,
            "block_id": {
              "hash": "89C01A75892749F905326A17B691E6320A8594CA",
              "parts": {
                "total": "1",
                "hash": "9AF8F7E6429CD6B49253337B736D38CC64AC70C9"
              }
            },
            "signature": {
              "type": "tendermint/SignatureEd25519",
              "value": "JCawE5jVMZDc91jr1UGJJwiRCAB2HfRsoRQUCdgu09pyZkkffU8o3Pe+7YBtd5r14VU5hzOh1D3tJJ7Cn72BDg=="
            }
          },
          {
            "validator_address": "B45E54D2D1CB5A4CCD1D49016608C18E7C56B270",
            "validator_index": "64",
            "height": "42643",
            "round": "1",
            "timestamp": "2018-08-02T05:50:21.399974456Z",
            "type": 2,
            "block_id": {
              "hash": "89C01A75892749F905326A17B691E6320A8594CA",
              "parts": {
                "total": "1",
                "hash": "9AF8F7E6429CD6B49253337B736D38CC64AC70C9"
              }
            },
            "signature": {
              "type": "tendermint/SignatureEd25519",
              "value": "e+WOxY96SR/qg3I6Ay2Wli0l3o1pi0Yxs/lARMpHI9XZmPynbaYFCLzwQjAIUrSnkKYS6oWU9P/xwG6CG4KCDQ=="
            }
          },
          {
            "validator_address": "BB1276BE89834835428664408917649FEEF5D90C",
            "validator_index": "65",
            "height": "42643",
            "round": "1",
            "timestamp": "2018-08-02T05:50:21.332577227Z",
            "type": 2,
            "block_id": {
              "hash": "89C01A75892749F905326A17B691E6320A8594CA",
              "parts": {
                "total": "1",
                "hash": "9AF8F7E6429CD6B49253337B736D38CC64AC70C9"
              }
            },
            "signature": {
              "type": "tendermint/SignatureEd25519",
              "value": "X8KuJmUdwIvmopCtVwYKCNb4NAbPwyblp/THzpNwqJnBl3KlgiyqyMe2+VLDPBF2pxTeYZYyncu/NGnOnhHGDA=="
            }
          },
          {
            "validator_address": "BC36FEDD6EF6071118A3E51859DF3831A2EC4782",
            "validator_index": "66",
            "height": "42643",
            "round": "1",
            "timestamp": "2018-08-02T05:50:21.292841929Z",
            "type": 2,
            "block_id": {
              "hash": "89C01A75892749F905326A17B691E6320A8594CA",
              "parts": {
                "total": "1",
                "hash": "9AF8F7E6429CD6B49253337B736D38CC64AC70C9"
              }
            },
            "signature": {
              "type": "tendermint/SignatureEd25519",
              "value": "56q+GjBQ7od78c2diWY2SFGoXR+eiox0qPcZ2IUmzlTWJ6RJk9Qsy1RMJmyGRCwr84BHZxNi7j3BjSunDJhgAA=="
            }
          },
          {
            "validator_address": "BD9D0DA513BF099DB4BB6E725A4E19832789882F",
            "validator_index": "67",
            "height": "42643",
            "round": "1",
            "timestamp": "2018-08-02T05:50:21.296534956Z",
            "type": 2,
            "block_id": {
              "hash": "89C01A75892749F905326A17B691E6320A8594CA",
              "parts": {
                "total": "1",
                "hash": "9AF8F7E6429CD6B49253337B736D38CC64AC70C9"
              }
            },
            "signature": {
              "type": "tendermint/SignatureEd25519",
              "value": "ShsOdrr0V7r6Eg4zEBTmgoGi7TgfuP1VDM1+lpuItrbeff86l3f2fXYnoTAr10fuYcRcYCoEy6yg8gOkDwTuAg=="
            }
          },
          {
            "validator_address": "C1134A2FF8F7338E7CDB3FE57DDD2A655DEB1E22",
            "validator_index": "68",
            "height": "42643",
            "round": "1",
            "timestamp": "2018-08-02T05:50:20.525647216Z",
            "type": 2,
            "block_id": {
              "hash": "89C01A75892749F905326A17B691E6320A8594CA",
              "parts": {
                "total": "1",
                "hash": "9AF8F7E6429CD6B49253337B736D38CC64AC70C9"
              }
            },
            "signature": {
              "type": "tendermint/SignatureEd25519",
              "value": "/RTRgZ2coBtnAclXUmxO3IGBek01SNL8HucmR3k903/2uqHqDL1VEujShQghF3jXFMSCJHYpgexnBa2T3fiIDQ=="
            }
          },
          {
            "validator_address": "C39A8A2B85198DCB8F23AD1F6C198E2BA7AB5D60",
            "validator_index": "69",
            "height": "42643",
            "round": "1",
            "timestamp": "2018-08-02T05:50:21.237693756Z",
            "type": 2,
            "block_id": {
              "hash": "89C01A75892749F905326A17B691E6320A8594CA",
              "parts": {
                "total": "1",
                "hash": "9AF8F7E6429CD6B49253337B736D38CC64AC70C9"
              }
            },
            "signature": {
              "type": "tendermint/SignatureEd25519",
              "value": "oL/Q+mwvRMs6HwxMdfYjsJB9LbB4pPyyXKo1fb2b79RTCuhIiyuixKBSxyxGjUqkrMolK2FEk9V6xi0DvfA+Cw=="
            }
          },
          {
            "validator_address": "C4335190C3B5BD4BA5568BC0F99C34162D940D08",
            "validator_index": "70",
            "height": "42643",
            "round": "1",
            "timestamp": "2018-08-02T05:50:21.347936144Z",
            "type": 2,
            "block_id": {
              "hash": "89C01A75892749F905326A17B691E6320A8594CA",
              "parts": {
                "total": "1",
                "hash": "9AF8F7E6429CD6B49253337B736D38CC64AC70C9"
              }
            },
            "signature": {
              "type": "tendermint/SignatureEd25519",
              "value": "o+pVurT3TLFzKE9EEg3mj3DJWyRDFSdonPG+a7HTpYlgjAM71A7nWwgkEie6AMlkgvuCY8teJuxRtySIkBfFDw=="
            }
          },
          {
            "validator_address": "C561CFA081677046376396922E7576E5F7B316AD",
            "validator_index": "71",
            "height": "42643",
            "round": "1",
            "timestamp": "2018-08-02T05:50:21.381005258Z",
            "type": 2,
            "block_id": {
              "hash": "89C01A75892749F905326A17B691E6320A8594CA",
              "parts": {
                "total": "1",
                "hash": "9AF8F7E6429CD6B49253337B736D38CC64AC70C9"
              }
            },
            "signature": {
              "type": "tendermint/SignatureEd25519",
              "value": "EWHjwVTinXSgo4pmniykFQZxFoFVy6nJyIDihQc5/BoWMopVRtQ81pSS7uFmp/xO0ZowTmCdfSguvPAl8iMUBQ=="
            }
          },
          {
            "validator_address": "CE589EA77B056D268D30D1DC1D68A70E0F885E95",
            "validator_index": "72",
            "height": "42643",
            "round": "1",
            "timestamp": "2018-08-02T05:50:21.301227174Z",
            "type": 2,
            "block_id": {
              "hash": "89C01A75892749F905326A17B691E6320A8594CA",
              "parts": {
                "total": "1",
                "hash": "9AF8F7E6429CD6B49253337B736D38CC64AC70C9"
              }
            },
            "signature": {
              "type": "tendermint/SignatureEd25519",
              "value": "pOoysesEhrkHVdoQTG3U8QcQVyS53+ay3FZdYkyUyZbBRw3cUt6rAN3cZhHiMSDPGXXuOfzIJ7Azb/EsCafvAg=="
            }
          },
          {
            "validator_address": "CEB97DB5CB18270247ABDE6CF2F84F9AEE8A2904",
            "validator_index": "73",
            "height": "42643",
            "round": "1",
            "timestamp": "2018-08-02T05:50:22.275474618Z",
            "type": 2,
            "block_id": {
              "hash": "89C01A75892749F905326A17B691E6320A8594CA",
              "parts": {
                "total": "1",
                "hash": "9AF8F7E6429CD6B49253337B736D38CC64AC70C9"
              }
            },
            "signature": {
              "type": "tendermint/SignatureEd25519",
              "value": "G0fsloEGsarnNlRKG8eVZsWstQGJKq0BIJSk2N3Xm5B0ROpHPsqdhwyJg4XbQCjcuQRNZdqBOCp5Hj6s63xeAA=="
            }
          },
          {
            "validator_address": "D2134B826A1E25A955905CB79A4D8731CAFA0CCE",
            "validator_index": "74",
            "height": "42643",
            "round": "1",
            "timestamp": "2018-08-02T05:50:21.377461264Z",
            "type": 2,
            "block_id": {
              "hash": "89C01A75892749F905326A17B691E6320A8594CA",
              "parts": {
                "total": "1",
                "hash": "9AF8F7E6429CD6B49253337B736D38CC64AC70C9"
              }
            },
            "signature": {
              "type": "tendermint/SignatureEd25519",
              "value": "lvpUgcpuyw7xrhguTX56y6T/5hyI5dWreeb34SCTFExsfDyePxzx7vHT/w7LYkBvc8BtgUbWi79xrGez1KiZAg=="
            }
          },
          {
            "validator_address": "D6285C3422C8886445D53757CBE12D2B91B5A9D0",
            "validator_index": "75",
            "height": "42643",
            "round": "1",
            "timestamp": "2018-08-02T05:50:04.595700361Z",
            "type": 2,
            "block_id": {
              "hash": "89C01A75892749F905326A17B691E6320A8594CA",
              "parts": {
                "total": "1",
                "hash": "9AF8F7E6429CD6B49253337B736D38CC64AC70C9"
              }
            },
            "signature": {
              "type": "tendermint/SignatureEd25519",
              "value": "Ha/pD/MAuiqIHwvYPS1ZmzbVkcSrKJIODCvDLJDwyS5L/ImWD5/vPJGwA1hqyVWxVhlFXipgU1ECDVmJsLrrBA=="
            }
          },
          {
            "validator_address": "D77FB84A729972CD3E757C9BEB61561855832B92",
            "validator_index": "76",
            "height": "42643",
            "round": "1",
            "timestamp": "2018-08-02T05:50:21.342612555Z",
            "type": 2,
            "block_id": {
              "hash": "89C01A75892749F905326A17B691E6320A8594CA",
              "parts": {
                "total": "1",
                "hash": "9AF8F7E6429CD6B49253337B736D38CC64AC70C9"
              }
            },
            "signature": {
              "type": "tendermint/SignatureEd25519",
              "value": "yY0IR76fLeDtNI7gZYrbre09ffutLca9N6UMPv4k4ObCA3wG0aN68anghfMjEYAdaSDUdFLkDiZn4OobVdb+Bg=="
            }
          },
          {
            "validator_address": "DB7E6732471D3EA5C90C17A9974D9F88AB45F2FB",
            "validator_index": "77",
            "height": "42643",
            "round": "1",
            "timestamp": "2018-08-02T05:50:21.315065755Z",
            "type": 2,
            "block_id": {
              "hash": "89C01A75892749F905326A17B691E6320A8594CA",
              "parts": {
                "total": "1",
                "hash": "9AF8F7E6429CD6B49253337B736D38CC64AC70C9"
              }
            },
            "signature": {
              "type": "tendermint/SignatureEd25519",
              "value": "oPH8hnx1yAqHLdTvNCYnRi/X9wytBac+KXeXLKCdyBH4H1e+D3+UjHjto8HMNOfX677DLSZB+nEYgSR2AtWtCg=="
            }
          },
          {
            "validator_address": "DF54B862410BCD9B5C516FBB6C56BDC826ED6FA7",
            "validator_index": "78",
            "height": "42643",
            "round": "1",
            "timestamp": "2018-08-02T05:50:21.440914531Z",
            "type": 2,
            "block_id": {
              "hash": "89C01A75892749F905326A17B691E6320A8594CA",
              "parts": {
                "total": "1",
                "hash": "9AF8F7E6429CD6B49253337B736D38CC64AC70C9"
              }
            },
            "signature": {
              "type": "tendermint/SignatureEd25519",
              "value": "NyDCLkyAxCywLCnhgLaTPoEYoj7sqXbsUshw6zA6m2zNwSfqbgQ3udQlKaLPmk/hLbsxLrIEGHtbgLX9Dj3BDw=="
            }
          },
          {
            "validator_address": "DFAF0C8B1B78D6D552B0189DE3ACA351439A1319",
            "validator_index": "79",
            "height": "42643",
            "round": "1",
            "timestamp": "2018-08-02T05:50:21.228250953Z",
            "type": 2,
            "block_id": {
              "hash": "89C01A75892749F905326A17B691E6320A8594CA",
              "parts": {
                "total": "1",
                "hash": "9AF8F7E6429CD6B49253337B736D38CC64AC70C9"
              }
            },
            "signature": {
              "type": "tendermint/SignatureEd25519",
              "value": "nMKNaUMoODSYtUN2zUCar6onvCixSZxHMV/6xOjS2b9KA2fXnALgoEdFyt8NJRaL8ptQ3zMswJK9OeA+x3JhCQ=="
            }
          },
          {
            "validator_address": "E1DBC77881161A5A3A8536A57536EAE546A75D69",
            "validator_index": "80",
            "height": "42643",
            "round": "1",
            "timestamp": "2018-08-02T05:50:21.231573729Z",
            "type": 2,
            "block_id": {
              "hash": "89C01A75892749F905326A17B691E6320A8594CA",
              "parts": {
                "total": "1",
                "hash": "9AF8F7E6429CD6B49253337B736D38CC64AC70C9"
              }
            },
            "signature": {
              "type": "tendermint/SignatureEd25519",
              "value": "hLhdROId7mtOgxu92MRsFPJDR+F0q+OUNiDasCbJ6irLLGjyHebb7nIS6JBDqI+6eDU1efxJ6mPO+c5yAP2rAg=="
            }
          },
          {
            "validator_address": "E300E9D484374C1D3E97C1D93CAC3B160A056298",
            "validator_index": "81",
            "height": "42643",
            "round": "1",
            "timestamp": "2018-08-02T05:50:21.580395479Z",
            "type": 2,
            "block_id": {
              "hash": "89C01A75892749F905326A17B691E6320A8594CA",
              "parts": {
                "total": "1",
                "hash": "9AF8F7E6429CD6B49253337B736D38CC64AC70C9"
              }
            },
            "signature": {
              "type": "tendermint/SignatureEd25519",
              "value": "WBZMhhYHJi/paX1aFxmYC+wvHON4lqoWIvIQKsVGJeFWRn9VCluFdMQhn+sfXGYLsFPu/WasxK4bx5DcYfWICg=="
            }
          },
          {
            "validator_address": "E39B5778E0D4297A46F45CF6940B0A163A430FF8",
            "validator_index": "82",
            "height": "42643",
            "round": "1",
            "timestamp": "2018-08-02T05:50:21.301171863Z",
            "type": 2,
            "block_id": {
              "hash": "89C01A75892749F905326A17B691E6320A8594CA",
              "parts": {
                "total": "1",
                "hash": "9AF8F7E6429CD6B49253337B736D38CC64AC70C9"
              }
            },
            "signature": {
              "type": "tendermint/SignatureEd25519",
              "value": "9BIrhI3IPCcqXC4JgPksTYHKR24FROJihy/AEkL0MTYlC5JoWBB6fuej9AqBgUHaOpRBrFxpSgzFmVv87g2+Cg=="
            }
          },
          {
            "validator_address": "E3B19738F7132F950668504D326C7660F159D170",
            "validator_index": "83",
            "height": "42643",
            "round": "1",
            "timestamp": "2018-08-02T05:50:21.245993042Z",
            "type": 2,
            "block_id": {
              "hash": "89C01A75892749F905326A17B691E6320A8594CA",
              "parts": {
                "total": "1",
                "hash": "9AF8F7E6429CD6B49253337B736D38CC64AC70C9"
              }
            },
            "signature": {
              "type": "tendermint/SignatureEd25519",
              "value": "QetStlCgCQwnpm/woNQgbStjQvV69OWoLmUz8OQiAUUOYgmPU6jj8X90+kzRAsKIkmEih7PRvmHt2QQRkLeQAg=="
            }
          },
          {
            "validator_address": "E42F8AEABB685219F7027F54D2B0DBC7846F633A",
            "validator_index": "84",
            "height": "42643",
            "round": "1",
            "timestamp": "2018-08-02T05:50:20.426959697Z",
            "type": 2,
            "block_id": {
              "hash": "89C01A75892749F905326A17B691E6320A8594CA",
              "parts": {
                "total": "1",
                "hash": "9AF8F7E6429CD6B49253337B736D38CC64AC70C9"
              }
            },
            "signature": {
              "type": "tendermint/SignatureEd25519",
              "value": "4ssPrsMbBjdktiRnDOYK8HfJYP967p6Y2UfsuU3G+vi+IL8QNGj03IYrn1owZ7OgWNw+rKW/faaEpjsTBN4gCA=="
            }
          },
          {
            "validator_address": "E4E6C2E81269DFFA196C17F98240E491479A6008",
            "validator_index": "85",
            "height": "42643",
            "round": "1",
            "timestamp": "2018-08-02T05:50:21.361633079Z",
            "type": 2,
            "block_id": {
              "hash": "89C01A75892749F905326A17B691E6320A8594CA",
              "parts": {
                "total": "1",
                "hash": "9AF8F7E6429CD6B49253337B736D38CC64AC70C9"
              }
            },
            "signature": {
              "type": "tendermint/SignatureEd25519",
              "value": "ak0tXavRNaJdtfqw2SVUc/FBKnsEUnXb5iR26ryuuB5PJmm6LJHeYhkfKQ/1fcgXOuYHfNdiQYVPyPmZ7le8Aw=="
            }
          },
          {
            "validator_address": "E4FEB2846F4F3B0ECDCBE9C9DCB2248248A5AF0F",
            "validator_index": "86",
            "height": "42643",
            "round": "1",
            "timestamp": "2018-08-02T05:50:20.969860104Z",
            "type": 2,
            "block_id": {
              "hash": "89C01A75892749F905326A17B691E6320A8594CA",
              "parts": {
                "total": "1",
                "hash": "9AF8F7E6429CD6B49253337B736D38CC64AC70C9"
              }
            },
            "signature": {
              "type": "tendermint/SignatureEd25519",
              "value": "n1LRsuFvpd1kPqBFRjZt07eFFaDFxpFGVU0qlrgzzpx+PcsIIQjfVAWh9RZTBNUhkMdsjKsEa8sF3K0v69UDCw=="
            }
          },
          {
            "validator_address": "E50ADECD5FD27FA2CD610C07F8AED36A2FC4A6A6",
            "validator_index": "87",
            "height": "42643",
            "round": "1",
            "timestamp": "2018-08-02T05:50:21.268102046Z",
            "type": 2,
            "block_id": {
              "hash": "89C01A75892749F905326A17B691E6320A8594CA",
              "parts": {
                "total": "1",
                "hash": "9AF8F7E6429CD6B49253337B736D38CC64AC70C9"
              }
            },
            "signature": {
              "type": "tendermint/SignatureEd25519",
              "value": "h9lM6wTyO0+fjO5veT6+MCTuugUd0k21gW68FewOoBJS2S8UQqBThAhOi6bbhJVj97WiwRvJzvAvI0z3Jrw8BQ=="
            }
          },
          {
            "validator_address": "E6A7079D584B163750BE0831227F6B685DEAF3C1",
            "validator_index": "88",
            "height": "42643",
            "round": "1",
            "timestamp": "2018-08-02T05:50:21.385351307Z",
            "type": 2,
            "block_id": {
              "hash": "89C01A75892749F905326A17B691E6320A8594CA",
              "parts": {
                "total": "1",
                "hash": "9AF8F7E6429CD6B49253337B736D38CC64AC70C9"
              }
            },
            "signature": {
              "type": "tendermint/SignatureEd25519",
              "value": "9yFwx1MtCPDWRdr7dgxuIT/J+kBhUMoXzaPFPVlMwCZsANPu8FbLuBqF0/MB9QDrgpD257NYcv3KPHJzyFKSAw=="
            }
          },
          {
            "validator_address": "E7A30077D5D11867D3EAF99ED45BFDC1EB834509",
            "validator_index": "89",
            "height": "42643",
            "round": "1",
            "timestamp": "2018-08-02T05:50:21.289538212Z",
            "type": 2,
            "block_id": {
              "hash": "89C01A75892749F905326A17B691E6320A8594CA",
              "parts": {
                "total": "1",
                "hash": "9AF8F7E6429CD6B49253337B736D38CC64AC70C9"
              }
            },
            "signature": {
              "type": "tendermint/SignatureEd25519",
              "value": "0AZP5id7G4KLsCaH70eRpfL5jcSYE2Qhag+3MdOKyyDAYJlmbIt8fKHnLJ8YGh8aeVxsPnb37/OaCEnpzZusCg=="
            }
          },
          {
            "validator_address": "EBC613967F66F4EC306852CDF58B4F151CF16738",
            "validator_index": "90",
            "height": "42643",
            "round": "1",
            "timestamp": "2018-08-02T05:50:21.390395125Z",
            "type": 2,
            "block_id": {
              "hash": "89C01A75892749F905326A17B691E6320A8594CA",
              "parts": {
                "total": "1",
                "hash": "9AF8F7E6429CD6B49253337B736D38CC64AC70C9"
              }
            },
            "signature": {
              "type": "tendermint/SignatureEd25519",
              "value": "hN7g8H9OsBm7wLQEQnqV3g6K59NwdZvCl7IezHJOarjEZe/5ZSGxDWqet/klIPspkBCpvmrXNysqRRs32QIgDQ=="
            }
          },
          {
            "validator_address": "EC3401441726C40ECC7E51F744483B05BC6DE9BD",
            "validator_index": "91",
            "height": "42643",
            "round": "1",
            "timestamp": "2018-08-02T05:50:21.332040506Z",
            "type": 2,
            "block_id": {
              "hash": "89C01A75892749F905326A17B691E6320A8594CA",
              "parts": {
                "total": "1",
                "hash": "9AF8F7E6429CD6B49253337B736D38CC64AC70C9"
              }
            },
            "signature": {
              "type": "tendermint/SignatureEd25519",
              "value": "XY6V5o3Cn0CO+sPdDPX0yJ734qakN8vEBBVK1qxtYdFps6XGFuLML6BwEmiwAPvqMRAYcTVjI1eH+QZGoSKoCQ=="
            }
          },
          {
            "validator_address": "EC95B111D032181E1EC3B5E8875C5BB8E4AE7140",
            "validator_index": "92",
            "height": "42643",
            "round": "1",
            "timestamp": "2018-08-02T05:50:21.227772494Z",
            "type": 2,
            "block_id": {
              "hash": "89C01A75892749F905326A17B691E6320A8594CA",
              "parts": {
                "total": "1",
                "hash": "9AF8F7E6429CD6B49253337B736D38CC64AC70C9"
              }
            },
            "signature": {
              "type": "tendermint/SignatureEd25519",
              "value": "J0soB54hfJznH9Vjerbpg9nqaOxcg5o75uLDemsHXOSG1Al6GYLu+LyL/e2Zyu0+zLMXszg2S+CwTr7fGhv+Dw=="
            }
          },
          {
            "validator_address": "F13C1805E8131C9B47E2A46818F57D8A2841E578",
            "validator_index": "93",
            "height": "42643",
            "round": "1",
            "timestamp": "2018-08-02T05:50:21.322207693Z",
            "type": 2,
            "block_id": {
              "hash": "89C01A75892749F905326A17B691E6320A8594CA",
              "parts": {
                "total": "1",
                "hash": "9AF8F7E6429CD6B49253337B736D38CC64AC70C9"
              }
            },
            "signature": {
              "type": "tendermint/SignatureEd25519",
              "value": "mRUu28ZlnYFjNosvnHdJrutsdPZN9zTL3RXBbt6dAzNlEFjJ73fd85YKq6Fl6CUxik36x2IxH2FxcZO72r8nAA=="
            }
          },
          {
            "validator_address": "F23FF36BD5B90C33CE3A03ED72DBDCF5EC07D6AF",
            "validator_index": "94",
            "height": "42643",
            "round": "1",
            "timestamp": "2018-08-02T05:50:21.302606334Z",
            "type": 2,
            "block_id": {
              "hash": "89C01A75892749F905326A17B691E6320A8594CA",
              "parts": {
                "total": "1",
                "hash": "9AF8F7E6429CD6B49253337B736D38CC64AC70C9"
              }
            },
            "signature": {
              "type": "tendermint/SignatureEd25519",
              "value": "gxvOwHZdEi9FD3NSeRrJ7gl83WVpVGve0f0eq/IPGXypc/Mn4U62Q66NIoIMKPa5fSV8wsTzCPLVZoje12H3BA=="
            }
          },
          {
            "validator_address": "F4268597DE93E3E2CED38845010F8AA34E2A879E",
            "validator_index": "95",
            "height": "42643",
            "round": "1",
            "timestamp": "2018-08-02T05:50:21.306280501Z",
            "type": 2,
            "block_id": {
              "hash": "89C01A75892749F905326A17B691E6320A8594CA",
              "parts": {
                "total": "1",
                "hash": "9AF8F7E6429CD6B49253337B736D38CC64AC70C9"
              }
            },
            "signature": {
              "type": "tendermint/SignatureEd25519",
              "value": "0L1Q+kxgPCCSUxUNjPjrQ8ouX1yIevsKanzY7y9XZpDU0HgJpP8Ga6lzy9AM1PVTHM+9/+2HuTE81GZdwVcyDg=="
            }
          },
          {
            "validator_address": "F4DEB417999B04BE2EFF9FFE03FA373D86011CC0",
            "validator_index": "96",
            "height": "42643",
            "round": "1",
            "timestamp": "2018-08-02T05:50:21.316069584Z",
            "type": 2,
            "block_id": {
              "hash": "89C01A75892749F905326A17B691E6320A8594CA",
              "parts": {
                "total": "1",
                "hash": "9AF8F7E6429CD6B49253337B736D38CC64AC70C9"
              }
            },
            "signature": {
              "type": "tendermint/SignatureEd25519",
              "value": "cwtoQhFwRsyJ+MvVxAJ/znQ10RLsf2logafwDDay5hC/FGXY+pDOjiNEgdC+yyJAW7PEThii7iF2PU6QVbHpBQ=="
            }
          },
          {
            "validator_address": "F6738260186D33D9C14FC6E7017AFE6BB952A63D",
            "validator_index": "97",
            "height": "42643",
            "round": "1",
            "timestamp": "2018-08-02T05:50:21.299698569Z",
            "type": 2,
            "block_id": {
              "hash": "89C01A75892749F905326A17B691E6320A8594CA",
              "parts": {
                "total": "1",
                "hash": "9AF8F7E6429CD6B49253337B736D38CC64AC70C9"
              }
            },
            "signature": {
              "type": "tendermint/SignatureEd25519",
              "value": "4rV2GxSZsrOLMTfSgkHZeU9MLZRnp+1e1X0S7h47UtCx2rMvJq/a9lz2AIZCalve7PvokPGn83a68s5+6PVhBw=="
            }
          },
          {
            "validator_address": "FD8D304F0278229077114B05BED9DABD382D49D8",
            "validator_index": "98",
            "height": "42643",
            "round": "1",
            "timestamp": "2018-08-02T05:50:21.307034057Z",
            "type": 2,
            "block_id": {
              "hash": "89C01A75892749F905326A17B691E6320A8594CA",
              "parts": {
                "total": "1",
                "hash": "9AF8F7E6429CD6B49253337B736D38CC64AC70C9"
              }
            },
            "signature": {
              "type": "tendermint/SignatureEd25519",
              "value": "3/DF/aNdBdoiWHk4ryoL+viHkt3ffNJpUjZncOsR2ezD9i8+YKiCNqcLZrPxgXI5RBcvAnMNAejQ0exbw4+XCA=="
            }
          },
          {
            "validator_address": "FF3F3FCBCE7E62D7AD5506FF846EC4518D980515",
            "validator_index": "99",
            "height": "42643",
            "round": "1",
            "timestamp": "2018-08-02T05:50:21.352391169Z",
            "type": 2,
            "block_id": {
              "hash": "89C01A75892749F905326A17B691E6320A8594CA",
              "parts": {
                "total": "1",
                "hash": "9AF8F7E6429CD6B49253337B736D38CC64AC70C9"
              }
            },
            "signature": {
              "type": "tendermint/SignatureEd25519",
              "value": "mwdvVZj6ciSRJoLk962NybA3uhTEg6sGWxNZ1z0zfSQ7+liKen6T5g2yXUrbPajfGAIu9XgeETyNdYWu9z9/Cw=="
            }
          }
        ]
      }
    },
    "canonical": true
  }
}