{
  "jsonrpc": "2.0",
  "id": "",
  "result": {
    "SignedHeader": {
      "header": {
        "chain_id": "gaia-7004",
        "height": "42996",
        "time": "2018-08-02T06:27:06.364188222Z",
        "num_txs": "0",
        "last_block_id": {
          "hash": "E7013C0D38A8DD364A5C6C6AD2F4AD839CCE189A",
          "parts": {
            "total": "1",
            "hash": "7AD0B59F2576EFD1C3C4707805098B57F15CDC8B"
          }
        },
        "total_txs": "2022",
        "last_commit_hash": "C2FE745A55A0A63B9991BF4AB4510DDC4AC41A0E",
        "data_hash": "",
        "validators_hash": "7F834681D8D9644FE0F706BB6D5A04C077595D31",
        "consensus_hash": "D6B74BB35BDFFD8392340F2A379173548AE188FE",
        "app_hash": "0CC1791ED8F5588F724B82A2E054695F3667D80A",
        "last_results_hash": "",
        "evidence_hash": ""
      },
      "commit": {
        "block_id": {
          "hash": "F9EABF37AB64DED19DFA3A07C7F7C1106D73C633",
          "parts": {
            "total": "1",
            "hash": "CC7D54E6A770654FE82CFB3CE0C9571A3BE458D4"
          }
        },
        "precommits": [
          {
            "validator_address": "029359C0C768096273A68ABC902A6B17AC8D1D70",
            "validator_index": "0",
            "height": "42996",
            "round": "0",
            "timestamp": "2018-08-02T06:27:07.31062956Z",
            "type": 2,
            "block_id": {
              "hash": "F9EABF37AB64DED19DFA3A07C7F7C1106D73C633",
              "parts": {
                "total": "1",
                "hash": "CC7D54E6A770654FE82CFB3CE0C9571A3BE458D4"
              }
            },
            "signature": {
              "type": "tendermint/SignatureEd25519",
              "value": "EQIxTfB5ED8zPT2BpptryTjGBqAFTSYTkTioxv6d4ag2j1t6rvrwumphnHDaRxmYsI1xGZ6fVwqpEXp1mcZOBA=="
            }
          },
          {
            "validator_address": "02FE4B97A8387F39D1AC19E0C1702B3CC614812F",
            "validator_index": "1",
            "height": "42996",
            "round": "0",
            "timestamp": "2018-08-02T06:27:07.309831706Z",
            "type": 2,
            "block_id": {
              "hash": "F9EABF37AB64DED19DFA3A07C7F7C1106D73C633",
              "parts": {
                "total": "1",
                "hash": "CC7D54E6A770654FE82CFB3CE0C9571A3BE458D4"
              }
            },
            "signature": {
              "type": "tendermint/SignatureEd25519",
              "value": "uyndmmxLy41UsXbCDJWYqNwjMztz1DSGEVtAb042CX7gXrz+WireZr7adLruN+iUH7Yopb81EWErDd3b1HKNCA=="
            }
          },
          {
            "validator_address": "0548261C50222FD710EB5EBDF03A0E6567B21D20",
            "validator_index": "2",
            "height": "42996",
            "round": "0",
            "timestamp": "2018-08-02T06:27:07.371392291Z",
            "type": 2,
            "block_id": {
              "hash": "F9EABF37AB64DED19DFA3A07C7F7C1106D73C633",
              "parts": {
                "total": "1",
                "hash": "CC7D54E6A770654FE82CFB3CE0C9571A3BE458D4"
              }
            },
            "signature": {
              "type": "tendermint/SignatureEd25519",
              "value": "vlo9SkWiANMr2ToKztTONvTT77z98eC9auf73AlajVVQ93aCLvzrtSH/GOFSpULjZSFACIGRdY8BHx0wrlMsBg=="
            }
          },
          {
            "validator_address": "0665ADBF9B120B7617BF955AA5653A1992C82B11",
            "validator_index": "3",
            "height": "42996",
            "round": "0",
            "timestamp": "2018-08-02T06:27:07.344377268Z",
            "type": 2,
            "block_id": {
              "hash": "F9EABF37AB64DED19DFA3A07C7F7C1106D73C633",
              "parts": {
                "total": "1",
                "hash": "CC7D54E6A770654FE82CFB3CE0C9571A3BE458D4"
              }
            },
            "signature": {
              "type": "tendermint/SignatureEd25519",
              "value": "s8ZRyTcLlElMGZZJ3f5osEhnHmLJfs51Ilh+nIMK+0etgSrRX7L4SgrSqJtp5yv4TTyh1mEHbAbZRcNaMWMZBw=="
            }
          },
          {
            "validator_address": "09145E611CC27EEB944FC5A956DDF710F943B9EF",
            "validator_index": "4",
            "height": "42996",
            "round": "0",
            "timestamp": "2018-08-02T06:27:07.323038832Z",
            "type": 2,
            "block_id": {
              "hash": "F9EABF37AB64DED19DFA3A07C7F7C1106D73C633",
              "parts": {
                "total": "1",
                "hash": "CC7D54E6A770654FE82CFB3CE0C9571A3BE458D4"
              }
            },
            "signature": {
              "type": "tendermint/SignatureEd25519",
              "value": "YixqVESXdCBMpDx9JcBpBMTY+Uuua8b4HTgovqitl/cfXRxDrm6M2B1Gz8bCMIZIRy5rW085ff++QBCz7XWdBg=="
            }
          },
          {
            "validator_address": "0989D0355A104B67AE0AE028C68FB610690E174B",
            "validator_index": "5",
            "height": "42996",
            "round": "0",
            "timestamp": "2018-08-02T06:27:07.371970058Z",
            "type": 2,
            "block_id": {
              "hash": "F9EABF37AB64DED19DFA3A07C7F7C1106D73C633",
              "parts": {
                "total": "1",
                "hash": "CC7D54E6A770654FE82CFB3CE0C9571A3BE458D4"
              }
            },
            "signature": {
              "type": "tendermint/SignatureEd25519",
              "value": "0aj1gVthmE1nu/ncH3av64h1qcQDZdv87o8rCJ+Dml/lz51FE+6C+2iMRJJprVTdDlRcVZJkqBFciArsyAwKAg=="
            }
          },
          {
            "validator_address": "0A692DBFFE9E5DD28E7DECC33CED1AEB4C0D014E",
            "validator_index": "6",
            "height": "42996",
            "round": "0",
            "timestamp": "2018-08-02T06:27:07.511236465Z",
            "type": 2,
            "block_id": {
              "hash": "F9EABF37AB64DED19DFA3A07C7F7C1106D73C633",
              "parts": {
                "total": "1",
                "hash": "CC7D54E6A770654FE82CFB3CE0C9571A3BE458D4"
              }
            },
            "signature": {
              "type": "tendermint/SignatureEd25519",
              "value": "1tgV7rTyObjN3tx+9Mu3zmYngcG/bBI4cASnxAMAxCMfJ57VCtf/gU0UmMI+gsax5AzxJYM8tfFHybGLpGMMCg=="
            }
          },
          null,
          {
            "validator_address": "1751786EFC085D5331C61168FFFC8202EA151B4E",
            "validator_index": "8",
            "height": "42996",
            "round": "0",
            "timestamp": "2018-08-02T06:27:06.968074864Z",
            "type": 2,
            "block_id": {
              "hash": "F9EABF37AB64DED19DFA3A07C7F7C1106D73C633",
              "parts": {
                "total": "1",
                "hash": "CC7D54E6A770654FE82CFB3CE0C9571A3BE458D4"
              }
            },
            "signature": {
              "type": "tendermint/SignatureEd25519",
              "value": "SZbBndNUF/VjvqmX+1nbkh0+tX1jnQBKoDl71s2adN64unQbXIb1SsHM4WOflhSSSZXxRbLsG30LAnFe4NEWAw=="
            }
          },
          {
            "validator_address": "17BB5CD01E8940FAFB948A04D5FA5A0645E5822E",
            "validator_index": "9",
            "height": "42996",
            "round": "0",
            "timestamp": "2018-08-02T06:27:07.299976716Z",
            "type": 2,
            "block_id": {
              "hash": "F9EABF37AB64DED19DFA3A07C7F7C1106D73C633",
              "parts": {
                "total": "1",
                "hash": "CC7D54E6A770654FE82CFB3CE0C9571A3BE458D4"
              }
            },
            "signature": {
              "type": "tendermint/SignatureEd25519",
              "value": "brPFghTDBxXWpDT2RBlBJhH65vHf/6Yw/MwGZmlPFL3noLUrG9+2C0q4aqkWMYANctZ/eWF9FP42F6140BgfCw=="
            }
          },
          {
            "validator_address": "1C683A87904BC38F05004FE83301A3A3E35447EB",
            "validator_index": "10",
            "height": "42996",
            "round": "0",
            "timestamp": "2018-08-02T06:27:07.3247919Z",
            "type": 2,
            "block_id": {
              "hash": "F9EABF37AB64DED19DFA3A07C7F7C1106D73C633",
              "parts": {
                "total": "1",
                "hash": "CC7D54E6A770654FE82CFB3CE0C9571A3BE458D4"
              }
            },
            "signature": {
              "type": "tendermint/SignatureEd25519",
              "value": "+X2/M47TDhN+NVM9DqTa1Ts0rwGgq2jYlSoGXzCryxz8olxhIXxGuX0x1FGbtsI3SobFQ+rJW71dwGagGLGoAw=="
            }
          },
          {
            "validator_address": "1E9CE94FD0BA5CFEB901F90BC658D64D85B134D2",
            "validator_index": "11",
            "height": "42996",
            "round": "0",
            "timestamp": "2018-08-02T06:27:07.389109577Z",
            "type": 2,
            "block_id": {
              "hash": "F9EABF37AB64DED19DFA3A07C7F7C1106D73C633",
              "parts": {
                "total": "1",
                "hash": "CC7D54E6A770654FE82CFB3CE0C9571A3BE458D4"
              }
            },
            "signature": {
              "type": "tendermint/SignatureEd25519",
              "value": "a31N4+5DhBES28NMEQ2JDzzhpugin0uHeMoGcnuKKcZKdBVmc4LeLFXWF8kctSi6idYkojHzkGLancwHsT8lBQ=="
            }
          },
          {
            "validator_address": "1ECD8C5FE1341D74CDC633A245DD56858DE2F9A2",
            "validator_index": "12",
            "height": "42996",
            "round": "0",
            "timestamp": "2018-08-02T06:27:07.52532166Z",
            "type": 2,
            "block_id": {
              "hash": "F9EABF37AB64DED19DFA3A07C7F7C1106D73C633",
              "parts": {
                "total": "1",
                "hash": "CC7D54E6A770654FE82CFB3CE0C9571A3BE458D4"
              }
            },
            "signature": {
              "type": "tendermint/SignatureEd25519",
              "value": "PP7YfYkk4LH5J4Z4s7onMrdP3T9j9WvE/a1odsriema/9oh+KpMuHJeg0n7Z4UxogDHhV3WXFlsAMDDTIbqhCg=="
            }
          },
          {
            "validator_address": "1F3A68CAAD483768AA2BF667DEF10F7104C89928",
            "validator_index": "13",
            "height": "42996",
            "round": "0",
            "timestamp": "2018-08-02T06:27:07.366783128Z",
            "type": 2,
            "block_id": {
              "hash": "F9EABF37AB64DED19DFA3A07C7F7C1106D73C633",
              "parts": {
                "total": "1",
                "hash": "CC7D54E6A770654FE82CFB3CE0C9571A3BE458D4"
              }
            },
            "signature": {
              "type": "tendermint/SignatureEd25519",
              "value": "HzEbwKBg5Lsumk44A0PnXHfSadSRbnvzrg2Vc4ElKS2hACn2FS1XXhd2FbiO/ILtKRAQzbZCWiUdVAxaqvjbCg=="
            }
          },
          {
            "validator_address": "1F61153F26C2DF27E15874268D30326287323352",
            "validator_index": "14",
            "height": "42996",
            "round": "0",
            "timestamp": "2018-08-02T06:27:07.4415861Z",
            "type": 2,
            "block_id": {
              "hash": "F9EABF37AB64DED19DFA3A07C7F7C1106D73C633",
              "parts": {
                "total": "1",
                "hash": "CC7D54E6A770654FE82CFB3CE0C9571A3BE458D4"
              }
            },
            "signature": {
              "type": "tendermint/SignatureEd25519",
              "value": "hOnyM/DTIqtDxD9hJdnDu1f011VpSbavYdi5h637Fe7MTWq5aXKV0iaymypNVdDUZp+JAiOlH0FqVGORssMPDA=="
            }
          },
          {
            "validator_address": "23897586D68E2AC1C78E0EF5BB5DF5C8EAB18F50",
            "validator_index": "15",
            "height": "42996",
            "round": "0",
            "timestamp": "2018-08-02T06:27:07.409688973Z",
            "type": 2,
            "block_id": {
              "hash": "F9EABF37AB64DED19DFA3A07C7F7C1106D73C633",
              "parts": {
                "total": "1",
                "hash": "CC7D54E6A770654FE82CFB3CE0C9571A3BE458D4"
              }
            },
            "signature": {
              "type": "tendermint/SignatureEd25519",
              "value": "8WG6yozsoJoqg089ZZuihqN3SJuBpZeT2/UQkl59XB44pEH28ZrZJIaP64qMQ5seb5qP6qIs4PaQSeFFFTQdAg=="
            }
          },
          {
            "validator_address": "28770D17E8530825E7310A0659308654B7EC9682",
            "validator_index": "16",
            "height": "42996",
            "round": "0",
            "timestamp": "2018-08-02T06:27:07.344199344Z",
            "type": 2,
            "block_id": {
              "hash": "F9EABF37AB64DED19DFA3A07C7F7C1106D73C633",
              "parts": {
                "total": "1",
                "hash": "CC7D54E6A770654FE82CFB3CE0C9571A3BE458D4"
              }
            },
            "signature": {
              "type": "tendermint/SignatureEd25519",
              "value": "ykeMDOqZJFxNf1Vd2TJWZDvAinpF18YVg+BkwUT51FLkc0dfAR2MtM3qM6c9RkYFmdJq9hgXtPa+i1/UqXLTDw=="
            }
          },
          {
            "validator_address": "2A92EC3C642140202298D0E245095E0ECFC25228",
            "validator_index": "17",
            "height": "42996",
            "round": "0",
            "timestamp": "2018-08-02T06:27:07.465023777Z",
            "type": 2,
            "block_id": {
              "hash": "F9EABF37AB64DED19DFA3A07C7F7C1106D73C633",
              "parts": {
                "total": "1",
                "hash": "CC7D54E6A770654FE82CFB3CE0C9571A3BE458D4"
              }
            },
            "signature": {
              "type": "tendermint/SignatureEd25519",
              "value": "0DYsqC+IN0Xei7X60qVhHLkwVVij06rLCX0CWSKZRIYtxLOP5Br1j473ylehhxwwFdCx2E51gC1ftDnK0xI0DA=="
            }
          },
          null,
          {
            "validator_address": "36E9B7FAEC964F97D84C028ED62493E373AD0B38",
            "validator_index": "19",
            "height": "42996",
            "round": "0",
            "timestamp": "2018-08-02T06:27:07.411077722Z",
            "type": 2,
            "block_id": {
              "hash": "F9EABF37AB64DED19DFA3A07C7F7C1106D73C633",
              "parts": {
                "total": "1",
                "hash": "CC7D54E6A770654FE82CFB3CE0C9571A3BE458D4"
              }
            },
            "signature": {
              "type": "tendermint/SignatureEd25519",
              "value": "85e3MFBO7A4hIZDcniMzzeM9wszW/VDr7oD8fBBV+Q1lK/ZesRpLFQq7s2ZPttda7agg+nmZt5NszJTEqBVMDg=="
            }
          },
          {
            "validator_address": "38A8D85D36BEA2E5FCF8A1E778F53628E450EF13",
            "validator_index": "20",
            "height": "42996",
            "round": "0",
            "timestamp": "2018-08-02T06:27:07.578711125Z",
            "type": 2,
            "block_id": {
              "hash": "F9EABF37AB64DED19DFA3A07C7F7C1106D73C633",
              "parts": {
                "total": "1",
                "hash": "CC7D54E6A770654FE82CFB3CE0C9571A3BE458D4"
              }
            },
            "signature": {
              "type": "tendermint/SignatureEd25519",
              "value": "/sWA//zh8vXUqX+a6yZqLW6YgF2KJ2Nlarib1umrxPSdajG1VOx/7TaKeYPBZ8nfCxC7Mjqtuxtq4rRnCOxtCA=="
            }
          },
          {
            "validator_address": "39DFDA0C5DB84B269642188B23253508537798E6",
            "validator_index": "21",
            "height": "42996",
            "round": "0",
            "timestamp": "2018-08-02T06:27:07.29675165Z",
            "type": 2,
            "block_id": {
              "hash": "F9EABF37AB64DED19DFA3A07C7F7C1106D73C633",
              "parts": {
                "total": "1",
                "hash": "CC7D54E6A770654FE82CFB3CE0C9571A3BE458D4"
              }
            },
            "signature": {
              "type": "tendermint/SignatureEd25519",
              "value": "RiR5LgizEzyypsgVNwyUJKdhiEVdMZlQHo+aKhHzmTu5zAxP0sn+N+HwKOAtycyjvQhqhO6iywbv4fRsJJApAA=="
            }
          },
          {
            "validator_address": "3AC99B708404452366E0953A4BE849226DC86CBC",
            "validator_index": "22",
            "height": "42996",
            "round": "0",
            "timestamp": "2018-08-02T06:27:07.392159069Z",
            "type": 2,
            "block_id": {
              "hash": "F9EABF37AB64DED19DFA3A07C7F7C1106D73C633",
              "parts": {
                "total": "1",
                "hash": "CC7D54E6A770654FE82CFB3CE0C9571A3BE458D4"
              }
            },
            "signature": {
              "type": "tendermint/SignatureEd25519",
              "value": "0ec7x7L+GavJhPcZjzlchv/mrVdMiB6iWeP1eXkckXNxa2dI2oB3q2PMn2B/GnzgGJ1JSNhjlWZZ4PAgIGYeAw=="
            }
          },
          {
            "validator_address": "3DCB822A10ED319EC7C4393D8E3FD4A41B15AAF2",
            "validator_index": "23",
            "height": "42996",
            "round": "0",
            "timestamp": "2018-08-02T06:27:07.314129752Z",
            "type": 2,
            "block_id": {
              "hash": "F9EABF37AB64DED19DFA3A07C7F7C1106D73C633",
              "parts": {
                "total": "1",
                "hash": "CC7D54E6A770654FE82CFB3CE0C9571A3BE458D4"
              }
            },
            "signature": {
              "type": "tendermint/SignatureEd25519",
              "value": "cCkm249XqnlTEalRIBi7C/TWHvs6nH/ZpQpzVTPO4XxZI92yOv8Ak6Ltq85rBpCd8KaIBZr4P5pTWgI9AG9hAA=="
            }
          },
          {
            "validator_address": "3E899BA36A93C7370347BD5FE85909F2ECD93F8C",
            "validator_index": "24",
            "height": "42996",
            "round": "0",
            "timestamp": "2018-08-02T06:27:07.397339223Z",
            "type": 2,
            "block_id": {
              "hash": "F9EABF37AB64DED19DFA3A07C7F7C1106D73C633",
              "parts": {
                "total": "1",
                "hash": "CC7D54E6A770654FE82CFB3CE0C9571A3BE458D4"
              }
            },
            "signature": {
              "type": "tendermint/SignatureEd25519",
              "value": "SSkALTDS/okxaWN5EN6SKD15gqR6oLau6dAp5BoknpsW1mdn4Y5ZUwGV30FfIfJidGnNr+YHuV2eJub4pGV8Aw=="
            }
          },
          {
            "validator_address": "41CAB2E29E7D0F2282E3275938F188FF9386B84C",
            "validator_index": "25",
            "height": "42996",
            "round": "0",
            "timestamp": "2018-08-02T06:27:07.43863058Z",
            "type": 2,
            "block_id": {
              "hash": "F9EABF37AB64DED19DFA3A07C7F7C1106D73C633",
              "parts": {
                "total": "1",
                "hash": "CC7D54E6A770654FE82CFB3CE0C9571A3BE458D4"
              }
            },
            "signature": {
              "type": "tendermint/SignatureEd25519",
              "value": "7Qe0KO00M39JMSBX29qOgieWgSg5D6daDdIsWDA0c/HfKlsHsbFLreukcqpg/s7DRasAk0mOyfBTy6AYED+KDg=="
            }
          },
          {
            "validator_address": "462B656869DB02A8FD1077E255F8CC7401DC37C6",
            "validator_index": "26",
            "height": "42996",
            "round": "0",
            "timestamp": "2018-08-02T06:27:07.310583924Z",
            "type": 2,
            "block_id": {
              "hash": "F9EABF37AB64DED19DFA3A07C7F7C1106D73C633",
              "parts": {
                "total": "1",
                "hash": "CC7D54E6A770654FE82CFB3CE0C9571A3BE458D4"
              }
            },
            "signature": {
              "type": "tendermint/SignatureEd25519",
              "value": "C4Kknon3c5Mqv3w78e2l/S8QdiTsUnl37Q5HXeaYXDzmtGVQhSuXjlV6+ru+ZkbxfRb6UdVBErWHlU8IGiiOBQ=="
            }
          },
          {
            "validator_address": "48E5118163E5442068A1B5A42D2EEDBB75724935",
            "validator_index": "27",
            "height": "42996",
            "round": "0",
            "timestamp": "2018-08-02T06:27:07.387417348Z",
            "type": 2,
            "block_id": {
              "hash": "F9EABF37AB64DED19DFA3A07C7F7C1106D73C633",
              "parts": {
                "total": "1",
                "hash": "CC7D54E6A770654FE82CFB3CE0C9571A3BE458D4"
              }
            },
            "signature": {
              "type": "tendermint/SignatureEd25519",
              "value": "P/AIZWqQef7QS19tx9j48n8E+77CEWh3436r8q1ujb2cdFIyfP0FDcqT9Gk4N+TEkipx+qscO1sBLhpR8BIuDQ=="
            }
          },
          {
            "validator_address": "49103C58AFD9C7C069F55EBA218F3DFD9AEA74F9",
            "validator_index": "28",
            "height": "42996",
            "round": "0",
            "timestamp": "2018-08-02T06:27:07.409954937Z",
            "type": 2,
            "block_id": {
              "hash": "F9EABF37AB64DED19DFA3A07C7F7C1106D73C633",
              "parts": {
                "total": "1",
                "hash": "CC7D54E6A770654FE82CFB3CE0C9571A3BE458D4"
              }
            },
            "signature": {
              "type": "tendermint/SignatureEd25519",
              "value": "wEBKPcB6EGk1lw6BI7vc73ftV1kkky5KBsAa+kTKTwTSvqS0pjyYa0D3V8cpgbW5WYZI687gqf+ffMpetVWbCg=="
            }
          },
          {
            "validator_address": "4944F8BBBB5303E17BC0607DF332320EDBC750EA",
            "validator_index": "29",
            "height": "42996",
            "round": "0",
            "timestamp": "2018-08-02T06:27:07.401051186Z",
            "type": 2,
            "block_id": {
              "hash": "F9EABF37AB64DED19DFA3A07C7F7C1106D73C633",
              "parts": {
                "total": "1",
                "hash": "CC7D54E6A770654FE82CFB3CE0C9571A3BE458D4"
              }
            },
            "signature": {
              "type": "tendermint/SignatureEd25519",
              "value": "tYPbu3tbnIiJPnnKclGoLFptnBP3wptkpT5WTRmQieZ5fwpgN0UDnPQ28Qz+EB1dgqGbn/r9cPQcIxNtk9VXDw=="
            }
          },
          {
            "validator_address": "49841599DE675157CBE1E7D6B35BF8FFC23BD5CB",
            "validator_index": "30",
            "height": "42996",
            "round": "0",
            "timestamp": "2018-08-02T06:27:07.268189883Z",
            "type": 2,
            "block_id": {
              "hash": "F9EABF37AB64DED19DFA3A07C7F7C1106D73C633",
              "parts": {
                "total": "1",
                "hash": "CC7D54E6A770654FE82CFB3CE0C9571A3BE458D4"
              }
            },
            "signature": {
              "type": "tendermint/SignatureEd25519",
              "value": "EtNcksS9B0Ij9DCDgu1ZDWP1TytxziRCeuxVgA0oJ9jK65pplYmBviL+OT9TQX2KaA9tYne6KBmqk9IlgIefBw=="
            }
          },
          {
            "validator_address": "51386C2CF9556821D114D7E4945806802BADB28D",
            "validator_index": "31",
            "height": "42996",
            "round": "0",
            "timestamp": "2018-08-02T06:27:07.427697315Z",
            "type": 2,
            "block_id": {
              "hash": "F9EABF37AB64DED19DFA3A07C7F7C1106D73C633",
              "parts": {
                "total": "1",
                "hash": "CC7D54E6A770654FE82CFB3CE0C9571A3BE458D4"
              }
            },
            "signature": {
              "type": "tendermint/SignatureEd25519",
              "value": "7AoIkNu8fmxI0L/c0LsfYi5pTYBip5ajjFKqISvY/kwTzlHYmlLmZJIBasu4h4ds29b1hrdRh0DeF7RutZ4oDA=="
            }
          },
          {
            "validator_address": "543564ECA3AFEFADC73EE8591AAC3A96F079BC8A",
            "validator_index": "32",
            "height": "42996",
            "round": "0",
            "timestamp": "2018-08-02T06:27:07.322488325Z",
            "type": 2,
            "block_id": {
              "hash": "F9EABF37AB64DED19DFA3A07C7F7C1106D73C633",
              "parts": {
                "total": "1",
                "hash": "CC7D54E6A770654FE82CFB3CE0C9571A3BE458D4"
              }
            },
            "signature": {
              "type": "tendermint/SignatureEd25519",
              "value": "YVWAFfKX2hJGFvgTzyYcLonfh2LN2kah//A+id2Pwf0FAj5+KM5MVtQ0ygTjl+n5wXHdiyZJl3GtjxyF26f0Bw=="
            }
          },
          {
            "validator_address": "55D67B1A6DC13E96F8754A5A42EABC20F7F86664",
            "validator_index": "33",
            "height": "42996",
            "round": "0",
            "timestamp": "2018-08-02T06:27:07.377889243Z",
            "type": 2,
            "block_id": {
              "hash": "F9EABF37AB64DED19DFA3A07C7F7C1106D73C633",
              "parts": {
                "total": "1",
                "hash": "CC7D54E6A770654FE82CFB3CE0C9571A3BE458D4"
              }
            },
            "signature": {
              "type": "tendermint/SignatureEd25519",
              "value": "MMIxdVkP7NW5Xe0SpDABx+59ZYxMp9GmBv3714PbkOWsJKzHhf54yN3u/pVsoHWmQGCD+hqfyn69ZEMmE+bFBg=="
            }
          },
          {
            "validator_address": "570B6A755ED339EAC56BB3390A48069F6AC9449B",
            "validator_index": "34",
            "height": "42996",
            "round": "0",
            "timestamp": "2018-08-02T06:27:16.178696639Z",
            "type": 2,
            "block_id": {
              "hash": "F9EABF37AB64DED19DFA3A07C7F7C1106D73C633",
              "parts": {
                "total": "1",
                "hash": "CC7D54E6A770654FE82CFB3CE0C9571A3BE458D4"
              }
            },
            "signature": {
              "type": "tendermint/SignatureEd25519",
              "value": "SHLI7nb/DBH8KgSn7M4o6kOn3gLn2ztQrFqDFNG+xlGclSWuVLSr+5Vi/O7kdcIaiDSoatIxGSg4zkuFPZFADA=="
            }
          },
          {
            "validator_address": "5BDF8EA41B1835FBAD865B181A2A4B23F511B5E4",
            "validator_index": "35",
            "height": "42996",
            "round": "0",
            "timestamp": "2018-08-02T06:27:07.361111788Z",
            "type": 2,
            "block_id": {
              "hash": "F9EABF37AB64DED19DFA3A07C7F7C1106D73C633",
              "parts": {
                "total": "1",
                "hash": "CC7D54E6A770654FE82CFB3CE0C9571A3BE458D4"
              }
            },
            "signature": {
              "type": "tendermint/SignatureEd25519",
              "value": "s5jDL/CZI3RfjEIZhM5iXaomymHo7EfuMtD+o1sQMMwFdCMr8O4Uqukz6F2wbx+bUHJxJKy935OAkZFYnUL2Aw=="
            }
          },
          {
            "validator_address": "60229E2E273297FE00219E46DFFB8F76844CDEF9",
            "validator_index": "36",
            "height": "42996",
            "round": "0",
            "timestamp": "2018-08-02T06:27:04.962590523Z",
            "type": 2,
            "block_id": {
              "hash": "F9EABF37AB64DED19DFA3A07C7F7C1106D73C633",
              "parts": {
                "total": "1",
                "hash": "CC7D54E6A770654FE82CFB3CE0C9571A3BE458D4"
              }
            },
            "signature": {
              "type": "tendermint/SignatureEd25519",
              "value": "xWxrTwkSbDo9dREdLQgJ26g3cXRUvNGC1+RUrbJDmtQ0nZG9ksuzxTLXW/JW437jvOKPuIBz1cMI8B8FJcc1AA=="
            }
          },
          {
            "validator_address": "62410D6D1CD98278136E4D0738AA0EA273CDFC54",
            "validator_index": "37",
            "height": "42996",
            "round": "0",
            "timestamp": "2018-08-02T06:27:07.298115807Z",
            "type": 2,
            "block_id": {
              "hash": "F9EABF37AB64DED19DFA3A07C7F7C1106D73C633",
              "parts": {
                "total": "1",
                "hash": "CC7D54E6A770654FE82CFB3CE0C9571A3BE458D4"
              }
            },
            "signature": {
              "type": "tendermint/SignatureEd25519",
              "value": "M/1E95cdNa0L7yWK7UE12GxEi7PDi98yjXR8PqdyULGgEqDmnGQtlpzyfeEMUljnDTZxJXKfczOKkc0bX7q2Bw=="
            }
          },
          {
            "validator_address": "632F5C139A5A9DFBFE5111DEE29FCFB6157207DC",
            "validator_index": "38",
            "height": "42996",
            "round": "0",
            "timestamp": "2018-08-02T06:27:07.432026141Z",
            "type": 2,
            "block_id": {
              "hash": "F9EABF37AB64DED19DFA3A07C7F7C1106D73C633",
              "parts": {
                "total": "1",
                "hash": "CC7D54E6A770654FE82CFB3CE0C9571A3BE458D4"
              }
            },
            "signature": {
              "type": "tendermint/SignatureEd25519",
              "value": "le7beSt91VOOMCezBP/mzLX8YXC8S9QzNAa2PmsJqqdITg8r+EP5xCf0hOtn1XOeK+Or6bQiOKHkO8uHl6BEDw=="
            }
          },
          {
            "validator_address": "64F57F8E796A9B7B590C1EFA4123988C86631D39",
            "validator_index": "39",
            "height": "42996",
            "round": "0",
            "timestamp": "2018-08-02T06:27:07.328417544Z",
            "type": 2,
            "block_id": {
              "hash": "F9EABF37AB64DED19DFA3A07C7F7C1106D73C633",
              "parts": {
                "total": "1",
                "hash": "CC7D54E6A770654FE82CFB3CE0C9571A3BE458D4"
              }
            },
            "signature": {
              "type": "tendermint/SignatureEd25519",
              "value": "CuqCyI2iHcFrAlfG6lXT1OG1qkmVQB0xF1MJy0V1w1lswYxOBAH7rYVwOx/9O2BcIh1D0U10LN4u+CCXqXmCBQ=="
            }
          },
          {
            "validator_address": "69D99B2C66043ACBEAA8447525C356AFC6408E0C",
            "validator_index": "40",
            "height": "42996",
            "round": "0",
            "timestamp": "2018-08-02T06:27:07.423131191Z",
            "type": 2,
            "block_id": {
              "hash": "F9EABF37AB64DED19DFA3A07C7F7C1106D73C633",
              "parts": {
                "total": "1",
                "hash": "CC7D54E6A770654FE82CFB3CE0C9571A3BE458D4"
              }
            },
            "signature": {
              "type": "tendermint/SignatureEd25519",
              "value": "PCVCpyP4oc+0gcBQSqne6M0Q2l8tXD0y0YZvjxhrgGHhSgDw6GUnSPrtsbckqjUfsw4M66sQg9ueMgTPAqb1Cw=="
            }
          },
          {
            "validator_address": "69EDADFA4A803E9DBF548C900D4A465E7D154262",
            "validator_index": "41",
            "height": "42996",
            "round": "0",
            "timestamp": "2018-08-02T06:27:07.526106785Z",
            "type": 2,
            "block_id": {
              "hash": "F9EABF37AB64DED19DFA3A07C7F7C1106D73C633",
              "parts": {
                "total": "1",
                "hash": "CC7D54E6A770654FE82CFB3CE0C9571A3BE458D4"
              }
            },
            "signature": {
              "type": "tendermint/SignatureEd25519",
              "value": "ShViimwxJMmLVYIeqvyxReL7qBym7ctEFeaJC/C3EMtm+UkV5igFc16004Zh7I5+vOslNA3esQDQpdf8QZEPDg=="
            }
          },
          {
            "validator_address": "6D3AD380E398D8592B03AA124BAFED5F125DF863",
            "validator_index": "42",
            "height": "42996",
            "round": "0",
            "timestamp": "2018-08-02T06:26:04.804226684Z",
            "type": 2,
            "block_id": {
              "hash": "F9EABF37AB64DED19DFA3A07C7F7C1106D73C633",
              "parts": {
                "total": "1",
                "hash": "CC7D54E6A770654FE82CFB3CE0C9571A3BE458D4"
              }
            },
            "signature": {
              "type": "tendermint/SignatureEd25519",
              "value": "OY5nawhshVSYGGtZ5fPDMLCU30RXhP4tiZ7bj6ADA82aj99ycC4CCcVgLoE9hd7F6goWgVe0w48tI+nMZbr2DA=="
            }
          },
          {
            "validator_address": "6F6C93B8BF3495063FEC9B5C771158607F4AE9D6",
            "validator_index": "43",
            "height": "42996",
            "round": "0",
            "timestamp": "2018-08-02T06:27:07.687113607Z",
            "type": 2,
            "block_id": {
              "hash": "F9EABF37AB64DED19DFA3A07C7F7C1106D73C633",
              "parts": {
                "total": "1",
                "hash": "CC7D54E6A770654FE82CFB3CE0C9571A3BE458D4"
              }
            },
            "signature": {
              "type": "tendermint/SignatureEd25519",
              "value": "xH53jNtB2S3ikdrpWtciJYKSu2+Q3T1tB2MQP4iSkhwHnqy1tJeZ02mYNOheWsNFdIO22Y4Q4cuPQJ6nXyoABQ=="
            }
          },
          {
            "validator_address": "732CEEF54C374DDC6ADECBFD707AEFD07FEDC143",
            "validator_index": "44",
            "height": "42996",
            "round": "0",
            "timestamp": "2018-08-02T06:27:07.503225532Z",
            "type": 2,
            "block_id": {
              "hash": "F9EABF37AB64DED19DFA3A07C7F7C1106D73C633",
              "parts": {
                "total": "1",
                "hash": "CC7D54E6A770654FE82CFB3CE0C9571A3BE458D4"
              }
            },
            "signature": {
              "type": "tendermint/SignatureEd25519",
              "value": "iXkPsciGEcpZT21lKoBW4BHIlFH8pzqrw6ps1kEptlvAptGk6c5MdVvEBQFPbsvIunJ5uRb5bYNuz6bKTh68Dg=="
            }
          },
          {
            "validator_address": "751E43437224E8BB6D1569B3E2B2616B6E7F4397",
            "validator_index": "45",
            "height": "42996",
            "round": "0",
            "timestamp": "2018-08-02T06:27:07.367933353Z",
            "type": 2,
            "block_id": {
              "hash": "F9EABF37AB64DED19DFA3A07C7F7C1106D73C633",
              "parts": {
                "total": "1",
                "hash": "CC7D54E6A770654FE82CFB3CE0C9571A3BE458D4"
              }
            },
            "signature": {
              "type": "tendermint/SignatureEd25519",
              "value": "iLQjyDlIJHyBllTGPkA0VYXH300GLAfS073s2fDcFhhPbZ4nez+rDieMsMLsLPgPtMYP61v6eqB+5tihU/ccCQ=="
            }
          },
          {
            "validator_address": "7EB7593F519F1180C7E872D0494611464EDF03AE",
            "validator_index": "46",
            "height": "42996",
            "round": "0",
            "timestamp": "2018-08-02T06:27:07.587385388Z",
            "type": 2,
            "block_id": {
              "hash": "F9EABF37AB64DED19DFA3A07C7F7C1106D73C633",
              "parts": {
                "total": "1",
                "hash": "CC7D54E6A770654FE82CFB3CE0C9571A3BE458D4"
              }
            },
            "signature": {
              "type": "tendermint/SignatureEd25519",
              "value": "VIOEjTZTOxWmAkzmxi/DmvfVdUxRPl8bIARJI0IF1rN/82UGtb4kRHgyaU3/8sxjLGOLLrY7pEDM5jamOP7PCA=="
            }
          },
          {
            "validator_address": "8356899C8853BC6640D76F76E59743FFEEA57B81",
            "validator_index": "47",
            "height": "42996",
            "round": "0",
            "timestamp": "2018-08-02T06:27:07.395533551Z",
            "type": 2,
            "block_id": {
              "hash": "F9EABF37AB64DED19DFA3A07C7F7C1106D73C633",
              "parts": {
                "total": "1",
                "hash": "CC7D54E6A770654FE82CFB3CE0C9571A3BE458D4"
              }
            },
            "signature": {
              "type": "tendermint/SignatureEd25519",
              "value": "3rRbl5sWvaouxxtDdpdsaUKmnQOJQ74MBkCMTw/7Ba0yg87vgxLKD5o3hqRzENDmdssDF2cDSBj2pwoxfV4wAw=="
            }
          },
          {
            "validator_address": "83AB321E012C57746689FED3A6064DF331F81007",
            "validator_index": "48",
            "height": "42996",
            "round": "0",
            "timestamp": "2018-08-02T06:27:07.474334929Z",
            "type": 2,
            "block_id": {
              "hash": "F9EABF37AB64DED19DFA3A07C7F7C1106D73C633",
              "parts": {
                "total": "1",
                "hash": "CC7D54E6A770654FE82CFB3CE0C9571A3BE458D4"
              }
            },
            "signature": {
              "type": "tendermint/SignatureEd25519",
              "value": "VbkrUoRZ/wDh0JHQP7nbEV3I/wpKiCd72bRZcPvFitIsl3MBBpmkYBMkTtIE4GBXQqNiPOG4Mp9b48xxSbO1CQ=="
            }
          },
          {
            "validator_address": "8F06FE1FD042683C426137FBC4BBAA4288924217",
            "validator_index": "49",
            "height": "42996",
            "round": "0",
            "timestamp": "2018-08-02T06:27:07.369564832Z",
            "type": 2,
            "block_id": {
              "hash": "F9EABF37AB64DED19DFA3A07C7F7C1106D73C633",
              "parts": {
                "total": "1",
                "hash": "CC7D54E6A770654FE82CFB3CE0C9571A3BE458D4"
              }
            },
            "signature": {
              "type": "tendermint/SignatureEd25519",
              "value": "sQdwhwsE90Qj4wUaX8AMx+AeHOBSKRpLoDnYdHToKgNZerYRuCA3wvFJFn318vWIdJ6YLS7hBVIHHFsPNXeCCw=="
            }
          },
          null,
          {
            "validator_address": "95980831E186F2540F6E9FB6C8E74DE2401405AC",
            "validator_index": "51",
            "height": "42996",
            "round": "0",
            "timestamp": "2018-08-02T06:27:07.380822763Z",
            "type": 2,
            "block_id": {
              "hash": "F9EABF37AB64DED19DFA3A07C7F7C1106D73C633",
              "parts": {
                "total": "1",
                "hash": "CC7D54E6A770654FE82CFB3CE0C9571A3BE458D4"
              }
            },
            "signature": {
              "type": "tendermint/SignatureEd25519",
              "value": "55yPpLv0TG6C5hM2+3DOSdpaE6HOjRQLtI2ZkDj2N0pcaxCph+C/LIpH9ZX+rNQDMEenIot4WkGtEdM0CLulBA=="
            }
          },
          {
            "validator_address": "95FAFBC1E0579C83D290A063020CE87C5334BD9B",
            "validator_index": "52",
            "height": "42996",
            "round": "0",
            "timestamp": "2018-08-02T06:27:07.385401931Z",
            "type": 2,
            "block_id": {
              "hash": "F9EABF37AB64DED19DFA3A07C7F7C1106D73C633",
              "parts": {
                "total": "1",
                "hash": "CC7D54E6A770654FE82CFB3CE0C9571A3BE458D4"
              }
            },
            "signature": {
              "type": "tendermint/SignatureEd25519",
              "value": "kaw5i4nZCiSNGn+/gdDCW5rk+q//TFmhMIP11NMq8+M4KUsHbU1k1FbHDVk9yFKTK1okviRSHKKXPuezbYCsAg=="
            }
          },
          {
            "validator_address": "96BDE45EC52606CF5CB59853097871AD60680549",
            "validator_index": "53",
            "height": "42996",
            "round": "0",
            "timestamp": "2018-08-02T06:27:07.366940373Z",
            "type": 2,
            "block_id": {
              "hash": "F9EABF37AB64DED19DFA3A07C7F7C1106D73C633",
              "parts": {
                "total": "1",
                "hash": "CC7D54E6A770654FE82CFB3CE0C9571A3BE458D4"
              }
            },
            "signature": {
              "type": "tendermint/SignatureEd25519",
              "value": "vxRXrL3RSQq/4nwO6IjHScnMzNmE6jpLe1VbzduVjcuppddTaooTRsOZrUT8MZrBrtH03E+qE2jIvNHlAq/wDA=="
            }
          },
          {
            "validator_address": "970CD321881185BF83DB2923C321B0E75FDBB2B8",
            "validator_index": "54",
            "height": "42996",
            "round": "0",
            "timestamp": "2018-08-02T06:27:07.456790077Z",
            "type": 2,
            "block_id": {
              "hash": "F9EABF37AB64DED19DFA3A07C7F7C1106D73C633",
              "parts": {
                "total": "1",
                "hash": "CC7D54E6A770654FE82CFB3CE0C9571A3BE458D4"
              }
            },
            "signature": {
              "type": "tendermint/SignatureEd25519",
              "value": "99BSZdhvRK9MshA+dKdm2O1NXxqyOf7czVnrEV9A4oTTZSzVK1OiePjMyzplhtLO42PeWfIRK4HKBSEMrPpjAg=="
            }
          },
          {
            "validator_address": "97DBB3D4B3D6C29287244864448F651DD5B07390",
            "validator_index": "55",
            "height": "42996",
            "round": "0",
            "timestamp": "2018-08-02T06:27:07.512498915Z",
            "type": 2,
            "block_id": {
              "hash": "F9EABF37AB64DED19DFA3A07C7F7C1106D73C633",
              "parts": {
                "total": "1",
                "hash": "CC7D54E6A770654FE82CFB3CE0C9571A3BE458D4"
              }
            },
            "signature": {
              "type": "tendermint/SignatureEd25519",
              "value": "CnF9MZFmTiq+vw+ZTxGUxVcWjBRB9afpfX8GTAU+9KhbuowIaaekuQQ6mzdubgWIBiAQBB4zGvV1UslwYPhsAw=="
            }
          },
          {
            "validator_address": "9C29C9B76D27586E4D9AD2AED0E943162645E55C",
            "validator_index": "56",
            "height": "42996",
            "round": "0",
            "timestamp": "2018-08-02T06:27:07.287917848Z",
            "type": 2,
            "block_id": {
              "hash": "F9EABF37AB64DED19DFA3A07C7F7C1106D73C633",
              "parts": {
                "total": "1",
                "hash": "CC7D54E6A770654FE82CFB3CE0C9571A3BE458D4"
              }
            },
            "signature": {
              "type": "tendermint/SignatureEd25519",
              "value": "Ezlm9T8w+r1z3SM63aBT3OdMaMzeP1w6cR7H39BUge1dulDOiRSwdDtCzgxwobt08YANbFLEypW9xCcW315JCw=="
            }
          },
          {
            "validator_address": "9D93AD02FE1BD7E76B9E58D7EB461088EAD011E5",
            "validator_index": "57",
            "height": "42996",
            "round": "0",
            "timestamp": "2018-08-02T06:27:07.375947441Z",
            "type": 2,
            "block_id": {
              "hash": "F9EABF37AB64DED19DFA3A07C7F7C1106D73C633",
              "parts": {
                "total": "1",
                "hash": "CC7D54E6A770654FE82CFB3CE0C9571A3BE458D4"
              }
            },
            "signature": {
              "type": "tendermint/SignatureEd25519",
              "value": "og0LImG9sRnS8vm5viQFTOd2LhD/3h03FGj1vXzO7au1rPzsDEWvNN66pt9+VeG4oO+V6zvci3o26DqAoWvYAQ=="
            }
          },
          {
            "validator_address": "A0A6466F4ABEA09C3B55E3709AFDE217A103209F",
            "validator_index": "58",
            "height": "42996",
            "round": "0",
            "timestamp": "2018-08-02T06:27:07.370731181Z",
            "type": 2,
            "block_id": {
              "hash": "F9EABF37AB64DED19DFA3A07C7F7C1106D73C633",
              "parts": {
                "total": "1",
                "hash": "CC7D54E6A770654FE82CFB3CE0C9571A3BE458D4"
              }
            },
            "signature": {
              "type": "tendermint/SignatureEd25519",
              "value": "C4vZl74F9cIPmtL8if4g1Eufa14fl8Np9oQnFwTHUBkw94+jEjMcvfZH8o6QeU/W2b7G2CKT2Y4eP/sXDQzLDg=="
            }
          },
          {
            "validator_address": "A5868971300F155020634D7BB49C7634F7AACCD3",
            "validator_index": "59",
            "height": "42996",
            "round": "0",
            "timestamp": "2018-08-02T06:27:07.468940391Z",
            "type": 2,
            "block_id": {
              "hash": "F9EABF37AB64DED19DFA3A07C7F7C1106D73C633",
              "parts": {
                "total": "1",
                "hash": "CC7D54E6A770654FE82CFB3CE0C9571A3BE458D4"
              }
            },
            "signature": {
              "type": "tendermint/SignatureEd25519",
              "value": "AtVhCYmiL+gwYFch/WHIMStS89iK3CIV9qxWBQDQJG841cpZNZJ9egbsfqcWMTr1cIdm6jTqaduuxdTAjeQVAw=="
            }
          },
          {
            "validator_address": "A6B3A5B5D982CFD7B5FDFA15CF5A720E7AE25E7F",
            "validator_index": "60",
            "height": "42996",
            "round": "0",
            "timestamp": "2018-08-02T06:27:07.70579447Z",
            "type": 2,
            "block_id": {
              "hash": "F9EABF37AB64DED19DFA3A07C7F7C1106D73C633",
              "parts": {
                "total": "1",
                "hash": "CC7D54E6A770654FE82CFB3CE0C9571A3BE458D4"
              }
            },
            "signature": {
              "type": "tendermint/SignatureEd25519",
              "value": "W9hsx0YS78jCfwYF6pLw1+GuiCRBXlUQOsecSRgSKxcgrngqCEzcsGnV9ViJyho8x5rEVdlKsNKVuPsb3kyADw=="
            }
          },
          {
            "validator_address": "AC96444A9083890B7C7B430DB17BF1D3EA5EED04",
            "validator_index": "61",
            "height": "42996",
            "round": "0",
            "timestamp": "2018-08-02T06:27:07.376149123Z",
            "type": 2,
            "block_id": {
              "hash": "F9EABF37AB64DED19DFA3A07C7F7C1106D73C633",
              "parts": {
                "total": "1",
                "hash": "CC7D54E6A770654FE82CFB3CE0C9571A3BE458D4"
              }
            },
            "signature": {
              "type": "tendermint/SignatureEd25519",
              "value": "rk0aBD9Xjw34fB0Xt+IM/PUdmYzfGWqRjDXQhBnrukrT0jhA07sb6AAclZ8h/yR9pD8AhX5ZW/Hlc3SXR7xTBA=="
            }
          },
          {
            "validator_address": "ACB97FDA2D940AF0709B73537C458EB988AD2893",
            "validator_index": "62",
            "height": "42996",
            "round": "0",
            "timestamp": "2018-08-02T06:27:07.325266002Z",
            "type": 2,
            "block_id": {
              "hash": "F9EABF37AB64DED19DFA3A07C7F7C1106D73C633",
              "parts": {
                "total": "1",
                "hash": "CC7D54E6A770654FE82CFB3CE0C9571A3BE458D4"
              }
            },
            "signature": {
              "type": "tendermint/SignatureEd25519",
              "value": "jVOQskx9uKoE6FTfRp69febvE6/XTLMt+RBMwSSA6lUV7Hflj6L5iY8RoHzlNhOwxF0i0IUdZeASlUTYOfX6DQ=="
            }
          },
          {
            "validator_address": "B197425B3210375F211661DE02EF2AE36580EB0F",
            "validator_index": "63",
            "height": "42996",
            "round": "0",
            "timestamp": "2018-08-02T06:27:07.382012368Z",
            "type": 2,
            "block_id": {
              "hash": "F9EABF37AB64DED19DFA3A07C7F7C1106D73C633",
              "parts": {
                "total": "1",
                "hash": "CC7D54E6A770654FE82CFB3CE0C9571A3BE458D4"
              }
            },
            "signature": {
              "type": "tendermint/SignatureEd25519",
              "value": "+U9CvKKbNZzNQ++VcnL4ZglICqlvibYvsiU0bMKRu1ks4zqgpIpMVfBm1POeVB3H4LaPksrMgnOZuBqLND6NCA=="
            }
          },
          {
            "validator_address": "B45E54D2D1CB5A4CCD1D49016608C18E7C56B270",
            "validator_index": "64",
            "height": "42996",
            "round": "0",
            "timestamp": "2018-08-02T06:27:07.498232634Z",
            "type": 2,
            "block_id": {
              "hash": "F9EABF37AB64DED19DFA3A07C7F7C1106D73C633",
              "parts": {
                "total": "1",
                "hash": "CC7D54E6A770654FE82CFB3CE0C9571A3BE458D4"
              }
            },
            "signature": {
              "type": "tendermint/SignatureEd25519",
              "value": "zLiFODHVX/YdMdg2VQxApOKD1Vpp9UM4wz0erHuzQIl09//pW57dtbK6hr8sKrORWSHD01AZBySknwPMO21SBQ=="
            }
          },
          {
            "validator_address": "BB1276BE89834835428664408917649FEEF5D90C",
            "validator_index": "65",
            "height": "42996",
            "round": "0",
            "timestamp": "2018-08-02T06:27:07.469816227Z",
            "type": 2,
            "block_id": {
              "hash": "F9EABF37AB64DED19DFA3A07C7F7C1106D73C633",
              "parts": {
                "total": "1",
                "hash": "CC7D54E6A770654FE82CFB3CE0C9571A3BE458D4"
              }
            },
            "signature": {
              "type": "tendermint/SignatureEd25519",
              "value": "O3oyOjcQ7zJvHpOYWRN8HD4zAfzjqUcZ28OMChc/5GuUn7/roaf0LOW5kw/LnbQPJxAqHlzZR8v42tgZw4m6AA=="
            }
          },
          {
            "validator_address": "BC36FEDD6EF6071118A3E51859DF3831A2EC4782",
            "validator_index": "66",
            "height": "42996",
            "round": "0",
            "timestamp": "2018-08-02T06:27:07.404395837Z",
            "type": 2,
            "block_id": {
              "hash": "F9EABF37AB64DED19DFA3A07C7F7C1106D73C633",
              "parts": {
                "total": "1",
                "hash": "CC7D54E6A770654FE82CFB3CE0C9571A3BE458D4"
              }
            },
            "signature": {
              "type": "tendermint/SignatureEd25519",
              "value": "VVRBN9QnVREyozIn/rLSBv2lDWyVTPKHEzQTTcAMhjt28oQCOrE5CwwFLOW9IUo9vaQlHYz0wAuv9wlNIEgDDw=="
            }
          },
          {
            "validator_address": "BD9D0DA513BF099DB4BB6E725A4E19832789882F",
            "validator_index": "67",
            "height": "42996",
            "round": "0",
            "timestamp": "2018-08-02T06:27:07.400661592Z",
            "type": 2,
            "block_id": {
              "hash": "F9EABF37AB64DED19DFA3A07C7F7C1106D73C633",
              "parts": {
                "total": "1",
                "hash": "CC7D54E6A770654FE82CFB3CE0C9571A3BE458D4"
              }
            },
            "signature": {
              "type": "tendermint/SignatureEd25519",
              "value": "/SGwdApdyvHhUuVrv8QDjPRRNSnJON7V8CDrMjLdTVSvX6AiOVFnhiYVR0vHSEPS8eJOcAoo1PHz8zRgadtaDw=="
            }
          },
          {
            "validator_address": "C1134A2FF8F7338E7CDB3FE57DDD2A655DEB1E22",
            "validator_index": "68",
            "height": "42996",
            "round": "0",
            "timestamp": "2018-08-02T06:27:07.107738395Z",
            "type": 2,
            "block_id": {
              "hash": "F9EABF37AB64DED19DFA3A07C7F7C1106D73C633",
              "parts": {
                "total": "1",
                "hash": "CC7D54E6A770654FE82CFB3CE0C9571A3BE458D4"
              }
            },
            "signature": {
              "type": "tendermint/SignatureEd25519",
              "value": "ovavU5MzfmeFdg9/I0eC9UIAQsbYGeYoPgvs6jwej0ZWF+5SBhJkZx7iXw4Zqhp8U7u2ux1/B+qtsia+07lqCQ=="
            }
          },
          {
            "validator_address": "C39A8A2B85198DCB8F23AD1F6C198E2BA7AB5D60",
            "validator_index": "69",
            "height": "42996",
            "round": "0",
            "timestamp": "2018-08-02T06:27:07.280125885Z",
            "type": 2,
            "block_id": {
              "hash": "F9EABF37AB64DED19DFA3A07C7F7C1106D73C633",
              "parts": {
                "total": "1",
                "hash": "CC7D54E6A770654FE82CFB3CE0C9571A3BE458D4"
              }
            },
            "signature": {
              "type": "tendermint/SignatureEd25519",
              "value": "RUZ6eAnC8bSIN/DcbORXUAY8YCBe1PFfIi707TZWb9MD71Ws7K4ZexC6dwZ85fnI6xcmGtIhFAgl9OYyRlJeDQ=="
            }
          },
          {
            "validator_address": "C4335190C3B5BD4BA5568BC0F99C34162D940D08",
            "validator_index": "70",
            "height": "42996",
            "round": "0",
            "timestamp": "2018-08-02T06:27:07.415658501Z",
            "type": 2,
            "block_id": {
              "hash": "F9EABF37AB64DED19DFA3A07C7F7C1106D73C633",
              "parts": {
                "total": "1",
                "hash": "CC7D54E6A770654FE82CFB3CE0C9571A3BE458D4"
              }
            },
            "signature": {
              "type": "tendermint/SignatureEd25519",
              "value": "yk+47Ig8e3rNdOBmA+FG/KAcEm4FQSdQiCqQp+YtguFAW3F0JuAC8mu5Ktr/I97dOXoAH+eZ9YOXzsVc5goJCA=="
            }
          },
          {
            "validator_address": "C561CFA081677046376396922E7576E5F7B316AD",
            "validator_index": "71",
            "height": "42996",
            "round": "0",
            "timestamp": "2018-08-02T06:27:07.423314515Z",
            "type": 2,
            "block_id": {
              "hash": "F9EABF37AB64DED19DFA3A07C7F7C1106D73C633",
              "parts": {
                "total": "1",
                "hash": "CC7D54E6A770654FE82CFB3CE0C9571A3BE458D4"
              }
            },
            "signature": {
              "type": "tendermint/SignatureEd25519",
              "value": "8fRsSbcpAe3FVFUzCtRiHkQ3iZGpXK0ccFCaec4Pla1LJQen2ZIWh8+f0dMIeyEKMAe1amZtkvsl8LUbV3JKDg=="
            }
          },
          {
            "validator_address": "CE589EA77B056D268D30D1DC1D68A70E0F885E95",
            "validator_index": "72",
            "height": "42996",
            "round": "0",
            "timestamp": "2018-08-02T06:27:07.396868374Z",
            "type": 2,
            "block_id": {
              "hash": "F9EABF37AB64DED19DFA3A07C7F7C1106D73C633",
              "parts": {
                "total": "1",
                "hash": "CC7D54E6A770654FE82CFB3CE0C9571A3BE458D4"
              }
            },
            "signature": {
              "type": "tendermint/SignatureEd25519",
              "value": "Yp7EkIJk93zCioeIO22PNsj41Tsx9stSerUwouH6tgmmwD3yO1IreRm8cZk8JNpRdNRg623e11GT6AdL5CY5CQ=="
            }
          },
          {
            "validator_address": "CEB97DB5CB18270247ABDE6CF2F84F9AEE8A2904",
            "validator_index": "73",
            "height": "42996",
            "round": "0",
            "timestamp": "2018-08-02T06:27:08.404277017Z",
            "type": 2,
            "block_id": {
              "hash": "F9EABF37AB64DED19DFA3A07C7F7C1106D73C633",
              "parts": {
                "total": "1",
                "hash": "CC7D54E6A770654FE82CFB3CE0C9571A3BE458D4"
              }
            },
            "signature": {
              "type": "tendermint/SignatureEd25519",
              "value": "sdWgbOd7scKZFRiUqDAGYUyyfcDpxHlqt6OF0LV9WBXOZCI9w/PnmcurTB9Jywm1cG4iN5Zo0CseFdWPZD/lBg=="
            }
          },
          {
            "validator_address": "D2134B826A1E25A955905CB79A4D8731CAFA0CCE",
            "validator_index": "74",
            "height": "42996",
            "round": "0",
            "timestamp": "2018-08-02T06:27:07.458861513Z",
            "type": 2,
            "block_id": {
              "hash": "F9EABF37AB64DED19DFA3A07C7F7C1106D73C633",
              "parts": {
                "total": "1",
                "hash": "CC7D54E6A770654FE82CFB3CE0C9571A3BE458D4"
              }
            },
            "signature": {
              "type": "tendermint/SignatureEd25519",
              "value": "u3ixm6kGichMwE/c44HkPRq51ku5UBWLi5QjObpkoKy+PCw+b+gmg/JK2WQ+/zGAG0+NvzaYqTUu0BwBwVCADQ=="
            }
          },
          {
            "validator_address": "D6285C3422C8886445D53757CBE12D2B91B5A9D0",
            "validator_index": "75",
            "height": "42996",
            "round": "0",
            "timestamp": "2018-08-02T06:26:50.627085686Z",
            "type": 2,
            "block_id": {
              "hash": "F9EABF37AB64DED19DFA3A07C7F7C1106D73C633",
              "parts": {
                "total": "1",
                "hash": "CC7D54E6A770654FE82CFB3CE0C9571A3BE458D4"
              }
            },
            "signature": {
              "type": "tendermint/SignatureEd25519",
              "value": "bFfUcSSctD1ZmSLKYA8a7aFp8NH6JjDEGSB11y/t0dmsWpZg+lqoeU+02XbzLN9yYUigE6HUWS+cmk7d4pNfCA=="
            }
          },
          {
            "validator_address": "D77FB84A729972CD3E757C9BEB61561855832B92",
            "validator_index": "76",
            "height": "42996",
            "round": "0",
            "timestamp": "2018-08-02T06:27:07.46003087Z",
            "type": 2,
            "block_id": {
              "hash": "F9EABF37AB64DED19DFA3A07C7F7C1106D73C633",
              "parts": {
                "total": "1",
                "hash": "CC7D54E6A770654FE82CFB3CE0C9571A3BE458D4"
              }
            },
            "signature": {
              "type": "tendermint/SignatureEd25519",
              "value": "fj/m5uP0lw/7kfg/p1TMgPFv4YfNGpcl6pYGPeEYFNf/ED2gSPp03cehy1KnOSYyX3PF1siW47Zm0k9whUjkAQ=="
            }
          },
          {
            "validator_address": "DB7E6732471D3EA5C90C17A9974D9F88AB45F2FB",
            "validator_index": "77",
            "height": "42996",
            "round": "0",
            "timestamp": "2018-08-02T06:27:07.388218142Z",
            "type": 2,
            "block_id": {
              "hash": "F9EABF37AB64DED19DFA3A07C7F7C1106D73C633",
              "parts": {
                "total": "1",
                "hash": "CC7D54E6A770654FE82CFB3CE0C9571A3BE458D4"
              }
            },
            "signature": {
              "type": "tendermint/SignatureEd25519",
              "value": "P6E9dvTlJCHYOCAWqCVqR2YD6XIceUDQ8O/UmtTEXrt7k6T+T/LpmPKjrAsQLi1d6NxdJcTwGn9+T2cc1E1LDw=="
            }
          },
          {
            "validator_address": "DF54B862410BCD9B5C516FBB6C56BDC826ED6FA7",
            "validator_index": "78",
            "height": "42996",
            "round": "0",
            "timestamp": "2018-08-02T06:27:07.464309892Z",
            "type": 2,
            "block_id": {
              "hash": "F9EABF37AB64DED19DFA3A07C7F7C1106D73C633",
              "parts": {
                "total": "1",
                "hash": "CC7D54E6A770654FE82CFB3CE0C9571A3BE458D4"
              }
            },
            "signature": {
              "type": "tendermint/SignatureEd25519",
              "value": "qKrA/AX5Z6gw/vEKaNb6d/uXoiqBxfuiane2VbneIk1KtSksosYLsAk8xmU20I3ky8cVE3CwH56lzErHP7gLAA=="
            }
          },
          {
            "validator_address": "DFAF0C8B1B78D6D552B0189DE3ACA351439A1319",
            "validator_index": "79",
            "height": "42996",
            "round": "0",
            "timestamp": "2018-08-02T06:27:07.345554366Z",
            "type": 2,
            "block_id": {
              "hash": "F9EABF37AB64DED19DFA3A07C7F7C1106D73C633",
              "parts": {
                "total": "1",
                "hash": "CC7D54E6A770654FE82CFB3CE0C9571A3BE458D4"
              }
            },
            "signature": {
              "type": "tendermint/SignatureEd25519",
              "value": "r71cH/rFOL5234x4q48OFY4EXjNaYbYnl0gr+sgQoDsUs+J1CEP8U5Z3hPstRvfdu6rUO5M3Y1JE2/mFyWSlAA=="
            }
          },
          {
            "validator_address": "E1DBC77881161A5A3A8536A57536EAE546A75D69",
            "validator_index": "80",
            "height": "42996",
            "round": "0",
            "timestamp": "2018-08-02T06:27:07.276403605Z",
            "type": 2,
            "block_id": {
              "hash": "F9EABF37AB64DED19DFA3A07C7F7C1106D73C633",
              "parts": {
                "total": "1",
                "hash": "CC7D54E6A770654FE82CFB3CE0C9571A3BE458D4"
              }
            },
            "signature": {
              "type": "tendermint/SignatureEd25519",
              "value": "EDozkNeIUFg4Rqg50vViIKTYvmY7cEl2W+lwkAhp85ASxCVYrP1ZxfnRJkYB5MktPqbo86IwzPpoFFFmy2vtBA=="
            }
          },
          {
            "validator_address": "E300E9D484374C1D3E97C1D93CAC3B160A056298",
            "validator_index": "81",
            "height": "42996",
            "round": "0",
            "timestamp": "2018-08-02T06:27:07.570848339Z",
            "type": 2,
            "block_id": {
              "hash": "F9EABF37AB64DED19DFA3A07C7F7C1106D73C633",
              "parts": {
                "total": "1",
                "hash": "CC7D54E6A770654FE82CFB3CE0C9571A3BE458D4"
              }
            },
            "signature": {
              "type": "tendermint/SignatureEd25519",
              "value": "I9rBnrYls/i99ldsM+uH+TRFHfIESkqcPJHrmoK8Q0vi3Q/wXsf353JS/LfiFHoJcYtSsK9YotbyQb9AK4LDBw=="
            }
          },
          {
            "validator_address": "E39B5778E0D4297A46F45CF6940B0A163A430FF8",
            "validator_index": "82",
            "height": "42996",
            "round": "0",
            "timestamp": "2018-08-02T06:27:07.373825462Z",
            "type": 2,
            "block_id": {
              "hash": "F9EABF37AB64DED19DFA3A07C7F7C1106D73C633",
              "parts": {
                "total": "1",
                "hash": "CC7D54E6A770654FE82CFB3CE0C9571A3BE458D4"
              }
            },
            "signature": {
              "type": "tendermint/SignatureEd25519",
              "value": "crd+bIxaCJT8tuUhjs0684MWj632coCHF7cUayW9KdnGdiLv9ffn4UhR4Ppan3KRckH1+4rdSVvQyyHFPY3JAA=="
            }
          },
          {
            "validator_address": "E3B19738F7132F950668504D326C7660F159D170",
            "validator_index": "83",
            "height": "42996",
            "round": "0",
            "timestamp": "2018-08-02T06:27:07.301390349Z",
            "type": 2,
            "block_id": {
              "hash": "F9EABF37AB64DED19DFA3A07C7F7C1106D73C633",
              "parts": {
                "total": "1",
                "hash": "CC7D54E6A770654FE82CFB3CE0C9571A3BE458D4"
              }
            },
            "signature": {
              "type": "tendermint/SignatureEd25519",
              "value": "4ca8TrIlZ3K7ttlJDwbGcYgM1tgWPe+6B9puxbQmIt0pqrqK8TCaB9+DzQJGvINIuumcZS49Zqa/DBLwXgzWBA=="
            }
          },
          {
            "validator_address": "E42F8AEABB685219F7027F54D2B0DBC7846F633A",
            "validator_index": "84",
            "height": "42996",
            "round": "0",
            "timestamp": "2018-08-02T06:27:06.408359796Z",
            "type": 2,
            "block_id": {
              "hash": "F9EABF37AB64DED19DFA3A07C7F7C1106D73C633",
              "parts": {
                "total": "1",
                "hash": "CC7D54E6A770654FE82CFB3CE0C9571A3BE458D4"
              }
            },
            "signature": {
              "type": "tendermint/SignatureEd25519",
              "value": "rzd/OkJ+gq0I1gYHCFpPPRH+h1Il7lOwz2u7tfEy9wo9+smGQKk/dUTph9qM/HElBifqnzOAK8CCFg8pelJ1CA=="
            }
          },
          {
            "validator_address": "E4E6C2E81269DFFA196C17F98240E491479A6008",
            "validator_index": "85",
            "height": "42996",
            "round": "0",
            "timestamp": "2018-08-02T06:27:07.418257694Z",
            "type": 2,
            "block_id": {
              "hash": "F9EABF37AB64DED19DFA3A07C7F7C1106D73C633",
              "parts": {
                "total": "1",
                "hash": "CC7D54E6A770654FE82CFB3CE0C9571A3BE458D4"
              }
            },
            "signature": {
              "type": "tendermint/SignatureEd25519",
              "value": "47D+6hpyu5UCD56Aq2U7gnXXBxakAlsa8vrCspwDXZbsjAeQIRkLfTZLNqsV4VBnR3r/6DUBcDkBbtoxLh3kBg=="
            }
          },
          {
            "validator_address": "E4FEB2846F4F3B0ECDCBE9C9DCB2248248A5AF0F",
            "validator_index": "86",
            "height": "42996",
            "round": "0",
            "timestamp": "2018-08-02T06:27:07.138241472Z",
            "type": 2,
            "block_id": {
              "hash": "F9EABF37AB64DED19DFA3A07C7F7C1106D73C633",
              "parts": {
                "total": "1",
                "hash": "CC7D54E6A770654FE82CFB3CE0C9571A3BE458D4"
              }
            },
            "signature": {
              "type": "tendermint/SignatureEd25519",
              "value": "k0Jrep7XsGojVfP9XialVDCV6sq7Ke8T+smhwrv182H89YAsjahBzSpw3zJ7CslXl5SL9zWdg4GPwe8tLDYdCw=="
            }
          },
          {
            "validator_address": "E50ADECD5FD27FA2CD610C07F8AED36A2FC4A6A6",
            "validator_index": "87",
            "height": "42996",
            "round": "0",
            "timestamp": "2018-08-02T06:27:07.322619719Z",
            "type": 2,
            "block_id": {
              "hash": "F9EABF37AB64DED19DFA3A07C7F7C1106D73C633",
              "parts": {
                "total": "1",
                "hash": "CC7D54E6A770654FE82CFB3CE0C9571A3BE458D4"
              }
            },
            "signature": {
              "type": "tendermint/SignatureEd25519",
              "value": "Pax0C4jChZkM8VanMMOur1h3iaEspmDiSPKb6zbuqMfBZwy3a0IWXjVakJpTtiuOiGdU3VqIfV5X8vBLjPYQDQ=="
            }
          },
          {
            "validator_address": "E6A7079D584B163750BE0831227F6B685DEAF3C1",
            "validator_index": "88",
            "height": "42996",
            "round": "0",
            "timestamp": "2018-08-02T06:27:07.470515443Z",
            "type": 2,
            "block_id": {
              "hash": "F9EABF37AB64DED19DFA3A07C7F7C1106D73C633",
              "parts": {
                "total": "1",
                "hash": "CC7D54E6A770654FE82CFB3CE0C9571A3BE458D4"
              }
            },
            "signature": {
              "type": "tendermint/SignatureEd25519",
              "value": "arbzRNQY6HXhytveTBaIC2T/+JOvuuXMFXLi2Wowr3SSvWmZt9gBZ4X/0zwKb+aWmKejU00CLqAFbM1MaHZ1Cg=="
            }
          },
          {
            "validator_address": "E7A30077D5D11867D3EAF99ED45BFDC1EB834509",
            "validator_index": "89",
            "height": "42996",
            "round": "0",
            "timestamp": "2018-08-02T06:27:07.316907033Z",
            "type": 2,
            "block_id": {
              "hash": "F9EABF37AB64DED19DFA3A07C7F7C1106D73C633",
              "parts": {
                "total": "1",
                "hash": "CC7D54E6A770654FE82CFB3CE0C9571A3BE458D4"
              }
            },
            "signature": {
              "type": "tendermint/SignatureEd25519",
              "value": "8d4sbPMiA7vx6uvz+MwdHrlZtUuognpge4xhbwpLkrqdn8M/Lat1zDBqsg+nOc78grmB2pLeujmRiOyTX9s+CA=="
            }
          },
          {
            "validator_address": "EBC613967F66F4EC306852CDF58B4F151CF16738",
            "validator_index": "90",
            "height": "42996",
            "round": "0",
            "timestamp": "2018-08-02T06:27:07.51880551Z",
            "type": 2,
            "block_id": {
              "hash": "F9EABF37AB64DED19DFA3A07C7F7C1106D73C633",
              "parts": {
                "total": "1",
                "hash": "CC7D54E6A770654FE82CFB3CE0C9571A3BE458D4"
              }
            },
            "signature": {
              "type": "tendermint/SignatureEd25519",
              "value": "oD2KxurZVAeFKJ+xxIQJwixDqMLWxTAyQWOuehjKxfb+wDASXO0HDanK4Tgvi3t/oDFhg2zmrX0I0PtBlatAAw=="
            }
          },
          {
            "validator_address": "EC3401441726C40ECC7E51F744483B05BC6DE9BD",
            "validator_index": "91",
            "height": "42996",
            "round": "0",
            "timestamp": "2018-08-02T06:27:07.410916525Z",
            "type": 2,
            "block_id": {
              "hash": "F9EABF37AB64DED19DFA3A07C7F7C1106D73C633",
              "parts": {
                "total": "1",
                "hash": "CC7D54E6A770654FE82CFB3CE0C9571A3BE458D4"
              }
            },
            "signature": {
              "type": "tendermint/SignatureEd25519",
              "value": "lMHxQqRCJ9Kr07CT9R4Rk1MlABGUFBmEvceGEJvSU+QKTUR4YxWxtqjpUapZ0IT46mxI5a3shixke0T2RiMhBQ=="
            }
          },
          {
            "validator_address": "EC95B111D032181E1EC3B5E8875C5BB8E4AE7140",
            "validator_index": "92",
            "height": "42996",
            "round": "0",
            "timestamp": "2018-08-02T06:27:07.316512217Z",
            "type": 2,
            "block_id": {
              "hash": "F9EABF37AB64DED19DFA3A07C7F7C1106D73C633",
              "parts": {
                "total": "1",
                "hash": "CC7D54E6A770654FE82CFB3CE0C9571A3BE458D4"
              }
            },
            "signature": {
              "type": "tendermint/SignatureEd25519",
              "value": "lge4FZR0EbK6xk5Dlry+WQia+3oTFMcC+v0NlbHvHu2MRno/fWlxNfw1lvxwcF9vI7tIP5DXU+vFOVpsRu0xCw=="
            }
          },
          {
            "validator_address": "F13C1805E8131C9B47E2A46818F57D8A2841E578",
            "validator_index": "93",
            "height": "42996",
            "round": "0",
            "timestamp": "2018-08-02T06:27:07.373759945Z",
            "type": 2,
            "block_id": {
              "hash": "F9EABF37AB64DED19DFA3A07C7F7C1106D73C633",
              "parts": {
                "total": "1",
                "hash": "CC7D54E6A770654FE82CFB3CE0C9571A3BE458D4"
              }
            },
            "signature": {
              "type": "tendermint/SignatureEd25519",
              "value": "hHkOU6IrBMssykmPhHFDbgFfU44/FXzjf+SIZR8RxxYSLKhD5jfs10TWfgJ6oWziCqoaweOhlT/HO4cF7R6LBg=="
            }
          },
          {
            "validator_address": "F23FF36BD5B90C33CE3A03ED72DBDCF5EC07D6AF",
            "validator_index": "94",
            "height": "42996",
            "round": "0",
            "timestamp": "2018-08-02T06:27:07.363173208Z",
            "type": 2,
            "block_id": {
              "hash": "F9EABF37AB64DED19DFA3A07C7F7C1106D73C633",
              "parts": {
                "total": "1",
                "hash": "CC7D54E6A770654FE82CFB3CE0C9571A3BE458D4"
              }
            },
            "signature": {
              "type": "tendermint/SignatureEd25519",
              "value": "xq9gyVitgXbnk1KIdpkj74gmt++bpZuwbDaEp8TD4R9m1LWD121ryMBwyWiCvZ3FHN/izhS5ZKv3QVP+d8ZdAA=="
            }
          },
          {
            "validator_address": "F4268597DE93E3E2CED38845010F8AA34E2A879E",
            "validator_index": "95",
            "height": "42996",
            "round": "0",
            "timestamp": "2018-08-02T06:27:07.405087323Z",
            "type": 2,
            "block_id": {
              "hash": "F9EABF37AB64DED19DFA3A07C7F7C1106D73C633",
              "parts": {
                "total": "1",
                "hash": "CC7D54E6A770654FE82CFB3CE0C9571A3BE458D4"
              }
            },
            "signature": {
              "type": "tendermint/SignatureEd25519",
              "value": "8OQuKyS9PSLrJPn0iU/mIsj+ibn7q5vy3nwTvzFXqIb/Dt5dGLVkBCJ4Nq7kljHB/J4LioNHpgwLZAWtvakDBg=="
            }
          },
          {
            "validator_address": "F4DEB417999B04BE2EFF9FFE03FA373D86011CC0",
            "validator_index": "96",
            "height": "42996",
            "round": "0",
            "timestamp": "2018-08-02T06:27:07.380091075Z",
            "type": 2,
            "block_id": {
              "hash": "F9EABF37AB64DED19DFA3A07C7F7C1106D73C633",
              "parts": {
                "total": "1",
                "hash": "CC7D54E6A770654FE82CFB3CE0C9571A3BE458D4"
              }
            },
            "signature": {
              "type": "tendermint/SignatureEd25519",
              "value": "1SphB5MICZXLBExF2U69ZtZyFgqNclFgjMDSzecnGSedobG0mElPJrzWIJv56iTUCtHbXByP5UfvoRLWuEXQAw=="
            }
          },
          {
            "validator_address": "F6738260186D33D9C14FC6E7017AFE6BB952A63D",
            "validator_index": "97",
            "height": "42996",
            "round": "0",
            "timestamp": "2018-08-02T06:27:07.339745498Z",
            "type": 2,
            "block_id": {
              "hash": "F9EABF37AB64DED19DFA3A07C7F7C1106D73C633",
              "parts": {
                "total": "1",
                "hash": "CC7D54E6A770654FE82CFB3CE0C9571A3BE458D4"
              }
            },
            "signature": {
              "type": "tendermint/SignatureEd25519",
              "value": "t4mzG2swEsAtlk79sYDdYr7bTHxZAdns9nVxzDwLhucnuCdBjuAVP7eeoyaQZ0gxUEy20LWLHwkp68/crdgrBg=="
            }
          },
          {
            "validator_address": "FD8D304F0278229077114B05BED9DABD382D49D8",
            "validator_index": "98",
            "height": "42996",
            "round": "0",
            "timestamp": "2018-08-02T06:27:07.386553198Z",
            "type": 2,
            "block_id": {
              "hash": "F9EABF37AB64DED19DFA3A07C7F7C1106D73C633",
              "parts": {
                "total": "1",
                "hash": "CC7D54E6A770654FE82CFB3CE0C9571A3BE458D4"
              }
            },
            "signature": {
              "type": "tendermint/SignatureEd25519",
              "value": "W2hy58orqnRtRFpIL43MUCTHaN5Vy2S9rCo+ECdh3nFdUL3F1sJKW0U7snJbSn+dxYVTmV0V/OQpEIjy2f7PCw=="
            }
          },
          {
            "validator_address": "FF3F3FCBCE7E62D7AD5506FF846EC4518D980515",
            "validator_index": "99",
            "height": "42996",
            "round": "0",
            "timestamp": "2018-08-02T06:27:07.299025088Z",
            "type": 2,
            "block_id": {
              "hash": "F9EABF37AB64DED19DFA3A07C7F7C1106D73C633",
              "parts": {
                "total": "1",
                "hash": "CC7D54E6A770654FE82CFB3CE0C9571A3BE458D4"
              }
            },
            "signature": {
              "type": "tendermint/SignatureEd25519",
              "value": "EAdpIhO3Ok5e79yS5EEjecYJet3CKLi+gDLIzRJNu3on0LOh10SMofUDww3wr90p9us3ixLov3tnbIhj8PdtAw=="
            }
          }
        ]
      }
    },
    "canonical": true
  }
}