{
  "jsonrpc": "2.0",
  "id": "",
  "result": {
    "SignedHeader": {
      "header": {
        "chain_id": "gaia-7004",
        "height": "43510",
        "time": "2018-08-02T07:20:29.057336126Z",
        "num_txs": "0",
        "last_block_id": {
          "hash": "08CA6235D81BF3BBDC20DD5A63C1C2A86C7C9674",
          "parts": {
            "total": "1",
            "hash": "8D7BABC4A7237DF2D769C01B2B92F4A7B4A291E5"
          }
        },
        "total_txs": "2025",
        "last_commit_hash": "45D128B97500F06BC7884561111AC4629AA3E113",
        "data_hash": "",
        "validators_hash": "7F834681D8D9644FE0F706BB6D5A04C077595D31",
        "consensus_hash": "D6B74BB35BDFFD8392340F2A379173548AE188FE",
        "app_hash": "6E3083AB50503E574B5AE0E1798B274AE0626847",
        "last_results_hash": "",
        "evidence_hash": ""
      },
      "commit": {
        "block_id": {
          "hash": "B2AC5799161DE50B33FCE12353C3D75D0FD86684",
          "parts": {
            "total": "1",
            "hash": "B3528EDC052246FBB197D0863DCB6334B9ABCFCC"
          }
        },
        "precommits": [
          {
            "validator_address": "029359C0C768096273A68ABC902A6B17AC8D1D70",
            "validator_index": "0",
            "height": "43510",
            "round": "0",
            "timestamp": "2018-08-02T07:20:29.876678933Z",
            "type": 2,
            "block_id": {
              "hash": "B2AC5799161DE50B33FCE12353C3D75D0FD86684",
              "parts": {
                "total": "1",
                "hash": "B3528EDC052246FBB197D0863DCB6334B9ABCFCC"
              }
            },
            "signature": {
              "type": "tendermint/SignatureEd25519",
              "value": "oVAcrVKJKsOGva2oTuoxEwvbxQBWVq8K4oGrCY71CS3nizvi10HeyTUP8k4OkwobiDurxLdn7W8UDNg0dAFECw=="
            }
          },
          {
            "validator_address": "02FE4B97A8387F39D1AC19E0C1702B3CC614812F",
            "validator_index": "1",
            "height": "43510",
            "round": "0",
            "timestamp": "2018-08-02T07:20:29.871150353Z",
            "type": 2,
            "block_id": {
              "hash": "B2AC5799161DE50B33FCE12353C3D75D0FD86684",
              "parts": {
                "total": "1",
                "hash": "B3528EDC052246FBB197D0863DCB6334B9ABCFCC"
              }
            },
            "signature": {
              "type": "tendermint/SignatureEd25519",
              "value": "yfj7BLv7pb4c2BN+y0+AJnrVXcdzKRK4RDCw0lFrA28P0GpPwNm+1LKrAFyNiqU1pYkbg2IxhpzRsYBY3iWgDA=="
            }
          },
          {
            "validator_address": "0548261C50222FD710EB5EBDF03A0E6567B21D20",
            "validator_index": "2",
            "height": "43510",
            "round": "0",
            "timestamp": "2018-08-02T07:20:29.99816852Z",
            "type": 2,
            "block_id": {
              "hash": "B2AC5799161DE50B33FCE12353C3D75D0FD86684",
              "parts": {
                "total": "1",
                "hash": "B3528EDC052246FBB197D0863DCB6334B9ABCFCC"
              }
            },
            "signature": {
              "type": "tendermint/SignatureEd25519",
              "value": "jZFYiHdAsVPqnNke4T++QV9zUYeFbsfN0tLozCuEx0yNYcYlAJ6CKP3Sg51Jl1/TNmTZUzx5pgfOAYwS3AxCCw=="
            }
          },
          {
            "validator_address": "0665ADBF9B120B7617BF955AA5653A1992C82B11",
            "validator_index": "3",
            "height": "43510",
            "round": "0",
            "timestamp": "2018-08-02T07:20:29.937001266Z",
            "type": 2,
            "block_id": {
              "hash": "B2AC5799161DE50B33FCE12353C3D75D0FD86684",
              "parts": {
                "total": "1",
                "hash": "B3528EDC052246FBB197D0863DCB6334B9ABCFCC"
              }
            },
            "signature": {
              "type": "tendermint/SignatureEd25519",
              "value": "JLmzOpd2jgPTEYMuuCmCs3+LpVHOHTwML5lCk7nP+v6Ni1fATSXWR7/6uMNGQzJ23IR4dRXWsJXg/+Y4jRJdCw=="
            }
          },
          {
            "validator_address": "09145E611CC27EEB944FC5A956DDF710F943B9EF",
            "validator_index": "4",
            "height": "43510",
            "round": "0",
            "timestamp": "2018-08-02T07:20:29.916160102Z",
            "type": 2,
            "block_id": {
              "hash": "B2AC5799161DE50B33FCE12353C3D75D0FD86684",
              "parts": {
                "total": "1",
                "hash": "B3528EDC052246FBB197D0863DCB6334B9ABCFCC"
              }
            },
            "signature": {
              "type": "tendermint/SignatureEd25519",
              "value": "Jc++P3IEwL3HpTtA2tLqOxf+S5y7oxwg1YULqnUS+NfTwCmpI16BUigks9/612tIIoGIEK9t0EjXWLslFd6iAg=="
            }
          },
          {
            "validator_address": "0989D0355A104B67AE0AE028C68FB610690E174B",
            "validator_index": "5",
            "height": "43510",
            "round": "0",
            "timestamp": "2018-08-02T07:20:29.933161978Z",
            "type": 2,
            "block_id": {
              "hash": "B2AC5799161DE50B33FCE12353C3D75D0FD86684",
              "parts": {
                "total": "1",
                "hash": "B3528EDC052246FBB197D0863DCB6334B9ABCFCC"
              }
            },
            "signature": {
              "type": "tendermint/SignatureEd25519",
              "value": "UKtTSFiW43KdS17vkxoP09bxkTdOb/2kfbaDkS+U3h3sKy8eJ9yAumm3750l7UOycYvLZSOBI9zAA1YYDFGhBQ=="
            }
          },
          {
            "validator_address": "0A692DBFFE9E5DD28E7DECC33CED1AEB4C0D014E",
            "validator_index": "6",
            "height": "43510",
            "round": "0",
            "timestamp": "2018-08-02T07:20:30.101030793Z",
            "type": 2,
            "block_id": {
              "hash": "B2AC5799161DE50B33FCE12353C3D75D0FD86684",
              "parts": {
                "total": "1",
                "hash": "B3528EDC052246FBB197D0863DCB6334B9ABCFCC"
              }
            },
            "signature": {
              "type": "tendermint/SignatureEd25519",
              "value": "aY1wyIfeov11Kq+l+Ft+IJ2RZ+A/lEBdxUQftmUpAGLLyxpmW+e/xSxhedVxf6hRkC7b4zs5VObrmAwQc1wJDw=="
            }
          },
          null,
          {
            "validator_address": "1751786EFC085D5331C61168FFFC8202EA151B4E",
            "validator_index": "8",
            "height": "43510",
            "round": "0",
            "timestamp": "2018-08-02T07:20:29.537216824Z",
            "type": 2,
            "block_id": {
              "hash": "B2AC5799161DE50B33FCE12353C3D75D0FD86684",
              "parts": {
                "total": "1",
                "hash": "B3528EDC052246FBB197D0863DCB6334B9ABCFCC"
              }
            },
            "signature": {
              "type": "tendermint/SignatureEd25519",
              "value": "UabYsmCXcYNDaLB+Em20ajL4n7N4NmSxv6exr0iZXtoYQpefbvbswkoS9XCvBhykXrjJ4Ik9mX7kq5GKv+5bDQ=="
            }
          },
          {
            "validator_address": "17BB5CD01E8940FAFB948A04D5FA5A0645E5822E",
            "validator_index": "9",
            "height": "43510",
            "round": "0",
            "timestamp": "2018-08-02T07:20:29.90480099Z",
            "type": 2,
            "block_id": {
              "hash": "B2AC5799161DE50B33FCE12353C3D75D0FD86684",
              "parts": {
                "total": "1",
                "hash": "B3528EDC052246FBB197D0863DCB6334B9ABCFCC"
              }
            },
            "signature": {
              "type": "tendermint/SignatureEd25519",
              "value": "bNpmzvX+ojepKmvuK9hXwd82Wmw6Jh9fwITjNqlKSztnSWxsHaeGg4HPoyLhijX2slpdBvU1vH6HFIPDzaOfBQ=="
            }
          },
          {
            "validator_address": "1C683A87904BC38F05004FE83301A3A3E35447EB",
            "validator_index": "10",
            "height": "43510",
            "round": "0",
            "timestamp": "2018-08-02T07:20:29.902929088Z",
            "type": 2,
            "block_id": {
              "hash": "B2AC5799161DE50B33FCE12353C3D75D0FD86684",
              "parts": {
                "total": "1",
                "hash": "B3528EDC052246FBB197D0863DCB6334B9ABCFCC"
              }
            },
            "signature": {
              "type": "tendermint/SignatureEd25519",
              "value": "fXhj8kAZi501rPzKa8a0L4xHel0JkeiRkS8PJthQE9/QP55fArbbnEod5meJJK6KiX6DicG2fHo6lc9eamaVCw=="
            }
          },
          {
            "validator_address": "1E9CE94FD0BA5CFEB901F90BC658D64D85B134D2",
            "validator_index": "11",
            "height": "43510",
            "round": "0",
            "timestamp": "2018-08-02T07:20:29.95166765Z",
            "type": 2,
            "block_id": {
              "hash": "B2AC5799161DE50B33FCE12353C3D75D0FD86684",
              "parts": {
                "total": "1",
                "hash": "B3528EDC052246FBB197D0863DCB6334B9ABCFCC"
              }
            },
            "signature": {
              "type": "tendermint/SignatureEd25519",
              "value": "laBNn9s5KjWGSEVesKrF5Sj77UnZQHbHsmdaiifD0dvDtvRs40XgSTytdu4EZ7BrsmgOToRcqng/A2xUvNJJBA=="
            }
          },
          {
            "validator_address": "1ECD8C5FE1341D74CDC633A245DD56858DE2F9A2",
            "validator_index": "12",
            "height": "43510",
            "round": "0",
            "timestamp": "2018-08-02T07:20:30.067420163Z",
            "type": 2,
            "block_id": {
              "hash": "B2AC5799161DE50B33FCE12353C3D75D0FD86684",
              "parts": {
                "total": "1",
                "hash": "B3528EDC052246FBB197D0863DCB6334B9ABCFCC"
              }
            },
            "signature": {
              "type": "tendermint/SignatureEd25519",
              "value": "OW8uwwAkOTzd3ROMeerOOkfABVs8kOcnLbravIZGdB+0qnX02dKnCw8CRyNYJ/zUrE+a17tEymUQSc2OI5U6Ag=="
            }
          },
          {
            "validator_address": "1F3A68CAAD483768AA2BF667DEF10F7104C89928",
            "validator_index": "13",
            "height": "43510",
            "round": "0",
            "timestamp": "2018-08-02T07:20:29.944665417Z",
            "type": 2,
            "block_id": {
              "hash": "B2AC5799161DE50B33FCE12353C3D75D0FD86684",
              "parts": {
                "total": "1",
                "hash": "B3528EDC052246FBB197D0863DCB6334B9ABCFCC"
              }
            },
            "signature": {
              "type": "tendermint/SignatureEd25519",
              "value": "xVlFg8aP4VfvVclv07Q1OYLRiBN5an9/59pqJJmsP64qfjdwz0ktylPSA5KD9D/I2kH8pORGjHXrrGweVXhmCw=="
            }
          },
          {
            "validator_address": "1F61153F26C2DF27E15874268D30326287323352",
            "validator_index": "14",
            "height": "43510",
            "round": "0",
            "timestamp": "2018-08-02T07:20:29.989029286Z",
            "type": 2,
            "block_id": {
              "hash": "B2AC5799161DE50B33FCE12353C3D75D0FD86684",
              "parts": {
                "total": "1",
                "hash": "B3528EDC052246FBB197D0863DCB6334B9ABCFCC"
              }
            },
            "signature": {
              "type": "tendermint/SignatureEd25519",
              "value": "rSdO5iV6/7U0/zuBTb9O6XoeOIeFaMWl1ku4oCpTM2/hQeN1TNvVl5yfKv05WVI7Lsehp6unD162A7jafZd8Cw=="
            }
          },
          {
            "validator_address": "23897586D68E2AC1C78E0EF5BB5DF5C8EAB18F50",
            "validator_index": "15",
            "height": "43510",
            "round": "0",
            "timestamp": "2018-08-02T07:20:30.010686771Z",
            "type": 2,
            "block_id": {
              "hash": "B2AC5799161DE50B33FCE12353C3D75D0FD86684",
              "parts": {
                "total": "1",
                "hash": "B3528EDC052246FBB197D0863DCB6334B9ABCFCC"
              }
            },
            "signature": {
              "type": "tendermint/SignatureEd25519",
              "value": "XYOXM1LJcsDWKUc45NGNcE5eFHVoRKQCJzq17DMhkYDSbBR4Mk4HtCYAE1evV1XVBCL7tHxBCm7f6FEU25sABw=="
            }
          },
          {
            "validator_address": "28770D17E8530825E7310A0659308654B7EC9682",
            "validator_index": "16",
            "height": "43510",
            "round": "0",
            "timestamp": "2018-08-02T07:20:29.868611173Z",
            "type": 2,
            "block_id": {
              "hash": "B2AC5799161DE50B33FCE12353C3D75D0FD86684",
              "parts": {
                "total": "1",
                "hash": "B3528EDC052246FBB197D0863DCB6334B9ABCFCC"
              }
            },
            "signature": {
              "type": "tendermint/SignatureEd25519",
              "value": "q5ZG/sH7XfgynC8ax7B1GjkgfnBAwWDezlHFBSxiaFefyGRgnPTq3rqqcrMjE4mtpGOL8mspBHsEj533FYVEDA=="
            }
          },
          {
            "validator_address": "2A92EC3C642140202298D0E245095E0ECFC25228",
            "validator_index": "17",
            "height": "43510",
            "round": "0",
            "timestamp": "2018-08-02T07:20:29.946895682Z",
            "type": 2,
            "block_id": {
              "hash": "B2AC5799161DE50B33FCE12353C3D75D0FD86684",
              "parts": {
                "total": "1",
                "hash": "B3528EDC052246FBB197D0863DCB6334B9ABCFCC"
              }
            },
            "signature": {
              "type": "tendermint/SignatureEd25519",
              "value": "SDdJceVUNy2j8qQ6hihUEMUvozRyoT28MRSjY544Wks6lWhVA2/FN/t94WsoFcI+c2IFkKyDPCGGkvsmm/C2Bg=="
            }
          },
          null,
          {
            "validator_address": "36E9B7FAEC964F97D84C028ED62493E373AD0B38",
            "validator_index": "19",
            "height": "43510",
            "round": "0",
            "timestamp": "2018-08-02T07:20:29.964590151Z",
            "type": 2,
            "block_id": {
              "hash": "B2AC5799161DE50B33FCE12353C3D75D0FD86684",
              "parts": {
                "total": "1",
                "hash": "B3528EDC052246FBB197D0863DCB6334B9ABCFCC"
              }
            },
            "signature": {
              "type": "tendermint/SignatureEd25519",
              "value": "2yw5jkMLM4eDHtNx7zs+/YBZvD0XEjerlqUzHS9oeyvUPoW2qlY+7JdOPQxg3AjfkmEev4nBoeTTxYquilqlDw=="
            }
          },
          {
            "validator_address": "38A8D85D36BEA2E5FCF8A1E778F53628E450EF13",
            "validator_index": "20",
            "height": "43510",
            "round": "0",
            "timestamp": "2018-08-02T07:20:30.108662284Z",
            "type": 2,
            "block_id": {
              "hash": "B2AC5799161DE50B33FCE12353C3D75D0FD86684",
              "parts": {
                "total": "1",
                "hash": "B3528EDC052246FBB197D0863DCB6334B9ABCFCC"
              }
            },
            "signature": {
              "type": "tendermint/SignatureEd25519",
              "value": "37CTvBsHE3avXQsS2R7Rsxh4a/59GG6rBRG4qS8Nh+Jo+MXhXnYh5DZqaEzuLWRcXznTMnyRHWLThHPQDYisCg=="
            }
          },
          {
            "validator_address": "39DFDA0C5DB84B269642188B23253508537798E6",
            "validator_index": "21",
            "height": "43510",
            "round": "0",
            "timestamp": "2018-08-02T07:20:29.93384076Z",
            "type": 2,
            "block_id": {
              "hash": "B2AC5799161DE50B33FCE12353C3D75D0FD86684",
              "parts": {
                "total": "1",
                "hash": "B3528EDC052246FBB197D0863DCB6334B9ABCFCC"
              }
            },
            "signature": {
              "type": "tendermint/SignatureEd25519",
              "value": "TlR+p6CJvGBs+ETZej9uYyLFhj0Hg0SEU/J0eEBM5xvcyvM7vHj5S2tggdkMiDji3mAWcptEpZjfqHTqiAvnCg=="
            }
          },
          {
            "validator_address": "3AC99B708404452366E0953A4BE849226DC86CBC",
            "validator_index": "22",
            "height": "43510",
            "round": "0",
            "timestamp": "2018-08-02T07:20:30.037463437Z",
            "type": 2,
            "block_id": {
              "hash": "B2AC5799161DE50B33FCE12353C3D75D0FD86684",
              "parts": {
                "total": "1",
                "hash": "B3528EDC052246FBB197D0863DCB6334B9ABCFCC"
              }
            },
            "signature": {
              "type": "tendermint/SignatureEd25519",
              "value": "1fQ4oXmAtwYTJLTfrfsSehocHzueRqLMnH5+C7wMM60wvC+LR1ye/TFfqExj5l1gEHzw/FMz8icNukkEVNljCQ=="
            }
          },
          {
            "validator_address": "3DCB822A10ED319EC7C4393D8E3FD4A41B15AAF2",
            "validator_index": "23",
            "height": "43510",
            "round": "0",
            "timestamp": "2018-08-02T07:20:29.903377613Z",
            "type": 2,
            "block_id": {
              "hash": "B2AC5799161DE50B33FCE12353C3D75D0FD86684",
              "parts": {
                "total": "1",
                "hash": "B3528EDC052246FBB197D0863DCB6334B9ABCFCC"
              }
            },
            "signature": {
              "type": "tendermint/SignatureEd25519",
              "value": "3tEOLG2+uG2tibPoaGtRA1kroUqhO+VXvfFKWTus2QZ43zxB/0dHtNriAazYv+qER/CpfvGLQSyTZBwkg6yXAQ=="
            }
          },
          {
            "validator_address": "3E899BA36A93C7370347BD5FE85909F2ECD93F8C",
            "validator_index": "24",
            "height": "43510",
            "round": "0",
            "timestamp": "2018-08-02T07:20:29.917601748Z",
            "type": 2,
            "block_id": {
              "hash": "B2AC5799161DE50B33FCE12353C3D75D0FD86684",
              "parts": {
                "total": "1",
                "hash": "B3528EDC052246FBB197D0863DCB6334B9ABCFCC"
              }
            },
            "signature": {
              "type": "tendermint/SignatureEd25519",
              "value": "S8JnPtfYK6KUsbdvrKkPYDHUz7Ip7PHoXaR21fR+zDJq4Fstm8HA5CYrQiEhJJ+uTfpqSodcBTw+bEr4RFI7DQ=="
            }
          },
          {
            "validator_address": "41CAB2E29E7D0F2282E3275938F188FF9386B84C",
            "validator_index": "25",
            "height": "43510",
            "round": "0",
            "timestamp": "2018-08-02T07:20:29.945438531Z",
            "type": 2,
            "block_id": {
              "hash": "B2AC5799161DE50B33FCE12353C3D75D0FD86684",
              "parts": {
                "total": "1",
                "hash": "B3528EDC052246FBB197D0863DCB6334B9ABCFCC"
              }
            },
            "signature": {
              "type": "tendermint/SignatureEd25519",
              "value": "mZ0vuutpUsKRZw0BKpgs5ce5szf0i7Hr+eCnHJGDEVbweoNl7YpHuZfIVoqJeI6P+N6Sp0hya0FtVsNg2QbxBQ=="
            }
          },
          {
            "validator_address": "462B656869DB02A8FD1077E255F8CC7401DC37C6",
            "validator_index": "26",
            "height": "43510",
            "round": "0",
            "timestamp": "2018-08-02T07:20:29.880193748Z",
            "type": 2,
            "block_id": {
              "hash": "B2AC5799161DE50B33FCE12353C3D75D0FD86684",
              "parts": {
                "total": "1",
                "hash": "B3528EDC052246FBB197D0863DCB6334B9ABCFCC"
              }
            },
            "signature": {
              "type": "tendermint/SignatureEd25519",
              "value": "2Km11Wqp9/AGrtiND+8mGvx8ctDvcOpMczhdqt0KhcS4Z2A49N7CIsgaMLLHgky78ZY7ZDGWRgRmJGn9oZX1CA=="
            }
          },
          {
            "validator_address": "48E5118163E5442068A1B5A42D2EEDBB75724935",
            "validator_index": "27",
            "height": "43510",
            "round": "0",
            "timestamp": "2018-08-02T07:20:30.116430915Z",
            "type": 2,
            "block_id": {
              "hash": "B2AC5799161DE50B33FCE12353C3D75D0FD86684",
              "parts": {
                "total": "1",
                "hash": "B3528EDC052246FBB197D0863DCB6334B9ABCFCC"
              }
            },
            "signature": {
              "type": "tendermint/SignatureEd25519",
              "value": "wbF3Mx5uIQUazEm3/GAfD35BCaU4kgqjolrZC/a6QvyjlkN4fenBXJDUtfcMt6UYfybT1NVGzWjUyOzUKFWcDw=="
            }
          },
          {
            "validator_address": "49103C58AFD9C7C069F55EBA218F3DFD9AEA74F9",
            "validator_index": "28",
            "height": "43510",
            "round": "0",
            "timestamp": "2018-08-02T07:20:29.909719219Z",
            "type": 2,
            "block_id": {
              "hash": "B2AC5799161DE50B33FCE12353C3D75D0FD86684",
              "parts": {
                "total": "1",
                "hash": "B3528EDC052246FBB197D0863DCB6334B9ABCFCC"
              }
            },
            "signature": {
              "type": "tendermint/SignatureEd25519",
              "value": "co2zEOesiKNXx/5EJlnRtUk4PFICQXHZL68UHNkT53Ph1yeAHVLg8vPJIvm82ewDqTihzZDC9EkwFS/TLC/CAg=="
            }
          },
          {
            "validator_address": "4944F8BBBB5303E17BC0607DF332320EDBC750EA",
            "validator_index": "29",
            "height": "43510",
            "round": "0",
            "timestamp": "2018-08-02T07:20:29.92126517Z",
            "type": 2,
            "block_id": {
              "hash": "B2AC5799161DE50B33FCE12353C3D75D0FD86684",
              "parts": {
                "total": "1",
                "hash": "B3528EDC052246FBB197D0863DCB6334B9ABCFCC"
              }
            },
            "signature": {
              "type": "tendermint/SignatureEd25519",
              "value": "NxHk6ArrSUP4DyE0gVAlpMESwNWAQuRSBkPHCXv5BHO+7ijwqCRBFDV1gIqHR9sk8qrvlmCk6jI5+3oBbIoPCw=="
            }
          },
          {
            "validator_address": "49841599DE675157CBE1E7D6B35BF8FFC23BD5CB",
            "validator_index": "30",
            "height": "43510",
            "round": "0",
            "timestamp": "2018-08-02T07:20:29.855893016Z",
            "type": 2,
            "block_id": {
              "hash": "B2AC5799161DE50B33FCE12353C3D75D0FD86684",
              "parts": {
                "total": "1",
                "hash": "B3528EDC052246FBB197D0863DCB6334B9ABCFCC"
              }
            },
            "signature": {
              "type": "tendermint/SignatureEd25519",
              "value": "DctM4dQkHgq01QX5btxs19ITliRYEdaudB8i4bf6O/qh9ZBnYmyRma8dJc6GGmqCjrDYPQ7JYpRbUweZBNAqDg=="
            }
          },
          {
            "validator_address": "51386C2CF9556821D114D7E4945806802BADB28D",
            "validator_index": "31",
            "height": "43510",
            "round": "0",
            "timestamp": "2018-08-02T07:20:30.013984373Z",
            "type": 2,
            "block_id": {
              "hash": "B2AC5799161DE50B33FCE12353C3D75D0FD86684",
              "parts": {
                "total": "1",
                "hash": "B3528EDC052246FBB197D0863DCB6334B9ABCFCC"
              }
            },
            "signature": {
              "type": "tendermint/SignatureEd25519",
              "value": "PzjF+NDeECapSWjVm2SLnPkmGEmPPAEPUIIIlhMRRgYVNhyWMcYsW0EM30uWunG76duR0Lq9ErQz0ypUebF3DA=="
            }
          },
          {
            "validator_address": "543564ECA3AFEFADC73EE8591AAC3A96F079BC8A",
            "validator_index": "32",
            "height": "43510",
            "round": "0",
            "timestamp": "2018-08-02T07:20:29.865554912Z",
            "type": 2,
            "block_id": {
              "hash": "B2AC5799161DE50B33FCE12353C3D75D0FD86684",
              "parts": {
                "total": "1",
                "hash": "B3528EDC052246FBB197D0863DCB6334B9ABCFCC"
              }
            },
            "signature": {
              "type": "tendermint/SignatureEd25519",
              "value": "O3wHFq/6f8KqdDjTpnCgCTplJuLujAoVtmM+fLo+jbwbvHGm19s5dbRE75VLEoCYN4brsd9hFojMtZ2MdBEyBg=="
            }
          },
          {
            "validator_address": "55D67B1A6DC13E96F8754A5A42EABC20F7F86664",
            "validator_index": "33",
            "height": "43510",
            "round": "0",
            "timestamp": "2018-08-02T07:20:29.914723906Z",
            "type": 2,
            "block_id": {
              "hash": "B2AC5799161DE50B33FCE12353C3D75D0FD86684",
              "parts": {
                "total": "1",
                "hash": "B3528EDC052246FBB197D0863DCB6334B9ABCFCC"
              }
            },
            "signature": {
              "type": "tendermint/SignatureEd25519",
              "value": "P1dRKeQ0XgWtY1bpAVnNBHK++gAQRvcYLKticwZC6aZgQtyjU306W10HXhKEzhA/QU15JoeefwRydUhMqwHSBw=="
            }
          },
          {
            "validator_address": "570B6A755ED339EAC56BB3390A48069F6AC9449B",
            "validator_index": "34",
            "height": "43510",
            "round": "0",
            "timestamp": "2018-08-02T07:20:38.943519988Z",
            "type": 2,
            "block_id": {
              "hash": "B2AC5799161DE50B33FCE12353C3D75D0FD86684",
              "parts": {
                "total": "1",
                "hash": "B3528EDC052246FBB197D0863DCB6334B9ABCFCC"
              }
            },
            "signature": {
              "type": "tendermint/SignatureEd25519",
              "value": "pL4UX+3a+6cQ3dLt/WvQ9n947DTboJEDlS1frj/MpcCsbmEZnc7EueOupGmiB1lJnx4VM9RKVbaK9zr2294lDA=="
            }
          },
          {
            "validator_address": "5BDF8EA41B1835FBAD865B181A2A4B23F511B5E4",
            "validator_index": "35",
            "height": "43510",
            "round": "0",
            "timestamp": "2018-08-02T07:20:29.925794047Z",
            "type": 2,
            "block_id": {
              "hash": "B2AC5799161DE50B33FCE12353C3D75D0FD86684",
              "parts": {
                "total": "1",
                "hash": "B3528EDC052246FBB197D0863DCB6334B9ABCFCC"
              }
            },
            "signature": {
              "type": "tendermint/SignatureEd25519",
              "value": "sUKqD/itw4ndBd0RiQ4p6MPCP+1RG3aiE1Y3yptnoWTOv1EaZBV3hZ/zaIpRntRJmYRbKlpup8jGe/y5Y4b/DA=="
            }
          },
          {
            "validator_address": "60229E2E273297FE00219E46DFFB8F76844CDEF9",
            "validator_index": "36",
            "height": "43510",
            "round": "0",
            "timestamp": "2018-08-02T07:20:27.480972584Z",
            "type": 2,
            "block_id": {
              "hash": "B2AC5799161DE50B33FCE12353C3D75D0FD86684",
              "parts": {
                "total": "1",
                "hash": "B3528EDC052246FBB197D0863DCB6334B9ABCFCC"
              }
            },
            "signature": {
              "type": "tendermint/SignatureEd25519",
              "value": "BNV0uaM1VzU6XouMTNKjdpWTcTTHb97dANsVq63rbl+Mizjm+Xtph/t5dDT6Q465pc4AHaqZfkD2uRqOzA9ODw=="
            }
          },
          {
            "validator_address": "62410D6D1CD98278136E4D0738AA0EA273CDFC54",
            "validator_index": "37",
            "height": "43510",
            "round": "0",
            "timestamp": "2018-08-02T07:20:29.881754853Z",
            "type": 2,
            "block_id": {
              "hash": "B2AC5799161DE50B33FCE12353C3D75D0FD86684",
              "parts": {
                "total": "1",
                "hash": "B3528EDC052246FBB197D0863DCB6334B9ABCFCC"
              }
            },
            "signature": {
              "type": "tendermint/SignatureEd25519",
              "value": "MS918I0ns51QiK6wu+ZEsL2C+R7krMPpM6/qFXWP6/pPFfPS9rmJ/DQOfeBVG90QlIfnMDIrNeysLAmKZnpRAA=="
            }
          },
          {
            "validator_address": "632F5C139A5A9DFBFE5111DEE29FCFB6157207DC",
            "validator_index": "38",
            "height": "43510",
            "round": "0",
            "timestamp": "2018-08-02T07:20:29.947427917Z",
            "type": 2,
            "block_id": {
              "hash": "B2AC5799161DE50B33FCE12353C3D75D0FD86684",
              "parts": {
                "total": "1",
                "hash": "B3528EDC052246FBB197D0863DCB6334B9ABCFCC"
              }
            },
            "signature": {
              "type": "tendermint/SignatureEd25519",
              "value": "N51gQq0lMUXcG5t3ZwoN059EGDsy9R4gx2PbbtY988oPRu+zQSQ1TgHu4VP32/kzSGDS0BbW9Xbq7vQvX0i5CQ=="
            }
          },
          {
            "validator_address": "64F57F8E796A9B7B590C1EFA4123988C86631D39",
            "validator_index": "39",
            "height": "43510",
            "round": "0",
            "timestamp": "2018-08-02T07:20:29.851157601Z",
            "type": 2,
            "block_id": {
              "hash": "B2AC5799161DE50B33FCE12353C3D75D0FD86684",
              "parts": {
                "total": "1",
                "hash": "B3528EDC052246FBB197D0863DCB6334B9ABCFCC"
              }
            },
            "signature": {
              "type": "tendermint/SignatureEd25519",
              "value": "T1M/PJClaitrL+E5gyTfPwMZ5A88hRz4KNOkfiBwE+Yc5gwr8Pamnp2VntCNmLjVRtRcHbvi4ZhVbvsNmzfGCQ=="
            }
          },
          {
            "validator_address": "69D99B2C66043ACBEAA8447525C356AFC6408E0C",
            "validator_index": "40",
            "height": "43510",
            "round": "0",
            "timestamp": "2018-08-02T07:20:29.92310349Z",
            "type": 2,
            "block_id": {
              "hash": "B2AC5799161DE50B33FCE12353C3D75D0FD86684",
              "parts": {
                "total": "1",
                "hash": "B3528EDC052246FBB197D0863DCB6334B9ABCFCC"
              }
            },
            "signature": {
              "type": "tendermint/SignatureEd25519",
              "value": "eYcvST40zSJgz1tL/eqfn+up+PPA9xMaMNtxHHmjXnnRZP6/Gz4BTfpxvZyVHaBgjRyWPM7tfB1kEfFRcaM5Dw=="
            }
          },
          {
            "validator_address": "69EDADFA4A803E9DBF548C900D4A465E7D154262",
            "validator_index": "41",
            "height": "43510",
            "round": "0",
            "timestamp": "2018-08-02T07:20:29.965070084Z",
            "type": 2,
            "block_id": {
              "hash": "B2AC5799161DE50B33FCE12353C3D75D0FD86684",
              "parts": {
                "total": "1",
                "hash": "B3528EDC052246FBB197D0863DCB6334B9ABCFCC"
              }
            },
            "signature": {
              "type": "tendermint/SignatureEd25519",
              "value": "Vm6eR1WJyR0EZlfaqFaN9zxhX5RCF3YD8IsSWZDSN+abYHnJ7n3TG7hzjMSORVRjWGE7nmPIgiF9/ItuQe82CA=="
            }
          },
          {
            "validator_address": "6D3AD380E398D8592B03AA124BAFED5F125DF863",
            "validator_index": "42",
            "height": "43510",
            "round": "0",
            "timestamp": "2018-08-02T07:19:27.403249027Z",
            "type": 2,
            "block_id": {
              "hash": "B2AC5799161DE50B33FCE12353C3D75D0FD86684",
              "parts": {
                "total": "1",
                "hash": "B3528EDC052246FBB197D0863DCB6334B9ABCFCC"
              }
            },
            "signature": {
              "type": "tendermint/SignatureEd25519",
              "value": "vmKPVvuPw6BcEcXCVZK+oIThpsLz9FOENGHslB+tI0OvsHZWIA1UzsT/HpsX9zBaP60cHSL5s/sWuKwaqWCrBw=="
            }
          },
          {
            "validator_address": "6F6C93B8BF3495063FEC9B5C771158607F4AE9D6",
            "validator_index": "43",
            "height": "43510",
            "round": "0",
            "timestamp": "2018-08-02T07:20:30.080813189Z",
            "type": 2,
            "block_id": {
              "hash": "B2AC5799161DE50B33FCE12353C3D75D0FD86684",
              "parts": {
                "total": "1",
                "hash": "B3528EDC052246FBB197D0863DCB6334B9ABCFCC"
              }
            },
            "signature": {
              "type": "tendermint/SignatureEd25519",
              "value": "ctvWh1SLJ/AogVeU0wdzp9uR4gkwcmp6RCpyLt3MVKwmEMUvlgr58bS80xUbtqOc08eXENrh4DEm4S2sbrlxAw=="
            }
          },
          {
            "validator_address": "732CEEF54C374DDC6ADECBFD707AEFD07FEDC143",
            "validator_index": "44",
            "height": "43510",
            "round": "0",
            "timestamp": "2018-08-02T07:20:30.051460572Z",
            "type": 2,
            "block_id": {
              "hash": "B2AC5799161DE50B33FCE12353C3D75D0FD86684",
              "parts": {
                "total": "1",
                "hash": "B3528EDC052246FBB197D0863DCB6334B9ABCFCC"
              }
            },
            "signature": {
              "type": "tendermint/SignatureEd25519",
              "value": "m+rxbrqLSFYKNR96guQdw0mikyjPDtBL610L1ok6WOYp5Q282a9oRKhDQDSU3ldSPG5KFp2yM2T+ZDU0nQPJDg=="
            }
          },
          {
            "validator_address": "751E43437224E8BB6D1569B3E2B2616B6E7F4397",
            "validator_index": "45",
            "height": "43510",
            "round": "0",
            "timestamp": "2018-08-02T07:20:29.91008921Z",
            "type": 2,
            "block_id": {
              "hash": "B2AC5799161DE50B33FCE12353C3D75D0FD86684",
              "parts": {
                "total": "1",
                "hash": "B3528EDC052246FBB197D0863DCB6334B9ABCFCC"
              }
            },
            "signature": {
              "type": "tendermint/SignatureEd25519",
              "value": "bJAPsBkNkA8ivpasD/JDZ5fSKHTZOjOZJmZ+QxVEL9Sl71WpcCpylSaAGDrBSvzX+IjvIwjfMSRhYcQgi4+7Aw=="
            }
          },
          {
            "validator_address": "7EB7593F519F1180C7E872D0494611464EDF03AE",
            "validator_index": "46",
            "height": "43510",
            "round": "0",
            "timestamp": "2018-08-02T07:20:30.062200618Z",
            "type": 2,
            "block_id": {
              "hash": "B2AC5799161DE50B33FCE12353C3D75D0FD86684",
              "parts": {
                "total": "1",
                "hash": "B3528EDC052246FBB197D0863DCB6334B9ABCFCC"
              }
            },
            "signature": {
              "type": "tendermint/SignatureEd25519",
              "value": "Uhx8Oyem3eQrezzjg8j0v6+bFmVEJNii770fc0hxjF3jZAtQMfsyMhU5NsYMzRh1/hexDIboBVvNYSlejwXoCQ=="
            }
          },
          {
            "validator_address": "8356899C8853BC6640D76F76E59743FFEEA57B81",
            "validator_index": "47",
            "height": "43510",
            "round": "0",
            "timestamp": "2018-08-02T07:20:29.940853194Z",
            "type": 2,
            "block_id": {
              "hash": "B2AC5799161DE50B33FCE12353C3D75D0FD86684",
              "parts": {
                "total": "1",
                "hash": "B3528EDC052246FBB197D0863DCB6334B9ABCFCC"
              }
            },
            "signature": {
              "type": "tendermint/SignatureEd25519",
              "value": "I5vM7cNQDyj7RYqEIhSMtbFPZN7Kq+ClViWRDiuMHPNwdIIz+Rgi1asrwehTMrmKnVnAo/wjBwc8WCAI69UqAg=="
            }
          },
          {
            "validator_address": "83AB321E012C57746689FED3A6064DF331F81007",
            "validator_index": "48",
            "height": "43510",
            "round": "0",
            "timestamp": "2018-08-02T07:20:29.909529124Z",
            "type": 2,
            "block_id": {
              "hash": "B2AC5799161DE50B33FCE12353C3D75D0FD86684",
              "parts": {
                "total": "1",
                "hash": "B3528EDC052246FBB197D0863DCB6334B9ABCFCC"
              }
            },
            "signature": {
              "type": "tendermint/SignatureEd25519",
              "value": "1v3VluST2AGaiMraOOLSo2f8Lo79Ckew5/XsSRQvZYfYmVWYI3xM5d6FUWFz94niZo/LLrF/wh2Dqj1pXvCiCA=="
            }
          },
          {
            "validator_address": "8F06FE1FD042683C426137FBC4BBAA4288924217",
            "validator_index": "49",
            "height": "43510",
            "round": "0",
            "timestamp": "2018-08-02T07:20:29.936192419Z",
            "type": 2,
            "block_id": {
              "hash": "B2AC5799161DE50B33FCE12353C3D75D0FD86684",
              "parts": {
                "total": "1",
                "hash": "B3528EDC052246FBB197D0863DCB6334B9ABCFCC"
              }
            },
            "signature": {
              "type": "tendermint/SignatureEd25519",
              "value": "3DG69X3fZ+2CvdUgq9PQjcPbqart9Q3DsqxgJL65MD5FWkIEO4kfYwWLIJcV/cQQ9OctbkZbR2F8Y2XcY2p7Cw=="
            }
          },
          null,
          {
            "validator_address": "95980831E186F2540F6E9FB6C8E74DE2401405AC",
            "validator_index": "51",
            "height": "43510",
            "round": "0",
            "timestamp": "2018-08-02T07:20:29.956577247Z",
            "type": 2,
            "block_id": {
              "hash": "B2AC5799161DE50B33FCE12353C3D75D0FD86684",
              "parts": {
                "total": "1",
                "hash": "B3528EDC052246FBB197D0863DCB6334B9ABCFCC"
              }
            },
            "signature": {
              "type": "tendermint/SignatureEd25519",
              "value": "qpyM0lqdC4gKnEtolbaLcPTEAmAe17F8hUNTOzxrPg2eKesG/EZJ8+DKVTO0emRTA7Bxwj0gi0HLoqSw0X0nAw=="
            }
          },
          {
            "validator_address": "95FAFBC1E0579C83D290A063020CE87C5334BD9B",
            "validator_index": "52",
            "height": "43510",
            "round": "0",
            "timestamp": "2018-08-02T07:20:29.951719719Z",
            "type": 2,
            "block_id": {
              "hash": "B2AC5799161DE50B33FCE12353C3D75D0FD86684",
              "parts": {
                "total": "1",
                "hash": "B3528EDC052246FBB197D0863DCB6334B9ABCFCC"
              }
            },
            "signature": {
              "type": "tendermint/SignatureEd25519",
              "value": "sxcFXI2ln2KdFuG1uaXBYZa3xdwUfcTEH83WfME8KYs0UshYBPUINaGMnelvAXr3q3cNda50xbpdoupvR6/xBA=="
            }
          },
          {
            "validator_address": "96BDE45EC52606CF5CB59853097871AD60680549",
            "validator_index": "53",
            "height": "43510",
            "round": "0",
            "timestamp": "2018-08-02T07:20:29.903166436Z",
            "type": 2,
            "block_id": {
              "hash": "B2AC5799161DE50B33FCE12353C3D75D0FD86684",
              "parts": {
                "total": "1",
                "hash": "B3528EDC052246FBB197D0863DCB6334B9ABCFCC"
              }
            },
            "signature": {
              "type": "tendermint/SignatureEd25519",
              "value": "hx0LLmqN3DuYwJy+k/vyD9ULSg65id4DkjiTrEvGoKCkfRBVoeQruzsitYSbQr9npud2UE5+KB5eHlJIyC4ICA=="
            }
          },
          {
            "validator_address": "970CD321881185BF83DB2923C321B0E75FDBB2B8",
            "validator_index": "54",
            "height": "43510",
            "round": "0",
            "timestamp": "2018-08-02T07:20:30.035671165Z",
            "type": 2,
            "block_id": {
              "hash": "B2AC5799161DE50B33FCE12353C3D75D0FD86684",
              "parts": {
                "total": "1",
                "hash": "B3528EDC052246FBB197D0863DCB6334B9ABCFCC"
              }
            },
            "signature": {
              "type": "tendermint/SignatureEd25519",
              "value": "yWRsFP5R8H6etksrk2Tw5xvG+IO1gI7nC/WH/nT/R7rdzGx9jm1QhI1h9XUNEmmjSHgRhSkKT3+Oxt2pekJ+Cg=="
            }
          },
          {
            "validator_address": "97DBB3D4B3D6C29287244864448F651DD5B07390",
            "validator_index": "55",
            "height": "43510",
            "round": "0",
            "timestamp": "2018-08-02T07:20:30.021488829Z",
            "type": 2,
            "block_id": {
              "hash": "B2AC5799161DE50B33FCE12353C3D75D0FD86684",
              "parts": {
                "total": "1",
                "hash": "B3528EDC052246FBB197D0863DCB6334B9ABCFCC"
              }
            },
            "signature": {
              "type": "tendermint/SignatureEd25519",
              "value": "PowDh/3EaA94Ec1QIF+xRQld+bd4Pe/1sdGRWWtYx8zynD+qpwzimU0ghQR3DdrKqcSctyuqOOVIWPBAPurKDA=="
            }
          },
          {
            "validator_address": "9C29C9B76D27586E4D9AD2AED0E943162645E55C",
            "validator_index": "56",
            "height": "43510",
            "round": "0",
            "timestamp": "2018-08-02T07:20:29.864647426Z",
            "type": 2,
            "block_id": {
              "hash": "B2AC5799161DE50B33FCE12353C3D75D0FD86684",
              "parts": {
                "total": "1",
                "hash": "B3528EDC052246FBB197D0863DCB6334B9ABCFCC"
              }
            },
            "signature": {
              "type": "tendermint/SignatureEd25519",
              "value": "XrFtFTqhHJoll/s719IlIrDafrZoNkKnnzrqTC60gbeu9/xAZoISQF6UrYHAVEVyLNT6+ABpCefWYwzGafXfAg=="
            }
          },
          {
            "validator_address": "9D93AD02FE1BD7E76B9E58D7EB461088EAD011E5",
            "validator_index": "57",
            "height": "43510",
            "round": "0",
            "timestamp": "2018-08-02T07:20:29.876962447Z",
            "type": 2,
            "block_id": {
              "hash": "B2AC5799161DE50B33FCE12353C3D75D0FD86684",
              "parts": {
                "total": "1",
                "hash": "B3528EDC052246FBB197D0863DCB6334B9ABCFCC"
              }
            },
            "signature": {
              "type": "tendermint/SignatureEd25519",
              "value": "QuhrXxKvFZZB8+3kLuuZHktehsiST4IgfEJtrmA7JrTvN6HJDndjJe90KkkRO9SsVxxdEFVtMJcoujduMc/TDw=="
            }
          },
          {
            "validator_address": "A0A6466F4ABEA09C3B55E3709AFDE217A103209F",
            "validator_index": "58",
            "height": "43510",
            "round": "0",
            "timestamp": "2018-08-02T07:20:29.869680701Z",
            "type": 2,
            "block_id": {
              "hash": "B2AC5799161DE50B33FCE12353C3D75D0FD86684",
              "parts": {
                "total": "1",
                "hash": "B3528EDC052246FBB197D0863DCB6334B9ABCFCC"
              }
            },
            "signature": {
              "type": "tendermint/SignatureEd25519",
              "value": "KEpbJdYUvXvhwqm45d/him9WiWllDRkurIzlGUfSaO+F2kUuJVqojR2ghZu2Cgd3rgLoE2GzuCAPgbnXNj8WDw=="
            }
          },
          {
            "validator_address": "A5868971300F155020634D7BB49C7634F7AACCD3",
            "validator_index": "59",
            "height": "43510",
            "round": "0",
            "timestamp": "2018-08-02T07:20:29.942011714Z",
            "type": 2,
            "block_id": {
              "hash": "B2AC5799161DE50B33FCE12353C3D75D0FD86684",
              "parts": {
                "total": "1",
                "hash": "B3528EDC052246FBB197D0863DCB6334B9ABCFCC"
              }
            },
            "signature": {
              "type": "tendermint/SignatureEd25519",
              "value": "BVUUlMYk1LxKUzT+bbX2aL7ERMuSG+VpCsdf6UvtgeUvNg4iKJev/BSWt4+9vHJCKwxtu1I/BkFhh9QF0HyxCg=="
            }
          },
          {
            "validator_address": "A6B3A5B5D982CFD7B5FDFA15CF5A720E7AE25E7F",
            "validator_index": "60",
            "height": "43510",
            "round": "0",
            "timestamp": "2018-08-02T07:20:30.270696306Z",
            "type": 2,
            "block_id": {
              "hash": "B2AC5799161DE50B33FCE12353C3D75D0FD86684",
              "parts": {
                "total": "1",
                "hash": "B3528EDC052246FBB197D0863DCB6334B9ABCFCC"
              }
            },
            "signature": {
              "type": "tendermint/SignatureEd25519",
              "value": "LReDwc8pPJ++HBqH+w9bVBk0Ir3MdTZMFX+SB3u+XwLEPF2Ht7p1mCQ0Mtp7nkOtdflnnwtZLu0Sqo5TriwdCQ=="
            }
          },
          {
            "validator_address": "AC96444A9083890B7C7B430DB17BF1D3EA5EED04",
            "validator_index": "61",
            "height": "43510",
            "round": "0",
            "timestamp": "2018-08-02T07:20:30.030891071Z",
            "type": 2,
            "block_id": {
              "hash": "B2AC5799161DE50B33FCE12353C3D75D0FD86684",
              "parts": {
                "total": "1",
                "hash": "B3528EDC052246FBB197D0863DCB6334B9ABCFCC"
              }
            },
            "signature": {
              "type": "tendermint/SignatureEd25519",
              "value": "Qm5bG70Jthgd3W1TC8rs2uyYALDobOVJoBYvxrdA8ABjNny16x9wdQ2hZFFNRRTIJFE2ubBvn2EdZsyJEDvCCw=="
            }
          },
          {
            "validator_address": "ACB97FDA2D940AF0709B73537C458EB988AD2893",
            "validator_index": "62",
            "height": "43510",
            "round": "0",
            "timestamp": "2018-08-02T07:20:29.879160213Z",
            "type": 2,
            "block_id": {
              "hash": "B2AC5799161DE50B33FCE12353C3D75D0FD86684",
              "parts": {
                "total": "1",
                "hash": "B3528EDC052246FBB197D0863DCB6334B9ABCFCC"
              }
            },
            "signature": {
              "type": "tendermint/SignatureEd25519",
              "value": "6jH1NTPGuQCdbl3vtZ7ZwSwsnDaG7BzHn80k3Cjj4V5UEfZUEXlVwhp0j0A8IEAdyti+nKJtS70YMrQPz1drDA=="
            }
          },
          {
            "validator_address": "B197425B3210375F211661DE02EF2AE36580EB0F",
            "validator_index": "63",
            "height": "43510",
            "round": "0",
            "timestamp": "2018-08-02T07:20:29.941411016Z",
            "type": 2,
            "block_id": {
              "hash": "B2AC5799161DE50B33FCE12353C3D75D0FD86684",
              "parts": {
                "total": "1",
                "hash": "B3528EDC052246FBB197D0863DCB6334B9ABCFCC"
              }
            },
            "signature": {
              "type": "tendermint/SignatureEd25519",
              "value": "+NJPivwGGkiklywhK0KrVDY4hGVlNL9EBwknBfMbvskdjoNXVwgIk0/52qDbai5CLvqSgyz70z92ysPjM0OiAQ=="
            }
          },
          {
            "validator_address": "B45E54D2D1CB5A4CCD1D49016608C18E7C56B270",
            "validator_index": "64",
            "height": "43510",
            "round": "0",
            "timestamp": "2018-08-02T07:20:30.044888485Z",
            "type": 2,
            "block_id": {
              "hash": "B2AC5799161DE50B33FCE12353C3D75D0FD86684",
              "parts": {
                "total": "1",
                "hash": "B3528EDC052246FBB197D0863DCB6334B9ABCFCC"
              }
            },
            "signature": {
              "type": "tendermint/SignatureEd25519",
              "value": "9DtsmJ6tlY4NbC1vNfsSHlafgEuiTD1Rs8MEYlnnYl/yPBdH7zYUXuFCWwItT8TMye1Cb6Ahl1RhuCtn25K5Dg=="
            }
          },
          {
            "validator_address": "BB1276BE89834835428664408917649FEEF5D90C",
            "validator_index": "65",
            "height": "43510",
            "round": "0",
            "timestamp": "2018-08-02T07:20:30.040980087Z",
            "type": 2,
            "block_id": {
              "hash": "B2AC5799161DE50B33FCE12353C3D75D0FD86684",
              "parts": {
                "total": "1",
                "hash": "B3528EDC052246FBB197D0863DCB6334B9ABCFCC"
              }
            },
            "signature": {
              "type": "tendermint/SignatureEd25519",
              "value": "OjXfrjYRwFuAhZ0LWUNaZ5Bl4gLEzBXyyViPHYmhFtaDbyRxgoaS76+wdkhIx83c0aSHSUx2di7Oned9Ind0AA=="
            }
          },
          {
            "validator_address": "BC36FEDD6EF6071118A3E51859DF3831A2EC4782",
            "validator_index": "66",
            "height": "43510",
            "round": "0",
            "timestamp": "2018-08-02T07:20:29.934180912Z",
            "type": 2,
            "block_id": {
              "hash": "B2AC5799161DE50B33FCE12353C3D75D0FD86684",
              "parts": {
                "total": "1",
                "hash": "B3528EDC052246FBB197D0863DCB6334B9ABCFCC"
              }
            },
            "signature": {
              "type": "tendermint/SignatureEd25519",
              "value": "Ko7vHXTazJHRO1WZ+/ZSANKeqINxi5X8/XHxrGjD3DmmspJ82xS2nKEOKyrl8F8qYfdroSfyWPS6eNvdQVwwBw=="
            }
          },
          {
            "validator_address": "BD9D0DA513BF099DB4BB6E725A4E19832789882F",
            "validator_index": "67",
            "height": "43510",
            "round": "0",
            "timestamp": "2018-08-02T07:20:29.932644158Z",
            "type": 2,
            "block_id": {
              "hash": "B2AC5799161DE50B33FCE12353C3D75D0FD86684",
              "parts": {
                "total": "1",
                "hash": "B3528EDC052246FBB197D0863DCB6334B9ABCFCC"
              }
            },
            "signature": {
              "type": "tendermint/SignatureEd25519",
              "value": "SGbwqPldzTfj8v6o7UpMluUITcS6XistPytZ19iod33z1R1F0mPfBPzcLgdFVH5SVe0C9CG/6VmhJZxrhIYdAg=="
            }
          },
          {
            "validator_address": "C1134A2FF8F7338E7CDB3FE57DDD2A655DEB1E22",
            "validator_index": "68",
            "height": "43510",
            "round": "0",
            "timestamp": "2018-08-02T07:20:29.725283161Z",
            "type": 2,
            "block_id": {
              "hash": "B2AC5799161DE50B33FCE12353C3D75D0FD86684",
              "parts": {
                "total": "1",
                "hash": "B3528EDC052246FBB197D0863DCB6334B9ABCFCC"
              }
            },
            "signature": {
              "type": "tendermint/SignatureEd25519",
              "value": "i+REPOksHJsF/i6O4JIZcPwqn4kKlXWkpjSdoM6kAJ4ArsPNW8Scfxbrl+iYELtysWpj4Po25rD3e84Y6lMGCQ=="
            }
          },
          {
            "validator_address": "C39A8A2B85198DCB8F23AD1F6C198E2BA7AB5D60",
            "validator_index": "69",
            "height": "43510",
            "round": "0",
            "timestamp": "2018-08-02T07:20:29.893576692Z",
            "type": 2,
            "block_id": {
              "hash": "B2AC5799161DE50B33FCE12353C3D75D0FD86684",
              "parts": {
                "total": "1",
                "hash": "B3528EDC052246FBB197D0863DCB6334B9ABCFCC"
              }
            },
            "signature": {
              "type": "tendermint/SignatureEd25519",
              "value": "EzpFQGtiJZdqUZC6+zHYl6QonQej+rqUaKvcAQAgkEGez1XLaxQo1E6AyOTVfsCeWKJIKqaqHpXFygIjDXVZCw=="
            }
          },
          {
            "validator_address": "C4335190C3B5BD4BA5568BC0F99C34162D940D08",
            "validator_index": "70",
            "height": "43510",
            "round": "0",
            "timestamp": "2018-08-02T07:20:30.020785451Z",
            "type": 2,
            "block_id": {
              "hash": "B2AC5799161DE50B33FCE12353C3D75D0FD86684",
              "parts": {
                "total": "1",
                "hash": "B3528EDC052246FBB197D0863DCB6334B9ABCFCC"
              }
            },
            "signature": {
              "type": "tendermint/SignatureEd25519",
              "value": "0iglyPMhZ1Q/P4NOi7otdfskyOBiDa2EGMpRwBuADZdVTR+8FkmKyr6FTuVudcuqriaablbgRhs4T5dAF263DA=="
            }
          },
          {
            "validator_address": "C561CFA081677046376396922E7576E5F7B316AD",
            "validator_index": "71",
            "height": "43510",
            "round": "0",
            "timestamp": "2018-08-02T07:20:30.018529483Z",
            "type": 2,
            "block_id": {
              "hash": "B2AC5799161DE50B33FCE12353C3D75D0FD86684",
              "parts": {
                "total": "1",
                "hash": "B3528EDC052246FBB197D0863DCB6334B9ABCFCC"
              }
            },
            "signature": {
              "type": "tendermint/SignatureEd25519",
              "value": "EhXdK3+TZIp+tVgUgvgu6tyDYmeBcpCd8DNkj1muYpmbeH+Mve7ZM/haZkWO5jFvwpCEcE3m0Jm8CaPzbf00Dw=="
            }
          },
          {
            "validator_address": "CE589EA77B056D268D30D1DC1D68A70E0F885E95",
            "validator_index": "72",
            "height": "43510",
            "round": "0",
            "timestamp": "2018-08-02T07:20:29.945469783Z",
            "type": 2,
            "block_id": {
              "hash": "B2AC5799161DE50B33FCE12353C3D75D0FD86684",
              "parts": {
                "total": "1",
                "hash": "B3528EDC052246FBB197D0863DCB6334B9ABCFCC"
              }
            },
            "signature": {
              "type": "tendermint/SignatureEd25519",
              "value": "9MzcnnQFR7OzHkHm8ZcbFxS4G9lThgt0Nu2WOGLh+enNq7k7HTbmHb5Xr5q0knDU/tBf2L//lXl4cJTmgBGbCg=="
            }
          },
          {
            "validator_address": "CEB97DB5CB18270247ABDE6CF2F84F9AEE8A2904",
            "validator_index": "73",
            "height": "43510",
            "round": "0",
            "timestamp": "2018-08-02T07:20:31.04109573Z",
            "type": 2,
            "block_id": {
              "hash": "B2AC5799161DE50B33FCE12353C3D75D0FD86684",
              "parts": {
                "total": "1",
                "hash": "B3528EDC052246FBB197D0863DCB6334B9ABCFCC"
              }
            },
            "signature": {
              "type": "tendermint/SignatureEd25519",
              "value": "4b3GaM7tclCcFwuE0snTCk05eM/AEQj5kK0MKHfuZsK7DuqB2h7L7Ba2IQnZJLcQIDA0UcfOX3IDcVhgh/LXDg=="
            }
          },
          {
            "validator_address": "D2134B826A1E25A955905CB79A4D8731CAFA0CCE",
            "validator_index": "74",
            "height": "43510",
            "round": "0",
            "timestamp": "2018-08-02T07:20:30.037531029Z",
            "type": 2,
            "block_id": {
              "hash": "B2AC5799161DE50B33FCE12353C3D75D0FD86684",
              "parts": {
                "total": "1",
                "hash": "B3528EDC052246FBB197D0863DCB6334B9ABCFCC"
              }
            },
            "signature": {
              "type": "tendermint/SignatureEd25519",
              "value": "Ii/DqXEAhRiHf3N4Hw2UwuKhcg+ewogENdEUkVlM549AwY1Ro1rHy0CA/asYsES7TzdulKtWN02FRmZNNJ89CA=="
            }
          },
          {
            "validator_address": "D6285C3422C8886445D53757CBE12D2B91B5A9D0",
            "validator_index": "75",
            "height": "43510",
            "round": "0",
            "timestamp": "2018-08-02T07:20:13.165994069Z",
            "type": 2,
            "block_id": {
              "hash": "B2AC5799161DE50B33FCE12353C3D75D0FD86684",
              "parts": {
                "total": "1",
                "hash": "B3528EDC052246FBB197D0863DCB6334B9ABCFCC"
              }
            },
            "signature": {
              "type": "tendermint/SignatureEd25519",
              "value": "x/sAOROhHklGWQM5l4Vq7t9wcFU743x68NXmXAHBc0ewH8ZHz8AFBEZgtrKCZogxAi8J73SqMOx/tyv8DnaYAA=="
            }
          },
          {
            "validator_address": "D77FB84A729972CD3E757C9BEB61561855832B92",
            "validator_index": "76",
            "height": "43510",
            "round": "0",
            "timestamp": "2018-08-02T07:20:30.049314717Z",
            "type": 2,
            "block_id": {
              "hash": "B2AC5799161DE50B33FCE12353C3D75D0FD86684",
              "parts": {
                "total": "1",
                "hash": "B3528EDC052246FBB197D0863DCB6334B9ABCFCC"
              }
            },
            "signature": {
              "type": "tendermint/SignatureEd25519",
              "value": "SbwEQ6sNE5wZxbSM7tUKUjHlebgDiFThDRWC1fdcF6au+aophAY/lRs7TezjCSZ01I0bF2t1ty7JehaOd6oDCQ=="
            }
          },
          {
            "validator_address": "DB7E6732471D3EA5C90C17A9974D9F88AB45F2FB",
            "validator_index": "77",
            "height": "43510",
            "round": "0",
            "timestamp": "2018-08-02T07:20:29.940981163Z",
            "type": 2,
            "block_id": {
              "hash": "B2AC5799161DE50B33FCE12353C3D75D0FD86684",
              "parts": {
                "total": "1",
                "hash": "B3528EDC052246FBB197D0863DCB6334B9ABCFCC"
              }
            },
            "signature": {
              "type": "tendermint/SignatureEd25519",
              "value": "EL12sQkDI19vICEQ4BRNMkFlQza4lKbhCDaEZC5aZd2EAI4Z5lgiC1AnxZuOOcQ/BevD29aMSFfY0BW1pokMBQ=="
            }
          },
          {
            "validator_address": "DF54B862410BCD9B5C516FBB6C56BDC826ED6FA7",
            "validator_index": "78",
            "height": "43510",
            "round": "0",
            "timestamp": "2018-08-02T07:20:30.036391582Z",
            "type": 2,
            "block_id": {
              "hash": "B2AC5799161DE50B33FCE12353C3D75D0FD86684",
              "parts": {
                "total": "1",
                "hash": "B3528EDC052246FBB197D0863DCB6334B9ABCFCC"
              }
            },
            "signature": {
              "type": "tendermint/SignatureEd25519",
              "value": "OLSFfZUxTKawdpVW4xGBFbvHDQ/+o7BlwIKbATgH4fjhebXRdEcYWPrwpMJdjA0D3zpJo04R/dwAjNfb64RFCQ=="
            }
          },
          {
            "validator_address": "DFAF0C8B1B78D6D552B0189DE3ACA351439A1319",
            "validator_index": "79",
            "height": "43510",
            "round": "0",
            "timestamp": "2018-08-02T07:20:29.954156678Z",
            "type": 2,
            "block_id": {
              "hash": "B2AC5799161DE50B33FCE12353C3D75D0FD86684",
              "parts": {
                "total": "1",
                "hash": "B3528EDC052246FBB197D0863DCB6334B9ABCFCC"
              }
            },
            "signature": {
              "type": "tendermint/SignatureEd25519",
              "value": "FXvEyyZZaU4+7vec4uy5q6f44MwEbPoQLvkjbqGzozePnXIbMCDPokWC/Y0zupcXXT3eBXbx13Ac1TADexLPDQ=="
            }
          },
          {
            "validator_address": "E1DBC77881161A5A3A8536A57536EAE546A75D69",
            "validator_index": "80",
            "height": "43510",
            "round": "0",
            "timestamp": "2018-08-02T07:20:29.915289985Z",
            "type": 2,
            "block_id": {
              "hash": "B2AC5799161DE50B33FCE12353C3D75D0FD86684",
              "parts": {
                "total": "1",
                "hash": "B3528EDC052246FBB197D0863DCB6334B9ABCFCC"
              }
            },
            "signature": {
              "type": "tendermint/SignatureEd25519",
              "value": "/mady/3FXZI2Y4T9zhfm0Ev/C8QzIaxfaEF/96adld/TfGGJCd6kQY72+xLMGXN3OlsMrrAx1FvrlB/v8Dd7Bg=="
            }
          },
          {
            "validator_address": "E300E9D484374C1D3E97C1D93CAC3B160A056298",
            "validator_index": "81",
            "height": "43510",
            "round": "0",
            "timestamp": "2018-08-02T07:20:30.093345035Z",
            "type": 2,
            "block_id": {
              "hash": "B2AC5799161DE50B33FCE12353C3D75D0FD86684",
              "parts": {
                "total": "1",
                "hash": "B3528EDC052246FBB197D0863DCB6334B9ABCFCC"
              }
            },
            "signature": {
              "type": "tendermint/SignatureEd25519",
              "value": "NjfjAdVdhFNl+QjXKOJSvixGGX2kC0GameBZtdJ1KN0eg2fieICXUvE6jyAY2AnTL7C4D18OwFtJMkmMyL2EBg=="
            }
          },
          {
            "validator_address": "E39B5778E0D4297A46F45CF6940B0A163A430FF8",
            "validator_index": "82",
            "height": "43510",
            "round": "0",
            "timestamp": "2018-08-02T07:20:29.983039441Z",
            "type": 2,
            "block_id": {
              "hash": "B2AC5799161DE50B33FCE12353C3D75D0FD86684",
              "parts": {
                "total": "1",
                "hash": "B3528EDC052246FBB197D0863DCB6334B9ABCFCC"
              }
            },
            "signature": {
              "type": "tendermint/SignatureEd25519",
              "value": "lOQ0h7d4X8c+QKDP54i5v5vGNk7b+j0iUTlSs1IusDmGcSH1/f3k5SPQUGklPjafehtPaw1bA/nOjfR4Ty3sCg=="
            }
          },
          {
            "validator_address": "E3B19738F7132F950668504D326C7660F159D170",
            "validator_index": "83",
            "height": "43510",
            "round": "0",
            "timestamp": "2018-08-02T07:20:29.883958195Z",
            "type": 2,
            "block_id": {
              "hash": "B2AC5799161DE50B33FCE12353C3D75D0FD86684",
              "parts": {
                "total": "1",
                "hash": "B3528EDC052246FBB197D0863DCB6334B9ABCFCC"
              }
            },
            "signature": {
              "type": "tendermint/SignatureEd25519",
              "value": "vVCBgLYnU2TxpNXXcWK/U8NpaZIPcsauQ9a8ob1yNQzvYdnix/b5/n71kVl7SvYTGCF2SrmFZS7eTWsWmoXqDg=="
            }
          },
          {
            "validator_address": "E42F8AEABB685219F7027F54D2B0DBC7846F633A",
            "validator_index": "84",
            "height": "43510",
            "round": "0",
            "timestamp": "2018-08-02T07:20:29.031791518Z",
            "type": 2,
            "block_id": {
              "hash": "B2AC5799161DE50B33FCE12353C3D75D0FD86684",
              "parts": {
                "total": "1",
                "hash": "B3528EDC052246FBB197D0863DCB6334B9ABCFCC"
              }
            },
            "signature": {
              "type": "tendermint/SignatureEd25519",
              "value": "vyt5N+VEK769xIqbAtMOQXlgJtnmI0uvfu8GiIGiVQa77c9BJlA10z7lGmxEVgkR8TZdMVlBGilJh0Qbe+Y4Cw=="
            }
          },
          {
            "validator_address": "E4E6C2E81269DFFA196C17F98240E491479A6008",
            "validator_index": "85",
            "height": "43510",
            "round": "0",
            "timestamp": "2018-08-02T07:20:29.948024957Z",
            "type": 2,
            "block_id": {
              "hash": "B2AC5799161DE50B33FCE12353C3D75D0FD86684",
              "parts": {
                "total": "1",
                "hash": "B3528EDC052246FBB197D0863DCB6334B9ABCFCC"
              }
            },
            "signature": {
              "type": "tendermint/SignatureEd25519",
              "value": "xkEmKbrn/060tDxMyzy8tDbRvgGlumuUnt38l1olRVBuwamVHRL+4lUYCN9Xy9gJRjQviYJGDd9GgHdc4gxmBw=="
            }
          },
          {
            "validator_address": "E4FEB2846F4F3B0ECDCBE9C9DCB2248248A5AF0F",
            "validator_index": "86",
            "height": "43510",
            "round": "0",
            "timestamp": "2018-08-02T07:20:29.811636285Z",
            "type": 2,
            "block_id": {
              "hash": "B2AC5799161DE50B33FCE12353C3D75D0FD86684",
              "parts": {
                "total": "1",
                "hash": "B3528EDC052246FBB197D0863DCB6334B9ABCFCC"
              }
            },
            "signature": {
              "type": "tendermint/SignatureEd25519",
              "value": "Xbmxz2uvcNnIzvl6mDC2H45JZKbPs3qcV2cC1Ax98gacf/+bhn5DSIHDyfTjFOQWalCacQ6Mggo6uxPd9we3DA=="
            }
          },
          {
            "validator_address": "E50ADECD5FD27FA2CD610C07F8AED36A2FC4A6A6",
            "validator_index": "87",
            "height": "43510",
            "round": "0",
            "timestamp": "2018-08-02T07:20:29.894573436Z",
            "type": 2,
            "block_id": {
              "hash": "B2AC5799161DE50B33FCE12353C3D75D0FD86684",
              "parts": {
                "total": "1",
                "hash": "B3528EDC052246FBB197D0863DCB6334B9ABCFCC"
              }
            },
            "signature": {
              "type": "tendermint/SignatureEd25519",
              "value": "6h7yGwcn/PEozFer2J7BTXIoGZ1AwecI591oOaUPoHRxVwPjxKjSzfDtposlVk72fF7iKJ0rpCQZhZWtSrLDDA=="
            }
          },
          {
            "validator_address": "E6A7079D584B163750BE0831227F6B685DEAF3C1",
            "validator_index": "88",
            "height": "43510",
            "round": "0",
            "timestamp": "2018-08-02T07:20:30.003468909Z",
            "type": 2,
            "block_id": {
              "hash": "B2AC5799161DE50B33FCE12353C3D75D0FD86684",
              "parts": {
                "total": "1",
                "hash": "B3528EDC052246FBB197D0863DCB6334B9ABCFCC"
              }
            },
            "signature": {
              "type": "tendermint/SignatureEd25519",
              "value": "utJ0NWtaYcbGZSYOGA3fX/jvsx38HTV+MKGs9nqCauP6YtFF3pM2Tnt6dTBU+V5LPFzIspGZaHAN0FgcCb0lCg=="
            }
          },
          {
            "validator_address": "E7A30077D5D11867D3EAF99ED45BFDC1EB834509",
            "validator_index": "89",
            "height": "43510",
            "round": "0",
            "timestamp": "2018-08-02T07:20:29.91657024Z",
            "type": 2,
            "block_id": {
              "hash": "B2AC5799161DE50B33FCE12353C3D75D0FD86684",
              "parts": {
                "total": "1",
                "hash": "B3528EDC052246FBB197D0863DCB6334B9ABCFCC"
              }
            },
            "signature": {
              "type": "tendermint/SignatureEd25519",
              "value": "gfaEJzjNolztqnqLx78tYMicxIonJrx4pmzfD25Cq2HhvI5sEllNW0o7Fu20kstcMvMuCUX4MVSo023QpQh0Cw=="
            }
          },
          {
            "validator_address": "EBC613967F66F4EC306852CDF58B4F151CF16738",
            "validator_index": "90",
            "height": "43510",
            "round": "0",
            "timestamp": "2018-08-02T07:20:30.047857739Z",
            "type": 2,
            "block_id": {
              "hash": "B2AC5799161DE50B33FCE12353C3D75D0FD86684",
              "parts": {
                "total": "1",
                "hash": "B3528EDC052246FBB197D0863DCB6334B9ABCFCC"
              }
            },
            "signature": {
              "type": "tendermint/SignatureEd25519",
              "value": "JrBwNKCjfCNlPFRAeEON22Emq16IZ+nkoODVu9bAHOs85/Zjzwun7WXETBJITeAzFqNCLbVju4idxDy1yVoRBA=="
            }
          },
          {
            "validator_address": "EC3401441726C40ECC7E51F744483B05BC6DE9BD",
            "validator_index": "91",
            "height": "43510",
            "round": "0",
            "timestamp": "2018-08-02T07:20:29.975615184Z",
            "type": 2,
            "block_id": {
              "hash": "B2AC5799161DE50B33FCE12353C3D75D0FD86684",
              "parts": {
                "total": "1",
                "hash": "B3528EDC052246FBB197D0863DCB6334B9ABCFCC"
              }
            },
            "signature": {
              "type": "tendermint/SignatureEd25519",
              "value": "gLONAetMkoSyfRKBKzV5Mr+Beox874qfMhCXINaKasC24IU4ktGHrh1kvQeXM/RYKFjfiTIbFjcAKlXI48kgAw=="
            }
          },
          {
            "validator_address": "EC95B111D032181E1EC3B5E8875C5BB8E4AE7140",
            "validator_index": "92",
            "height": "43510",
            "round": "0",
            "timestamp": "2018-08-02T07:20:29.874818085Z",
            "type": 2,
            "block_id": {
              "hash": "B2AC5799161DE50B33FCE12353C3D75D0FD86684",
              "parts": {
                "total": "1",
                "hash": "B3528EDC052246FBB197D0863DCB6334B9ABCFCC"
              }
            },
            "signature": {
              "type": "tendermint/SignatureEd25519",
              "value": "uXltULk7/9/kDb116ygv80S+dn41K/dyy2qQftUoOkhfTv//Ccexx6bvZ+kf1nt9WqU8/UA9C4/0IkUw0J+wBA=="
            }
          },
          {
            "validator_address": "F13C1805E8131C9B47E2A46818F57D8A2841E578",
            "validator_index": "93",
            "height": "43510",
            "round": "0",
            "timestamp": "2018-08-02T07:20:30.009986272Z",
            "type": 2,
            "block_id": {
              "hash": "B2AC5799161DE50B33FCE12353C3D75D0FD86684",
              "parts": {
                "total": "1",
                "hash": "B3528EDC052246FBB197D0863DCB6334B9ABCFCC"
              }
            },
            "signature": {
              "type": "tendermint/SignatureEd25519",
              "value": "z1YVQMJL604b6yYRcVdo9FokFh6uYephdVPf32JJvmONcoEU6zB185ddDJNMgrutSDgiH4kOt32ZGKYSAjnkCA=="
            }
          },
          {
            "validator_address": "F23FF36BD5B90C33CE3A03ED72DBDCF5EC07D6AF",
            "validator_index": "94",
            "height": "43510",
            "round": "0",
            "timestamp": "2018-08-02T07:20:29.952524791Z",
            "type": 2,
            "block_id": {
              "hash": "B2AC5799161DE50B33FCE12353C3D75D0FD86684",
              "parts": {
                "total": "1",
                "hash": "B3528EDC052246FBB197D0863DCB6334B9ABCFCC"
              }
            },
            "signature": {
              "type": "tendermint/SignatureEd25519",
              "value": "ddR9ogW6xeBcgF37jQ3lvPQu0CpcNTOjjZFNWd6p8lHrJ/A1854BFUf6S+iPHo0D3D4HzSAocdm/cy5aHblsCw=="
            }
          },
          {
            "validator_address": "F4268597DE93E3E2CED38845010F8AA34E2A879E",
            "validator_index": "95",
            "height": "43510",
            "round": "0",
            "timestamp": "2018-08-02T07:20:29.938359013Z",
            "type": 2,
            "block_id": {
              "hash": "B2AC5799161DE50B33FCE12353C3D75D0FD86684",
              "parts": {
                "total": "1",
                "hash": "B3528EDC052246FBB197D0863DCB6334B9ABCFCC"
              }
            },
            "signature": {
              "type": "tendermint/SignatureEd25519",
              "value": "Oc9U5AppQMZmwXwrGn0VGRHN51y+NcxOS7sOzmmTuH+/7asv2nj5n5E+gBPZ0S1pvq47UC5ERMQNA7TPuP6RAg=="
            }
          },
          {
            "validator_address": "F4DEB417999B04BE2EFF9FFE03FA373D86011CC0",
            "validator_index": "96",
            "height": "43510",
            "round": "0",
            "timestamp": "2018-08-02T07:20:29.974276108Z",
            "type": 2,
            "block_id": {
              "hash": "B2AC5799161DE50B33FCE12353C3D75D0FD86684",
              "parts": {
                "total": "1",
                "hash": "B3528EDC052246FBB197D0863DCB6334B9ABCFCC"
              }
            },
            "signature": {
              "type": "tendermint/SignatureEd25519",
              "value": "eWDKxBmuziv3UydRazbsraLoUzbT+ky19DzJcbLE3odoplw2N/w4QrClhHyB/pBpg7j1qIdcD/BP2ipN/rL4Aw=="
            }
          },
          {
            "validator_address": "F6738260186D33D9C14FC6E7017AFE6BB952A63D",
            "validator_index": "97",
            "height": "43510",
            "round": "0",
            "timestamp": "2018-08-02T07:20:29.91662667Z",
            "type": 2,
            "block_id": {
              "hash": "B2AC5799161DE50B33FCE12353C3D75D0FD86684",
              "parts": {
                "total": "1",
                "hash": "B3528EDC052246FBB197D0863DCB6334B9ABCFCC"
              }
            },
            "signature": {
              "type": "tendermint/SignatureEd25519",
              "value": "j15mISmCZjMqRiIVxFf5CD65pbuPqhU/5HWoZ9nFCGgnBzrE3h8Eh+t3qH53kW2REoH9MLBHZs365Z4HgwPxDQ=="
            }
          },
          {
            "validator_address": "FD8D304F0278229077114B05BED9DABD382D49D8",
            "validator_index": "98",
            "height": "43510",
            "round": "0",
            "timestamp": "2018-08-02T07:20:29.982254711Z",
            "type": 2,
            "block_id": {
              "hash": "B2AC5799161DE50B33FCE12353C3D75D0FD86684",
              "parts": {
                "total": "1",
                "hash": "B3528EDC052246FBB197D0863DCB6334B9ABCFCC"
              }
            },
            "signature": {
              "type": "tendermint/SignatureEd25519",
              "value": "yjooSxtPGb57+r4c3/qcicEo8mYYN165iKvc1SBAGIObprwEMf48VCLUW1oi7EDIlC9pScCesAVb9FFmU4+vCA=="
            }
          },
          {
            "validator_address": "FF3F3FCBCE7E62D7AD5506FF846EC4518D980515",
            "validator_index": "99",
            "height": "43510",
            "round": "0",
            "timestamp": "2018-08-02T07:20:29.865511266Z",
            "type": 2,
            "block_id": {
              "hash": "B2AC5799161DE50B33FCE12353C3D75D0FD86684",
              "parts": {
                "total": "1",
                "hash": "B3528EDC052246FBB197D0863DCB6334B9ABCFCC"
              }
            },
            "signature": {
              "type": "tendermint/SignatureEd25519",
              "value": "c9xtP97QxTH69Ay3i7pY9aLPkpQQ0I5rRyeGh2Z+iDy46vQZl+8GjVlED4Pc04rZKxl7rfD4JSr8EK4/VIgeDw=="
            }
          }
        ]
      }
    },
    "canonical": true
  }
}