{
  "jsonrpc": "2.0",
  "id": "",
  "result": {
    "SignedHeader": {
      "header": {
        "chain_id": "gaia-7004",
        "height": "43639",
        "time": "2018-08-02T07:34:05.945703421Z",
        "num_txs": "1",
        "last_block_id": {
          "hash": "B517E1AAC172226B2EDA21E29A7CFFD3606B4B63",
          "parts": {
            "total": "1",
            "hash": "B34FADA652352CB47B9C1B0795E3E6340F1744B8"
          }
        },
        "total_txs": "2027",
        "last_commit_hash": "EFA510E19533A52E0EC5D54E8B607EEA0791FC90",
        "data_hash": "74C3C377AAB9BC01C5A7AA2A591CCBD0A6843EA7",
        "validators_hash": "7F834681D8D9644FE0F706BB6D5A04C077595D31",
        "consensus_hash": "D6B74BB35BDFFD8392340F2A379173548AE188FE",
        "app_hash": "CF4B92D40DA655175B8A24ADDE39CFBE8B56E58F",
        "last_results_hash": "E3B0C44298FC1C149AFBF4C8996FB92427AE41E4",
        "evidence_hash": ""
      },
      "commit": {
        "block_id": {
          "hash": "335CAEB519EAF4B2ADD055A0108C7999A23B1498",
          "parts": {
            "total": "1",
            "hash": "3A6ED154CD1E4A0E5F9AC16FF7326BFFD31FB7FB"
          }
        },
        "precommits": [
          {
            "validator_address": "029359C0C768096273A68ABC902A6B17AC8D1D70",
            "validator_index": "0",
            "height": "43639",
            "round": "1",
            "timestamp": "2018-08-02T07:34:06.904054224Z",
            "type": 2,
            "block_id": {
              "hash": "335CAEB519EAF4B2ADD055A0108C7999A23B1498",
              "parts": {
                "total": "1",
                "hash": "3A6ED154CD1E4A0E5F9AC16FF7326BFFD31FB7FB"
              }
            },
            "signature": {
              "type": "tendermint/SignatureEd25519",
              "value": "iTZ60VosRqtv0q2No/2M4q6tlJxA8FuPvzNKC3CaVBKeQNszMdZRB1TBbh4UKiPCgKWDLeFZH/es52VOnvyODg=="
            }
          },
          {
            "validator_address": "02FE4B97A8387F39D1AC19E0C1702B3CC614812F",
            "validator_index": "1",
            "height": "43639",
            "round": "1",
            "timestamp": "2018-08-02T07:34:06.928989598Z",
            "type": 2,
            "block_id": {
              "hash": "335CAEB519EAF4B2ADD055A0108C7999A23B1498",
              "parts": {
                "total": "1",
                "hash": "3A6ED154CD1E4A0E5F9AC16FF7326BFFD31FB7FB"
              }
            },
            "signature": {
              "type": "tendermint/SignatureEd25519",
              "value": "nwPy+rSFZWGneJ0NbEXX7xiy9mcHtVxyG6m78s2Od9B39N5QoF+1b16S2NZdDxh4fdrLg+sze5G0o3SkkoTgAA=="
            }
          },
          {
            "validator_address": "0548261C50222FD710EB5EBDF03A0E6567B21D20",
            "validator_index": "2",
            "height": "43639",
            "round": "1",
            "timestamp": "2018-08-02T07:34:07.001138256Z",
            "type": 2,
            "block_id": {
              "hash": "335CAEB519EAF4B2ADD055A0108C7999A23B1498",
              "parts": {
                "total": "1",
                "hash": "3A6ED154CD1E4A0E5F9AC16FF7326BFFD31FB7FB"
              }
            },
            "signature": {
              "type": "tendermint/SignatureEd25519",
              "value": "CU3/xOICXmL2BU5powcVsZP+6jFxoRdhyJODFnFpiiVvZCC37ZkDi5/KXV3lbbTBaCPY561R7CIDHaRYwGgaAA=="
            }
          },
          {
            "validator_address": "0665ADBF9B120B7617BF955AA5653A1992C82B11",
            "validator_index": "3",
            "height": "43639",
            "round": "1",
            "timestamp": "2018-08-02T07:34:06.939909494Z",
            "type": 2,
            "block_id": {
              "hash": "335CAEB519EAF4B2ADD055A0108C7999A23B1498",
              "parts": {
                "total": "1",
                "hash": "3A6ED154CD1E4A0E5F9AC16FF7326BFFD31FB7FB"
              }
            },
            "signature": {
              "type": "tendermint/SignatureEd25519",
              "value": "oQlfOeE5zI6wAJ82sJHQEXFIgYr4sHS3sAe4S/JmYY40M6ZpX59mk8CudlBa4+BjuWvZIv60Gx7oPC1WGy+gCg=="
            }
          },
          {
            "validator_address": "09145E611CC27EEB944FC5A956DDF710F943B9EF",
            "validator_index": "4",
            "height": "43639",
            "round": "1",
            "timestamp": "2018-08-02T07:34:06.9421151Z",
            "type": 2,
            "block_id": {
              "hash": "335CAEB519EAF4B2ADD055A0108C7999A23B1498",
              "parts": {
                "total": "1",
                "hash": "3A6ED154CD1E4A0E5F9AC16FF7326BFFD31FB7FB"
              }
            },
            "signature": {
              "type": "tendermint/SignatureEd25519",
              "value": "LXc8B8hrlbsLuKcfF1Ifj6+ipvhokRZRUzcF/OMMdNKAFWLneDycsTlDzS+uPtdDQ2jdLvLMtFO3VThqdIL9Dg=="
            }
          },
          {
            "validator_address": "0989D0355A104B67AE0AE028C68FB610690E174B",
            "validator_index": "5",
            "height": "43639",
            "round": "1",
            "timestamp": "2018-08-02T07:34:06.952538019Z",
            "type": 2,
            "block_id": {
              "hash": "335CAEB519EAF4B2ADD055A0108C7999A23B1498",
              "parts": {
                "total": "1",
                "hash": "3A6ED154CD1E4A0E5F9AC16FF7326BFFD31FB7FB"
              }
            },
            "signature": {
              "type": "tendermint/SignatureEd25519",
              "value": "WjLwV3qlLwN51xasPGbBSBnluaBD+WHltrdl2OA9o9r3+E6lwSwTyDRn7ol4YgLMnN2+f8eEwOWduUNGt3UnDA=="
            }
          },
          {
            "validator_address": "0A692DBFFE9E5DD28E7DECC33CED1AEB4C0D014E",
            "validator_index": "6",
            "height": "43639",
            "round": "1",
            "timestamp": "2018-08-02T07:34:07.066082892Z",
            "type": 2,
            "block_id": {
              "hash": "335CAEB519EAF4B2ADD055A0108C7999A23B1498",
              "parts": {
                "total": "1",
                "hash": "3A6ED154CD1E4A0E5F9AC16FF7326BFFD31FB7FB"
              }
            },
            "signature": {
              "type": "tendermint/SignatureEd25519",
              "value": "cg7ISTv1WZZzh6Jb5+6q3BB5zjavaop1soXG9TFdaQhSUH67OGqWrKL5bUW0BZIrdzzcL04kW7qNxJUCVZl5CQ=="
            }
          },
          null,
          {
            "validator_address": "1751786EFC085D5331C61168FFFC8202EA151B4E",
            "validator_index": "8",
            "height": "43639",
            "round": "1",
            "timestamp": "2018-08-02T07:34:06.556714304Z",
            "type": 2,
            "block_id": {
              "hash": "335CAEB519EAF4B2ADD055A0108C7999A23B1498",
              "parts": {
                "total": "1",
                "hash": "3A6ED154CD1E4A0E5F9AC16FF7326BFFD31FB7FB"
              }
            },
            "signature": {
              "type": "tendermint/SignatureEd25519",
              "value": "E3trYCZceW4LPQDk7XiSS7vPTHSfa2VrYuG8FJirsiXABaNG6eyjQQRyRr3gLmlyZMiwteqAecF/DhHGGcTrBQ=="
            }
          },
          {
            "validator_address": "17BB5CD01E8940FAFB948A04D5FA5A0645E5822E",
            "validator_index": "9",
            "height": "43639",
            "round": "1",
            "timestamp": "2018-08-02T07:34:06.912238806Z",
            "type": 2,
            "block_id": {
              "hash": "335CAEB519EAF4B2ADD055A0108C7999A23B1498",
              "parts": {
                "total": "1",
                "hash": "3A6ED154CD1E4A0E5F9AC16FF7326BFFD31FB7FB"
              }
            },
            "signature": {
              "type": "tendermint/SignatureEd25519",
              "value": "Df40ue5m4fFMHaGQnBDsyfR+qBa8CHcODf2i8zgkEHWWleFesGDIWotM4ehDbjEMkAxF1XPD3ShVrO+wwY3OCA=="
            }
          },
          {
            "validator_address": "1C683A87904BC38F05004FE83301A3A3E35447EB",
            "validator_index": "10",
            "height": "43639",
            "round": "1",
            "timestamp": "2018-08-02T07:34:06.946281657Z",
            "type": 2,
            "block_id": {
              "hash": "335CAEB519EAF4B2ADD055A0108C7999A23B1498",
              "parts": {
                "total": "1",
                "hash": "3A6ED154CD1E4A0E5F9AC16FF7326BFFD31FB7FB"
              }
            },
            "signature": {
              "type": "tendermint/SignatureEd25519",
              "value": "OG4RSPk9V45WrNs9Qna+Aaw7BfLbZ02uBxN6xuT2JPQVbW5N57yJL/IWXyfRRPS5zRIDnqVPQHw3od5LeUINCg=="
            }
          },
          {
            "validator_address": "1E9CE94FD0BA5CFEB901F90BC658D64D85B134D2",
            "validator_index": "11",
            "height": "43639",
            "round": "1",
            "timestamp": "2018-08-02T07:34:06.944455529Z",
            "type": 2,
            "block_id": {
              "hash": "335CAEB519EAF4B2ADD055A0108C7999A23B1498",
              "parts": {
                "total": "1",
                "hash": "3A6ED154CD1E4A0E5F9AC16FF7326BFFD31FB7FB"
              }
            },
            "signature": {
              "type": "tendermint/SignatureEd25519",
              "value": "NWb9hHnNTYAam7UXt+syID4xdBS8ujVRFMq8rEU7tbEJRXDp7MW38qqdKGCbViAP3veSpywJ+bgMaEpiVBPiDw=="
            }
          },
          {
            "validator_address": "1ECD8C5FE1341D74CDC633A245DD56858DE2F9A2",
            "validator_index": "12",
            "height": "43639",
            "round": "1",
            "timestamp": "2018-08-02T07:34:07.036763295Z",
            "type": 2,
            "block_id": {
              "hash": "335CAEB519EAF4B2ADD055A0108C7999A23B1498",
              "parts": {
                "total": "1",
                "hash": "3A6ED154CD1E4A0E5F9AC16FF7326BFFD31FB7FB"
              }
            },
            "signature": {
              "type": "tendermint/SignatureEd25519",
              "value": "NgV/cxvKshrrCxSTTZxVBgSTfLrPs8pOpZYDkZlLG7XfnQMuImKGipc3w9GyN/SN1rCLwIJdenBSdatIvT1QDg=="
            }
          },
          {
            "validator_address": "1F3A68CAAD483768AA2BF667DEF10F7104C89928",
            "validator_index": "13",
            "height": "43639",
            "round": "1",
            "timestamp": "2018-08-02T07:34:06.942855977Z",
            "type": 2,
            "block_id": {
              "hash": "335CAEB519EAF4B2ADD055A0108C7999A23B1498",
              "parts": {
                "total": "1",
                "hash": "3A6ED154CD1E4A0E5F9AC16FF7326BFFD31FB7FB"
              }
            },
            "signature": {
              "type": "tendermint/SignatureEd25519",
              "value": "v8T2m1MAizjIJTjzp90MeWZeJh00OlFwiWBDzl+jBoNxrWl6MvIrT+gtBZVMPC1EsLciCxYTAdhANyD8/QgRCw=="
            }
          },
          {
            "validator_address": "1F61153F26C2DF27E15874268D30326287323352",
            "validator_index": "14",
            "height": "43639",
            "round": "1",
            "timestamp": "2018-08-02T07:34:07.000946828Z",
            "type": 2,
            "block_id": {
              "hash": "335CAEB519EAF4B2ADD055A0108C7999A23B1498",
              "parts": {
                "total": "1",
                "hash": "3A6ED154CD1E4A0E5F9AC16FF7326BFFD31FB7FB"
              }
            },
            "signature": {
              "type": "tendermint/SignatureEd25519",
              "value": "78LgeX09J+1TWaSzCAknA2wWDs3WUrie2kDWXM+9HVTKnFEk/H1Z/9cJFL9n1x8+TUSPyZWPqQhDLftJzZk3DA=="
            }
          },
          {
            "validator_address": "23897586D68E2AC1C78E0EF5BB5DF5C8EAB18F50",
            "validator_index": "15",
            "height": "43639",
            "round": "1",
            "timestamp": "2018-08-02T07:34:06.93972709Z",
            "type": 2,
            "block_id": {
              "hash": "335CAEB519EAF4B2ADD055A0108C7999A23B1498",
              "parts": {
                "total": "1",
                "hash": "3A6ED154CD1E4A0E5F9AC16FF7326BFFD31FB7FB"
              }
            },
            "signature": {
              "type": "tendermint/SignatureEd25519",
              "value": "VM4TDM3dRli0BqsqNOr4hTWQn+3iuzafuATJPOmKsU1+xiaBl7KLQF74ZDJEEaVj8UM6TAW5D5I052LbnxXlDg=="
            }
          },
          {
            "validator_address": "28770D17E8530825E7310A0659308654B7EC9682",
            "validator_index": "16",
            "height": "43639",
            "round": "1",
            "timestamp": "2018-08-02T07:34:06.893099599Z",
            "type": 2,
            "block_id": {
              "hash": "335CAEB519EAF4B2ADD055A0108C7999A23B1498",
              "parts": {
                "total": "1",
                "hash": "3A6ED154CD1E4A0E5F9AC16FF7326BFFD31FB7FB"
              }
            },
            "signature": {
              "type": "tendermint/SignatureEd25519",
              "value": "KB+kX/qLjUh36sB26e5dQVRoty9zt9h4xR2fAI2VHzOq2zCNllvs5ZA2uCg1/smMKReq3MPqqNHmB6J38fD7DA=="
            }
          },
          null,
          null,
          {
            "validator_address": "36E9B7FAEC964F97D84C028ED62493E373AD0B38",
            "validator_index": "19",
            "height": "43639",
            "round": "1",
            "timestamp": "2018-08-02T07:34:06.9471922Z",
            "type": 2,
            "block_id": {
              "hash": "335CAEB519EAF4B2ADD055A0108C7999A23B1498",
              "parts": {
                "total": "1",
                "hash": "3A6ED154CD1E4A0E5F9AC16FF7326BFFD31FB7FB"
              }
            },
            "signature": {
              "type": "tendermint/SignatureEd25519",
              "value": "N7KWEHqyhMtyimiJpuiQ+ToooX0WWv3JRCLVTi2rjQNymy4S+9jvZCq71J6uI26DGx5wenyQfOwNxbn4ekVlDw=="
            }
          },
          {
            "validator_address": "38A8D85D36BEA2E5FCF8A1E778F53628E450EF13",
            "validator_index": "20",
            "height": "43639",
            "round": "1",
            "timestamp": "2018-08-02T07:34:07.117467394Z",
            "type": 2,
            "block_id": {
              "hash": "335CAEB519EAF4B2ADD055A0108C7999A23B1498",
              "parts": {
                "total": "1",
                "hash": "3A6ED154CD1E4A0E5F9AC16FF7326BFFD31FB7FB"
              }
            },
            "signature": {
              "type": "tendermint/SignatureEd25519",
              "value": "LiChrSQhtyJ+mDThAEDrMISgWfFk8uL7nfZf/nh09MoEuMbdQCCDrzaQNGR4c+J+b855jPIYlcubVe3JxpYrDw=="
            }
          },
          {
            "validator_address": "39DFDA0C5DB84B269642188B23253508537798E6",
            "validator_index": "21",
            "height": "43639",
            "round": "1",
            "timestamp": "2018-08-02T07:34:06.89905988Z",
            "type": 2,
            "block_id": {
              "hash": "335CAEB519EAF4B2ADD055A0108C7999A23B1498",
              "parts": {
                "total": "1",
                "hash": "3A6ED154CD1E4A0E5F9AC16FF7326BFFD31FB7FB"
              }
            },
            "signature": {
              "type": "tendermint/SignatureEd25519",
              "value": "f3KuQYPqkop3mUfQcqeeFfhCNxdcWjy5LAEaGJ8vpetj3KaI7d6XfAZqVGssM/8HVysQKkvZrY7TRv3oJCc7Cg=="
            }
          },
          {
            "validator_address": "3AC99B708404452366E0953A4BE849226DC86CBC",
            "validator_index": "22",
            "height": "43639",
            "round": "1",
            "timestamp": "2018-08-02T07:34:07.021216404Z",
            "type": 2,
            "block_id": {
              "hash": "335CAEB519EAF4B2ADD055A0108C7999A23B1498",
              "parts": {
                "total": "1",
                "hash": "3A6ED154CD1E4A0E5F9AC16FF7326BFFD31FB7FB"
              }
            },
            "signature": {
              "type": "tendermint/SignatureEd25519",
              "value": "rcffohGgFm+e++GgnPyNZ8EKuVKk/CcwFQLZ+ixsMM6ZJJk8NPQQh89eQCQjE/ht+YdSU4T0Su0JBqm8U1KWDg=="
            }
          },
          {
            "validator_address": "3DCB822A10ED319EC7C4393D8E3FD4A41B15AAF2",
            "validator_index": "23",
            "height": "43639",
            "round": "1",
            "timestamp": "2018-08-02T07:34:06.907928459Z",
            "type": 2,
            "block_id": {
              "hash": "335CAEB519EAF4B2ADD055A0108C7999A23B1498",
              "parts": {
                "total": "1",
                "hash": "3A6ED154CD1E4A0E5F9AC16FF7326BFFD31FB7FB"
              }
            },
            "signature": {
              "type": "tendermint/SignatureEd25519",
              "value": "Io55vhTX4ziyBodmjTWXYX30TnknOBKVJAOjE/jXTs/VaQ3l9fXzLihK7VYChyv36gAqtXeUfKiiMELVvBVCBA=="
            }
          },
          {
            "validator_address": "3E899BA36A93C7370347BD5FE85909F2ECD93F8C",
            "validator_index": "24",
            "height": "43639",
            "round": "1",
            "timestamp": "2018-08-02T07:34:06.935558947Z",
            "type": 2,
            "block_id": {
              "hash": "335CAEB519EAF4B2ADD055A0108C7999A23B1498",
              "parts": {
                "total": "1",
                "hash": "3A6ED154CD1E4A0E5F9AC16FF7326BFFD31FB7FB"
              }
            },
            "signature": {
              "type": "tendermint/SignatureEd25519",
              "value": "kR689xzNAI0HxBNURfYIuhE6WaofpJZhGaxsue2CF6cMFvsxwtnVKOfrHestc6/vlty2qwj+wp20hiC8TzVjCQ=="
            }
          },
          {
            "validator_address": "41CAB2E29E7D0F2282E3275938F188FF9386B84C",
            "validator_index": "25",
            "height": "43639",
            "round": "1",
            "timestamp": "2018-08-02T07:34:06.954447943Z",
            "type": 2,
            "block_id": {
              "hash": "335CAEB519EAF4B2ADD055A0108C7999A23B1498",
              "parts": {
                "total": "1",
                "hash": "3A6ED154CD1E4A0E5F9AC16FF7326BFFD31FB7FB"
              }
            },
            "signature": {
              "type": "tendermint/SignatureEd25519",
              "value": "QPR32xkBiVbv4hQRUHLwfHI258qQew7ELvJEKVVkL31YeU7/vVuUK7eR/CIzS9UQ7qCYrH6/oyyuu0BjIWE7Bg=="
            }
          },
          {
            "validator_address": "462B656869DB02A8FD1077E255F8CC7401DC37C6",
            "validator_index": "26",
            "height": "43639",
            "round": "1",
            "timestamp": "2018-08-02T07:34:06.900059111Z",
            "type": 2,
            "block_id": {
              "hash": "335CAEB519EAF4B2ADD055A0108C7999A23B1498",
              "parts": {
                "total": "1",
                "hash": "3A6ED154CD1E4A0E5F9AC16FF7326BFFD31FB7FB"
              }
            },
            "signature": {
              "type": "tendermint/SignatureEd25519",
              "value": "CgYuc+hGqWNOJTZRIM939ilLJeidWKr01Le48bjjJSXAvXPmM5q7Lr0XaEy6AwX0tJpga1A6pLMZZcsNRJO5BA=="
            }
          },
          {
            "validator_address": "48E5118163E5442068A1B5A42D2EEDBB75724935",
            "validator_index": "27",
            "height": "43639",
            "round": "1",
            "timestamp": "2018-08-02T07:34:07.072447625Z",
            "type": 2,
            "block_id": {
              "hash": "335CAEB519EAF4B2ADD055A0108C7999A23B1498",
              "parts": {
                "total": "1",
                "hash": "3A6ED154CD1E4A0E5F9AC16FF7326BFFD31FB7FB"
              }
            },
            "signature": {
              "type": "tendermint/SignatureEd25519",
              "value": "Hj5g1v8TCoKCfh4cVan0EiLk2CfGCfazTNmPsbr8VyCxCtyik2ncmQzCosCRBnCV9osV9c1E4NOJjunwlnTmBg=="
            }
          },
          {
            "validator_address": "49103C58AFD9C7C069F55EBA218F3DFD9AEA74F9",
            "validator_index": "28",
            "height": "43639",
            "round": "1",
            "timestamp": "2018-08-02T07:34:06.960921533Z",
            "type": 2,
            "block_id": {
              "hash": "335CAEB519EAF4B2ADD055A0108C7999A23B1498",
              "parts": {
                "total": "1",
                "hash": "3A6ED154CD1E4A0E5F9AC16FF7326BFFD31FB7FB"
              }
            },
            "signature": {
              "type": "tendermint/SignatureEd25519",
              "value": "s5UlNqhlc+BNYUh06QkWXe0JyROkQjJW4xpXEbURLlOnq3IgAiFV5W8Svn3TmfvsNaI3W84v5S1BVptjItaFDQ=="
            }
          },
          {
            "validator_address": "4944F8BBBB5303E17BC0607DF332320EDBC750EA",
            "validator_index": "29",
            "height": "43639",
            "round": "1",
            "timestamp": "2018-08-02T07:34:06.920876232Z",
            "type": 2,
            "block_id": {
              "hash": "335CAEB519EAF4B2ADD055A0108C7999A23B1498",
              "parts": {
                "total": "1",
                "hash": "3A6ED154CD1E4A0E5F9AC16FF7326BFFD31FB7FB"
              }
            },
            "signature": {
              "type": "tendermint/SignatureEd25519",
              "value": "JUb09Q2RBSoFCLUAomwYpVH/WnDgtWuaCNay6ZYtuItuzFbgcjwyt7+NzvUUTysV43UHGC4gVh/9IJJmNOMeCg=="
            }
          },
          {
            "validator_address": "49841599DE675157CBE1E7D6B35BF8FFC23BD5CB",
            "validator_index": "30",
            "height": "43639",
            "round": "1",
            "timestamp": "2018-08-02T07:34:06.877798092Z",
            "type": 2,
            "block_id": {
              "hash": "335CAEB519EAF4B2ADD055A0108C7999A23B1498",
              "parts": {
                "total": "1",
                "hash": "3A6ED154CD1E4A0E5F9AC16FF7326BFFD31FB7FB"
              }
            },
            "signature": {
              "type": "tendermint/SignatureEd25519",
              "value": "i01dIu926e/CqP3DusD2tJmyo/DzZ62DGHDVv1yI+o0NT4YnbA1YXOISEBTqcFvIkqASjCu4Jz8THJsW4p0EBw=="
            }
          },
          {
            "validator_address": "51386C2CF9556821D114D7E4945806802BADB28D",
            "validator_index": "31",
            "height": "43639",
            "round": "1",
            "timestamp": "2018-08-02T07:34:06.937818954Z",
            "type": 2,
            "block_id": {
              "hash": "335CAEB519EAF4B2ADD055A0108C7999A23B1498",
              "parts": {
                "total": "1",
                "hash": "3A6ED154CD1E4A0E5F9AC16FF7326BFFD31FB7FB"
              }
            },
            "signature": {
              "type": "tendermint/SignatureEd25519",
              "value": "gEaQv8E3NhtBAh1rOcWiSmXFY5TaujCg2JtgROtV8gaVNLn5u4VTGPY3OBKapgc1xtxi8AxjIR2oX5ddaqYKAQ=="
            }
          },
          {
            "validator_address": "543564ECA3AFEFADC73EE8591AAC3A96F079BC8A",
            "validator_index": "32",
            "height": "43639",
            "round": "1",
            "timestamp": "2018-08-02T07:34:06.880592112Z",
            "type": 2,
            "block_id": {
              "hash": "335CAEB519EAF4B2ADD055A0108C7999A23B1498",
              "parts": {
                "total": "1",
                "hash": "3A6ED154CD1E4A0E5F9AC16FF7326BFFD31FB7FB"
              }
            },
            "signature": {
              "type": "tendermint/SignatureEd25519",
              "value": "qruvY2ki9QqgtD8J/wmvEjlrYXwVI0huXl4aHmxc/nsCoAPpq2O6I01gzTYkTYk3UU/k6TROS0epxAdhRl8sAA=="
            }
          },
          {
            "validator_address": "55D67B1A6DC13E96F8754A5A42EABC20F7F86664",
            "validator_index": "33",
            "height": "43639",
            "round": "1",
            "timestamp": "2018-08-02T07:34:06.902901777Z",
            "type": 2,
            "block_id": {
              "hash": "335CAEB519EAF4B2ADD055A0108C7999A23B1498",
              "parts": {
                "total": "1",
                "hash": "3A6ED154CD1E4A0E5F9AC16FF7326BFFD31FB7FB"
              }
            },
            "signature": {
              "type": "tendermint/SignatureEd25519",
              "value": "2MHeHkvUTZ1ybJOhRD3wdZUhmbQ2xp+YKyeESGQSvhde9o0cysamcXxh4LsCmhPb40snRl1Ti6OcqkGRRulUBQ=="
            }
          },
          {
            "validator_address": "570B6A755ED339EAC56BB3390A48069F6AC9449B",
            "validator_index": "34",
            "height": "43639",
            "round": "1",
            "timestamp": "2018-08-02T07:34:15.902279777Z",
            "type": 2,
            "block_id": {
              "hash": "335CAEB519EAF4B2ADD055A0108C7999A23B1498",
              "parts": {
                "total": "1",
                "hash": "3A6ED154CD1E4A0E5F9AC16FF7326BFFD31FB7FB"
              }
            },
            "signature": {
              "type": "tendermint/SignatureEd25519",
              "value": "YFO3vKSXq99DTeBkUoWar3auyps2BoL0JZqur7dKFCvYwNfTLWNx1cl2NFffnrhVurEf9tO3USlC6MnuvN62Bw=="
            }
          },
          {
            "validator_address": "5BDF8EA41B1835FBAD865B181A2A4B23F511B5E4",
            "validator_index": "35",
            "height": "43639",
            "round": "1",
            "timestamp": "2018-08-02T07:34:06.905138327Z",
            "type": 2,
            "block_id": {
              "hash": "335CAEB519EAF4B2ADD055A0108C7999A23B1498",
              "parts": {
                "total": "1",
                "hash": "3A6ED154CD1E4A0E5F9AC16FF7326BFFD31FB7FB"
              }
            },
            "signature": {
              "type": "tendermint/SignatureEd25519",
              "value": "HjvWkEa4QdMSFBR08R9QTHtjvNv75sUcA1WT/Y5HTN/POCanuy5dkbntxmGb1G02Gmj7+cfx+3PtV84bysp2CA=="
            }
          },
          {
            "validator_address": "60229E2E273297FE00219E46DFFB8F76844CDEF9",
            "validator_index": "36",
            "height": "43639",
            "round": "1",
            "timestamp": "2018-08-02T07:34:04.449891546Z",
            "type": 2,
            "block_id": {
              "hash": "335CAEB519EAF4B2ADD055A0108C7999A23B1498",
              "parts": {
                "total": "1",
                "hash": "3A6ED154CD1E4A0E5F9AC16FF7326BFFD31FB7FB"
              }
            },
            "signature": {
              "type": "tendermint/SignatureEd25519",
              "value": "Qtu7iT2bLNvY2zd3UYGR5SIq6Mw/aBC5ORQKGMJmkfj2H/ie3fwXU8SKezxG89sXadZLEP4EajOxdKpEZOzaCQ=="
            }
          },
          {
            "validator_address": "62410D6D1CD98278136E4D0738AA0EA273CDFC54",
            "validator_index": "37",
            "height": "43639",
            "round": "1",
            "timestamp": "2018-08-02T07:34:06.883364698Z",
            "type": 2,
            "block_id": {
              "hash": "335CAEB519EAF4B2ADD055A0108C7999A23B1498",
              "parts": {
                "total": "1",
                "hash": "3A6ED154CD1E4A0E5F9AC16FF7326BFFD31FB7FB"
              }
            },
            "signature": {
              "type": "tendermint/SignatureEd25519",
              "value": "j/WMaJqBsRlryBazTahoNJIKK1tPEd3NfjQFLBfVFStnm+MK4SNwq0HsgPLukAdkDaXi2BBvjZqvEzVkPGiNBQ=="
            }
          },
          {
            "validator_address": "632F5C139A5A9DFBFE5111DEE29FCFB6157207DC",
            "validator_index": "38",
            "height": "43639",
            "round": "1",
            "timestamp": "2018-08-02T07:34:06.934308413Z",
            "type": 2,
            "block_id": {
              "hash": "335CAEB519EAF4B2ADD055A0108C7999A23B1498",
              "parts": {
                "total": "1",
                "hash": "3A6ED154CD1E4A0E5F9AC16FF7326BFFD31FB7FB"
              }
            },
            "signature": {
              "type": "tendermint/SignatureEd25519",
              "value": "7DEy0WMVn5883YpNxT5fmTFMW7BJS+0xozo/D9wWGu4IbSIm2QmiszQE7F3DL3JsaRjz7KogdrMc8AN4fB6hCg=="
            }
          },
          {
            "validator_address": "64F57F8E796A9B7B590C1EFA4123988C86631D39",
            "validator_index": "39",
            "height": "43639",
            "round": "1",
            "timestamp": "2018-08-02T07:34:06.882537537Z",
            "type": 2,
            "block_id": {
              "hash": "335CAEB519EAF4B2ADD055A0108C7999A23B1498",
              "parts": {
                "total": "1",
                "hash": "3A6ED154CD1E4A0E5F9AC16FF7326BFFD31FB7FB"
              }
            },
            "signature": {
              "type": "tendermint/SignatureEd25519",
              "value": "+f+OBtp4BGYFHPqp3jmWoZpH1PAAV2VwnBSd0zTuY7E/ClZ33HA2f5YDIic++eKURbix85bf39sWuzmj+jENDA=="
            }
          },
          {
            "validator_address": "69D99B2C66043ACBEAA8447525C356AFC6408E0C",
            "validator_index": "40",
            "height": "43639",
            "round": "1",
            "timestamp": "2018-08-02T07:34:07.074244033Z",
            "type": 2,
            "block_id": {
              "hash": "335CAEB519EAF4B2ADD055A0108C7999A23B1498",
              "parts": {
                "total": "1",
                "hash": "3A6ED154CD1E4A0E5F9AC16FF7326BFFD31FB7FB"
              }
            },
            "signature": {
              "type": "tendermint/SignatureEd25519",
              "value": "JM+PT3b8Uk8gEFI0IcXsaDuYobY6joF99OTMDMtquJwVYIlUMpDJy9outvxAFYraQI36U1Gzlt8OqNqxN7DPBw=="
            }
          },
          {
            "validator_address": "69EDADFA4A803E9DBF548C900D4A465E7D154262",
            "validator_index": "41",
            "height": "43639",
            "round": "1",
            "timestamp": "2018-08-02T07:34:07.039615111Z",
            "type": 2,
            "block_id": {
              "hash": "335CAEB519EAF4B2ADD055A0108C7999A23B1498",
              "parts": {
                "total": "1",
                "hash": "3A6ED154CD1E4A0E5F9AC16FF7326BFFD31FB7FB"
              }
            },
            "signature": {
              "type": "tendermint/SignatureEd25519",
              "value": "45Y7Unn5kqr8IWQQLEXOBcFjeCtaG9v4rwLWejzrKAY6Lm2qNpA8fgBPNRc9NOaJsRc69OAKUUCJ+t1Z44adBA=="
            }
          },
          {
            "validator_address": "6D3AD380E398D8592B03AA124BAFED5F125DF863",
            "validator_index": "42",
            "height": "43639",
            "round": "1",
            "timestamp": "2018-08-02T07:33:04.350828839Z",
            "type": 2,
            "block_id": {
              "hash": "335CAEB519EAF4B2ADD055A0108C7999A23B1498",
              "parts": {
                "total": "1",
                "hash": "3A6ED154CD1E4A0E5F9AC16FF7326BFFD31FB7FB"
              }
            },
            "signature": {
              "type": "tendermint/SignatureEd25519",
              "value": "xJQXTwajWSAE8S/pLzgIb+Yz0XaKX5IfqIm5GGt9pu7YPDjeY3BUsShwRFJ+mQ95whFtO68odmtqo+UgO1tQDA=="
            }
          },
          {
            "validator_address": "6F6C93B8BF3495063FEC9B5C771158607F4AE9D6",
            "validator_index": "43",
            "height": "43639",
            "round": "1",
            "timestamp": "2018-08-02T07:34:07.127220048Z",
            "type": 2,
            "block_id": {
              "hash": "335CAEB519EAF4B2ADD055A0108C7999A23B1498",
              "parts": {
                "total": "1",
                "hash": "3A6ED154CD1E4A0E5F9AC16FF7326BFFD31FB7FB"
              }
            },
            "signature": {
              "type": "tendermint/SignatureEd25519",
              "value": "qbvRWclQbcTkIOlEvTNA4P7qBYhI66hs8YGrunt/6b7MG2EBV1bxFCDpjgbbywbea78WAd39UHGLELJBflQpAQ=="
            }
          },
          {
            "validator_address": "732CEEF54C374DDC6ADECBFD707AEFD07FEDC143",
            "validator_index": "44",
            "height": "43639",
            "round": "1",
            "timestamp": "2018-08-02T07:34:07.05574326Z",
            "type": 2,
            "block_id": {
              "hash": "335CAEB519EAF4B2ADD055A0108C7999A23B1498",
              "parts": {
                "total": "1",
                "hash": "3A6ED154CD1E4A0E5F9AC16FF7326BFFD31FB7FB"
              }
            },
            "signature": {
              "type": "tendermint/SignatureEd25519",
              "value": "8ts+ro78uBRdRZvY2WGkzYW3+c/nHoAus5IJvsMCiXvoBLSzvPVvH6K9x4ighhATlZMW6STSbI4M/wRgcugfBQ=="
            }
          },
          {
            "validator_address": "751E43437224E8BB6D1569B3E2B2616B6E7F4397",
            "validator_index": "45",
            "height": "43639",
            "round": "1",
            "timestamp": "2018-08-02T07:34:06.939864932Z",
            "type": 2,
            "block_id": {
              "hash": "335CAEB519EAF4B2ADD055A0108C7999A23B1498",
              "parts": {
                "total": "1",
                "hash": "3A6ED154CD1E4A0E5F9AC16FF7326BFFD31FB7FB"
              }
            },
            "signature": {
              "type": "tendermint/SignatureEd25519",
              "value": "wsJd9c9RJg42T/81i5B46IuHl1uo+8KCEHvj6Pi8nAzD8ldAfO8FUbSM4VgCfZQtGmBnkvPRuGzvTCSuIOHWDA=="
            }
          },
          {
            "validator_address": "7EB7593F519F1180C7E872D0494611464EDF03AE",
            "validator_index": "46",
            "height": "43639",
            "round": "1",
            "timestamp": "2018-08-02T07:34:07.128960179Z",
            "type": 2,
            "block_id": {
              "hash": "335CAEB519EAF4B2ADD055A0108C7999A23B1498",
              "parts": {
                "total": "1",
                "hash": "3A6ED154CD1E4A0E5F9AC16FF7326BFFD31FB7FB"
              }
            },
            "signature": {
              "type": "tendermint/SignatureEd25519",
              "value": "b43jzL1Z1KR7ex2EdssqBd4oDOZXAwtMxL2qvlY+HcPzEy5zAlVzQw4k9P5qY1kd0zlrnsrLZWde6BBtva6GBg=="
            }
          },
          {
            "validator_address": "8356899C8853BC6640D76F76E59743FFEEA57B81",
            "validator_index": "47",
            "height": "43639",
            "round": "1",
            "timestamp": "2018-08-02T07:34:06.953809644Z",
            "type": 2,
            "block_id": {
              "hash": "335CAEB519EAF4B2ADD055A0108C7999A23B1498",
              "parts": {
                "total": "1",
                "hash": "3A6ED154CD1E4A0E5F9AC16FF7326BFFD31FB7FB"
              }
            },
            "signature": {
              "type": "tendermint/SignatureEd25519",
              "value": "vLW4oAyv+T0Kw8dYqnyfr81XKJGb7L04f5tjSVDn8vxPb4gqpRu/TmgujOWHFKwm+jT1Wxr73PZQAE7B3ABECg=="
            }
          },
          {
            "validator_address": "83AB321E012C57746689FED3A6064DF331F81007",
            "validator_index": "48",
            "height": "43639",
            "round": "1",
            "timestamp": "2018-08-02T07:34:06.915613169Z",
            "type": 2,
            "block_id": {
              "hash": "335CAEB519EAF4B2ADD055A0108C7999A23B1498",
              "parts": {
                "total": "1",
                "hash": "3A6ED154CD1E4A0E5F9AC16FF7326BFFD31FB7FB"
              }
            },
            "signature": {
              "type": "tendermint/SignatureEd25519",
              "value": "r/QSVnR6jP5lie3s/cYE8ACxSCpIIi+jjFiF44JS/v1L2go11ueURTLR5md7Nss9zALW0siY42MPEu9ITnVqCw=="
            }
          },
          {
            "validator_address": "8F06FE1FD042683C426137FBC4BBAA4288924217",
            "validator_index": "49",
            "height": "43639",
            "round": "1",
            "timestamp": "2018-08-02T07:34:06.923613551Z",
            "type": 2,
            "block_id": {
              "hash": "335CAEB519EAF4B2ADD055A0108C7999A23B1498",
              "parts": {
                "total": "1",
                "hash": "3A6ED154CD1E4A0E5F9AC16FF7326BFFD31FB7FB"
              }
            },
            "signature": {
              "type": "tendermint/SignatureEd25519",
              "value": "JjKNPS69q0lJuAxAu32VQX2MlhYqLggIbpwnHjDYoyQ8yGgNevGqMSGZ9tzmk741doNZ6oXeCgWTSgPgN75xAA=="
            }
          },
          null,
          {
            "validator_address": "95980831E186F2540F6E9FB6C8E74DE2401405AC",
            "validator_index": "51",
            "height": "43639",
            "round": "1",
            "timestamp": "2018-08-02T07:34:06.957759299Z",
            "type": 2,
            "block_id": {
              "hash": "335CAEB519EAF4B2ADD055A0108C7999A23B1498",
              "parts": {
                "total": "1",
                "hash": "3A6ED154CD1E4A0E5F9AC16FF7326BFFD31FB7FB"
              }
            },
            "signature": {
              "type": "tendermint/SignatureEd25519",
              "value": "xd6Z7xD1LUlD+uwtuuRd3B7qj4zDL8ThXTXTOjoETB7amDXhHkRjOruL0BdjqvctrEDym57r6a07OGaIDzTaDw=="
            }
          },
          {
            "validator_address": "95FAFBC1E0579C83D290A063020CE87C5334BD9B",
            "validator_index": "52",
            "height": "43639",
            "round": "1",
            "timestamp": "2018-08-02T07:34:06.959261599Z",
            "type": 2,
            "block_id": {
              "hash": "335CAEB519EAF4B2ADD055A0108C7999A23B1498",
              "parts": {
                "total": "1",
                "hash": "3A6ED154CD1E4A0E5F9AC16FF7326BFFD31FB7FB"
              }
            },
            "signature": {
              "type": "tendermint/SignatureEd25519",
              "value": "7OUgJ6Iwmp6mPnBM2HL3+po/pxmZ6RlSvxGD2APp35BivcjpVFvqTNauFM4fBp4MmbtTJl7svyvX+DCgGJGUCw=="
            }
          },
          {
            "validator_address": "96BDE45EC52606CF5CB59853097871AD60680549",
            "validator_index": "53",
            "height": "43639",
            "round": "1",
            "timestamp": "2018-08-02T07:34:06.98186301Z",
            "type": 2,
            "block_id": {
              "hash": "335CAEB519EAF4B2ADD055A0108C7999A23B1498",
              "parts": {
                "total": "1",
                "hash": "3A6ED154CD1E4A0E5F9AC16FF7326BFFD31FB7FB"
              }
            },
            "signature": {
              "type": "tendermint/SignatureEd25519",
              "value": "4l0P6L+typ9QCjfzL7hF5Vhe8MkM4a6JtOrF0fj5SZe7NNxsu8/9WWLkXuUoWhQhITYXFq+lqbCgJJwovHwADQ=="
            }
          },
          {
            "validator_address": "970CD321881185BF83DB2923C321B0E75FDBB2B8",
            "validator_index": "54",
            "height": "43639",
            "round": "1",
            "timestamp": "2018-08-02T07:34:06.996121845Z",
            "type": 2,
            "block_id": {
              "hash": "335CAEB519EAF4B2ADD055A0108C7999A23B1498",
              "parts": {
                "total": "1",
                "hash": "3A6ED154CD1E4A0E5F9AC16FF7326BFFD31FB7FB"
              }
            },
            "signature": {
              "type": "tendermint/SignatureEd25519",
              "value": "9McjgNYLIyYZi66iNsEz2EDC2SAe7dvkIVXGzKEw3DvXbnVy9yTKx81ZgCJWsFmHyVjU0K/IEmiNfWSGosTrAA=="
            }
          },
          {
            "validator_address": "97DBB3D4B3D6C29287244864448F651DD5B07390",
            "validator_index": "55",
            "height": "43639",
            "round": "1",
            "timestamp": "2018-08-02T07:34:06.959007312Z",
            "type": 2,
            "block_id": {
              "hash": "335CAEB519EAF4B2ADD055A0108C7999A23B1498",
              "parts": {
                "total": "1",
                "hash": "3A6ED154CD1E4A0E5F9AC16FF7326BFFD31FB7FB"
              }
            },
            "signature": {
              "type": "tendermint/SignatureEd25519",
              "value": "PvZB9DBEiImrYC69Z5hx14Ov6ZUTzSLPNlblFIoc8MI0LActq1K697oakn1hVt3zKbQNBkQ7dHDR/gfnUZo5DA=="
            }
          },
          {
            "validator_address": "9C29C9B76D27586E4D9AD2AED0E943162645E55C",
            "validator_index": "56",
            "height": "43639",
            "round": "1",
            "timestamp": "2018-08-02T07:34:06.898130439Z",
            "type": 2,
            "block_id": {
              "hash": "335CAEB519EAF4B2ADD055A0108C7999A23B1498",
              "parts": {
                "total": "1",
                "hash": "3A6ED154CD1E4A0E5F9AC16FF7326BFFD31FB7FB"
              }
            },
            "signature": {
              "type": "tendermint/SignatureEd25519",
              "value": "GS2e9z1QCGTHcTL+iCnDVr76bpEYUJMRu5lHFQ8RwPMPhUJiWFycl2d5GxkjGQXZUhAf6sncRux9QPfslGjXAA=="
            }
          },
          {
            "validator_address": "9D93AD02FE1BD7E76B9E58D7EB461088EAD011E5",
            "validator_index": "57",
            "height": "43639",
            "round": "1",
            "timestamp": "2018-08-02T07:34:06.928120009Z",
            "type": 2,
            "block_id": {
              "hash": "335CAEB519EAF4B2ADD055A0108C7999A23B1498",
              "parts": {
                "total": "1",
                "hash": "3A6ED154CD1E4A0E5F9AC16FF7326BFFD31FB7FB"
              }
            },
            "signature": {
              "type": "tendermint/SignatureEd25519",
              "value": "PD5F+qWAD9JoYuGWk07nZLrbYZZAMpkkpHxrf72tC6voKViqm9Yo9or5m27JNEuyE07d2tLi6O1zY7B6N8ntBQ=="
            }
          },
          {
            "validator_address": "A0A6466F4ABEA09C3B55E3709AFDE217A103209F",
            "validator_index": "58",
            "height": "43639",
            "round": "1",
            "timestamp": "2018-08-02T07:34:06.880767679Z",
            "type": 2,
            "block_id": {
              "hash": "335CAEB519EAF4B2ADD055A0108C7999A23B1498",
              "parts": {
                "total": "1",
                "hash": "3A6ED154CD1E4A0E5F9AC16FF7326BFFD31FB7FB"
              }
            },
            "signature": {
              "type": "tendermint/SignatureEd25519",
              "value": "leaV+CskSzAIkdWgoU1gvkBwcQ09Sqpwm6PDKQC3M1fvqbC7iMEXFpPz2kYgiXNYpbfjTtstLqq3DfhfjvJWAw=="
            }
          },
          {
            "validator_address": "A5868971300F155020634D7BB49C7634F7AACCD3",
            "validator_index": "59",
            "height": "43639",
            "round": "1",
            "timestamp": "2018-08-02T07:34:07.011379882Z",
            "type": 2,
            "block_id": {
              "hash": "335CAEB519EAF4B2ADD055A0108C7999A23B1498",
              "parts": {
                "total": "1",
                "hash": "3A6ED154CD1E4A0E5F9AC16FF7326BFFD31FB7FB"
              }
            },
            "signature": {
              "type": "tendermint/SignatureEd25519",
              "value": "SY3p3anEe7xeac0ufIUK+xY/1rooOyK+6cDwGP2vUwzGkgfMtkcy1cslOZVM0eI/kvwXd3DYZK84CcsDauGECA=="
            }
          },
          {
            "validator_address": "A6B3A5B5D982CFD7B5FDFA15CF5A720E7AE25E7F",
            "validator_index": "60",
            "height": "43639",
            "round": "1",
            "timestamp": "2018-08-02T07:34:07.288485601Z",
            "type": 2,
            "block_id": {
              "hash": "335CAEB519EAF4B2ADD055A0108C7999A23B1498",
              "parts": {
                "total": "1",
                "hash": "3A6ED154CD1E4A0E5F9AC16FF7326BFFD31FB7FB"
              }
            },
            "signature": {
              "type": "tendermint/SignatureEd25519",
              "value": "lv+ACPqZOskDpamamrMm+/UNakZyS4xPAsU1sfOr3RFhb7o0SUtdBAYEJBQAZOWd/mjgeVRudoO5Jv3hSKuuCQ=="
            }
          },
          {
            "validator_address": "AC96444A9083890B7C7B430DB17BF1D3EA5EED04",
            "validator_index": "61",
            "height": "43639",
            "round": "1",
            "timestamp": "2018-08-02T07:34:07.018727184Z",
            "type": 2,
            "block_id": {
              "hash": "335CAEB519EAF4B2ADD055A0108C7999A23B1498",
              "parts": {
                "total": "1",
                "hash": "3A6ED154CD1E4A0E5F9AC16FF7326BFFD31FB7FB"
              }
            },
            "signature": {
              "type": "tendermint/SignatureEd25519",
              "value": "b+614X3fxU43IITUqMrUJz5e0AZcv4cgOkSMt6Hy9V6OU+VStqO02SL5F7jQLAJpmgelWWyYsRBZdmQR+a8bCg=="
            }
          },
          {
            "validator_address": "ACB97FDA2D940AF0709B73537C458EB988AD2893",
            "validator_index": "62",
            "height": "43639",
            "round": "1",
            "timestamp": "2018-08-02T07:34:06.865229545Z",
            "type": 2,
            "block_id": {
              "hash": "335CAEB519EAF4B2ADD055A0108C7999A23B1498",
              "parts": {
                "total": "1",
                "hash": "3A6ED154CD1E4A0E5F9AC16FF7326BFFD31FB7FB"
              }
            },
            "signature": {
              "type": "tendermint/SignatureEd25519",
              "value": "CjI8vG6pWN8qUSSYzh/LHjidVyyJ6QhXDcyYplEqJYAUBQ2piXtKuNAbg8QvM/LLKnpuakFkX91AnBGz+j9CCA=="
            }
          },
          {
            "validator_address": "B197425B3210375F211661DE02EF2AE36580EB0F",
            "validator_index": "63",
            "height": "43639",
            "round": "1",
            "timestamp": "2018-08-02T07:34:06.926391375Z",
            "type": 2,
            "block_id": {
              "hash": "335CAEB519EAF4B2ADD055A0108C7999A23B1498",
              "parts": {
                "total": "1",
                "hash": "3A6ED154CD1E4A0E5F9AC16FF7326BFFD31FB7FB"
              }
            },
            "signature": {
              "type": "tendermint/SignatureEd25519",
              "value": "oQSy9jqiVqMGAQnzxSt2yzs1roRVr7KSbqGaGT2xagCGUjJ6L7ZYzXiUmB/BL6kdKML4Dw+uaUIQP+XVHdcmCA=="
            }
          },
          {
            "validator_address": "B45E54D2D1CB5A4CCD1D49016608C18E7C56B270",
            "validator_index": "64",
            "height": "43639",
            "round": "1",
            "timestamp": "2018-08-02T07:34:07.036074357Z",
            "type": 2,
            "block_id": {
              "hash": "335CAEB519EAF4B2ADD055A0108C7999A23B1498",
              "parts": {
                "total": "1",
                "hash": "3A6ED154CD1E4A0E5F9AC16FF7326BFFD31FB7FB"
              }
            },
            "signature": {
              "type": "tendermint/SignatureEd25519",
              "value": "Vm3SdPR2neEWPxobvS2RhbxliQDHBVix7ZFGXROclJx1bL9qIB1x+zQlChph9xbkP4BNs0R21TVTVjVNqAbQDQ=="
            }
          },
          {
            "validator_address": "BB1276BE89834835428664408917649FEEF5D90C",
            "validator_index": "65",
            "height": "43639",
            "round": "1",
            "timestamp": "2018-08-02T07:34:07.037612914Z",
            "type": 2,
            "block_id": {
              "hash": "335CAEB519EAF4B2ADD055A0108C7999A23B1498",
              "parts": {
                "total": "1",
                "hash": "3A6ED154CD1E4A0E5F9AC16FF7326BFFD31FB7FB"
              }
            },
            "signature": {
              "type": "tendermint/SignatureEd25519",
              "value": "J9CmwSQE0DTYvNXEjtjwl2bXUIZ6mjpPirnzzvLofQoMDG7eP0b7KkpsOhBJlBL8RU+jbQdIhfootIlkpfLJBA=="
            }
          },
          {
            "validator_address": "BC36FEDD6EF6071118A3E51859DF3831A2EC4782",
            "validator_index": "66",
            "height": "43639",
            "round": "1",
            "timestamp": "2018-08-02T07:34:06.974060813Z",
            "type": 2,
            "block_id": {
              "hash": "335CAEB519EAF4B2ADD055A0108C7999A23B1498",
              "parts": {
                "total": "1",
                "hash": "3A6ED154CD1E4A0E5F9AC16FF7326BFFD31FB7FB"
              }
            },
            "signature": {
              "type": "tendermint/SignatureEd25519",
              "value": "FXvZGAbgiOcKtyE1B5VGdpBnkOtsITzaR8CB1ZyOGUSMITAcY9+kx2He+o5C95oV+gjYmz1MRcCkfbL4II15Bg=="
            }
          },
          {
            "validator_address": "BD9D0DA513BF099DB4BB6E725A4E19832789882F",
            "validator_index": "67",
            "height": "43639",
            "round": "1",
            "timestamp": "2018-08-02T07:34:06.971704376Z",
            "type": 2,
            "block_id": {
              "hash": "335CAEB519EAF4B2ADD055A0108C7999A23B1498",
              "parts": {
                "total": "1",
                "hash": "3A6ED154CD1E4A0E5F9AC16FF7326BFFD31FB7FB"
              }
            },
            "signature": {
              "type": "tendermint/SignatureEd25519",
              "value": "P3NcCqgDBjxSDLYPL/11m3B3pdVyAu30AkEe+jDhO4b7GtwCXK4CwQeKwUDR0mtZzPwh4LarwHyLt9asGKojBg=="
            }
          },
          {
            "validator_address": "C1134A2FF8F7338E7CDB3FE57DDD2A655DEB1E22",
            "validator_index": "68",
            "height": "43639",
            "round": "1",
            "timestamp": "2018-08-02T07:34:06.300371029Z",
            "type": 2,
            "block_id": {
              "hash": "335CAEB519EAF4B2ADD055A0108C7999A23B1498",
              "parts": {
                "total": "1",
                "hash": "3A6ED154CD1E4A0E5F9AC16FF7326BFFD31FB7FB"
              }
            },
            "signature": {
              "type": "tendermint/SignatureEd25519",
              "value": "yFdiXBiU4J0fqPZc3J8jvoZ7D8xPUuDIPx7TeIM2KH2Wk+q0P5lfdEf/IGmMHhLr+E7t90kqzhb28GzdF+ZdDw=="
            }
          },
          {
            "validator_address": "C39A8A2B85198DCB8F23AD1F6C198E2BA7AB5D60",
            "validator_index": "69",
            "height": "43639",
            "round": "1",
            "timestamp": "2018-08-02T07:34:06.907582552Z",
            "type": 2,
            "block_id": {
              "hash": "335CAEB519EAF4B2ADD055A0108C7999A23B1498",
              "parts": {
                "total": "1",
                "hash": "3A6ED154CD1E4A0E5F9AC16FF7326BFFD31FB7FB"
              }
            },
            "signature": {
              "type": "tendermint/SignatureEd25519",
              "value": "AqGTWdvpQqOKBGDqI5ekzY2KHn1JfRE8tBhwEs/y14X5+J6a7xh79+vg9x7t2hmNrVLMdRIdi7VtZUaA2CZjBQ=="
            }
          },
          {
            "validator_address": "C4335190C3B5BD4BA5568BC0F99C34162D940D08",
            "validator_index": "70",
            "height": "43639",
            "round": "1",
            "timestamp": "2018-08-02T07:34:06.979619036Z",
            "type": 2,
            "block_id": {
              "hash": "335CAEB519EAF4B2ADD055A0108C7999A23B1498",
              "parts": {
                "total": "1",
                "hash": "3A6ED154CD1E4A0E5F9AC16FF7326BFFD31FB7FB"
              }
            },
            "signature": {
              "type": "tendermint/SignatureEd25519",
              "value": "H4zy3Sxe79OcG4vebhanRHCD2l/UU7AuwoQN24MWFoqd5Nqcx8+RWGK+E+1HCNhRtTPQ30bXOpDPy3JRjLpoBQ=="
            }
          },
          {
            "validator_address": "C561CFA081677046376396922E7576E5F7B316AD",
            "validator_index": "71",
            "height": "43639",
            "round": "1",
            "timestamp": "2018-08-02T07:34:07.029130359Z",
            "type": 2,
            "block_id": {
              "hash": "335CAEB519EAF4B2ADD055A0108C7999A23B1498",
              "parts": {
                "total": "1",
                "hash": "3A6ED154CD1E4A0E5F9AC16FF7326BFFD31FB7FB"
              }
            },
            "signature": {
              "type": "tendermint/SignatureEd25519",
              "value": "UxBfZFCbVGPUXhwBZWrJ669BtVANs+e4RU6Xf8rR17JlSCav7X0FxhtFzbDp/3s88OCU3VdkTKkNoiZmPwS3Dw=="
            }
          },
          {
            "validator_address": "CE589EA77B056D268D30D1DC1D68A70E0F885E95",
            "validator_index": "72",
            "height": "43639",
            "round": "1",
            "timestamp": "2018-08-02T07:34:06.911464294Z",
            "type": 2,
            "block_id": {
              "hash": "335CAEB519EAF4B2ADD055A0108C7999A23B1498",
              "parts": {
                "total": "1",
                "hash": "3A6ED154CD1E4A0E5F9AC16FF7326BFFD31FB7FB"
              }
            },
            "signature": {
              "type": "tendermint/SignatureEd25519",
              "value": "KlKRpiFVbDkzH0NjjAF2oModNlG7vWkE8rFuImH9nOWkXSs+wOWBrPGR4ppOrdzYdD3F+X8T0aFzsCojMaQxBw=="
            }
          },
          {
            "validator_address": "CEB97DB5CB18270247ABDE6CF2F84F9AEE8A2904",
            "validator_index": "73",
            "height": "43639",
            "round": "1",
            "timestamp": "2018-08-02T07:34:07.900927052Z",
            "type": 2,
            "block_id": {
              "hash": "335CAEB519EAF4B2ADD055A0108C7999A23B1498",
              "parts": {
                "total": "1",
                "hash": "3A6ED154CD1E4A0E5F9AC16FF7326BFFD31FB7FB"
              }
            },
            "signature": {
              "type": "tendermint/SignatureEd25519",
              "value": "K3NpPo/ZIWMWEn2lJsZ36yLUQXsGMA5SllObKJSRmp9aOGDtK58/aHIeiRTg18VdWtXOSJk9QN3JqIDjGK0HCA=="
            }
          },
          {
            "validator_address": "D2134B826A1E25A955905CB79A4D8731CAFA0CCE",
            "validator_index": "74",
            "height": "43639",
            "round": "1",
            "timestamp": "2018-08-02T07:34:07.069345012Z",
            "type": 2,
            "block_id": {
              "hash": "335CAEB519EAF4B2ADD055A0108C7999A23B1498",
              "parts": {
                "total": "1",
                "hash": "3A6ED154CD1E4A0E5F9AC16FF7326BFFD31FB7FB"
              }
            },
            "signature": {
              "type": "tendermint/SignatureEd25519",
              "value": "72CtEAD3Tc1k/ZGrnDCcnhGBNeUvsGw/Hf+GB7NFOE25MMqobbeXxuRHBsyr3grNgioFbd9c9D9T0oT7lvcsCQ=="
            }
          },
          {
            "validator_address": "D6285C3422C8886445D53757CBE12D2B91B5A9D0",
            "validator_index": "75",
            "height": "43639",
            "round": "1",
            "timestamp": "2018-08-02T07:33:50.321563738Z",
            "type": 2,
            "block_id": {
              "hash": "335CAEB519EAF4B2ADD055A0108C7999A23B1498",
              "parts": {
                "total": "1",
                "hash": "3A6ED154CD1E4A0E5F9AC16FF7326BFFD31FB7FB"
              }
            },
            "signature": {
              "type": "tendermint/SignatureEd25519",
              "value": "fmmM90rj8JxD7n1B+OLsjtSWG7d0EnbBb0MerMWGf4VJjT/fJaf2zBPpLKD/3l7IvLrIP0z93DrnuXFO+PDnAA=="
            }
          },
          {
            "validator_address": "D77FB84A729972CD3E757C9BEB61561855832B92",
            "validator_index": "76",
            "height": "43639",
            "round": "1",
            "timestamp": "2018-08-02T07:34:07.050657794Z",
            "type": 2,
            "block_id": {
              "hash": "335CAEB519EAF4B2ADD055A0108C7999A23B1498",
              "parts": {
                "total": "1",
                "hash": "3A6ED154CD1E4A0E5F9AC16FF7326BFFD31FB7FB"
              }
            },
            "signature": {
              "type": "tendermint/SignatureEd25519",
              "value": "cPM8srmcRQpWHeJkHaqZj7EtB7JVofbtwO8/PTTEDGpawsLzgoqlk9UWA1gd+xHIAIGuJMCc8++EegH/wXjMCw=="
            }
          },
          {
            "validator_address": "DB7E6732471D3EA5C90C17A9974D9F88AB45F2FB",
            "validator_index": "77",
            "height": "43639",
            "round": "1",
            "timestamp": "2018-08-02T07:34:06.944837646Z",
            "type": 2,
            "block_id": {
              "hash": "335CAEB519EAF4B2ADD055A0108C7999A23B1498",
              "parts": {
                "total": "1",
                "hash": "3A6ED154CD1E4A0E5F9AC16FF7326BFFD31FB7FB"
              }
            },
            "signature": {
              "type": "tendermint/SignatureEd25519",
              "value": "qMKLPi1rt0lNHyVLIYgq2yzrV2Q0nGbTVJw9l0wxBOdmx0LeJd4xavXy1Gh73PlQNEl8OUPMVGED7TyGYrOWDQ=="
            }
          },
          {
            "validator_address": "DF54B862410BCD9B5C516FBB6C56BDC826ED6FA7",
            "validator_index": "78",
            "height": "43639",
            "round": "1",
            "timestamp": "2018-08-02T07:34:07.063967212Z",
            "type": 2,
            "block_id": {
              "hash": "335CAEB519EAF4B2ADD055A0108C7999A23B1498",
              "parts": {
                "total": "1",
                "hash": "3A6ED154CD1E4A0E5F9AC16FF7326BFFD31FB7FB"
              }
            },
            "signature": {
              "type": "tendermint/SignatureEd25519",
              "value": "9+l+M0O0suwpiq1y7RRE5qotnfh1Y0SVjkz0bJuIbbuWPS8k41X9fOXmwoGvCyIGURA+YevBgNfo/4i8e8fuBA=="
            }
          },
          {
            "validator_address": "DFAF0C8B1B78D6D552B0189DE3ACA351439A1319",
            "validator_index": "79",
            "height": "43639",
            "round": "1",
            "timestamp": "2018-08-02T07:34:06.896854705Z",
            "type": 2,
            "block_id": {
              "hash": "335CAEB519EAF4B2ADD055A0108C7999A23B1498",
              "parts": {
                "total": "1",
                "hash": "3A6ED154CD1E4A0E5F9AC16FF7326BFFD31FB7FB"
              }
            },
            "signature": {
              "type": "tendermint/SignatureEd25519",
              "value": "zHL2Jw9kZAbtEiIFPu9xoFalrRxK9/8NJBM6//A+JEKlDJtc0G/SQFIMvPPPvp6QnaZEp5fjlGHQRqHdl4YNCQ=="
            }
          },
          {
            "validator_address": "E1DBC77881161A5A3A8536A57536EAE546A75D69",
            "validator_index": "80",
            "height": "43639",
            "round": "1",
            "timestamp": "2018-08-02T07:34:06.908558868Z",
            "type": 2,
            "block_id": {
              "hash": "335CAEB519EAF4B2ADD055A0108C7999A23B1498",
              "parts": {
                "total": "1",
                "hash": "3A6ED154CD1E4A0E5F9AC16FF7326BFFD31FB7FB"
              }
            },
            "signature": {
              "type": "tendermint/SignatureEd25519",
              "value": "VCi+A6tiGMMffBaJ0s0R+VdYM2JOx7MBthtX+l4NgrliyxPRkwRdkr4GevUFxU9A/xcnm0wVL+o/cokw4zJpAg=="
            }
          },
          {
            "validator_address": "E300E9D484374C1D3E97C1D93CAC3B160A056298",
            "validator_index": "81",
            "height": "43639",
            "round": "1",
            "timestamp": "2018-08-02T07:34:07.184517186Z",
            "type": 2,
            "block_id": {
              "hash": "335CAEB519EAF4B2ADD055A0108C7999A23B1498",
              "parts": {
                "total": "1",
                "hash": "3A6ED154CD1E4A0E5F9AC16FF7326BFFD31FB7FB"
              }
            },
            "signature": {
              "type": "tendermint/SignatureEd25519",
              "value": "4esUOQkzAIbCQQJm09BjvfIdcBgXAJnClGZWJZUd6E7pZ8SCeZ7OLSIGY15TiAziK6yiRUle7kwt0NQekfJ/Cw=="
            }
          },
          {
            "validator_address": "E39B5778E0D4297A46F45CF6940B0A163A430FF8",
            "validator_index": "82",
            "height": "43639",
            "round": "1",
            "timestamp": "2018-08-02T07:34:06.970801874Z",
            "type": 2,
            "block_id": {
              "hash": "335CAEB519EAF4B2ADD055A0108C7999A23B1498",
              "parts": {
                "total": "1",
                "hash": "3A6ED154CD1E4A0E5F9AC16FF7326BFFD31FB7FB"
              }
            },
            "signature": {
              "type": "tendermint/SignatureEd25519",
              "value": "mhLwbws+j45PZsX8+WvW6JObUQUrm3RBt/RHQMPIVMEtycJjO0/iwW9yGUkWpBNqCxZ73iCqFGKcPCm8xcnYAg=="
            }
          },
          {
            "validator_address": "E3B19738F7132F950668504D326C7660F159D170",
            "validator_index": "83",
            "height": "43639",
            "round": "1",
            "timestamp": "2018-08-02T07:34:06.848086731Z",
            "type": 2,
            "block_id": {
              "hash": "335CAEB519EAF4B2ADD055A0108C7999A23B1498",
              "parts": {
                "total": "1",
                "hash": "3A6ED154CD1E4A0E5F9AC16FF7326BFFD31FB7FB"
              }
            },
            "signature": {
              "type": "tendermint/SignatureEd25519",
              "value": "um3h2/AXAGoPO4UZm2lrmwqusijv9IIofRMW/1/SA/qgQwAx0F5lkozNS+sgg6rPIudg+Cfm8UJd9RYARwIICw=="
            }
          },
          {
            "validator_address": "E42F8AEABB685219F7027F54D2B0DBC7846F633A",
            "validator_index": "84",
            "height": "43639",
            "round": "1",
            "timestamp": "2018-08-02T07:34:06.017955082Z",
            "type": 2,
            "block_id": {
              "hash": "335CAEB519EAF4B2ADD055A0108C7999A23B1498",
              "parts": {
                "total": "1",
                "hash": "3A6ED154CD1E4A0E5F9AC16FF7326BFFD31FB7FB"
              }
            },
            "signature": {
              "type": "tendermint/SignatureEd25519",
              "value": "Oc7WC5FYuO+vEfBvzZFlDtKreIvDaDkYxmq7udmOO35B9uo6xENDpB7k7w2rXTZE0AMxrP/QV9xqtzhusRlNCA=="
            }
          },
          {
            "validator_address": "E4E6C2E81269DFFA196C17F98240E491479A6008",
            "validator_index": "85",
            "height": "43639",
            "round": "1",
            "timestamp": "2018-08-02T07:34:07.009241284Z",
            "type": 2,
            "block_id": {
              "hash": "335CAEB519EAF4B2ADD055A0108C7999A23B1498",
              "parts": {
                "total": "1",
                "hash": "3A6ED154CD1E4A0E5F9AC16FF7326BFFD31FB7FB"
              }
            },
            "signature": {
              "type": "tendermint/SignatureEd25519",
              "value": "T/18lqkJg3M1GrwV4sSWOW7shxkPYGTMYNLFpCMgvnZd8uNtGXiuD2SQjUek5FGgxEcG70C0c+fdP4N4qaBTDw=="
            }
          },
          {
            "validator_address": "E4FEB2846F4F3B0ECDCBE9C9DCB2248248A5AF0F",
            "validator_index": "86",
            "height": "43639",
            "round": "1",
            "timestamp": "2018-08-02T07:34:06.659378058Z",
            "type": 2,
            "block_id": {
              "hash": "335CAEB519EAF4B2ADD055A0108C7999A23B1498",
              "parts": {
                "total": "1",
                "hash": "3A6ED154CD1E4A0E5F9AC16FF7326BFFD31FB7FB"
              }
            },
            "signature": {
              "type": "tendermint/SignatureEd25519",
              "value": "UH2lhhtQXD9W7hEduF6vbixNkg4lQKa19QqPZgA0TCYbxcFgc/UYvciN9BCpk81LgwA1eae3uJ9xEz6NhsE/DQ=="
            }
          },
          {
            "validator_address": "E50ADECD5FD27FA2CD610C07F8AED36A2FC4A6A6",
            "validator_index": "87",
            "height": "43639",
            "round": "1",
            "timestamp": "2018-08-02T07:34:06.915603746Z",
            "type": 2,
            "block_id": {
              "hash": "335CAEB519EAF4B2ADD055A0108C7999A23B1498",
              "parts": {
                "total": "1",
                "hash": "3A6ED154CD1E4A0E5F9AC16FF7326BFFD31FB7FB"
              }
            },
            "signature": {
              "type": "tendermint/SignatureEd25519",
              "value": "gpoCCS3WNdAaJOSoIjGCbBFnyxbo8NpXmll+Jn0pIcmGCeBiqXw0Pfdd0vGXr+2sMj8Q1/bVqdcvzgG6BGx0CA=="
            }
          },
          {
            "validator_address": "E6A7079D584B163750BE0831227F6B685DEAF3C1",
            "validator_index": "88",
            "height": "43639",
            "round": "1",
            "timestamp": "2018-08-02T07:34:06.9980403Z",
            "type": 2,
            "block_id": {
              "hash": "335CAEB519EAF4B2ADD055A0108C7999A23B1498",
              "parts": {
                "total": "1",
                "hash": "3A6ED154CD1E4A0E5F9AC16FF7326BFFD31FB7FB"
              }
            },
            "signature": {
              "type": "tendermint/SignatureEd25519",
              "value": "hvHJ1Bm4VDbIM3gzRi4Iz8yiPix9C89nB010uwN8GDL8mXomroHKsiCeYJyR8O770KYeyj2JYdnnRZg9bdLbDw=="
            }
          },
          {
            "validator_address": "E7A30077D5D11867D3EAF99ED45BFDC1EB834509",
            "validator_index": "89",
            "height": "43639",
            "round": "1",
            "timestamp": "2018-08-02T07:34:06.940205316Z",
            "type": 2,
            "block_id": {
              "hash": "335CAEB519EAF4B2ADD055A0108C7999A23B1498",
              "parts": {
                "total": "1",
                "hash": "3A6ED154CD1E4A0E5F9AC16FF7326BFFD31FB7FB"
              }
            },
            "signature": {
              "type": "tendermint/SignatureEd25519",
              "value": "DtG4ZOJCsO48caAzw1uZ8DL/BaOZTTvXLpIDQEFv/CwibO3ZF1pm3/CbM0vPebrXvFAJvs0ye7HcAz6eXKsHBA=="
            }
          },
          {
            "validator_address": "EBC613967F66F4EC306852CDF58B4F151CF16738",
            "validator_index": "90",
            "height": "43639",
            "round": "1",
            "timestamp": "2018-08-02T07:34:07.000297536Z",
            "type": 2,
            "block_id": {
              "hash": "335CAEB519EAF4B2ADD055A0108C7999A23B1498",
              "parts": {
                "total": "1",
                "hash": "3A6ED154CD1E4A0E5F9AC16FF7326BFFD31FB7FB"
              }
            },
            "signature": {
              "type": "tendermint/SignatureEd25519",
              "value": "WCEvKB6bhfzy2rEahlFqKDCSuEuFXem0NGr31fUld1fyvtW5xTqbEVsNGy1LeIUXgm3cIbcMhxi3t2qBH4Q3DA=="
            }
          },
          {
            "validator_address": "EC3401441726C40ECC7E51F744483B05BC6DE9BD",
            "validator_index": "91",
            "height": "43639",
            "round": "1",
            "timestamp": "2018-08-02T07:34:06.996865922Z",
            "type": 2,
            "block_id": {
              "hash": "335CAEB519EAF4B2ADD055A0108C7999A23B1498",
              "parts": {
                "total": "1",
                "hash": "3A6ED154CD1E4A0E5F9AC16FF7326BFFD31FB7FB"
              }
            },
            "signature": {
              "type": "tendermint/SignatureEd25519",
              "value": "yD2hUhC33GrgI9WrxsKwJyn7pDyfaqbiJa0bMpZSDzUz9mHqDFAK/BT4KHF3KvgypGUHLOfJXk7GH7/MpuTzAg=="
            }
          },
          {
            "validator_address": "EC95B111D032181E1EC3B5E8875C5BB8E4AE7140",
            "validator_index": "92",
            "height": "43639",
            "round": "1",
            "timestamp": "2018-08-02T07:34:06.898421343Z",
            "type": 2,
            "block_id": {
              "hash": "335CAEB519EAF4B2ADD055A0108C7999A23B1498",
              "parts": {
                "total": "1",
                "hash": "3A6ED154CD1E4A0E5F9AC16FF7326BFFD31FB7FB"
              }
            },
            "signature": {
              "type": "tendermint/SignatureEd25519",
              "value": "Z24Om0FnZqF7jThZWpaTgZmowYQR2zMzw5GK+pXNzM/lIiZZ2o1WYTg29lzNZaUM7NqtOjzfhccN2x2uf3emBw=="
            }
          },
          {
            "validator_address": "F13C1805E8131C9B47E2A46818F57D8A2841E578",
            "validator_index": "93",
            "height": "43639",
            "round": "1",
            "timestamp": "2018-08-02T07:34:06.94126191Z",
            "type": 2,
            "block_id": {
              "hash": "335CAEB519EAF4B2ADD055A0108C7999A23B1498",
              "parts": {
                "total": "1",
                "hash": "3A6ED154CD1E4A0E5F9AC16FF7326BFFD31FB7FB"
              }
            },
            "signature": {
              "type": "tendermint/SignatureEd25519",
              "value": "ruWXgKvXec4JcfYZUb525lxcNFjkK70+bZbK/ty2vyZHcowl5zXtHCQOWQxeZL1vMqH6p8SAxjPIwae53we/CQ=="
            }
          },
          {
            "validator_address": "F23FF36BD5B90C33CE3A03ED72DBDCF5EC07D6AF",
            "validator_index": "94",
            "height": "43639",
            "round": "1",
            "timestamp": "2018-08-02T07:34:06.999761473Z",
            "type": 2,
            "block_id": {
              "hash": "335CAEB519EAF4B2ADD055A0108C7999A23B1498",
              "parts": {
                "total": "1",
                "hash": "3A6ED154CD1E4A0E5F9AC16FF7326BFFD31FB7FB"
              }
            },
            "signature": {
              "type": "tendermint/SignatureEd25519",
              "value": "H/JUdgF9KquEMwIIwqyXEIbhk4nf5WAk5HWx14q8/0lhHdlZEHU+bVP30w1ospRg1UF2JTiO4mwuNcdA/RtvDA=="
            }
          },
          {
            "validator_address": "F4268597DE93E3E2CED38845010F8AA34E2A879E",
            "validator_index": "95",
            "height": "43639",
            "round": "1",
            "timestamp": "2018-08-02T07:34:07.252523434Z",
            "type": 2,
            "block_id": {
              "hash": "335CAEB519EAF4B2ADD055A0108C7999A23B1498",
              "parts": {
                "total": "1",
                "hash": "3A6ED154CD1E4A0E5F9AC16FF7326BFFD31FB7FB"
              }
            },
            "signature": {
              "type": "tendermint/SignatureEd25519",
              "value": "96pMq1k2XoWXYjpxSPNfExBv8X2oynWpmq4BtTYFBvQGlzQsdDN2LMPQzZBEg4C/QRI+Gne5dgRdDCX/GPaeBQ=="
            }
          },
          {
            "validator_address": "F4DEB417999B04BE2EFF9FFE03FA373D86011CC0",
            "validator_index": "96",
            "height": "43639",
            "round": "1",
            "timestamp": "2018-08-02T07:34:06.939227348Z",
            "type": 2,
            "block_id": {
              "hash": "335CAEB519EAF4B2ADD055A0108C7999A23B1498",
              "parts": {
                "total": "1",
                "hash": "3A6ED154CD1E4A0E5F9AC16FF7326BFFD31FB7FB"
              }
            },
            "signature": {
              "type": "tendermint/SignatureEd25519",
              "value": "j5Eq2s4fHV6z4rksqap7TDbDHW/jB5zIru2iXnHXeTqr4GiWREzFA6GKBBKj6JgZIA9aR6beTXSfjevzqSV2BQ=="
            }
          },
          {
            "validator_address": "F6738260186D33D9C14FC6E7017AFE6BB952A63D",
            "validator_index": "97",
            "height": "43639",
            "round": "1",
            "timestamp": "2018-08-02T07:34:06.904903387Z",
            "type": 2,
            "block_id": {
              "hash": "335CAEB519EAF4B2ADD055A0108C7999A23B1498",
              "parts": {
                "total": "1",
                "hash": "3A6ED154CD1E4A0E5F9AC16FF7326BFFD31FB7FB"
              }
            },
            "signature": {
              "type": "tendermint/SignatureEd25519",
              "value": "Vm0jbFA//vpSLd81N8gKlB7CNpkx5BBBAuYauBkt7OCBlj6xriKCKFDTuVLePRuIy46RUIwf6p/Pnx8I01mVDw=="
            }
          },
          {
            "validator_address": "FD8D304F0278229077114B05BED9DABD382D49D8",
            "validator_index": "98",
            "height": "43639",
            "round": "1",
            "timestamp": "2018-08-02T07:34:07.047508321Z",
            "type": 2,
            "block_id": {
              "hash": "335CAEB519EAF4B2ADD055A0108C7999A23B1498",
              "parts": {
                "total": "1",
                "hash": "3A6ED154CD1E4A0E5F9AC16FF7326BFFD31FB7FB"
              }
            },
            "signature": {
              "type": "tendermint/SignatureEd25519",
              "value": "+u5WRzFjxZUx7fNJ8VC+eRQXtJLG1DeegDM5UsYPra/8eU3fOj7IFi9xRJZIi2S0UZhn+JKWNnGgsOeTJ2WdCw=="
            }
          },
          {
            "validator_address": "FF3F3FCBCE7E62D7AD5506FF846EC4518D980515",
            "validator_index": "99",
            "height": "43639",
            "round": "1",
            "timestamp": "2018-08-02T07:34:06.870335774Z",
            "type": 2,
            "block_id": {
              "hash": "335CAEB519EAF4B2ADD055A0108C7999A23B1498",
              "parts": {
                "total": "1",
                "hash": "3A6ED154CD1E4A0E5F9AC16FF7326BFFD31FB7FB"
              }
            },
            "signature": {
              "type": "tendermint/SignatureEd25519",
              "value": "bZ6DD7ILgxxxKb1RxjiH2QsH97NP1E+/+dPETNmVVE/m4riAhNEXD2KJAkgK8Sh9ZFpyvKTWprfgvlhTPpRgBg=="
            }
          }
        ]
      }
    },
    "canonical": true
  }
}