{
  "jsonrpc": "2.0",
  "id": "",
  "result": {
    "SignedHeader": {
      "header": {
        "chain_id": "gaia-7004",
        "height": "44641",
        "time": "2018-08-02T09:16:40.472470694Z",
        "num_txs": "0",
        "last_block_id": {
          "hash": "311955EC691964F128BDAFFAD2E2BE8A51EEE1AE",
          "parts": {
            "total": "1",
            "hash": "690845D1D5DE6A1EE364E0F73577C145F1BFCA8A"
          }
        },
        "total_txs": "2079",
        "last_commit_hash": "8309A5A00771FBCCDCF5711F95CC44D585AB9239",
        "data_hash": "",
        "validators_hash": "87F229A3BE37A8F6B6730E363C8839C651E22027",
        "consensus_hash": "D6B74BB35BDFFD8392340F2A379173548AE188FE",
        "app_hash": "6A6DBF5AFDD6A6B92DEB62F238D91F517464C11F",
        "last_results_hash": "",
        "evidence_hash": ""
      },
      "commit": {
        "block_id": {
          "hash": "E2A9A13572AAEC3550EF7D14A521B9442FF6529C",
          "parts": {
            "total": "1",
            "hash": "9CC0AD256E6639CEFF1B9B02005716A582440A0B"
          }
        },
        "precommits": [
          {
            "validator_address": "029359C0C768096273A68ABC902A6B17AC8D1D70",
            "validator_index": "0",
            "height": "44641",
            "round": "0",
            "timestamp": "2018-08-02T09:16:41.266928857Z",
            "type": 2,
            "block_id": {
              "hash": "E2A9A13572AAEC3550EF7D14A521B9442FF6529C",
              "parts": {
                "total": "1",
                "hash": "9CC0AD256E6639CEFF1B9B02005716A582440A0B"
              }
            },
            "signature": {
              "type": "tendermint/SignatureEd25519",
              "value": "SDMoeyM5T8RoO7Pg6XBw0Eb45pUcfn+FRZ6oXTIYLMoPXnPC6fEVYRP5AZQxhwQLDy0+Q0KNO9QjhpVgTNVDBQ=="
            }
          },
          {
            "validator_address": "02FE4B97A8387F39D1AC19E0C1702B3CC614812F",
            "validator_index": "1",
            "height": "44641",
            "round": "0",
            "timestamp": "2018-08-02T09:16:41.249011559Z",
            "type": 2,
            "block_id": {
              "hash": "E2A9A13572AAEC3550EF7D14A521B9442FF6529C",
              "parts": {
                "total": "1",
                "hash": "9CC0AD256E6639CEFF1B9B02005716A582440A0B"
              }
            },
            "signature": {
              "type": "tendermint/SignatureEd25519",
              "value": "L/F5NTec9jyG2bDlXxq3jR/xywl3eJD53LWgqT5rffKnq8tsjcv5k9t+58mCFKucdIo0tT1EslPw0M+t5pThBA=="
            }
          },
          {
            "validator_address": "0548261C50222FD710EB5EBDF03A0E6567B21D20",
            "validator_index": "2",
            "height": "44641",
            "round": "0",
            "timestamp": "2018-08-02T09:16:41.381738018Z",
            "type": 2,
            "block_id": {
              "hash": "E2A9A13572AAEC3550EF7D14A521B9442FF6529C",
              "parts": {
                "total": "1",
                "hash": "9CC0AD256E6639CEFF1B9B02005716A582440A0B"
              }
            },
            "signature": {
              "type": "tendermint/SignatureEd25519",
              "value": "j+McDIadsK1x+rEwjoHnXt1RddFzfMG7asQxW3423BPonYViV72D9T/GUQbEn0UTsVYHFFQx/TnECmDtsXVWAw=="
            }
          },
          {
            "validator_address": "0665ADBF9B120B7617BF955AA5653A1992C82B11",
            "validator_index": "3",
            "height": "44641",
            "round": "0",
            "timestamp": "2018-08-02T09:16:41.25417928Z",
            "type": 2,
            "block_id": {
              "hash": "E2A9A13572AAEC3550EF7D14A521B9442FF6529C",
              "parts": {
                "total": "1",
                "hash": "9CC0AD256E6639CEFF1B9B02005716A582440A0B"
              }
            },
            "signature": {
              "type": "tendermint/SignatureEd25519",
              "value": "/K35MnUMOVhIeWnuEt8v7XKNFLEHO3H5bJkkQeKkzWdsfZ5w3xGFRxXQu+C3EpDjqOI1CMj+FCaGSHE/STTyAQ=="
            }
          },
          {
            "validator_address": "09145E611CC27EEB944FC5A956DDF710F943B9EF",
            "validator_index": "4",
            "height": "44641",
            "round": "0",
            "timestamp": "2018-08-02T09:16:41.33255085Z",
            "type": 2,
            "block_id": {
              "hash": "E2A9A13572AAEC3550EF7D14A521B9442FF6529C",
              "parts": {
                "total": "1",
                "hash": "9CC0AD256E6639CEFF1B9B02005716A582440A0B"
              }
            },
            "signature": {
              "type": "tendermint/SignatureEd25519",
              "value": "TG+OTm/iEjY0SiPgAVvicd1S48nX3jmHLybTKsbjygyYPKIYolCHDPYjqZnVrqF0qWsDTxlo+HJB4aEp9lZjAQ=="
            }
          },
          {
            "validator_address": "0989D0355A104B67AE0AE028C68FB610690E174B",
            "validator_index": "5",
            "height": "44641",
            "round": "0",
            "timestamp": "2018-08-02T09:16:41.29157306Z",
            "type": 2,
            "block_id": {
              "hash": "E2A9A13572AAEC3550EF7D14A521B9442FF6529C",
              "parts": {
                "total": "1",
                "hash": "9CC0AD256E6639CEFF1B9B02005716A582440A0B"
              }
            },
            "signature": {
              "type": "tendermint/SignatureEd25519",
              "value": "6RqO7yOJwBZJjA7m2wRRuyqXc/oFwfCskVd5y4d7kxQREGkFf/konjR09r7wsYJnNt12sBg9TOQWp+BuKqueBg=="
            }
          },
          {
            "validator_address": "0A692DBFFE9E5DD28E7DECC33CED1AEB4C0D014E",
            "validator_index": "6",
            "height": "44641",
            "round": "0",
            "timestamp": "2018-08-02T09:16:41.447483117Z",
            "type": 2,
            "block_id": {
              "hash": "E2A9A13572AAEC3550EF7D14A521B9442FF6529C",
              "parts": {
                "total": "1",
                "hash": "9CC0AD256E6639CEFF1B9B02005716A582440A0B"
              }
            },
            "signature": {
              "type": "tendermint/SignatureEd25519",
              "value": "OKTvgO4CjdvwugjRa6YhjSSiJ/RqPWx9W4QcN62DMIy/DhjN7oJkhmQ7hbzqOe5rmv8OkwYHhAjHMKqgry39Bg=="
            }
          },
          {
            "validator_address": "1751786EFC085D5331C61168FFFC8202EA151B4E",
            "validator_index": "7",
            "height": "44641",
            "round": "0",
            "timestamp": "2018-08-02T09:16:40.971666489Z",
            "type": 2,
            "block_id": {
              "hash": "E2A9A13572AAEC3550EF7D14A521B9442FF6529C",
              "parts": {
                "total": "1",
                "hash": "9CC0AD256E6639CEFF1B9B02005716A582440A0B"
              }
            },
            "signature": {
              "type": "tendermint/SignatureEd25519",
              "value": "L7YHb3WCmEHToQlKLR+iiS7s3zL5L8NIiL7ju1sFxcjcKLaSHPXFZRYz9jF5eaeHxcQZpJYGDFGFnO/ZS91EDg=="
            }
          },
          {
            "validator_address": "17BB5CD01E8940FAFB948A04D5FA5A0645E5822E",
            "validator_index": "8",
            "height": "44641",
            "round": "0",
            "timestamp": "2018-08-02T09:16:41.275540467Z",
            "type": 2,
            "block_id": {
              "hash": "E2A9A13572AAEC3550EF7D14A521B9442FF6529C",
              "parts": {
                "total": "1",
                "hash": "9CC0AD256E6639CEFF1B9B02005716A582440A0B"
              }
            },
            "signature": {
              "type": "tendermint/SignatureEd25519",
              "value": "VvXWqneaOWr+x4bFaDWRKlHAdBN5E5DC49tQI6outgw1Cy5k8zr6gxUq1Nwynz0cBYJuX9hEl4FgbHiWbXImBg=="
            }
          },
          {
            "validator_address": "1C683A87904BC38F05004FE83301A3A3E35447EB",
            "validator_index": "9",
            "height": "44641",
            "round": "0",
            "timestamp": "2018-08-02T09:16:41.314449222Z",
            "type": 2,
            "block_id": {
              "hash": "E2A9A13572AAEC3550EF7D14A521B9442FF6529C",
              "parts": {
                "total": "1",
                "hash": "9CC0AD256E6639CEFF1B9B02005716A582440A0B"
              }
            },
            "signature": {
              "type": "tendermint/SignatureEd25519",
              "value": "RvArJqYiQ7304hgSFgSmbqT2jZfKixYvZyYksCC3EIe/Fhru/gQn9oaW1SzANuKQOqVq4hFKJVyugettYe5eCg=="
            }
          },
          {
            "validator_address": "1E9CE94FD0BA5CFEB901F90BC658D64D85B134D2",
            "validator_index": "10",
            "height": "44641",
            "round": "0",
            "timestamp": "2018-08-02T09:16:41.347182017Z",
            "type": 2,
            "block_id": {
              "hash": "E2A9A13572AAEC3550EF7D14A521B9442FF6529C",
              "parts": {
                "total": "1",
                "hash": "9CC0AD256E6639CEFF1B9B02005716A582440A0B"
              }
            },
            "signature": {
              "type": "tendermint/SignatureEd25519",
              "value": "N6c6xlYuUwe+CDRAMLrcxbeA4VHjLG05gbP81wPvKCUJ3j7Ig/NpYtf3RvpNGGIsOHVag32Mj5dSx1lj8kHxDg=="
            }
          },
          {
            "validator_address": "1ECD8C5FE1341D74CDC633A245DD56858DE2F9A2",
            "validator_index": "11",
            "height": "44641",
            "round": "0",
            "timestamp": "2018-08-02T09:16:41.484625004Z",
            "type": 2,
            "block_id": {
              "hash": "E2A9A13572AAEC3550EF7D14A521B9442FF6529C",
              "parts": {
                "total": "1",
                "hash": "9CC0AD256E6639CEFF1B9B02005716A582440A0B"
              }
            },
            "signature": {
              "type": "tendermint/SignatureEd25519",
              "value": "syB64Ofu/y+HktB5L4B8MpvZGH06Tpz/9AsoFENMaf/RiVbiZQEjX9vDHzYV6rOk4Z4HP2VTIYVwJ+JwroVUDA=="
            }
          },
          {
            "validator_address": "1F3A68CAAD483768AA2BF667DEF10F7104C89928",
            "validator_index": "12",
            "height": "44641",
            "round": "0",
            "timestamp": "2018-08-02T09:16:41.285475818Z",
            "type": 2,
            "block_id": {
              "hash": "E2A9A13572AAEC3550EF7D14A521B9442FF6529C",
              "parts": {
                "total": "1",
                "hash": "9CC0AD256E6639CEFF1B9B02005716A582440A0B"
              }
            },
            "signature": {
              "type": "tendermint/SignatureEd25519",
              "value": "wpWSzEw08LIy4cH6i5Z36sHEFGaRJppOZaFylg3OV/ELzMfIfLtcwcudFkPqrUdwRxGyaJULtn7SarN6VUuEAQ=="
            }
          },
          {
            "validator_address": "1F61153F26C2DF27E15874268D30326287323352",
            "validator_index": "13",
            "height": "44641",
            "round": "0",
            "timestamp": "2018-08-02T09:16:41.408059165Z",
            "type": 2,
            "block_id": {
              "hash": "E2A9A13572AAEC3550EF7D14A521B9442FF6529C",
              "parts": {
                "total": "1",
                "hash": "9CC0AD256E6639CEFF1B9B02005716A582440A0B"
              }
            },
            "signature": {
              "type": "tendermint/SignatureEd25519",
              "value": "M1Vl2Vz5ivi/hnGKvB3kPX7Ix2fOCDlwu6S5r2RlYYDCzyGi9ur2CURUzlB7YSg7tAVu3vKSbFXnP8LCYN1CCQ=="
            }
          },
          {
            "validator_address": "23897586D68E2AC1C78E0EF5BB5DF5C8EAB18F50",
            "validator_index": "14",
            "height": "44641",
            "round": "0",
            "timestamp": "2018-08-02T09:16:41.314715408Z",
            "type": 2,
            "block_id": {
              "hash": "E2A9A13572AAEC3550EF7D14A521B9442FF6529C",
              "parts": {
                "total": "1",
                "hash": "9CC0AD256E6639CEFF1B9B02005716A582440A0B"
              }
            },
            "signature": {
              "type": "tendermint/SignatureEd25519",
              "value": "XdGb1NQ2PgHb68YidY/a9NZB55nhcTfRG7ZmZVjGi+W1MSv828TkfsmpIYW5SaW2JTC9oIZ29FiqhG++cSvxCA=="
            }
          },
          {
            "validator_address": "28770D17E8530825E7310A0659308654B7EC9682",
            "validator_index": "15",
            "height": "44641",
            "round": "0",
            "timestamp": "2018-08-02T09:16:41.251660181Z",
            "type": 2,
            "block_id": {
              "hash": "E2A9A13572AAEC3550EF7D14A521B9442FF6529C",
              "parts": {
                "total": "1",
                "hash": "9CC0AD256E6639CEFF1B9B02005716A582440A0B"
              }
            },
            "signature": {
              "type": "tendermint/SignatureEd25519",
              "value": "1eqMHMTU+ee/kZM6yerEwW2iAQG/q6qZ05kcQN0G7V8Q7lbkyJq+OWEhmFi9KhBpTxaWDruIOsfZ2MU076CeBw=="
            }
          },
          {
            "validator_address": "2A92EC3C642140202298D0E245095E0ECFC25228",
            "validator_index": "16",
            "height": "44641",
            "round": "0",
            "timestamp": "2018-08-02T09:16:41.343977766Z",
            "type": 2,
            "block_id": {
              "hash": "E2A9A13572AAEC3550EF7D14A521B9442FF6529C",
              "parts": {
                "total": "1",
                "hash": "9CC0AD256E6639CEFF1B9B02005716A582440A0B"
              }
            },
            "signature": {
              "type": "tendermint/SignatureEd25519",
              "value": "j8PSg+Ne+QCSe/vYjVbf+qk/Fya3y+5hClDJTj0wAbsOFynedG7g3v1dd5dusrHZw7OOTbE/BMSwPSYfxeQtDQ=="
            }
          },
          {
            "validator_address": "33412C9A69C60CB0FAA24A5C5B3A906DE24B47C2",
            "validator_index": "17",
            "height": "44641",
            "round": "0",
            "timestamp": "2018-08-02T09:16:41.305298675Z",
            "type": 2,
            "block_id": {
              "hash": "E2A9A13572AAEC3550EF7D14A521B9442FF6529C",
              "parts": {
                "total": "1",
                "hash": "9CC0AD256E6639CEFF1B9B02005716A582440A0B"
              }
            },
            "signature": {
              "type": "tendermint/SignatureEd25519",
              "value": "fJe+wTujB48bflYvsiaHs4JHd3qzKrUk/sU+1QPQXRQ0K2kj8EL3U+d67c1r62mEjgARCUJgh6PJ/2wXm5/eAQ=="
            }
          },
          {
            "validator_address": "36E9B7FAEC964F97D84C028ED62493E373AD0B38",
            "validator_index": "18",
            "height": "44641",
            "round": "0",
            "timestamp": "2018-08-02T09:16:41.355025342Z",
            "type": 2,
            "block_id": {
              "hash": "E2A9A13572AAEC3550EF7D14A521B9442FF6529C",
              "parts": {
                "total": "1",
                "hash": "9CC0AD256E6639CEFF1B9B02005716A582440A0B"
              }
            },
            "signature": {
              "type": "tendermint/SignatureEd25519",
              "value": "PF2N8JS7aoFHtp32j7yZXgf6FCK7leTfqTCW4xDgxCzWhC2YgAcMUMB1KEY8f9E4iM3KeJWiylmJ8fITRfaIBw=="
            }
          },
          {
            "validator_address": "38A8D85D36BEA2E5FCF8A1E778F53628E450EF13",
            "validator_index": "19",
            "height": "44641",
            "round": "0",
            "timestamp": "2018-08-02T09:16:41.410060514Z",
            "type": 2,
            "block_id": {
              "hash": "E2A9A13572AAEC3550EF7D14A521B9442FF6529C",
              "parts": {
                "total": "1",
                "hash": "9CC0AD256E6639CEFF1B9B02005716A582440A0B"
              }
            },
            "signature": {
              "type": "tendermint/SignatureEd25519",
              "value": "/3ZpU84n3wI6tryphOkC5d8U/ySzlEXMxm/HLbpLBBgsKQnbZ4tvokxRXhAC1iinJvy7vYgiUdDDIT8iuAtDBQ=="
            }
          },
          {
            "validator_address": "39DFDA0C5DB84B269642188B23253508537798E6",
            "validator_index": "20",
            "height": "44641",
            "round": "0",
            "timestamp": "2018-08-02T09:16:41.280714274Z",
            "type": 2,
            "block_id": {
              "hash": "E2A9A13572AAEC3550EF7D14A521B9442FF6529C",
              "parts": {
                "total": "1",
                "hash": "9CC0AD256E6639CEFF1B9B02005716A582440A0B"
              }
            },
            "signature": {
              "type": "tendermint/SignatureEd25519",
              "value": "nN8lWl4UQx0Uj/+ssKDOQ8nJ9lzVKS/s1rMyPe9WHNrEDH2Q2QGumNT5Mo84whHIg1pXyq/RFMqChwybV5vNBA=="
            }
          },
          {
            "validator_address": "3AC99B708404452366E0953A4BE849226DC86CBC",
            "validator_index": "21",
            "height": "44641",
            "round": "0",
            "timestamp": "2018-08-02T09:16:41.382195671Z",
            "type": 2,
            "block_id": {
              "hash": "E2A9A13572AAEC3550EF7D14A521B9442FF6529C",
              "parts": {
                "total": "1",
                "hash": "9CC0AD256E6639CEFF1B9B02005716A582440A0B"
              }
            },
            "signature": {
              "type": "tendermint/SignatureEd25519",
              "value": "yR4CVKwjfWrIl2DWsSagAEg7cWzimtWQfPJgVXPS9O0fRLXVKSg0Jst2TBcyTB3lAGWrdVZ5hFV9i7UwB/pNDQ=="
            }
          },
          {
            "validator_address": "3DCB822A10ED319EC7C4393D8E3FD4A41B15AAF2",
            "validator_index": "22",
            "height": "44641",
            "round": "0",
            "timestamp": "2018-08-02T09:16:41.285147578Z",
            "type": 2,
            "block_id": {
              "hash": "E2A9A13572AAEC3550EF7D14A521B9442FF6529C",
              "parts": {
                "total": "1",
                "hash": "9CC0AD256E6639CEFF1B9B02005716A582440A0B"
              }
            },
            "signature": {
              "type": "tendermint/SignatureEd25519",
              "value": "5+TVSxYwbRsCKuVPaU4A/NCk6FWWZAo3g03stkFqHOEtjSB6dqnM1TyZNsnUn710mZsvLgrLwXL5vkBwsQBiDA=="
            }
          },
          {
            "validator_address": "3E899BA36A93C7370347BD5FE85909F2ECD93F8C",
            "validator_index": "23",
            "height": "44641",
            "round": "0",
            "timestamp": "2018-08-02T09:16:41.317826946Z",
            "type": 2,
            "block_id": {
              "hash": "E2A9A13572AAEC3550EF7D14A521B9442FF6529C",
              "parts": {
                "total": "1",
                "hash": "9CC0AD256E6639CEFF1B9B02005716A582440A0B"
              }
            },
            "signature": {
              "type": "tendermint/SignatureEd25519",
              "value": "AfSnGcGCB2HHa9wkZkaU7ZqJrpD8xwCbLz+WhcWxLAz90q1TA6B7wSgB7RuDicPTVQLrI21lAjTpG2mXL5T1CQ=="
            }
          },
          {
            "validator_address": "41CAB2E29E7D0F2282E3275938F188FF9386B84C",
            "validator_index": "24",
            "height": "44641",
            "round": "0",
            "timestamp": "2018-08-02T09:16:41.310968952Z",
            "type": 2,
            "block_id": {
              "hash": "E2A9A13572AAEC3550EF7D14A521B9442FF6529C",
              "parts": {
                "total": "1",
                "hash": "9CC0AD256E6639CEFF1B9B02005716A582440A0B"
              }
            },
            "signature": {
              "type": "tendermint/SignatureEd25519",
              "value": "cCY/iKpuSmMAfBXfYk0skzZCPulnWVN+2bWBMZ7suxWGIeRa+a7ll0QR0b63NAoqu13YP1N+BAlhKBdl4GubBQ=="
            }
          },
          {
            "validator_address": "462B656869DB02A8FD1077E255F8CC7401DC37C6",
            "validator_index": "25",
            "height": "44641",
            "round": "0",
            "timestamp": "2018-08-02T09:16:41.257699112Z",
            "type": 2,
            "block_id": {
              "hash": "E2A9A13572AAEC3550EF7D14A521B9442FF6529C",
              "parts": {
                "total": "1",
                "hash": "9CC0AD256E6639CEFF1B9B02005716A582440A0B"
              }
            },
            "signature": {
              "type": "tendermint/SignatureEd25519",
              "value": "QtaKrXyCwu4EMnzDqhSC7OcXigUahVHDen+Xwjmr4lyGaAc+V4SxKC+Cn0fmMARFTnF3CT76RrkrxYo0GI3jDQ=="
            }
          },
          {
            "validator_address": "48E5118163E5442068A1B5A42D2EEDBB75724935",
            "validator_index": "26",
            "height": "44641",
            "round": "0",
            "timestamp": "2018-08-02T09:16:41.479562789Z",
            "type": 2,
            "block_id": {
              "hash": "E2A9A13572AAEC3550EF7D14A521B9442FF6529C",
              "parts": {
                "total": "1",
                "hash": "9CC0AD256E6639CEFF1B9B02005716A582440A0B"
              }
            },
            "signature": {
              "type": "tendermint/SignatureEd25519",
              "value": "sfCeRqWcpZXMElHYEv8BnR3lxcPm/aYJQUKy0Cu7rxqFd+q2kPBHC/kQRXT3gRMPYZfStBB1L528rSnTnbzOBg=="
            }
          },
          {
            "validator_address": "49103C58AFD9C7C069F55EBA218F3DFD9AEA74F9",
            "validator_index": "27",
            "height": "44641",
            "round": "0",
            "timestamp": "2018-08-02T09:16:41.306666139Z",
            "type": 2,
            "block_id": {
              "hash": "E2A9A13572AAEC3550EF7D14A521B9442FF6529C",
              "parts": {
                "total": "1",
                "hash": "9CC0AD256E6639CEFF1B9B02005716A582440A0B"
              }
            },
            "signature": {
              "type": "tendermint/SignatureEd25519",
              "value": "mwQQMH/cVZfnJ5NCemlV1oUgeWF366yTTRGA0Qj59Z20CJub3iwlAO0O62J8BJpNmZqw+xwJsiX9mQwKTzXkAA=="
            }
          },
          {
            "validator_address": "4944F8BBBB5303E17BC0607DF332320EDBC750EA",
            "validator_index": "28",
            "height": "44641",
            "round": "0",
            "timestamp": "2018-08-02T09:16:41.286095606Z",
            "type": 2,
            "block_id": {
              "hash": "E2A9A13572AAEC3550EF7D14A521B9442FF6529C",
              "parts": {
                "total": "1",
                "hash": "9CC0AD256E6639CEFF1B9B02005716A582440A0B"
              }
            },
            "signature": {
              "type": "tendermint/SignatureEd25519",
              "value": "eCKvEp1wlTEw+9Sw0mBa3VEDKR8rUZ+7xgXGTlAvVk4HGd7v8kGavIKv8mIrWwnw4UMumUj0BOwkeZImNHi+Bg=="
            }
          },
          {
            "validator_address": "49841599DE675157CBE1E7D6B35BF8FFC23BD5CB",
            "validator_index": "29",
            "height": "44641",
            "round": "0",
            "timestamp": "2018-08-02T09:16:41.283312199Z",
            "type": 2,
            "block_id": {
              "hash": "E2A9A13572AAEC3550EF7D14A521B9442FF6529C",
              "parts": {
                "total": "1",
                "hash": "9CC0AD256E6639CEFF1B9B02005716A582440A0B"
              }
            },
            "signature": {
              "type": "tendermint/SignatureEd25519",
              "value": "lND5NrsNwXCAWSeYQvhGnb0zJcDTY5EKbOrUY3gk78273ZUOqi3+PiJOGDP88PILe/Md3+r2bSqK60w0KVnmAw=="
            }
          },
          {
            "validator_address": "51386C2CF9556821D114D7E4945806802BADB28D",
            "validator_index": "30",
            "height": "44641",
            "round": "0",
            "timestamp": "2018-08-02T09:16:41.34869795Z",
            "type": 2,
            "block_id": {
              "hash": "E2A9A13572AAEC3550EF7D14A521B9442FF6529C",
              "parts": {
                "total": "1",
                "hash": "9CC0AD256E6639CEFF1B9B02005716A582440A0B"
              }
            },
            "signature": {
              "type": "tendermint/SignatureEd25519",
              "value": "9/xtOxesTTUXzS6HnmotqUmz/FBef+wc7XykR/xRYDezCJNQ/JbKj5QPnQOYfGBLcoU4c4Qz8CfSZQn3aJIJBQ=="
            }
          },
          {
            "validator_address": "543564ECA3AFEFADC73EE8591AAC3A96F079BC8A",
            "validator_index": "31",
            "height": "44641",
            "round": "0",
            "timestamp": "2018-08-02T09:16:41.337654746Z",
            "type": 2,
            "block_id": {
              "hash": "E2A9A13572AAEC3550EF7D14A521B9442FF6529C",
              "parts": {
                "total": "1",
                "hash": "9CC0AD256E6639CEFF1B9B02005716A582440A0B"
              }
            },
            "signature": {
              "type": "tendermint/SignatureEd25519",
              "value": "9AHgNmQhCTnXRxC28eQeu7Ld1PPtaIVFeVsxRLe/28PhiD6MhkD6wCXOnh8s8CaDDyj058mW9EY8l7vjp5hpDg=="
            }
          },
          {
            "validator_address": "55D67B1A6DC13E96F8754A5A42EABC20F7F86664",
            "validator_index": "32",
            "height": "44641",
            "round": "0",
            "timestamp": "2018-08-02T09:16:41.26494103Z",
            "type": 2,
            "block_id": {
              "hash": "E2A9A13572AAEC3550EF7D14A521B9442FF6529C",
              "parts": {
                "total": "1",
                "hash": "9CC0AD256E6639CEFF1B9B02005716A582440A0B"
              }
            },
            "signature": {
              "type": "tendermint/SignatureEd25519",
              "value": "BjylvlkfpQikZMiiv1kbfl8mvXJYjrD6EG6X0R6Ei1BdEeY/UV/6xUfFjC0+xTe423Zc1HwgUJvx3FwVdeZCCw=="
            }
          },
          {
            "validator_address": "570B6A755ED339EAC56BB3390A48069F6AC9449B",
            "validator_index": "33",
            "height": "44641",
            "round": "0",
            "timestamp": "2018-08-02T09:16:50.600620224Z",
            "type": 2,
            "block_id": {
              "hash": "E2A9A13572AAEC3550EF7D14A521B9442FF6529C",
              "parts": {
                "total": "1",
                "hash": "9CC0AD256E6639CEFF1B9B02005716A582440A0B"
              }
            },
            "signature": {
              "type": "tendermint/SignatureEd25519",
              "value": "HOA06Q22x3O9UlFGoDVHlXH64lMUaHvzrAUl0hy4qB5mtsGcBU1Jr/9I8YxKyEzG/rU8NSeouoM4hAKmQe+UAA=="
            }
          },
          {
            "validator_address": "5BDF8EA41B1835FBAD865B181A2A4B23F511B5E4",
            "validator_index": "34",
            "height": "44641",
            "round": "0",
            "timestamp": "2018-08-02T09:16:41.277077124Z",
            "type": 2,
            "block_id": {
              "hash": "E2A9A13572AAEC3550EF7D14A521B9442FF6529C",
              "parts": {
                "total": "1",
                "hash": "9CC0AD256E6639CEFF1B9B02005716A582440A0B"
              }
            },
            "signature": {
              "type": "tendermint/SignatureEd25519",
              "value": "S9cPzPx6Zo9nIN6WvwlAT8Mr9MD0VBhvSg+jMcXxOR/dvZpKlv3LhyKqHIg6Y1Nu447bIA4dRbttzs8wYGp9Ag=="
            }
          },
          {
            "validator_address": "60229E2E273297FE00219E46DFFB8F76844CDEF9",
            "validator_index": "35",
            "height": "44641",
            "round": "0",
            "timestamp": "2018-08-02T09:16:38.731297821Z",
            "type": 2,
            "block_id": {
              "hash": "E2A9A13572AAEC3550EF7D14A521B9442FF6529C",
              "parts": {
                "total": "1",
                "hash": "9CC0AD256E6639CEFF1B9B02005716A582440A0B"
              }
            },
            "signature": {
              "type": "tendermint/SignatureEd25519",
              "value": "agkFfNe3XUX8BHt5h42TDoZPRR+6J/8LhwBBaD8NeCiGqS3/zg1TLvo5zPgAfqhd2/34kdy9Sc+KklCsOJy1AA=="
            }
          },
          {
            "validator_address": "62410D6D1CD98278136E4D0738AA0EA273CDFC54",
            "validator_index": "36",
            "height": "44641",
            "round": "0",
            "timestamp": "2018-08-02T09:16:41.269806972Z",
            "type": 2,
            "block_id": {
              "hash": "E2A9A13572AAEC3550EF7D14A521B9442FF6529C",
              "parts": {
                "total": "1",
                "hash": "9CC0AD256E6639CEFF1B9B02005716A582440A0B"
              }
            },
            "signature": {
              "type": "tendermint/SignatureEd25519",
              "value": "7EZCDw+8UndzV2jKUXUE6VHhPtTNghhFox9xA4XSOW5EUa0jKDVigvMCBNBjOMrEZ9uYfL8GklA8cdoOepMeBw=="
            }
          },
          {
            "validator_address": "632F5C139A5A9DFBFE5111DEE29FCFB6157207DC",
            "validator_index": "37",
            "height": "44641",
            "round": "0",
            "timestamp": "2018-08-02T09:16:41.324256489Z",
            "type": 2,
            "block_id": {
              "hash": "E2A9A13572AAEC3550EF7D14A521B9442FF6529C",
              "parts": {
                "total": "1",
                "hash": "9CC0AD256E6639CEFF1B9B02005716A582440A0B"
              }
            },
            "signature": {
              "type": "tendermint/SignatureEd25519",
              "value": "3JM8fOjcOphLcL8jA+sVpZ/VsNdyHaxrJLV3swvZKFY5GuuwcY9BYFMl8jZlRejCn5n8ZGR6454xYfP3Iag6Dw=="
            }
          },
          {
            "validator_address": "64F57F8E796A9B7B590C1EFA4123988C86631D39",
            "validator_index": "38",
            "height": "44641",
            "round": "0",
            "timestamp": "2018-08-02T09:16:41.284719972Z",
            "type": 2,
            "block_id": {
              "hash": "E2A9A13572AAEC3550EF7D14A521B9442FF6529C",
              "parts": {
                "total": "1",
                "hash": "9CC0AD256E6639CEFF1B9B02005716A582440A0B"
              }
            },
            "signature": {
              "type": "tendermint/SignatureEd25519",
              "value": "gwr8lIVENnkdadCUr8C6LVPQE0xzDdXcKKW1G0yOf4l6TwgQVDAc2H7nPb4+qypvkOWRCoXsFmrmdbFq08vaAg=="
            }
          },
          {
            "validator_address": "69D99B2C66043ACBEAA8447525C356AFC6408E0C",
            "validator_index": "39",
            "height": "44641",
            "round": "0",
            "timestamp": "2018-08-02T09:16:41.465125722Z",
            "type": 2,
            "block_id": {
              "hash": "E2A9A13572AAEC3550EF7D14A521B9442FF6529C",
              "parts": {
                "total": "1",
                "hash": "9CC0AD256E6639CEFF1B9B02005716A582440A0B"
              }
            },
            "signature": {
              "type": "tendermint/SignatureEd25519",
              "value": "uacUK63AhD9gDeFU2tBwkCAD4Nr2bM6xQ80SxCfl7oy2/05CBKW2vZB9HPQ874mAtGs6AISnrXCy9fqkX5cQAA=="
            }
          },
          {
            "validator_address": "69EDADFA4A803E9DBF548C900D4A465E7D154262",
            "validator_index": "40",
            "height": "44641",
            "round": "0",
            "timestamp": "2018-08-02T09:16:41.486510225Z",
            "type": 2,
            "block_id": {
              "hash": "E2A9A13572AAEC3550EF7D14A521B9442FF6529C",
              "parts": {
                "total": "1",
                "hash": "9CC0AD256E6639CEFF1B9B02005716A582440A0B"
              }
            },
            "signature": {
              "type": "tendermint/SignatureEd25519",
              "value": "uCF8yKqDaOpe4jXtUMnIt+DfVOh8PG16oLPj+S9jZx4t1oPnZFSYxJM0yYtJHRREUxqkpoeUhnzxLbdbi5s/AA=="
            }
          },
          {
            "validator_address": "6D3AD380E398D8592B03AA124BAFED5F125DF863",
            "validator_index": "41",
            "height": "44641",
            "round": "0",
            "timestamp": "2018-08-02T09:15:38.750820435Z",
            "type": 2,
            "block_id": {
              "hash": "E2A9A13572AAEC3550EF7D14A521B9442FF6529C",
              "parts": {
                "total": "1",
                "hash": "9CC0AD256E6639CEFF1B9B02005716A582440A0B"
              }
            },
            "signature": {
              "type": "tendermint/SignatureEd25519",
              "value": "rwQgg4IL0XBfZoONftEhDQ+f+qTUEt2v8PGmjKtncpTVLB7eedCTEPtZzAuJ7QyaOsVmvL419b0yvvIODA9wDQ=="
            }
          },
          {
            "validator_address": "6F6C93B8BF3495063FEC9B5C771158607F4AE9D6",
            "validator_index": "42",
            "height": "44641",
            "round": "0",
            "timestamp": "2018-08-02T09:16:41.535850457Z",
            "type": 2,
            "block_id": {
              "hash": "E2A9A13572AAEC3550EF7D14A521B9442FF6529C",
              "parts": {
                "total": "1",
                "hash": "9CC0AD256E6639CEFF1B9B02005716A582440A0B"
              }
            },
            "signature": {
              "type": "tendermint/SignatureEd25519",
              "value": "/Usav1l9OpaHa0q5TMUIHdRnnMQwm4HmpFi9HZ11zuA/l0NFo3ILrFih0+0BXotniLYiHB/vO+h2iOHdYVrUDw=="
            }
          },
          {
            "validator_address": "732CEEF54C374DDC6ADECBFD707AEFD07FEDC143",
            "validator_index": "43",
            "height": "44641",
            "round": "0",
            "timestamp": "2018-08-02T09:16:41.37643061Z",
            "type": 2,
            "block_id": {
              "hash": "E2A9A13572AAEC3550EF7D14A521B9442FF6529C",
              "parts": {
                "total": "1",
                "hash": "9CC0AD256E6639CEFF1B9B02005716A582440A0B"
              }
            },
            "signature": {
              "type": "tendermint/SignatureEd25519",
              "value": "5rG49zD059EvFf/dmYe+CuDrthtWrADLS4yYEIWUe48SYzDi2Yya09WZc1mp4FNf5EslA4uQTcvq9PbrNFN5DQ=="
            }
          },
          {
            "validator_address": "751E43437224E8BB6D1569B3E2B2616B6E7F4397",
            "validator_index": "44",
            "height": "44641",
            "round": "0",
            "timestamp": "2018-08-02T09:16:41.325431406Z",
            "type": 2,
            "block_id": {
              "hash": "E2A9A13572AAEC3550EF7D14A521B9442FF6529C",
              "parts": {
                "total": "1",
                "hash": "9CC0AD256E6639CEFF1B9B02005716A582440A0B"
              }
            },
            "signature": {
              "type": "tendermint/SignatureEd25519",
              "value": "FQGF7sNJC2lZIUs7eZR1ersVzjtBWFpL2vfvtGBZTNEqrfLIZy26xE/JgdB/36f+gFjaoCCt0Dh2Hpifg6upAg=="
            }
          },
          null,
          {
            "validator_address": "8356899C8853BC6640D76F76E59743FFEEA57B81",
            "validator_index": "46",
            "height": "44641",
            "round": "0",
            "timestamp": "2018-08-02T09:16:41.313890742Z",
            "type": 2,
            "block_id": {
              "hash": "E2A9A13572AAEC3550EF7D14A521B9442FF6529C",
              "parts": {
                "total": "1",
                "hash": "9CC0AD256E6639CEFF1B9B02005716A582440A0B"
              }
            },
            "signature": {
              "type": "tendermint/SignatureEd25519",
              "value": "yzq/el7LOYXG07MLHhfyW9K+Zrd0hcnKbtp4b3XVb0/+M3ABq5JHGwM1wchC1VK8yMnR4x/SLT90Z+XXszOaBQ=="
            }
          },
          {
            "validator_address": "83AB321E012C57746689FED3A6064DF331F81007",
            "validator_index": "47",
            "height": "44641",
            "round": "0",
            "timestamp": "2018-08-02T09:16:41.318123282Z",
            "type": 2,
            "block_id": {
              "hash": "E2A9A13572AAEC3550EF7D14A521B9442FF6529C",
              "parts": {
                "total": "1",
                "hash": "9CC0AD256E6639CEFF1B9B02005716A582440A0B"
              }
            },
            "signature": {
              "type": "tendermint/SignatureEd25519",
              "value": "qZ8syvnCTzPYbTlRyRQcobBwwNlTMmWPw9TOJWcBLPMo/KKRicAKpKTxCWFWdUXkLjvq3Oefp4hjplllw3jiBg=="
            }
          },
          {
            "validator_address": "83BB1B88D3DBB20AD845FECA07749EBD87D3754D",
            "validator_index": "48",
            "height": "44641",
            "round": "0",
            "timestamp": "2018-08-02T09:16:41.450738606Z",
            "type": 2,
            "block_id": {
              "hash": "E2A9A13572AAEC3550EF7D14A521B9442FF6529C",
              "parts": {
                "total": "1",
                "hash": "9CC0AD256E6639CEFF1B9B02005716A582440A0B"
              }
            },
            "signature": {
              "type": "tendermint/SignatureEd25519",
              "value": "MqPDB6j3W6Y5Su9hn4tAJWVJSRj6lDmfr9kLXYUSUEet/WolV0dV+0Ovbm97o8oGj6KOYbVEcDbuoaLQiLe0DA=="
            }
          },
          {
            "validator_address": "8F06FE1FD042683C426137FBC4BBAA4288924217",
            "validator_index": "49",
            "height": "44641",
            "round": "0",
            "timestamp": "2018-08-02T09:16:41.356571649Z",
            "type": 2,
            "block_id": {
              "hash": "E2A9A13572AAEC3550EF7D14A521B9442FF6529C",
              "parts": {
                "total": "1",
                "hash": "9CC0AD256E6639CEFF1B9B02005716A582440A0B"
              }
            },
            "signature": {
              "type": "tendermint/SignatureEd25519",
              "value": "eyQEhABuYW8/mUGLX4Rt0I3T7dyst3WefEbmbAmzwJ8edFtwKyDeKyr5VlKrwENV+orxqi6tb4qaIOkow6nCCQ=="
            }
          },
          null,
          {
            "validator_address": "95980831E186F2540F6E9FB6C8E74DE2401405AC",
            "validator_index": "51",
            "height": "44641",
            "round": "0",
            "timestamp": "2018-08-02T09:16:41.349107817Z",
            "type": 2,
            "block_id": {
              "hash": "E2A9A13572AAEC3550EF7D14A521B9442FF6529C",
              "parts": {
                "total": "1",
                "hash": "9CC0AD256E6639CEFF1B9B02005716A582440A0B"
              }
            },
            "signature": {
              "type": "tendermint/SignatureEd25519",
              "value": "JG0eJOqlvtg1nywbwXX90wTNr8P2CpmZgDpeXVjBiERo3gmJXh84VhHydEm5V2JZ0VuP62rKK1zh4N3JKi2PBA=="
            }
          },
          {
            "validator_address": "95FAFBC1E0579C83D290A063020CE87C5334BD9B",
            "validator_index": "52",
            "height": "44641",
            "round": "0",
            "timestamp": "2018-08-02T09:16:41.291112693Z",
            "type": 2,
            "block_id": {
              "hash": "E2A9A13572AAEC3550EF7D14A521B9442FF6529C",
              "parts": {
                "total": "1",
                "hash": "9CC0AD256E6639CEFF1B9B02005716A582440A0B"
              }
            },
            "signature": {
              "type": "tendermint/SignatureEd25519",
              "value": "K2wh0tgVjWnetnGCZpv5NWzWeyTREJJhIGkfTTEIWxce2My9JqxqyfzGONl4iEuAq0oyLJnmOtX9yu7vNMOfDQ=="
            }
          },
          {
            "validator_address": "96BDE45EC52606CF5CB59853097871AD60680549",
            "validator_index": "53",
            "height": "44641",
            "round": "0",
            "timestamp": "2018-08-02T09:16:41.276779729Z",
            "type": 2,
            "block_id": {
              "hash": "E2A9A13572AAEC3550EF7D14A521B9442FF6529C",
              "parts": {
                "total": "1",
                "hash": "9CC0AD256E6639CEFF1B9B02005716A582440A0B"
              }
            },
            "signature": {
              "type": "tendermint/SignatureEd25519",
              "value": "CFiFqXDRRLlwvnPR1QVRN1vMUz1gXjoPW4Hx8XspgXbtPDTfHs+tXiTLf11PJHsqYxiI3KDTVeM/AJI1gbzpAQ=="
            }
          },
          {
            "validator_address": "970CD321881185BF83DB2923C321B0E75FDBB2B8",
            "validator_index": "54",
            "height": "44641",
            "round": "0",
            "timestamp": "2018-08-02T09:16:41.332736854Z",
            "type": 2,
            "block_id": {
              "hash": "E2A9A13572AAEC3550EF7D14A521B9442FF6529C",
              "parts": {
                "total": "1",
                "hash": "9CC0AD256E6639CEFF1B9B02005716A582440A0B"
              }
            },
            "signature": {
              "type": "tendermint/SignatureEd25519",
              "value": "tKLDSYLBBAr54V9G6f21oziacNbrKXpZVkP+hEPdp5nWMkx9TI3Z//j/B906QiIY4nMKBv/72Vct8+jPzpB/Dw=="
            }
          },
          {
            "validator_address": "97DBB3D4B3D6C29287244864448F651DD5B07390",
            "validator_index": "55",
            "height": "44641",
            "round": "0",
            "timestamp": "2018-08-02T09:16:41.341548843Z",
            "type": 2,
            "block_id": {
              "hash": "E2A9A13572AAEC3550EF7D14A521B9442FF6529C",
              "parts": {
                "total": "1",
                "hash": "9CC0AD256E6639CEFF1B9B02005716A582440A0B"
              }
            },
            "signature": {
              "type": "tendermint/SignatureEd25519",
              "value": "wSUGxn0dqYcw2NT46caY6if/6aybgEWBW7q6ko26mljqHEh/vVI4997IIzdniDcGPUQwnTEqWUa6zviTRVy1CQ=="
            }
          },
          {
            "validator_address": "9C29C9B76D27586E4D9AD2AED0E943162645E55C",
            "validator_index": "56",
            "height": "44641",
            "round": "0",
            "timestamp": "2018-08-02T09:16:41.248170963Z",
            "type": 2,
            "block_id": {
              "hash": "E2A9A13572AAEC3550EF7D14A521B9442FF6529C",
              "parts": {
                "total": "1",
                "hash": "9CC0AD256E6639CEFF1B9B02005716A582440A0B"
              }
            },
            "signature": {
              "type": "tendermint/SignatureEd25519",
              "value": "hR61rOZ5OL+1+Ox5IUyki5Uv7UCETich8w3nfXBsLgwsF5+LdZ3VBSlyJuriXdB4JBcipUbRNaBMl8JpkEkBCg=="
            }
          },
          {
            "validator_address": "9D93AD02FE1BD7E76B9E58D7EB461088EAD011E5",
            "validator_index": "57",
            "height": "44641",
            "round": "0",
            "timestamp": "2018-08-02T09:16:41.294434319Z",
            "type": 2,
            "block_id": {
              "hash": "E2A9A13572AAEC3550EF7D14A521B9442FF6529C",
              "parts": {
                "total": "1",
                "hash": "9CC0AD256E6639CEFF1B9B02005716A582440A0B"
              }
            },
            "signature": {
              "type": "tendermint/SignatureEd25519",
              "value": "H2l6RGDrcOX8hS0k1C0vPdwdjk5GWicT4ZRNezoCgD5NIXUe/ma88ihHbgdnAbDYhQYOwEQKMosrEFG7D0dnDw=="
            }
          },
          {
            "validator_address": "A0A6466F4ABEA09C3B55E3709AFDE217A103209F",
            "validator_index": "58",
            "height": "44641",
            "round": "0",
            "timestamp": "2018-08-02T09:16:41.309431624Z",
            "type": 2,
            "block_id": {
              "hash": "E2A9A13572AAEC3550EF7D14A521B9442FF6529C",
              "parts": {
                "total": "1",
                "hash": "9CC0AD256E6639CEFF1B9B02005716A582440A0B"
              }
            },
            "signature": {
              "type": "tendermint/SignatureEd25519",
              "value": "NP0l3Nv5Wbc0Qxf+taF6Iol/U0d14QwMjhGyDQfZCmAFj3wGMVxcjqGG7m3WCpS5OeaZZ+EbrTwNH2WXiA8ECw=="
            }
          },
          {
            "validator_address": "A5868971300F155020634D7BB49C7634F7AACCD3",
            "validator_index": "59",
            "height": "44641",
            "round": "0",
            "timestamp": "2018-08-02T09:16:41.271556452Z",
            "type": 2,
            "block_id": {
              "hash": "E2A9A13572AAEC3550EF7D14A521B9442FF6529C",
              "parts": {
                "total": "1",
                "hash": "9CC0AD256E6639CEFF1B9B02005716A582440A0B"
              }
            },
            "signature": {
              "type": "tendermint/SignatureEd25519",
              "value": "8/FPzHa8GdRF7CAHBopGwo8r11zGv0n/Ed93Xh8hVY59Yfqh8ll/mHCC5YACArM4AVP/CZC1Gp+45W3/wa4dDA=="
            }
          },
          {
            "validator_address": "A6B3A5B5D982CFD7B5FDFA15CF5A720E7AE25E7F",
            "validator_index": "60",
            "height": "44641",
            "round": "0",
            "timestamp": "2018-08-02T09:16:41.683010589Z",
            "type": 2,
            "block_id": {
              "hash": "E2A9A13572AAEC3550EF7D14A521B9442FF6529C",
              "parts": {
                "total": "1",
                "hash": "9CC0AD256E6639CEFF1B9B02005716A582440A0B"
              }
            },
            "signature": {
              "type": "tendermint/SignatureEd25519",
              "value": "W+3aEpW9LlSrTIsPtImonLFZUIOuyd3/DP0YYHNUCrp4dKl4/p2ShObE6mWHfRDmSOpCPFu5ORF1QBALKgkwAw=="
            }
          },
          {
            "validator_address": "AC96444A9083890B7C7B430DB17BF1D3EA5EED04",
            "validator_index": "61",
            "height": "44641",
            "round": "0",
            "timestamp": "2018-08-02T09:16:41.391953051Z",
            "type": 2,
            "block_id": {
              "hash": "E2A9A13572AAEC3550EF7D14A521B9442FF6529C",
              "parts": {
                "total": "1",
                "hash": "9CC0AD256E6639CEFF1B9B02005716A582440A0B"
              }
            },
            "signature": {
              "type": "tendermint/SignatureEd25519",
              "value": "S8deHCxABLsmbuhkz8Q/A9siD4PTuKlkLiy3fytOYpJ7fiJTIca291ZMKiYfbxcguRyZYXs78gkAN+J9fyYWAw=="
            }
          },
          {
            "validator_address": "ACB97FDA2D940AF0709B73537C458EB988AD2893",
            "validator_index": "62",
            "height": "44641",
            "round": "0",
            "timestamp": "2018-08-02T09:16:41.263173823Z",
            "type": 2,
            "block_id": {
              "hash": "E2A9A13572AAEC3550EF7D14A521B9442FF6529C",
              "parts": {
                "total": "1",
                "hash": "9CC0AD256E6639CEFF1B9B02005716A582440A0B"
              }
            },
            "signature": {
              "type": "tendermint/SignatureEd25519",
              "value": "yLCqJ1tgHqXE8ooov3bkSudwLtn9sUG27O/XD2dNQ177cWTLDMOB5Hzz10Qjeq3FvtWorgay+BilCXqB3GtTBw=="
            }
          },
          {
            "validator_address": "B197425B3210375F211661DE02EF2AE36580EB0F",
            "validator_index": "63",
            "height": "44641",
            "round": "0",
            "timestamp": "2018-08-02T09:16:41.278973798Z",
            "type": 2,
            "block_id": {
              "hash": "E2A9A13572AAEC3550EF7D14A521B9442FF6529C",
              "parts": {
                "total": "1",
                "hash": "9CC0AD256E6639CEFF1B9B02005716A582440A0B"
              }
            },
            "signature": {
              "type": "tendermint/SignatureEd25519",
              "value": "gQihNjG35sFMlN4hhXXOl2xHGaOpX94gkiT41iUJhWsYiUOpEhRrPQ0TeQHbbwUKs/Uvxpc9iEzSHQE93+aUCw=="
            }
          },
          {
            "validator_address": "B45E54D2D1CB5A4CCD1D49016608C18E7C56B270",
            "validator_index": "64",
            "height": "44641",
            "round": "0",
            "timestamp": "2018-08-02T09:16:41.428479315Z",
            "type": 2,
            "block_id": {
              "hash": "E2A9A13572AAEC3550EF7D14A521B9442FF6529C",
              "parts": {
                "total": "1",
                "hash": "9CC0AD256E6639CEFF1B9B02005716A582440A0B"
              }
            },
            "signature": {
              "type": "tendermint/SignatureEd25519",
              "value": "dccOhVJOeVil8K3OQlRgArRs/p1xeQNnpyo+JtzQZKJBp3LzB0ykfrADRCfSDEeX1fgCnOjGGWn9VxIe0HqrBQ=="
            }
          },
          {
            "validator_address": "BB1276BE89834835428664408917649FEEF5D90C",
            "validator_index": "65",
            "height": "44641",
            "round": "0",
            "timestamp": "2018-08-02T09:16:41.445693831Z",
            "type": 2,
            "block_id": {
              "hash": "E2A9A13572AAEC3550EF7D14A521B9442FF6529C",
              "parts": {
                "total": "1",
                "hash": "9CC0AD256E6639CEFF1B9B02005716A582440A0B"
              }
            },
            "signature": {
              "type": "tendermint/SignatureEd25519",
              "value": "rabEyEWjTkHEoHqCOO4NKYZsbAZmNPimFp6RuV/bSgQ8WXJDgAVI/q/9dvTepoP0bA/5QHvJFPHe7oOnpzCRDA=="
            }
          },
          {
            "validator_address": "BC36FEDD6EF6071118A3E51859DF3831A2EC4782",
            "validator_index": "66",
            "height": "44641",
            "round": "0",
            "timestamp": "2018-08-02T09:16:41.336627055Z",
            "type": 2,
            "block_id": {
              "hash": "E2A9A13572AAEC3550EF7D14A521B9442FF6529C",
              "parts": {
                "total": "1",
                "hash": "9CC0AD256E6639CEFF1B9B02005716A582440A0B"
              }
            },
            "signature": {
              "type": "tendermint/SignatureEd25519",
              "value": "jxzpMykxQQDfMXThu02ErZSlN24ZSEKDyfJZAjd3KZWiK+YwoybTlAYxW7BbRri9Yqc4930BkJP4NOjJlNHJAg=="
            }
          },
          {
            "validator_address": "BD9D0DA513BF099DB4BB6E725A4E19832789882F",
            "validator_index": "67",
            "height": "44641",
            "round": "0",
            "timestamp": "2018-08-02T09:16:41.326449893Z",
            "type": 2,
            "block_id": {
              "hash": "E2A9A13572AAEC3550EF7D14A521B9442FF6529C",
              "parts": {
                "total": "1",
                "hash": "9CC0AD256E6639CEFF1B9B02005716A582440A0B"
              }
            },
            "signature": {
              "type": "tendermint/SignatureEd25519",
              "value": "J6hyTMYXlb4WiHabNrNJPZKl4Kcq/SQbGlUgGv+XoAEbOmqowA0rB9RmLX5FBeChn6UQu7Njmo6GzY3P1PgcBg=="
            }
          },
          {
            "validator_address": "C1134A2FF8F7338E7CDB3FE57DDD2A655DEB1E22",
            "validator_index": "68",
            "height": "44641",
            "round": "0",
            "timestamp": "2018-08-02T09:16:41.231268404Z",
            "type": 2,
            "block_id": {
              "hash": "E2A9A13572AAEC3550EF7D14A521B9442FF6529C",
              "parts": {
                "total": "1",
                "hash": "9CC0AD256E6639CEFF1B9B02005716A582440A0B"
              }
            },
            "signature": {
              "type": "tendermint/SignatureEd25519",
              "value": "RixkbxPB1bqer5ucX8EuIWkfiCU3QoY4E8YvHGjBzq517+HN9y6du3IHElJqRjOjv9uX7lY9HEd+DXbgRlX0AQ=="
            }
          },
          {
            "validator_address": "C39A8A2B85198DCB8F23AD1F6C198E2BA7AB5D60",
            "validator_index": "69",
            "height": "44641",
            "round": "0",
            "timestamp": "2018-08-02T09:16:41.341153082Z",
            "type": 2,
            "block_id": {
              "hash": "E2A9A13572AAEC3550EF7D14A521B9442FF6529C",
              "parts": {
                "total": "1",
                "hash": "9CC0AD256E6639CEFF1B9B02005716A582440A0B"
              }
            },
            "signature": {
              "type": "tendermint/SignatureEd25519",
              "value": "a2+KCrieqBt6MXii/ccYsNmtdndcTqB4MPzoCixL2q/Ads+fbEcri5OnxYi3Vz0elAo1dQFFAXn0pcJ4LqBLDA=="
            }
          },
          {
            "validator_address": "C4335190C3B5BD4BA5568BC0F99C34162D940D08",
            "validator_index": "70",
            "height": "44641",
            "round": "0",
            "timestamp": "2018-08-02T09:16:41.302945186Z",
            "type": 2,
            "block_id": {
              "hash": "E2A9A13572AAEC3550EF7D14A521B9442FF6529C",
              "parts": {
                "total": "1",
                "hash": "9CC0AD256E6639CEFF1B9B02005716A582440A0B"
              }
            },
            "signature": {
              "type": "tendermint/SignatureEd25519",
              "value": "bZd3NW9TCAXPO9q6aek7AuhSXqwG2UaIrpMOdgzAPYatDyiPuXci8DqIfQfNxHVUFhdOs4TWnzpu9+YIxIOMAQ=="
            }
          },
          {
            "validator_address": "C561CFA081677046376396922E7576E5F7B316AD",
            "validator_index": "71",
            "height": "44641",
            "round": "0",
            "timestamp": "2018-08-02T09:16:41.452246987Z",
            "type": 2,
            "block_id": {
              "hash": "E2A9A13572AAEC3550EF7D14A521B9442FF6529C",
              "parts": {
                "total": "1",
                "hash": "9CC0AD256E6639CEFF1B9B02005716A582440A0B"
              }
            },
            "signature": {
              "type": "tendermint/SignatureEd25519",
              "value": "CO7wO7XM9bcHXdYZ8ZCaHpNDfui7TIMxMjqrSffsAxHHNR6Yp9NNFqNzZlktgVjynbCFJ4B3fUYuHmV435NHCw=="
            }
          },
          {
            "validator_address": "CE589EA77B056D268D30D1DC1D68A70E0F885E95",
            "validator_index": "72",
            "height": "44641",
            "round": "0",
            "timestamp": "2018-08-02T09:16:41.303056721Z",
            "type": 2,
            "block_id": {
              "hash": "E2A9A13572AAEC3550EF7D14A521B9442FF6529C",
              "parts": {
                "total": "1",
                "hash": "9CC0AD256E6639CEFF1B9B02005716A582440A0B"
              }
            },
            "signature": {
              "type": "tendermint/SignatureEd25519",
              "value": "UUUHIWrFLVxQrzEjI2wx2bqI4coceIDjJOxiFggaN3OGu4TdygZiM98n9VLtC25aaw7J4Hv6I/PTRm/6u8tXDw=="
            }
          },
          {
            "validator_address": "CEB97DB5CB18270247ABDE6CF2F84F9AEE8A2904",
            "validator_index": "73",
            "height": "44641",
            "round": "0",
            "timestamp": "2018-08-02T09:16:42.451793409Z",
            "type": 2,
            "block_id": {
              "hash": "E2A9A13572AAEC3550EF7D14A521B9442FF6529C",
              "parts": {
                "total": "1",
                "hash": "9CC0AD256E6639CEFF1B9B02005716A582440A0B"
              }
            },
            "signature": {
              "type": "tendermint/SignatureEd25519",
              "value": "5b6zoHntwk+sZ/zjUtlSZdJkMFOKv1quZ9+QFeWvagW/gmQQrqL3ePpb9ANL5Cq4b03SByaJ5coPtg+el7DJAg=="
            }
          },
          {
            "validator_address": "D2134B826A1E25A955905CB79A4D8731CAFA0CCE",
            "validator_index": "74",
            "height": "44641",
            "round": "0",
            "timestamp": "2018-08-02T09:16:41.358687552Z",
            "type": 2,
            "block_id": {
              "hash": "E2A9A13572AAEC3550EF7D14A521B9442FF6529C",
              "parts": {
                "total": "1",
                "hash": "9CC0AD256E6639CEFF1B9B02005716A582440A0B"
              }
            },
            "signature": {
              "type": "tendermint/SignatureEd25519",
              "value": "rsFlTGYXwK87Q7prgSsdYvflAs12iUm2KmYDjd9V2/vrFVHstjHRFmzhG7BcgvMC2gfJcAjCGxonFqd26c64CA=="
            }
          },
          {
            "validator_address": "D6285C3422C8886445D53757CBE12D2B91B5A9D0",
            "validator_index": "75",
            "height": "44641",
            "round": "0",
            "timestamp": "2018-08-02T09:16:24.654550798Z",
            "type": 2,
            "block_id": {
              "hash": "E2A9A13572AAEC3550EF7D14A521B9442FF6529C",
              "parts": {
                "total": "1",
                "hash": "9CC0AD256E6639CEFF1B9B02005716A582440A0B"
              }
            },
            "signature": {
              "type": "tendermint/SignatureEd25519",
              "value": "pVYSnKae+l5iXS1SsL3cJDwo4fsgsyR7AolGO6c+ym0V3x4DG+fjl5atdPcr8XiFsNw2KMtKM5dwFQQVhAeRCw=="
            }
          },
          {
            "validator_address": "D77FB84A729972CD3E757C9BEB61561855832B92",
            "validator_index": "76",
            "height": "44641",
            "round": "0",
            "timestamp": "2018-08-02T09:16:41.425509132Z",
            "type": 2,
            "block_id": {
              "hash": "E2A9A13572AAEC3550EF7D14A521B9442FF6529C",
              "parts": {
                "total": "1",
                "hash": "9CC0AD256E6639CEFF1B9B02005716A582440A0B"
              }
            },
            "signature": {
              "type": "tendermint/SignatureEd25519",
              "value": "LWlEpEmOLX0WPV51YYK4Bi7f27q1cQO1XkJHHm8tejhqFWeWR+2QUfrFUV3VTonL75LoxEQcg4bgv7fxdz+/BA=="
            }
          },
          {
            "validator_address": "DB7E6732471D3EA5C90C17A9974D9F88AB45F2FB",
            "validator_index": "77",
            "height": "44641",
            "round": "0",
            "timestamp": "2018-08-02T09:16:41.326650778Z",
            "type": 2,
            "block_id": {
              "hash": "E2A9A13572AAEC3550EF7D14A521B9442FF6529C",
              "parts": {
                "total": "1",
                "hash": "9CC0AD256E6639CEFF1B9B02005716A582440A0B"
              }
            },
            "signature": {
              "type": "tendermint/SignatureEd25519",
              "value": "+lBUJkqnorQKRHVRzf4hoSB4wFrrP4RNUw5fOJhH2zLxJTsGAKkU5CRm8SAi7uOSI76My2SKiJWICM0MMOJ7AQ=="
            }
          },
          {
            "validator_address": "DF54B862410BCD9B5C516FBB6C56BDC826ED6FA7",
            "validator_index": "78",
            "height": "44641",
            "round": "0",
            "timestamp": "2018-08-02T09:16:41.345782801Z",
            "type": 2,
            "block_id": {
              "hash": "E2A9A13572AAEC3550EF7D14A521B9442FF6529C",
              "parts": {
                "total": "1",
                "hash": "9CC0AD256E6639CEFF1B9B02005716A582440A0B"
              }
            },
            "signature": {
              "type": "tendermint/SignatureEd25519",
              "value": "6bVKK6HexzeZ838vO9eoZLaMPWQSENnuk6cRL/OLbQAdFeuNBN19vAo7BJHZ+JJ7kVoilTjJO1pLBq1FlCwjBw=="
            }
          },
          {
            "validator_address": "DFAF0C8B1B78D6D552B0189DE3ACA351439A1319",
            "validator_index": "79",
            "height": "44641",
            "round": "0",
            "timestamp": "2018-08-02T09:16:41.34552744Z",
            "type": 2,
            "block_id": {
              "hash": "E2A9A13572AAEC3550EF7D14A521B9442FF6529C",
              "parts": {
                "total": "1",
                "hash": "9CC0AD256E6639CEFF1B9B02005716A582440A0B"
              }
            },
            "signature": {
              "type": "tendermint/SignatureEd25519",
              "value": "goQTYUVveSj/krOPwBPtezsHkN8uNryDNgysQH/+DaVFn8hqaQaaEcBCdimXFCvazWwiUSZbXpWuFxHHITr4CQ=="
            }
          },
          {
            "validator_address": "E1DBC77881161A5A3A8536A57536EAE546A75D69",
            "validator_index": "80",
            "height": "44641",
            "round": "0",
            "timestamp": "2018-08-02T09:16:41.24186165Z",
            "type": 2,
            "block_id": {
              "hash": "E2A9A13572AAEC3550EF7D14A521B9442FF6529C",
              "parts": {
                "total": "1",
                "hash": "9CC0AD256E6639CEFF1B9B02005716A582440A0B"
              }
            },
            "signature": {
              "type": "tendermint/SignatureEd25519",
              "value": "GUua8KhWjueYgI7RF8jNaK0fPGe85f4dKy8exZuvqFn/4hG3zxIEFBJpX+Yfz8imth3BkUq5JxUqvSQon2POBg=="
            }
          },
          {
            "validator_address": "E300E9D484374C1D3E97C1D93CAC3B160A056298",
            "validator_index": "81",
            "height": "44641",
            "round": "0",
            "timestamp": "2018-08-02T09:16:41.561827198Z",
            "type": 2,
            "block_id": {
              "hash": "E2A9A13572AAEC3550EF7D14A521B9442FF6529C",
              "parts": {
                "total": "1",
                "hash": "9CC0AD256E6639CEFF1B9B02005716A582440A0B"
              }
            },
            "signature": {
              "type": "tendermint/SignatureEd25519",
              "value": "66TZHtNeaNEtRJzWb9tkzK7HCZb1E+lpEeDwasAsRLfQdX1WekwTrYYLKk7IesJ2ezNx7r5aRAFxJQ/uCtgtDQ=="
            }
          },
          {
            "validator_address": "E39B5778E0D4297A46F45CF6940B0A163A430FF8",
            "validator_index": "82",
            "height": "44641",
            "round": "0",
            "timestamp": "2018-08-02T09:16:41.297157149Z",
            "type": 2,
            "block_id": {
              "hash": "E2A9A13572AAEC3550EF7D14A521B9442FF6529C",
              "parts": {
                "total": "1",
                "hash": "9CC0AD256E6639CEFF1B9B02005716A582440A0B"
              }
            },
            "signature": {
              "type": "tendermint/SignatureEd25519",
              "value": "wwbl/3awg0OnDv1Qms8zsiBdyfSL3ZDUWxwgHx64hE3U0q2/dFgx0+3+d5I7RrUlUBTMe9qnRvyZcws+cN8zAg=="
            }
          },
          {
            "validator_address": "E3B19738F7132F950668504D326C7660F159D170",
            "validator_index": "83",
            "height": "44641",
            "round": "0",
            "timestamp": "2018-08-02T09:16:41.233163138Z",
            "type": 2,
            "block_id": {
              "hash": "E2A9A13572AAEC3550EF7D14A521B9442FF6529C",
              "parts": {
                "total": "1",
                "hash": "9CC0AD256E6639CEFF1B9B02005716A582440A0B"
              }
            },
            "signature": {
              "type": "tendermint/SignatureEd25519",
              "value": "+XZtYulqiEnIOJt64hWyVMyc7KvSB9nmQXK7SlrImY2CWZsbUWzZ2MqL0asnPFMsxHSV8gxIJ8LK3hdyWa9vDA=="
            }
          },
          {
            "validator_address": "E42F8AEABB685219F7027F54D2B0DBC7846F633A",
            "validator_index": "84",
            "height": "44641",
            "round": "0",
            "timestamp": "2018-08-02T09:16:40.355747387Z",
            "type": 2,
            "block_id": {
              "hash": "E2A9A13572AAEC3550EF7D14A521B9442FF6529C",
              "parts": {
                "total": "1",
                "hash": "9CC0AD256E6639CEFF1B9B02005716A582440A0B"
              }
            },
            "signature": {
              "type": "tendermint/SignatureEd25519",
              "value": "O8t2RBvN/fOhL8LUw73MfRKTyoPDI8kbKmCQyRr55xmadvpEqhb67SyfuWUkCf5d/QugQZivXHsk3qpS542XCw=="
            }
          },
          {
            "validator_address": "E4E6C2E81269DFFA196C17F98240E491479A6008",
            "validator_index": "85",
            "height": "44641",
            "round": "0",
            "timestamp": "2018-08-02T09:16:41.553131055Z",
            "type": 2,
            "block_id": {
              "hash": "E2A9A13572AAEC3550EF7D14A521B9442FF6529C",
              "parts": {
                "total": "1",
                "hash": "9CC0AD256E6639CEFF1B9B02005716A582440A0B"
              }
            },
            "signature": {
              "type": "tendermint/SignatureEd25519",
              "value": "KfpIJijgAH2PI082rTMvsuZC/YRnTKrh7KCHk+/522XLY9W2H/GBgOEI1k7l6vgkrui/KC53MT/FBKZixHBMCw=="
            }
          },
          {
            "validator_address": "E4FEB2846F4F3B0ECDCBE9C9DCB2248248A5AF0F",
            "validator_index": "86",
            "height": "44641",
            "round": "0",
            "timestamp": "2018-08-02T09:16:41.040161469Z",
            "type": 2,
            "block_id": {
              "hash": "E2A9A13572AAEC3550EF7D14A521B9442FF6529C",
              "parts": {
                "total": "1",
                "hash": "9CC0AD256E6639CEFF1B9B02005716A582440A0B"
              }
            },
            "signature": {
              "type": "tendermint/SignatureEd25519",
              "value": "U90OgH/RMpMcOjyUrMUoVxcfXB5BKc9lRgkZ9KiflCykB0IlM+uINmzxo2jTnu3Qp8TDawSttv5qwK+Z4OatCw=="
            }
          },
          {
            "validator_address": "E50ADECD5FD27FA2CD610C07F8AED36A2FC4A6A6",
            "validator_index": "87",
            "height": "44641",
            "round": "0",
            "timestamp": "2018-08-02T09:16:41.276198772Z",
            "type": 2,
            "block_id": {
              "hash": "E2A9A13572AAEC3550EF7D14A521B9442FF6529C",
              "parts": {
                "total": "1",
                "hash": "9CC0AD256E6639CEFF1B9B02005716A582440A0B"
              }
            },
            "signature": {
              "type": "tendermint/SignatureEd25519",
              "value": "ULIChQAhMk/jwODJmInDYn5E83mxaqM/DEPFarZNh2M3sN8XFtRX5Q2w345tWsaH3qydtR2IqxpV9nMMUuaFDQ=="
            }
          },
          {
            "validator_address": "E6A7079D584B163750BE0831227F6B685DEAF3C1",
            "validator_index": "88",
            "height": "44641",
            "round": "0",
            "timestamp": "2018-08-02T09:16:41.353095125Z",
            "type": 2,
            "block_id": {
              "hash": "E2A9A13572AAEC3550EF7D14A521B9442FF6529C",
              "parts": {
                "total": "1",
                "hash": "9CC0AD256E6639CEFF1B9B02005716A582440A0B"
              }
            },
            "signature": {
              "type": "tendermint/SignatureEd25519",
              "value": "a5uJ7JHNw5RAZsVqZuFVxR0UOxRIGzV6sfdBBTl8cSg1mNGNIV1G9ytBR9fiEUgI4y63UWM9L/YiafFdM5viBQ=="
            }
          },
          {
            "validator_address": "E7A30077D5D11867D3EAF99ED45BFDC1EB834509",
            "validator_index": "89",
            "height": "44641",
            "round": "0",
            "timestamp": "2018-08-02T09:16:41.300740151Z",
            "type": 2,
            "block_id": {
              "hash": "E2A9A13572AAEC3550EF7D14A521B9442FF6529C",
              "parts": {
                "total": "1",
                "hash": "9CC0AD256E6639CEFF1B9B02005716A582440A0B"
              }
            },
            "signature": {
              "type": "tendermint/SignatureEd25519",
              "value": "uDrvVyOKtUiH1NsihoEKC9wh1P1pTlRrevtHwkVjnUUIrwEQcNfN0ExQ+yfdwhHnVPvjXPkpnTp0xMilaGE7BA=="
            }
          },
          {
            "validator_address": "EBC613967F66F4EC306852CDF58B4F151CF16738",
            "validator_index": "90",
            "height": "44641",
            "round": "0",
            "timestamp": "2018-08-02T09:16:41.508806085Z",
            "type": 2,
            "block_id": {
              "hash": "E2A9A13572AAEC3550EF7D14A521B9442FF6529C",
              "parts": {
                "total": "1",
                "hash": "9CC0AD256E6639CEFF1B9B02005716A582440A0B"
              }
            },
            "signature": {
              "type": "tendermint/SignatureEd25519",
              "value": "tL1ZmBuQ8MNmJrT+8XFy2x4qoxFOfumtxGGfNVBaF5dfPdHlCS7cAbjM78oAshmRWZT3seeahiSFrSB4B6DfAQ=="
            }
          },
          {
            "validator_address": "EC3401441726C40ECC7E51F744483B05BC6DE9BD",
            "validator_index": "91",
            "height": "44641",
            "round": "0",
            "timestamp": "2018-08-02T09:16:41.291615628Z",
            "type": 2,
            "block_id": {
              "hash": "E2A9A13572AAEC3550EF7D14A521B9442FF6529C",
              "parts": {
                "total": "1",
                "hash": "9CC0AD256E6639CEFF1B9B02005716A582440A0B"
              }
            },
            "signature": {
              "type": "tendermint/SignatureEd25519",
              "value": "e4v6m37FM/QPgnkkHIXWyiT/ePwZAYCTM3psJyaTNkOHrNGvHEK9962KMjdDEQuOBPl+O44bQeoQocqQ+VvNAw=="
            }
          },
          {
            "validator_address": "EC95B111D032181E1EC3B5E8875C5BB8E4AE7140",
            "validator_index": "92",
            "height": "44641",
            "round": "0",
            "timestamp": "2018-08-02T09:16:41.265847074Z",
            "type": 2,
            "block_id": {
              "hash": "E2A9A13572AAEC3550EF7D14A521B9442FF6529C",
              "parts": {
                "total": "1",
                "hash": "9CC0AD256E6639CEFF1B9B02005716A582440A0B"
              }
            },
            "signature": {
              "type": "tendermint/SignatureEd25519",
              "value": "S5uHzvhjzlBwpcv1pEROu0rRlTzogQVeK8NfEq5w4lsMDWBFXDzvjw5X78n1g/N1FeAJAJLK7NEUDrGhl31SDg=="
            }
          },
          {
            "validator_address": "F13C1805E8131C9B47E2A46818F57D8A2841E578",
            "validator_index": "93",
            "height": "44641",
            "round": "0",
            "timestamp": "2018-08-02T09:16:41.433900354Z",
            "type": 2,
            "block_id": {
              "hash": "E2A9A13572AAEC3550EF7D14A521B9442FF6529C",
              "parts": {
                "total": "1",
                "hash": "9CC0AD256E6639CEFF1B9B02005716A582440A0B"
              }
            },
            "signature": {
              "type": "tendermint/SignatureEd25519",
              "value": "2WYCKmESBimH6lLZSKERxFkr22R/wVDsWbtmXHkTE1EA4kbIAdTTRv1Dz1qF+BmNKvZ+znpqgXucB5Os50vWCg=="
            }
          },
          {
            "validator_address": "F23FF36BD5B90C33CE3A03ED72DBDCF5EC07D6AF",
            "validator_index": "94",
            "height": "44641",
            "round": "0",
            "timestamp": "2018-08-02T09:16:41.355680391Z",
            "type": 2,
            "block_id": {
              "hash": "E2A9A13572AAEC3550EF7D14A521B9442FF6529C",
              "parts": {
                "total": "1",
                "hash": "9CC0AD256E6639CEFF1B9B02005716A582440A0B"
              }
            },
            "signature": {
              "type": "tendermint/SignatureEd25519",
              "value": "cybo9EoY8+kN4MGTvR427IfOvQh9FB0ue6moZEyUx2cMckOF96nEdOjgmmxel4hTDOWZyFRnM0qKaVXvjMcVAw=="
            }
          },
          {
            "validator_address": "F4268597DE93E3E2CED38845010F8AA34E2A879E",
            "validator_index": "95",
            "height": "44641",
            "round": "0",
            "timestamp": "2018-08-02T09:16:41.417693542Z",
            "type": 2,
            "block_id": {
              "hash": "E2A9A13572AAEC3550EF7D14A521B9442FF6529C",
              "parts": {
                "total": "1",
                "hash": "9CC0AD256E6639CEFF1B9B02005716A582440A0B"
              }
            },
            "signature": {
              "type": "tendermint/SignatureEd25519",
              "value": "+LUqE4+Ositd0sBUzqVBYDBbV4z/Ou8VdMa/ONNPFC47QbtDn1sSypzu2myzigHoO8gYWJxUptSS+t5ZGi3QBg=="
            }
          },
          {
            "validator_address": "F4DEB417999B04BE2EFF9FFE03FA373D86011CC0",
            "validator_index": "96",
            "height": "44641",
            "round": "0",
            "timestamp": "2018-08-02T09:16:41.416543644Z",
            "type": 2,
            "block_id": {
              "hash": "E2A9A13572AAEC3550EF7D14A521B9442FF6529C",
              "parts": {
                "total": "1",
                "hash": "9CC0AD256E6639CEFF1B9B02005716A582440A0B"
              }
            },
            "signature": {
              "type": "tendermint/SignatureEd25519",
              "value": "8NYfOnS51VT5pXh/H24w2qI5XqLAINILDKgQiKwPQxfiCM48dvcjYDiJhHlvu3dJYCTX56tROekUyKgdHISnBg=="
            }
          },
          {
            "validator_address": "F6738260186D33D9C14FC6E7017AFE6BB952A63D",
            "validator_index": "97",
            "height": "44641",
            "round": "0",
            "timestamp": "2018-08-02T09:16:41.282472459Z",
            "type": 2,
            "block_id": {
              "hash": "E2A9A13572AAEC3550EF7D14A521B9442FF6529C",
              "parts": {
                "total": "1",
                "hash": "9CC0AD256E6639CEFF1B9B02005716A582440A0B"
              }
            },
            "signature": {
              "type": "tendermint/SignatureEd25519",
              "value": "ylVe2yjxbG1Nh1eiVdUmD6fENj0p/2319e/FQvUNRL2pXSxTsXyhTQe9CzjB5LF4OO4dES1lS2oQxdZE4tZMCw=="
            }
          },
          {
            "validator_address": "FD8D304F0278229077114B05BED9DABD382D49D8",
            "validator_index": "98",
            "height": "44641",
            "round": "0",
            "timestamp": "2018-08-02T09:16:41.381939186Z",
            "type": 2,
            "block_id": {
              "hash": "E2A9A13572AAEC3550EF7D14A521B9442FF6529C",
              "parts": {
                "total": "1",
                "hash": "9CC0AD256E6639CEFF1B9B02005716A582440A0B"
              }
            },
            "signature": {
              "type": "tendermint/SignatureEd25519",
              "value": "VtCvla5OHOVcVPs5ryPEtjbgvM4S0rUYymAHHNSINOZNZcHi3UEwqEjqIVJiKs3r1H3VQC23wT3Xeuq9aVyhBw=="
            }
          },
          {
            "validator_address": "FF3F3FCBCE7E62D7AD5506FF846EC4518D980515",
            "validator_index": "99",
            "height": "44641",
            "round": "0",
            "timestamp": "2018-08-02T09:16:41.302050874Z",
            "type": 2,
            "block_id": {
              "hash": "E2A9A13572AAEC3550EF7D14A521B9442FF6529C",
              "parts": {
                "total": "1",
                "hash": "9CC0AD256E6639CEFF1B9B02005716A582440A0B"
              }
            },
            "signature": {
              "type": "tendermint/SignatureEd25519",
              "value": "0u/cdn8c0mNHxcMevE4J+O4HwBUyyUX2k1cnt7jBa1wyOPBF5vbOPlwc6/7hGuKLe1c59LF27hU0VXbfUHx+Cg=="
            }
          }
        ]
      }
    },
    "canonical": true
  }
}