{
  "jsonrpc": "2.0",
  "id": "",
  "result": {
    "SignedHeader": {
      "header": {
        "chain_id": "gaia-7004",
        "height": "44806",
        "time": "2018-08-02T09:33:35.174465217Z",
        "num_txs": "0",
        "last_block_id": {
          "hash": "F144EF0FAE22BB33FA1E439B164A6B00B708A8FD",
          "parts": {
            "total": "1",
            "hash": "4D9E79D5FFEAB135B0F9E1861AA954F194F4CD9D"
          }
        },
        "total_txs": "2083",
        "last_commit_hash": "CE2B46E683D35A1B4B52B17B55AB17A625CEB82A",
        "data_hash": "",
        "validators_hash": "87F229A3BE37A8F6B6730E363C8839C651E22027",
        "consensus_hash": "D6B74BB35BDFFD8392340F2A379173548AE188FE",
        "app_hash": "F454A72BB9182503CAF1A06C14E1F0B6A459FAEC",
        "last_results_hash": "",
        "evidence_hash": ""
      },
      "commit": {
        "block_id": {
          "hash": "1D6853A7D192F3318634EFB10513C7E80C9E3FC6",
          "parts": {
            "total": "1",
            "hash": "54F998A9E15612166FEFAF9C56FBB8942033BA81"
          }
        },
        "precommits": [
          {
            "validator_address": "029359C0C768096273A68ABC902A6B17AC8D1D70",
            "validator_index": "0",
            "height": "44806",
            "round": "0",
            "timestamp": "2018-08-02T09:33:36.040051393Z",
            "type": 2,
            "block_id": {
              "hash": "1D6853A7D192F3318634EFB10513C7E80C9E3FC6",
              "parts": {
                "total": "1",
                "hash": "54F998A9E15612166FEFAF9C56FBB8942033BA81"
              }
            },
            "signature": {
              "type": "tendermint/SignatureEd25519",
              "value": "5w1vWMppPm2zGFK+VNkBT6xVAgasqZKA2U0W6YlUul2eak6PaimtJR/iIFEOmIQQG4a5bi3na8hghMe+uPZNAw=="
            }
          },
          {
            "validator_address": "02FE4B97A8387F39D1AC19E0C1702B3CC614812F",
            "validator_index": "1",
            "height": "44806",
            "round": "0",
            "timestamp": "2018-08-02T09:33:36.044518104Z",
            "type": 2,
            "block_id": {
              "hash": "1D6853A7D192F3318634EFB10513C7E80C9E3FC6",
              "parts": {
                "total": "1",
                "hash": "54F998A9E15612166FEFAF9C56FBB8942033BA81"
              }
            },
            "signature": {
              "type": "tendermint/SignatureEd25519",
              "value": "NCxEP3qprlTtrj5U9rP0kKmq7MFskbe64K6DXnLnYu4Pez3M51wDwVMKzkRogFL6oPWuiIS8qjX3gSEvwOjdAw=="
            }
          },
          {
            "validator_address": "0548261C50222FD710EB5EBDF03A0E6567B21D20",
            "validator_index": "2",
            "height": "44806",
            "round": "0",
            "timestamp": "2018-08-02T09:33:36.197273931Z",
            "type": 2,
            "block_id": {
              "hash": "1D6853A7D192F3318634EFB10513C7E80C9E3FC6",
              "parts": {
                "total": "1",
                "hash": "54F998A9E15612166FEFAF9C56FBB8942033BA81"
              }
            },
            "signature": {
              "type": "tendermint/SignatureEd25519",
              "value": "FjNDeZK7Iy/05QBy5U4JjZj74s6tpOYV+ws6rs2Ljdq0+FSKLMpVr+Kl4KIXpKeBC4ZgVG26ELA90soOD7DEBQ=="
            }
          },
          {
            "validator_address": "0665ADBF9B120B7617BF955AA5653A1992C82B11",
            "validator_index": "3",
            "height": "44806",
            "round": "0",
            "timestamp": "2018-08-02T09:33:36.087968069Z",
            "type": 2,
            "block_id": {
              "hash": "1D6853A7D192F3318634EFB10513C7E80C9E3FC6",
              "parts": {
                "total": "1",
                "hash": "54F998A9E15612166FEFAF9C56FBB8942033BA81"
              }
            },
            "signature": {
              "type": "tendermint/SignatureEd25519",
              "value": "6ldz0OJAw3AAJJmBZ05uWH7zzAlt3p2nZO63z5MuaRHgoQsL/EG87gXWkcVOIDkbvB1oEJpTyTqeb01IFrI3Cg=="
            }
          },
          {
            "validator_address": "09145E611CC27EEB944FC5A956DDF710F943B9EF",
            "validator_index": "4",
            "height": "44806",
            "round": "0",
            "timestamp": "2018-08-02T09:33:36.087919287Z",
            "type": 2,
            "block_id": {
              "hash": "1D6853A7D192F3318634EFB10513C7E80C9E3FC6",
              "parts": {
                "total": "1",
                "hash": "54F998A9E15612166FEFAF9C56FBB8942033BA81"
              }
            },
            "signature": {
              "type": "tendermint/SignatureEd25519",
              "value": "gKCItq9vfxAevMWAAtkGZV5vkLqkBPz+uagMrVw9iW94dfr+gA5kcqOWO941dRykl9syRLGGFDNHYGx8gJadDQ=="
            }
          },
          {
            "validator_address": "0989D0355A104B67AE0AE028C68FB610690E174B",
            "validator_index": "5",
            "height": "44806",
            "round": "0",
            "timestamp": "2018-08-02T09:33:36.076059977Z",
            "type": 2,
            "block_id": {
              "hash": "1D6853A7D192F3318634EFB10513C7E80C9E3FC6",
              "parts": {
                "total": "1",
                "hash": "54F998A9E15612166FEFAF9C56FBB8942033BA81"
              }
            },
            "signature": {
              "type": "tendermint/SignatureEd25519",
              "value": "Oooy7pU7Zv5uG4zfet+oB0egZKlLBdgU1HcV+AJy3dbXz6LnHG+fK/I8HOw2/k2wh8E6bzc6dPTHovlYw0nuDA=="
            }
          },
          {
            "validator_address": "0A692DBFFE9E5DD28E7DECC33CED1AEB4C0D014E",
            "validator_index": "6",
            "height": "44806",
            "round": "0",
            "timestamp": "2018-08-02T09:33:36.139460031Z",
            "type": 2,
            "block_id": {
              "hash": "1D6853A7D192F3318634EFB10513C7E80C9E3FC6",
              "parts": {
                "total": "1",
                "hash": "54F998A9E15612166FEFAF9C56FBB8942033BA81"
              }
            },
            "signature": {
              "type": "tendermint/SignatureEd25519",
              "value": "hPS48DhELVcNMBKQ21Xjx6b4TuunL3faV4DLdDLsK/LweiasPlhY3l6hqw7JkxLzxoQ8Zz5kwQHQZLy0MlvNAg=="
            }
          },
          {
            "validator_address": "1751786EFC085D5331C61168FFFC8202EA151B4E",
            "validator_index": "7",
            "height": "44806",
            "round": "0",
            "timestamp": "2018-08-02T09:33:35.790300198Z",
            "type": 2,
            "block_id": {
              "hash": "1D6853A7D192F3318634EFB10513C7E80C9E3FC6",
              "parts": {
                "total": "1",
                "hash": "54F998A9E15612166FEFAF9C56FBB8942033BA81"
              }
            },
            "signature": {
              "type": "tendermint/SignatureEd25519",
              "value": "MZX8U4Ht579odNMuBT2gJHPqLqDjJgGMmJb2GOmgoCEzF2bIKE/1cjz+YmlmZk7PsvDd5WPog48E17sKjp4TCA=="
            }
          },
          {
            "validator_address": "17BB5CD01E8940FAFB948A04D5FA5A0645E5822E",
            "validator_index": "8",
            "height": "44806",
            "round": "0",
            "timestamp": "2018-08-02T09:33:36.10140234Z",
            "type": 2,
            "block_id": {
              "hash": "1D6853A7D192F3318634EFB10513C7E80C9E3FC6",
              "parts": {
                "total": "1",
                "hash": "54F998A9E15612166FEFAF9C56FBB8942033BA81"
              }
            },
            "signature": {
              "type": "tendermint/SignatureEd25519",
              "value": "8G9tur4ai4KHoUYMO1+51juG34zCa2qCwEwp4ZyTUHCHuykUhGtJpD36ZKThukrdFJY7zGLj7Mi+lbIYTEmxDg=="
            }
          },
          {
            "validator_address": "1C683A87904BC38F05004FE83301A3A3E35447EB",
            "validator_index": "9",
            "height": "44806",
            "round": "0",
            "timestamp": "2018-08-02T09:33:36.065775861Z",
            "type": 2,
            "block_id": {
              "hash": "1D6853A7D192F3318634EFB10513C7E80C9E3FC6",
              "parts": {
                "total": "1",
                "hash": "54F998A9E15612166FEFAF9C56FBB8942033BA81"
              }
            },
            "signature": {
              "type": "tendermint/SignatureEd25519",
              "value": "Emih3nKhT3FzZC4ggK5l6aRy7QMLK61Az8hD8pzMF6mF66YHk3/rPGao9FasVP55X6xsd4TTnlqu665XKHloBA=="
            }
          },
          {
            "validator_address": "1E9CE94FD0BA5CFEB901F90BC658D64D85B134D2",
            "validator_index": "10",
            "height": "44806",
            "round": "0",
            "timestamp": "2018-08-02T09:33:36.105454115Z",
            "type": 2,
            "block_id": {
              "hash": "1D6853A7D192F3318634EFB10513C7E80C9E3FC6",
              "parts": {
                "total": "1",
                "hash": "54F998A9E15612166FEFAF9C56FBB8942033BA81"
              }
            },
            "signature": {
              "type": "tendermint/SignatureEd25519",
              "value": "YjxwJpHQ82PjLdtKA9i3vQwCnzsTI4pcHV5tb3FzHDUWAPfHHvcaXu/vYlhPXt9F2mJJxipPakRuKw3jO/TmCw=="
            }
          },
          {
            "validator_address": "1ECD8C5FE1341D74CDC633A245DD56858DE2F9A2",
            "validator_index": "11",
            "height": "44806",
            "round": "0",
            "timestamp": "2018-08-02T09:33:36.2444656Z",
            "type": 2,
            "block_id": {
              "hash": "1D6853A7D192F3318634EFB10513C7E80C9E3FC6",
              "parts": {
                "total": "1",
                "hash": "54F998A9E15612166FEFAF9C56FBB8942033BA81"
              }
            },
            "signature": {
              "type": "tendermint/SignatureEd25519",
              "value": "Mr/fkn6GH0r4RZodt0Uxf97F1DCI5UgvxgkbRsf5IIct92SK9EJ2YCnNRBqEazZUAgnpfaUR1KZS02ElMtGjDA=="
            }
          },
          {
            "validator_address": "1F3A68CAAD483768AA2BF667DEF10F7104C89928",
            "validator_index": "12",
            "height": "44806",
            "round": "0",
            "timestamp": "2018-08-02T09:33:36.081650343Z",
            "type": 2,
            "block_id": {
              "hash": "1D6853A7D192F3318634EFB10513C7E80C9E3FC6",
              "parts": {
                "total": "1",
                "hash": "54F998A9E15612166FEFAF9C56FBB8942033BA81"
              }
            },
            "signature": {
              "type": "tendermint/SignatureEd25519",
              "value": "wG/p9IpuZQb+/l3ecfki5FKM3KLo2JEkzQP73dha5kgppK/A7+jxc4UfRBTm29k3vb+5lCwVUk7W0Jm9MXJ+Dg=="
            }
          },
          {
            "validator_address": "1F61153F26C2DF27E15874268D30326287323352",
            "validator_index": "13",
            "height": "44806",
            "round": "0",
            "timestamp": "2018-08-02T09:33:36.158407109Z",
            "type": 2,
            "block_id": {
              "hash": "1D6853A7D192F3318634EFB10513C7E80C9E3FC6",
              "parts": {
                "total": "1",
                "hash": "54F998A9E15612166FEFAF9C56FBB8942033BA81"
              }
            },
            "signature": {
              "type": "tendermint/SignatureEd25519",
              "value": "N6bYWKsf4PY6BqxBCaM9gajtrhKTDG2NdXxszo5kP6FvLveomsA8oEIBI35FmWsppB5q62pT5ww071hfD7uODA=="
            }
          },
          {
            "validator_address": "23897586D68E2AC1C78E0EF5BB5DF5C8EAB18F50",
            "validator_index": "14",
            "height": "44806",
            "round": "0",
            "timestamp": "2018-08-02T09:33:36.074569876Z",
            "type": 2,
            "block_id": {
              "hash": "1D6853A7D192F3318634EFB10513C7E80C9E3FC6",
              "parts": {
                "total": "1",
                "hash": "54F998A9E15612166FEFAF9C56FBB8942033BA81"
              }
            },
            "signature": {
              "type": "tendermint/SignatureEd25519",
              "value": "p/CNutzNjbVuAIAm4OwwD3sFOIKIrGmT0MFK1m1nE44VBPP4v71FVSeXbVEzig2HwFRhUe5ST6DWGNTL1Nq6Cg=="
            }
          },
          {
            "validator_address": "28770D17E8530825E7310A0659308654B7EC9682",
            "validator_index": "15",
            "height": "44806",
            "round": "0",
            "timestamp": "2018-08-02T09:33:36.049900232Z",
            "type": 2,
            "block_id": {
              "hash": "1D6853A7D192F3318634EFB10513C7E80C9E3FC6",
              "parts": {
                "total": "1",
                "hash": "54F998A9E15612166FEFAF9C56FBB8942033BA81"
              }
            },
            "signature": {
              "type": "tendermint/SignatureEd25519",
              "value": "doS6pq9wTmc0mAE8c4j+uWS1KF/LLC75aSEQgTeqTScqrv/rQfQq5Dlt92Ztv8zpEIO8ijjlncKoGPM3trnPAA=="
            }
          },
          {
            "validator_address": "2A92EC3C642140202298D0E245095E0ECFC25228",
            "validator_index": "16",
            "height": "44806",
            "round": "0",
            "timestamp": "2018-08-02T09:33:36.21343657Z",
            "type": 2,
            "block_id": {
              "hash": "1D6853A7D192F3318634EFB10513C7E80C9E3FC6",
              "parts": {
                "total": "1",
                "hash": "54F998A9E15612166FEFAF9C56FBB8942033BA81"
              }
            },
            "signature": {
              "type": "tendermint/SignatureEd25519",
              "value": "g/jkqyIhHbClPMwpDQfFAds8l+T/dCD0rW+Yu/AEDVqOrKP0zRThUIxLgxL8d2HSo1WhHGgrMdpQ/vHsst1lBQ=="
            }
          },
          {
            "validator_address": "33412C9A69C60CB0FAA24A5C5B3A906DE24B47C2",
            "validator_index": "17",
            "height": "44806",
            "round": "0",
            "timestamp": "2018-08-02T09:33:36.049151161Z",
            "type": 2,
            "block_id": {
              "hash": "1D6853A7D192F3318634EFB10513C7E80C9E3FC6",
              "parts": {
                "total": "1",
                "hash": "54F998A9E15612166FEFAF9C56FBB8942033BA81"
              }
            },
            "signature": {
              "type": "tendermint/SignatureEd25519",
              "value": "j/YQFfMWeiRX8YL3AWIDZGGFHudn5PgpS7sgy/Xlixb6w3A6mrC0TtVsD+y++o1sWXo9pKXV4KO/BJlfSOOzCA=="
            }
          },
          {
            "validator_address": "36E9B7FAEC964F97D84C028ED62493E373AD0B38",
            "validator_index": "18",
            "height": "44806",
            "round": "0",
            "timestamp": "2018-08-02T09:33:36.120651061Z",
            "type": 2,
            "block_id": {
              "hash": "1D6853A7D192F3318634EFB10513C7E80C9E3FC6",
              "parts": {
                "total": "1",
                "hash": "54F998A9E15612166FEFAF9C56FBB8942033BA81"
              }
            },
            "signature": {
              "type": "tendermint/SignatureEd25519",
              "value": "ouIxL8L3U06sbvl2f0GOfx+GB+ivbiW1WlJJF4oXIDX+JR+0oEWHtl+eYmr5WM09UvhU7KG8dSrRlrQNnMdWCg=="
            }
          },
          {
            "validator_address": "38A8D85D36BEA2E5FCF8A1E778F53628E450EF13",
            "validator_index": "19",
            "height": "44806",
            "round": "0",
            "timestamp": "2018-08-02T09:33:36.310691553Z",
            "type": 2,
            "block_id": {
              "hash": "1D6853A7D192F3318634EFB10513C7E80C9E3FC6",
              "parts": {
                "total": "1",
                "hash": "54F998A9E15612166FEFAF9C56FBB8942033BA81"
              }
            },
            "signature": {
              "type": "tendermint/SignatureEd25519",
              "value": "psvuUdIesyDa5QYCgngFI7x/5mpaTDn5LZ4H+eNgtMA9TD0B3HMCyNHpCJmuYYwkCaZHRj7L8eeTnHHHD4cyBQ=="
            }
          },
          {
            "validator_address": "39DFDA0C5DB84B269642188B23253508537798E6",
            "validator_index": "20",
            "height": "44806",
            "round": "0",
            "timestamp": "2018-08-02T09:33:36.122545253Z",
            "type": 2,
            "block_id": {
              "hash": "1D6853A7D192F3318634EFB10513C7E80C9E3FC6",
              "parts": {
                "total": "1",
                "hash": "54F998A9E15612166FEFAF9C56FBB8942033BA81"
              }
            },
            "signature": {
              "type": "tendermint/SignatureEd25519",
              "value": "shsBYKRX4ZKMB5mqBhL97RYGk1Xedff3ITuK+6w+Na8YMdLDHdL6uRRgkiNizAVLmkgb/TOogUGThGY07/kDDQ=="
            }
          },
          {
            "validator_address": "3AC99B708404452366E0953A4BE849226DC86CBC",
            "validator_index": "21",
            "height": "44806",
            "round": "0",
            "timestamp": "2018-08-02T09:33:36.130290362Z",
            "type": 2,
            "block_id": {
              "hash": "1D6853A7D192F3318634EFB10513C7E80C9E3FC6",
              "parts": {
                "total": "1",
                "hash": "54F998A9E15612166FEFAF9C56FBB8942033BA81"
              }
            },
            "signature": {
              "type": "tendermint/SignatureEd25519",
              "value": "oI59lxpIhEu4a89kpTwNUh0gTKgBrbng0TeKN3Lo5pn5JIp7+ZxxzLWTiRMnLbLOfjIU3BRGQfWDrA0AwGhTCQ=="
            }
          },
          {
            "validator_address": "3DCB822A10ED319EC7C4393D8E3FD4A41B15AAF2",
            "validator_index": "22",
            "height": "44806",
            "round": "0",
            "timestamp": "2018-08-02T09:33:36.034333732Z",
            "type": 2,
            "block_id": {
              "hash": "1D6853A7D192F3318634EFB10513C7E80C9E3FC6",
              "parts": {
                "total": "1",
                "hash": "54F998A9E15612166FEFAF9C56FBB8942033BA81"
              }
            },
            "signature": {
              "type": "tendermint/SignatureEd25519",
              "value": "s/WMccCjH5L9PK4YljbVktlNe0LDuBmwcsTfw1bkLIUdtkbxkoBfoZf1B8Ss8klgxbtt5LpniTB8zUJw9NrcCQ=="
            }
          },
          {
            "validator_address": "3E899BA36A93C7370347BD5FE85909F2ECD93F8C",
            "validator_index": "23",
            "height": "44806",
            "round": "0",
            "timestamp": "2018-08-02T09:33:36.150546707Z",
            "type": 2,
            "block_id": {
              "hash": "1D6853A7D192F3318634EFB10513C7E80C9E3FC6",
              "parts": {
                "total": "1",
                "hash": "54F998A9E15612166FEFAF9C56FBB8942033BA81"
              }
            },
            "signature": {
              "type": "tendermint/SignatureEd25519",
              "value": "fOiPNrwPVZO44W/Io/YSUT9byC2R36dcYqSMzJ9aOXzABlHoOxdOCUvFzP0bIZPpO0sEnL1AnQDXsDcAmYXCDw=="
            }
          },
          {
            "validator_address": "41CAB2E29E7D0F2282E3275938F188FF9386B84C",
            "validator_index": "24",
            "height": "44806",
            "round": "0",
            "timestamp": "2018-08-02T09:33:36.129111615Z",
            "type": 2,
            "block_id": {
              "hash": "1D6853A7D192F3318634EFB10513C7E80C9E3FC6",
              "parts": {
                "total": "1",
                "hash": "54F998A9E15612166FEFAF9C56FBB8942033BA81"
              }
            },
            "signature": {
              "type": "tendermint/SignatureEd25519",
              "value": "/uvk5nCGBFyZd02i0jklDAqvY7/URbdj0h40w+KB02No+PxTazI9DkRNd1X+C41rJkm+qnUtuQVRI8Gw5Gm3BQ=="
            }
          },
          {
            "validator_address": "462B656869DB02A8FD1077E255F8CC7401DC37C6",
            "validator_index": "25",
            "height": "44806",
            "round": "0",
            "timestamp": "2018-08-02T09:33:36.040592781Z",
            "type": 2,
            "block_id": {
              "hash": "1D6853A7D192F3318634EFB10513C7E80C9E3FC6",
              "parts": {
                "total": "1",
                "hash": "54F998A9E15612166FEFAF9C56FBB8942033BA81"
              }
            },
            "signature": {
              "type": "tendermint/SignatureEd25519",
              "value": "r+aHpGoPM1CR0tYHFiGEARlt3U+08TAkCQIIld3wwf10/BlO/KfjgCUzp35Ag6g0GFJpWCgncAIPddtDy1v8CQ=="
            }
          },
          {
            "validator_address": "48E5118163E5442068A1B5A42D2EEDBB75724935",
            "validator_index": "26",
            "height": "44806",
            "round": "0",
            "timestamp": "2018-08-02T09:33:36.196380544Z",
            "type": 2,
            "block_id": {
              "hash": "1D6853A7D192F3318634EFB10513C7E80C9E3FC6",
              "parts": {
                "total": "1",
                "hash": "54F998A9E15612166FEFAF9C56FBB8942033BA81"
              }
            },
            "signature": {
              "type": "tendermint/SignatureEd25519",
              "value": "91fkhdaS4M4XWRahCk/l+TBEPpIfXA1LN4OumOR0jllOg4Le8XC87uE5pKhdWLhUTVnN7qPitAzWPkogR/usCg=="
            }
          },
          {
            "validator_address": "49103C58AFD9C7C069F55EBA218F3DFD9AEA74F9",
            "validator_index": "27",
            "height": "44806",
            "round": "0",
            "timestamp": "2018-08-02T09:33:36.111712166Z",
            "type": 2,
            "block_id": {
              "hash": "1D6853A7D192F3318634EFB10513C7E80C9E3FC6",
              "parts": {
                "total": "1",
                "hash": "54F998A9E15612166FEFAF9C56FBB8942033BA81"
              }
            },
            "signature": {
              "type": "tendermint/SignatureEd25519",
              "value": "D6mg3JHN/r7PC0RZZVFjRPz81lO3sZM+45EPOFp+xdUTFG2BO/mDjQx8LGR9Y7X31bx8X2XbtwWaUyZjOdsZBQ=="
            }
          },
          {
            "validator_address": "4944F8BBBB5303E17BC0607DF332320EDBC750EA",
            "validator_index": "28",
            "height": "44806",
            "round": "0",
            "timestamp": "2018-08-02T09:33:36.056050217Z",
            "type": 2,
            "block_id": {
              "hash": "1D6853A7D192F3318634EFB10513C7E80C9E3FC6",
              "parts": {
                "total": "1",
                "hash": "54F998A9E15612166FEFAF9C56FBB8942033BA81"
              }
            },
            "signature": {
              "type": "tendermint/SignatureEd25519",
              "value": "loRZ4ZQ4FgvG2+fWEZvqfxnB3Q7jTpm4VrCMz3GDSOg4CHtoyDRRRyaJpQyZI/cN8nQsNBHnSkPgqyCOrX/9DQ=="
            }
          },
          {
            "validator_address": "49841599DE675157CBE1E7D6B35BF8FFC23BD5CB",
            "validator_index": "29",
            "height": "44806",
            "round": "0",
            "timestamp": "2018-08-02T09:33:36.063591996Z",
            "type": 2,
            "block_id": {
              "hash": "1D6853A7D192F3318634EFB10513C7E80C9E3FC6",
              "parts": {
                "total": "1",
                "hash": "54F998A9E15612166FEFAF9C56FBB8942033BA81"
              }
            },
            "signature": {
              "type": "tendermint/SignatureEd25519",
              "value": "3RQVkkDEHOBI/qWiJrqH4o3mZ4UGqDBUllhAIUgDWTYzGTJL3VtL1YyJN+kbKondwhYXeagDtNK92prFq30sBA=="
            }
          },
          {
            "validator_address": "51386C2CF9556821D114D7E4945806802BADB28D",
            "validator_index": "30",
            "height": "44806",
            "round": "0",
            "timestamp": "2018-08-02T09:33:36.136224854Z",
            "type": 2,
            "block_id": {
              "hash": "1D6853A7D192F3318634EFB10513C7E80C9E3FC6",
              "parts": {
                "total": "1",
                "hash": "54F998A9E15612166FEFAF9C56FBB8942033BA81"
              }
            },
            "signature": {
              "type": "tendermint/SignatureEd25519",
              "value": "vMW9smt62HcHuvO63qU61Zj7ET/g46RymstYOVC6wl0L7JvTiyDoLBUzjJG90WsfmKDLjpYjzKRKWiZvyIr+DA=="
            }
          },
          {
            "validator_address": "543564ECA3AFEFADC73EE8591AAC3A96F079BC8A",
            "validator_index": "31",
            "height": "44806",
            "round": "0",
            "timestamp": "2018-08-02T09:33:36.103909574Z",
            "type": 2,
            "block_id": {
              "hash": "1D6853A7D192F3318634EFB10513C7E80C9E3FC6",
              "parts": {
                "total": "1",
                "hash": "54F998A9E15612166FEFAF9C56FBB8942033BA81"
              }
            },
            "signature": {
              "type": "tendermint/SignatureEd25519",
              "value": "GLHjRHOUCCe/c8m/LlUeoUfURmGlm+KFJrjp+AI1NaCPPcUctTb3cq0HY1T8DszHAcPLVU01MMbxe24AGvMfAg=="
            }
          },
          {
            "validator_address": "55D67B1A6DC13E96F8754A5A42EABC20F7F86664",
            "validator_index": "32",
            "height": "44806",
            "round": "0",
            "timestamp": "2018-08-02T09:33:36.035228826Z",
            "type": 2,
            "block_id": {
              "hash": "1D6853A7D192F3318634EFB10513C7E80C9E3FC6",
              "parts": {
                "total": "1",
                "hash": "54F998A9E15612166FEFAF9C56FBB8942033BA81"
              }
            },
            "signature": {
              "type": "tendermint/SignatureEd25519",
              "value": "ac2bB76L8XWEaDVPu6wdgJg785cYjbTln77zf8JTHCw5fm+7+mRoUlHy5j/DyFu76lqIKkhUJS1Np8Q2TdlGAA=="
            }
          },
          {
            "validator_address": "570B6A755ED339EAC56BB3390A48069F6AC9449B",
            "validator_index": "33",
            "height": "44806",
            "round": "0",
            "timestamp": "2018-08-02T09:33:45.52433516Z",
            "type": 2,
            "block_id": {
              "hash": "1D6853A7D192F3318634EFB10513C7E80C9E3FC6",
              "parts": {
                "total": "1",
                "hash": "54F998A9E15612166FEFAF9C56FBB8942033BA81"
              }
            },
            "signature": {
              "type": "tendermint/SignatureEd25519",
              "value": "H3zdmipwLg+jTk9P/lL4XYpA51rR7woiB8gFVRcpEpTrCdCbdPIs2Uk3jkG0nrWPOPBe5bbUhaEFjSngOIXUAA=="
            }
          },
          {
            "validator_address": "5BDF8EA41B1835FBAD865B181A2A4B23F511B5E4",
            "validator_index": "34",
            "height": "44806",
            "round": "0",
            "timestamp": "2018-08-02T09:33:36.025210112Z",
            "type": 2,
            "block_id": {
              "hash": "1D6853A7D192F3318634EFB10513C7E80C9E3FC6",
              "parts": {
                "total": "1",
                "hash": "54F998A9E15612166FEFAF9C56FBB8942033BA81"
              }
            },
            "signature": {
              "type": "tendermint/SignatureEd25519",
              "value": "7KtzeGAq4/bOeQN0tDHOjC8Gwt8mCTgLYSN8vW7Zp6DqFWvaux6bdhsIID3REb1MN2QG38k696j2xU6V9xNvAA=="
            }
          },
          {
            "validator_address": "60229E2E273297FE00219E46DFFB8F76844CDEF9",
            "validator_index": "35",
            "height": "44806",
            "round": "0",
            "timestamp": "2018-08-02T09:33:33.651485106Z",
            "type": 2,
            "block_id": {
              "hash": "1D6853A7D192F3318634EFB10513C7E80C9E3FC6",
              "parts": {
                "total": "1",
                "hash": "54F998A9E15612166FEFAF9C56FBB8942033BA81"
              }
            },
            "signature": {
              "type": "tendermint/SignatureEd25519",
              "value": "kMaxLljb1Vn1rBhZsZEl81PQlOQhz5CUMZ5AVsVGcJfjjdBH6AlCfyVUm5mSo2thGIniHyFtMFtRYddh7o9gDw=="
            }
          },
          {
            "validator_address": "62410D6D1CD98278136E4D0738AA0EA273CDFC54",
            "validator_index": "36",
            "height": "44806",
            "round": "0",
            "timestamp": "2018-08-02T09:33:36.024828817Z",
            "type": 2,
            "block_id": {
              "hash": "1D6853A7D192F3318634EFB10513C7E80C9E3FC6",
              "parts": {
                "total": "1",
                "hash": "54F998A9E15612166FEFAF9C56FBB8942033BA81"
              }
            },
            "signature": {
              "type": "tendermint/SignatureEd25519",
              "value": "0TK05btyCpKxcNVRpbitcufCywv5eeqJyKgUqDdt1nMAWPjfbTzqSrKgc3rOuCFoiyrL/1QbOfSjpGPvsNFwBg=="
            }
          },
          {
            "validator_address": "632F5C139A5A9DFBFE5111DEE29FCFB6157207DC",
            "validator_index": "37",
            "height": "44806",
            "round": "0",
            "timestamp": "2018-08-02T09:33:36.086254945Z",
            "type": 2,
            "block_id": {
              "hash": "1D6853A7D192F3318634EFB10513C7E80C9E3FC6",
              "parts": {
                "total": "1",
                "hash": "54F998A9E15612166FEFAF9C56FBB8942033BA81"
              }
            },
            "signature": {
              "type": "tendermint/SignatureEd25519",
              "value": "MfAaQykFYS152qxzguwmXbsTF+cTG1iPCgQ8U5VQBT2x1QDTAFUY3xf4n6uWjs31VLdRWfgubAvpdk3q/5vbAw=="
            }
          },
          {
            "validator_address": "64F57F8E796A9B7B590C1EFA4123988C86631D39",
            "validator_index": "38",
            "height": "44806",
            "round": "0",
            "timestamp": "2018-08-02T09:33:36.025063836Z",
            "type": 2,
            "block_id": {
              "hash": "1D6853A7D192F3318634EFB10513C7E80C9E3FC6",
              "parts": {
                "total": "1",
                "hash": "54F998A9E15612166FEFAF9C56FBB8942033BA81"
              }
            },
            "signature": {
              "type": "tendermint/SignatureEd25519",
              "value": "w0RTVJvS/c50PoHdL2CsIwlMQckxtxitvO8ZqY5zT6s9/HUlQjXb5OEEP3xDJ54aS3Ccs0Vtf42khW3+EyYIAw=="
            }
          },
          {
            "validator_address": "69D99B2C66043ACBEAA8447525C356AFC6408E0C",
            "validator_index": "39",
            "height": "44806",
            "round": "0",
            "timestamp": "2018-08-02T09:33:36.218161561Z",
            "type": 2,
            "block_id": {
              "hash": "1D6853A7D192F3318634EFB10513C7E80C9E3FC6",
              "parts": {
                "total": "1",
                "hash": "54F998A9E15612166FEFAF9C56FBB8942033BA81"
              }
            },
            "signature": {
              "type": "tendermint/SignatureEd25519",
              "value": "D7LuyInHvvEbNfg3yT58D1IWU+70XkbHOk88qySpGTq8+SEne5bSEkMucdyzFKzs/a66iFbG3hApTSkm6IBODg=="
            }
          },
          {
            "validator_address": "69EDADFA4A803E9DBF548C900D4A465E7D154262",
            "validator_index": "40",
            "height": "44806",
            "round": "0",
            "timestamp": "2018-08-02T09:33:36.24552178Z",
            "type": 2,
            "block_id": {
              "hash": "1D6853A7D192F3318634EFB10513C7E80C9E3FC6",
              "parts": {
                "total": "1",
                "hash": "54F998A9E15612166FEFAF9C56FBB8942033BA81"
              }
            },
            "signature": {
              "type": "tendermint/SignatureEd25519",
              "value": "YZYB1XbFcuwMmHAgk4udZ1IsCowDW/lXtWPcgLHdc2ripzwC5A0owtedI5StKCr7hvjvpjf7kcDXEZZoDKAICQ=="
            }
          },
          {
            "validator_address": "6D3AD380E398D8592B03AA124BAFED5F125DF863",
            "validator_index": "41",
            "height": "44806",
            "round": "0",
            "timestamp": "2018-08-02T09:32:33.394027575Z",
            "type": 2,
            "block_id": {
              "hash": "1D6853A7D192F3318634EFB10513C7E80C9E3FC6",
              "parts": {
                "total": "1",
                "hash": "54F998A9E15612166FEFAF9C56FBB8942033BA81"
              }
            },
            "signature": {
              "type": "tendermint/SignatureEd25519",
              "value": "Pj5JWXuLhvs0JYFpj+cT3Q/5ED6h1aOUfILI5jJ1k6ERiu414l3rhDeS8lH072PegOd6hCRpJ8E0T9iAGPLKBA=="
            }
          },
          {
            "validator_address": "6F6C93B8BF3495063FEC9B5C771158607F4AE9D6",
            "validator_index": "42",
            "height": "44806",
            "round": "0",
            "timestamp": "2018-08-02T09:33:36.253809812Z",
            "type": 2,
            "block_id": {
              "hash": "1D6853A7D192F3318634EFB10513C7E80C9E3FC6",
              "parts": {
                "total": "1",
                "hash": "54F998A9E15612166FEFAF9C56FBB8942033BA81"
              }
            },
            "signature": {
              "type": "tendermint/SignatureEd25519",
              "value": "qXvXFAV6JwFoy3BeNdiUUj73ESCZbqyHxK2R+YzUD0EzWmphfqFgLfP5MNld8m0EBbGvCR4kvpQVy3SkxqK6DQ=="
            }
          },
          {
            "validator_address": "732CEEF54C374DDC6ADECBFD707AEFD07FEDC143",
            "validator_index": "43",
            "height": "44806",
            "round": "0",
            "timestamp": "2018-08-02T09:33:36.229944322Z",
            "type": 2,
            "block_id": {
              "hash": "1D6853A7D192F3318634EFB10513C7E80C9E3FC6",
              "parts": {
                "total": "1",
                "hash": "54F998A9E15612166FEFAF9C56FBB8942033BA81"
              }
            },
            "signature": {
              "type": "tendermint/SignatureEd25519",
              "value": "bhqATYFS/RGz6iveqkTLLH4gZc2NRgK6wAdg8zMnI8L4Uf+608rXYCqcvLZSFOpoIV6oIpnVyhz9SHnDaUDbCg=="
            }
          },
          {
            "validator_address": "751E43437224E8BB6D1569B3E2B2616B6E7F4397",
            "validator_index": "44",
            "height": "44806",
            "round": "0",
            "timestamp": "2018-08-02T09:33:36.105366131Z",
            "type": 2,
            "block_id": {
              "hash": "1D6853A7D192F3318634EFB10513C7E80C9E3FC6",
              "parts": {
                "total": "1",
                "hash": "54F998A9E15612166FEFAF9C56FBB8942033BA81"
              }
            },
            "signature": {
              "type": "tendermint/SignatureEd25519",
              "value": "Fi6xoItK15KlSOlURsfXJbSovdlGSqb0zt8uhcK2u+60/6ZewVLlwQ5qQUQW+/vz6cSiYGtdH/Rx+oAdmkUkAg=="
            }
          },
          {
            "validator_address": "7EB7593F519F1180C7E872D0494611464EDF03AE",
            "validator_index": "45",
            "height": "44806",
            "round": "0",
            "timestamp": "2018-08-02T09:33:36.30661961Z",
            "type": 2,
            "block_id": {
              "hash": "1D6853A7D192F3318634EFB10513C7E80C9E3FC6",
              "parts": {
                "total": "1",
                "hash": "54F998A9E15612166FEFAF9C56FBB8942033BA81"
              }
            },
            "signature": {
              "type": "tendermint/SignatureEd25519",
              "value": "iKLJcUOIdreNL8/mPKKZkXYmsOh+eJT6ijExWoqfwEZrk/nfNjI4dciUw9gppLVDAeCRVww2JDkC055a0J/OBg=="
            }
          },
          {
            "validator_address": "8356899C8853BC6640D76F76E59743FFEEA57B81",
            "validator_index": "46",
            "height": "44806",
            "round": "0",
            "timestamp": "2018-08-02T09:33:36.115857189Z",
            "type": 2,
            "block_id": {
              "hash": "1D6853A7D192F3318634EFB10513C7E80C9E3FC6",
              "parts": {
                "total": "1",
                "hash": "54F998A9E15612166FEFAF9C56FBB8942033BA81"
              }
            },
            "signature": {
              "type": "tendermint/SignatureEd25519",
              "value": "318hwCcr9W4OYMnKt/39W+Ni4tlAjopU6TN9rXjP2Vb45KAr0UpwfEK+H27te75Kkbr8bFYIbWGxyzeEX6HTAQ=="
            }
          },
          {
            "validator_address": "83AB321E012C57746689FED3A6064DF331F81007",
            "validator_index": "47",
            "height": "44806",
            "round": "0",
            "timestamp": "2018-08-02T09:33:36.068932945Z",
            "type": 2,
            "block_id": {
              "hash": "1D6853A7D192F3318634EFB10513C7E80C9E3FC6",
              "parts": {
                "total": "1",
                "hash": "54F998A9E15612166FEFAF9C56FBB8942033BA81"
              }
            },
            "signature": {
              "type": "tendermint/SignatureEd25519",
              "value": "mPuAvjIZCa9MDD8QnlhUUw3YYFR3HWlfAj2wvaVK6YPLwykfvnQpiRy2QNLHfDOhDlqBlVvtasxTckdOW5IIDQ=="
            }
          },
          {
            "validator_address": "83BB1B88D3DBB20AD845FECA07749EBD87D3754D",
            "validator_index": "48",
            "height": "44806",
            "round": "0",
            "timestamp": "2018-08-02T09:33:36.306729306Z",
            "type": 2,
            "block_id": {
              "hash": "1D6853A7D192F3318634EFB10513C7E80C9E3FC6",
              "parts": {
                "total": "1",
                "hash": "54F998A9E15612166FEFAF9C56FBB8942033BA81"
              }
            },
            "signature": {
              "type": "tendermint/SignatureEd25519",
              "value": "fJYcpTXIgCqNoPRiRAslFtzr/YgOQgwA57pnf7KoHduio7cGrQGHQXFrieaA9GrLh+3HwtMQ8CumZ421tSJNBA=="
            }
          },
          {
            "validator_address": "8F06FE1FD042683C426137FBC4BBAA4288924217",
            "validator_index": "49",
            "height": "44806",
            "round": "0",
            "timestamp": "2018-08-02T09:33:36.116045972Z",
            "type": 2,
            "block_id": {
              "hash": "1D6853A7D192F3318634EFB10513C7E80C9E3FC6",
              "parts": {
                "total": "1",
                "hash": "54F998A9E15612166FEFAF9C56FBB8942033BA81"
              }
            },
            "signature": {
              "type": "tendermint/SignatureEd25519",
              "value": "IiJRnfSLkzofbTaOA0IutT9j1Qp9AtNzCMd2g5K3cJIYxphajir7ork/ohwTOcM1eC7iTMvu8PJpEZGhE+AmAQ=="
            }
          },
          null,
          {
            "validator_address": "95980831E186F2540F6E9FB6C8E74DE2401405AC",
            "validator_index": "51",
            "height": "44806",
            "round": "0",
            "timestamp": "2018-08-02T09:33:36.180556638Z",
            "type": 2,
            "block_id": {
              "hash": "1D6853A7D192F3318634EFB10513C7E80C9E3FC6",
              "parts": {
                "total": "1",
                "hash": "54F998A9E15612166FEFAF9C56FBB8942033BA81"
              }
            },
            "signature": {
              "type": "tendermint/SignatureEd25519",
              "value": "VoSm66si5UzWgktb/5spMzKf6EQFxYMXv0PdVL9p/NhRiJnAGazOUzSFMynSulGHBB4qFQ1R9gRczQdXmCWNBQ=="
            }
          },
          {
            "validator_address": "95FAFBC1E0579C83D290A063020CE87C5334BD9B",
            "validator_index": "52",
            "height": "44806",
            "round": "0",
            "timestamp": "2018-08-02T09:33:36.11178912Z",
            "type": 2,
            "block_id": {
              "hash": "1D6853A7D192F3318634EFB10513C7E80C9E3FC6",
              "parts": {
                "total": "1",
                "hash": "54F998A9E15612166FEFAF9C56FBB8942033BA81"
              }
            },
            "signature": {
              "type": "tendermint/SignatureEd25519",
              "value": "k4L9XXXhWkBG1k4EDNkfawW+psb3W4ThRuB6p87Jfigo6l/dtrxoJgxATuVBzzJohMSWnq/wolAOyC7M1lYmDQ=="
            }
          },
          {
            "validator_address": "96BDE45EC52606CF5CB59853097871AD60680549",
            "validator_index": "53",
            "height": "44806",
            "round": "0",
            "timestamp": "2018-08-02T09:33:36.081511487Z",
            "type": 2,
            "block_id": {
              "hash": "1D6853A7D192F3318634EFB10513C7E80C9E3FC6",
              "parts": {
                "total": "1",
                "hash": "54F998A9E15612166FEFAF9C56FBB8942033BA81"
              }
            },
            "signature": {
              "type": "tendermint/SignatureEd25519",
              "value": "MU7qpMPrqXhHT+9QvymhJSss17Gfqa9DU0KT1lKsB35G25pZs5Vaswe3G/r3qONAvGmQ42nVNiw2jIQJjQK4AQ=="
            }
          },
          {
            "validator_address": "970CD321881185BF83DB2923C321B0E75FDBB2B8",
            "validator_index": "54",
            "height": "44806",
            "round": "0",
            "timestamp": "2018-08-02T09:33:36.141091822Z",
            "type": 2,
            "block_id": {
              "hash": "1D6853A7D192F3318634EFB10513C7E80C9E3FC6",
              "parts": {
                "total": "1",
                "hash": "54F998A9E15612166FEFAF9C56FBB8942033BA81"
              }
            },
            "signature": {
              "type": "tendermint/SignatureEd25519",
              "value": "tDNAjFT+HYzdSQmiTfxVvBTDj+6Lekj41fr08IJ/4OK2bA3Wt1nhKZUvMnVUW5LEyaKgzjd14vJs87SC/MxVAw=="
            }
          },
          {
            "validator_address": "97DBB3D4B3D6C29287244864448F651DD5B07390",
            "validator_index": "55",
            "height": "44806",
            "round": "0",
            "timestamp": "2018-08-02T09:33:36.186005826Z",
            "type": 2,
            "block_id": {
              "hash": "1D6853A7D192F3318634EFB10513C7E80C9E3FC6",
              "parts": {
                "total": "1",
                "hash": "54F998A9E15612166FEFAF9C56FBB8942033BA81"
              }
            },
            "signature": {
              "type": "tendermint/SignatureEd25519",
              "value": "NgKNYmf+FyN3L8GCCHTP1arlKhDDwlycG1GvjjsQhFKhmurO7YmGg/H3/tMia/CKdiZt3kGXKro1OlwB2jmbAQ=="
            }
          },
          {
            "validator_address": "9C29C9B76D27586E4D9AD2AED0E943162645E55C",
            "validator_index": "56",
            "height": "44806",
            "round": "0",
            "timestamp": "2018-08-02T09:33:36.086699231Z",
            "type": 2,
            "block_id": {
              "hash": "1D6853A7D192F3318634EFB10513C7E80C9E3FC6",
              "parts": {
                "total": "1",
                "hash": "54F998A9E15612166FEFAF9C56FBB8942033BA81"
              }
            },
            "signature": {
              "type": "tendermint/SignatureEd25519",
              "value": "KpeO5K12eDsGO+aoVFxXjfjHO5RX/kmVa3bxPOUs5e5L8VcIeM331oM6uuPES+uezMswYO5Zyw8/yZBrJ3eSCg=="
            }
          },
          {
            "validator_address": "9D93AD02FE1BD7E76B9E58D7EB461088EAD011E5",
            "validator_index": "57",
            "height": "44806",
            "round": "0",
            "timestamp": "2018-08-02T09:33:36.083825284Z",
            "type": 2,
            "block_id": {
              "hash": "1D6853A7D192F3318634EFB10513C7E80C9E3FC6",
              "parts": {
                "total": "1",
                "hash": "54F998A9E15612166FEFAF9C56FBB8942033BA81"
              }
            },
            "signature": {
              "type": "tendermint/SignatureEd25519",
              "value": "5IYYbvV/kbsFdh+rEtNW7lIgMcS9ByClxmca31Uy6DfmeB/VEobhscO/voq49pLlFXJljjBOnAT1aRHBXr59Aw=="
            }
          },
          {
            "validator_address": "A0A6466F4ABEA09C3B55E3709AFDE217A103209F",
            "validator_index": "58",
            "height": "44806",
            "round": "0",
            "timestamp": "2018-08-02T09:33:36.051289059Z",
            "type": 2,
            "block_id": {
              "hash": "1D6853A7D192F3318634EFB10513C7E80C9E3FC6",
              "parts": {
                "total": "1",
                "hash": "54F998A9E15612166FEFAF9C56FBB8942033BA81"
              }
            },
            "signature": {
              "type": "tendermint/SignatureEd25519",
              "value": "HhHI1EqFDXMKmGwGqtaSjc/661zqwx/q6f6mQSlsbkidlJwVK5dBr33yrrHm3UEV/eE+yMmdePruZLQxTuGcAQ=="
            }
          },
          {
            "validator_address": "A5868971300F155020634D7BB49C7634F7AACCD3",
            "validator_index": "59",
            "height": "44806",
            "round": "0",
            "timestamp": "2018-08-02T09:33:36.065397003Z",
            "type": 2,
            "block_id": {
              "hash": "1D6853A7D192F3318634EFB10513C7E80C9E3FC6",
              "parts": {
                "total": "1",
                "hash": "54F998A9E15612166FEFAF9C56FBB8942033BA81"
              }
            },
            "signature": {
              "type": "tendermint/SignatureEd25519",
              "value": "CK7kb1OYcWrK8/SzW3vw0tKKKN6nSjr9FDCB89/NLvcuiYAmYZiQcU0tgbf+7HvxJ5N0vCuL0Byzxi+ecMXYDQ=="
            }
          },
          {
            "validator_address": "A6B3A5B5D982CFD7B5FDFA15CF5A720E7AE25E7F",
            "validator_index": "60",
            "height": "44806",
            "round": "0",
            "timestamp": "2018-08-02T09:33:36.466041914Z",
            "type": 2,
            "block_id": {
              "hash": "1D6853A7D192F3318634EFB10513C7E80C9E3FC6",
              "parts": {
                "total": "1",
                "hash": "54F998A9E15612166FEFAF9C56FBB8942033BA81"
              }
            },
            "signature": {
              "type": "tendermint/SignatureEd25519",
              "value": "XWRIZFaUupKgiB8xE8FLgjwRAl/hCbEP3vFQwRRD5JxkuVslYS8bxvvz6Z1rBaQaePjdtKshqno8DYL4U+FAAw=="
            }
          },
          {
            "validator_address": "AC96444A9083890B7C7B430DB17BF1D3EA5EED04",
            "validator_index": "61",
            "height": "44806",
            "round": "0",
            "timestamp": "2018-08-02T09:33:36.175050537Z",
            "type": 2,
            "block_id": {
              "hash": "1D6853A7D192F3318634EFB10513C7E80C9E3FC6",
              "parts": {
                "total": "1",
                "hash": "54F998A9E15612166FEFAF9C56FBB8942033BA81"
              }
            },
            "signature": {
              "type": "tendermint/SignatureEd25519",
              "value": "s87BhLKPZ2TN045j26f5nmD238QDC9ddB3V7qKqUYF5vr0UeT61Hf64sjvJDyBh6rWGu+Nm7RqWGFNRdFgy5AA=="
            }
          },
          {
            "validator_address": "ACB97FDA2D940AF0709B73537C458EB988AD2893",
            "validator_index": "62",
            "height": "44806",
            "round": "0",
            "timestamp": "2018-08-02T09:33:36.027044645Z",
            "type": 2,
            "block_id": {
              "hash": "1D6853A7D192F3318634EFB10513C7E80C9E3FC6",
              "parts": {
                "total": "1",
                "hash": "54F998A9E15612166FEFAF9C56FBB8942033BA81"
              }
            },
            "signature": {
              "type": "tendermint/SignatureEd25519",
              "value": "1g/CHSmd89cjLWkinPZ03gDIGvLcWEiOqIlfoUg3c+BbjV6a3FI7BRP2Vk2QYY4LwwYCsUlE7OTHJRKArHfaAA=="
            }
          },
          {
            "validator_address": "B197425B3210375F211661DE02EF2AE36580EB0F",
            "validator_index": "63",
            "height": "44806",
            "round": "0",
            "timestamp": "2018-08-02T09:33:36.08833156Z",
            "type": 2,
            "block_id": {
              "hash": "1D6853A7D192F3318634EFB10513C7E80C9E3FC6",
              "parts": {
                "total": "1",
                "hash": "54F998A9E15612166FEFAF9C56FBB8942033BA81"
              }
            },
            "signature": {
              "type": "tendermint/SignatureEd25519",
              "value": "Um1XVkbtgczCvskbKHqG+ymtaN8c0Ci6fCBLY4KmX+N0gnetvm8GYHSj7zg0lKDmFl8+UX8JGryiPD+yekS1Dg=="
            }
          },
          {
            "validator_address": "B45E54D2D1CB5A4CCD1D49016608C18E7C56B270",
            "validator_index": "64",
            "height": "44806",
            "round": "0",
            "timestamp": "2018-08-02T09:33:36.219791118Z",
            "type": 2,
            "block_id": {
              "hash": "1D6853A7D192F3318634EFB10513C7E80C9E3FC6",
              "parts": {
                "total": "1",
                "hash": "54F998A9E15612166FEFAF9C56FBB8942033BA81"
              }
            },
            "signature": {
              "type": "tendermint/SignatureEd25519",
              "value": "q0qqyXY7qgUCpFppK0sUyecylK+GxthHd1sm0TI5aKzupqlIw9g7oXRxKdj2+Gq5Qqgf/BthUwJ93WetJQREAg=="
            }
          },
          {
            "validator_address": "BB1276BE89834835428664408917649FEEF5D90C",
            "validator_index": "65",
            "height": "44806",
            "round": "0",
            "timestamp": "2018-08-02T09:33:36.181594023Z",
            "type": 2,
            "block_id": {
              "hash": "1D6853A7D192F3318634EFB10513C7E80C9E3FC6",
              "parts": {
                "total": "1",
                "hash": "54F998A9E15612166FEFAF9C56FBB8942033BA81"
              }
            },
            "signature": {
              "type": "tendermint/SignatureEd25519",
              "value": "7j/W5xUI9ONR9IHb073f2clev+q1QiGM5C6g9lLrSqSL+0CRuH4zN1XnBtTqVIYt3ATlCSqeaSNPchKJ+jgLBw=="
            }
          },
          {
            "validator_address": "BC36FEDD6EF6071118A3E51859DF3831A2EC4782",
            "validator_index": "66",
            "height": "44806",
            "round": "0",
            "timestamp": "2018-08-02T09:33:36.080710293Z",
            "type": 2,
            "block_id": {
              "hash": "1D6853A7D192F3318634EFB10513C7E80C9E3FC6",
              "parts": {
                "total": "1",
                "hash": "54F998A9E15612166FEFAF9C56FBB8942033BA81"
              }
            },
            "signature": {
              "type": "tendermint/SignatureEd25519",
              "value": "rfzEF4uyQBzhVc9vJJ+3ffbdil3Vp376z3j49z11FHHHfOyux2p8JV2WmJr0omADLDEjb0J6mXHwmRTW5SevDA=="
            }
          },
          {
            "validator_address": "BD9D0DA513BF099DB4BB6E725A4E19832789882F",
            "validator_index": "67",
            "height": "44806",
            "round": "0",
            "timestamp": "2018-08-02T09:33:36.11832319Z",
            "type": 2,
            "block_id": {
              "hash": "1D6853A7D192F3318634EFB10513C7E80C9E3FC6",
              "parts": {
                "total": "1",
                "hash": "54F998A9E15612166FEFAF9C56FBB8942033BA81"
              }
            },
            "signature": {
              "type": "tendermint/SignatureEd25519",
              "value": "iKyS19rnSqps5kZTc19JJeFOjGinwsSgSwun/Zq4hNHVCY6k49SQ0evQYYjJVCN+Sqe/c1sFo6BYvh8QP/uRAg=="
            }
          },
          {
            "validator_address": "C1134A2FF8F7338E7CDB3FE57DDD2A655DEB1E22",
            "validator_index": "68",
            "height": "44806",
            "round": "0",
            "timestamp": "2018-08-02T09:33:35.731791751Z",
            "type": 2,
            "block_id": {
              "hash": "1D6853A7D192F3318634EFB10513C7E80C9E3FC6",
              "parts": {
                "total": "1",
                "hash": "54F998A9E15612166FEFAF9C56FBB8942033BA81"
              }
            },
            "signature": {
              "type": "tendermint/SignatureEd25519",
              "value": "0RBYV0soBhzxEv1O+8KF/5LQKAsYs8HFV6x8t93bqzPnyMPHMWEmlAvdsA89bH0hie91QdDFMZgnOoLpZ31SAQ=="
            }
          },
          {
            "validator_address": "C39A8A2B85198DCB8F23AD1F6C198E2BA7AB5D60",
            "validator_index": "69",
            "height": "44806",
            "round": "0",
            "timestamp": "2018-08-02T09:33:36.035596595Z",
            "type": 2,
            "block_id": {
              "hash": "1D6853A7D192F3318634EFB10513C7E80C9E3FC6",
              "parts": {
                "total": "1",
                "hash": "54F998A9E15612166FEFAF9C56FBB8942033BA81"
              }
            },
            "signature": {
              "type": "tendermint/SignatureEd25519",
              "value": "lfeeCdHqtnrltUtvkm15TEBwuVD3ybZMpTWRa46rX/Tp9GIKQYG7HBAN94lIVfwGDoTieeCz7DxUwJfxhfboDA=="
            }
          },
          {
            "validator_address": "C4335190C3B5BD4BA5568BC0F99C34162D940D08",
            "validator_index": "70",
            "height": "44806",
            "round": "0",
            "timestamp": "2018-08-02T09:33:36.14693269Z",
            "type": 2,
            "block_id": {
              "hash": "1D6853A7D192F3318634EFB10513C7E80C9E3FC6",
              "parts": {
                "total": "1",
                "hash": "54F998A9E15612166FEFAF9C56FBB8942033BA81"
              }
            },
            "signature": {
              "type": "tendermint/SignatureEd25519",
              "value": "f+ecjns7mn+aeEVyMamSusdQdKHT1MMEdVXsxZReB0vaq4DHf/3hKgCwthFllHvm0pI14fESTUPXTZhp+7S8AQ=="
            }
          },
          {
            "validator_address": "C561CFA081677046376396922E7576E5F7B316AD",
            "validator_index": "71",
            "height": "44806",
            "round": "0",
            "timestamp": "2018-08-02T09:33:36.194285906Z",
            "type": 2,
            "block_id": {
              "hash": "1D6853A7D192F3318634EFB10513C7E80C9E3FC6",
              "parts": {
                "total": "1",
                "hash": "54F998A9E15612166FEFAF9C56FBB8942033BA81"
              }
            },
            "signature": {
              "type": "tendermint/SignatureEd25519",
              "value": "pmbBczriELTo6n5XD38rVXUi/QnkU2iEDd0TMbYVL7mEyMq3b1snU3uIJ2cCKDFdGqxTFMUF8VW2zIaTC56DDA=="
            }
          },
          {
            "validator_address": "CE589EA77B056D268D30D1DC1D68A70E0F885E95",
            "validator_index": "72",
            "height": "44806",
            "round": "0",
            "timestamp": "2018-08-02T09:33:36.162046634Z",
            "type": 2,
            "block_id": {
              "hash": "1D6853A7D192F3318634EFB10513C7E80C9E3FC6",
              "parts": {
                "total": "1",
                "hash": "54F998A9E15612166FEFAF9C56FBB8942033BA81"
              }
            },
            "signature": {
              "type": "tendermint/SignatureEd25519",
              "value": "yK/q7VpWMJfGR1zfVnxrkWeBGVtwwetKXySju5qhBah+DjbGM7BUDYBlHmVWiSlYJsivm0tq2MLwCEQtqYXnBQ=="
            }
          },
          {
            "validator_address": "CEB97DB5CB18270247ABDE6CF2F84F9AEE8A2904",
            "validator_index": "73",
            "height": "44806",
            "round": "0",
            "timestamp": "2018-08-02T09:33:37.166745203Z",
            "type": 2,
            "block_id": {
              "hash": "1D6853A7D192F3318634EFB10513C7E80C9E3FC6",
              "parts": {
                "total": "1",
                "hash": "54F998A9E15612166FEFAF9C56FBB8942033BA81"
              }
            },
            "signature": {
              "type": "tendermint/SignatureEd25519",
              "value": "BlznS1a2F1TlTJsHu46PJ212XLqq/XpBFBThzSu5suaRkAeRiHH60KaZ8Gq/2jRyPj1ytwpByA13QXPqOMTnAw=="
            }
          },
          {
            "validator_address": "D2134B826A1E25A955905CB79A4D8731CAFA0CCE",
            "validator_index": "74",
            "height": "44806",
            "round": "0",
            "timestamp": "2018-08-02T09:33:36.245977779Z",
            "type": 2,
            "block_id": {
              "hash": "1D6853A7D192F3318634EFB10513C7E80C9E3FC6",
              "parts": {
                "total": "1",
                "hash": "54F998A9E15612166FEFAF9C56FBB8942033BA81"
              }
            },
            "signature": {
              "type": "tendermint/SignatureEd25519",
              "value": "8oWvDm9eAodU6zS9xvrErqRsHjgmo8TNir1axJtd346x72OnpBZ5R0t6A6KtGMztz6V/Ib+2M79XOx1BCNyjCQ=="
            }
          },
          {
            "validator_address": "D6285C3422C8886445D53757CBE12D2B91B5A9D0",
            "validator_index": "75",
            "height": "44806",
            "round": "0",
            "timestamp": "2018-08-02T09:33:19.410017277Z",
            "type": 2,
            "block_id": {
              "hash": "1D6853A7D192F3318634EFB10513C7E80C9E3FC6",
              "parts": {
                "total": "1",
                "hash": "54F998A9E15612166FEFAF9C56FBB8942033BA81"
              }
            },
            "signature": {
              "type": "tendermint/SignatureEd25519",
              "value": "Vf3WmWm7Z6pXlVhKt95y80lMKkSpozOycpKLiJ0WJ1ja6t0OIE96RrpRi81CP12xLncTud79CCqcEcjp7Q5FDA=="
            }
          },
          {
            "validator_address": "D77FB84A729972CD3E757C9BEB61561855832B92",
            "validator_index": "76",
            "height": "44806",
            "round": "0",
            "timestamp": "2018-08-02T09:33:36.132388304Z",
            "type": 2,
            "block_id": {
              "hash": "1D6853A7D192F3318634EFB10513C7E80C9E3FC6",
              "parts": {
                "total": "1",
                "hash": "54F998A9E15612166FEFAF9C56FBB8942033BA81"
              }
            },
            "signature": {
              "type": "tendermint/SignatureEd25519",
              "value": "gJSb9B8rSTfK6b7SVQbtA8Nt3mEksKNpmUT0F7vSnmlLpRR8TPGTQQlVbHR0NmE397n2AmHzGEpCJ0VEU65OCw=="
            }
          },
          {
            "validator_address": "DB7E6732471D3EA5C90C17A9974D9F88AB45F2FB",
            "validator_index": "77",
            "height": "44806",
            "round": "0",
            "timestamp": "2018-08-02T09:33:36.088122429Z",
            "type": 2,
            "block_id": {
              "hash": "1D6853A7D192F3318634EFB10513C7E80C9E3FC6",
              "parts": {
                "total": "1",
                "hash": "54F998A9E15612166FEFAF9C56FBB8942033BA81"
              }
            },
            "signature": {
              "type": "tendermint/SignatureEd25519",
              "value": "ZOpTayA2Sr0ZrvEZOptCU9RGT47QevN99uIBhgztwxkA8UA+wbseb7y2Nh2Jjdp4sCTNthEMMpbvg5F/POsICQ=="
            }
          },
          {
            "validator_address": "DF54B862410BCD9B5C516FBB6C56BDC826ED6FA7",
            "validator_index": "78",
            "height": "44806",
            "round": "0",
            "timestamp": "2018-08-02T09:33:36.277895072Z",
            "type": 2,
            "block_id": {
              "hash": "1D6853A7D192F3318634EFB10513C7E80C9E3FC6",
              "parts": {
                "total": "1",
                "hash": "54F998A9E15612166FEFAF9C56FBB8942033BA81"
              }
            },
            "signature": {
              "type": "tendermint/SignatureEd25519",
              "value": "oL4UG+Zh9jo99IO8xvDhQjB9jUP84nnLEQ+N8bGLQzOnTh+R3wDqMkRLltdJW5b5InB5aJacIIxgK8kPpX6wDw=="
            }
          },
          {
            "validator_address": "DFAF0C8B1B78D6D552B0189DE3ACA351439A1319",
            "validator_index": "79",
            "height": "44806",
            "round": "0",
            "timestamp": "2018-08-02T09:33:36.101573913Z",
            "type": 2,
            "block_id": {
              "hash": "1D6853A7D192F3318634EFB10513C7E80C9E3FC6",
              "parts": {
                "total": "1",
                "hash": "54F998A9E15612166FEFAF9C56FBB8942033BA81"
              }
            },
            "signature": {
              "type": "tendermint/SignatureEd25519",
              "value": "71lW6SvyQm3j0M6lhMghYFdd4Y5fzqCZ16puIi4uTUhpBWWbLtt7ODGU82yxyFAzCfOEW9AFDJZBSJhgbsx7BA=="
            }
          },
          {
            "validator_address": "E1DBC77881161A5A3A8536A57536EAE546A75D69",
            "validator_index": "80",
            "height": "44806",
            "round": "0",
            "timestamp": "2018-08-02T09:33:36.034994452Z",
            "type": 2,
            "block_id": {
              "hash": "1D6853A7D192F3318634EFB10513C7E80C9E3FC6",
              "parts": {
                "total": "1",
                "hash": "54F998A9E15612166FEFAF9C56FBB8942033BA81"
              }
            },
            "signature": {
              "type": "tendermint/SignatureEd25519",
              "value": "3lBvyNwNfn/wruBbM/o5f0sV/Du/CmYw8pkDMhRW8s73euLDs8dsbEYbnMTpIngZUqbSoTGmqQUGkch5Bv81CA=="
            }
          },
          {
            "validator_address": "E300E9D484374C1D3E97C1D93CAC3B160A056298",
            "validator_index": "81",
            "height": "44806",
            "round": "0",
            "timestamp": "2018-08-02T09:33:36.304799259Z",
            "type": 2,
            "block_id": {
              "hash": "1D6853A7D192F3318634EFB10513C7E80C9E3FC6",
              "parts": {
                "total": "1",
                "hash": "54F998A9E15612166FEFAF9C56FBB8942033BA81"
              }
            },
            "signature": {
              "type": "tendermint/SignatureEd25519",
              "value": "9yrrPMyIqgECHp4vp0lVImC9sVwWlQgTGiJ6Jpano0ExjSe1bEKbTUEQPs+w6iprcidkj4l5wlb4UxLbkjV1Bw=="
            }
          },
          {
            "validator_address": "E39B5778E0D4297A46F45CF6940B0A163A430FF8",
            "validator_index": "82",
            "height": "44806",
            "round": "0",
            "timestamp": "2018-08-02T09:33:36.110624683Z",
            "type": 2,
            "block_id": {
              "hash": "1D6853A7D192F3318634EFB10513C7E80C9E3FC6",
              "parts": {
                "total": "1",
                "hash": "54F998A9E15612166FEFAF9C56FBB8942033BA81"
              }
            },
            "signature": {
              "type": "tendermint/SignatureEd25519",
              "value": "6wW1lA1FFkImC3zlgQxN+/50mSicS5YDqTZr20bJmDxniys58HxN2Yp8rJvZiYB1T5IVaFl9DOPggzyRah4eDQ=="
            }
          },
          {
            "validator_address": "E3B19738F7132F950668504D326C7660F159D170",
            "validator_index": "83",
            "height": "44806",
            "round": "0",
            "timestamp": "2018-08-02T09:33:36.080317185Z",
            "type": 2,
            "block_id": {
              "hash": "1D6853A7D192F3318634EFB10513C7E80C9E3FC6",
              "parts": {
                "total": "1",
                "hash": "54F998A9E15612166FEFAF9C56FBB8942033BA81"
              }
            },
            "signature": {
              "type": "tendermint/SignatureEd25519",
              "value": "pHxA1jLz+nRxZsJmphZOPN9sB27f/QU7/wzf4AgOlaE5IaCjPWW8Wk1pcpU2bTeD1IBtP6cMaHTUwvsVEMgRCw=="
            }
          },
          {
            "validator_address": "E42F8AEABB685219F7027F54D2B0DBC7846F633A",
            "validator_index": "84",
            "height": "44806",
            "round": "0",
            "timestamp": "2018-08-02T09:33:35.142541313Z",
            "type": 2,
            "block_id": {
              "hash": "1D6853A7D192F3318634EFB10513C7E80C9E3FC6",
              "parts": {
                "total": "1",
                "hash": "54F998A9E15612166FEFAF9C56FBB8942033BA81"
              }
            },
            "signature": {
              "type": "tendermint/SignatureEd25519",
              "value": "tIxDgTwKke9bhPMGxyodDHPOl8/907SVioYkgPt1GN7A4/q4uHRyPzR4zoe+B3RZB/ssgRvVi/i/05iaA3TLDg=="
            }
          },
          {
            "validator_address": "E4E6C2E81269DFFA196C17F98240E491479A6008",
            "validator_index": "85",
            "height": "44806",
            "round": "0",
            "timestamp": "2018-08-02T09:33:36.128626527Z",
            "type": 2,
            "block_id": {
              "hash": "1D6853A7D192F3318634EFB10513C7E80C9E3FC6",
              "parts": {
                "total": "1",
                "hash": "54F998A9E15612166FEFAF9C56FBB8942033BA81"
              }
            },
            "signature": {
              "type": "tendermint/SignatureEd25519",
              "value": "2zSSDw+iovRsRWXEe2mKfTIeNoQRPb4EZge8sRtpKSrLH0TcEn31DOW2E+VQhvJOCD4u4d2sPKLprFD4h6rXDw=="
            }
          },
          null,
          {
            "validator_address": "E50ADECD5FD27FA2CD610C07F8AED36A2FC4A6A6",
            "validator_index": "87",
            "height": "44806",
            "round": "0",
            "timestamp": "2018-08-02T09:33:36.050275542Z",
            "type": 2,
            "block_id": {
              "hash": "1D6853A7D192F3318634EFB10513C7E80C9E3FC6",
              "parts": {
                "total": "1",
                "hash": "54F998A9E15612166FEFAF9C56FBB8942033BA81"
              }
            },
            "signature": {
              "type": "tendermint/SignatureEd25519",
              "value": "kGTbnw0OoGSsNrsdBQ+/z9Zmh1e4dWWcKtoHMV3Gl4b8EmWSMDNa6aS8sSxgISbGec0KQtD2oC6ci87TlbzsDQ=="
            }
          },
          {
            "validator_address": "E6A7079D584B163750BE0831227F6B685DEAF3C1",
            "validator_index": "88",
            "height": "44806",
            "round": "0",
            "timestamp": "2018-08-02T09:33:36.201777929Z",
            "type": 2,
            "block_id": {
              "hash": "1D6853A7D192F3318634EFB10513C7E80C9E3FC6",
              "parts": {
                "total": "1",
                "hash": "54F998A9E15612166FEFAF9C56FBB8942033BA81"
              }
            },
            "signature": {
              "type": "tendermint/SignatureEd25519",
              "value": "BKx2WzCnZMJyRVZ2Mkh0LeoE9sKmtFx/itamNvIJImXTgWl+cx7U3PjQFEofAtXwtNpZHX4BgOn0Hm9JkOYgAw=="
            }
          },
          {
            "validator_address": "E7A30077D5D11867D3EAF99ED45BFDC1EB834509",
            "validator_index": "89",
            "height": "44806",
            "round": "0",
            "timestamp": "2018-08-02T09:33:36.05677186Z",
            "type": 2,
            "block_id": {
              "hash": "1D6853A7D192F3318634EFB10513C7E80C9E3FC6",
              "parts": {
                "total": "1",
                "hash": "54F998A9E15612166FEFAF9C56FBB8942033BA81"
              }
            },
            "signature": {
              "type": "tendermint/SignatureEd25519",
              "value": "YmwYe7NoxNrzgpLObpSEAQoCj1GKp0KfLScb+wzycrNz4M1v41/yQdf7KzVLGHc/rgOUeZgbTug6ESLZ86v3AQ=="
            }
          },
          {
            "validator_address": "EBC613967F66F4EC306852CDF58B4F151CF16738",
            "validator_index": "90",
            "height": "44806",
            "round": "0",
            "timestamp": "2018-08-02T09:33:36.223743757Z",
            "type": 2,
            "block_id": {
              "hash": "1D6853A7D192F3318634EFB10513C7E80C9E3FC6",
              "parts": {
                "total": "1",
                "hash": "54F998A9E15612166FEFAF9C56FBB8942033BA81"
              }
            },
            "signature": {
              "type": "tendermint/SignatureEd25519",
              "value": "Eiz+eDYNQpPyuNTB10I+5OGeT/QzjwYJs4u4mxyI25JJP9j0xrkGoydszWo8uN8npmwEAZjJpSDL7JAPn/DbBA=="
            }
          },
          {
            "validator_address": "EC3401441726C40ECC7E51F744483B05BC6DE9BD",
            "validator_index": "91",
            "height": "44806",
            "round": "0",
            "timestamp": "2018-08-02T09:33:36.064938858Z",
            "type": 2,
            "block_id": {
              "hash": "1D6853A7D192F3318634EFB10513C7E80C9E3FC6",
              "parts": {
                "total": "1",
                "hash": "54F998A9E15612166FEFAF9C56FBB8942033BA81"
              }
            },
            "signature": {
              "type": "tendermint/SignatureEd25519",
              "value": "bIyIMApnWVOiuDLQgr2qoZt0KC1wh6D7KH8AqAJKMOKSGZJ9YtyAwMtTYi7VuJ7vQNtd97R/72FpXfTN0vFXDA=="
            }
          },
          {
            "validator_address": "EC95B111D032181E1EC3B5E8875C5BB8E4AE7140",
            "validator_index": "92",
            "height": "44806",
            "round": "0",
            "timestamp": "2018-08-02T09:33:36.082127383Z",
            "type": 2,
            "block_id": {
              "hash": "1D6853A7D192F3318634EFB10513C7E80C9E3FC6",
              "parts": {
                "total": "1",
                "hash": "54F998A9E15612166FEFAF9C56FBB8942033BA81"
              }
            },
            "signature": {
              "type": "tendermint/SignatureEd25519",
              "value": "++F6jcpnlv6VWocWnCyipL8x+37gEadRzIYN0ZvPJMQEJPErNRc6wUlxesbg/SCRigmJOptiuaOGnd5QWC/1DA=="
            }
          },
          {
            "validator_address": "F13C1805E8131C9B47E2A46818F57D8A2841E578",
            "validator_index": "93",
            "height": "44806",
            "round": "0",
            "timestamp": "2018-08-02T09:33:36.15441277Z",
            "type": 2,
            "block_id": {
              "hash": "1D6853A7D192F3318634EFB10513C7E80C9E3FC6",
              "parts": {
                "total": "1",
                "hash": "54F998A9E15612166FEFAF9C56FBB8942033BA81"
              }
            },
            "signature": {
              "type": "tendermint/SignatureEd25519",
              "value": "4qXhPZVZN9G9gasM+tip3CRyy5cp1/Ve0OD6W3677vXg04UxrahkJi7VgUizBECfdPbeQmixkOFYixhPmm1+Aw=="
            }
          },
          {
            "validator_address": "F23FF36BD5B90C33CE3A03ED72DBDCF5EC07D6AF",
            "validator_index": "94",
            "height": "44806",
            "round": "0",
            "timestamp": "2018-08-02T09:33:36.129740213Z",
            "type": 2,
            "block_id": {
              "hash": "1D6853A7D192F3318634EFB10513C7E80C9E3FC6",
              "parts": {
                "total": "1",
                "hash": "54F998A9E15612166FEFAF9C56FBB8942033BA81"
              }
            },
            "signature": {
              "type": "tendermint/SignatureEd25519",
              "value": "lTfh/pOoiIoTJRWpSkC2z8jBMnmPaiH+LpOwWytkj/ip3mnnxppx/A0l5rTc2zIJ6ru8Ou8Ao/aCVQYpLtwfAw=="
            }
          },
          {
            "validator_address": "F4268597DE93E3E2CED38845010F8AA34E2A879E",
            "validator_index": "95",
            "height": "44806",
            "round": "0",
            "timestamp": "2018-08-02T09:33:36.154367394Z",
            "type": 2,
            "block_id": {
              "hash": "1D6853A7D192F3318634EFB10513C7E80C9E3FC6",
              "parts": {
                "total": "1",
                "hash": "54F998A9E15612166FEFAF9C56FBB8942033BA81"
              }
            },
            "signature": {
              "type": "tendermint/SignatureEd25519",
              "value": "u9ehoJoqnUX4UusV2Xk47L3AfPdFCBQk6mV+JTRqzhlxLaijEh+63kSyOhfZLqRS01YsjgvWMce/WVhf8q6LBw=="
            }
          },
          {
            "validator_address": "F4DEB417999B04BE2EFF9FFE03FA373D86011CC0",
            "validator_index": "96",
            "height": "44806",
            "round": "0",
            "timestamp": "2018-08-02T09:33:36.122147455Z",
            "type": 2,
            "block_id": {
              "hash": "1D6853A7D192F3318634EFB10513C7E80C9E3FC6",
              "parts": {
                "total": "1",
                "hash": "54F998A9E15612166FEFAF9C56FBB8942033BA81"
              }
            },
            "signature": {
              "type": "tendermint/SignatureEd25519",
              "value": "bWP/FaALc05Ua9eFE4xYqO9uC7acEH5Wjt3YGvuB8yoYARO4UoV+IiTv+pWRxOrT9MWmqBbgR7/bB6idunS8Dg=="
            }
          },
          {
            "validator_address": "F6738260186D33D9C14FC6E7017AFE6BB952A63D",
            "validator_index": "97",
            "height": "44806",
            "round": "0",
            "timestamp": "2018-08-02T09:33:36.095572771Z",
            "type": 2,
            "block_id": {
              "hash": "1D6853A7D192F3318634EFB10513C7E80C9E3FC6",
              "parts": {
                "total": "1",
                "hash": "54F998A9E15612166FEFAF9C56FBB8942033BA81"
              }
            },
            "signature": {
              "type": "tendermint/SignatureEd25519",
              "value": "THLTxQiSsTjakbQLsZW/N1UK5jSj8dcl5Rmn8HvnCNRvmY+lQEL9bMCFmLCg2I7MFQTpus02xxthtKSGhzCjDg=="
            }
          },
          {
            "validator_address": "FD8D304F0278229077114B05BED9DABD382D49D8",
            "validator_index": "98",
            "height": "44806",
            "round": "0",
            "timestamp": "2018-08-02T09:33:36.136642669Z",
            "type": 2,
            "block_id": {
              "hash": "1D6853A7D192F3318634EFB10513C7E80C9E3FC6",
              "parts": {
                "total": "1",
                "hash": "54F998A9E15612166FEFAF9C56FBB8942033BA81"
              }
            },
            "signature": {
              "type": "tendermint/SignatureEd25519",
              "value": "jWfUbkZ/7v3qXO2lNpQcpbOxQS1f4dkl7V5CLa/r/lG8z2KBn1o4AxTJ+plNOCd53artmpvm5sGQFZM4/LaQCQ=="
            }
          },
          {
            "validator_address": "FF3F3FCBCE7E62D7AD5506FF846EC4518D980515",
            "validator_index": "99",
            "height": "44806",
            "round": "0",
            "timestamp": "2018-08-02T09:33:36.094724913Z",
            "type": 2,
            "block_id": {
              "hash": "1D6853A7D192F3318634EFB10513C7E80C9E3FC6",
              "parts": {
                "total": "1",
                "hash": "54F998A9E15612166FEFAF9C56FBB8942033BA81"
              }
            },
            "signature": {
              "type": "tendermint/SignatureEd25519",
              "value": "kHdU3O2dK4U/RuWNPU37kEBX+3f88H9uBUCBSP5woy+qlDBMhEzOoEbHAKI885e29uEt8HF/O7L47t8yWLCeBQ=="
            }
          }
        ]
      }
    },
    "canonical": true
  }
}