{
  "jsonrpc": "2.0",
  "id": "",
  "result": {
    "SignedHeader": {
      "header": {
        "chain_id": "gaia-7004",
        "height": "45221",
        "time": "2018-08-02T10:15:32.009016419Z",
        "num_txs": "0",
        "last_block_id": {
          "hash": "C0613009B49D7E6583CA6FEC84DC12FEC487CA9C",
          "parts": {
            "total": "1",
            "hash": "072A182780BCA06607B7F12935D531D5646D0D1E"
          }
        },
        "total_txs": "2110",
        "last_commit_hash": "7CBC263639C9BA376ED8B6A80E036709F1FA7FA6",
        "data_hash": "",
        "validators_hash": "87F229A3BE37A8F6B6730E363C8839C651E22027",
        "consensus_hash": "D6B74BB35BDFFD8392340F2A379173548AE188FE",
        "app_hash": "D4CE0BEAD8BECF9DCAAC0BD2C7CF05C9E1F2C53D",
        "last_results_hash": "",
        "evidence_hash": ""
      },
      "commit": {
        "block_id": {
          "hash": "8828B00DD9CB2F5B18F168205D5D917566046FBF",
          "parts": {
            "total": "1",
            "hash": "3C005D60EF2B00AED9119FC3D1AFB4CAC05EA85E"
          }
        },
        "precommits": [
          {
            "validator_address": "029359C0C768096273A68ABC902A6B17AC8D1D70",
            "validator_index": "0",
            "height": "45221",
            "round": "0",
            "timestamp": "2018-08-02T10:15:32.835729515Z",
            "type": 2,
            "block_id": {
              "hash": "8828B00DD9CB2F5B18F168205D5D917566046FBF",
              "parts": {
                "total": "1",
                "hash": "3C005D60EF2B00AED9119FC3D1AFB4CAC05EA85E"
              }
            },
            "signature": {
              "type": "tendermint/SignatureEd25519",
              "value": "8QOQTWJXPb16sHh7Pw8XU4cz623Mt5CC8Pzqrvzri81IgQkFpAPE4s1CE9ValH1wtgjPcLAT4Io58AWoSc6uBA=="
            }
          },
          {
            "validator_address": "02FE4B97A8387F39D1AC19E0C1702B3CC614812F",
            "validator_index": "1",
            "height": "45221",
            "round": "0",
            "timestamp": "2018-08-02T10:15:32.825770399Z",
            "type": 2,
            "block_id": {
              "hash": "8828B00DD9CB2F5B18F168205D5D917566046FBF",
              "parts": {
                "total": "1",
                "hash": "3C005D60EF2B00AED9119FC3D1AFB4CAC05EA85E"
              }
            },
            "signature": {
              "type": "tendermint/SignatureEd25519",
              "value": "9bGMCf79bZICiSRRUKK7Xq9seIs4d08r5g1o4Yanq7xXALh3WYVzS4kzCXZJISdPQg3Txn8SCEd6NoPPhPbqDw=="
            }
          },
          {
            "validator_address": "0548261C50222FD710EB5EBDF03A0E6567B21D20",
            "validator_index": "2",
            "height": "45221",
            "round": "0",
            "timestamp": "2018-08-02T10:15:32.91130177Z",
            "type": 2,
            "block_id": {
              "hash": "8828B00DD9CB2F5B18F168205D5D917566046FBF",
              "parts": {
                "total": "1",
                "hash": "3C005D60EF2B00AED9119FC3D1AFB4CAC05EA85E"
              }
            },
            "signature": {
              "type": "tendermint/SignatureEd25519",
              "value": "msgy55h40i4sYP3XKYYWbMKdgXJHsOFKMWT5BrENxc+4CoauMBJYbgjkz5uMGmMDWjdjk5airA9hXKeZ8l6LCQ=="
            }
          },
          {
            "validator_address": "0665ADBF9B120B7617BF955AA5653A1992C82B11",
            "validator_index": "3",
            "height": "45221",
            "round": "0",
            "timestamp": "2018-08-02T10:15:32.813065531Z",
            "type": 2,
            "block_id": {
              "hash": "8828B00DD9CB2F5B18F168205D5D917566046FBF",
              "parts": {
                "total": "1",
                "hash": "3C005D60EF2B00AED9119FC3D1AFB4CAC05EA85E"
              }
            },
            "signature": {
              "type": "tendermint/SignatureEd25519",
              "value": "XTM/82/WN2BhSCJS5YwWBtIoXpYYQmuGkXND+toQ66shQVFvhvK9n9aSCwNCGrk1o3awLsYNicgkiz8KBkE0Dw=="
            }
          },
          {
            "validator_address": "09145E611CC27EEB944FC5A956DDF710F943B9EF",
            "validator_index": "4",
            "height": "45221",
            "round": "0",
            "timestamp": "2018-08-02T10:15:32.890848768Z",
            "type": 2,
            "block_id": {
              "hash": "8828B00DD9CB2F5B18F168205D5D917566046FBF",
              "parts": {
                "total": "1",
                "hash": "3C005D60EF2B00AED9119FC3D1AFB4CAC05EA85E"
              }
            },
            "signature": {
              "type": "tendermint/SignatureEd25519",
              "value": "W6l3BQKIAbGL1SbUJY7fDd7KhCfY4wOR4tjWgxU5GGKxsqIB56cnQNupZV8vuKEMGyMcBhEJs+zd7VQoShqcCg=="
            }
          },
          {
            "validator_address": "0989D0355A104B67AE0AE028C68FB610690E174B",
            "validator_index": "5",
            "height": "45221",
            "round": "0",
            "timestamp": "2018-08-02T10:15:32.836978423Z",
            "type": 2,
            "block_id": {
              "hash": "8828B00DD9CB2F5B18F168205D5D917566046FBF",
              "parts": {
                "total": "1",
                "hash": "3C005D60EF2B00AED9119FC3D1AFB4CAC05EA85E"
              }
            },
            "signature": {
              "type": "tendermint/SignatureEd25519",
              "value": "gGrcY3VkyDK3JPZmmw5BbWfQdhXbc4pXeP21cN3TlVltcvw41C/E6oBbJJ9/DX5m5HzCDOQ59jp3QPbOIKUBAA=="
            }
          },
          {
            "validator_address": "0A692DBFFE9E5DD28E7DECC33CED1AEB4C0D014E",
            "validator_index": "6",
            "height": "45221",
            "round": "0",
            "timestamp": "2018-08-02T10:15:32.937963361Z",
            "type": 2,
            "block_id": {
              "hash": "8828B00DD9CB2F5B18F168205D5D917566046FBF",
              "parts": {
                "total": "1",
                "hash": "3C005D60EF2B00AED9119FC3D1AFB4CAC05EA85E"
              }
            },
            "signature": {
              "type": "tendermint/SignatureEd25519",
              "value": "Q3wIDrORdVwfsvFKxR7x2T8jSiOLX3vdx038KDdUASpqtSjC59BZOEM11PiozN6CBBgOWuRJyOjyZuiWFvSPCQ=="
            }
          },
          {
            "validator_address": "1751786EFC085D5331C61168FFFC8202EA151B4E",
            "validator_index": "7",
            "height": "45221",
            "round": "0",
            "timestamp": "2018-08-02T10:15:32.58625895Z",
            "type": 2,
            "block_id": {
              "hash": "8828B00DD9CB2F5B18F168205D5D917566046FBF",
              "parts": {
                "total": "1",
                "hash": "3C005D60EF2B00AED9119FC3D1AFB4CAC05EA85E"
              }
            },
            "signature": {
              "type": "tendermint/SignatureEd25519",
              "value": "c+gFzpb8fZ9ogfqcg5FFv2wGAqDXjnMDwGUhwMg1yzhS93AXRfjwUY2vRx7Cr4srtkHX9CpkCtvYPV/aq8HcAw=="
            }
          },
          {
            "validator_address": "17BB5CD01E8940FAFB948A04D5FA5A0645E5822E",
            "validator_index": "8",
            "height": "45221",
            "round": "0",
            "timestamp": "2018-08-02T10:15:32.891840008Z",
            "type": 2,
            "block_id": {
              "hash": "8828B00DD9CB2F5B18F168205D5D917566046FBF",
              "parts": {
                "total": "1",
                "hash": "3C005D60EF2B00AED9119FC3D1AFB4CAC05EA85E"
              }
            },
            "signature": {
              "type": "tendermint/SignatureEd25519",
              "value": "MorKNuaZiOGQaylaiLxgoNXAokteQSrkEA2OsNYY2ag1mLjHg00nUlfP0TEYB+jOwji4/WT5TG2mGi/Y3GVOAQ=="
            }
          },
          {
            "validator_address": "1C683A87904BC38F05004FE83301A3A3E35447EB",
            "validator_index": "9",
            "height": "45221",
            "round": "0",
            "timestamp": "2018-08-02T10:15:32.830547059Z",
            "type": 2,
            "block_id": {
              "hash": "8828B00DD9CB2F5B18F168205D5D917566046FBF",
              "parts": {
                "total": "1",
                "hash": "3C005D60EF2B00AED9119FC3D1AFB4CAC05EA85E"
              }
            },
            "signature": {
              "type": "tendermint/SignatureEd25519",
              "value": "G4Sk0QX+kR2HDYf3V/Y2OpnU/rIB+Ac8ru2MFjIrz6aSMWVTBZhfkipDTUht0K3H7TMWzCGR+QnaTjPjVThNCw=="
            }
          },
          {
            "validator_address": "1E9CE94FD0BA5CFEB901F90BC658D64D85B134D2",
            "validator_index": "10",
            "height": "45221",
            "round": "0",
            "timestamp": "2018-08-02T10:15:32.925447056Z",
            "type": 2,
            "block_id": {
              "hash": "8828B00DD9CB2F5B18F168205D5D917566046FBF",
              "parts": {
                "total": "1",
                "hash": "3C005D60EF2B00AED9119FC3D1AFB4CAC05EA85E"
              }
            },
            "signature": {
              "type": "tendermint/SignatureEd25519",
              "value": "Ovp0U1+jCx0U1nKuSwFDBB2MfGG05z4dqyzO0PL+iu1dc+ofd5ZYR2sSfDZfJ1paoMd4l3h77ffVikhoJp94CQ=="
            }
          },
          {
            "validator_address": "1ECD8C5FE1341D74CDC633A245DD56858DE2F9A2",
            "validator_index": "11",
            "height": "45221",
            "round": "0",
            "timestamp": "2018-08-02T10:15:32.999423063Z",
            "type": 2,
            "block_id": {
              "hash": "8828B00DD9CB2F5B18F168205D5D917566046FBF",
              "parts": {
                "total": "1",
                "hash": "3C005D60EF2B00AED9119FC3D1AFB4CAC05EA85E"
              }
            },
            "signature": {
              "type": "tendermint/SignatureEd25519",
              "value": "5p6TKWFSKqtp71k5DI8g0QBowzxb0gNnW2Afu6Q7L+Ff7kuCXFiXIr31704ijatg80ix5uWbspT/Ud4YjAxwAg=="
            }
          },
          {
            "validator_address": "1F3A68CAAD483768AA2BF667DEF10F7104C89928",
            "validator_index": "12",
            "height": "45221",
            "round": "0",
            "timestamp": "2018-08-02T10:15:32.894547069Z",
            "type": 2,
            "block_id": {
              "hash": "8828B00DD9CB2F5B18F168205D5D917566046FBF",
              "parts": {
                "total": "1",
                "hash": "3C005D60EF2B00AED9119FC3D1AFB4CAC05EA85E"
              }
            },
            "signature": {
              "type": "tendermint/SignatureEd25519",
              "value": "65QBfB5Up/hz/Re+SEt+KhOVRvrW9qK3JyJ17lY0rFpWCJDhmAIWyWDnQPAmXY3ZgPce8uGVfyWOu3oLHeHjBg=="
            }
          },
          {
            "validator_address": "1F61153F26C2DF27E15874268D30326287323352",
            "validator_index": "13",
            "height": "45221",
            "round": "0",
            "timestamp": "2018-08-02T10:15:32.971902481Z",
            "type": 2,
            "block_id": {
              "hash": "8828B00DD9CB2F5B18F168205D5D917566046FBF",
              "parts": {
                "total": "1",
                "hash": "3C005D60EF2B00AED9119FC3D1AFB4CAC05EA85E"
              }
            },
            "signature": {
              "type": "tendermint/SignatureEd25519",
              "value": "3NiDDPc4BiXbxqidU7tDnoG7U8zLR1dEeerfi5F59WYBifusSgM8PXzqjcJ50iAjav82uaQMh3aHyN1ZYZ5eBw=="
            }
          },
          {
            "validator_address": "23897586D68E2AC1C78E0EF5BB5DF5C8EAB18F50",
            "validator_index": "14",
            "height": "45221",
            "round": "0",
            "timestamp": "2018-08-02T10:15:32.869341222Z",
            "type": 2,
            "block_id": {
              "hash": "8828B00DD9CB2F5B18F168205D5D917566046FBF",
              "parts": {
                "total": "1",
                "hash": "3C005D60EF2B00AED9119FC3D1AFB4CAC05EA85E"
              }
            },
            "signature": {
              "type": "tendermint/SignatureEd25519",
              "value": "UbV0YncrMylFBwDkoD8RZmShfaB2W5bAahdeiLr03GshRcbDOEKRo7NHV3OCCgfKjl6bmv6eFBqZpA8IxXMuAw=="
            }
          },
          {
            "validator_address": "28770D17E8530825E7310A0659308654B7EC9682",
            "validator_index": "15",
            "height": "45221",
            "round": "0",
            "timestamp": "2018-08-02T10:15:32.828826087Z",
            "type": 2,
            "block_id": {
              "hash": "8828B00DD9CB2F5B18F168205D5D917566046FBF",
              "parts": {
                "total": "1",
                "hash": "3C005D60EF2B00AED9119FC3D1AFB4CAC05EA85E"
              }
            },
            "signature": {
              "type": "tendermint/SignatureEd25519",
              "value": "/ovJT1Hr+Fo/S8M6IyGMe+tmlqpLR1T0IVa2XjK+GUExcKS5H+x+QPzxkIehZN9br0ofjQT3lGD+0Bk/5wuVAQ=="
            }
          },
          {
            "validator_address": "2A92EC3C642140202298D0E245095E0ECFC25228",
            "validator_index": "16",
            "height": "45221",
            "round": "0",
            "timestamp": "2018-08-02T10:15:33.026020872Z",
            "type": 2,
            "block_id": {
              "hash": "8828B00DD9CB2F5B18F168205D5D917566046FBF",
              "parts": {
                "total": "1",
                "hash": "3C005D60EF2B00AED9119FC3D1AFB4CAC05EA85E"
              }
            },
            "signature": {
              "type": "tendermint/SignatureEd25519",
              "value": "nDz1x0E0X0F5diroIUxPJ2Qz08bie8hMgeSZtvVdvRaziCsKO6g6zZGM4uYlrHTSAz47i0Mv9S3i36XL6LEjDQ=="
            }
          },
          {
            "validator_address": "33412C9A69C60CB0FAA24A5C5B3A906DE24B47C2",
            "validator_index": "17",
            "height": "45221",
            "round": "0",
            "timestamp": "2018-08-02T10:15:33.618921521Z",
            "type": 2,
            "block_id": {
              "hash": "8828B00DD9CB2F5B18F168205D5D917566046FBF",
              "parts": {
                "total": "1",
                "hash": "3C005D60EF2B00AED9119FC3D1AFB4CAC05EA85E"
              }
            },
            "signature": {
              "type": "tendermint/SignatureEd25519",
              "value": "tQD7C2QupzVSEPheKzxGIeXFibveir1D+gsv3zyyqlC21zgfx85mlln4p9oP9fPjX+t+ytmAcdWM+TY43WDpDg=="
            }
          },
          {
            "validator_address": "36E9B7FAEC964F97D84C028ED62493E373AD0B38",
            "validator_index": "18",
            "height": "45221",
            "round": "0",
            "timestamp": "2018-08-02T10:15:32.856838514Z",
            "type": 2,
            "block_id": {
              "hash": "8828B00DD9CB2F5B18F168205D5D917566046FBF",
              "parts": {
                "total": "1",
                "hash": "3C005D60EF2B00AED9119FC3D1AFB4CAC05EA85E"
              }
            },
            "signature": {
              "type": "tendermint/SignatureEd25519",
              "value": "ar2xrAOspuoMxYL4UZZiQ8dToBzE8NFUBefujEfLH0zaiuDcb4HWWdQAV/mArMSEiKdpl8zwChDLrgjC7GViCA=="
            }
          },
          {
            "validator_address": "38A8D85D36BEA2E5FCF8A1E778F53628E450EF13",
            "validator_index": "19",
            "height": "45221",
            "round": "0",
            "timestamp": "2018-08-02T10:15:32.973244793Z",
            "type": 2,
            "block_id": {
              "hash": "8828B00DD9CB2F5B18F168205D5D917566046FBF",
              "parts": {
                "total": "1",
                "hash": "3C005D60EF2B00AED9119FC3D1AFB4CAC05EA85E"
              }
            },
            "signature": {
              "type": "tendermint/SignatureEd25519",
              "value": "fHgyHTApnaz62VwlqWiwrxQD/FjaysJk1k9mNRvMi/XlMXoFR+eB/GWpqVJKoitNiQLrbk69NbbyP6WI3lPfDQ=="
            }
          },
          {
            "validator_address": "39DFDA0C5DB84B269642188B23253508537798E6",
            "validator_index": "20",
            "height": "45221",
            "round": "0",
            "timestamp": "2018-08-02T10:15:32.83573685Z",
            "type": 2,
            "block_id": {
              "hash": "8828B00DD9CB2F5B18F168205D5D917566046FBF",
              "parts": {
                "total": "1",
                "hash": "3C005D60EF2B00AED9119FC3D1AFB4CAC05EA85E"
              }
            },
            "signature": {
              "type": "tendermint/SignatureEd25519",
              "value": "200FcSHJXNdztByhloq7C85aUmWcJa00xjikc0Hk4xnSjn3RCBsJCxZ0GSjS3LMe2RFd4rzAZE4/S/iWub9WBw=="
            }
          },
          {
            "validator_address": "3AC99B708404452366E0953A4BE849226DC86CBC",
            "validator_index": "21",
            "height": "45221",
            "round": "0",
            "timestamp": "2018-08-02T10:15:32.884489771Z",
            "type": 2,
            "block_id": {
              "hash": "8828B00DD9CB2F5B18F168205D5D917566046FBF",
              "parts": {
                "total": "1",
                "hash": "3C005D60EF2B00AED9119FC3D1AFB4CAC05EA85E"
              }
            },
            "signature": {
              "type": "tendermint/SignatureEd25519",
              "value": "dvjHuw6yTlmMqJtoj7uy2WrPL66ezHfa2eaJuGffokxbuXE/DJI9UvOf5i+PcsdpaJriNq4SlZL8qrMkLymgCg=="
            }
          },
          {
            "validator_address": "3DCB822A10ED319EC7C4393D8E3FD4A41B15AAF2",
            "validator_index": "22",
            "height": "45221",
            "round": "0",
            "timestamp": "2018-08-02T10:15:32.849481656Z",
            "type": 2,
            "block_id": {
              "hash": "8828B00DD9CB2F5B18F168205D5D917566046FBF",
              "parts": {
                "total": "1",
                "hash": "3C005D60EF2B00AED9119FC3D1AFB4CAC05EA85E"
              }
            },
            "signature": {
              "type": "tendermint/SignatureEd25519",
              "value": "op0OPUWe1cgdL0Va9YHl4yW3V2YWXVAkDozUfRJUQGbfv2y6hnYg4v8cfHtm4SG1nIVNqhP+0dCpeCfwvkzCDg=="
            }
          },
          {
            "validator_address": "3E899BA36A93C7370347BD5FE85909F2ECD93F8C",
            "validator_index": "23",
            "height": "45221",
            "round": "0",
            "timestamp": "2018-08-02T10:15:32.860251369Z",
            "type": 2,
            "block_id": {
              "hash": "8828B00DD9CB2F5B18F168205D5D917566046FBF",
              "parts": {
                "total": "1",
                "hash": "3C005D60EF2B00AED9119FC3D1AFB4CAC05EA85E"
              }
            },
            "signature": {
              "type": "tendermint/SignatureEd25519",
              "value": "uRFjII8hF3cq6/z48q+Y4kqM9pgJQNoY+JSkhc0gYEyLiDSuYTCGrvE0hSAe4XkYSAGlPuO8ftehTlGXjv1rAQ=="
            }
          },
          {
            "validator_address": "41CAB2E29E7D0F2282E3275938F188FF9386B84C",
            "validator_index": "24",
            "height": "45221",
            "round": "0",
            "timestamp": "2018-08-02T10:15:32.92324168Z",
            "type": 2,
            "block_id": {
              "hash": "8828B00DD9CB2F5B18F168205D5D917566046FBF",
              "parts": {
                "total": "1",
                "hash": "3C005D60EF2B00AED9119FC3D1AFB4CAC05EA85E"
              }
            },
            "signature": {
              "type": "tendermint/SignatureEd25519",
              "value": "V2Kw8N6m0NUjYyC7+bZ4RtNXHDTKnfzmp6cr1szh1QzFd/xteFJDTEFi4P7OIqqic0Y2sxDwPTDg4ISdmK41Dw=="
            }
          },
          {
            "validator_address": "462B656869DB02A8FD1077E255F8CC7401DC37C6",
            "validator_index": "25",
            "height": "45221",
            "round": "0",
            "timestamp": "2018-08-02T10:15:32.825085317Z",
            "type": 2,
            "block_id": {
              "hash": "8828B00DD9CB2F5B18F168205D5D917566046FBF",
              "parts": {
                "total": "1",
                "hash": "3C005D60EF2B00AED9119FC3D1AFB4CAC05EA85E"
              }
            },
            "signature": {
              "type": "tendermint/SignatureEd25519",
              "value": "AllxxOVaybl9YgxRlJ4H+LUEnS6ra2b5Wjwt8xgmiZyfZpQMqDJdzCbV7QJgG4l+w5lEA3t1Bv+EnIrUVEgmDQ=="
            }
          },
          {
            "validator_address": "48E5118163E5442068A1B5A42D2EEDBB75724935",
            "validator_index": "26",
            "height": "45221",
            "round": "0",
            "timestamp": "2018-08-02T10:15:32.988521823Z",
            "type": 2,
            "block_id": {
              "hash": "8828B00DD9CB2F5B18F168205D5D917566046FBF",
              "parts": {
                "total": "1",
                "hash": "3C005D60EF2B00AED9119FC3D1AFB4CAC05EA85E"
              }
            },
            "signature": {
              "type": "tendermint/SignatureEd25519",
              "value": "Siz/Yuvx2qpfL6Zxabi+nG/2Lfr0wO0dr07RmMMDrH4kuaFeahXDT4Qpqh68W7tkQzXiNIdDKe1JCRwoe3eLAw=="
            }
          },
          {
            "validator_address": "49103C58AFD9C7C069F55EBA218F3DFD9AEA74F9",
            "validator_index": "27",
            "height": "45221",
            "round": "0",
            "timestamp": "2018-08-02T10:15:32.881053261Z",
            "type": 2,
            "block_id": {
              "hash": "8828B00DD9CB2F5B18F168205D5D917566046FBF",
              "parts": {
                "total": "1",
                "hash": "3C005D60EF2B00AED9119FC3D1AFB4CAC05EA85E"
              }
            },
            "signature": {
              "type": "tendermint/SignatureEd25519",
              "value": "csgSO+k9pF5V+1BzQFvd3khpKN9HYwwjeHpLZfP7Cb/zpHZykvXD+xPXr1MSSYGNP5kI54wjDk/e4i2GQJHFCQ=="
            }
          },
          {
            "validator_address": "4944F8BBBB5303E17BC0607DF332320EDBC750EA",
            "validator_index": "28",
            "height": "45221",
            "round": "0",
            "timestamp": "2018-08-02T10:15:32.89042912Z",
            "type": 2,
            "block_id": {
              "hash": "8828B00DD9CB2F5B18F168205D5D917566046FBF",
              "parts": {
                "total": "1",
                "hash": "3C005D60EF2B00AED9119FC3D1AFB4CAC05EA85E"
              }
            },
            "signature": {
              "type": "tendermint/SignatureEd25519",
              "value": "vP63u04NJM9fy8gnqlqe/W0UEa22HQSW+ve4PIeHj82Kklj/cg5tSBwLdyKzWzuqbtg2tA1sY1uic4lase5uBw=="
            }
          },
          {
            "validator_address": "49841599DE675157CBE1E7D6B35BF8FFC23BD5CB",
            "validator_index": "29",
            "height": "45221",
            "round": "0",
            "timestamp": "2018-08-02T10:15:32.81544024Z",
            "type": 2,
            "block_id": {
              "hash": "8828B00DD9CB2F5B18F168205D5D917566046FBF",
              "parts": {
                "total": "1",
                "hash": "3C005D60EF2B00AED9119FC3D1AFB4CAC05EA85E"
              }
            },
            "signature": {
              "type": "tendermint/SignatureEd25519",
              "value": "AF4DupyuPop3FwiVZlpUEGYEB8AULjL/RCaRbIt9/CPzumtCIcYEmTMNljO+iMYROCAfhv41JlM5q6zrXY62Bw=="
            }
          },
          {
            "validator_address": "51386C2CF9556821D114D7E4945806802BADB28D",
            "validator_index": "30",
            "height": "45221",
            "round": "0",
            "timestamp": "2018-08-02T10:15:32.923905235Z",
            "type": 2,
            "block_id": {
              "hash": "8828B00DD9CB2F5B18F168205D5D917566046FBF",
              "parts": {
                "total": "1",
                "hash": "3C005D60EF2B00AED9119FC3D1AFB4CAC05EA85E"
              }
            },
            "signature": {
              "type": "tendermint/SignatureEd25519",
              "value": "YY9LWBM3Ow5AVDDE3LJYUBx9DtxxmMu+YmKJbnoWsu8YDgM6aXtNCCwpkuDdCA9oKvkJ9L8xsycrlrL5QCdQAg=="
            }
          },
          {
            "validator_address": "543564ECA3AFEFADC73EE8591AAC3A96F079BC8A",
            "validator_index": "31",
            "height": "45221",
            "round": "0",
            "timestamp": "2018-08-02T10:15:32.826424881Z",
            "type": 2,
            "block_id": {
              "hash": "8828B00DD9CB2F5B18F168205D5D917566046FBF",
              "parts": {
                "total": "1",
                "hash": "3C005D60EF2B00AED9119FC3D1AFB4CAC05EA85E"
              }
            },
            "signature": {
              "type": "tendermint/SignatureEd25519",
              "value": "RTLMDy3+xs0uDrYq1i1K+QaCnSaD3/SKU+OJpe+JlJDbjQdeIWeWUNfsoXBdMhgMUuRteYqE9vKMdxXJSpNoDA=="
            }
          },
          {
            "validator_address": "55D67B1A6DC13E96F8754A5A42EABC20F7F86664",
            "validator_index": "32",
            "height": "45221",
            "round": "0",
            "timestamp": "2018-08-02T10:15:32.834700928Z",
            "type": 2,
            "block_id": {
              "hash": "8828B00DD9CB2F5B18F168205D5D917566046FBF",
              "parts": {
                "total": "1",
                "hash": "3C005D60EF2B00AED9119FC3D1AFB4CAC05EA85E"
              }
            },
            "signature": {
              "type": "tendermint/SignatureEd25519",
              "value": "EUiDAAP3xSOzrBCRgVFJhnvpQfXr0CbojSrlN8NSbDnmnyLJbFOJs4aA3lta9E7zLFoec23t1fH8ucYR16UWBA=="
            }
          },
          {
            "validator_address": "570B6A755ED339EAC56BB3390A48069F6AC9449B",
            "validator_index": "33",
            "height": "45221",
            "round": "0",
            "timestamp": "2018-08-02T10:15:42.304783456Z",
            "type": 2,
            "block_id": {
              "hash": "8828B00DD9CB2F5B18F168205D5D917566046FBF",
              "parts": {
                "total": "1",
                "hash": "3C005D60EF2B00AED9119FC3D1AFB4CAC05EA85E"
              }
            },
            "signature": {
              "type": "tendermint/SignatureEd25519",
              "value": "+FiBNq/tiyOmbWlPUrnoI0VwkkSH+601Fw2K0FwFYik/Dwx7vYfLsQpaRdKOAcRMKJa5iWykO6RVAR4AhVpVAA=="
            }
          },
          {
            "validator_address": "5BDF8EA41B1835FBAD865B181A2A4B23F511B5E4",
            "validator_index": "34",
            "height": "45221",
            "round": "0",
            "timestamp": "2018-08-02T10:15:32.819215207Z",
            "type": 2,
            "block_id": {
              "hash": "8828B00DD9CB2F5B18F168205D5D917566046FBF",
              "parts": {
                "total": "1",
                "hash": "3C005D60EF2B00AED9119FC3D1AFB4CAC05EA85E"
              }
            },
            "signature": {
              "type": "tendermint/SignatureEd25519",
              "value": "b1IS1jOvoHp76P6ey62XnSeBex8kFRKDsYFM/NG3H8888Dd9qGax6yYRyGeM5HALUq2rbbSHc8IgdoxWpMJaAg=="
            }
          },
          {
            "validator_address": "60229E2E273297FE00219E46DFFB8F76844CDEF9",
            "validator_index": "35",
            "height": "45221",
            "round": "0",
            "timestamp": "2018-08-02T10:15:30.398279859Z",
            "type": 2,
            "block_id": {
              "hash": "8828B00DD9CB2F5B18F168205D5D917566046FBF",
              "parts": {
                "total": "1",
                "hash": "3C005D60EF2B00AED9119FC3D1AFB4CAC05EA85E"
              }
            },
            "signature": {
              "type": "tendermint/SignatureEd25519",
              "value": "izoZVcSmTuXsSpqufM4ZMqlJM2I6cHoSa/HDQu5fmHL8rS+tg0YnTesz0deLR9LrgVC3we/XO8UFbOUNkk1+Aw=="
            }
          },
          {
            "validator_address": "62410D6D1CD98278136E4D0738AA0EA273CDFC54",
            "validator_index": "36",
            "height": "45221",
            "round": "0",
            "timestamp": "2018-08-02T10:15:32.825923945Z",
            "type": 2,
            "block_id": {
              "hash": "8828B00DD9CB2F5B18F168205D5D917566046FBF",
              "parts": {
                "total": "1",
                "hash": "3C005D60EF2B00AED9119FC3D1AFB4CAC05EA85E"
              }
            },
            "signature": {
              "type": "tendermint/SignatureEd25519",
              "value": "cCM/y1OnynkW2b07L9hY1TMWIANsmduPnOgggcnA9iILTT2EhJ4c3FxuyOaZiDYp/MNx3+rrmfppe9vECQMXDA=="
            }
          },
          {
            "validator_address": "632F5C139A5A9DFBFE5111DEE29FCFB6157207DC",
            "validator_index": "37",
            "height": "45221",
            "round": "0",
            "timestamp": "2018-08-02T10:15:32.872917349Z",
            "type": 2,
            "block_id": {
              "hash": "8828B00DD9CB2F5B18F168205D5D917566046FBF",
              "parts": {
                "total": "1",
                "hash": "3C005D60EF2B00AED9119FC3D1AFB4CAC05EA85E"
              }
            },
            "signature": {
              "type": "tendermint/SignatureEd25519",
              "value": "FvAvhuAJBsM/cdSlK5zpXAl0REIffwvnQrzlMvKxZbwFhj15xzCkICumIV/aS7zb8NplwE3M+AiB3n6ihroDCg=="
            }
          },
          {
            "validator_address": "64F57F8E796A9B7B590C1EFA4123988C86631D39",
            "validator_index": "38",
            "height": "45221",
            "round": "0",
            "timestamp": "2018-08-02T10:15:32.813426546Z",
            "type": 2,
            "block_id": {
              "hash": "8828B00DD9CB2F5B18F168205D5D917566046FBF",
              "parts": {
                "total": "1",
                "hash": "3C005D60EF2B00AED9119FC3D1AFB4CAC05EA85E"
              }
            },
            "signature": {
              "type": "tendermint/SignatureEd25519",
              "value": "gr+ed57DyceRECj/5q9MTSkUxY7YPC2PpA6B49Y8mXf4A3rOAxZCaXEpNlkXuJ/t4ab7SCX8UQcbCt6INASRDA=="
            }
          },
          {
            "validator_address": "69D99B2C66043ACBEAA8447525C356AFC6408E0C",
            "validator_index": "39",
            "height": "45221",
            "round": "0",
            "timestamp": "2018-08-02T10:15:32.996524747Z",
            "type": 2,
            "block_id": {
              "hash": "8828B00DD9CB2F5B18F168205D5D917566046FBF",
              "parts": {
                "total": "1",
                "hash": "3C005D60EF2B00AED9119FC3D1AFB4CAC05EA85E"
              }
            },
            "signature": {
              "type": "tendermint/SignatureEd25519",
              "value": "/g1/+ndqsofFhx8i+cLsnYRAeUjKma0OEnOoxCMSlYlsgPjB8V417mH7IZcudvb2mrgBtheBTtycY55maFDQAA=="
            }
          },
          {
            "validator_address": "69EDADFA4A803E9DBF548C900D4A465E7D154262",
            "validator_index": "40",
            "height": "45221",
            "round": "0",
            "timestamp": "2018-08-02T10:15:33.020935146Z",
            "type": 2,
            "block_id": {
              "hash": "8828B00DD9CB2F5B18F168205D5D917566046FBF",
              "parts": {
                "total": "1",
                "hash": "3C005D60EF2B00AED9119FC3D1AFB4CAC05EA85E"
              }
            },
            "signature": {
              "type": "tendermint/SignatureEd25519",
              "value": "pGy+8lro8htrgcURN4fCsyApEGAJSByrITC/VNOATDQntkilB7xj0nccNx7mjDKatB6hHQacxF3BKxF7SbCSCA=="
            }
          },
          {
            "validator_address": "6D3AD380E398D8592B03AA124BAFED5F125DF863",
            "validator_index": "41",
            "height": "45221",
            "round": "0",
            "timestamp": "2018-08-02T10:14:30.173149054Z",
            "type": 2,
            "block_id": {
              "hash": "8828B00DD9CB2F5B18F168205D5D917566046FBF",
              "parts": {
                "total": "1",
                "hash": "3C005D60EF2B00AED9119FC3D1AFB4CAC05EA85E"
              }
            },
            "signature": {
              "type": "tendermint/SignatureEd25519",
              "value": "5Z8Gb6mTCADszRZyxAblhZNgWxBE6fb1vaO8oWIubx19+EZfQpvfHy47yJg1IljWLrs/z9YoVIkaIoDadgmSCw=="
            }
          },
          {
            "validator_address": "6F6C93B8BF3495063FEC9B5C771158607F4AE9D6",
            "validator_index": "42",
            "height": "45221",
            "round": "0",
            "timestamp": "2018-08-02T10:15:32.968633057Z",
            "type": 2,
            "block_id": {
              "hash": "8828B00DD9CB2F5B18F168205D5D917566046FBF",
              "parts": {
                "total": "1",
                "hash": "3C005D60EF2B00AED9119FC3D1AFB4CAC05EA85E"
              }
            },
            "signature": {
              "type": "tendermint/SignatureEd25519",
              "value": "eFP3fAtVg+jOIZv9v0qiWj6pZZ66TnvZPvCx137I6xqNI7NaNp90XauK5br+24I8bzwhnhuNtsWesTFu/HqECg=="
            }
          },
          {
            "validator_address": "732CEEF54C374DDC6ADECBFD707AEFD07FEDC143",
            "validator_index": "43",
            "height": "45221",
            "round": "0",
            "timestamp": "2018-08-02T10:15:32.932701213Z",
            "type": 2,
            "block_id": {
              "hash": "8828B00DD9CB2F5B18F168205D5D917566046FBF",
              "parts": {
                "total": "1",
                "hash": "3C005D60EF2B00AED9119FC3D1AFB4CAC05EA85E"
              }
            },
            "signature": {
              "type": "tendermint/SignatureEd25519",
              "value": "KXVm8dQVRzgyr9kw/xdEo5zG+BL44u9aKBPirwobSPlrop/1RxLJmX6Xry070sVLTpVWNrJRreZeYrs1GCTyAg=="
            }
          },
          {
            "validator_address": "751E43437224E8BB6D1569B3E2B2616B6E7F4397",
            "validator_index": "44",
            "height": "45221",
            "round": "0",
            "timestamp": "2018-08-02T10:15:32.897064219Z",
            "type": 2,
            "block_id": {
              "hash": "8828B00DD9CB2F5B18F168205D5D917566046FBF",
              "parts": {
                "total": "1",
                "hash": "3C005D60EF2B00AED9119FC3D1AFB4CAC05EA85E"
              }
            },
            "signature": {
              "type": "tendermint/SignatureEd25519",
              "value": "xLa/9RMNw2UaRYjcOh6OnqrJdYlcjj2EU/FHjEGQij4T1RZIrg+6bxq1LB2tDIczHfxzxDIurqfse5smhlxQAw=="
            }
          },
          {
            "validator_address": "7EB7593F519F1180C7E872D0494611464EDF03AE",
            "validator_index": "45",
            "height": "45221",
            "round": "0",
            "timestamp": "2018-08-02T10:15:32.931219129Z",
            "type": 2,
            "block_id": {
              "hash": "8828B00DD9CB2F5B18F168205D5D917566046FBF",
              "parts": {
                "total": "1",
                "hash": "3C005D60EF2B00AED9119FC3D1AFB4CAC05EA85E"
              }
            },
            "signature": {
              "type": "tendermint/SignatureEd25519",
              "value": "7L/VVXVs1W5Q2hKu3EXiTDcBGzVB+y+NBVrzjOi+zH2aaaXEd1/l8+HWF4u8L9yOBb10jtkz8/4KQP0kW2eMCA=="
            }
          },
          {
            "validator_address": "8356899C8853BC6640D76F76E59743FFEEA57B81",
            "validator_index": "46",
            "height": "45221",
            "round": "0",
            "timestamp": "2018-08-02T10:15:32.884090548Z",
            "type": 2,
            "block_id": {
              "hash": "8828B00DD9CB2F5B18F168205D5D917566046FBF",
              "parts": {
                "total": "1",
                "hash": "3C005D60EF2B00AED9119FC3D1AFB4CAC05EA85E"
              }
            },
            "signature": {
              "type": "tendermint/SignatureEd25519",
              "value": "eh3M8UvJ2EO20BGJYbNp8aHkX4PpKvp16t/BhQ4APDp/oWT6aJw6y9tXnFg1Ccox0zWz6kN0mQH0K7ZOu73pBA=="
            }
          },
          {
            "validator_address": "83AB321E012C57746689FED3A6064DF331F81007",
            "validator_index": "47",
            "height": "45221",
            "round": "0",
            "timestamp": "2018-08-02T10:15:32.898546278Z",
            "type": 2,
            "block_id": {
              "hash": "8828B00DD9CB2F5B18F168205D5D917566046FBF",
              "parts": {
                "total": "1",
                "hash": "3C005D60EF2B00AED9119FC3D1AFB4CAC05EA85E"
              }
            },
            "signature": {
              "type": "tendermint/SignatureEd25519",
              "value": "sveoAGaSIgOmiV1ZCp7dnTZSV/lRRO/IVvx4RuF0lzG3LrEhamO31JWoYtkB6WJuEm+8hvD4r3PDmjzCjqQCBw=="
            }
          },
          {
            "validator_address": "83BB1B88D3DBB20AD845FECA07749EBD87D3754D",
            "validator_index": "48",
            "height": "45221",
            "round": "0",
            "timestamp": "2018-08-02T10:15:33.073444893Z",
            "type": 2,
            "block_id": {
              "hash": "8828B00DD9CB2F5B18F168205D5D917566046FBF",
              "parts": {
                "total": "1",
                "hash": "3C005D60EF2B00AED9119FC3D1AFB4CAC05EA85E"
              }
            },
            "signature": {
              "type": "tendermint/SignatureEd25519",
              "value": "LLNArUHtlD2V4XoI6Z7js3r9wm524ILY7ih5RZRNgbDxqcmjpcGf/veWov6Dd6NlIUySg4OTjQa+4qsZHxW4Cw=="
            }
          },
          {
            "validator_address": "8F06FE1FD042683C426137FBC4BBAA4288924217",
            "validator_index": "49",
            "height": "45221",
            "round": "0",
            "timestamp": "2018-08-02T10:15:32.885875997Z",
            "type": 2,
            "block_id": {
              "hash": "8828B00DD9CB2F5B18F168205D5D917566046FBF",
              "parts": {
                "total": "1",
                "hash": "3C005D60EF2B00AED9119FC3D1AFB4CAC05EA85E"
              }
            },
            "signature": {
              "type": "tendermint/SignatureEd25519",
              "value": "IKgzqXKfCkrpOxLAUaIHFmKR6pIZYDVKSbhzfJ1CNJU51wHOLB7n+9c3+QmeAVsI2x2YHShm0SZr7F9HFzghAA=="
            }
          },
          null,
          {
            "validator_address": "95980831E186F2540F6E9FB6C8E74DE2401405AC",
            "validator_index": "51",
            "height": "45221",
            "round": "0",
            "timestamp": "2018-08-02T10:15:32.884230927Z",
            "type": 2,
            "block_id": {
              "hash": "8828B00DD9CB2F5B18F168205D5D917566046FBF",
              "parts": {
                "total": "1",
                "hash": "3C005D60EF2B00AED9119FC3D1AFB4CAC05EA85E"
              }
            },
            "signature": {
              "type": "tendermint/SignatureEd25519",
              "value": "iD0vwD9Zf46DQivf3W7iXROd5q4WbkPdQANIMiSmpIfJ+wXp7EPMxi/Tm9YNM094otP+fGNwLeoCdA6e7GqFCg=="
            }
          },
          {
            "validator_address": "95FAFBC1E0579C83D290A063020CE87C5334BD9B",
            "validator_index": "52",
            "height": "45221",
            "round": "0",
            "timestamp": "2018-08-02T10:15:32.860780518Z",
            "type": 2,
            "block_id": {
              "hash": "8828B00DD9CB2F5B18F168205D5D917566046FBF",
              "parts": {
                "total": "1",
                "hash": "3C005D60EF2B00AED9119FC3D1AFB4CAC05EA85E"
              }
            },
            "signature": {
              "type": "tendermint/SignatureEd25519",
              "value": "jsBXRTxZnQPD37P9ctpplIMe2WrNotizAWDPzL5RZZ3O8QxkguerQAYro/R5N21t+pDs7639iNkPm/UaozHzBg=="
            }
          },
          {
            "validator_address": "96BDE45EC52606CF5CB59853097871AD60680549",
            "validator_index": "53",
            "height": "45221",
            "round": "0",
            "timestamp": "2018-08-02T10:15:32.884144509Z",
            "type": 2,
            "block_id": {
              "hash": "8828B00DD9CB2F5B18F168205D5D917566046FBF",
              "parts": {
                "total": "1",
                "hash": "3C005D60EF2B00AED9119FC3D1AFB4CAC05EA85E"
              }
            },
            "signature": {
              "type": "tendermint/SignatureEd25519",
              "value": "/6SRby5qVRz6LEzsrnTDgC6bioYW0pmfDWOiuczkLbM/0WN/dS/xlhuuoDR3WMcAtMizVU3oEerluUNjg5GPBw=="
            }
          },
          {
            "validator_address": "970CD321881185BF83DB2923C321B0E75FDBB2B8",
            "validator_index": "54",
            "height": "45221",
            "round": "0",
            "timestamp": "2018-08-02T10:15:32.948836852Z",
            "type": 2,
            "block_id": {
              "hash": "8828B00DD9CB2F5B18F168205D5D917566046FBF",
              "parts": {
                "total": "1",
                "hash": "3C005D60EF2B00AED9119FC3D1AFB4CAC05EA85E"
              }
            },
            "signature": {
              "type": "tendermint/SignatureEd25519",
              "value": "90BRbYlNMys5DabAaIGqMx5eassKIzF/4feLKSR0NORP90PHxyTV19rHlk//Z2YFlGycgiXFJtPCjBoOlYodAQ=="
            }
          },
          {
            "validator_address": "97DBB3D4B3D6C29287244864448F651DD5B07390",
            "validator_index": "55",
            "height": "45221",
            "round": "0",
            "timestamp": "2018-08-02T10:15:32.940141348Z",
            "type": 2,
            "block_id": {
              "hash": "8828B00DD9CB2F5B18F168205D5D917566046FBF",
              "parts": {
                "total": "1",
                "hash": "3C005D60EF2B00AED9119FC3D1AFB4CAC05EA85E"
              }
            },
            "signature": {
              "type": "tendermint/SignatureEd25519",
              "value": "Ex8uu2nikgsmewhKF/TBH2RUXXGFaCy9VfObCE9yFTYyGl+sQ072u7ArZb9AWiXbfQ+CAV44xJlSMRPOyPWxAA=="
            }
          },
          {
            "validator_address": "9C29C9B76D27586E4D9AD2AED0E943162645E55C",
            "validator_index": "56",
            "height": "45221",
            "round": "0",
            "timestamp": "2018-08-02T10:15:32.813075511Z",
            "type": 2,
            "block_id": {
              "hash": "8828B00DD9CB2F5B18F168205D5D917566046FBF",
              "parts": {
                "total": "1",
                "hash": "3C005D60EF2B00AED9119FC3D1AFB4CAC05EA85E"
              }
            },
            "signature": {
              "type": "tendermint/SignatureEd25519",
              "value": "d9eFhxrgTgFHku7LE7dev3yUI50QM5u45NxuP2dc3+RkowQe+YW1YCrTEVl1ueSUAlMlnGxi2oWgYl/g7D9XAA=="
            }
          },
          {
            "validator_address": "9D93AD02FE1BD7E76B9E58D7EB461088EAD011E5",
            "validator_index": "57",
            "height": "45221",
            "round": "0",
            "timestamp": "2018-08-02T10:15:32.832833672Z",
            "type": 2,
            "block_id": {
              "hash": "8828B00DD9CB2F5B18F168205D5D917566046FBF",
              "parts": {
                "total": "1",
                "hash": "3C005D60EF2B00AED9119FC3D1AFB4CAC05EA85E"
              }
            },
            "signature": {
              "type": "tendermint/SignatureEd25519",
              "value": "pmxLg914X4YuA33/zyiHaYqizGFsXauZtmto2ekRfdwFUykf+irH1B0pitE/JY2nE/IOrRpLbWkG+huGbYhJCQ=="
            }
          },
          {
            "validator_address": "A0A6466F4ABEA09C3B55E3709AFDE217A103209F",
            "validator_index": "58",
            "height": "45221",
            "round": "0",
            "timestamp": "2018-08-02T10:15:32.834424771Z",
            "type": 2,
            "block_id": {
              "hash": "8828B00DD9CB2F5B18F168205D5D917566046FBF",
              "parts": {
                "total": "1",
                "hash": "3C005D60EF2B00AED9119FC3D1AFB4CAC05EA85E"
              }
            },
            "signature": {
              "type": "tendermint/SignatureEd25519",
              "value": "sCPzJ167mt2KZfaLns36iBrdw/JW42AHEOeVLal9Wh4Iphcfz/Itxabv/LMBzWsduXm/klRV5iW3+8qtsCDHBw=="
            }
          },
          {
            "validator_address": "A5868971300F155020634D7BB49C7634F7AACCD3",
            "validator_index": "59",
            "height": "45221",
            "round": "0",
            "timestamp": "2018-08-02T10:15:32.949439137Z",
            "type": 2,
            "block_id": {
              "hash": "8828B00DD9CB2F5B18F168205D5D917566046FBF",
              "parts": {
                "total": "1",
                "hash": "3C005D60EF2B00AED9119FC3D1AFB4CAC05EA85E"
              }
            },
            "signature": {
              "type": "tendermint/SignatureEd25519",
              "value": "M31r9cvAhULt8NGxEPHZfT/mLEf8PeYmio5OOVO8dEAZTs2RrqrYQGu6gCfagCyB42BVAEzrHCrpiatkyxVTCQ=="
            }
          },
          {
            "validator_address": "A6B3A5B5D982CFD7B5FDFA15CF5A720E7AE25E7F",
            "validator_index": "60",
            "height": "45221",
            "round": "0",
            "timestamp": "2018-08-02T10:15:33.202285953Z",
            "type": 2,
            "block_id": {
              "hash": "8828B00DD9CB2F5B18F168205D5D917566046FBF",
              "parts": {
                "total": "1",
                "hash": "3C005D60EF2B00AED9119FC3D1AFB4CAC05EA85E"
              }
            },
            "signature": {
              "type": "tendermint/SignatureEd25519",
              "value": "QP8nbM/5Jm0IRQdS/H6HNisjOeWlq8RS2ITUmg9I6tpmKnJgDUQQpFJQ0AXiwhUmNJjTY8XOnLGUsVnvBxRkAQ=="
            }
          },
          {
            "validator_address": "AC96444A9083890B7C7B430DB17BF1D3EA5EED04",
            "validator_index": "61",
            "height": "45221",
            "round": "0",
            "timestamp": "2018-08-02T10:15:32.946219937Z",
            "type": 2,
            "block_id": {
              "hash": "8828B00DD9CB2F5B18F168205D5D917566046FBF",
              "parts": {
                "total": "1",
                "hash": "3C005D60EF2B00AED9119FC3D1AFB4CAC05EA85E"
              }
            },
            "signature": {
              "type": "tendermint/SignatureEd25519",
              "value": "GfPmBVhWba2awy1IXT6TANg8XbgBPGEoiKgIrncBdqmNjWMR3el9wGAP9qY6tsALOgb6vKYASi8tAP7l92RFDg=="
            }
          },
          {
            "validator_address": "ACB97FDA2D940AF0709B73537C458EB988AD2893",
            "validator_index": "62",
            "height": "45221",
            "round": "0",
            "timestamp": "2018-08-02T10:15:32.839964758Z",
            "type": 2,
            "block_id": {
              "hash": "8828B00DD9CB2F5B18F168205D5D917566046FBF",
              "parts": {
                "total": "1",
                "hash": "3C005D60EF2B00AED9119FC3D1AFB4CAC05EA85E"
              }
            },
            "signature": {
              "type": "tendermint/SignatureEd25519",
              "value": "T4mNMBxM07JOXNk0nIpYa9/rDzl/FTyqLSEli7n8VLwz4BeE8Jk3s1/JQ6/0ME/yoZqtisOKKqfG04ivCqrYBw=="
            }
          },
          {
            "validator_address": "B197425B3210375F211661DE02EF2AE36580EB0F",
            "validator_index": "63",
            "height": "45221",
            "round": "0",
            "timestamp": "2018-08-02T10:15:32.839504844Z",
            "type": 2,
            "block_id": {
              "hash": "8828B00DD9CB2F5B18F168205D5D917566046FBF",
              "parts": {
                "total": "1",
                "hash": "3C005D60EF2B00AED9119FC3D1AFB4CAC05EA85E"
              }
            },
            "signature": {
              "type": "tendermint/SignatureEd25519",
              "value": "pCTwjX/j75XCHLaipilPcRp8M8MG3eT4bMg+yRETshFPwl3JqqsnLHxajzUHqXoVyCdoqJf65wp+P2MOXytEAQ=="
            }
          },
          {
            "validator_address": "B45E54D2D1CB5A4CCD1D49016608C18E7C56B270",
            "validator_index": "64",
            "height": "45221",
            "round": "0",
            "timestamp": "2018-08-02T10:15:32.989562174Z",
            "type": 2,
            "block_id": {
              "hash": "8828B00DD9CB2F5B18F168205D5D917566046FBF",
              "parts": {
                "total": "1",
                "hash": "3C005D60EF2B00AED9119FC3D1AFB4CAC05EA85E"
              }
            },
            "signature": {
              "type": "tendermint/SignatureEd25519",
              "value": "pJm/ZqM3Nt39oaSxmRGLAbsWNO5FxdSqc/kMIqnt4CI1wQhMBfWMBjz3OeEL1IFmlsZ6cP/0fFtW1NbdpFlGCg=="
            }
          },
          {
            "validator_address": "BB1276BE89834835428664408917649FEEF5D90C",
            "validator_index": "65",
            "height": "45221",
            "round": "0",
            "timestamp": "2018-08-02T10:15:32.968499891Z",
            "type": 2,
            "block_id": {
              "hash": "8828B00DD9CB2F5B18F168205D5D917566046FBF",
              "parts": {
                "total": "1",
                "hash": "3C005D60EF2B00AED9119FC3D1AFB4CAC05EA85E"
              }
            },
            "signature": {
              "type": "tendermint/SignatureEd25519",
              "value": "6BBh2jgCEzWdzn/Hhj6lZW0LHWLSVkD8LVqxYP6ezlQkR8Yjcd3aE4BevuPK0eC3NiMVXUaE/OeuvF553oJEAg=="
            }
          },
          {
            "validator_address": "BC36FEDD6EF6071118A3E51859DF3831A2EC4782",
            "validator_index": "66",
            "height": "45221",
            "round": "0",
            "timestamp": "2018-08-02T10:15:32.827783041Z",
            "type": 2,
            "block_id": {
              "hash": "8828B00DD9CB2F5B18F168205D5D917566046FBF",
              "parts": {
                "total": "1",
                "hash": "3C005D60EF2B00AED9119FC3D1AFB4CAC05EA85E"
              }
            },
            "signature": {
              "type": "tendermint/SignatureEd25519",
              "value": "0HNIp7D4eBxZftLhYf6O0qXspdFxHk73eZCPkm+wpUyA29n97iGV6G9Gd/90pDKs3mTqt8xlQLP9+fboM5FSAg=="
            }
          },
          {
            "validator_address": "BD9D0DA513BF099DB4BB6E725A4E19832789882F",
            "validator_index": "67",
            "height": "45221",
            "round": "0",
            "timestamp": "2018-08-02T10:15:32.862579155Z",
            "type": 2,
            "block_id": {
              "hash": "8828B00DD9CB2F5B18F168205D5D917566046FBF",
              "parts": {
                "total": "1",
                "hash": "3C005D60EF2B00AED9119FC3D1AFB4CAC05EA85E"
              }
            },
            "signature": {
              "type": "tendermint/SignatureEd25519",
              "value": "HrnrTtdmd34l3x41Xi4c7joKor8srqXHmc0uaYSaBMwulKRqFVsPUIxOnWipj4DS0oPEcuGxZr4YVukUFgEECg=="
            }
          },
          {
            "validator_address": "C1134A2FF8F7338E7CDB3FE57DDD2A655DEB1E22",
            "validator_index": "68",
            "height": "45221",
            "round": "0",
            "timestamp": "2018-08-02T10:15:31.956082969Z",
            "type": 2,
            "block_id": {
              "hash": "8828B00DD9CB2F5B18F168205D5D917566046FBF",
              "parts": {
                "total": "1",
                "hash": "3C005D60EF2B00AED9119FC3D1AFB4CAC05EA85E"
              }
            },
            "signature": {
              "type": "tendermint/SignatureEd25519",
              "value": "au/R5GmDVfqKXKUlV6KIkLCVttLslFFJeTMkeULDE8THo+SgWvuxYNBFBfHvowILl1yZuPBHXePOmWm9CxT4Bw=="
            }
          },
          {
            "validator_address": "C39A8A2B85198DCB8F23AD1F6C198E2BA7AB5D60",
            "validator_index": "69",
            "height": "45221",
            "round": "0",
            "timestamp": "2018-08-02T10:15:32.822874823Z",
            "type": 2,
            "block_id": {
              "hash": "8828B00DD9CB2F5B18F168205D5D917566046FBF",
              "parts": {
                "total": "1",
                "hash": "3C005D60EF2B00AED9119FC3D1AFB4CAC05EA85E"
              }
            },
            "signature": {
              "type": "tendermint/SignatureEd25519",
              "value": "5SOLP4RXOXGs8VIJSqoS+LNvZQzSJ7enE9kEIwODjXDclGNi6W8E6EbI3+L49P3pZmgNjyt3VUMiZblTtMx8Dw=="
            }
          },
          {
            "validator_address": "C4335190C3B5BD4BA5568BC0F99C34162D940D08",
            "validator_index": "70",
            "height": "45221",
            "round": "0",
            "timestamp": "2018-08-02T10:15:32.962613005Z",
            "type": 2,
            "block_id": {
              "hash": "8828B00DD9CB2F5B18F168205D5D917566046FBF",
              "parts": {
                "total": "1",
                "hash": "3C005D60EF2B00AED9119FC3D1AFB4CAC05EA85E"
              }
            },
            "signature": {
              "type": "tendermint/SignatureEd25519",
              "value": "+bWn4FQK+l2CNAH9nCw8gpxufloFyrI4gp3O5J3vpD93ggy25y7dGzNfoMoSP2mLflRTLKiUoydR/7fetTzSAA=="
            }
          },
          {
            "validator_address": "C561CFA081677046376396922E7576E5F7B316AD",
            "validator_index": "71",
            "height": "45221",
            "round": "0",
            "timestamp": "2018-08-02T10:15:33.010908283Z",
            "type": 2,
            "block_id": {
              "hash": "8828B00DD9CB2F5B18F168205D5D917566046FBF",
              "parts": {
                "total": "1",
                "hash": "3C005D60EF2B00AED9119FC3D1AFB4CAC05EA85E"
              }
            },
            "signature": {
              "type": "tendermint/SignatureEd25519",
              "value": "krXkUBBOMycRi24y5fEEOFoGj2qGPSTxmEBTUtIq3kgzM04I1pW6dkLklfbr5aKxp3fmAoS7mO52NKTH6OZKDw=="
            }
          },
          {
            "validator_address": "CE589EA77B056D268D30D1DC1D68A70E0F885E95",
            "validator_index": "72",
            "height": "45221",
            "round": "0",
            "timestamp": "2018-08-02T10:15:32.860991928Z",
            "type": 2,
            "block_id": {
              "hash": "8828B00DD9CB2F5B18F168205D5D917566046FBF",
              "parts": {
                "total": "1",
                "hash": "3C005D60EF2B00AED9119FC3D1AFB4CAC05EA85E"
              }
            },
            "signature": {
              "type": "tendermint/SignatureEd25519",
              "value": "iyvDMLxrj8nBDJnem7byJ81UwN6uzjUvlPMvMtBcIEE3vG9bhVxDTPQ1jmCh+1xA503NEcg7XGkOc/cqYBwlAQ=="
            }
          },
          {
            "validator_address": "CEB97DB5CB18270247ABDE6CF2F84F9AEE8A2904",
            "validator_index": "73",
            "height": "45221",
            "round": "0",
            "timestamp": "2018-08-02T10:15:33.930492974Z",
            "type": 2,
            "block_id": {
              "hash": "8828B00DD9CB2F5B18F168205D5D917566046FBF",
              "parts": {
                "total": "1",
                "hash": "3C005D60EF2B00AED9119FC3D1AFB4CAC05EA85E"
              }
            },
            "signature": {
              "type": "tendermint/SignatureEd25519",
              "value": "K7qxdriSVxSYKg4dPReGrxOEuZkmOgJMYlwWcmrVxmLr1R0/XHRzmaXYcCgmcYZqX2puZZ+8JOQ8cv13ox3lCQ=="
            }
          },
          {
            "validator_address": "D2134B826A1E25A955905CB79A4D8731CAFA0CCE",
            "validator_index": "74",
            "height": "45221",
            "round": "0",
            "timestamp": "2018-08-02T10:15:32.931218046Z",
            "type": 2,
            "block_id": {
              "hash": "8828B00DD9CB2F5B18F168205D5D917566046FBF",
              "parts": {
                "total": "1",
                "hash": "3C005D60EF2B00AED9119FC3D1AFB4CAC05EA85E"
              }
            },
            "signature": {
              "type": "tendermint/SignatureEd25519",
              "value": "GsROatVgHvhlxf7VoMrcpf3aJeGYzBGVX8CwdusCaEVHffBS4I7qtXbsYWXwFYObpwJxioC4WKdJm2CuPptkDQ=="
            }
          },
          {
            "validator_address": "D6285C3422C8886445D53757CBE12D2B91B5A9D0",
            "validator_index": "75",
            "height": "45221",
            "round": "0",
            "timestamp": "2018-08-02T10:15:16.2311712Z",
            "type": 2,
            "block_id": {
              "hash": "8828B00DD9CB2F5B18F168205D5D917566046FBF",
              "parts": {
                "total": "1",
                "hash": "3C005D60EF2B00AED9119FC3D1AFB4CAC05EA85E"
              }
            },
            "signature": {
              "type": "tendermint/SignatureEd25519",
              "value": "3lqAk642XMpsLsumRaUTh380txu4ni8Lb+Plnr+QPIbGWQRO0f9BN7bjsggxnMDDH3TMj7xPWzkS8GcRnN1ICg=="
            }
          },
          {
            "validator_address": "D77FB84A729972CD3E757C9BEB61561855832B92",
            "validator_index": "76",
            "height": "45221",
            "round": "0",
            "timestamp": "2018-08-02T10:15:32.986818185Z",
            "type": 2,
            "block_id": {
              "hash": "8828B00DD9CB2F5B18F168205D5D917566046FBF",
              "parts": {
                "total": "1",
                "hash": "3C005D60EF2B00AED9119FC3D1AFB4CAC05EA85E"
              }
            },
            "signature": {
              "type": "tendermint/SignatureEd25519",
              "value": "HvILtMUArEJTqS+vW+9gK6wCYTdbLny6Y6VSAzETjxgfkGBX7WdLeHaZ/Q/t7uBuNIYKvXdLEXRL1qEauAyxCw=="
            }
          },
          {
            "validator_address": "DB7E6732471D3EA5C90C17A9974D9F88AB45F2FB",
            "validator_index": "77",
            "height": "45221",
            "round": "0",
            "timestamp": "2018-08-02T10:15:32.861389289Z",
            "type": 2,
            "block_id": {
              "hash": "8828B00DD9CB2F5B18F168205D5D917566046FBF",
              "parts": {
                "total": "1",
                "hash": "3C005D60EF2B00AED9119FC3D1AFB4CAC05EA85E"
              }
            },
            "signature": {
              "type": "tendermint/SignatureEd25519",
              "value": "p3YdeeV45ApOiydk5U0mir9ZqIHPbVjEliUxtDGb1ajiSaKTByxf+Wir3Ky12uiJrglu7Y7BMizuaa4qqIWJCQ=="
            }
          },
          {
            "validator_address": "DF54B862410BCD9B5C516FBB6C56BDC826ED6FA7",
            "validator_index": "78",
            "height": "45221",
            "round": "0",
            "timestamp": "2018-08-02T10:15:33.094478544Z",
            "type": 2,
            "block_id": {
              "hash": "8828B00DD9CB2F5B18F168205D5D917566046FBF",
              "parts": {
                "total": "1",
                "hash": "3C005D60EF2B00AED9119FC3D1AFB4CAC05EA85E"
              }
            },
            "signature": {
              "type": "tendermint/SignatureEd25519",
              "value": "fj7cZuwBvjsG+LdijRMPDYWFbnXZREbgAHiKr+vR9l2jYYP2bvBMaHl8EVajYBztwRIsEA8oe92qZkPzfKfZDg=="
            }
          },
          {
            "validator_address": "DFAF0C8B1B78D6D552B0189DE3ACA351439A1319",
            "validator_index": "79",
            "height": "45221",
            "round": "0",
            "timestamp": "2018-08-02T10:15:32.848061439Z",
            "type": 2,
            "block_id": {
              "hash": "8828B00DD9CB2F5B18F168205D5D917566046FBF",
              "parts": {
                "total": "1",
                "hash": "3C005D60EF2B00AED9119FC3D1AFB4CAC05EA85E"
              }
            },
            "signature": {
              "type": "tendermint/SignatureEd25519",
              "value": "T5FzIw45OpI9BMqJKdGn41hencJUe/udLqPqwI+EWaJKS+RsMFoxXdu10LPUXDRROvRsQ1gNQJnKzowJfRQrAw=="
            }
          },
          {
            "validator_address": "E1DBC77881161A5A3A8536A57536EAE546A75D69",
            "validator_index": "80",
            "height": "45221",
            "round": "0",
            "timestamp": "2018-08-02T10:15:32.784993858Z",
            "type": 2,
            "block_id": {
              "hash": "8828B00DD9CB2F5B18F168205D5D917566046FBF",
              "parts": {
                "total": "1",
                "hash": "3C005D60EF2B00AED9119FC3D1AFB4CAC05EA85E"
              }
            },
            "signature": {
              "type": "tendermint/SignatureEd25519",
              "value": "A+ge6zROLnOxOM7STYe/F17DkIYFIDAMg5s96muUUU4/U66qkjPdtTio9iKH7jy5SKIuYS5q0uIPPJYjEXZTAQ=="
            }
          },
          {
            "validator_address": "E300E9D484374C1D3E97C1D93CAC3B160A056298",
            "validator_index": "81",
            "height": "45221",
            "round": "0",
            "timestamp": "2018-08-02T10:15:33.063499987Z",
            "type": 2,
            "block_id": {
              "hash": "8828B00DD9CB2F5B18F168205D5D917566046FBF",
              "parts": {
                "total": "1",
                "hash": "3C005D60EF2B00AED9119FC3D1AFB4CAC05EA85E"
              }
            },
            "signature": {
              "type": "tendermint/SignatureEd25519",
              "value": "XeIvdFEmy3aU9xpn+LtTefF35BH6I8Cy9yUFEklk0dW2/WvQJWFvakLVYu8sv+zpHT1wYo4qqnDq7qH8YCaGAg=="
            }
          },
          {
            "validator_address": "E39B5778E0D4297A46F45CF6940B0A163A430FF8",
            "validator_index": "82",
            "height": "45221",
            "round": "0",
            "timestamp": "2018-08-02T10:15:32.860736997Z",
            "type": 2,
            "block_id": {
              "hash": "8828B00DD9CB2F5B18F168205D5D917566046FBF",
              "parts": {
                "total": "1",
                "hash": "3C005D60EF2B00AED9119FC3D1AFB4CAC05EA85E"
              }
            },
            "signature": {
              "type": "tendermint/SignatureEd25519",
              "value": "TGMMLU84FY2krKJFvqoI+QEC7mLiXXxXsMJcZ9wYSwy/oGB8dXgzaGUqecM4KwKYp4xyEeEMuglnlpR6pukMAA=="
            }
          },
          {
            "validator_address": "E3B19738F7132F950668504D326C7660F159D170",
            "validator_index": "83",
            "height": "45221",
            "round": "0",
            "timestamp": "2018-08-02T10:15:32.810463909Z",
            "type": 2,
            "block_id": {
              "hash": "8828B00DD9CB2F5B18F168205D5D917566046FBF",
              "parts": {
                "total": "1",
                "hash": "3C005D60EF2B00AED9119FC3D1AFB4CAC05EA85E"
              }
            },
            "signature": {
              "type": "tendermint/SignatureEd25519",
              "value": "3I22ueqDI0ui4xOle1k8KX6ZF8bAQ+7oq/xgkH2MCcORpEVWrDWWh2OurszBtlIvx2fl5QM7vm3Zw89O4gEXBA=="
            }
          },
          {
            "validator_address": "E42F8AEABB685219F7027F54D2B0DBC7846F633A",
            "validator_index": "84",
            "height": "45221",
            "round": "0",
            "timestamp": "2018-08-02T10:15:31.909230035Z",
            "type": 2,
            "block_id": {
              "hash": "8828B00DD9CB2F5B18F168205D5D917566046FBF",
              "parts": {
                "total": "1",
                "hash": "3C005D60EF2B00AED9119FC3D1AFB4CAC05EA85E"
              }
            },
            "signature": {
              "type": "tendermint/SignatureEd25519",
              "value": "BdQeJihY8xykfDUl93pFDj0Hw0CJh3sDXDwR9i4K1PXVKEqx6dNSgHdZJEAJMkt/LdXLYjKZkUr+mMlVz9jBCA=="
            }
          },
          {
            "validator_address": "E4E6C2E81269DFFA196C17F98240E491479A6008",
            "validator_index": "85",
            "height": "45221",
            "round": "0",
            "timestamp": "2018-08-02T10:15:32.901425451Z",
            "type": 2,
            "block_id": {
              "hash": "8828B00DD9CB2F5B18F168205D5D917566046FBF",
              "parts": {
                "total": "1",
                "hash": "3C005D60EF2B00AED9119FC3D1AFB4CAC05EA85E"
              }
            },
            "signature": {
              "type": "tendermint/SignatureEd25519",
              "value": "FkcNe0l8TbrSL0aXLxUeLECF7CEIAibtOZVr7NP8RvHMYs0QLUyvLnyD2AIhVKVEpztbQSzEzOhjXjA3jnWnBA=="
            }
          },
          {
            "validator_address": "E4FEB2846F4F3B0ECDCBE9C9DCB2248248A5AF0F",
            "validator_index": "86",
            "height": "45221",
            "round": "0",
            "timestamp": "2018-08-02T10:15:32.688955703Z",
            "type": 2,
            "block_id": {
              "hash": "8828B00DD9CB2F5B18F168205D5D917566046FBF",
              "parts": {
                "total": "1",
                "hash": "3C005D60EF2B00AED9119FC3D1AFB4CAC05EA85E"
              }
            },
            "signature": {
              "type": "tendermint/SignatureEd25519",
              "value": "9RuiBG6nOpL2FkumhTryghYqEHiLrZP9BLErxwAux0RUOEc9bnXH2fnigdkC6oq7ikaZ6ypL0rPrhBdI/NIeAw=="
            }
          },
          {
            "validator_address": "E50ADECD5FD27FA2CD610C07F8AED36A2FC4A6A6",
            "validator_index": "87",
            "height": "45221",
            "round": "0",
            "timestamp": "2018-08-02T10:15:32.866736142Z",
            "type": 2,
            "block_id": {
              "hash": "8828B00DD9CB2F5B18F168205D5D917566046FBF",
              "parts": {
                "total": "1",
                "hash": "3C005D60EF2B00AED9119FC3D1AFB4CAC05EA85E"
              }
            },
            "signature": {
              "type": "tendermint/SignatureEd25519",
              "value": "E97sHq1l5kcmtCH9+kgNySb8b6ZKwIurXSpUneWgeozfbU+r+BW06xpZwG+OmHBNLzC38PT6OFtgBp4NcXkcBw=="
            }
          },
          {
            "validator_address": "E6A7079D584B163750BE0831227F6B685DEAF3C1",
            "validator_index": "88",
            "height": "45221",
            "round": "0",
            "timestamp": "2018-08-02T10:15:32.930292038Z",
            "type": 2,
            "block_id": {
              "hash": "8828B00DD9CB2F5B18F168205D5D917566046FBF",
              "parts": {
                "total": "1",
                "hash": "3C005D60EF2B00AED9119FC3D1AFB4CAC05EA85E"
              }
            },
            "signature": {
              "type": "tendermint/SignatureEd25519",
              "value": "Cy8gQaH1Qiec7CePLr7sOSgQqb1xBU5A4kD7myVrQ7tI+zufxB6ahALtkWtYjNvZkBOAK5GcWNqrjFfqyicmBg=="
            }
          },
          {
            "validator_address": "E7A30077D5D11867D3EAF99ED45BFDC1EB834509",
            "validator_index": "89",
            "height": "45221",
            "round": "0",
            "timestamp": "2018-08-02T10:15:32.859213583Z",
            "type": 2,
            "block_id": {
              "hash": "8828B00DD9CB2F5B18F168205D5D917566046FBF",
              "parts": {
                "total": "1",
                "hash": "3C005D60EF2B00AED9119FC3D1AFB4CAC05EA85E"
              }
            },
            "signature": {
              "type": "tendermint/SignatureEd25519",
              "value": "sYnwSWq9sxgQbxBG7VpCQkbKYfcnZLM8CrUvILZSGoruPTKMXcCxiTgPKdH2PgUtLletNNykjQIDh3VYJieZCQ=="
            }
          },
          {
            "validator_address": "EBC613967F66F4EC306852CDF58B4F151CF16738",
            "validator_index": "90",
            "height": "45221",
            "round": "0",
            "timestamp": "2018-08-02T10:15:33.020334826Z",
            "type": 2,
            "block_id": {
              "hash": "8828B00DD9CB2F5B18F168205D5D917566046FBF",
              "parts": {
                "total": "1",
                "hash": "3C005D60EF2B00AED9119FC3D1AFB4CAC05EA85E"
              }
            },
            "signature": {
              "type": "tendermint/SignatureEd25519",
              "value": "klrBdt/Bv9MAeixyNHN/TKoDu4qI1Y4/RwBD3znsTauROrVN6pG3Kqhz5ofLmDrliogwlvmREeCuE0cDCPlIBA=="
            }
          },
          {
            "validator_address": "EC3401441726C40ECC7E51F744483B05BC6DE9BD",
            "validator_index": "91",
            "height": "45221",
            "round": "0",
            "timestamp": "2018-08-02T10:15:32.907415Z",
            "type": 2,
            "block_id": {
              "hash": "8828B00DD9CB2F5B18F168205D5D917566046FBF",
              "parts": {
                "total": "1",
                "hash": "3C005D60EF2B00AED9119FC3D1AFB4CAC05EA85E"
              }
            },
            "signature": {
              "type": "tendermint/SignatureEd25519",
              "value": "39SdciD6cLCcA91AiB/vqxhyblJ19Y+NmlQ1VjdLw5HztPH6hg/LZ2HeqjjuleXoFxgq9Pz6l3wmslYgxV/0CQ=="
            }
          },
          {
            "validator_address": "EC95B111D032181E1EC3B5E8875C5BB8E4AE7140",
            "validator_index": "92",
            "height": "45221",
            "round": "0",
            "timestamp": "2018-08-02T10:15:32.826409153Z",
            "type": 2,
            "block_id": {
              "hash": "8828B00DD9CB2F5B18F168205D5D917566046FBF",
              "parts": {
                "total": "1",
                "hash": "3C005D60EF2B00AED9119FC3D1AFB4CAC05EA85E"
              }
            },
            "signature": {
              "type": "tendermint/SignatureEd25519",
              "value": "Vxs9SvSTiKii23m/zu3YjmplA2SJaC7XhsILBp2Ltsy+AiAYhDoj0d+2gfBVl3ech8/J7In9m8BR9J2zYlFSCg=="
            }
          },
          {
            "validator_address": "F13C1805E8131C9B47E2A46818F57D8A2841E578",
            "validator_index": "93",
            "height": "45221",
            "round": "0",
            "timestamp": "2018-08-02T10:15:32.898991346Z",
            "type": 2,
            "block_id": {
              "hash": "8828B00DD9CB2F5B18F168205D5D917566046FBF",
              "parts": {
                "total": "1",
                "hash": "3C005D60EF2B00AED9119FC3D1AFB4CAC05EA85E"
              }
            },
            "signature": {
              "type": "tendermint/SignatureEd25519",
              "value": "/Lk7IEExcaW6gA2uHw/xFJG+hjk9cO7irrWZLKfOn7XbNhrY9LXuGAPYDoOWshbZ2vqZj6pJ+H3jHetuwIvHDQ=="
            }
          },
          {
            "validator_address": "F23FF36BD5B90C33CE3A03ED72DBDCF5EC07D6AF",
            "validator_index": "94",
            "height": "45221",
            "round": "0",
            "timestamp": "2018-08-02T10:15:32.921213045Z",
            "type": 2,
            "block_id": {
              "hash": "8828B00DD9CB2F5B18F168205D5D917566046FBF",
              "parts": {
                "total": "1",
                "hash": "3C005D60EF2B00AED9119FC3D1AFB4CAC05EA85E"
              }
            },
            "signature": {
              "type": "tendermint/SignatureEd25519",
              "value": "9xmuYqRto0ziweHxacwIxRc7EsQDp2GUZI1/iS6+2AwKtT2vOU34XLhf+HItiiRlnwzQSklF0CzB/+zaijphBg=="
            }
          },
          {
            "validator_address": "F4268597DE93E3E2CED38845010F8AA34E2A879E",
            "validator_index": "95",
            "height": "45221",
            "round": "0",
            "timestamp": "2018-08-02T10:15:32.891329756Z",
            "type": 2,
            "block_id": {
              "hash": "8828B00DD9CB2F5B18F168205D5D917566046FBF",
              "parts": {
                "total": "1",
                "hash": "3C005D60EF2B00AED9119FC3D1AFB4CAC05EA85E"
              }
            },
            "signature": {
              "type": "tendermint/SignatureEd25519",
              "value": "MEcnCDnqx4gJDPDykGOg6I8Fz4ir56RXsXzL7wHzLs5WVsy1C2nrCVIcXIFOcGIKOLJ82uYWa3STKhka31NtDw=="
            }
          },
          {
            "validator_address": "F4DEB417999B04BE2EFF9FFE03FA373D86011CC0",
            "validator_index": "96",
            "height": "45221",
            "round": "0",
            "timestamp": "2018-08-02T10:15:32.952541474Z",
            "type": 2,
            "block_id": {
              "hash": "8828B00DD9CB2F5B18F168205D5D917566046FBF",
              "parts": {
                "total": "1",
                "hash": "3C005D60EF2B00AED9119FC3D1AFB4CAC05EA85E"
              }
            },
            "signature": {
              "type": "tendermint/SignatureEd25519",
              "value": "KY4DhrzThUUle6mGflr2IrcS5Z6vewMLYA0LeocttSZAYOnQ3h2XhQPDKRqQ/TJbbO7pyi/1DgDu1bd0SmaECg=="
            }
          },
          {
            "validator_address": "F6738260186D33D9C14FC6E7017AFE6BB952A63D",
            "validator_index": "97",
            "height": "45221",
            "round": "0",
            "timestamp": "2018-08-02T10:15:32.826295062Z",
            "type": 2,
            "block_id": {
              "hash": "8828B00DD9CB2F5B18F168205D5D917566046FBF",
              "parts": {
                "total": "1",
                "hash": "3C005D60EF2B00AED9119FC3D1AFB4CAC05EA85E"
              }
            },
            "signature": {
              "type": "tendermint/SignatureEd25519",
              "value": "ZFK8vXjYy3URn4rmU5gFYXywDaR8O1UXRYsrcgImgRfC8YEVGjtRfXVkl5h3d14DU/PCfn5uk7Ex2/U6lv4RAg=="
            }
          },
          {
            "validator_address": "FD8D304F0278229077114B05BED9DABD382D49D8",
            "validator_index": "98",
            "height": "45221",
            "round": "0",
            "timestamp": "2018-08-02T10:15:33.010595626Z",
            "type": 2,
            "block_id": {
              "hash": "8828B00DD9CB2F5B18F168205D5D917566046FBF",
              "parts": {
                "total": "1",
                "hash": "3C005D60EF2B00AED9119FC3D1AFB4CAC05EA85E"
              }
            },
            "signature": {
              "type": "tendermint/SignatureEd25519",
              "value": "8ngQRJtN5Rs85mlbdrzlvjguesnTtlA3FciAD2O44lBQYHmr3BaZsan1lBEZYz1QYeQW83kePvJrKJVpZtaUCQ=="
            }
          },
          {
            "validator_address": "FF3F3FCBCE7E62D7AD5506FF846EC4518D980515",
            "validator_index": "99",
            "height": "45221",
            "round": "0",
            "timestamp": "2018-08-02T10:15:32.81323926Z",
            "type": 2,
            "block_id": {
              "hash": "8828B00DD9CB2F5B18F168205D5D917566046FBF",
              "parts": {
                "total": "1",
                "hash": "3C005D60EF2B00AED9119FC3D1AFB4CAC05EA85E"
              }
            },
            "signature": {
              "type": "tendermint/SignatureEd25519",
              "value": "hGSI/Yls2Lvrt2UmpRcQ+pyW4DJKci53vYspHIvEriDOLbFslaMcjMSigb8f/q4mG8I0fl6o5V4VtKKVzbP/Bg=="
            }
          }
        ]
      }
    },
    "canonical": true
  }
}