{
  "jsonrpc": "2.0",
  "id": "",
  "result": {
    "SignedHeader": {
      "header": {
        "chain_id": "gaia-7004",
        "height": "48154",
        "time": "2018-08-02T15:13:27.108945861Z",
        "num_txs": "0",
        "last_block_id": {
          "hash": "E9B0F7D40CFA3E72F6D918FB1158EFE56A08C196",
          "parts": {
            "total": "1",
            "hash": "2B0234782F9EFAA8E770AF17BC43D7BD205DCCDA"
          }
        },
        "total_txs": "2141",
        "last_commit_hash": "7546199066B198D72D46BB4E1A01E459F5151431",
        "data_hash": "",
        "validators_hash": "4EB9F8B3CF04B0D23C12E512F3E74398F0083E8F",
        "consensus_hash": "D6B74BB35BDFFD8392340F2A379173548AE188FE",
        "app_hash": "3A233A3E3CA8F4E4C19DAB4363F257D537B23104",
        "last_results_hash": "",
        "evidence_hash": ""
      },
      "commit": {
        "block_id": {
          "hash": "F275FCABCE0DF068F073D548C65B53E8CE063E1F",
          "parts": {
            "total": "1",
            "hash": "C1D11393C983A4E6174A2D818D9F2C2BEAF065C1"
          }
        },
        "precommits": [
          {
            "validator_address": "029359C0C768096273A68ABC902A6B17AC8D1D70",
            "validator_index": "0",
            "height": "48154",
            "round": "1",
            "timestamp": "2018-08-02T15:13:28.068856615Z",
            "type": 2,
            "block_id": {
              "hash": "F275FCABCE0DF068F073D548C65B53E8CE063E1F",
              "parts": {
                "total": "1",
                "hash": "C1D11393C983A4E6174A2D818D9F2C2BEAF065C1"
              }
            },
            "signature": {
              "type": "tendermint/SignatureEd25519",
              "value": "xkbFXqll5jis9UXCUM03gLASfbSXenHj2mdj9tIDxcSMBHzcXyykRz0hARDe9yrRHlqRjno6p2IDu6f0mrvSDw=="
            }
          },
          {
            "validator_address": "02FE4B97A8387F39D1AC19E0C1702B3CC614812F",
            "validator_index": "1",
            "height": "48154",
            "round": "1",
            "timestamp": "2018-08-02T15:13:28.058532333Z",
            "type": 2,
            "block_id": {
              "hash": "F275FCABCE0DF068F073D548C65B53E8CE063E1F",
              "parts": {
                "total": "1",
                "hash": "C1D11393C983A4E6174A2D818D9F2C2BEAF065C1"
              }
            },
            "signature": {
              "type": "tendermint/SignatureEd25519",
              "value": "K6Iu3MYI106bul2IjHHDXPlcseVKON+cSbmahOE87tXtojTKHeWBED2eZzgPyrQrdfpGm5AeXYsbWlFlDg8fCQ=="
            }
          },
          {
            "validator_address": "0548261C50222FD710EB5EBDF03A0E6567B21D20",
            "validator_index": "2",
            "height": "48154",
            "round": "1",
            "timestamp": "2018-08-02T15:13:28.079327862Z",
            "type": 2,
            "block_id": {
              "hash": "F275FCABCE0DF068F073D548C65B53E8CE063E1F",
              "parts": {
                "total": "1",
                "hash": "C1D11393C983A4E6174A2D818D9F2C2BEAF065C1"
              }
            },
            "signature": {
              "type": "tendermint/SignatureEd25519",
              "value": "eHuZRjXh0jpF9Pg7uoyZ108SBlXW3copM2NRRJhGyZye/79eqA6xO/emwSTgiHiR5SnPbF6+pzu1BG4wFYM1DQ=="
            }
          },
          {
            "validator_address": "0665ADBF9B120B7617BF955AA5653A1992C82B11",
            "validator_index": "3",
            "height": "48154",
            "round": "1",
            "timestamp": "2018-08-02T15:13:28.029750314Z",
            "type": 2,
            "block_id": {
              "hash": "F275FCABCE0DF068F073D548C65B53E8CE063E1F",
              "parts": {
                "total": "1",
                "hash": "C1D11393C983A4E6174A2D818D9F2C2BEAF065C1"
              }
            },
            "signature": {
              "type": "tendermint/SignatureEd25519",
              "value": "wm1hLpjy5a9ULFcJ4qXszDKt6ahhmL1+wR44TyQACwEEtAuk0G49DhT29ryV4xULhvXZALZzc2Ifr/WtkVG5Bg=="
            }
          },
          {
            "validator_address": "09145E611CC27EEB944FC5A956DDF710F943B9EF",
            "validator_index": "4",
            "height": "48154",
            "round": "1",
            "timestamp": "2018-08-02T15:13:28.071086168Z",
            "type": 2,
            "block_id": {
              "hash": "F275FCABCE0DF068F073D548C65B53E8CE063E1F",
              "parts": {
                "total": "1",
                "hash": "C1D11393C983A4E6174A2D818D9F2C2BEAF065C1"
              }
            },
            "signature": {
              "type": "tendermint/SignatureEd25519",
              "value": "SnqcII1e81ruAUzHaocONYdbbtxSe/jXUKnAQzGZRXMyO+hGchkKyyTFm/B0suUSTphnl+w6GahY+owG1t5DDQ=="
            }
          },
          {
            "validator_address": "0989D0355A104B67AE0AE028C68FB610690E174B",
            "validator_index": "5",
            "height": "48154",
            "round": "1",
            "timestamp": "2018-08-02T15:13:28.020834204Z",
            "type": 2,
            "block_id": {
              "hash": "F275FCABCE0DF068F073D548C65B53E8CE063E1F",
              "parts": {
                "total": "1",
                "hash": "C1D11393C983A4E6174A2D818D9F2C2BEAF065C1"
              }
            },
            "signature": {
              "type": "tendermint/SignatureEd25519",
              "value": "Yru/roqhitRNDSUsEx8gfW6oO+MkMLh5cvYOwJNY6fKLY1Aw2YoX0/P7mFUPkM16XVN5mIwRcfw6s8Ar5dfCAw=="
            }
          },
          {
            "validator_address": "0A692DBFFE9E5DD28E7DECC33CED1AEB4C0D014E",
            "validator_index": "6",
            "height": "48154",
            "round": "1",
            "timestamp": "2018-08-02T15:13:28.106687274Z",
            "type": 2,
            "block_id": {
              "hash": "F275FCABCE0DF068F073D548C65B53E8CE063E1F",
              "parts": {
                "total": "1",
                "hash": "C1D11393C983A4E6174A2D818D9F2C2BEAF065C1"
              }
            },
            "signature": {
              "type": "tendermint/SignatureEd25519",
              "value": "/O85kt5C/39PzYkXRSA8tjuyM9+HoTKNorJq53tvTio7qwBjMRHAdf5p9xgUAc40DqkdBPz8LOjjVGtKyRnEDw=="
            }
          },
          {
            "validator_address": "1751786EFC085D5331C61168FFFC8202EA151B4E",
            "validator_index": "7",
            "height": "48154",
            "round": "1",
            "timestamp": "2018-08-02T15:13:27.65720254Z",
            "type": 2,
            "block_id": {
              "hash": "F275FCABCE0DF068F073D548C65B53E8CE063E1F",
              "parts": {
                "total": "1",
                "hash": "C1D11393C983A4E6174A2D818D9F2C2BEAF065C1"
              }
            },
            "signature": {
              "type": "tendermint/SignatureEd25519",
              "value": "t4ywJNNAKyj7tjty3Vo0vtOzdZ/7b20KvptcwRegN9Cd13E1EjUFvcpPd3Lef+72HjohouYyZ58c1RNPmM/GBQ=="
            }
          },
          {
            "validator_address": "17BB5CD01E8940FAFB948A04D5FA5A0645E5822E",
            "validator_index": "8",
            "height": "48154",
            "round": "1",
            "timestamp": "2018-08-02T15:13:28.036730827Z",
            "type": 2,
            "block_id": {
              "hash": "F275FCABCE0DF068F073D548C65B53E8CE063E1F",
              "parts": {
                "total": "1",
                "hash": "C1D11393C983A4E6174A2D818D9F2C2BEAF065C1"
              }
            },
            "signature": {
              "type": "tendermint/SignatureEd25519",
              "value": "sU1nG+Rx6SyKIABBMrvksYJl+kGcNp+IZEowj+iRSu73QS5tI7fZpyf6KsZ0APDPp3Xnh3iOg4IguvGUKhuVAg=="
            }
          },
          {
            "validator_address": "1C683A87904BC38F05004FE83301A3A3E35447EB",
            "validator_index": "9",
            "height": "48154",
            "round": "1",
            "timestamp": "2018-08-02T15:13:28.015157554Z",
            "type": 2,
            "block_id": {
              "hash": "F275FCABCE0DF068F073D548C65B53E8CE063E1F",
              "parts": {
                "total": "1",
                "hash": "C1D11393C983A4E6174A2D818D9F2C2BEAF065C1"
              }
            },
            "signature": {
              "type": "tendermint/SignatureEd25519",
              "value": "Fz7tUlzOrMVYKWk6LlL4DVwm30Y4sqOKx9ZDWW1WXmhtFDxJkOVoCubz7x8rGAM1wISr8Rp/NE3Uidhk4C9bAw=="
            }
          },
          {
            "validator_address": "1E9CE94FD0BA5CFEB901F90BC658D64D85B134D2",
            "validator_index": "10",
            "height": "48154",
            "round": "1",
            "timestamp": "2018-08-02T15:13:28.069047999Z",
            "type": 2,
            "block_id": {
              "hash": "F275FCABCE0DF068F073D548C65B53E8CE063E1F",
              "parts": {
                "total": "1",
                "hash": "C1D11393C983A4E6174A2D818D9F2C2BEAF065C1"
              }
            },
            "signature": {
              "type": "tendermint/SignatureEd25519",
              "value": "ZKBa1S2h/6CJ4MZFYqsw3LeqZC6eGbPVfKHfrFuU2p2Y6tiXT4KIKVgz8PUDoDL4+16yzC4bsE5yhAv6znDiCw=="
            }
          },
          {
            "validator_address": "1ECD8C5FE1341D74CDC633A245DD56858DE2F9A2",
            "validator_index": "11",
            "height": "48154",
            "round": "1",
            "timestamp": "2018-08-02T15:13:28.120064894Z",
            "type": 2,
            "block_id": {
              "hash": "F275FCABCE0DF068F073D548C65B53E8CE063E1F",
              "parts": {
                "total": "1",
                "hash": "C1D11393C983A4E6174A2D818D9F2C2BEAF065C1"
              }
            },
            "signature": {
              "type": "tendermint/SignatureEd25519",
              "value": "ppN51GZScZaxYejfgLoIouP+xEww9bQ+lnfgIYJdszLE0DlQlkCMB+rVSvqlStMZb3WvxPAtMpa1urO3jtuqCw=="
            }
          },
          {
            "validator_address": "1F3A68CAAD483768AA2BF667DEF10F7104C89928",
            "validator_index": "12",
            "height": "48154",
            "round": "1",
            "timestamp": "2018-08-02T15:13:28.0197587Z",
            "type": 2,
            "block_id": {
              "hash": "F275FCABCE0DF068F073D548C65B53E8CE063E1F",
              "parts": {
                "total": "1",
                "hash": "C1D11393C983A4E6174A2D818D9F2C2BEAF065C1"
              }
            },
            "signature": {
              "type": "tendermint/SignatureEd25519",
              "value": "DidFX/G4uo7zhD/nvXbTRtzAKXe7AuEGTeCYb3gQEIaF/5fF4Skt8VH8oXy6SjuBnVaW0+bbK0viQm5NgPAjDA=="
            }
          },
          {
            "validator_address": "1F61153F26C2DF27E15874268D30326287323352",
            "validator_index": "13",
            "height": "48154",
            "round": "1",
            "timestamp": "2018-08-02T15:13:28.126260543Z",
            "type": 2,
            "block_id": {
              "hash": "F275FCABCE0DF068F073D548C65B53E8CE063E1F",
              "parts": {
                "total": "1",
                "hash": "C1D11393C983A4E6174A2D818D9F2C2BEAF065C1"
              }
            },
            "signature": {
              "type": "tendermint/SignatureEd25519",
              "value": "MAnbAHfEqSE+G7TLrK8Savbm6YMnx/mSm8r9GXssdBv/VXTb8cCzv5OUtmNwTiNwGrxIu+NVxbbgoBDDjj94Cw=="
            }
          },
          {
            "validator_address": "23897586D68E2AC1C78E0EF5BB5DF5C8EAB18F50",
            "validator_index": "14",
            "height": "48154",
            "round": "1",
            "timestamp": "2018-08-02T15:13:28.099495363Z",
            "type": 2,
            "block_id": {
              "hash": "F275FCABCE0DF068F073D548C65B53E8CE063E1F",
              "parts": {
                "total": "1",
                "hash": "C1D11393C983A4E6174A2D818D9F2C2BEAF065C1"
              }
            },
            "signature": {
              "type": "tendermint/SignatureEd25519",
              "value": "FC4uj/r8BWxKw3el92tXs3W+vzYrLMv+EwbBvEwY5BFr1CuihNDGwRPbfcbWXW+h+iU2+HJGD6Zyij6HGkfcBQ=="
            }
          },
          {
            "validator_address": "28770D17E8530825E7310A0659308654B7EC9682",
            "validator_index": "15",
            "height": "48154",
            "round": "1",
            "timestamp": "2018-08-02T15:13:28.024177537Z",
            "type": 2,
            "block_id": {
              "hash": "F275FCABCE0DF068F073D548C65B53E8CE063E1F",
              "parts": {
                "total": "1",
                "hash": "C1D11393C983A4E6174A2D818D9F2C2BEAF065C1"
              }
            },
            "signature": {
              "type": "tendermint/SignatureEd25519",
              "value": "q5yWYUrbBf2Kixwyy/lYU+8/qU+KzM3jdhR9JpZlavPB76PoUfye5uQdAGtAHEBxlXKZubSGAfZ6jsSMkrCODw=="
            }
          },
          {
            "validator_address": "2A92EC3C642140202298D0E245095E0ECFC25228",
            "validator_index": "16",
            "height": "48154",
            "round": "1",
            "timestamp": "2018-08-02T15:13:28.098987404Z",
            "type": 2,
            "block_id": {
              "hash": "F275FCABCE0DF068F073D548C65B53E8CE063E1F",
              "parts": {
                "total": "1",
                "hash": "C1D11393C983A4E6174A2D818D9F2C2BEAF065C1"
              }
            },
            "signature": {
              "type": "tendermint/SignatureEd25519",
              "value": "yzADlFz1NjZ0m2VqlU5D2iGajGNT5l//CACZyz6Oe8z3Zlgj/tjSAo2yRLXUuthYVvt9S4e2UE6cf2RhQAZyAQ=="
            }
          },
          {
            "validator_address": "33412C9A69C60CB0FAA24A5C5B3A906DE24B47C2",
            "validator_index": "17",
            "height": "48154",
            "round": "1",
            "timestamp": "2018-08-02T15:13:28.0531563Z",
            "type": 2,
            "block_id": {
              "hash": "F275FCABCE0DF068F073D548C65B53E8CE063E1F",
              "parts": {
                "total": "1",
                "hash": "C1D11393C983A4E6174A2D818D9F2C2BEAF065C1"
              }
            },
            "signature": {
              "type": "tendermint/SignatureEd25519",
              "value": "JourMR8SZdgddJnh0/PjwZ5QM8zkdIW4FqSquUAmr86sZyvTmz38eNmEQx5h6GgQn2a4TyXQWWS40imWBOx1BQ=="
            }
          },
          {
            "validator_address": "36E9B7FAEC964F97D84C028ED62493E373AD0B38",
            "validator_index": "18",
            "height": "48154",
            "round": "1",
            "timestamp": "2018-08-02T15:13:28.093604148Z",
            "type": 2,
            "block_id": {
              "hash": "F275FCABCE0DF068F073D548C65B53E8CE063E1F",
              "parts": {
                "total": "1",
                "hash": "C1D11393C983A4E6174A2D818D9F2C2BEAF065C1"
              }
            },
            "signature": {
              "type": "tendermint/SignatureEd25519",
              "value": "4i4xNXsYFFNutDlPBEMkC9eGogpa4LFmrESQBZs9JqF9aYjRc6NpgXTvk3Gslyg1/tYbyPXlTRJKf182NyV5Aw=="
            }
          },
          {
            "validator_address": "38A8D85D36BEA2E5FCF8A1E778F53628E450EF13",
            "validator_index": "19",
            "height": "48154",
            "round": "1",
            "timestamp": "2018-08-02T15:13:28.18848582Z",
            "type": 2,
            "block_id": {
              "hash": "F275FCABCE0DF068F073D548C65B53E8CE063E1F",
              "parts": {
                "total": "1",
                "hash": "C1D11393C983A4E6174A2D818D9F2C2BEAF065C1"
              }
            },
            "signature": {
              "type": "tendermint/SignatureEd25519",
              "value": "b13Z8Ia1AlqZRKN3mvTvBt+FX81IaiDC26TJfiiQ58teEEjY0nNra+D6T8lZ/IWkzhJAstRT+tMJGycSSYXMDg=="
            }
          },
          {
            "validator_address": "39DFDA0C5DB84B269642188B23253508537798E6",
            "validator_index": "20",
            "height": "48154",
            "round": "1",
            "timestamp": "2018-08-02T15:13:28.027713255Z",
            "type": 2,
            "block_id": {
              "hash": "F275FCABCE0DF068F073D548C65B53E8CE063E1F",
              "parts": {
                "total": "1",
                "hash": "C1D11393C983A4E6174A2D818D9F2C2BEAF065C1"
              }
            },
            "signature": {
              "type": "tendermint/SignatureEd25519",
              "value": "oThqj4I2qJfYRT1F+IUw0XlZBV+jx62POMqE3OeZfWvj5BNc9TDR6om0FmXBHC/o/FPrHZK2WrXHXqGaXWxeDw=="
            }
          },
          {
            "validator_address": "3AC99B708404452366E0953A4BE849226DC86CBC",
            "validator_index": "21",
            "height": "48154",
            "round": "1",
            "timestamp": "2018-08-02T15:13:28.120984034Z",
            "type": 2,
            "block_id": {
              "hash": "F275FCABCE0DF068F073D548C65B53E8CE063E1F",
              "parts": {
                "total": "1",
                "hash": "C1D11393C983A4E6174A2D818D9F2C2BEAF065C1"
              }
            },
            "signature": {
              "type": "tendermint/SignatureEd25519",
              "value": "XRGyNbHJzC4bqqNDWE1TrsZLsWCbGowors9+B8plv1IfdQEsZgUquaOTiZOPU8Ja2tyqALy6gKONMmYeeKv+AQ=="
            }
          },
          {
            "validator_address": "3DCB822A10ED319EC7C4393D8E3FD4A41B15AAF2",
            "validator_index": "22",
            "height": "48154",
            "round": "1",
            "timestamp": "2018-08-02T15:13:27.970023617Z",
            "type": 2,
            "block_id": {
              "hash": "F275FCABCE0DF068F073D548C65B53E8CE063E1F",
              "parts": {
                "total": "1",
                "hash": "C1D11393C983A4E6174A2D818D9F2C2BEAF065C1"
              }
            },
            "signature": {
              "type": "tendermint/SignatureEd25519",
              "value": "ANHy3rjVMdhjXAMnTg5UTdPep18z0kGGlbqOj4NbazMjgfnVvNgutRn3uVlnpXzp4Lw1DkrXCqLlVH1k8R+8Cw=="
            }
          },
          {
            "validator_address": "3E899BA36A93C7370347BD5FE85909F2ECD93F8C",
            "validator_index": "23",
            "height": "48154",
            "round": "1",
            "timestamp": "2018-08-02T15:13:28.080734642Z",
            "type": 2,
            "block_id": {
              "hash": "F275FCABCE0DF068F073D548C65B53E8CE063E1F",
              "parts": {
                "total": "1",
                "hash": "C1D11393C983A4E6174A2D818D9F2C2BEAF065C1"
              }
            },
            "signature": {
              "type": "tendermint/SignatureEd25519",
              "value": "umYIf84aKHz9/YwY0D3VDwhT2VHCT2oaWX4UpucoZJx1NqD6ysRe6XmLeXNHE+PuYLDwgc4WJuyZcWHdL9p1BA=="
            }
          },
          {
            "validator_address": "41CAB2E29E7D0F2282E3275938F188FF9386B84C",
            "validator_index": "24",
            "height": "48154",
            "round": "1",
            "timestamp": "2018-08-02T15:13:28.084065859Z",
            "type": 2,
            "block_id": {
              "hash": "F275FCABCE0DF068F073D548C65B53E8CE063E1F",
              "parts": {
                "total": "1",
                "hash": "C1D11393C983A4E6174A2D818D9F2C2BEAF065C1"
              }
            },
            "signature": {
              "type": "tendermint/SignatureEd25519",
              "value": "ln7l4M4Xp1VUqW1RRP6cINfPnq7QtaWQrQXA3En1XCfI7vscwOJK+oHaxJK+9gxbbNSsifzczMlDt5CIg0/hDw=="
            }
          },
          {
            "validator_address": "462B656869DB02A8FD1077E255F8CC7401DC37C6",
            "validator_index": "25",
            "height": "48154",
            "round": "1",
            "timestamp": "2018-08-02T15:13:28.026299539Z",
            "type": 2,
            "block_id": {
              "hash": "F275FCABCE0DF068F073D548C65B53E8CE063E1F",
              "parts": {
                "total": "1",
                "hash": "C1D11393C983A4E6174A2D818D9F2C2BEAF065C1"
              }
            },
            "signature": {
              "type": "tendermint/SignatureEd25519",
              "value": "GNTJflsgl4YOyMUrN+avppbuJ29SnQ6ue28bZJ+Er4Pl1qkMecyRLBxAaNjZ/KGD6WLksQokII26vXSoZtTOCQ=="
            }
          },
          {
            "validator_address": "48E5118163E5442068A1B5A42D2EEDBB75724935",
            "validator_index": "26",
            "height": "48154",
            "round": "1",
            "timestamp": "2018-08-02T15:13:28.144384876Z",
            "type": 2,
            "block_id": {
              "hash": "F275FCABCE0DF068F073D548C65B53E8CE063E1F",
              "parts": {
                "total": "1",
                "hash": "C1D11393C983A4E6174A2D818D9F2C2BEAF065C1"
              }
            },
            "signature": {
              "type": "tendermint/SignatureEd25519",
              "value": "ijxX9oMxmzti7zPtEGNHtR88/aia4t7S6dadO3j66w/isPJnI+EiMfugj0qwkqyUHyDXXuSh5egfdLm4PfjaCg=="
            }
          },
          {
            "validator_address": "49103C58AFD9C7C069F55EBA218F3DFD9AEA74F9",
            "validator_index": "27",
            "height": "48154",
            "round": "1",
            "timestamp": "2018-08-02T15:13:28.033811741Z",
            "type": 2,
            "block_id": {
              "hash": "F275FCABCE0DF068F073D548C65B53E8CE063E1F",
              "parts": {
                "total": "1",
                "hash": "C1D11393C983A4E6174A2D818D9F2C2BEAF065C1"
              }
            },
            "signature": {
              "type": "tendermint/SignatureEd25519",
              "value": "jMWLZVn6+su4vumHzAk4/QVk0DeOUXNnsqk4qRNBkjUqQ4xmLYzR+VU9nADYRF7DpE65VXwTGL9xPAHIBa76Bg=="
            }
          },
          {
            "validator_address": "4944F8BBBB5303E17BC0607DF332320EDBC750EA",
            "validator_index": "28",
            "height": "48154",
            "round": "1",
            "timestamp": "2018-08-02T15:13:28.08177011Z",
            "type": 2,
            "block_id": {
              "hash": "F275FCABCE0DF068F073D548C65B53E8CE063E1F",
              "parts": {
                "total": "1",
                "hash": "C1D11393C983A4E6174A2D818D9F2C2BEAF065C1"
              }
            },
            "signature": {
              "type": "tendermint/SignatureEd25519",
              "value": "t0kNYw62GGTPPUFUhZ/GKXUxNAub5JNCyQY4JuPN0gWZb3HnO1ETU4FC8un129X5H6B1VzFfXMpDOs4tQBGNCQ=="
            }
          },
          {
            "validator_address": "49841599DE675157CBE1E7D6B35BF8FFC23BD5CB",
            "validator_index": "29",
            "height": "48154",
            "round": "1",
            "timestamp": "2018-08-02T15:13:28.001745482Z",
            "type": 2,
            "block_id": {
              "hash": "F275FCABCE0DF068F073D548C65B53E8CE063E1F",
              "parts": {
                "total": "1",
                "hash": "C1D11393C983A4E6174A2D818D9F2C2BEAF065C1"
              }
            },
            "signature": {
              "type": "tendermint/SignatureEd25519",
              "value": "MLsAQmowRTCENu2PheH0UEqNFvs9xDcdlxUcC4303whErjYzWLLbl4GKGhuFijjLrZqiJ/Ka5raSbW/Vl0YcBA=="
            }
          },
          {
            "validator_address": "51386C2CF9556821D114D7E4945806802BADB28D",
            "validator_index": "30",
            "height": "48154",
            "round": "1",
            "timestamp": "2018-08-02T15:13:28.142409603Z",
            "type": 2,
            "block_id": {
              "hash": "F275FCABCE0DF068F073D548C65B53E8CE063E1F",
              "parts": {
                "total": "1",
                "hash": "C1D11393C983A4E6174A2D818D9F2C2BEAF065C1"
              }
            },
            "signature": {
              "type": "tendermint/SignatureEd25519",
              "value": "fEE61GQ13Pcdv1LDutfz9IkJJ5QsZ4bTUScw+UiwaEwAl7cOiP87nULQiyhbT1qUdNnVK4ePD16GGd9VSK04Dw=="
            }
          },
          {
            "validator_address": "543564ECA3AFEFADC73EE8591AAC3A96F079BC8A",
            "validator_index": "31",
            "height": "48154",
            "round": "1",
            "timestamp": "2018-08-02T15:13:28.021130604Z",
            "type": 2,
            "block_id": {
              "hash": "F275FCABCE0DF068F073D548C65B53E8CE063E1F",
              "parts": {
                "total": "1",
                "hash": "C1D11393C983A4E6174A2D818D9F2C2BEAF065C1"
              }
            },
            "signature": {
              "type": "tendermint/SignatureEd25519",
              "value": "XzmGHV2NnWx6WkBB38jxbqX9KXk0fAg+pikut1HH8cH/5wrJKc36r4WBRaL/Qk0mEuojW0ndY7xcPvjw8ipFBg=="
            }
          },
          {
            "validator_address": "55D67B1A6DC13E96F8754A5A42EABC20F7F86664",
            "validator_index": "32",
            "height": "48154",
            "round": "1",
            "timestamp": "2018-08-02T15:13:28.074809367Z",
            "type": 2,
            "block_id": {
              "hash": "F275FCABCE0DF068F073D548C65B53E8CE063E1F",
              "parts": {
                "total": "1",
                "hash": "C1D11393C983A4E6174A2D818D9F2C2BEAF065C1"
              }
            },
            "signature": {
              "type": "tendermint/SignatureEd25519",
              "value": "MvgoAa5fAbmfbhkagIE543HR5ldBgKYEuKlYm5bZdLHtam25FRUL3XppUfLN6on5LVB0NpxCFqgZyAQQyx5dCQ=="
            }
          },
          {
            "validator_address": "570B6A755ED339EAC56BB3390A48069F6AC9449B",
            "validator_index": "33",
            "height": "48154",
            "round": "1",
            "timestamp": "2018-08-02T15:13:38.084562336Z",
            "type": 2,
            "block_id": {
              "hash": "F275FCABCE0DF068F073D548C65B53E8CE063E1F",
              "parts": {
                "total": "1",
                "hash": "C1D11393C983A4E6174A2D818D9F2C2BEAF065C1"
              }
            },
            "signature": {
              "type": "tendermint/SignatureEd25519",
              "value": "3BXLohsw51PfbbL7DNySzx/D6ZaelzvdtzbWE4XqoUhXe6nz+4oUnU6Aim8vuiFqV2ZSw3p2LvfeIw62iPL0Bg=="
            }
          },
          {
            "validator_address": "5BDF8EA41B1835FBAD865B181A2A4B23F511B5E4",
            "validator_index": "34",
            "height": "48154",
            "round": "1",
            "timestamp": "2018-08-02T15:13:28.05532961Z",
            "type": 2,
            "block_id": {
              "hash": "F275FCABCE0DF068F073D548C65B53E8CE063E1F",
              "parts": {
                "total": "1",
                "hash": "C1D11393C983A4E6174A2D818D9F2C2BEAF065C1"
              }
            },
            "signature": {
              "type": "tendermint/SignatureEd25519",
              "value": "Gck0m91S8TxDo0NfD5yapMO72eS9M2MWrNsbnKshex6378vJ3KiCtYN2O8gBAMTufv00whs1mVkDWBYNHuJxBA=="
            }
          },
          null,
          {
            "validator_address": "60229E2E273297FE00219E46DFFB8F76844CDEF9",
            "validator_index": "36",
            "height": "48154",
            "round": "1",
            "timestamp": "2018-08-02T15:13:25.332046727Z",
            "type": 2,
            "block_id": {
              "hash": "F275FCABCE0DF068F073D548C65B53E8CE063E1F",
              "parts": {
                "total": "1",
                "hash": "C1D11393C983A4E6174A2D818D9F2C2BEAF065C1"
              }
            },
            "signature": {
              "type": "tendermint/SignatureEd25519",
              "value": "dksUMkNjkIGxRnP0co+U/pEVyeATmQaj1LEdNrDN8t+iDj2AEX39FddEnIv+xYzGEaacMz6M4tqx9s1e80NYDQ=="
            }
          },
          {
            "validator_address": "62410D6D1CD98278136E4D0738AA0EA273CDFC54",
            "validator_index": "37",
            "height": "48154",
            "round": "1",
            "timestamp": "2018-08-02T15:13:28.061301186Z",
            "type": 2,
            "block_id": {
              "hash": "F275FCABCE0DF068F073D548C65B53E8CE063E1F",
              "parts": {
                "total": "1",
                "hash": "C1D11393C983A4E6174A2D818D9F2C2BEAF065C1"
              }
            },
            "signature": {
              "type": "tendermint/SignatureEd25519",
              "value": "EuoVTtRrG9SCrdW7aC281pYk2CmOb1rSv6laxdYYEIbfgh++bjyX8Kt92Px/1sH8bZ85L2nlUEcuttkEBhkBCA=="
            }
          },
          {
            "validator_address": "632F5C139A5A9DFBFE5111DEE29FCFB6157207DC",
            "validator_index": "38",
            "height": "48154",
            "round": "1",
            "timestamp": "2018-08-02T15:13:28.005169743Z",
            "type": 2,
            "block_id": {
              "hash": "F275FCABCE0DF068F073D548C65B53E8CE063E1F",
              "parts": {
                "total": "1",
                "hash": "C1D11393C983A4E6174A2D818D9F2C2BEAF065C1"
              }
            },
            "signature": {
              "type": "tendermint/SignatureEd25519",
              "value": "0K9pD2wltdQlUjGEmWaH2K7DVevEdEHSPPFELg+auDSpFSD7En1YD9rcQR5UHcwo+M2+E6p7ol2gQN8/58AHCA=="
            }
          },
          {
            "validator_address": "64F57F8E796A9B7B590C1EFA4123988C86631D39",
            "validator_index": "39",
            "height": "48154",
            "round": "1",
            "timestamp": "2018-08-02T15:13:28.017427642Z",
            "type": 2,
            "block_id": {
              "hash": "F275FCABCE0DF068F073D548C65B53E8CE063E1F",
              "parts": {
                "total": "1",
                "hash": "C1D11393C983A4E6174A2D818D9F2C2BEAF065C1"
              }
            },
            "signature": {
              "type": "tendermint/SignatureEd25519",
              "value": "LmUCtqAiQAOk8MZmxpW2DpjXOUkLHKnQvrA15VdryXwVojtUuhksePYFtQIDkcr7ezXPGu+guymLyBia8SknCQ=="
            }
          },
          {
            "validator_address": "69D99B2C66043ACBEAA8447525C356AFC6408E0C",
            "validator_index": "40",
            "height": "48154",
            "round": "1",
            "timestamp": "2018-08-02T15:13:28.125823163Z",
            "type": 2,
            "block_id": {
              "hash": "F275FCABCE0DF068F073D548C65B53E8CE063E1F",
              "parts": {
                "total": "1",
                "hash": "C1D11393C983A4E6174A2D818D9F2C2BEAF065C1"
              }
            },
            "signature": {
              "type": "tendermint/SignatureEd25519",
              "value": "80miEoVZZHyZxAmYjiKVAeooHV1Sig1sdQo38VdYqxwm+gxQ2wQ/cKh59BCc1tZ/SOoqvvTBtp2MYzGzQPjiBQ=="
            }
          },
          {
            "validator_address": "69EDADFA4A803E9DBF548C900D4A465E7D154262",
            "validator_index": "41",
            "height": "48154",
            "round": "1",
            "timestamp": "2018-08-02T15:13:28.180556369Z",
            "type": 2,
            "block_id": {
              "hash": "F275FCABCE0DF068F073D548C65B53E8CE063E1F",
              "parts": {
                "total": "1",
                "hash": "C1D11393C983A4E6174A2D818D9F2C2BEAF065C1"
              }
            },
            "signature": {
              "type": "tendermint/SignatureEd25519",
              "value": "geEnbtX/w2+488yfI6aDjSDRjkJX80Hf7D1I7qn+/thLZWcq1NEWHiGiaUm0byYumth5bycRoUG/OhPuY8cPAg=="
            }
          },
          {
            "validator_address": "6D3AD380E398D8592B03AA124BAFED5F125DF863",
            "validator_index": "42",
            "height": "48154",
            "round": "1",
            "timestamp": "2018-08-02T15:12:25.361751076Z",
            "type": 2,
            "block_id": {
              "hash": "F275FCABCE0DF068F073D548C65B53E8CE063E1F",
              "parts": {
                "total": "1",
                "hash": "C1D11393C983A4E6174A2D818D9F2C2BEAF065C1"
              }
            },
            "signature": {
              "type": "tendermint/SignatureEd25519",
              "value": "j7bf3Qf2j6Sj/XsfXlVnf9GLJrV4su0UoIJoNXm1JrFX1HTLr+pelAAZXZ4VruC9hpAcKWW0KF69tEr5qQX6Ag=="
            }
          },
          {
            "validator_address": "6F6C93B8BF3495063FEC9B5C771158607F4AE9D6",
            "validator_index": "43",
            "height": "48154",
            "round": "1",
            "timestamp": "2018-08-02T15:13:28.077933245Z",
            "type": 2,
            "block_id": {
              "hash": "F275FCABCE0DF068F073D548C65B53E8CE063E1F",
              "parts": {
                "total": "1",
                "hash": "C1D11393C983A4E6174A2D818D9F2C2BEAF065C1"
              }
            },
            "signature": {
              "type": "tendermint/SignatureEd25519",
              "value": "0FeiowHRlS2b+QXqdYZqLXWqYOSFtnkba/mdjxgmvdLcsTeXEvg46SW3jfuuYPNg3Ed+Xwa1Iqa+YlJ5aY5OCg=="
            }
          },
          {
            "validator_address": "732CEEF54C374DDC6ADECBFD707AEFD07FEDC143",
            "validator_index": "44",
            "height": "48154",
            "round": "1",
            "timestamp": "2018-08-02T15:13:28.16409698Z",
            "type": 2,
            "block_id": {
              "hash": "F275FCABCE0DF068F073D548C65B53E8CE063E1F",
              "parts": {
                "total": "1",
                "hash": "C1D11393C983A4E6174A2D818D9F2C2BEAF065C1"
              }
            },
            "signature": {
              "type": "tendermint/SignatureEd25519",
              "value": "4HAOKSCFln1SEU5X2VyjxncE+Cjak3OagrXh890v9Ch87hT4qDssDv2TF7/Ca51uwt96nw/Epm1IDpW6VDgHBw=="
            }
          },
          {
            "validator_address": "751E43437224E8BB6D1569B3E2B2616B6E7F4397",
            "validator_index": "45",
            "height": "48154",
            "round": "1",
            "timestamp": "2018-08-02T15:13:28.046332225Z",
            "type": 2,
            "block_id": {
              "hash": "F275FCABCE0DF068F073D548C65B53E8CE063E1F",
              "parts": {
                "total": "1",
                "hash": "C1D11393C983A4E6174A2D818D9F2C2BEAF065C1"
              }
            },
            "signature": {
              "type": "tendermint/SignatureEd25519",
              "value": "Dpa8bxyaZz80CvkNSKmuzB80d+ycf1bZcg2aHqZtIiVeNZZT0NIvI1QYdGClc2jGvkHN/3bhDpOmas5bySFODg=="
            }
          },
          {
            "validator_address": "7EB7593F519F1180C7E872D0494611464EDF03AE",
            "validator_index": "46",
            "height": "48154",
            "round": "1",
            "timestamp": "2018-08-02T15:13:28.105705111Z",
            "type": 2,
            "block_id": {
              "hash": "F275FCABCE0DF068F073D548C65B53E8CE063E1F",
              "parts": {
                "total": "1",
                "hash": "C1D11393C983A4E6174A2D818D9F2C2BEAF065C1"
              }
            },
            "signature": {
              "type": "tendermint/SignatureEd25519",
              "value": "E8DAezilqPr8cdHqpqOZFMKrh+TVuHbqoJ4kkAxIux4ZIBgWBcNAkIHdHmezZE+goT7w/orU9ciZSFdFxxQEAQ=="
            }
          },
          {
            "validator_address": "8356899C8853BC6640D76F76E59743FFEEA57B81",
            "validator_index": "47",
            "height": "48154",
            "round": "1",
            "timestamp": "2018-08-02T15:13:28.059911252Z",
            "type": 2,
            "block_id": {
              "hash": "F275FCABCE0DF068F073D548C65B53E8CE063E1F",
              "parts": {
                "total": "1",
                "hash": "C1D11393C983A4E6174A2D818D9F2C2BEAF065C1"
              }
            },
            "signature": {
              "type": "tendermint/SignatureEd25519",
              "value": "fzrlR/B85Ey2dRpNcZqiYuSOL00v9WnvTgeUFdmfAFBkfSHGWT3K3GkSiBkJNIoNx5igKbLxjPyWnF7tUh6eBA=="
            }
          },
          {
            "validator_address": "83AB321E012C57746689FED3A6064DF331F81007",
            "validator_index": "48",
            "height": "48154",
            "round": "1",
            "timestamp": "2018-08-02T15:13:28.074791411Z",
            "type": 2,
            "block_id": {
              "hash": "F275FCABCE0DF068F073D548C65B53E8CE063E1F",
              "parts": {
                "total": "1",
                "hash": "C1D11393C983A4E6174A2D818D9F2C2BEAF065C1"
              }
            },
            "signature": {
              "type": "tendermint/SignatureEd25519",
              "value": "1uZmr6mYjI+qmlVD4hiA7DTth4NljTXVnkIbxorWaGunBhUqFMcecf4HV8Nied1/ikkK1n3lEiJIW0SFlHCCCg=="
            }
          },
          {
            "validator_address": "83BB1B88D3DBB20AD845FECA07749EBD87D3754D",
            "validator_index": "49",
            "height": "48154",
            "round": "1",
            "timestamp": "2018-08-02T15:13:28.288341558Z",
            "type": 2,
            "block_id": {
              "hash": "F275FCABCE0DF068F073D548C65B53E8CE063E1F",
              "parts": {
                "total": "1",
                "hash": "C1D11393C983A4E6174A2D818D9F2C2BEAF065C1"
              }
            },
            "signature": {
              "type": "tendermint/SignatureEd25519",
              "value": "07XavhRa9tEBnCuXnW349fUaxqZ4JUaynmG66Y/46UzWcjOE3mBxhdXC679qjC/8/Vkvs3GuluMu24j12Kz2CQ=="
            }
          },
          {
            "validator_address": "8F06FE1FD042683C426137FBC4BBAA4288924217",
            "validator_index": "50",
            "height": "48154",
            "round": "1",
            "timestamp": "2018-08-02T15:13:28.093688208Z",
            "type": 2,
            "block_id": {
              "hash": "F275FCABCE0DF068F073D548C65B53E8CE063E1F",
              "parts": {
                "total": "1",
                "hash": "C1D11393C983A4E6174A2D818D9F2C2BEAF065C1"
              }
            },
            "signature": {
              "type": "tendermint/SignatureEd25519",
              "value": "kaSJfP2jjPHGV8sq8LvUczmstIVdW4Qj9zbp2nMh8LsN5JxhLK8sEzyUke19YFh3SC+e3UbbD5rpC2o38y/tCg=="
            }
          },
          {
            "validator_address": "95980831E186F2540F6E9FB6C8E74DE2401405AC",
            "validator_index": "51",
            "height": "48154",
            "round": "1",
            "timestamp": "2018-08-02T15:13:28.055433895Z",
            "type": 2,
            "block_id": {
              "hash": "F275FCABCE0DF068F073D548C65B53E8CE063E1F",
              "parts": {
                "total": "1",
                "hash": "C1D11393C983A4E6174A2D818D9F2C2BEAF065C1"
              }
            },
            "signature": {
              "type": "tendermint/SignatureEd25519",
              "value": "dfJZ/wqPQrsj4FBFSuTRVLdidGo9FAuSS/tjFmhcHz4f2OMq85zC7jQaJRGkbDqxv8wFnDQz5UQKLgAMSUl0BA=="
            }
          },
          {
            "validator_address": "95FAFBC1E0579C83D290A063020CE87C5334BD9B",
            "validator_index": "52",
            "height": "48154",
            "round": "1",
            "timestamp": "2018-08-02T15:13:28.031025246Z",
            "type": 2,
            "block_id": {
              "hash": "F275FCABCE0DF068F073D548C65B53E8CE063E1F",
              "parts": {
                "total": "1",
                "hash": "C1D11393C983A4E6174A2D818D9F2C2BEAF065C1"
              }
            },
            "signature": {
              "type": "tendermint/SignatureEd25519",
              "value": "4OYxsfyiVjycwmW6iTh65vcyKZiuN+C4wiBsFhil29KO+MC+9RcJdbTRwi8Ydxp05fBxUJTWfdbQd8s7PwyqAw=="
            }
          },
          {
            "validator_address": "96BDE45EC52606CF5CB59853097871AD60680549",
            "validator_index": "53",
            "height": "48154",
            "round": "1",
            "timestamp": "2018-08-02T15:13:28.059066833Z",
            "type": 2,
            "block_id": {
              "hash": "F275FCABCE0DF068F073D548C65B53E8CE063E1F",
              "parts": {
                "total": "1",
                "hash": "C1D11393C983A4E6174A2D818D9F2C2BEAF065C1"
              }
            },
            "signature": {
              "type": "tendermint/SignatureEd25519",
              "value": "R5eFMQV2vsXw83EmDFjKxtk/lDON+aPuiiGxDAD09P2aKfCa3ZuMEgtjpuXPCtQDM3m3SrLIm6e5jw3V6L5YCw=="
            }
          },
          {
            "validator_address": "970CD321881185BF83DB2923C321B0E75FDBB2B8",
            "validator_index": "54",
            "height": "48154",
            "round": "1",
            "timestamp": "2018-08-02T15:13:28.122843254Z",
            "type": 2,
            "block_id": {
              "hash": "F275FCABCE0DF068F073D548C65B53E8CE063E1F",
              "parts": {
                "total": "1",
                "hash": "C1D11393C983A4E6174A2D818D9F2C2BEAF065C1"
              }
            },
            "signature": {
              "type": "tendermint/SignatureEd25519",
              "value": "RAuBYPaXaGIhnp1Fu3UHXbbsxZM8mZJqCRFUPNfYSmdZF5XSOKmW8aDB3zK0BKZjX4xAwKKtEtlof4SOBo52Cw=="
            }
          },
          {
            "validator_address": "97DBB3D4B3D6C29287244864448F651DD5B07390",
            "validator_index": "55",
            "height": "48154",
            "round": "1",
            "timestamp": "2018-08-02T15:13:28.204870107Z",
            "type": 2,
            "block_id": {
              "hash": "F275FCABCE0DF068F073D548C65B53E8CE063E1F",
              "parts": {
                "total": "1",
                "hash": "C1D11393C983A4E6174A2D818D9F2C2BEAF065C1"
              }
            },
            "signature": {
              "type": "tendermint/SignatureEd25519",
              "value": "LSH6TNZiNJTO2dU8VRWQRMJoAvknIeXfYLpcaoC/SgMWipcFvbhu8jTb1Xz0xNjdo4Ufc8b5p1pxz00WFvypBg=="
            }
          },
          {
            "validator_address": "9C29C9B76D27586E4D9AD2AED0E943162645E55C",
            "validator_index": "56",
            "height": "48154",
            "round": "1",
            "timestamp": "2018-08-02T15:13:28.001615835Z",
            "type": 2,
            "block_id": {
              "hash": "F275FCABCE0DF068F073D548C65B53E8CE063E1F",
              "parts": {
                "total": "1",
                "hash": "C1D11393C983A4E6174A2D818D9F2C2BEAF065C1"
              }
            },
            "signature": {
              "type": "tendermint/SignatureEd25519",
              "value": "4SZvsxbnUl/sIEDp9l4imihZSiiVIoEmeKteKJoBhgO9gwnqxVo5gV02Sjmq+qdTH2wavB9R9MAphlEIGfz2Bg=="
            }
          },
          {
            "validator_address": "9D93AD02FE1BD7E76B9E58D7EB461088EAD011E5",
            "validator_index": "57",
            "height": "48154",
            "round": "1",
            "timestamp": "2018-08-02T15:13:28.019403766Z",
            "type": 2,
            "block_id": {
              "hash": "F275FCABCE0DF068F073D548C65B53E8CE063E1F",
              "parts": {
                "total": "1",
                "hash": "C1D11393C983A4E6174A2D818D9F2C2BEAF065C1"
              }
            },
            "signature": {
              "type": "tendermint/SignatureEd25519",
              "value": "GqPK3nVRpBPb6jRDQC27HblaIgoHoTG+1OfNhrjTfMxR45A2JzuoGe9NeWwAPyB6PxhdABSD8Mhf1ecICCBmDQ=="
            }
          },
          {
            "validator_address": "A0A6466F4ABEA09C3B55E3709AFDE217A103209F",
            "validator_index": "58",
            "height": "48154",
            "round": "1",
            "timestamp": "2018-08-02T15:13:28.018518434Z",
            "type": 2,
            "block_id": {
              "hash": "F275FCABCE0DF068F073D548C65B53E8CE063E1F",
              "parts": {
                "total": "1",
                "hash": "C1D11393C983A4E6174A2D818D9F2C2BEAF065C1"
              }
            },
            "signature": {
              "type": "tendermint/SignatureEd25519",
              "value": "UP+sCMsMp5x4KUHqrncrX/Pkn/hucv2a8tO7J/zrdp294qbup8IFjCpeOu8FF3faPUTGkdCTSYOd+ALBxJ1cBQ=="
            }
          },
          {
            "validator_address": "A5868971300F155020634D7BB49C7634F7AACCD3",
            "validator_index": "59",
            "height": "48154",
            "round": "1",
            "timestamp": "2018-08-02T15:13:28.068348557Z",
            "type": 2,
            "block_id": {
              "hash": "F275FCABCE0DF068F073D548C65B53E8CE063E1F",
              "parts": {
                "total": "1",
                "hash": "C1D11393C983A4E6174A2D818D9F2C2BEAF065C1"
              }
            },
            "signature": {
              "type": "tendermint/SignatureEd25519",
              "value": "xqoH3UpLaPIxuvw79+08orNKb1SK+7xOsfo/bqwERmIn+Wlo1l9EfQ+DM+GEfRsGAAOsPh7o333TzTRLgnt7Cw=="
            }
          },
          {
            "validator_address": "A6B3A5B5D982CFD7B5FDFA15CF5A720E7AE25E7F",
            "validator_index": "60",
            "height": "48154",
            "round": "1",
            "timestamp": "2018-08-02T15:13:28.438547317Z",
            "type": 2,
            "block_id": {
              "hash": "F275FCABCE0DF068F073D548C65B53E8CE063E1F",
              "parts": {
                "total": "1",
                "hash": "C1D11393C983A4E6174A2D818D9F2C2BEAF065C1"
              }
            },
            "signature": {
              "type": "tendermint/SignatureEd25519",
              "value": "jgvtkYxTDjjv+qy0w92ZRi0sLSjzk6nmOirueyHgmn5IBNsrerv4l5XBiG05SGfczniD3L1FIXF4aikF+6yxCw=="
            }
          },
          {
            "validator_address": "AC96444A9083890B7C7B430DB17BF1D3EA5EED04",
            "validator_index": "61",
            "height": "48154",
            "round": "1",
            "timestamp": "2018-08-02T15:13:28.117752715Z",
            "type": 2,
            "block_id": {
              "hash": "F275FCABCE0DF068F073D548C65B53E8CE063E1F",
              "parts": {
                "total": "1",
                "hash": "C1D11393C983A4E6174A2D818D9F2C2BEAF065C1"
              }
            },
            "signature": {
              "type": "tendermint/SignatureEd25519",
              "value": "MPj1mRG9Xm6tg0U06HG7BVd9hQofK4YpZ0bCI2q3Ad6jnwkPXbzuj1QswMQYZBDFwFdv+1HGOoDwQ+FeGjHqAA=="
            }
          },
          {
            "validator_address": "ACB97FDA2D940AF0709B73537C458EB988AD2893",
            "validator_index": "62",
            "height": "48154",
            "round": "1",
            "timestamp": "2018-08-02T15:13:28.030245424Z",
            "type": 2,
            "block_id": {
              "hash": "F275FCABCE0DF068F073D548C65B53E8CE063E1F",
              "parts": {
                "total": "1",
                "hash": "C1D11393C983A4E6174A2D818D9F2C2BEAF065C1"
              }
            },
            "signature": {
              "type": "tendermint/SignatureEd25519",
              "value": "gjBRmiEG5aM5MEQMg02iHQDlu0agbkcUUFjUrSv4hH2A1tJxfX+5DqHlFtsJ78UiSn8jCvod/7pSqlbDQd0fCw=="
            }
          },
          {
            "validator_address": "B197425B3210375F211661DE02EF2AE36580EB0F",
            "validator_index": "63",
            "height": "48154",
            "round": "1",
            "timestamp": "2018-08-02T15:13:28.071258481Z",
            "type": 2,
            "block_id": {
              "hash": "F275FCABCE0DF068F073D548C65B53E8CE063E1F",
              "parts": {
                "total": "1",
                "hash": "C1D11393C983A4E6174A2D818D9F2C2BEAF065C1"
              }
            },
            "signature": {
              "type": "tendermint/SignatureEd25519",
              "value": "PDfjK9Czxcgp2q0qbI2bUTY5nEWHFNuaIy635jauo40R5XVWyl8+Zoc88YfKx5vcCM7uGuTwexoiYw6zv189DQ=="
            }
          },
          {
            "validator_address": "B45E54D2D1CB5A4CCD1D49016608C18E7C56B270",
            "validator_index": "64",
            "height": "48154",
            "round": "1",
            "timestamp": "2018-08-02T15:13:28.142782551Z",
            "type": 2,
            "block_id": {
              "hash": "F275FCABCE0DF068F073D548C65B53E8CE063E1F",
              "parts": {
                "total": "1",
                "hash": "C1D11393C983A4E6174A2D818D9F2C2BEAF065C1"
              }
            },
            "signature": {
              "type": "tendermint/SignatureEd25519",
              "value": "gVn9KqDLJWrEIo4K5B9ZkXJNe/DIZO2kxuvAcXSU9Gi5Sin0n7hXTwLzTl5fTBWhCiNfascLogXpK2k/8Q6qBA=="
            }
          },
          {
            "validator_address": "BB1276BE89834835428664408917649FEEF5D90C",
            "validator_index": "65",
            "height": "48154",
            "round": "1",
            "timestamp": "2018-08-02T15:13:28.061512711Z",
            "type": 2,
            "block_id": {
              "hash": "F275FCABCE0DF068F073D548C65B53E8CE063E1F",
              "parts": {
                "total": "1",
                "hash": "C1D11393C983A4E6174A2D818D9F2C2BEAF065C1"
              }
            },
            "signature": {
              "type": "tendermint/SignatureEd25519",
              "value": "BR4zPalM8GtJcL9fa8w/BxdO4ln8fINDeoh1h3U2LsTlplp/t1mhSpcPjEw0jtYkxWurEFpVpb2n/emmJ6buBg=="
            }
          },
          {
            "validator_address": "BC36FEDD6EF6071118A3E51859DF3831A2EC4782",
            "validator_index": "66",
            "height": "48154",
            "round": "1",
            "timestamp": "2018-08-02T15:13:28.021911034Z",
            "type": 2,
            "block_id": {
              "hash": "F275FCABCE0DF068F073D548C65B53E8CE063E1F",
              "parts": {
                "total": "1",
                "hash": "C1D11393C983A4E6174A2D818D9F2C2BEAF065C1"
              }
            },
            "signature": {
              "type": "tendermint/SignatureEd25519",
              "value": "T9+crC/KiES78cSAbQmnXhdu5sCC2Hdjka5hzn5cXwo+VsmWaH346WBcsaqoVnFSGdGxmuJH90g0GMvjCu40CQ=="
            }
          },
          {
            "validator_address": "BD9D0DA513BF099DB4BB6E725A4E19832789882F",
            "validator_index": "67",
            "height": "48154",
            "round": "1",
            "timestamp": "2018-08-02T15:13:28.041189786Z",
            "type": 2,
            "block_id": {
              "hash": "F275FCABCE0DF068F073D548C65B53E8CE063E1F",
              "parts": {
                "total": "1",
                "hash": "C1D11393C983A4E6174A2D818D9F2C2BEAF065C1"
              }
            },
            "signature": {
              "type": "tendermint/SignatureEd25519",
              "value": "DUqN7zpzNHYe6xDO4R1q1ffb+Mgvgvq3+ANXuMJs8RcDRVuADmKlW3VXMi+XrtgyIwEp+0ZMP8NW1Lj0qj/cDQ=="
            }
          },
          {
            "validator_address": "C1134A2FF8F7338E7CDB3FE57DDD2A655DEB1E22",
            "validator_index": "68",
            "height": "48154",
            "round": "1",
            "timestamp": "2018-08-02T15:13:27.283071985Z",
            "type": 2,
            "block_id": {
              "hash": "F275FCABCE0DF068F073D548C65B53E8CE063E1F",
              "parts": {
                "total": "1",
                "hash": "C1D11393C983A4E6174A2D818D9F2C2BEAF065C1"
              }
            },
            "signature": {
              "type": "tendermint/SignatureEd25519",
              "value": "jpQV4VuJIbhAQiQ23JH4bGaP4pDVIAeOtLluHq14u/FapcKrQKuLfHfBRgF1ru+3REL/vPhmGQKTHIEg2vAeCQ=="
            }
          },
          {
            "validator_address": "C39A8A2B85198DCB8F23AD1F6C198E2BA7AB5D60",
            "validator_index": "69",
            "height": "48154",
            "round": "1",
            "timestamp": "2018-08-02T15:13:28.014448332Z",
            "type": 2,
            "block_id": {
              "hash": "F275FCABCE0DF068F073D548C65B53E8CE063E1F",
              "parts": {
                "total": "1",
                "hash": "C1D11393C983A4E6174A2D818D9F2C2BEAF065C1"
              }
            },
            "signature": {
              "type": "tendermint/SignatureEd25519",
              "value": "eAPytA/+WftCBGgBLubrrv24IrH7kaylfdb6AsaUC09DSC9ycK7Sf9p7P68xZXi6VxmsM/qnebgzq7GDUD/CDA=="
            }
          },
          {
            "validator_address": "C4335190C3B5BD4BA5568BC0F99C34162D940D08",
            "validator_index": "70",
            "height": "48154",
            "round": "1",
            "timestamp": "2018-08-02T15:13:28.11656346Z",
            "type": 2,
            "block_id": {
              "hash": "F275FCABCE0DF068F073D548C65B53E8CE063E1F",
              "parts": {
                "total": "1",
                "hash": "C1D11393C983A4E6174A2D818D9F2C2BEAF065C1"
              }
            },
            "signature": {
              "type": "tendermint/SignatureEd25519",
              "value": "Z5xlpn0X14W68wmch1xD2fSZRpJo7XDWgzNofXM+/c5zNLG0bG9/u/wnepCGaVres+quJ69YkPYwB9OW5GhOBg=="
            }
          },
          {
            "validator_address": "C561CFA081677046376396922E7576E5F7B316AD",
            "validator_index": "71",
            "height": "48154",
            "round": "1",
            "timestamp": "2018-08-02T15:13:28.160256266Z",
            "type": 2,
            "block_id": {
              "hash": "F275FCABCE0DF068F073D548C65B53E8CE063E1F",
              "parts": {
                "total": "1",
                "hash": "C1D11393C983A4E6174A2D818D9F2C2BEAF065C1"
              }
            },
            "signature": {
              "type": "tendermint/SignatureEd25519",
              "value": "ZbJGtmm96K/sI36J/9uGQdy6bLAm6Q2V3/lEtiOy4V+OfNkEvEr9ENmFELyLKnyk52bATpX7Aqa46dupmnwtBA=="
            }
          },
          {
            "validator_address": "CEB97DB5CB18270247ABDE6CF2F84F9AEE8A2904",
            "validator_index": "72",
            "height": "48154",
            "round": "1",
            "timestamp": "2018-08-02T15:13:29.152421511Z",
            "type": 2,
            "block_id": {
              "hash": "F275FCABCE0DF068F073D548C65B53E8CE063E1F",
              "parts": {
                "total": "1",
                "hash": "C1D11393C983A4E6174A2D818D9F2C2BEAF065C1"
              }
            },
            "signature": {
              "type": "tendermint/SignatureEd25519",
              "value": "HlQRjvXU3mnvdYgSXTOvnGELUuA2KjxD0ECdFk44Q5X/oxXX7soX3Ntoe5QJ6rzhzhQh1o1bMbjR+niezuR+CA=="
            }
          },
          {
            "validator_address": "D2134B826A1E25A955905CB79A4D8731CAFA0CCE",
            "validator_index": "73",
            "height": "48154",
            "round": "1",
            "timestamp": "2018-08-02T15:13:28.148587063Z",
            "type": 2,
            "block_id": {
              "hash": "F275FCABCE0DF068F073D548C65B53E8CE063E1F",
              "parts": {
                "total": "1",
                "hash": "C1D11393C983A4E6174A2D818D9F2C2BEAF065C1"
              }
            },
            "signature": {
              "type": "tendermint/SignatureEd25519",
              "value": "lw6l5VRu9veuPuAsoSy3VXFzwRj1nado4fyUZakOLmncG2g+vXoXmFXy/fg7gmzrz9i1QksgAVoaI8fHQv/1Dw=="
            }
          },
          {
            "validator_address": "D6285C3422C8886445D53757CBE12D2B91B5A9D0",
            "validator_index": "74",
            "height": "48154",
            "round": "1",
            "timestamp": "2018-08-02T15:13:11.514662145Z",
            "type": 2,
            "block_id": {
              "hash": "F275FCABCE0DF068F073D548C65B53E8CE063E1F",
              "parts": {
                "total": "1",
                "hash": "C1D11393C983A4E6174A2D818D9F2C2BEAF065C1"
              }
            },
            "signature": {
              "type": "tendermint/SignatureEd25519",
              "value": "A4MLsEJrXyK+11ZhIwl3inxW1SlJnoFvk+CKtClpgrUi9FSbYA85AyUrBDncurYJG6g1ADW3Wl+igtnWwVhHAg=="
            }
          },
          {
            "validator_address": "D77FB84A729972CD3E757C9BEB61561855832B92",
            "validator_index": "75",
            "height": "48154",
            "round": "1",
            "timestamp": "2018-08-02T15:13:28.167276586Z",
            "type": 2,
            "block_id": {
              "hash": "F275FCABCE0DF068F073D548C65B53E8CE063E1F",
              "parts": {
                "total": "1",
                "hash": "C1D11393C983A4E6174A2D818D9F2C2BEAF065C1"
              }
            },
            "signature": {
              "type": "tendermint/SignatureEd25519",
              "value": "xJuHAd8X484bBHsVUGA4nVGvb2IjPvcmVMN0+s20d/+DQpFMYB80hcUDX6DXxNpaKEmvpAsYSNbhOEPzEZ1QAQ=="
            }
          },
          {
            "validator_address": "DB7E6732471D3EA5C90C17A9974D9F88AB45F2FB",
            "validator_index": "76",
            "height": "48154",
            "round": "1",
            "timestamp": "2018-08-02T15:13:28.082971623Z",
            "type": 2,
            "block_id": {
              "hash": "F275FCABCE0DF068F073D548C65B53E8CE063E1F",
              "parts": {
                "total": "1",
                "hash": "C1D11393C983A4E6174A2D818D9F2C2BEAF065C1"
              }
            },
            "signature": {
              "type": "tendermint/SignatureEd25519",
              "value": "GqIaEDnIuTC7vtTXTwp+4Mw0bbVE0m2w3DKg+TDrH9q9DVN6syeABk3LEFTSdEUvYfemEXA5OAoQd6nwWU0dCA=="
            }
          },
          {
            "validator_address": "DF54B862410BCD9B5C516FBB6C56BDC826ED6FA7",
            "validator_index": "77",
            "height": "48154",
            "round": "1",
            "timestamp": "2018-08-02T15:13:28.195830608Z",
            "type": 2,
            "block_id": {
              "hash": "F275FCABCE0DF068F073D548C65B53E8CE063E1F",
              "parts": {
                "total": "1",
                "hash": "C1D11393C983A4E6174A2D818D9F2C2BEAF065C1"
              }
            },
            "signature": {
              "type": "tendermint/SignatureEd25519",
              "value": "m++REO1oi8xCIBpusKjh6aGR/KlycqtIJF6etNE9OHkekSQ3Hq9rld29+wuG1EwbzeZmNA7OgZsPlKw/n1scDQ=="
            }
          },
          {
            "validator_address": "DFAF0C8B1B78D6D552B0189DE3ACA351439A1319",
            "validator_index": "78",
            "height": "48154",
            "round": "1",
            "timestamp": "2018-08-02T15:13:28.044693379Z",
            "type": 2,
            "block_id": {
              "hash": "F275FCABCE0DF068F073D548C65B53E8CE063E1F",
              "parts": {
                "total": "1",
                "hash": "C1D11393C983A4E6174A2D818D9F2C2BEAF065C1"
              }
            },
            "signature": {
              "type": "tendermint/SignatureEd25519",
              "value": "XVlVWvETgsWa3UOV2/E+uk+2u3+fdDHQgfVWbwq2cuEOOpejpN+W7HSnqCQ0BRizZs0jri0vbA1oiYBD2FVyCA=="
            }
          },
          {
            "validator_address": "E1DBC77881161A5A3A8536A57536EAE546A75D69",
            "validator_index": "79",
            "height": "48154",
            "round": "1",
            "timestamp": "2018-08-02T15:13:27.999615224Z",
            "type": 2,
            "block_id": {
              "hash": "F275FCABCE0DF068F073D548C65B53E8CE063E1F",
              "parts": {
                "total": "1",
                "hash": "C1D11393C983A4E6174A2D818D9F2C2BEAF065C1"
              }
            },
            "signature": {
              "type": "tendermint/SignatureEd25519",
              "value": "r4uWMrXsd1Wq+dDsX70kZNabf/jkvJyN7tvmM9zqPJKemGA43uFVvuc8mJJYQ/hp/WUq8KOvC2ueoZ13n/i+Aw=="
            }
          },
          {
            "validator_address": "E300E9D484374C1D3E97C1D93CAC3B160A056298",
            "validator_index": "80",
            "height": "48154",
            "round": "1",
            "timestamp": "2018-08-02T15:13:28.264438915Z",
            "type": 2,
            "block_id": {
              "hash": "F275FCABCE0DF068F073D548C65B53E8CE063E1F",
              "parts": {
                "total": "1",
                "hash": "C1D11393C983A4E6174A2D818D9F2C2BEAF065C1"
              }
            },
            "signature": {
              "type": "tendermint/SignatureEd25519",
              "value": "v45hg0ENtrKRv7H1FonALuYOJWLLvivEfD8WwmFumjZaA8Laidc2sXNEIGpRU857h2vV2F92oKOHsTF7ROwvBQ=="
            }
          },
          {
            "validator_address": "E39B5778E0D4297A46F45CF6940B0A163A430FF8",
            "validator_index": "81",
            "height": "48154",
            "round": "1",
            "timestamp": "2018-08-02T15:13:28.075140933Z",
            "type": 2,
            "block_id": {
              "hash": "F275FCABCE0DF068F073D548C65B53E8CE063E1F",
              "parts": {
                "total": "1",
                "hash": "C1D11393C983A4E6174A2D818D9F2C2BEAF065C1"
              }
            },
            "signature": {
              "type": "tendermint/SignatureEd25519",
              "value": "w4LQXx3x1BmQ4RAV1tu873StS6JoVM+LvtXQLJBI7Ig7m8t7F9TD4tH2X4FwvqTcy0Z3ghiwzUQgUMGlmNP3CA=="
            }
          },
          {
            "validator_address": "E3B19738F7132F950668504D326C7660F159D170",
            "validator_index": "82",
            "height": "48154",
            "round": "1",
            "timestamp": "2018-08-02T15:13:28.039210292Z",
            "type": 2,
            "block_id": {
              "hash": "F275FCABCE0DF068F073D548C65B53E8CE063E1F",
              "parts": {
                "total": "1",
                "hash": "C1D11393C983A4E6174A2D818D9F2C2BEAF065C1"
              }
            },
            "signature": {
              "type": "tendermint/SignatureEd25519",
              "value": "ajuoVeKLzImnRFzgD73Bwgxcklgf6HdPkB3PqZTX57MBbfEbEquVv0nP7SquovUOxglxkVBMkYTbZSYfi4sWBA=="
            }
          },
          {
            "validator_address": "E42F8AEABB685219F7027F54D2B0DBC7846F633A",
            "validator_index": "83",
            "height": "48154",
            "round": "1",
            "timestamp": "2018-08-02T15:13:27.004600652Z",
            "type": 2,
            "block_id": {
              "hash": "F275FCABCE0DF068F073D548C65B53E8CE063E1F",
              "parts": {
                "total": "1",
                "hash": "C1D11393C983A4E6174A2D818D9F2C2BEAF065C1"
              }
            },
            "signature": {
              "type": "tendermint/SignatureEd25519",
              "value": "TV06EnFgfbAm2c4OV1X4L6UWA2R9391r2ceuxSBkDVfdhEEjDUldS/cb8HNDHTwDmq6T6dZCcA8wb0pcw4RNBg=="
            }
          },
          {
            "validator_address": "E4E6C2E81269DFFA196C17F98240E491479A6008",
            "validator_index": "84",
            "height": "48154",
            "round": "1",
            "timestamp": "2018-08-02T15:13:28.261344987Z",
            "type": 2,
            "block_id": {
              "hash": "F275FCABCE0DF068F073D548C65B53E8CE063E1F",
              "parts": {
                "total": "1",
                "hash": "C1D11393C983A4E6174A2D818D9F2C2BEAF065C1"
              }
            },
            "signature": {
              "type": "tendermint/SignatureEd25519",
              "value": "+YvxbqxByBbaC74Ay666Zyij22fyngN5DavPtXDcdyHD0yzW8iz+0eMOjUzA7aAR+ZOho8Zmo21lwgQEdT18CQ=="
            }
          },
          {
            "validator_address": "E4FEB2846F4F3B0ECDCBE9C9DCB2248248A5AF0F",
            "validator_index": "85",
            "height": "48154",
            "round": "1",
            "timestamp": "2018-08-02T15:13:27.818292593Z",
            "type": 2,
            "block_id": {
              "hash": "F275FCABCE0DF068F073D548C65B53E8CE063E1F",
              "parts": {
                "total": "1",
                "hash": "C1D11393C983A4E6174A2D818D9F2C2BEAF065C1"
              }
            },
            "signature": {
              "type": "tendermint/SignatureEd25519",
              "value": "cQBtKUVCDVURCGZtpxGjoAvndY9URzHyxOvnrtbpSuAAqsn9JzKmU6qUChIvBVgpb/4g6E5lMKVYI/YyCRddDg=="
            }
          },
          {
            "validator_address": "E50ADECD5FD27FA2CD610C07F8AED36A2FC4A6A6",
            "validator_index": "86",
            "height": "48154",
            "round": "1",
            "timestamp": "2018-08-02T15:13:28.045804496Z",
            "type": 2,
            "block_id": {
              "hash": "F275FCABCE0DF068F073D548C65B53E8CE063E1F",
              "parts": {
                "total": "1",
                "hash": "C1D11393C983A4E6174A2D818D9F2C2BEAF065C1"
              }
            },
            "signature": {
              "type": "tendermint/SignatureEd25519",
              "value": "L9VV+xIoa9fzhXMK8jBjDC1F1XLa5urBr9DwLlZdOTPbiS3Ss3cy0OJpIZujLcl66D3Tj6LY7//n+8YgYGfSBg=="
            }
          },
          {
            "validator_address": "E6A7079D584B163750BE0831227F6B685DEAF3C1",
            "validator_index": "87",
            "height": "48154",
            "round": "1",
            "timestamp": "2018-08-02T15:13:28.167417811Z",
            "type": 2,
            "block_id": {
              "hash": "F275FCABCE0DF068F073D548C65B53E8CE063E1F",
              "parts": {
                "total": "1",
                "hash": "C1D11393C983A4E6174A2D818D9F2C2BEAF065C1"
              }
            },
            "signature": {
              "type": "tendermint/SignatureEd25519",
              "value": "qisiglayueUf/GKR/cnd+/SOq1Zqa058/DsXyJcgKRO/7KRMncTmgtc/2IcfVpJgpyN0XCVJkdpXJI8qEwuoDw=="
            }
          },
          {
            "validator_address": "E7A30077D5D11867D3EAF99ED45BFDC1EB834509",
            "validator_index": "88",
            "height": "48154",
            "round": "1",
            "timestamp": "2018-08-02T15:13:28.065958852Z",
            "type": 2,
            "block_id": {
              "hash": "F275FCABCE0DF068F073D548C65B53E8CE063E1F",
              "parts": {
                "total": "1",
                "hash": "C1D11393C983A4E6174A2D818D9F2C2BEAF065C1"
              }
            },
            "signature": {
              "type": "tendermint/SignatureEd25519",
              "value": "j9LqARCTfV3jyRA9UeUEB86DJ2tsEn7W6najBTaOpRlkb7a3WzxMqNW/5zlg6Qkd1xaMY7G3mFdOPl5y3vklAw=="
            }
          },
          {
            "validator_address": "EBC613967F66F4EC306852CDF58B4F151CF16738",
            "validator_index": "89",
            "height": "48154",
            "round": "1",
            "timestamp": "2018-08-02T15:13:28.334146469Z",
            "type": 2,
            "block_id": {
              "hash": "F275FCABCE0DF068F073D548C65B53E8CE063E1F",
              "parts": {
                "total": "1",
                "hash": "C1D11393C983A4E6174A2D818D9F2C2BEAF065C1"
              }
            },
            "signature": {
              "type": "tendermint/SignatureEd25519",
              "value": "fAaWF51SItudB0qwKOKOypvm55uITUJZjIbUqjz1VsXYQ7jJF5+4G1xBVLWHTtcVAlWoVPmVGJihizZ3ynEnCw=="
            }
          },
          {
            "validator_address": "EC3401441726C40ECC7E51F744483B05BC6DE9BD",
            "validator_index": "90",
            "height": "48154",
            "round": "1",
            "timestamp": "2018-08-02T15:13:28.059151329Z",
            "type": 2,
            "block_id": {
              "hash": "F275FCABCE0DF068F073D548C65B53E8CE063E1F",
              "parts": {
                "total": "1",
                "hash": "C1D11393C983A4E6174A2D818D9F2C2BEAF065C1"
              }
            },
            "signature": {
              "type": "tendermint/SignatureEd25519",
              "value": "sG5safa+Z8basNh6pvEyuhvm8mBydG+rcxEFfZav0vTSW8iyqLnca8dNmi+DakxF6DkNj/IgDn7/PfvhzO2fAQ=="
            }
          },
          {
            "validator_address": "EC95B111D032181E1EC3B5E8875C5BB8E4AE7140",
            "validator_index": "91",
            "height": "48154",
            "round": "1",
            "timestamp": "2018-08-02T15:13:28.033667968Z",
            "type": 2,
            "block_id": {
              "hash": "F275FCABCE0DF068F073D548C65B53E8CE063E1F",
              "parts": {
                "total": "1",
                "hash": "C1D11393C983A4E6174A2D818D9F2C2BEAF065C1"
              }
            },
            "signature": {
              "type": "tendermint/SignatureEd25519",
              "value": "3Sec0CsJSzlrtj42P4TJZk3Rr5VxtHmCv7oPXJL8BBo1U619G9J66bKamk5NgV31KJ+vhtR6dLZ09P81ImSRBA=="
            }
          },
          {
            "validator_address": "F13C1805E8131C9B47E2A46818F57D8A2841E578",
            "validator_index": "92",
            "height": "48154",
            "round": "1",
            "timestamp": "2018-08-02T15:13:28.144182431Z",
            "type": 2,
            "block_id": {
              "hash": "F275FCABCE0DF068F073D548C65B53E8CE063E1F",
              "parts": {
                "total": "1",
                "hash": "C1D11393C983A4E6174A2D818D9F2C2BEAF065C1"
              }
            },
            "signature": {
              "type": "tendermint/SignatureEd25519",
              "value": "B4GP+MS69lRJ0C+k58EF21fcJfJOCxUdQZAwFmfyis1hyY5phoQFpjZccQ8Nv6jedqwdn66P5KD8gXcVCXUuAQ=="
            }
          },
          {
            "validator_address": "F23FF36BD5B90C33CE3A03ED72DBDCF5EC07D6AF",
            "validator_index": "93",
            "height": "48154",
            "round": "1",
            "timestamp": "2018-08-02T15:13:28.13690066Z",
            "type": 2,
            "block_id": {
              "hash": "F275FCABCE0DF068F073D548C65B53E8CE063E1F",
              "parts": {
                "total": "1",
                "hash": "C1D11393C983A4E6174A2D818D9F2C2BEAF065C1"
              }
            },
            "signature": {
              "type": "tendermint/SignatureEd25519",
              "value": "N8FyDVtNdcOXV3Cs5aQylEk9Kjs8ll+tYjP1XEzG6y1MRdaQLsFwGsl4WVx14VvVsKrvMhr9c4zSF6A2YUosDg=="
            }
          },
          {
            "validator_address": "F4268597DE93E3E2CED38845010F8AA34E2A879E",
            "validator_index": "94",
            "height": "48154",
            "round": "1",
            "timestamp": "2018-08-02T15:13:28.075909804Z",
            "type": 2,
            "block_id": {
              "hash": "F275FCABCE0DF068F073D548C65B53E8CE063E1F",
              "parts": {
                "total": "1",
                "hash": "C1D11393C983A4E6174A2D818D9F2C2BEAF065C1"
              }
            },
            "signature": {
              "type": "tendermint/SignatureEd25519",
              "value": "qQS2HYkbWsgkzgnJJA0bL4++H3bw9d6Rhe8fk8hMBj79N/5sKPEo9KtRNDsF9bxp3kCsl6fhKSqxeN5p7jLmBA=="
            }
          },
          {
            "validator_address": "F4DEB417999B04BE2EFF9FFE03FA373D86011CC0",
            "validator_index": "95",
            "height": "48154",
            "round": "1",
            "timestamp": "2018-08-02T15:13:28.102544873Z",
            "type": 2,
            "block_id": {
              "hash": "F275FCABCE0DF068F073D548C65B53E8CE063E1F",
              "parts": {
                "total": "1",
                "hash": "C1D11393C983A4E6174A2D818D9F2C2BEAF065C1"
              }
            },
            "signature": {
              "type": "tendermint/SignatureEd25519",
              "value": "+xhgWlVMLMMNkRdtI9VK9x056om/xL2SffEhwobhc0IaKRegjLgD2e7pd0CeTWCdRLu0qXI9R2GJWz5e0UFrDQ=="
            }
          },
          {
            "validator_address": "F6738260186D33D9C14FC6E7017AFE6BB952A63D",
            "validator_index": "96",
            "height": "48154",
            "round": "1",
            "timestamp": "2018-08-02T15:13:28.081565425Z",
            "type": 2,
            "block_id": {
              "hash": "F275FCABCE0DF068F073D548C65B53E8CE063E1F",
              "parts": {
                "total": "1",
                "hash": "C1D11393C983A4E6174A2D818D9F2C2BEAF065C1"
              }
            },
            "signature": {
              "type": "tendermint/SignatureEd25519",
              "value": "4TcAZOtVlGUjPkA1kSkMSbc3bOhBUpvRwAmEr2jH0DfzZpwmPwH5BxRoHTFJOzM/dwqSUdiFU4KhzsU5zU6MCA=="
            }
          },
          {
            "validator_address": "FD8D304F0278229077114B05BED9DABD382D49D8",
            "validator_index": "97",
            "height": "48154",
            "round": "1",
            "timestamp": "2018-08-02T15:13:28.14867486Z",
            "type": 2,
            "block_id": {
              "hash": "F275FCABCE0DF068F073D548C65B53E8CE063E1F",
              "parts": {
                "total": "1",
                "hash": "C1D11393C983A4E6174A2D818D9F2C2BEAF065C1"
              }
            },
            "signature": {
              "type": "tendermint/SignatureEd25519",
              "value": "FxBDrzH8QTvfNIaEdpfN5SjqnmjN352dSqDhw67bDrCMvUKdhHOwBNYEfAakgh+bZU+lvJ1jJ5UBjlI16CqTBg=="
            }
          },
          {
            "validator_address": "FF3F3FCBCE7E62D7AD5506FF846EC4518D980515",
            "validator_index": "98",
            "height": "48154",
            "round": "1",
            "timestamp": "2018-08-02T15:13:28.023404098Z",
            "type": 2,
            "block_id": {
              "hash": "F275FCABCE0DF068F073D548C65B53E8CE063E1F",
              "parts": {
                "total": "1",
                "hash": "C1D11393C983A4E6174A2D818D9F2C2BEAF065C1"
              }
            },
            "signature": {
              "type": "tendermint/SignatureEd25519",
              "value": "hmYkJi4DuRP2KblWWzmNP3VXXfbJfE3mPrw0VVOIh5A/AS9qp5MRW1LIeSXfmWnpqjSStKRWBRWFOLevOen0AQ=="
            }
          }
        ]
      }
    },
    "canonical": true
  }
}