{
  "jsonrpc": "2.0",
  "id": "",
  "result": {
    "SignedHeader": {
      "header": {
        "chain_id": "gaia-7004",
        "height": "49303",
        "time": "2018-08-02T17:11:54.942195263Z",
        "num_txs": "0",
        "last_block_id": {
          "hash": "087C6C702458867AA95ADE39DE7C26795B5E73AE",
          "parts": {
            "total": "1",
            "hash": "ADEEE74C89392F5173B881DD7C821125F1AACFC1"
          }
        },
        "total_txs": "2145",
        "last_commit_hash": "9573680F7A9676A4B2128D9BACCD4EED1655AE51",
        "data_hash": "",
        "validators_hash": "B8F6BE6AA50C61C4A29EFA8AFA10252EF911C393",
        "consensus_hash": "D6B74BB35BDFFD8392340F2A379173548AE188FE",
        "app_hash": "FF984F86DFB569B2E32277A24B6315020B717663",
        "last_results_hash": "",
        "evidence_hash": ""
      },
      "commit": {
        "block_id": {
          "hash": "0AB7254F8E4EB81F853BC7C011C0474596EEC60E",
          "parts": {
            "total": "1",
            "hash": "D5F04A065BCD768DB910A1FC8F27B35C00D821A2"
          }
        },
        "precommits": [
          {
            "validator_address": "029359C0C768096273A68ABC902A6B17AC8D1D70",
            "validator_index": "0",
            "height": "49303",
            "round": "0",
            "timestamp": "2018-08-02T17:11:56.002947515Z",
            "type": 2,
            "block_id": {
              "hash": "0AB7254F8E4EB81F853BC7C011C0474596EEC60E",
              "parts": {
                "total": "1",
                "hash": "D5F04A065BCD768DB910A1FC8F27B35C00D821A2"
              }
            },
            "signature": {
              "type": "tendermint/SignatureEd25519",
              "value": "faGK5eEznRnmD69nohB5+7/1JW8BauHDu92TH1dO3AGlXwxjXGLsi6r6Qe8b88jHKMAz4nqgD+tRVm6rOWCqDw=="
            }
          },
          {
            "validator_address": "02FE4B97A8387F39D1AC19E0C1702B3CC614812F",
            "validator_index": "1",
            "height": "49303",
            "round": "0",
            "timestamp": "2018-08-02T17:11:56.001102677Z",
            "type": 2,
            "block_id": {
              "hash": "0AB7254F8E4EB81F853BC7C011C0474596EEC60E",
              "parts": {
                "total": "1",
                "hash": "D5F04A065BCD768DB910A1FC8F27B35C00D821A2"
              }
            },
            "signature": {
              "type": "tendermint/SignatureEd25519",
              "value": "6GOm1HJ19JYTtmEMiyywF/7i4odLr6KgsAIwR4TTCu8RXqo6ajzxa29XkaW/iHFcSOXeFLGjfkp1qmBlYeFyAg=="
            }
          },
          {
            "validator_address": "0548261C50222FD710EB5EBDF03A0E6567B21D20",
            "validator_index": "2",
            "height": "49303",
            "round": "0",
            "timestamp": "2018-08-02T17:11:56.049682852Z",
            "type": 2,
            "block_id": {
              "hash": "0AB7254F8E4EB81F853BC7C011C0474596EEC60E",
              "parts": {
                "total": "1",
                "hash": "D5F04A065BCD768DB910A1FC8F27B35C00D821A2"
              }
            },
            "signature": {
              "type": "tendermint/SignatureEd25519",
              "value": "Hch9Gap8KntXX8JzQwGCZhR4isc99Kpes5OzozBcFr2VjCtGHc51dKBf0bKXM2m2IDFsBooeuW6jzUAro4lUBg=="
            }
          },
          {
            "validator_address": "0665ADBF9B120B7617BF955AA5653A1992C82B11",
            "validator_index": "3",
            "height": "49303",
            "round": "0",
            "timestamp": "2018-08-02T17:11:55.941090571Z",
            "type": 2,
            "block_id": {
              "hash": "0AB7254F8E4EB81F853BC7C011C0474596EEC60E",
              "parts": {
                "total": "1",
                "hash": "D5F04A065BCD768DB910A1FC8F27B35C00D821A2"
              }
            },
            "signature": {
              "type": "tendermint/SignatureEd25519",
              "value": "/E1MlUKKR8dEAV+7bMdZKyJyVfbyXai0PJj0lzz5PeJ6Z3/tzMn9gOxZgWgtBnQoK8ejKOxlCIOXpwTxgQMHAg=="
            }
          },
          {
            "validator_address": "09145E611CC27EEB944FC5A956DDF710F943B9EF",
            "validator_index": "4",
            "height": "49303",
            "round": "0",
            "timestamp": "2018-08-02T17:11:56.04587129Z",
            "type": 2,
            "block_id": {
              "hash": "0AB7254F8E4EB81F853BC7C011C0474596EEC60E",
              "parts": {
                "total": "1",
                "hash": "D5F04A065BCD768DB910A1FC8F27B35C00D821A2"
              }
            },
            "signature": {
              "type": "tendermint/SignatureEd25519",
              "value": "VCD+fuueo1S8WwuZpsGffl41YHTAFe3q8JlB/Bd51dEpTK6tg+nY4gFpOtYhfIeRUAOlrgOExZzFCY3R4XqiAQ=="
            }
          },
          {
            "validator_address": "0989D0355A104B67AE0AE028C68FB610690E174B",
            "validator_index": "5",
            "height": "49303",
            "round": "0",
            "timestamp": "2018-08-02T17:11:55.943231126Z",
            "type": 2,
            "block_id": {
              "hash": "0AB7254F8E4EB81F853BC7C011C0474596EEC60E",
              "parts": {
                "total": "1",
                "hash": "D5F04A065BCD768DB910A1FC8F27B35C00D821A2"
              }
            },
            "signature": {
              "type": "tendermint/SignatureEd25519",
              "value": "McIhWsubzVmtJJaVgKcVLD0zv8tZm7g3k5DeUT1OWOj1UVMCnLok0pajcjlNttciIXxnSabusOV/S47Wl1+IBQ=="
            }
          },
          {
            "validator_address": "0A692DBFFE9E5DD28E7DECC33CED1AEB4C0D014E",
            "validator_index": "6",
            "height": "49303",
            "round": "0",
            "timestamp": "2018-08-02T17:11:56.092879818Z",
            "type": 2,
            "block_id": {
              "hash": "0AB7254F8E4EB81F853BC7C011C0474596EEC60E",
              "parts": {
                "total": "1",
                "hash": "D5F04A065BCD768DB910A1FC8F27B35C00D821A2"
              }
            },
            "signature": {
              "type": "tendermint/SignatureEd25519",
              "value": "Um8ly17Apb9Tpit9nD9s7BXrqEtvW5jabkg5AG0tW6iw/eALRoGsnHf3WRm8z1NgMfo/oG96bIhRaLTv3UFFBg=="
            }
          },
          {
            "validator_address": "1751786EFC085D5331C61168FFFC8202EA151B4E",
            "validator_index": "7",
            "height": "49303",
            "round": "0",
            "timestamp": "2018-08-02T17:11:55.682939577Z",
            "type": 2,
            "block_id": {
              "hash": "0AB7254F8E4EB81F853BC7C011C0474596EEC60E",
              "parts": {
                "total": "1",
                "hash": "D5F04A065BCD768DB910A1FC8F27B35C00D821A2"
              }
            },
            "signature": {
              "type": "tendermint/SignatureEd25519",
              "value": "bAj+o/mHGQMQzlWZJvmYALKtpyDG+HF05gx+fOkhZeDjwzTSPBp1RAwI5a+bFikYer/vl2twfqtfdZCJoSjVCw=="
            }
          },
          {
            "validator_address": "17BB5CD01E8940FAFB948A04D5FA5A0645E5822E",
            "validator_index": "8",
            "height": "49303",
            "round": "0",
            "timestamp": "2018-08-02T17:11:55.99383567Z",
            "type": 2,
            "block_id": {
              "hash": "0AB7254F8E4EB81F853BC7C011C0474596EEC60E",
              "parts": {
                "total": "1",
                "hash": "D5F04A065BCD768DB910A1FC8F27B35C00D821A2"
              }
            },
            "signature": {
              "type": "tendermint/SignatureEd25519",
              "value": "kYdZxBUdJP/bsry6wKYBDFMSN/HxyzTqZmNk1t9Ew3wV0J7ewO99v/Q6fUPoy646Hf6n4rowe5z9O/1mD+0cAg=="
            }
          },
          {
            "validator_address": "1C683A87904BC38F05004FE83301A3A3E35447EB",
            "validator_index": "9",
            "height": "49303",
            "round": "0",
            "timestamp": "2018-08-02T17:11:55.96783854Z",
            "type": 2,
            "block_id": {
              "hash": "0AB7254F8E4EB81F853BC7C011C0474596EEC60E",
              "parts": {
                "total": "1",
                "hash": "D5F04A065BCD768DB910A1FC8F27B35C00D821A2"
              }
            },
            "signature": {
              "type": "tendermint/SignatureEd25519",
              "value": "9GZMnYSyk1JYsrBgb3lVxDrU9OaP3JjcoSB7wDSE0XzyimbTMZAS9T3k/712yS+dUiaicBlJMGRgA1a5PiyqBw=="
            }
          },
          {
            "validator_address": "1E9CE94FD0BA5CFEB901F90BC658D64D85B134D2",
            "validator_index": "10",
            "height": "49303",
            "round": "0",
            "timestamp": "2018-08-02T17:11:56.039322613Z",
            "type": 2,
            "block_id": {
              "hash": "0AB7254F8E4EB81F853BC7C011C0474596EEC60E",
              "parts": {
                "total": "1",
                "hash": "D5F04A065BCD768DB910A1FC8F27B35C00D821A2"
              }
            },
            "signature": {
              "type": "tendermint/SignatureEd25519",
              "value": "okHUPavpGZfUSBUGqXRGjOEQ+jn4WZTTxiS0t8MTr0EB/yTWHYkbOrFxIdpdO6hO7KjbnD0y6ie2bH21UYsTDw=="
            }
          },
          {
            "validator_address": "1ECD8C5FE1341D74CDC633A245DD56858DE2F9A2",
            "validator_index": "11",
            "height": "49303",
            "round": "0",
            "timestamp": "2018-08-02T17:11:56.105865226Z",
            "type": 2,
            "block_id": {
              "hash": "0AB7254F8E4EB81F853BC7C011C0474596EEC60E",
              "parts": {
                "total": "1",
                "hash": "D5F04A065BCD768DB910A1FC8F27B35C00D821A2"
              }
            },
            "signature": {
              "type": "tendermint/SignatureEd25519",
              "value": "W0tZm399FwU6bL90cdOHpSg2llafrWHk/iHq9vEdmP59i3Edbn/SefE12A7+HDDXLompo2r04qsQw89Nkx35Ag=="
            }
          },
          {
            "validator_address": "1F3A68CAAD483768AA2BF667DEF10F7104C89928",
            "validator_index": "12",
            "height": "49303",
            "round": "0",
            "timestamp": "2018-08-02T17:11:56.030802533Z",
            "type": 2,
            "block_id": {
              "hash": "0AB7254F8E4EB81F853BC7C011C0474596EEC60E",
              "parts": {
                "total": "1",
                "hash": "D5F04A065BCD768DB910A1FC8F27B35C00D821A2"
              }
            },
            "signature": {
              "type": "tendermint/SignatureEd25519",
              "value": "rIaYws1eeh7GGsyA/jz0DzzF6pOA9cHkMXBkmdYyWOeYHnmpmdwM8AkkC1QUP/hhVtelaHP57T77SPlFFSh7Dg=="
            }
          },
          {
            "validator_address": "1F61153F26C2DF27E15874268D30326287323352",
            "validator_index": "13",
            "height": "49303",
            "round": "0",
            "timestamp": "2018-08-02T17:11:56.116899379Z",
            "type": 2,
            "block_id": {
              "hash": "0AB7254F8E4EB81F853BC7C011C0474596EEC60E",
              "parts": {
                "total": "1",
                "hash": "D5F04A065BCD768DB910A1FC8F27B35C00D821A2"
              }
            },
            "signature": {
              "type": "tendermint/SignatureEd25519",
              "value": "QwiSXg4ZXNhQp4CWxcec02L4tRqptd7m+m2vywF9TTtXa74gxbeKKJhCNWMNvt/Kd3qoHJSGdWudO1bjYX4qCg=="
            }
          },
          {
            "validator_address": "23897586D68E2AC1C78E0EF5BB5DF5C8EAB18F50",
            "validator_index": "14",
            "height": "49303",
            "round": "0",
            "timestamp": "2018-08-02T17:11:56.005029024Z",
            "type": 2,
            "block_id": {
              "hash": "0AB7254F8E4EB81F853BC7C011C0474596EEC60E",
              "parts": {
                "total": "1",
                "hash": "D5F04A065BCD768DB910A1FC8F27B35C00D821A2"
              }
            },
            "signature": {
              "type": "tendermint/SignatureEd25519",
              "value": "N/L91KpUlmseDYKGY92cKfVfhFjs/e2M05MDqqRIjbi6eAT08i0yB3VbaMqOoW/kXbMZTMbOfMFheDeS5O0HCQ=="
            }
          },
          {
            "validator_address": "28770D17E8530825E7310A0659308654B7EC9682",
            "validator_index": "15",
            "height": "49303",
            "round": "0",
            "timestamp": "2018-08-02T17:11:55.983879229Z",
            "type": 2,
            "block_id": {
              "hash": "0AB7254F8E4EB81F853BC7C011C0474596EEC60E",
              "parts": {
                "total": "1",
                "hash": "D5F04A065BCD768DB910A1FC8F27B35C00D821A2"
              }
            },
            "signature": {
              "type": "tendermint/SignatureEd25519",
              "value": "CnQmNBi24upc6RNNU1DorCvxGWib2lzvGlLceBXgs7v0ICIAib3sys7brWQf6dfr4wzseSqGjd1W85xMlBpbCw=="
            }
          },
          {
            "validator_address": "2A92EC3C642140202298D0E245095E0ECFC25228",
            "validator_index": "16",
            "height": "49303",
            "round": "0",
            "timestamp": "2018-08-02T17:11:56.043714358Z",
            "type": 2,
            "block_id": {
              "hash": "0AB7254F8E4EB81F853BC7C011C0474596EEC60E",
              "parts": {
                "total": "1",
                "hash": "D5F04A065BCD768DB910A1FC8F27B35C00D821A2"
              }
            },
            "signature": {
              "type": "tendermint/SignatureEd25519",
              "value": "+3mueJ1kOlLOwDMbMkC65BCIwRj6GX54RdH19ux7aaj0VIuj/kAgKf1WjGomcv6DfG4lWsOjxam3kNry4IeaDw=="
            }
          },
          {
            "validator_address": "33412C9A69C60CB0FAA24A5C5B3A906DE24B47C2",
            "validator_index": "17",
            "height": "49303",
            "round": "0",
            "timestamp": "2018-08-02T17:11:55.913394451Z",
            "type": 2,
            "block_id": {
              "hash": "0AB7254F8E4EB81F853BC7C011C0474596EEC60E",
              "parts": {
                "total": "1",
                "hash": "D5F04A065BCD768DB910A1FC8F27B35C00D821A2"
              }
            },
            "signature": {
              "type": "tendermint/SignatureEd25519",
              "value": "9WZ1aygflag79ZMGogONKLQsFKpOElf2ub55YskD1k3t1sHjHwiaoSr/BuL43NUb182S0QDvL4qBCQUjFBn3Bw=="
            }
          },
          {
            "validator_address": "36E9B7FAEC964F97D84C028ED62493E373AD0B38",
            "validator_index": "18",
            "height": "49303",
            "round": "0",
            "timestamp": "2018-08-02T17:11:55.995395381Z",
            "type": 2,
            "block_id": {
              "hash": "0AB7254F8E4EB81F853BC7C011C0474596EEC60E",
              "parts": {
                "total": "1",
                "hash": "D5F04A065BCD768DB910A1FC8F27B35C00D821A2"
              }
            },
            "signature": {
              "type": "tendermint/SignatureEd25519",
              "value": "yAqWgms+oe4Hmk2LlPU4YZjq3s3E08vBo+diU1gmDkAWvFcQY/2fmgWzdWkiChQe74K4WlYXLcPDiaSt1wyHDw=="
            }
          },
          {
            "validator_address": "38A8D85D36BEA2E5FCF8A1E778F53628E450EF13",
            "validator_index": "19",
            "height": "49303",
            "round": "0",
            "timestamp": "2018-08-02T17:11:56.121979109Z",
            "type": 2,
            "block_id": {
              "hash": "0AB7254F8E4EB81F853BC7C011C0474596EEC60E",
              "parts": {
                "total": "1",
                "hash": "D5F04A065BCD768DB910A1FC8F27B35C00D821A2"
              }
            },
            "signature": {
              "type": "tendermint/SignatureEd25519",
              "value": "cx9hgPy0Wz7hGCLE3hPIlTZMtd8NcfbVXbj57AN/gcwlRUFqMBRcwYuIm5vRObnRrG9Xp8qYmajbsloyDVtSDQ=="
            }
          },
          {
            "validator_address": "39DFDA0C5DB84B269642188B23253508537798E6",
            "validator_index": "20",
            "height": "49303",
            "round": "0",
            "timestamp": "2018-08-02T17:11:55.953514014Z",
            "type": 2,
            "block_id": {
              "hash": "0AB7254F8E4EB81F853BC7C011C0474596EEC60E",
              "parts": {
                "total": "1",
                "hash": "D5F04A065BCD768DB910A1FC8F27B35C00D821A2"
              }
            },
            "signature": {
              "type": "tendermint/SignatureEd25519",
              "value": "Y1Sx4cp6I4dvllrun4i67iCiYLyT2ALMmrv7uITeXtohoclsqJEb9i/Y9MFo2ccyU3fwJOldIhvpXczT2LDBBA=="
            }
          },
          {
            "validator_address": "3AC99B708404452366E0953A4BE849226DC86CBC",
            "validator_index": "21",
            "height": "49303",
            "round": "0",
            "timestamp": "2018-08-02T17:11:56.109244012Z",
            "type": 2,
            "block_id": {
              "hash": "0AB7254F8E4EB81F853BC7C011C0474596EEC60E",
              "parts": {
                "total": "1",
                "hash": "D5F04A065BCD768DB910A1FC8F27B35C00D821A2"
              }
            },
            "signature": {
              "type": "tendermint/SignatureEd25519",
              "value": "Nb1BU6T2gz9SbhA/Ybz+C3/gocircFZJyD17a4s6VuLkv/YylWdlsYWwYE3GGlcqF2Tc2Uhe+VPw5ImQuJlECg=="
            }
          },
          {
            "validator_address": "3DCB822A10ED319EC7C4393D8E3FD4A41B15AAF2",
            "validator_index": "22",
            "height": "49303",
            "round": "0",
            "timestamp": "2018-08-02T17:11:55.977540435Z",
            "type": 2,
            "block_id": {
              "hash": "0AB7254F8E4EB81F853BC7C011C0474596EEC60E",
              "parts": {
                "total": "1",
                "hash": "D5F04A065BCD768DB910A1FC8F27B35C00D821A2"
              }
            },
            "signature": {
              "type": "tendermint/SignatureEd25519",
              "value": "L7zsVEfb1Tt24SWXeQgwzmkdUcLSAgvv2Tx7qn1LGjXfSBcSqqI+Xpuzlpo9a5qxAxDNJGzI3F75sKazawRiAQ=="
            }
          },
          {
            "validator_address": "3E899BA36A93C7370347BD5FE85909F2ECD93F8C",
            "validator_index": "23",
            "height": "49303",
            "round": "0",
            "timestamp": "2018-08-02T17:11:56.014187769Z",
            "type": 2,
            "block_id": {
              "hash": "0AB7254F8E4EB81F853BC7C011C0474596EEC60E",
              "parts": {
                "total": "1",
                "hash": "D5F04A065BCD768DB910A1FC8F27B35C00D821A2"
              }
            },
            "signature": {
              "type": "tendermint/SignatureEd25519",
              "value": "nNkL2PHRXNyfLeq7JkjXNTlCywcy688RYGsoSptzjnhfKG5gyTJSouvIC/iPTU7r2kJjg5yjo6ZDHEq0XCv2BA=="
            }
          },
          {
            "validator_address": "41CAB2E29E7D0F2282E3275938F188FF9386B84C",
            "validator_index": "24",
            "height": "49303",
            "round": "0",
            "timestamp": "2018-08-02T17:11:56.054853166Z",
            "type": 2,
            "block_id": {
              "hash": "0AB7254F8E4EB81F853BC7C011C0474596EEC60E",
              "parts": {
                "total": "1",
                "hash": "D5F04A065BCD768DB910A1FC8F27B35C00D821A2"
              }
            },
            "signature": {
              "type": "tendermint/SignatureEd25519",
              "value": "eNbdTt+Tws+cxdLPManuNxgtSvu+piPIBF5qeNNHRtFmxh+QVvZOkCywHDV5upClfyIzW43agY498NnqQUfIBg=="
            }
          },
          {
            "validator_address": "462B656869DB02A8FD1077E255F8CC7401DC37C6",
            "validator_index": "25",
            "height": "49303",
            "round": "0",
            "timestamp": "2018-08-02T17:11:55.978266543Z",
            "type": 2,
            "block_id": {
              "hash": "0AB7254F8E4EB81F853BC7C011C0474596EEC60E",
              "parts": {
                "total": "1",
                "hash": "D5F04A065BCD768DB910A1FC8F27B35C00D821A2"
              }
            },
            "signature": {
              "type": "tendermint/SignatureEd25519",
              "value": "3GciDAddxU/mJ5ferA9HrVrtz/BiRFafQ1WiSm2qyAymmxS+JUcMYGSk5cahoHfGk4MIHSAX13rtKpew+rvoBw=="
            }
          },
          {
            "validator_address": "48E5118163E5442068A1B5A42D2EEDBB75724935",
            "validator_index": "26",
            "height": "49303",
            "round": "0",
            "timestamp": "2018-08-02T17:11:56.163949016Z",
            "type": 2,
            "block_id": {
              "hash": "0AB7254F8E4EB81F853BC7C011C0474596EEC60E",
              "parts": {
                "total": "1",
                "hash": "D5F04A065BCD768DB910A1FC8F27B35C00D821A2"
              }
            },
            "signature": {
              "type": "tendermint/SignatureEd25519",
              "value": "Dphtr3ee9lRN2jN25U1W2rTLvIY29BsHCldQW16IO6F7qhDIoOdbeNbi0q9DgIc+FCOe6rf9zN+oYAil4gKtCw=="
            }
          },
          {
            "validator_address": "49103C58AFD9C7C069F55EBA218F3DFD9AEA74F9",
            "validator_index": "27",
            "height": "49303",
            "round": "0",
            "timestamp": "2018-08-02T17:11:55.985187935Z",
            "type": 2,
            "block_id": {
              "hash": "0AB7254F8E4EB81F853BC7C011C0474596EEC60E",
              "parts": {
                "total": "1",
                "hash": "D5F04A065BCD768DB910A1FC8F27B35C00D821A2"
              }
            },
            "signature": {
              "type": "tendermint/SignatureEd25519",
              "value": "1BrEqfk/1+PdniE6kW67KKwyzrM5bsFdNXrf5Jk3mXw62xPhQfO2XuffvtD5nAabPmX+IXSTwme6bIRjh5f7AA=="
            }
          },
          {
            "validator_address": "4944F8BBBB5303E17BC0607DF332320EDBC750EA",
            "validator_index": "28",
            "height": "49303",
            "round": "0",
            "timestamp": "2018-08-02T17:11:55.950923609Z",
            "type": 2,
            "block_id": {
              "hash": "0AB7254F8E4EB81F853BC7C011C0474596EEC60E",
              "parts": {
                "total": "1",
                "hash": "D5F04A065BCD768DB910A1FC8F27B35C00D821A2"
              }
            },
            "signature": {
              "type": "tendermint/SignatureEd25519",
              "value": "LAb38Adufv17WTnItPOoIrctemqJVkwNWfaVoC7zwmtdXdCYzwufR8DAcJ/85tEhHcaokLbdSgxlaih3MmU3Bw=="
            }
          },
          {
            "validator_address": "49841599DE675157CBE1E7D6B35BF8FFC23BD5CB",
            "validator_index": "29",
            "height": "49303",
            "round": "0",
            "timestamp": "2018-08-02T17:11:55.980934334Z",
            "type": 2,
            "block_id": {
              "hash": "0AB7254F8E4EB81F853BC7C011C0474596EEC60E",
              "parts": {
                "total": "1",
                "hash": "D5F04A065BCD768DB910A1FC8F27B35C00D821A2"
              }
            },
            "signature": {
              "type": "tendermint/SignatureEd25519",
              "value": "og4PpPJ1LfzzSp7OzIHpTEa0mV7GN9pWgJpwC4lp/dTSicExx0KNXkRb1WXHLjVIequ8xipWYgDrDxCOmRejAA=="
            }
          },
          {
            "validator_address": "51386C2CF9556821D114D7E4945806802BADB28D",
            "validator_index": "30",
            "height": "49303",
            "round": "0",
            "timestamp": "2018-08-02T17:11:56.041633856Z",
            "type": 2,
            "block_id": {
              "hash": "0AB7254F8E4EB81F853BC7C011C0474596EEC60E",
              "parts": {
                "total": "1",
                "hash": "D5F04A065BCD768DB910A1FC8F27B35C00D821A2"
              }
            },
            "signature": {
              "type": "tendermint/SignatureEd25519",
              "value": "iEUH1qTJskSV98dekf9IQTfT+XlPef3mhmy7/2mg0bfwu7FaEftx+7TU0Bkql0boZ6DIG+W4potFncS7cA6hCQ=="
            }
          },
          {
            "validator_address": "543564ECA3AFEFADC73EE8591AAC3A96F079BC8A",
            "validator_index": "31",
            "height": "49303",
            "round": "0",
            "timestamp": "2018-08-02T17:11:55.977293865Z",
            "type": 2,
            "block_id": {
              "hash": "0AB7254F8E4EB81F853BC7C011C0474596EEC60E",
              "parts": {
                "total": "1",
                "hash": "D5F04A065BCD768DB910A1FC8F27B35C00D821A2"
              }
            },
            "signature": {
              "type": "tendermint/SignatureEd25519",
              "value": "bxVbI7crKR663OLdmGY4MRttFmxSv2nVAWCrZUpi+nyzX7krJ+MUFb7yZZvsBZzejhhj/RGdrAA0vy8B4aI5AQ=="
            }
          },
          {
            "validator_address": "55D67B1A6DC13E96F8754A5A42EABC20F7F86664",
            "validator_index": "32",
            "height": "49303",
            "round": "0",
            "timestamp": "2018-08-02T17:11:55.989573915Z",
            "type": 2,
            "block_id": {
              "hash": "0AB7254F8E4EB81F853BC7C011C0474596EEC60E",
              "parts": {
                "total": "1",
                "hash": "D5F04A065BCD768DB910A1FC8F27B35C00D821A2"
              }
            },
            "signature": {
              "type": "tendermint/SignatureEd25519",
              "value": "zK/obVzwSzfxS3etoF7lXtJcjKmimcn6gnxIWq5t3z+sjQXjh9MNqwmz+y+ujlAwbJfSluqlk5YI9/3Moaf2DQ=="
            }
          },
          {
            "validator_address": "570B6A755ED339EAC56BB3390A48069F6AC9449B",
            "validator_index": "33",
            "height": "49303",
            "round": "0",
            "timestamp": "2018-08-02T17:12:06.376709354Z",
            "type": 2,
            "block_id": {
              "hash": "0AB7254F8E4EB81F853BC7C011C0474596EEC60E",
              "parts": {
                "total": "1",
                "hash": "D5F04A065BCD768DB910A1FC8F27B35C00D821A2"
              }
            },
            "signature": {
              "type": "tendermint/SignatureEd25519",
              "value": "WBIXqhLbrCB71CE9qM/hJPrO2zpPkiVUqk9DuyEE/CNsaCk9dZ9c1lujNZmg78eRNVnBx0u2u8kuypo2OiN/Dw=="
            }
          },
          {
            "validator_address": "5BDF8EA41B1835FBAD865B181A2A4B23F511B5E4",
            "validator_index": "34",
            "height": "49303",
            "round": "0",
            "timestamp": "2018-08-02T17:11:55.969414622Z",
            "type": 2,
            "block_id": {
              "hash": "0AB7254F8E4EB81F853BC7C011C0474596EEC60E",
              "parts": {
                "total": "1",
                "hash": "D5F04A065BCD768DB910A1FC8F27B35C00D821A2"
              }
            },
            "signature": {
              "type": "tendermint/SignatureEd25519",
              "value": "l3lxcpc0+i+iGTxnGq4LdTpZxYU4RfMO3D+OVEESl5vgscDVXPn64wh2o+nGUjIKC7hXmXcA19NyeA4ynAlCDw=="
            }
          },
          {
            "validator_address": "60229E2E273297FE00219E46DFFB8F76844CDEF9",
            "validator_index": "35",
            "height": "49303",
            "round": "0",
            "timestamp": "2018-08-02T17:11:53.246849103Z",
            "type": 2,
            "block_id": {
              "hash": "0AB7254F8E4EB81F853BC7C011C0474596EEC60E",
              "parts": {
                "total": "1",
                "hash": "D5F04A065BCD768DB910A1FC8F27B35C00D821A2"
              }
            },
            "signature": {
              "type": "tendermint/SignatureEd25519",
              "value": "GZkVnS38cvHDG/o9sA9h26bABs2LY6qZuLVRMei/RhzyK5JzFg3pcdInZBgaKbw2w7uFLCL1PrH6gC3QPlJWCA=="
            }
          },
          {
            "validator_address": "62410D6D1CD98278136E4D0738AA0EA273CDFC54",
            "validator_index": "36",
            "height": "49303",
            "round": "0",
            "timestamp": "2018-08-02T17:11:55.928638761Z",
            "type": 2,
            "block_id": {
              "hash": "0AB7254F8E4EB81F853BC7C011C0474596EEC60E",
              "parts": {
                "total": "1",
                "hash": "D5F04A065BCD768DB910A1FC8F27B35C00D821A2"
              }
            },
            "signature": {
              "type": "tendermint/SignatureEd25519",
              "value": "pwnA8VVHBID4EFF/nu2o3otreUqzLGNJq+zIk4Tk2zunl75ZqfSz9O5WQ2ICQ83hz7LSDxFXZbVlSrUVssrQAg=="
            }
          },
          {
            "validator_address": "632F5C139A5A9DFBFE5111DEE29FCFB6157207DC",
            "validator_index": "37",
            "height": "49303",
            "round": "0",
            "timestamp": "2018-08-02T17:11:56.007226992Z",
            "type": 2,
            "block_id": {
              "hash": "0AB7254F8E4EB81F853BC7C011C0474596EEC60E",
              "parts": {
                "total": "1",
                "hash": "D5F04A065BCD768DB910A1FC8F27B35C00D821A2"
              }
            },
            "signature": {
              "type": "tendermint/SignatureEd25519",
              "value": "DBlaiEKdtZ1bH4N9ocTGm8kyt3WktVgCODTKPXmw4qaLCDyg74j9H+ax6UVFgueZXoaNKUphvUdXinvmvF/PDg=="
            }
          },
          {
            "validator_address": "64F57F8E796A9B7B590C1EFA4123988C86631D39",
            "validator_index": "38",
            "height": "49303",
            "round": "0",
            "timestamp": "2018-08-02T17:11:55.899448778Z",
            "type": 2,
            "block_id": {
              "hash": "0AB7254F8E4EB81F853BC7C011C0474596EEC60E",
              "parts": {
                "total": "1",
                "hash": "D5F04A065BCD768DB910A1FC8F27B35C00D821A2"
              }
            },
            "signature": {
              "type": "tendermint/SignatureEd25519",
              "value": "5Qj+hSpevP3PGGSDyBztH+8Kn5p8Ce+TwnldEbG+SFTWvkSZBwK3moSZZc1hdydRHCZEjT3RG6lVx07HuaxiCg=="
            }
          },
          {
            "validator_address": "69D99B2C66043ACBEAA8447525C356AFC6408E0C",
            "validator_index": "39",
            "height": "49303",
            "round": "0",
            "timestamp": "2018-08-02T17:11:56.1048716Z",
            "type": 2,
            "block_id": {
              "hash": "0AB7254F8E4EB81F853BC7C011C0474596EEC60E",
              "parts": {
                "total": "1",
                "hash": "D5F04A065BCD768DB910A1FC8F27B35C00D821A2"
              }
            },
            "signature": {
              "type": "tendermint/SignatureEd25519",
              "value": "xzQ4y2A2glmVuXuG4bIbgdUOimf6iIixqOk8x9BqcDuknCWZiIHSGFbykkU5xvLXfGas7AKh9J3P7EMu6+A4AQ=="
            }
          },
          {
            "validator_address": "69EDADFA4A803E9DBF548C900D4A465E7D154262",
            "validator_index": "40",
            "height": "49303",
            "round": "0",
            "timestamp": "2018-08-02T17:11:56.107849185Z",
            "type": 2,
            "block_id": {
              "hash": "0AB7254F8E4EB81F853BC7C011C0474596EEC60E",
              "parts": {
                "total": "1",
                "hash": "D5F04A065BCD768DB910A1FC8F27B35C00D821A2"
              }
            },
            "signature": {
              "type": "tendermint/SignatureEd25519",
              "value": "B12Qhe69yqeLzDoWEiK0HAxHYgASVrKa4Fh2eG0y4TELOKttUO6xiVptsrt6H06t3QsAabLOj9FhJI2z18+lCQ=="
            }
          },
          {
            "validator_address": "6D3AD380E398D8592B03AA124BAFED5F125DF863",
            "validator_index": "41",
            "height": "49303",
            "round": "0",
            "timestamp": "2018-08-02T17:10:53.229812148Z",
            "type": 2,
            "block_id": {
              "hash": "0AB7254F8E4EB81F853BC7C011C0474596EEC60E",
              "parts": {
                "total": "1",
                "hash": "D5F04A065BCD768DB910A1FC8F27B35C00D821A2"
              }
            },
            "signature": {
              "type": "tendermint/SignatureEd25519",
              "value": "W1GpRJuaKtIcWIgZa2GS4aTNLIfQhKdBnsVX9Bcpzjoa6oiPh9//sSy5kRqjkiVDyiE8i1GyN/XTBOksVw8pDA=="
            }
          },
          {
            "validator_address": "6F6C93B8BF3495063FEC9B5C771158607F4AE9D6",
            "validator_index": "42",
            "height": "49303",
            "round": "0",
            "timestamp": "2018-08-02T17:11:56.068678031Z",
            "type": 2,
            "block_id": {
              "hash": "0AB7254F8E4EB81F853BC7C011C0474596EEC60E",
              "parts": {
                "total": "1",
                "hash": "D5F04A065BCD768DB910A1FC8F27B35C00D821A2"
              }
            },
            "signature": {
              "type": "tendermint/SignatureEd25519",
              "value": "5Lu9FofxRieIxAmnIoxYpyXaYyEiFqWumtYfvTVE/ub6PvHzDbnvAdq9vflyGhcLdD1hcBiqGjM7c8Y1IfInCQ=="
            }
          },
          {
            "validator_address": "732CEEF54C374DDC6ADECBFD707AEFD07FEDC143",
            "validator_index": "43",
            "height": "49303",
            "round": "0",
            "timestamp": "2018-08-02T17:11:56.037776064Z",
            "type": 2,
            "block_id": {
              "hash": "0AB7254F8E4EB81F853BC7C011C0474596EEC60E",
              "parts": {
                "total": "1",
                "hash": "D5F04A065BCD768DB910A1FC8F27B35C00D821A2"
              }
            },
            "signature": {
              "type": "tendermint/SignatureEd25519",
              "value": "MZSJnkAvXCo5xWkAcOC09TfnOn5/aSotPyQoH6MAocZhtzvGzTB0D2o1yUrx2EY7qkqbdEUBCIvOywyWaaXlDw=="
            }
          },
          {
            "validator_address": "751E43437224E8BB6D1569B3E2B2616B6E7F4397",
            "validator_index": "44",
            "height": "49303",
            "round": "0",
            "timestamp": "2018-08-02T17:11:56.078094399Z",
            "type": 2,
            "block_id": {
              "hash": "0AB7254F8E4EB81F853BC7C011C0474596EEC60E",
              "parts": {
                "total": "1",
                "hash": "D5F04A065BCD768DB910A1FC8F27B35C00D821A2"
              }
            },
            "signature": {
              "type": "tendermint/SignatureEd25519",
              "value": "xSobaVVRTBcI9zza1Rkbt+1ZuY3larXkRjIp5rWz3aOTHGBV1dwNbSOqcfdDWCq0/hu5dlQHmrCHcEvZxeLoDA=="
            }
          },
          {
            "validator_address": "7EB7593F519F1180C7E872D0494611464EDF03AE",
            "validator_index": "45",
            "height": "49303",
            "round": "0",
            "timestamp": "2018-08-02T17:11:56.168812436Z",
            "type": 2,
            "block_id": {
              "hash": "0AB7254F8E4EB81F853BC7C011C0474596EEC60E",
              "parts": {
                "total": "1",
                "hash": "D5F04A065BCD768DB910A1FC8F27B35C00D821A2"
              }
            },
            "signature": {
              "type": "tendermint/SignatureEd25519",
              "value": "aPanUWvpSde9rR/3lm89On0SrpMLbHm5u0ciDF8KdRZ8aNO5vRY+s+O0etJobClwoS7/JG1+nXOMv8ztLpxpAg=="
            }
          },
          {
            "validator_address": "807CF675BA8479FC4FEC1047215DF07970040F1F",
            "validator_index": "46",
            "height": "49303",
            "round": "0",
            "timestamp": "2018-08-02T17:11:56.432128706Z",
            "type": 2,
            "block_id": {
              "hash": "0AB7254F8E4EB81F853BC7C011C0474596EEC60E",
              "parts": {
                "total": "1",
                "hash": "D5F04A065BCD768DB910A1FC8F27B35C00D821A2"
              }
            },
            "signature": {
              "type": "tendermint/SignatureEd25519",
              "value": "RhARIZsTy6s+DULqDOZ4DddvwOXsVzmoGKIHB/PHYhVakilgo5oi9RRrnwVqb1N7b+fD7FTDADxFL6SoqvxvBQ=="
            }
          },
          {
            "validator_address": "8356899C8853BC6640D76F76E59743FFEEA57B81",
            "validator_index": "47",
            "height": "49303",
            "round": "0",
            "timestamp": "2018-08-02T17:11:56.042071468Z",
            "type": 2,
            "block_id": {
              "hash": "0AB7254F8E4EB81F853BC7C011C0474596EEC60E",
              "parts": {
                "total": "1",
                "hash": "D5F04A065BCD768DB910A1FC8F27B35C00D821A2"
              }
            },
            "signature": {
              "type": "tendermint/SignatureEd25519",
              "value": "8d6iQuEj0xzTn+n6xvAYa7058G8I6DfbHsiBC1ZTLOy/Q4labp+lj4WHazgJeDXTp9fHm1xVJG7WowW+/gWEAg=="
            }
          },
          {
            "validator_address": "83AB321E012C57746689FED3A6064DF331F81007",
            "validator_index": "48",
            "height": "49303",
            "round": "0",
            "timestamp": "2018-08-02T17:11:56.018693842Z",
            "type": 2,
            "block_id": {
              "hash": "0AB7254F8E4EB81F853BC7C011C0474596EEC60E",
              "parts": {
                "total": "1",
                "hash": "D5F04A065BCD768DB910A1FC8F27B35C00D821A2"
              }
            },
            "signature": {
              "type": "tendermint/SignatureEd25519",
              "value": "ynaq7fk8rBpqfPrAU6BsBDNcQz9NiLS6+8IX/yx1CQmt5VdCZHP7EytIEUtcQnoySfR6FLASRrK3xxQ8hsaRAg=="
            }
          },
          {
            "validator_address": "83BB1B88D3DBB20AD845FECA07749EBD87D3754D",
            "validator_index": "49",
            "height": "49303",
            "round": "0",
            "timestamp": "2018-08-02T17:11:56.23092226Z",
            "type": 2,
            "block_id": {
              "hash": "0AB7254F8E4EB81F853BC7C011C0474596EEC60E",
              "parts": {
                "total": "1",
                "hash": "D5F04A065BCD768DB910A1FC8F27B35C00D821A2"
              }
            },
            "signature": {
              "type": "tendermint/SignatureEd25519",
              "value": "2e9dKdAWU6wF/jUr0i3y55H22ZH2kCeJdHN3T4EC2K5GcSG5E3tNWLCY+o5tg351wy6j4k6Kcwbr45YS2dciAA=="
            }
          },
          {
            "validator_address": "8F06FE1FD042683C426137FBC4BBAA4288924217",
            "validator_index": "50",
            "height": "49303",
            "round": "0",
            "timestamp": "2018-08-02T17:11:56.037013357Z",
            "type": 2,
            "block_id": {
              "hash": "0AB7254F8E4EB81F853BC7C011C0474596EEC60E",
              "parts": {
                "total": "1",
                "hash": "D5F04A065BCD768DB910A1FC8F27B35C00D821A2"
              }
            },
            "signature": {
              "type": "tendermint/SignatureEd25519",
              "value": "TZMv9cwP1E3LjkYy+euwElEHUm7643CxgJAeI0+0gAr6H/oztYQpp8qcZpBNhz49fBvcJu8WLleKRA/pMN3kAQ=="
            }
          },
          {
            "validator_address": "95980831E186F2540F6E9FB6C8E74DE2401405AC",
            "validator_index": "51",
            "height": "49303",
            "round": "0",
            "timestamp": "2018-08-02T17:11:56.061109876Z",
            "type": 2,
            "block_id": {
              "hash": "0AB7254F8E4EB81F853BC7C011C0474596EEC60E",
              "parts": {
                "total": "1",
                "hash": "D5F04A065BCD768DB910A1FC8F27B35C00D821A2"
              }
            },
            "signature": {
              "type": "tendermint/SignatureEd25519",
              "value": "qPIOGj0etVLDi9KwiSxU//7CuAUzh2Z3naPbPv96roHBi3D1yeWfZWucOhQSg8P5pvXJXkeQFAtuBgIJ37q9CA=="
            }
          },
          {
            "validator_address": "95FAFBC1E0579C83D290A063020CE87C5334BD9B",
            "validator_index": "52",
            "height": "49303",
            "round": "0",
            "timestamp": "2018-08-02T17:11:55.988811108Z",
            "type": 2,
            "block_id": {
              "hash": "0AB7254F8E4EB81F853BC7C011C0474596EEC60E",
              "parts": {
                "total": "1",
                "hash": "D5F04A065BCD768DB910A1FC8F27B35C00D821A2"
              }
            },
            "signature": {
              "type": "tendermint/SignatureEd25519",
              "value": "75jTG6w14DxlNx0WCuF3qS2eRDtptYePHwx1OnWrb30wacvdCJ8tlkcYld1ofPVLeMt5WAZNMv2xloK4jlE4Ag=="
            }
          },
          {
            "validator_address": "96BDE45EC52606CF5CB59853097871AD60680549",
            "validator_index": "53",
            "height": "49303",
            "round": "0",
            "timestamp": "2018-08-02T17:11:55.988718145Z",
            "type": 2,
            "block_id": {
              "hash": "0AB7254F8E4EB81F853BC7C011C0474596EEC60E",
              "parts": {
                "total": "1",
                "hash": "D5F04A065BCD768DB910A1FC8F27B35C00D821A2"
              }
            },
            "signature": {
              "type": "tendermint/SignatureEd25519",
              "value": "aTx9vUKTzwMtJnwvXtB1dBy0ZbLppg6YKQlKO0PGmfn+s0XGGwcdXH37VL6+59TPHW3pyMnkOWhthOJPiBIoBw=="
            }
          },
          {
            "validator_address": "970CD321881185BF83DB2923C321B0E75FDBB2B8",
            "validator_index": "54",
            "height": "49303",
            "round": "0",
            "timestamp": "2018-08-02T17:11:56.122287457Z",
            "type": 2,
            "block_id": {
              "hash": "0AB7254F8E4EB81F853BC7C011C0474596EEC60E",
              "parts": {
                "total": "1",
                "hash": "D5F04A065BCD768DB910A1FC8F27B35C00D821A2"
              }
            },
            "signature": {
              "type": "tendermint/SignatureEd25519",
              "value": "3BUUvoDYmf0LBD5oSHBFP8z/xPlofKexr4ADGJOcqQwSDTpIkY01PDREIcX4CjB8bHy+c3FoN9owoScTm/MNDg=="
            }
          },
          {
            "validator_address": "97DBB3D4B3D6C29287244864448F651DD5B07390",
            "validator_index": "55",
            "height": "49303",
            "round": "0",
            "timestamp": "2018-08-02T17:11:56.030784046Z",
            "type": 2,
            "block_id": {
              "hash": "0AB7254F8E4EB81F853BC7C011C0474596EEC60E",
              "parts": {
                "total": "1",
                "hash": "D5F04A065BCD768DB910A1FC8F27B35C00D821A2"
              }
            },
            "signature": {
              "type": "tendermint/SignatureEd25519",
              "value": "+14Iu3q/V4vPAGRfrY5shTfdPMuF36VquIblemd+rnbk1wMB0+1HcKzBScO4Wv6EoByIiapwdh/Z4CAv0CHHBw=="
            }
          },
          {
            "validator_address": "9C29C9B76D27586E4D9AD2AED0E943162645E55C",
            "validator_index": "56",
            "height": "49303",
            "round": "0",
            "timestamp": "2018-08-02T17:11:55.946105675Z",
            "type": 2,
            "block_id": {
              "hash": "0AB7254F8E4EB81F853BC7C011C0474596EEC60E",
              "parts": {
                "total": "1",
                "hash": "D5F04A065BCD768DB910A1FC8F27B35C00D821A2"
              }
            },
            "signature": {
              "type": "tendermint/SignatureEd25519",
              "value": "J4awpZLM8Da18AAOdFTZUcvRkDR9F/ZcMHxNxGbmm4pTOTmFj8FSx2SXjBrmWEGlmOAXphg+I/9f2KDLgAQsAg=="
            }
          },
          {
            "validator_address": "9D93AD02FE1BD7E76B9E58D7EB461088EAD011E5",
            "validator_index": "57",
            "height": "49303",
            "round": "0",
            "timestamp": "2018-08-02T17:11:55.967104362Z",
            "type": 2,
            "block_id": {
              "hash": "0AB7254F8E4EB81F853BC7C011C0474596EEC60E",
              "parts": {
                "total": "1",
                "hash": "D5F04A065BCD768DB910A1FC8F27B35C00D821A2"
              }
            },
            "signature": {
              "type": "tendermint/SignatureEd25519",
              "value": "m3PTEBSybgyTLy0vMFMbRat+/lBONrYBmMaMoTohr26pyV+m6BGsIpxoganYQ5gOdCa7jrXkykoepsoMmfmHDg=="
            }
          },
          {
            "validator_address": "A0A6466F4ABEA09C3B55E3709AFDE217A103209F",
            "validator_index": "58",
            "height": "49303",
            "round": "0",
            "timestamp": "2018-08-02T17:11:55.94768175Z",
            "type": 2,
            "block_id": {
              "hash": "0AB7254F8E4EB81F853BC7C011C0474596EEC60E",
              "parts": {
                "total": "1",
                "hash": "D5F04A065BCD768DB910A1FC8F27B35C00D821A2"
              }
            },
            "signature": {
              "type": "tendermint/SignatureEd25519",
              "value": "5uld603QMVQAnERVxYfg85PRURyCSdNZQZP1z9IG/SiT17m3yapMDVyRcfbayHmFAx7gFiRkSfyO/sfWMIRwAQ=="
            }
          },
          {
            "validator_address": "A5868971300F155020634D7BB49C7634F7AACCD3",
            "validator_index": "59",
            "height": "49303",
            "round": "0",
            "timestamp": "2018-08-02T17:11:55.984453532Z",
            "type": 2,
            "block_id": {
              "hash": "0AB7254F8E4EB81F853BC7C011C0474596EEC60E",
              "parts": {
                "total": "1",
                "hash": "D5F04A065BCD768DB910A1FC8F27B35C00D821A2"
              }
            },
            "signature": {
              "type": "tendermint/SignatureEd25519",
              "value": "4zjvEoz+J5QEluUfHe1xe7HZoK/fZvuTukBOMm3fl53kHanAdt6/OmV7CogudPfwekM7WhEca/vnuDza7naDCw=="
            }
          },
          {
            "validator_address": "A6B3A5B5D982CFD7B5FDFA15CF5A720E7AE25E7F",
            "validator_index": "60",
            "height": "49303",
            "round": "0",
            "timestamp": "2018-08-02T17:11:56.433189061Z",
            "type": 2,
            "block_id": {
              "hash": "0AB7254F8E4EB81F853BC7C011C0474596EEC60E",
              "parts": {
                "total": "1",
                "hash": "D5F04A065BCD768DB910A1FC8F27B35C00D821A2"
              }
            },
            "signature": {
              "type": "tendermint/SignatureEd25519",
              "value": "VITnjIM0gUjpduLvnGgJYYD+BXm8wF+wRIBQj/v+WhKgcETZXzneZp78woEUPaW470vaeWtFN88MVql4zcqcCg=="
            }
          },
          {
            "validator_address": "AC96444A9083890B7C7B430DB17BF1D3EA5EED04",
            "validator_index": "61",
            "height": "49303",
            "round": "0",
            "timestamp": "2018-08-02T17:11:56.014758038Z",
            "type": 2,
            "block_id": {
              "hash": "0AB7254F8E4EB81F853BC7C011C0474596EEC60E",
              "parts": {
                "total": "1",
                "hash": "D5F04A065BCD768DB910A1FC8F27B35C00D821A2"
              }
            },
            "signature": {
              "type": "tendermint/SignatureEd25519",
              "value": "jIxTlW7+WA8Ei6BrRRnRyuAtq5lXkow8iQWk3ZOikPQZJmNiEMfLXezdLiLjE4XuSHLDsUEIuL86BY/ho//vCQ=="
            }
          },
          {
            "validator_address": "ACB97FDA2D940AF0709B73537C458EB988AD2893",
            "validator_index": "62",
            "height": "49303",
            "round": "0",
            "timestamp": "2018-08-02T17:11:55.976312506Z",
            "type": 2,
            "block_id": {
              "hash": "0AB7254F8E4EB81F853BC7C011C0474596EEC60E",
              "parts": {
                "total": "1",
                "hash": "D5F04A065BCD768DB910A1FC8F27B35C00D821A2"
              }
            },
            "signature": {
              "type": "tendermint/SignatureEd25519",
              "value": "qMvsqEfkcSh2EfeWPO71OMJHIzg0Gk88K277iaNbJMGuZ+YpryG1zudo0TxVK4syCEJFYfll/v4SzeLybfPJCA=="
            }
          },
          {
            "validator_address": "B197425B3210375F211661DE02EF2AE36580EB0F",
            "validator_index": "63",
            "height": "49303",
            "round": "0",
            "timestamp": "2018-08-02T17:11:55.939490886Z",
            "type": 2,
            "block_id": {
              "hash": "0AB7254F8E4EB81F853BC7C011C0474596EEC60E",
              "parts": {
                "total": "1",
                "hash": "D5F04A065BCD768DB910A1FC8F27B35C00D821A2"
              }
            },
            "signature": {
              "type": "tendermint/SignatureEd25519",
              "value": "A4r0D/3kC9YXaKH2lhgJUqgcV3a4KFa0pbC6UNUbFRzmGbrFmdj24sz1aYQ4UnnZo8nR6vq818eTZaERNK76BQ=="
            }
          },
          {
            "validator_address": "B45E54D2D1CB5A4CCD1D49016608C18E7C56B270",
            "validator_index": "64",
            "height": "49303",
            "round": "0",
            "timestamp": "2018-08-02T17:11:56.077492498Z",
            "type": 2,
            "block_id": {
              "hash": "0AB7254F8E4EB81F853BC7C011C0474596EEC60E",
              "parts": {
                "total": "1",
                "hash": "D5F04A065BCD768DB910A1FC8F27B35C00D821A2"
              }
            },
            "signature": {
              "type": "tendermint/SignatureEd25519",
              "value": "FfnS3SrV6ZULHOJTZwfchynqrx+HYaTmSbZWoJxU2HKpJHZWa+TczDcji9u3FDaKcLp47jvUdppgVR346XWUCg=="
            }
          },
          {
            "validator_address": "BB1276BE89834835428664408917649FEEF5D90C",
            "validator_index": "65",
            "height": "49303",
            "round": "0",
            "timestamp": "2018-08-02T17:11:56.130194688Z",
            "type": 2,
            "block_id": {
              "hash": "0AB7254F8E4EB81F853BC7C011C0474596EEC60E",
              "parts": {
                "total": "1",
                "hash": "D5F04A065BCD768DB910A1FC8F27B35C00D821A2"
              }
            },
            "signature": {
              "type": "tendermint/SignatureEd25519",
              "value": "5jiV2/RLbkBFCcSk6XNlBDmoM+mcz6bTzuYg2YfszHBKXPpaWOYrnk7VazDcOL3wIyLMHG2G4vW1R9/J6MaJBQ=="
            }
          },
          {
            "validator_address": "BC36FEDD6EF6071118A3E51859DF3831A2EC4782",
            "validator_index": "66",
            "height": "49303",
            "round": "0",
            "timestamp": "2018-08-02T17:11:56.039189715Z",
            "type": 2,
            "block_id": {
              "hash": "0AB7254F8E4EB81F853BC7C011C0474596EEC60E",
              "parts": {
                "total": "1",
                "hash": "D5F04A065BCD768DB910A1FC8F27B35C00D821A2"
              }
            },
            "signature": {
              "type": "tendermint/SignatureEd25519",
              "value": "yxIhlNG0H+15qTmxy8Rs2HzyMhWApu+1w9v57M33MJqbrt5F8OOMrdgPxW49PIbJRTTnOJ2bx9AoxipgeqwOAw=="
            }
          },
          {
            "validator_address": "BD9D0DA513BF099DB4BB6E725A4E19832789882F",
            "validator_index": "67",
            "height": "49303",
            "round": "0",
            "timestamp": "2018-08-02T17:11:56.018799377Z",
            "type": 2,
            "block_id": {
              "hash": "0AB7254F8E4EB81F853BC7C011C0474596EEC60E",
              "parts": {
                "total": "1",
                "hash": "D5F04A065BCD768DB910A1FC8F27B35C00D821A2"
              }
            },
            "signature": {
              "type": "tendermint/SignatureEd25519",
              "value": "erz3fZQQX92DubP1vy5jXi2eQX0Uaheyj8gdatQV9D1HtZ8ONpBgG7Y4zruBwxWCCmKSdh3Ac4nLiEmKSEF9Cw=="
            }
          },
          {
            "validator_address": "C1134A2FF8F7338E7CDB3FE57DDD2A655DEB1E22",
            "validator_index": "68",
            "height": "49303",
            "round": "0",
            "timestamp": "2018-08-02T17:11:55.253332905Z",
            "type": 2,
            "block_id": {
              "hash": "0AB7254F8E4EB81F853BC7C011C0474596EEC60E",
              "parts": {
                "total": "1",
                "hash": "D5F04A065BCD768DB910A1FC8F27B35C00D821A2"
              }
            },
            "signature": {
              "type": "tendermint/SignatureEd25519",
              "value": "cmRaE60VQrQ9GnyGvn6f4KQyJCD0t1kV2Sicw/gm2xh9L4mVThT3yexRR0GOPiRPCo6sXb/yQF4n1hr2PcblDw=="
            }
          },
          {
            "validator_address": "C39A8A2B85198DCB8F23AD1F6C198E2BA7AB5D60",
            "validator_index": "69",
            "height": "49303",
            "round": "0",
            "timestamp": "2018-08-02T17:11:55.942736606Z",
            "type": 2,
            "block_id": {
              "hash": "0AB7254F8E4EB81F853BC7C011C0474596EEC60E",
              "parts": {
                "total": "1",
                "hash": "D5F04A065BCD768DB910A1FC8F27B35C00D821A2"
              }
            },
            "signature": {
              "type": "tendermint/SignatureEd25519",
              "value": "MWFPKcMEx8OmKYf+/liFZGresWjqX4oVZrg40fHdTFVdB2hbMyd0n9qCESHBfLdbpBhXBB1xOWFpTNXhLV1gCA=="
            }
          },
          {
            "validator_address": "C4335190C3B5BD4BA5568BC0F99C34162D940D08",
            "validator_index": "70",
            "height": "49303",
            "round": "0",
            "timestamp": "2018-08-02T17:11:56.101630926Z",
            "type": 2,
            "block_id": {
              "hash": "0AB7254F8E4EB81F853BC7C011C0474596EEC60E",
              "parts": {
                "total": "1",
                "hash": "D5F04A065BCD768DB910A1FC8F27B35C00D821A2"
              }
            },
            "signature": {
              "type": "tendermint/SignatureEd25519",
              "value": "/GW4QkEugGYBRHPqvAxOLaxx7s2j9d0SXD+1PauYULwFQPiX/ZFux5RYv3ODIjY0100QjQI0bdt+n1CnmvWhAw=="
            }
          },
          {
            "validator_address": "C561CFA081677046376396922E7576E5F7B316AD",
            "validator_index": "71",
            "height": "49303",
            "round": "0",
            "timestamp": "2018-08-02T17:11:56.122475182Z",
            "type": 2,
            "block_id": {
              "hash": "0AB7254F8E4EB81F853BC7C011C0474596EEC60E",
              "parts": {
                "total": "1",
                "hash": "D5F04A065BCD768DB910A1FC8F27B35C00D821A2"
              }
            },
            "signature": {
              "type": "tendermint/SignatureEd25519",
              "value": "9UdQULgOqodadYIZ9VGZkQjyqUmqLjFTNMJQOozPjueGgvVx8KsoXGRFkchfu9px2/S3hA6egdhkem8hPqT/CA=="
            }
          },
          {
            "validator_address": "CEB97DB5CB18270247ABDE6CF2F84F9AEE8A2904",
            "validator_index": "72",
            "height": "49303",
            "round": "0",
            "timestamp": "2018-08-02T17:11:57.216184815Z",
            "type": 2,
            "block_id": {
              "hash": "0AB7254F8E4EB81F853BC7C011C0474596EEC60E",
              "parts": {
                "total": "1",
                "hash": "D5F04A065BCD768DB910A1FC8F27B35C00D821A2"
              }
            },
            "signature": {
              "type": "tendermint/SignatureEd25519",
              "value": "FHxaNit5rmxQIQGaSbc+iSnnQN2kXZm6tbzdi6uD8S1P7PZ8tm5I8LdtY3UxKP4EVJF0tvi1pJ0ezaKt1FF2Ag=="
            }
          },
          {
            "validator_address": "D2134B826A1E25A955905CB79A4D8731CAFA0CCE",
            "validator_index": "73",
            "height": "49303",
            "round": "0",
            "timestamp": "2018-08-02T17:11:56.148335845Z",
            "type": 2,
            "block_id": {
              "hash": "0AB7254F8E4EB81F853BC7C011C0474596EEC60E",
              "parts": {
                "total": "1",
                "hash": "D5F04A065BCD768DB910A1FC8F27B35C00D821A2"
              }
            },
            "signature": {
              "type": "tendermint/SignatureEd25519",
              "value": "bMXDvHirEx9aNiP1zGjres8JZVW8ZNDyOErG9/rCwH5HJweJr9mflAGj8u9VVZ9pJ3Shcrc00NjP9XuL3NvSDQ=="
            }
          },
          {
            "validator_address": "D6285C3422C8886445D53757CBE12D2B91B5A9D0",
            "validator_index": "74",
            "height": "49303",
            "round": "0",
            "timestamp": "2018-08-02T17:11:39.454836327Z",
            "type": 2,
            "block_id": {
              "hash": "0AB7254F8E4EB81F853BC7C011C0474596EEC60E",
              "parts": {
                "total": "1",
                "hash": "D5F04A065BCD768DB910A1FC8F27B35C00D821A2"
              }
            },
            "signature": {
              "type": "tendermint/SignatureEd25519",
              "value": "JEzRZCIW4KPZqRGBtvMLQ/mGOrGdwlQ6Fqrj9nVl+lKNKPSGs7hmhxJOATX+Eb/wtBRC6jXVqg1DqagorczJCA=="
            }
          },
          {
            "validator_address": "D77FB84A729972CD3E757C9BEB61561855832B92",
            "validator_index": "75",
            "height": "49303",
            "round": "0",
            "timestamp": "2018-08-02T17:11:56.102479815Z",
            "type": 2,
            "block_id": {
              "hash": "0AB7254F8E4EB81F853BC7C011C0474596EEC60E",
              "parts": {
                "total": "1",
                "hash": "D5F04A065BCD768DB910A1FC8F27B35C00D821A2"
              }
            },
            "signature": {
              "type": "tendermint/SignatureEd25519",
              "value": "nLAcC7CWNWOZfSQE1QvvTKLxwgCZGTUwqW1WIUs4CdiFQpnx/7TUy8tkb1JUtgqWZf+PD8zxAdZMJpRN4WnKDw=="
            }
          },
          {
            "validator_address": "DB7E6732471D3EA5C90C17A9974D9F88AB45F2FB",
            "validator_index": "76",
            "height": "49303",
            "round": "0",
            "timestamp": "2018-08-02T17:11:56.01385411Z",
            "type": 2,
            "block_id": {
              "hash": "0AB7254F8E4EB81F853BC7C011C0474596EEC60E",
              "parts": {
                "total": "1",
                "hash": "D5F04A065BCD768DB910A1FC8F27B35C00D821A2"
              }
            },
            "signature": {
              "type": "tendermint/SignatureEd25519",
              "value": "oCDIJN7RahhBFXU9ULE6dl5iQWWKzYBh4/J9lsaA9OfvHCCA3d9EDAQOPb4EGeNU2/Awi/Le/TFF08ofVA6dCg=="
            }
          },
          {
            "validator_address": "DF54B862410BCD9B5C516FBB6C56BDC826ED6FA7",
            "validator_index": "77",
            "height": "49303",
            "round": "0",
            "timestamp": "2018-08-02T17:11:56.040217679Z",
            "type": 2,
            "block_id": {
              "hash": "0AB7254F8E4EB81F853BC7C011C0474596EEC60E",
              "parts": {
                "total": "1",
                "hash": "D5F04A065BCD768DB910A1FC8F27B35C00D821A2"
              }
            },
            "signature": {
              "type": "tendermint/SignatureEd25519",
              "value": "vUcLCjSg9lWqeyQ3mNng/b6DMPpjcE8UhRuCzNx1wXNwnoesaohXBsvw8EE3QkW/BZjpIom13sQSvsOyA8DXDg=="
            }
          },
          {
            "validator_address": "DFAF0C8B1B78D6D552B0189DE3ACA351439A1319",
            "validator_index": "78",
            "height": "49303",
            "round": "0",
            "timestamp": "2018-08-02T17:11:55.944149036Z",
            "type": 2,
            "block_id": {
              "hash": "0AB7254F8E4EB81F853BC7C011C0474596EEC60E",
              "parts": {
                "total": "1",
                "hash": "D5F04A065BCD768DB910A1FC8F27B35C00D821A2"
              }
            },
            "signature": {
              "type": "tendermint/SignatureEd25519",
              "value": "qV7cQy8yZn2j4DQ8/Zxl8BjtKKudFT1uERFr1A6Sw53pJzgpqhzsjTZnRtQFWGzqK/JDP0C9KdPQRb2HKvf+AA=="
            }
          },
          {
            "validator_address": "E1DBC77881161A5A3A8536A57536EAE546A75D69",
            "validator_index": "79",
            "height": "49303",
            "round": "0",
            "timestamp": "2018-08-02T17:11:55.981627907Z",
            "type": 2,
            "block_id": {
              "hash": "0AB7254F8E4EB81F853BC7C011C0474596EEC60E",
              "parts": {
                "total": "1",
                "hash": "D5F04A065BCD768DB910A1FC8F27B35C00D821A2"
              }
            },
            "signature": {
              "type": "tendermint/SignatureEd25519",
              "value": "NlHOZyFBxGo8b7sj/gL6J5pn9DXX9ivQ+OdwDSifi39MNYeI7ArdEWixj95a1nrVUEoYTXNDgZCtJO3DUCjDAg=="
            }
          },
          {
            "validator_address": "E300E9D484374C1D3E97C1D93CAC3B160A056298",
            "validator_index": "80",
            "height": "49303",
            "round": "0",
            "timestamp": "2018-08-02T17:11:56.292403663Z",
            "type": 2,
            "block_id": {
              "hash": "0AB7254F8E4EB81F853BC7C011C0474596EEC60E",
              "parts": {
                "total": "1",
                "hash": "D5F04A065BCD768DB910A1FC8F27B35C00D821A2"
              }
            },
            "signature": {
              "type": "tendermint/SignatureEd25519",
              "value": "nAFVzWbHjNIgXdWsJrusiK+WtW8g3odlkNh8c+IaAJI2SpnFF02znmnPA5s5tVBkZpVZJJTmiuTWofZN+Py7BA=="
            }
          },
          {
            "validator_address": "E39B5778E0D4297A46F45CF6940B0A163A430FF8",
            "validator_index": "81",
            "height": "49303",
            "round": "0",
            "timestamp": "2018-08-02T17:11:55.997508597Z",
            "type": 2,
            "block_id": {
              "hash": "0AB7254F8E4EB81F853BC7C011C0474596EEC60E",
              "parts": {
                "total": "1",
                "hash": "D5F04A065BCD768DB910A1FC8F27B35C00D821A2"
              }
            },
            "signature": {
              "type": "tendermint/SignatureEd25519",
              "value": "Vvt9h4MdTnsOauytBDsAnOVCRYI0h/4+XgqtQwyyvB5GCwvm3cP383T76MwtjBzBylbgCE+4I9LgQaoJTiEMCA=="
            }
          },
          {
            "validator_address": "E3B19738F7132F950668504D326C7660F159D170",
            "validator_index": "82",
            "height": "49303",
            "round": "0",
            "timestamp": "2018-08-02T17:11:55.949468501Z",
            "type": 2,
            "block_id": {
              "hash": "0AB7254F8E4EB81F853BC7C011C0474596EEC60E",
              "parts": {
                "total": "1",
                "hash": "D5F04A065BCD768DB910A1FC8F27B35C00D821A2"
              }
            },
            "signature": {
              "type": "tendermint/SignatureEd25519",
              "value": "lJPEzstu0JR1xGYkH49ChkfReNV5iVZt5Mkyy8J27QOUiibYHH+8nEgPtwP0RIFe43SCB/md9kVcuAR96QGvCQ=="
            }
          },
          {
            "validator_address": "E42F8AEABB685219F7027F54D2B0DBC7846F633A",
            "validator_index": "83",
            "height": "49303",
            "round": "0",
            "timestamp": "2018-08-02T17:11:54.986622859Z",
            "type": 2,
            "block_id": {
              "hash": "0AB7254F8E4EB81F853BC7C011C0474596EEC60E",
              "parts": {
                "total": "1",
                "hash": "D5F04A065BCD768DB910A1FC8F27B35C00D821A2"
              }
            },
            "signature": {
              "type": "tendermint/SignatureEd25519",
              "value": "l2+bj5XCArUBJ3IMetzeYulKhBk2Ylmik39pJGsJvX3/iyf/X91DbOQwGAhEap+b+a94+uVG9pGaNmkPn/WSBQ=="
            }
          },
          {
            "validator_address": "E4E6C2E81269DFFA196C17F98240E491479A6008",
            "validator_index": "84",
            "height": "49303",
            "round": "0",
            "timestamp": "2018-08-02T17:11:56.067393893Z",
            "type": 2,
            "block_id": {
              "hash": "0AB7254F8E4EB81F853BC7C011C0474596EEC60E",
              "parts": {
                "total": "1",
                "hash": "D5F04A065BCD768DB910A1FC8F27B35C00D821A2"
              }
            },
            "signature": {
              "type": "tendermint/SignatureEd25519",
              "value": "YVn1YgH8LY4Bt9+kgg29yRgc61B6fJbjZ/sk/PVMigvuwpQKiq1WXuOpRNU9QRr1TaSFvWyQTm5dgNcB6KMyAA=="
            }
          },
          {
            "validator_address": "E4FEB2846F4F3B0ECDCBE9C9DCB2248248A5AF0F",
            "validator_index": "85",
            "height": "49303",
            "round": "0",
            "timestamp": "2018-08-02T17:11:55.754821397Z",
            "type": 2,
            "block_id": {
              "hash": "0AB7254F8E4EB81F853BC7C011C0474596EEC60E",
              "parts": {
                "total": "1",
                "hash": "D5F04A065BCD768DB910A1FC8F27B35C00D821A2"
              }
            },
            "signature": {
              "type": "tendermint/SignatureEd25519",
              "value": "8sJVhoegmwxwV75AM1DaKpkyY2hVganNqVf181rAOVQ31yVRHkVS+NshtStMQFy65KwLoInEjny2cwmlFujCDg=="
            }
          },
          {
            "validator_address": "E50ADECD5FD27FA2CD610C07F8AED36A2FC4A6A6",
            "validator_index": "86",
            "height": "49303",
            "round": "0",
            "timestamp": "2018-08-02T17:11:55.939771323Z",
            "type": 2,
            "block_id": {
              "hash": "0AB7254F8E4EB81F853BC7C011C0474596EEC60E",
              "parts": {
                "total": "1",
                "hash": "D5F04A065BCD768DB910A1FC8F27B35C00D821A2"
              }
            },
            "signature": {
              "type": "tendermint/SignatureEd25519",
              "value": "eBuHsNQ0plqqgvqHsUJTF/hXcVmRypjrMCyW4/KTR6LnMw5vFQ8PeI9ACpqeM/G1gNbepa/BuYF5HYoQKDW4BQ=="
            }
          },
          {
            "validator_address": "E6A7079D584B163750BE0831227F6B685DEAF3C1",
            "validator_index": "87",
            "height": "49303",
            "round": "0",
            "timestamp": "2018-08-02T17:11:56.098780253Z",
            "type": 2,
            "block_id": {
              "hash": "0AB7254F8E4EB81F853BC7C011C0474596EEC60E",
              "parts": {
                "total": "1",
                "hash": "D5F04A065BCD768DB910A1FC8F27B35C00D821A2"
              }
            },
            "signature": {
              "type": "tendermint/SignatureEd25519",
              "value": "l8pYw8ZfVtsUCdLkI4Or7Xwxq9U+0npcrFzRhEHXJtyZOTGO3XnVkJdMHhFSi54NpaknQLr4Lj1vZjnNAR87Aw=="
            }
          },
          {
            "validator_address": "E7A30077D5D11867D3EAF99ED45BFDC1EB834509",
            "validator_index": "88",
            "height": "49303",
            "round": "0",
            "timestamp": "2018-08-02T17:11:56.000593322Z",
            "type": 2,
            "block_id": {
              "hash": "0AB7254F8E4EB81F853BC7C011C0474596EEC60E",
              "parts": {
                "total": "1",
                "hash": "D5F04A065BCD768DB910A1FC8F27B35C00D821A2"
              }
            },
            "signature": {
              "type": "tendermint/SignatureEd25519",
              "value": "YVGv94s6sZJpHJnVabvUihdUSoP1kzAaFfQ2L+wnZf8UlJsVMPGjTYrJIxYcJWhW1Bjuy6LqcvNQLOd/cfcpCw=="
            }
          },
          null,
          {
            "validator_address": "EC3401441726C40ECC7E51F744483B05BC6DE9BD",
            "validator_index": "90",
            "height": "49303",
            "round": "0",
            "timestamp": "2018-08-02T17:11:55.942852546Z",
            "type": 2,
            "block_id": {
              "hash": "0AB7254F8E4EB81F853BC7C011C0474596EEC60E",
              "parts": {
                "total": "1",
                "hash": "D5F04A065BCD768DB910A1FC8F27B35C00D821A2"
              }
            },
            "signature": {
              "type": "tendermint/SignatureEd25519",
              "value": "MJJF6bLgMZ7iYCn4iWPqu++Nz2TvEDugsyhXgCKG6doL0ofeLxaoMuyRiT/wyfhlmZXBGJIxIKRaQaKyBIPdCw=="
            }
          },
          {
            "validator_address": "EC95B111D032181E1EC3B5E8875C5BB8E4AE7140",
            "validator_index": "91",
            "height": "49303",
            "round": "0",
            "timestamp": "2018-08-02T17:11:55.934835977Z",
            "type": 2,
            "block_id": {
              "hash": "0AB7254F8E4EB81F853BC7C011C0474596EEC60E",
              "parts": {
                "total": "1",
                "hash": "D5F04A065BCD768DB910A1FC8F27B35C00D821A2"
              }
            },
            "signature": {
              "type": "tendermint/SignatureEd25519",
              "value": "64ynqY6JRAJke/UOx0Ze2mlhJM8d9VTa7WjEBtR2kAPRXLEfwD7RXnSoOsW3TxUz/Oq73oaZezI71QMJsduLAg=="
            }
          },
          {
            "validator_address": "F13C1805E8131C9B47E2A46818F57D8A2841E578",
            "validator_index": "92",
            "height": "49303",
            "round": "0",
            "timestamp": "2018-08-02T17:11:56.04734901Z",
            "type": 2,
            "block_id": {
              "hash": "0AB7254F8E4EB81F853BC7C011C0474596EEC60E",
              "parts": {
                "total": "1",
                "hash": "D5F04A065BCD768DB910A1FC8F27B35C00D821A2"
              }
            },
            "signature": {
              "type": "tendermint/SignatureEd25519",
              "value": "MIXDp7opxACJ+gkj0Lj20lcybtOujxvl7MIrRWfg2r6xDmzfeswdL9z2w8ezMEb0jGl7ydAvVqy/XJkzm+rwDA=="
            }
          },
          {
            "validator_address": "F23FF36BD5B90C33CE3A03ED72DBDCF5EC07D6AF",
            "validator_index": "93",
            "height": "49303",
            "round": "0",
            "timestamp": "2018-08-02T17:11:56.043103486Z",
            "type": 2,
            "block_id": {
              "hash": "0AB7254F8E4EB81F853BC7C011C0474596EEC60E",
              "parts": {
                "total": "1",
                "hash": "D5F04A065BCD768DB910A1FC8F27B35C00D821A2"
              }
            },
            "signature": {
              "type": "tendermint/SignatureEd25519",
              "value": "kspR2VgYyibntelbk7nOZZGGDVg2p8vNvZmEk7ssRr0ZGdLBDwJe4SOyH9ZhNJ4sQMvRIXb+xLLMctSKRBl0Dw=="
            }
          },
          {
            "validator_address": "F4268597DE93E3E2CED38845010F8AA34E2A879E",
            "validator_index": "94",
            "height": "49303",
            "round": "0",
            "timestamp": "2018-08-02T17:11:56.041566545Z",
            "type": 2,
            "block_id": {
              "hash": "0AB7254F8E4EB81F853BC7C011C0474596EEC60E",
              "parts": {
                "total": "1",
                "hash": "D5F04A065BCD768DB910A1FC8F27B35C00D821A2"
              }
            },
            "signature": {
              "type": "tendermint/SignatureEd25519",
              "value": "1qRoMaMf5HSWrZ4/syZLiYzgv2Y6IMS3Kn3NEKcKdtdbIPAz1J04VWqCRnlJiMM6AddbTOBkcYcVOOhjmrPVAg=="
            }
          },
          {
            "validator_address": "F4DEB417999B04BE2EFF9FFE03FA373D86011CC0",
            "validator_index": "95",
            "height": "49303",
            "round": "0",
            "timestamp": "2018-08-02T17:11:56.035398919Z",
            "type": 2,
            "block_id": {
              "hash": "0AB7254F8E4EB81F853BC7C011C0474596EEC60E",
              "parts": {
                "total": "1",
                "hash": "D5F04A065BCD768DB910A1FC8F27B35C00D821A2"
              }
            },
            "signature": {
              "type": "tendermint/SignatureEd25519",
              "value": "EwOsLgJ5hx94MdBkabRHxOv7/sFhF6tGURNZJ79TgmFBfviwxrD/7EIWnQo80uSnE3put59kpCr1KgLav4uoBw=="
            }
          },
          {
            "validator_address": "F6738260186D33D9C14FC6E7017AFE6BB952A63D",
            "validator_index": "96",
            "height": "49303",
            "round": "0",
            "timestamp": "2018-08-02T17:11:56.013295748Z",
            "type": 2,
            "block_id": {
              "hash": "0AB7254F8E4EB81F853BC7C011C0474596EEC60E",
              "parts": {
                "total": "1",
                "hash": "D5F04A065BCD768DB910A1FC8F27B35C00D821A2"
              }
            },
            "signature": {
              "type": "tendermint/SignatureEd25519",
              "value": "t7ViFKAjeN6mI29V0mpTvBhCJQgAkS7MNTYWSvPqIlIfigIUeimIRHhOu/BnHtxXO/mB/18ZREBQDcZk7ZNcDQ=="
            }
          },
          {
            "validator_address": "FD8D304F0278229077114B05BED9DABD382D49D8",
            "validator_index": "97",
            "height": "49303",
            "round": "0",
            "timestamp": "2018-08-02T17:11:56.072142211Z",
            "type": 2,
            "block_id": {
              "hash": "0AB7254F8E4EB81F853BC7C011C0474596EEC60E",
              "parts": {
                "total": "1",
                "hash": "D5F04A065BCD768DB910A1FC8F27B35C00D821A2"
              }
            },
            "signature": {
              "type": "tendermint/SignatureEd25519",
              "value": "yn8G0HEG5vDUDDNxkNFyE3JYsU+bC4eHV8aP2F9aqxsukfFIFNNDb6/UWQ7BHooQT+dKuCvSdaVWWzYukVwRDA=="
            }
          },
          {
            "validator_address": "FF3F3FCBCE7E62D7AD5506FF846EC4518D980515",
            "validator_index": "98",
            "height": "49303",
            "round": "0",
            "timestamp": "2018-08-02T17:11:55.970924195Z",
            "type": 2,
            "block_id": {
              "hash": "0AB7254F8E4EB81F853BC7C011C0474596EEC60E",
              "parts": {
                "total": "1",
                "hash": "D5F04A065BCD768DB910A1FC8F27B35C00D821A2"
              }
            },
            "signature": {
              "type": "tendermint/SignatureEd25519",
              "value": "lBYKiVPtzAgJRux+NkyDtlUjET5WzUKH/3c69e/wVebUTlv0aU3BkwP+mCPJLTUUYU5qIsKpgZwPBiV4/D4+CA=="
            }
          }
        ]
      }
    },
    "canonical": true
  }
}