{
  "jsonrpc": "2.0",
  "id": "",
  "result": {
    "SignedHeader": {
      "header": {
        "chain_id": "gaia-7004",
        "height": "50574",
        "time": "2018-08-02T19:25:14.653268742Z",
        "num_txs": "0",
        "last_block_id": {
          "hash": "5CB86CB7A9DE22455FADE518B708AC54FD99761E",
          "parts": {
            "total": "1",
            "hash": "AA4B536FDD3F16971BDEF1129AFAEE5BC170BD7A"
          }
        },
        "total_txs": "2177",
        "last_commit_hash": "B22D3D3743AC98AFEEC4FC2B56283FAACDFA83C1",
        "data_hash": "",
        "validators_hash": "58F001323D742D07A6A0B00D8FFCC0BAC190DCE0",
        "consensus_hash": "D6B74BB35BDFFD8392340F2A379173548AE188FE",
        "app_hash": "C6F99E75F171B7A10C87729539C1B9BADC565543",
        "last_results_hash": "",
        "evidence_hash": ""
      },
      "commit": {
        "block_id": {
          "hash": "08B57D6F41D9736CFDBBCF6DAC95C030C0F843F7",
          "parts": {
            "total": "1",
            "hash": "B86869FC455C091E58BF72A62620599948DC43C0"
          }
        },
        "precommits": [
          {
            "validator_address": "029359C0C768096273A68ABC902A6B17AC8D1D70",
            "validator_index": "0",
            "height": "50574",
            "round": "1",
            "timestamp": "2018-08-02T19:25:15.63418869Z",
            "type": 2,
            "block_id": {
              "hash": "08B57D6F41D9736CFDBBCF6DAC95C030C0F843F7",
              "parts": {
                "total": "1",
                "hash": "B86869FC455C091E58BF72A62620599948DC43C0"
              }
            },
            "signature": {
              "type": "tendermint/SignatureEd25519",
              "value": "ZqqowKBqyPpInBF+Ya1UQf7wQDzWULxFRArzcYJhLKkjPyUZ65RkDfFPLo0JLS3uX1HNSdFxAs4Nr1BYtVvBDw=="
            }
          },
          {
            "validator_address": "02FE4B97A8387F39D1AC19E0C1702B3CC614812F",
            "validator_index": "1",
            "height": "50574",
            "round": "1",
            "timestamp": "2018-08-02T19:25:15.567916898Z",
            "type": 2,
            "block_id": {
              "hash": "08B57D6F41D9736CFDBBCF6DAC95C030C0F843F7",
              "parts": {
                "total": "1",
                "hash": "B86869FC455C091E58BF72A62620599948DC43C0"
              }
            },
            "signature": {
              "type": "tendermint/SignatureEd25519",
              "value": "rn597BvZ7pjpGDGlL4YDXI+AIqKrTUUyNLlJxqbONdALuxBDvEQVqp3bxfaeSIPDA3DXFKTLq+/+cCnxqNmqBA=="
            }
          },
          {
            "validator_address": "0548261C50222FD710EB5EBDF03A0E6567B21D20",
            "validator_index": "2",
            "height": "50574",
            "round": "1",
            "timestamp": "2018-08-02T19:25:15.616543779Z",
            "type": 2,
            "block_id": {
              "hash": "08B57D6F41D9736CFDBBCF6DAC95C030C0F843F7",
              "parts": {
                "total": "1",
                "hash": "B86869FC455C091E58BF72A62620599948DC43C0"
              }
            },
            "signature": {
              "type": "tendermint/SignatureEd25519",
              "value": "hfl0/VgYZtr8ZPWVSVxO5F+67mijYxUn7lDy47I+VsxLviODtP0Ptugn5saUgNKcgz0L3lj/B4yZA11r2w5rDg=="
            }
          },
          {
            "validator_address": "0665ADBF9B120B7617BF955AA5653A1992C82B11",
            "validator_index": "3",
            "height": "50574",
            "round": "1",
            "timestamp": "2018-08-02T19:25:15.48985945Z",
            "type": 2,
            "block_id": {
              "hash": "08B57D6F41D9736CFDBBCF6DAC95C030C0F843F7",
              "parts": {
                "total": "1",
                "hash": "B86869FC455C091E58BF72A62620599948DC43C0"
              }
            },
            "signature": {
              "type": "tendermint/SignatureEd25519",
              "value": "PPiCUr7jo8kdIVXkWaePFbgxQF1/7ACvUksBLOC8P0TqcAkODFuKQlzFng3gQ2prTZnGUUe4N96HwthRD0E+Bg=="
            }
          },
          {
            "validator_address": "09145E611CC27EEB944FC5A956DDF710F943B9EF",
            "validator_index": "4",
            "height": "50574",
            "round": "1",
            "timestamp": "2018-08-02T19:25:15.592854366Z",
            "type": 2,
            "block_id": {
              "hash": "08B57D6F41D9736CFDBBCF6DAC95C030C0F843F7",
              "parts": {
                "total": "1",
                "hash": "B86869FC455C091E58BF72A62620599948DC43C0"
              }
            },
            "signature": {
              "type": "tendermint/SignatureEd25519",
              "value": "NoXSC9EHd/d7PBUCCr+2MulTQxImOupho8burJSwQj0utfbikxJufCbi+z1dXB+2kU3QVi3GEwpGncUploG6BA=="
            }
          },
          {
            "validator_address": "0989D0355A104B67AE0AE028C68FB610690E174B",
            "validator_index": "5",
            "height": "50574",
            "round": "1",
            "timestamp": "2018-08-02T19:25:15.601474764Z",
            "type": 2,
            "block_id": {
              "hash": "08B57D6F41D9736CFDBBCF6DAC95C030C0F843F7",
              "parts": {
                "total": "1",
                "hash": "B86869FC455C091E58BF72A62620599948DC43C0"
              }
            },
            "signature": {
              "type": "tendermint/SignatureEd25519",
              "value": "c3jS1C7mk0Ev1D24grhKokgehvINPwHc5zyue+a2bx3L9F22Rd/nZDyNuqF3lXcIZ5QSSf3m6vAaD1IJKrNKDA=="
            }
          },
          {
            "validator_address": "0A692DBFFE9E5DD28E7DECC33CED1AEB4C0D014E",
            "validator_index": "6",
            "height": "50574",
            "round": "1",
            "timestamp": "2018-08-02T19:25:15.619107442Z",
            "type": 2,
            "block_id": {
              "hash": "08B57D6F41D9736CFDBBCF6DAC95C030C0F843F7",
              "parts": {
                "total": "1",
                "hash": "B86869FC455C091E58BF72A62620599948DC43C0"
              }
            },
            "signature": {
              "type": "tendermint/SignatureEd25519",
              "value": "1jx0ZFICH8mswo8JbCACNHyB6xuhBWgsoA8zb63M8L5JPKR+SW0u9+prgiYMwVmWXWLAGQ6yR8UB7jJudJi0CA=="
            }
          },
          {
            "validator_address": "1751786EFC085D5331C61168FFFC8202EA151B4E",
            "validator_index": "7",
            "height": "50574",
            "round": "1",
            "timestamp": "2018-08-02T19:25:15.207387387Z",
            "type": 2,
            "block_id": {
              "hash": "08B57D6F41D9736CFDBBCF6DAC95C030C0F843F7",
              "parts": {
                "total": "1",
                "hash": "B86869FC455C091E58BF72A62620599948DC43C0"
              }
            },
            "signature": {
              "type": "tendermint/SignatureEd25519",
              "value": "TqiGGvuOxkEqUk4YOOp6LFdwibLU9nWdw+GCn79Vt6RNBE44Y0zETRZTtY69EfR4s55JwbzmjaN/S5O8yKeEBQ=="
            }
          },
          {
            "validator_address": "17BB5CD01E8940FAFB948A04D5FA5A0645E5822E",
            "validator_index": "8",
            "height": "50574",
            "round": "1",
            "timestamp": "2018-08-02T19:25:15.574467624Z",
            "type": 2,
            "block_id": {
              "hash": "08B57D6F41D9736CFDBBCF6DAC95C030C0F843F7",
              "parts": {
                "total": "1",
                "hash": "B86869FC455C091E58BF72A62620599948DC43C0"
              }
            },
            "signature": {
              "type": "tendermint/SignatureEd25519",
              "value": "FSkFyakqy81/G8mtO0NUujj4sP90sl1gTqm/J7xbzgpyWmtCyUNU3F41afX11Kt3e2YzFh/5zDJf5Jh2/0+NDQ=="
            }
          },
          {
            "validator_address": "1C683A87904BC38F05004FE83301A3A3E35447EB",
            "validator_index": "9",
            "height": "50574",
            "round": "1",
            "timestamp": "2018-08-02T19:25:15.541512816Z",
            "type": 2,
            "block_id": {
              "hash": "08B57D6F41D9736CFDBBCF6DAC95C030C0F843F7",
              "parts": {
                "total": "1",
                "hash": "B86869FC455C091E58BF72A62620599948DC43C0"
              }
            },
            "signature": {
              "type": "tendermint/SignatureEd25519",
              "value": "6DSOas6+4DDaMDRaEjov1MqG820zTf+C2+8EV/WQjjDjySHqxoy0UGYUbjiXU1g/TLCPb4CwAWUduSIKgGUgAw=="
            }
          },
          {
            "validator_address": "1E9CE94FD0BA5CFEB901F90BC658D64D85B134D2",
            "validator_index": "10",
            "height": "50574",
            "round": "1",
            "timestamp": "2018-08-02T19:25:15.54942591Z",
            "type": 2,
            "block_id": {
              "hash": "08B57D6F41D9736CFDBBCF6DAC95C030C0F843F7",
              "parts": {
                "total": "1",
                "hash": "B86869FC455C091E58BF72A62620599948DC43C0"
              }
            },
            "signature": {
              "type": "tendermint/SignatureEd25519",
              "value": "WtnoiwRKx+iMub4YQGEbTG3pW/WE9W+hQXoSDlJ583vPWaGoZDQ/XXMUFQn7GhnSXA+fBJknrpziicAH+hLQBA=="
            }
          },
          {
            "validator_address": "1ECD8C5FE1341D74CDC633A245DD56858DE2F9A2",
            "validator_index": "11",
            "height": "50574",
            "round": "1",
            "timestamp": "2018-08-02T19:25:15.705857953Z",
            "type": 2,
            "block_id": {
              "hash": "08B57D6F41D9736CFDBBCF6DAC95C030C0F843F7",
              "parts": {
                "total": "1",
                "hash": "B86869FC455C091E58BF72A62620599948DC43C0"
              }
            },
            "signature": {
              "type": "tendermint/SignatureEd25519",
              "value": "36L8UI+9XFD/IfvzoPC8xs2Q2DIDXn6hSCZ1F0sff4wOsp9XIaW2s9+TQuBTYdhmZxkNIbGoen0oL3hABWyCCA=="
            }
          },
          {
            "validator_address": "1F3A68CAAD483768AA2BF667DEF10F7104C89928",
            "validator_index": "12",
            "height": "50574",
            "round": "1",
            "timestamp": "2018-08-02T19:25:15.57495318Z",
            "type": 2,
            "block_id": {
              "hash": "08B57D6F41D9736CFDBBCF6DAC95C030C0F843F7",
              "parts": {
                "total": "1",
                "hash": "B86869FC455C091E58BF72A62620599948DC43C0"
              }
            },
            "signature": {
              "type": "tendermint/SignatureEd25519",
              "value": "/s4GhjsXuJMHGHHdjysyKxV91/GDTA+AQd0chsjIddvNr43SI0ypEV0teHMkl72qbjSJlBzRWH7v2o4z54W+DA=="
            }
          },
          {
            "validator_address": "1F61153F26C2DF27E15874268D30326287323352",
            "validator_index": "13",
            "height": "50574",
            "round": "1",
            "timestamp": "2018-08-02T19:25:15.655114309Z",
            "type": 2,
            "block_id": {
              "hash": "08B57D6F41D9736CFDBBCF6DAC95C030C0F843F7",
              "parts": {
                "total": "1",
                "hash": "B86869FC455C091E58BF72A62620599948DC43C0"
              }
            },
            "signature": {
              "type": "tendermint/SignatureEd25519",
              "value": "g/A8ztel3p+Q3lsDwEcfyHcUddnKmQ3L+7N1bQKBM1PIqGSyh9TM82+/K91g43LufAgYOtmeM+tpw+FI0LnnDA=="
            }
          },
          {
            "validator_address": "23897586D68E2AC1C78E0EF5BB5DF5C8EAB18F50",
            "validator_index": "14",
            "height": "50574",
            "round": "1",
            "timestamp": "2018-08-02T19:25:15.628925149Z",
            "type": 2,
            "block_id": {
              "hash": "08B57D6F41D9736CFDBBCF6DAC95C030C0F843F7",
              "parts": {
                "total": "1",
                "hash": "B86869FC455C091E58BF72A62620599948DC43C0"
              }
            },
            "signature": {
              "type": "tendermint/SignatureEd25519",
              "value": "HC2ORh5ygyfwTU4KFhyCujakJgg6I0fUpqmP+3O3uUijBtYZJyPzjQUxWm1rV/x+MUJoCgWF7lLy4TYm3c3XCQ=="
            }
          },
          {
            "validator_address": "28770D17E8530825E7310A0659308654B7EC9682",
            "validator_index": "15",
            "height": "50574",
            "round": "1",
            "timestamp": "2018-08-02T19:25:15.526280313Z",
            "type": 2,
            "block_id": {
              "hash": "08B57D6F41D9736CFDBBCF6DAC95C030C0F843F7",
              "parts": {
                "total": "1",
                "hash": "B86869FC455C091E58BF72A62620599948DC43C0"
              }
            },
            "signature": {
              "type": "tendermint/SignatureEd25519",
              "value": "umuUQO9htgdklivLNhkkK0lcvViZfoZJnGughMyGiiQPJm9KLKuBSSkRXJpb1CcHk8dpsVx4C/yotEY9IovcAA=="
            }
          },
          {
            "validator_address": "2A92EC3C642140202298D0E245095E0ECFC25228",
            "validator_index": "16",
            "height": "50574",
            "round": "1",
            "timestamp": "2018-08-02T19:25:15.691752236Z",
            "type": 2,
            "block_id": {
              "hash": "08B57D6F41D9736CFDBBCF6DAC95C030C0F843F7",
              "parts": {
                "total": "1",
                "hash": "B86869FC455C091E58BF72A62620599948DC43C0"
              }
            },
            "signature": {
              "type": "tendermint/SignatureEd25519",
              "value": "sXnTgp7zPsIv/FWVz8/5NZAdBS8j4yoVYNFBlVm+oFq3O5LeilMDZ9NV27H9yAUdU9S5k3V3QebjXKlTDT6UDg=="
            }
          },
          {
            "validator_address": "33412C9A69C60CB0FAA24A5C5B3A906DE24B47C2",
            "validator_index": "17",
            "height": "50574",
            "round": "1",
            "timestamp": "2018-08-02T19:25:15.572196736Z",
            "type": 2,
            "block_id": {
              "hash": "08B57D6F41D9736CFDBBCF6DAC95C030C0F843F7",
              "parts": {
                "total": "1",
                "hash": "B86869FC455C091E58BF72A62620599948DC43C0"
              }
            },
            "signature": {
              "type": "tendermint/SignatureEd25519",
              "value": "83c8/q79XCyRLpD/NMZw8/iqKcYHyPUUprfXRRaeOlxibcBg6DBSeGdWW3/H0UGpvWfQKb/aQk0AGwmQxpP4Dw=="
            }
          },
          {
            "validator_address": "36E9B7FAEC964F97D84C028ED62493E373AD0B38",
            "validator_index": "18",
            "height": "50574",
            "round": "1",
            "timestamp": "2018-08-02T19:25:15.683363362Z",
            "type": 2,
            "block_id": {
              "hash": "08B57D6F41D9736CFDBBCF6DAC95C030C0F843F7",
              "parts": {
                "total": "1",
                "hash": "B86869FC455C091E58BF72A62620599948DC43C0"
              }
            },
            "signature": {
              "type": "tendermint/SignatureEd25519",
              "value": "SIlnZIhZLP/RQwZTV7ATdL8UXkKeJBLxHDsM8zv8PLU/sZ0D9VAFVfkkUzLYzv7lTtFlgp9W9IfwB7yArJw1AQ=="
            }
          },
          {
            "validator_address": "38A8D85D36BEA2E5FCF8A1E778F53628E450EF13",
            "validator_index": "19",
            "height": "50574",
            "round": "1",
            "timestamp": "2018-08-02T19:25:15.650294635Z",
            "type": 2,
            "block_id": {
              "hash": "08B57D6F41D9736CFDBBCF6DAC95C030C0F843F7",
              "parts": {
                "total": "1",
                "hash": "B86869FC455C091E58BF72A62620599948DC43C0"
              }
            },
            "signature": {
              "type": "tendermint/SignatureEd25519",
              "value": "Qm+06ypOw/It/RGaxpW08TL5GXXs/YQvfxc1HvZO77bMr4qZdznip1ehfjKyZ0BTfEdbXtUdW0C+BXqujAJ+Cw=="
            }
          },
          {
            "validator_address": "39DFDA0C5DB84B269642188B23253508537798E6",
            "validator_index": "20",
            "height": "50574",
            "round": "1",
            "timestamp": "2018-08-02T19:25:15.532394502Z",
            "type": 2,
            "block_id": {
              "hash": "08B57D6F41D9736CFDBBCF6DAC95C030C0F843F7",
              "parts": {
                "total": "1",
                "hash": "B86869FC455C091E58BF72A62620599948DC43C0"
              }
            },
            "signature": {
              "type": "tendermint/SignatureEd25519",
              "value": "+TvBiH9n3hH5Wnd0QXz3TdATHNKDNUBJR+z3Aw0QPnS0UWmEgM39OprUAYQ7s8pcAY8y8Hqhf5QMoIGdcKk+Dg=="
            }
          },
          {
            "validator_address": "3AC99B708404452366E0953A4BE849226DC86CBC",
            "validator_index": "21",
            "height": "50574",
            "round": "1",
            "timestamp": "2018-08-02T19:25:15.71560931Z",
            "type": 2,
            "block_id": {
              "hash": "08B57D6F41D9736CFDBBCF6DAC95C030C0F843F7",
              "parts": {
                "total": "1",
                "hash": "B86869FC455C091E58BF72A62620599948DC43C0"
              }
            },
            "signature": {
              "type": "tendermint/SignatureEd25519",
              "value": "zlv/jUrkcYk6syCxmf0+pvfXhf79kCDPzCFCsa0AEZjDIOuE04EDxLVd/CzN+7V4/WnH7WU+oyF/IqjgBD8lBQ=="
            }
          },
          {
            "validator_address": "3DCB822A10ED319EC7C4393D8E3FD4A41B15AAF2",
            "validator_index": "22",
            "height": "50574",
            "round": "1",
            "timestamp": "2018-08-02T19:25:15.507009114Z",
            "type": 2,
            "block_id": {
              "hash": "08B57D6F41D9736CFDBBCF6DAC95C030C0F843F7",
              "parts": {
                "total": "1",
                "hash": "B86869FC455C091E58BF72A62620599948DC43C0"
              }
            },
            "signature": {
              "type": "tendermint/SignatureEd25519",
              "value": "kfGwZpo5KB6SttFPovIASb8sFQ86e82tamNMeBnE2H3YdSGLs82ezJjErKSdSXqXBB11SwRNtWEJsfSWGT++Cg=="
            }
          },
          {
            "validator_address": "3E899BA36A93C7370347BD5FE85909F2ECD93F8C",
            "validator_index": "23",
            "height": "50574",
            "round": "1",
            "timestamp": "2018-08-02T19:25:15.600137778Z",
            "type": 2,
            "block_id": {
              "hash": "08B57D6F41D9736CFDBBCF6DAC95C030C0F843F7",
              "parts": {
                "total": "1",
                "hash": "B86869FC455C091E58BF72A62620599948DC43C0"
              }
            },
            "signature": {
              "type": "tendermint/SignatureEd25519",
              "value": "wBp1KMBUxo4NJW1Gp5LXzJOeN6vfrZZ0kslUvco26wXAWsFIT/d9MqXPHoqmRai+PsGfJwETao5nod8YATUWBg=="
            }
          },
          {
            "validator_address": "41CAB2E29E7D0F2282E3275938F188FF9386B84C",
            "validator_index": "24",
            "height": "50574",
            "round": "1",
            "timestamp": "2018-08-02T19:25:15.580303075Z",
            "type": 2,
            "block_id": {
              "hash": "08B57D6F41D9736CFDBBCF6DAC95C030C0F843F7",
              "parts": {
                "total": "1",
                "hash": "B86869FC455C091E58BF72A62620599948DC43C0"
              }
            },
            "signature": {
              "type": "tendermint/SignatureEd25519",
              "value": "N4HDmyOrQXp/Gh6E3/Q8WjLs5QIpMEn3/0T6FPdRiM0IuUy7HDWLh/DSW1jbIoxTGhpC5b5Ly1xNsL3iZWroAw=="
            }
          },
          {
            "validator_address": "462B656869DB02A8FD1077E255F8CC7401DC37C6",
            "validator_index": "25",
            "height": "50574",
            "round": "1",
            "timestamp": "2018-08-02T19:25:15.51927989Z",
            "type": 2,
            "block_id": {
              "hash": "08B57D6F41D9736CFDBBCF6DAC95C030C0F843F7",
              "parts": {
                "total": "1",
                "hash": "B86869FC455C091E58BF72A62620599948DC43C0"
              }
            },
            "signature": {
              "type": "tendermint/SignatureEd25519",
              "value": "j079t0cwFDAeo+rhmKWHz/iBt/+fZCbcHJyZjp7xYvqDHv7dSHRahTkROfIrYjfd7HN1ZzCUX2/L1fpd8k7JCA=="
            }
          },
          {
            "validator_address": "48E5118163E5442068A1B5A42D2EEDBB75724935",
            "validator_index": "26",
            "height": "50574",
            "round": "1",
            "timestamp": "2018-08-02T19:25:15.738717933Z",
            "type": 2,
            "block_id": {
              "hash": "08B57D6F41D9736CFDBBCF6DAC95C030C0F843F7",
              "parts": {
                "total": "1",
                "hash": "B86869FC455C091E58BF72A62620599948DC43C0"
              }
            },
            "signature": {
              "type": "tendermint/SignatureEd25519",
              "value": "8zkfBGQcyTFDDqCWm0drk3LybIKEYY+5SpwFnkV0ThIhSRRetKnXRVE+RfjP1Ya3OskMRAhJSdl7LBHr7VdSAA=="
            }
          },
          {
            "validator_address": "49103C58AFD9C7C069F55EBA218F3DFD9AEA74F9",
            "validator_index": "27",
            "height": "50574",
            "round": "1",
            "timestamp": "2018-08-02T19:25:15.5587371Z",
            "type": 2,
            "block_id": {
              "hash": "08B57D6F41D9736CFDBBCF6DAC95C030C0F843F7",
              "parts": {
                "total": "1",
                "hash": "B86869FC455C091E58BF72A62620599948DC43C0"
              }
            },
            "signature": {
              "type": "tendermint/SignatureEd25519",
              "value": "rG7+d9UWHdEjNwbZ76mYzV9qDP5q9h14L6hWv36ipUUjzz7By/e+PH0Ep2EEUkve8ICFBNLo1548Ph44ZggICA=="
            }
          },
          {
            "validator_address": "4944F8BBBB5303E17BC0607DF332320EDBC750EA",
            "validator_index": "28",
            "height": "50574",
            "round": "1",
            "timestamp": "2018-08-02T19:25:15.560427723Z",
            "type": 2,
            "block_id": {
              "hash": "08B57D6F41D9736CFDBBCF6DAC95C030C0F843F7",
              "parts": {
                "total": "1",
                "hash": "B86869FC455C091E58BF72A62620599948DC43C0"
              }
            },
            "signature": {
              "type": "tendermint/SignatureEd25519",
              "value": "1Wd4Fj8TodsUuNm99A/e3JP6wv54rz9u9+eZO3UVU6TNrrzx5dDlaCJFEmZp6hPTJ8dCDroqfvD4XfFeqVugCw=="
            }
          },
          {
            "validator_address": "49841599DE675157CBE1E7D6B35BF8FFC23BD5CB",
            "validator_index": "29",
            "height": "50574",
            "round": "1",
            "timestamp": "2018-08-02T19:25:15.514081409Z",
            "type": 2,
            "block_id": {
              "hash": "08B57D6F41D9736CFDBBCF6DAC95C030C0F843F7",
              "parts": {
                "total": "1",
                "hash": "B86869FC455C091E58BF72A62620599948DC43C0"
              }
            },
            "signature": {
              "type": "tendermint/SignatureEd25519",
              "value": "J2mgGK0z0z0MPW0OPALmaO+lqmvcuIEg83Z2If3ih94txMNDjwxMBcrMZdGc5hVAXBIpCLtnzN9kUskiZS4EDw=="
            }
          },
          {
            "validator_address": "51386C2CF9556821D114D7E4945806802BADB28D",
            "validator_index": "30",
            "height": "50574",
            "round": "1",
            "timestamp": "2018-08-02T19:25:15.581786285Z",
            "type": 2,
            "block_id": {
              "hash": "08B57D6F41D9736CFDBBCF6DAC95C030C0F843F7",
              "parts": {
                "total": "1",
                "hash": "B86869FC455C091E58BF72A62620599948DC43C0"
              }
            },
            "signature": {
              "type": "tendermint/SignatureEd25519",
              "value": "v3t7fC/VouuIYCThasg82+WRCOEC4p/5hNmhjGbI4CpcIYZDbzkWG/AFxvpiaCWOfvtSoLzSvnSCCvlKcdlJAw=="
            }
          },
          {
            "validator_address": "543564ECA3AFEFADC73EE8591AAC3A96F079BC8A",
            "validator_index": "31",
            "height": "50574",
            "round": "1",
            "timestamp": "2018-08-02T19:25:15.611872762Z",
            "type": 2,
            "block_id": {
              "hash": "08B57D6F41D9736CFDBBCF6DAC95C030C0F843F7",
              "parts": {
                "total": "1",
                "hash": "B86869FC455C091E58BF72A62620599948DC43C0"
              }
            },
            "signature": {
              "type": "tendermint/SignatureEd25519",
              "value": "6phEddOnnlC+6uTkYAwQkpcyJZT9eEnzXu9K2TasL+DYOInbuEt4YjkAzOZvxHAl7f79J3qRZZCoDWBSLK9dCQ=="
            }
          },
          {
            "validator_address": "55D67B1A6DC13E96F8754A5A42EABC20F7F86664",
            "validator_index": "32",
            "height": "50574",
            "round": "1",
            "timestamp": "2018-08-02T19:25:15.598763929Z",
            "type": 2,
            "block_id": {
              "hash": "08B57D6F41D9736CFDBBCF6DAC95C030C0F843F7",
              "parts": {
                "total": "1",
                "hash": "B86869FC455C091E58BF72A62620599948DC43C0"
              }
            },
            "signature": {
              "type": "tendermint/SignatureEd25519",
              "value": "gkacqr9XjO4uZcjlk69wYXXTtaNAmbvkpEKO4Kb3+PGZ0BWyZ9PvaXrO3Zuca4TLgHCGYSbu7wcSEFVqMsT4CA=="
            }
          },
          {
            "validator_address": "570B6A755ED339EAC56BB3390A48069F6AC9449B",
            "validator_index": "33",
            "height": "50574",
            "round": "1",
            "timestamp": "2018-08-02T19:25:26.299877617Z",
            "type": 2,
            "block_id": {
              "hash": "08B57D6F41D9736CFDBBCF6DAC95C030C0F843F7",
              "parts": {
                "total": "1",
                "hash": "B86869FC455C091E58BF72A62620599948DC43C0"
              }
            },
            "signature": {
              "type": "tendermint/SignatureEd25519",
              "value": "09eoH3NFyY89pHsYIB7JH4ih6E7YhnVg+gntK0ckB0WpW1uJZWr/X7Y26n7hLDCD4GfDUjt0RgkEZcQEYMmTDQ=="
            }
          },
          {
            "validator_address": "5BDF8EA41B1835FBAD865B181A2A4B23F511B5E4",
            "validator_index": "34",
            "height": "50574",
            "round": "1",
            "timestamp": "2018-08-02T19:25:15.584249212Z",
            "type": 2,
            "block_id": {
              "hash": "08B57D6F41D9736CFDBBCF6DAC95C030C0F843F7",
              "parts": {
                "total": "1",
                "hash": "B86869FC455C091E58BF72A62620599948DC43C0"
              }
            },
            "signature": {
              "type": "tendermint/SignatureEd25519",
              "value": "SfKKnzceSQWqYV5wDWwBuqVITrF2Slrfmv5dyErYyuNkRASiqlgjiwMf6d6ZnS6CvDcyTsrDmKi8fF9EV8G8Cw=="
            }
          },
          {
            "validator_address": "60229E2E273297FE00219E46DFFB8F76844CDEF9",
            "validator_index": "35",
            "height": "50574",
            "round": "1",
            "timestamp": "2018-08-02T19:25:12.75915336Z",
            "type": 2,
            "block_id": {
              "hash": "08B57D6F41D9736CFDBBCF6DAC95C030C0F843F7",
              "parts": {
                "total": "1",
                "hash": "B86869FC455C091E58BF72A62620599948DC43C0"
              }
            },
            "signature": {
              "type": "tendermint/SignatureEd25519",
              "value": "huPtceX8ccESxk44Xf09QvJV0HM3BjNitBCEfR0eGqAUKqxjLf7RHgtRgKRyznsmXNFE+se0ALPCpePx1y2ACA=="
            }
          },
          {
            "validator_address": "62410D6D1CD98278136E4D0738AA0EA273CDFC54",
            "validator_index": "36",
            "height": "50574",
            "round": "1",
            "timestamp": "2018-08-02T19:25:15.507555129Z",
            "type": 2,
            "block_id": {
              "hash": "08B57D6F41D9736CFDBBCF6DAC95C030C0F843F7",
              "parts": {
                "total": "1",
                "hash": "B86869FC455C091E58BF72A62620599948DC43C0"
              }
            },
            "signature": {
              "type": "tendermint/SignatureEd25519",
              "value": "7xbsENGp/875vFK9bKGCGLUCJRYdqDbKDNyBnYAkSQOD2XJYlMTD3FYbRGhMg2ycUk19trKMHeGYxuHEiZI3Dw=="
            }
          },
          {
            "validator_address": "632F5C139A5A9DFBFE5111DEE29FCFB6157207DC",
            "validator_index": "37",
            "height": "50574",
            "round": "1",
            "timestamp": "2018-08-02T19:25:15.561045471Z",
            "type": 2,
            "block_id": {
              "hash": "08B57D6F41D9736CFDBBCF6DAC95C030C0F843F7",
              "parts": {
                "total": "1",
                "hash": "B86869FC455C091E58BF72A62620599948DC43C0"
              }
            },
            "signature": {
              "type": "tendermint/SignatureEd25519",
              "value": "4OV3Nx5erveYWj1RK26qAdQ94XNdpO6qb4KEXExyLXYDxpahpGFpMI+rT3p53bAOHWpZ5DRz5ilBRPWN/KQ8CQ=="
            }
          },
          {
            "validator_address": "64F57F8E796A9B7B590C1EFA4123988C86631D39",
            "validator_index": "38",
            "height": "50574",
            "round": "1",
            "timestamp": "2018-08-02T19:25:15.534386348Z",
            "type": 2,
            "block_id": {
              "hash": "08B57D6F41D9736CFDBBCF6DAC95C030C0F843F7",
              "parts": {
                "total": "1",
                "hash": "B86869FC455C091E58BF72A62620599948DC43C0"
              }
            },
            "signature": {
              "type": "tendermint/SignatureEd25519",
              "value": "Yxmp8oAbcBL4EDZeYGGrPw2y9ImuZWZFLgrOP9R/OXWjDvXf1dAEHCvGgTrEe3rfz35m2Ai2iWSdrSWsqX5vAA=="
            }
          },
          {
            "validator_address": "69D99B2C66043ACBEAA8447525C356AFC6408E0C",
            "validator_index": "39",
            "height": "50574",
            "round": "1",
            "timestamp": "2018-08-02T19:25:15.659564709Z",
            "type": 2,
            "block_id": {
              "hash": "08B57D6F41D9736CFDBBCF6DAC95C030C0F843F7",
              "parts": {
                "total": "1",
                "hash": "B86869FC455C091E58BF72A62620599948DC43C0"
              }
            },
            "signature": {
              "type": "tendermint/SignatureEd25519",
              "value": "d5NJxADLBUhQTQUcqCsTbhaJkibc24wopmtvknU0HiNC9vY3yZUMAA7JIaiQcl3XRF1y++pnQxzXyepbicPKDg=="
            }
          },
          {
            "validator_address": "69EDADFA4A803E9DBF548C900D4A465E7D154262",
            "validator_index": "40",
            "height": "50574",
            "round": "1",
            "timestamp": "2018-08-02T19:25:15.707558637Z",
            "type": 2,
            "block_id": {
              "hash": "08B57D6F41D9736CFDBBCF6DAC95C030C0F843F7",
              "parts": {
                "total": "1",
                "hash": "B86869FC455C091E58BF72A62620599948DC43C0"
              }
            },
            "signature": {
              "type": "tendermint/SignatureEd25519",
              "value": "H4SDd2FUQGRG9t1I+RVoFsgBoRXHEGknRs1vfU9WB2TQBLvZHJZvo6xEDl1CueBvUgI6tDx7WklXOpwyvfrxCw=="
            }
          },
          {
            "validator_address": "6D3AD380E398D8592B03AA124BAFED5F125DF863",
            "validator_index": "41",
            "height": "50574",
            "round": "1",
            "timestamp": "2018-08-02T19:24:12.765951433Z",
            "type": 2,
            "block_id": {
              "hash": "08B57D6F41D9736CFDBBCF6DAC95C030C0F843F7",
              "parts": {
                "total": "1",
                "hash": "B86869FC455C091E58BF72A62620599948DC43C0"
              }
            },
            "signature": {
              "type": "tendermint/SignatureEd25519",
              "value": "KXjEiREW8o5MsBlIRJfYnbNO+ZrWlIqBlPHgUPYXKcd/5DkehWiaJwe52iP7OywAymPkGt7/LhXhWd6cc8/tCg=="
            }
          },
          {
            "validator_address": "6F6C93B8BF3495063FEC9B5C771158607F4AE9D6",
            "validator_index": "42",
            "height": "50574",
            "round": "1",
            "timestamp": "2018-08-02T19:25:15.647420782Z",
            "type": 2,
            "block_id": {
              "hash": "08B57D6F41D9736CFDBBCF6DAC95C030C0F843F7",
              "parts": {
                "total": "1",
                "hash": "B86869FC455C091E58BF72A62620599948DC43C0"
              }
            },
            "signature": {
              "type": "tendermint/SignatureEd25519",
              "value": "DBu0cY46fHALwy/S8r77kSPEffAW7pI5J4m1EnNAbkwPFJkBz2lR3u8Dy9p+Jf9CQeNu579zM1O6/U3lTkYUCw=="
            }
          },
          {
            "validator_address": "732CEEF54C374DDC6ADECBFD707AEFD07FEDC143",
            "validator_index": "43",
            "height": "50574",
            "round": "1",
            "timestamp": "2018-08-02T19:25:15.698915949Z",
            "type": 2,
            "block_id": {
              "hash": "08B57D6F41D9736CFDBBCF6DAC95C030C0F843F7",
              "parts": {
                "total": "1",
                "hash": "B86869FC455C091E58BF72A62620599948DC43C0"
              }
            },
            "signature": {
              "type": "tendermint/SignatureEd25519",
              "value": "celxt+Ac/EqwxruTsTpex91XERlBo5d9UAxK6ggnM/9RrbYb+AMH37adDhmqtswWUGuXo4kqLxl7liEXZ5e/CQ=="
            }
          },
          {
            "validator_address": "751E43437224E8BB6D1569B3E2B2616B6E7F4397",
            "validator_index": "44",
            "height": "50574",
            "round": "1",
            "timestamp": "2018-08-02T19:25:15.526824118Z",
            "type": 2,
            "block_id": {
              "hash": "08B57D6F41D9736CFDBBCF6DAC95C030C0F843F7",
              "parts": {
                "total": "1",
                "hash": "B86869FC455C091E58BF72A62620599948DC43C0"
              }
            },
            "signature": {
              "type": "tendermint/SignatureEd25519",
              "value": "ONFFSjbVrxPF55aRLAgXT0Nbgs5rOzxsoEQ8s+h/fuGt2vJFcR9NBO8EvLhooTqlEKCrWtQgoTGuURW0Fog9Bg=="
            }
          },
          {
            "validator_address": "7EB7593F519F1180C7E872D0494611464EDF03AE",
            "validator_index": "45",
            "height": "50574",
            "round": "1",
            "timestamp": "2018-08-02T19:25:15.576754963Z",
            "type": 2,
            "block_id": {
              "hash": "08B57D6F41D9736CFDBBCF6DAC95C030C0F843F7",
              "parts": {
                "total": "1",
                "hash": "B86869FC455C091E58BF72A62620599948DC43C0"
              }
            },
            "signature": {
              "type": "tendermint/SignatureEd25519",
              "value": "9oVmmGUmtCyhtVrW9UhgbfxnusvY4iHBXl9FUDiAvlsMDOfksbt9OmvwUIHuNWOoE6pW1KsH6Sph1cVYvQtfCA=="
            }
          },
          {
            "validator_address": "807CF675BA8479FC4FEC1047215DF07970040F1F",
            "validator_index": "46",
            "height": "50574",
            "round": "1",
            "timestamp": "2018-08-02T19:25:15.82004884Z",
            "type": 2,
            "block_id": {
              "hash": "08B57D6F41D9736CFDBBCF6DAC95C030C0F843F7",
              "parts": {
                "total": "1",
                "hash": "B86869FC455C091E58BF72A62620599948DC43C0"
              }
            },
            "signature": {
              "type": "tendermint/SignatureEd25519",
              "value": "AFu652o/wmgh8UcKbHuUu4jgJDxKIWQrmcUrguDdbzaXKEFXVf8cRlQZ9YUr1QVzIBv9Zlu8gEcjfbmWb2lkBg=="
            }
          },
          {
            "validator_address": "8356899C8853BC6640D76F76E59743FFEEA57B81",
            "validator_index": "47",
            "height": "50574",
            "round": "1",
            "timestamp": "2018-08-02T19:25:15.605224755Z",
            "type": 2,
            "block_id": {
              "hash": "08B57D6F41D9736CFDBBCF6DAC95C030C0F843F7",
              "parts": {
                "total": "1",
                "hash": "B86869FC455C091E58BF72A62620599948DC43C0"
              }
            },
            "signature": {
              "type": "tendermint/SignatureEd25519",
              "value": "BRZwXuGgk8dkUuhKA+/Cukl5B0DzuPVSQ7zZcvRwFhafYlatDD++SXo2ME4eP0WGhqicp1JbQVhyS+kPkV0gAg=="
            }
          },
          {
            "validator_address": "83AB321E012C57746689FED3A6064DF331F81007",
            "validator_index": "48",
            "height": "50574",
            "round": "1",
            "timestamp": "2018-08-02T19:25:15.572424788Z",
            "type": 2,
            "block_id": {
              "hash": "08B57D6F41D9736CFDBBCF6DAC95C030C0F843F7",
              "parts": {
                "total": "1",
                "hash": "B86869FC455C091E58BF72A62620599948DC43C0"
              }
            },
            "signature": {
              "type": "tendermint/SignatureEd25519",
              "value": "2xYKz/HsG0dqykw+s4pvzwm5Q3N6FckfXeEQES2GRRAHGTkmfUtAVOm5XNrgouc82KCl8YN1HmzMKJWY53dNBw=="
            }
          },
          {
            "validator_address": "83BB1B88D3DBB20AD845FECA07749EBD87D3754D",
            "validator_index": "49",
            "height": "50574",
            "round": "1",
            "timestamp": "2018-08-02T19:25:15.696580909Z",
            "type": 2,
            "block_id": {
              "hash": "08B57D6F41D9736CFDBBCF6DAC95C030C0F843F7",
              "parts": {
                "total": "1",
                "hash": "B86869FC455C091E58BF72A62620599948DC43C0"
              }
            },
            "signature": {
              "type": "tendermint/SignatureEd25519",
              "value": "kFzvTQvxWTOE6GLl8nnAgI5jWLNmNsg3gNRo/dHXi6kOvjDzw75hffJER21P6Rrt9zhPdAPrHlFu7Vj86SXaAg=="
            }
          },
          {
            "validator_address": "86DDBEEF35D35786A68834B34869174AC314BB74",
            "validator_index": "50",
            "height": "50574",
            "round": "1",
            "timestamp": "2018-08-02T19:25:15.593462593Z",
            "type": 2,
            "block_id": {
              "hash": "08B57D6F41D9736CFDBBCF6DAC95C030C0F843F7",
              "parts": {
                "total": "1",
                "hash": "B86869FC455C091E58BF72A62620599948DC43C0"
              }
            },
            "signature": {
              "type": "tendermint/SignatureEd25519",
              "value": "/Beb80KBIQH1thT2gv5QLObYIw93aDrO4ko8FOn11Fba+U8iNN6nHg+5y8/3s5VedXuW0TgdofttC+NQEsn7AA=="
            }
          },
          {
            "validator_address": "8F06FE1FD042683C426137FBC4BBAA4288924217",
            "validator_index": "51",
            "height": "50574",
            "round": "1",
            "timestamp": "2018-08-02T19:25:15.601698845Z",
            "type": 2,
            "block_id": {
              "hash": "08B57D6F41D9736CFDBBCF6DAC95C030C0F843F7",
              "parts": {
                "total": "1",
                "hash": "B86869FC455C091E58BF72A62620599948DC43C0"
              }
            },
            "signature": {
              "type": "tendermint/SignatureEd25519",
              "value": "GromgWvicDrKR5Cf0coZElF8R7Q67K5YHbZBkeRp4lCQxAntQ06sXNihR57mG+CJR0AMQ9QbeS87qNcjFF0zDg=="
            }
          },
          {
            "validator_address": "95980831E186F2540F6E9FB6C8E74DE2401405AC",
            "validator_index": "52",
            "height": "50574",
            "round": "1",
            "timestamp": "2018-08-02T19:25:15.656644718Z",
            "type": 2,
            "block_id": {
              "hash": "08B57D6F41D9736CFDBBCF6DAC95C030C0F843F7",
              "parts": {
                "total": "1",
                "hash": "B86869FC455C091E58BF72A62620599948DC43C0"
              }
            },
            "signature": {
              "type": "tendermint/SignatureEd25519",
              "value": "lZbvgdlipxX2hNiGUIBo2k/j/aDR5b0jFm7pnEkBS5Tqef3Qaxi1o1+30Vv21jxrRZ8Ui1oRrOugnCXKNXqQBA=="
            }
          },
          {
            "validator_address": "95FAFBC1E0579C83D290A063020CE87C5334BD9B",
            "validator_index": "53",
            "height": "50574",
            "round": "1",
            "timestamp": "2018-08-02T19:25:15.589259655Z",
            "type": 2,
            "block_id": {
              "hash": "08B57D6F41D9736CFDBBCF6DAC95C030C0F843F7",
              "parts": {
                "total": "1",
                "hash": "B86869FC455C091E58BF72A62620599948DC43C0"
              }
            },
            "signature": {
              "type": "tendermint/SignatureEd25519",
              "value": "5kemNYMO/73QXOhNsmMb7MXUvvOQCfWv8DzYNo1Fxw146BP/bU70tcm3aW9AsnjAMC+lSzUnnDjriSG//mj3CA=="
            }
          },
          {
            "validator_address": "96BDE45EC52606CF5CB59853097871AD60680549",
            "validator_index": "54",
            "height": "50574",
            "round": "1",
            "timestamp": "2018-08-02T19:25:15.62725986Z",
            "type": 2,
            "block_id": {
              "hash": "08B57D6F41D9736CFDBBCF6DAC95C030C0F843F7",
              "parts": {
                "total": "1",
                "hash": "B86869FC455C091E58BF72A62620599948DC43C0"
              }
            },
            "signature": {
              "type": "tendermint/SignatureEd25519",
              "value": "87Dpko/89UjmnkylP0IK6TlOpotYA1npqCT27pGarVatO7Hj/W5Yhg+aztKRRDR5YsR7wQkWOSzCo4rVIsh1Bw=="
            }
          },
          {
            "validator_address": "970CD321881185BF83DB2923C321B0E75FDBB2B8",
            "validator_index": "55",
            "height": "50574",
            "round": "1",
            "timestamp": "2018-08-02T19:25:15.645767178Z",
            "type": 2,
            "block_id": {
              "hash": "08B57D6F41D9736CFDBBCF6DAC95C030C0F843F7",
              "parts": {
                "total": "1",
                "hash": "B86869FC455C091E58BF72A62620599948DC43C0"
              }
            },
            "signature": {
              "type": "tendermint/SignatureEd25519",
              "value": "sUqRM9jPA6q27xhptH7O93JLa9YW/WeDdvyKl7srM/J3tsrWfLQ6j5CIxcD4QkiiXw7JTJAGcfmF1hK6VLMuAw=="
            }
          },
          {
            "validator_address": "97DBB3D4B3D6C29287244864448F651DD5B07390",
            "validator_index": "56",
            "height": "50574",
            "round": "1",
            "timestamp": "2018-08-02T19:25:15.613386477Z",
            "type": 2,
            "block_id": {
              "hash": "08B57D6F41D9736CFDBBCF6DAC95C030C0F843F7",
              "parts": {
                "total": "1",
                "hash": "B86869FC455C091E58BF72A62620599948DC43C0"
              }
            },
            "signature": {
              "type": "tendermint/SignatureEd25519",
              "value": "BAZyRo/hQ8CuiOqY/3oqg4KCrlIONkezOEZvM/dPKGCAuunk6Va/CXULSQxWk9EbjXwLeb8kzr6DVm91tJobBA=="
            }
          },
          {
            "validator_address": "9C29C9B76D27586E4D9AD2AED0E943162645E55C",
            "validator_index": "57",
            "height": "50574",
            "round": "1",
            "timestamp": "2018-08-02T19:25:15.540031394Z",
            "type": 2,
            "block_id": {
              "hash": "08B57D6F41D9736CFDBBCF6DAC95C030C0F843F7",
              "parts": {
                "total": "1",
                "hash": "B86869FC455C091E58BF72A62620599948DC43C0"
              }
            },
            "signature": {
              "type": "tendermint/SignatureEd25519",
              "value": "iHK8oMu0xK54qSg+P5iAV4X2LIlIvWq5AKQI9P1UuyQbDU3dEBKSregIcTEq+A2BRYB+RHBmo5xL94R5rPnYBg=="
            }
          },
          {
            "validator_address": "9D93AD02FE1BD7E76B9E58D7EB461088EAD011E5",
            "validator_index": "58",
            "height": "50574",
            "round": "1",
            "timestamp": "2018-08-02T19:25:15.509148752Z",
            "type": 2,
            "block_id": {
              "hash": "08B57D6F41D9736CFDBBCF6DAC95C030C0F843F7",
              "parts": {
                "total": "1",
                "hash": "B86869FC455C091E58BF72A62620599948DC43C0"
              }
            },
            "signature": {
              "type": "tendermint/SignatureEd25519",
              "value": "Bv2iyxuw5Qz7gsMY9FjBeqUHx5TJbx4W1wRlNpARwCao3dEr55BVnAGHl4RhN+6EWDpNWMK4Leyqz+D1WtiFCA=="
            }
          },
          {
            "validator_address": "A0A6466F4ABEA09C3B55E3709AFDE217A103209F",
            "validator_index": "59",
            "height": "50574",
            "round": "1",
            "timestamp": "2018-08-02T19:25:15.515622634Z",
            "type": 2,
            "block_id": {
              "hash": "08B57D6F41D9736CFDBBCF6DAC95C030C0F843F7",
              "parts": {
                "total": "1",
                "hash": "B86869FC455C091E58BF72A62620599948DC43C0"
              }
            },
            "signature": {
              "type": "tendermint/SignatureEd25519",
              "value": "7h6WPaU4SuAWkHV0UY1D89nmbGy0o9/syiP+ful6+M3SjArq1gtUlG51RmvBDudwg1Uw13YPHAGCx0gtyDCNBA=="
            }
          },
          {
            "validator_address": "A5868971300F155020634D7BB49C7634F7AACCD3",
            "validator_index": "60",
            "height": "50574",
            "round": "1",
            "timestamp": "2018-08-02T19:25:15.567574899Z",
            "type": 2,
            "block_id": {
              "hash": "08B57D6F41D9736CFDBBCF6DAC95C030C0F843F7",
              "parts": {
                "total": "1",
                "hash": "B86869FC455C091E58BF72A62620599948DC43C0"
              }
            },
            "signature": {
              "type": "tendermint/SignatureEd25519",
              "value": "nl69Lz3en4qXTyc3Kt6dROYX6dK2mLK1LBlvcYjYO0q1TZIJ1VZvJONAsJyF49pfPvLUvdm1CY1sJKx8i4rwBg=="
            }
          },
          {
            "validator_address": "A6B3A5B5D982CFD7B5FDFA15CF5A720E7AE25E7F",
            "validator_index": "61",
            "height": "50574",
            "round": "1",
            "timestamp": "2018-08-02T19:25:15.970020284Z",
            "type": 2,
            "block_id": {
              "hash": "08B57D6F41D9736CFDBBCF6DAC95C030C0F843F7",
              "parts": {
                "total": "1",
                "hash": "B86869FC455C091E58BF72A62620599948DC43C0"
              }
            },
            "signature": {
              "type": "tendermint/SignatureEd25519",
              "value": "mmy5gPsm+JEif9vtJ1DyMHDrh3Lffb/yuH8yDebAo6uHWbdcybMTQvFytuY8U1zkq5NsJYYmyxu+pIOlB4rgDg=="
            }
          },
          {
            "validator_address": "AC96444A9083890B7C7B430DB17BF1D3EA5EED04",
            "validator_index": "62",
            "height": "50574",
            "round": "1",
            "timestamp": "2018-08-02T19:25:15.666865933Z",
            "type": 2,
            "block_id": {
              "hash": "08B57D6F41D9736CFDBBCF6DAC95C030C0F843F7",
              "parts": {
                "total": "1",
                "hash": "B86869FC455C091E58BF72A62620599948DC43C0"
              }
            },
            "signature": {
              "type": "tendermint/SignatureEd25519",
              "value": "w9lqf6jlIb08Df2eTtFuo2QpgiG0aZ8lUw/cvEtrCpSC9Vlc7ksKX9VZDQPNVdMaWqHjw9TN0nXM/7qWriJeBw=="
            }
          },
          {
            "validator_address": "B197425B3210375F211661DE02EF2AE36580EB0F",
            "validator_index": "63",
            "height": "50574",
            "round": "1",
            "timestamp": "2018-08-02T19:25:15.550312604Z",
            "type": 2,
            "block_id": {
              "hash": "08B57D6F41D9736CFDBBCF6DAC95C030C0F843F7",
              "parts": {
                "total": "1",
                "hash": "B86869FC455C091E58BF72A62620599948DC43C0"
              }
            },
            "signature": {
              "type": "tendermint/SignatureEd25519",
              "value": "wz/bBkd6rvvkurcOFNFf8ESYCp6JD4J1U7Oi0iLSgEB0EzAk5w3FWVPZQntKlN4LgtxnNRIq42c7t0F4cVLtBw=="
            }
          },
          {
            "validator_address": "B45E54D2D1CB5A4CCD1D49016608C18E7C56B270",
            "validator_index": "64",
            "height": "50574",
            "round": "1",
            "timestamp": "2018-08-02T19:25:15.68406888Z",
            "type": 2,
            "block_id": {
              "hash": "08B57D6F41D9736CFDBBCF6DAC95C030C0F843F7",
              "parts": {
                "total": "1",
                "hash": "B86869FC455C091E58BF72A62620599948DC43C0"
              }
            },
            "signature": {
              "type": "tendermint/SignatureEd25519",
              "value": "1tjfDsLsB59tYDoi4qrxGqg4D3PqRBePdgM8WbSCnaXlEi7lXFtHmr3TWZXUhxxCPIDbYrKZ+PWMKR6Shc5SBg=="
            }
          },
          {
            "validator_address": "BB1276BE89834835428664408917649FEEF5D90C",
            "validator_index": "65",
            "height": "50574",
            "round": "1",
            "timestamp": "2018-08-02T19:25:15.581946571Z",
            "type": 2,
            "block_id": {
              "hash": "08B57D6F41D9736CFDBBCF6DAC95C030C0F843F7",
              "parts": {
                "total": "1",
                "hash": "B86869FC455C091E58BF72A62620599948DC43C0"
              }
            },
            "signature": {
              "type": "tendermint/SignatureEd25519",
              "value": "9UYaZP+z7F4TckV1LF2EMtDr52/jgoyQ3ZGpC0dVq85xK9cNmYrMsQRzYtfHxQuaEJ+l62juxiegIbwo62+CDA=="
            }
          },
          {
            "validator_address": "BC36FEDD6EF6071118A3E51859DF3831A2EC4782",
            "validator_index": "66",
            "height": "50574",
            "round": "1",
            "timestamp": "2018-08-02T19:25:15.586782337Z",
            "type": 2,
            "block_id": {
              "hash": "08B57D6F41D9736CFDBBCF6DAC95C030C0F843F7",
              "parts": {
                "total": "1",
                "hash": "B86869FC455C091E58BF72A62620599948DC43C0"
              }
            },
            "signature": {
              "type": "tendermint/SignatureEd25519",
              "value": "g+LHh96Ukeyl8UT57E6D/8GLc8us41xmkQU3t9p8laRZzSDoo2JEQM7bg6OFz9cTJH9b9xTXo+KLXtjfcNBYCA=="
            }
          },
          {
            "validator_address": "BD9D0DA513BF099DB4BB6E725A4E19832789882F",
            "validator_index": "67",
            "height": "50574",
            "round": "1",
            "timestamp": "2018-08-02T19:25:15.573815005Z",
            "type": 2,
            "block_id": {
              "hash": "08B57D6F41D9736CFDBBCF6DAC95C030C0F843F7",
              "parts": {
                "total": "1",
                "hash": "B86869FC455C091E58BF72A62620599948DC43C0"
              }
            },
            "signature": {
              "type": "tendermint/SignatureEd25519",
              "value": "hLKEPfnHEu1iG9r8/ahY2hU4hp7vECoN9QfG6X0rBX7EsOuHG7A7DhbG/iL3AMHaqMxi12UW8hdXUqdJSmYwDg=="
            }
          },
          {
            "validator_address": "C1134A2FF8F7338E7CDB3FE57DDD2A655DEB1E22",
            "validator_index": "68",
            "height": "50574",
            "round": "1",
            "timestamp": "2018-08-02T19:25:15.279206562Z",
            "type": 2,
            "block_id": {
              "hash": "08B57D6F41D9736CFDBBCF6DAC95C030C0F843F7",
              "parts": {
                "total": "1",
                "hash": "B86869FC455C091E58BF72A62620599948DC43C0"
              }
            },
            "signature": {
              "type": "tendermint/SignatureEd25519",
              "value": "N+Mtk1vO1khk3BU23X+dKG86lGtEZYulV0xIWC09312LwYPStmmkwF5xuEm+wLopQQx5G9Wkoz59iwiyRTMgBg=="
            }
          },
          {
            "validator_address": "C39A8A2B85198DCB8F23AD1F6C198E2BA7AB5D60",
            "validator_index": "69",
            "height": "50574",
            "round": "1",
            "timestamp": "2018-08-02T19:25:15.536703564Z",
            "type": 2,
            "block_id": {
              "hash": "08B57D6F41D9736CFDBBCF6DAC95C030C0F843F7",
              "parts": {
                "total": "1",
                "hash": "B86869FC455C091E58BF72A62620599948DC43C0"
              }
            },
            "signature": {
              "type": "tendermint/SignatureEd25519",
              "value": "XaPXiZWc5DfHbrWTkKddf9ftte+KfHgB3n1wMGg2sK2N/PM4FrYuyRaeSyfH1/PAODtU2xhvxyRszCM7qUuhBA=="
            }
          },
          {
            "validator_address": "C4335190C3B5BD4BA5568BC0F99C34162D940D08",
            "validator_index": "70",
            "height": "50574",
            "round": "1",
            "timestamp": "2018-08-02T19:25:15.643554872Z",
            "type": 2,
            "block_id": {
              "hash": "08B57D6F41D9736CFDBBCF6DAC95C030C0F843F7",
              "parts": {
                "total": "1",
                "hash": "B86869FC455C091E58BF72A62620599948DC43C0"
              }
            },
            "signature": {
              "type": "tendermint/SignatureEd25519",
              "value": "/93fwJF6QDmIMS7F2KdWMnATqQ8IqI99t8kw/ceTTGKfsxJS+jFe4T+W00CQN2O+Kn/Kx4klo+82E1d8XB/nCQ=="
            }
          },
          {
            "validator_address": "C561CFA081677046376396922E7576E5F7B316AD",
            "validator_index": "71",
            "height": "50574",
            "round": "1",
            "timestamp": "2018-08-02T19:25:15.650068471Z",
            "type": 2,
            "block_id": {
              "hash": "08B57D6F41D9736CFDBBCF6DAC95C030C0F843F7",
              "parts": {
                "total": "1",
                "hash": "B86869FC455C091E58BF72A62620599948DC43C0"
              }
            },
            "signature": {
              "type": "tendermint/SignatureEd25519",
              "value": "4aZTIBypUFtZnH3ftBEe0qFAX77qlX45sYKJpH+1bbzbOlp2gymGxCQTobN3nA/TXRLRLSHXja2G6t+Zg2tYDA=="
            }
          },
          {
            "validator_address": "CEB97DB5CB18270247ABDE6CF2F84F9AEE8A2904",
            "validator_index": "72",
            "height": "50574",
            "round": "1",
            "timestamp": "2018-08-02T19:25:16.843370405Z",
            "type": 2,
            "block_id": {
              "hash": "08B57D6F41D9736CFDBBCF6DAC95C030C0F843F7",
              "parts": {
                "total": "1",
                "hash": "B86869FC455C091E58BF72A62620599948DC43C0"
              }
            },
            "signature": {
              "type": "tendermint/SignatureEd25519",
              "value": "4J3JZhfsBybWf7JLc+OAayQ2LuvQTMp3kawqF8cZNgyaZsWe6o6gs6sVCZZ5KfyNEXZ39PKbMPWCvXUeK6y5DQ=="
            }
          },
          {
            "validator_address": "D2134B826A1E25A955905CB79A4D8731CAFA0CCE",
            "validator_index": "73",
            "height": "50574",
            "round": "1",
            "timestamp": "2018-08-02T19:25:15.684374061Z",
            "type": 2,
            "block_id": {
              "hash": "08B57D6F41D9736CFDBBCF6DAC95C030C0F843F7",
              "parts": {
                "total": "1",
                "hash": "B86869FC455C091E58BF72A62620599948DC43C0"
              }
            },
            "signature": {
              "type": "tendermint/SignatureEd25519",
              "value": "f74o5gZpFOdj25nzx6i49a6x/7eITMEIbidNY8kxVyoTlJRITSBfo3ybn7YksUbpAt7JUam/cmM8mipZqS6UAA=="
            }
          },
          {
            "validator_address": "D6285C3422C8886445D53757CBE12D2B91B5A9D0",
            "validator_index": "74",
            "height": "50574",
            "round": "1",
            "timestamp": "2018-08-02T19:24:59.046585868Z",
            "type": 2,
            "block_id": {
              "hash": "08B57D6F41D9736CFDBBCF6DAC95C030C0F843F7",
              "parts": {
                "total": "1",
                "hash": "B86869FC455C091E58BF72A62620599948DC43C0"
              }
            },
            "signature": {
              "type": "tendermint/SignatureEd25519",
              "value": "sG6D/8LtG0h46yd26PyFPT7hXbVwp1gBIIgAsNl9Wl4sOeWtXqndDZpHJORk9eSr3wtENb1HZfBCqJoRY5piBA=="
            }
          },
          {
            "validator_address": "D77FB84A729972CD3E757C9BEB61561855832B92",
            "validator_index": "75",
            "height": "50574",
            "round": "1",
            "timestamp": "2018-08-02T19:25:15.638979266Z",
            "type": 2,
            "block_id": {
              "hash": "08B57D6F41D9736CFDBBCF6DAC95C030C0F843F7",
              "parts": {
                "total": "1",
                "hash": "B86869FC455C091E58BF72A62620599948DC43C0"
              }
            },
            "signature": {
              "type": "tendermint/SignatureEd25519",
              "value": "IzuABXNxMdXf47KiKCO1qWTVIsq+AwzcMH5PFtgEdLGUsDjls1enB28r8ozUHNGS+Z+WaWWI78G/WUPmd1XlAw=="
            }
          },
          {
            "validator_address": "DB7E6732471D3EA5C90C17A9974D9F88AB45F2FB",
            "validator_index": "76",
            "height": "50574",
            "round": "1",
            "timestamp": "2018-08-02T19:25:15.53141405Z",
            "type": 2,
            "block_id": {
              "hash": "08B57D6F41D9736CFDBBCF6DAC95C030C0F843F7",
              "parts": {
                "total": "1",
                "hash": "B86869FC455C091E58BF72A62620599948DC43C0"
              }
            },
            "signature": {
              "type": "tendermint/SignatureEd25519",
              "value": "ndQp0rJOwVfFLNwZOyVVwJZbivgslGgODMAQBqCxDQheHuL6dxSyAxh73BRstokmzFKNSBRG9LeoRx8ZHdNqAw=="
            }
          },
          {
            "validator_address": "DF54B862410BCD9B5C516FBB6C56BDC826ED6FA7",
            "validator_index": "77",
            "height": "50574",
            "round": "1",
            "timestamp": "2018-08-02T19:25:15.687163992Z",
            "type": 2,
            "block_id": {
              "hash": "08B57D6F41D9736CFDBBCF6DAC95C030C0F843F7",
              "parts": {
                "total": "1",
                "hash": "B86869FC455C091E58BF72A62620599948DC43C0"
              }
            },
            "signature": {
              "type": "tendermint/SignatureEd25519",
              "value": "oTWsjPRYhIWz3kTp6ptcdSjerwBcQ5UnbqwvvpkhG8KhYX5CdU3Irwfg5nlGoQO4UrYVSUpNY/+rTAqEcJPaCw=="
            }
          },
          {
            "validator_address": "DFAF0C8B1B78D6D552B0189DE3ACA351439A1319",
            "validator_index": "78",
            "height": "50574",
            "round": "1",
            "timestamp": "2018-08-02T19:25:15.497291703Z",
            "type": 2,
            "block_id": {
              "hash": "08B57D6F41D9736CFDBBCF6DAC95C030C0F843F7",
              "parts": {
                "total": "1",
                "hash": "B86869FC455C091E58BF72A62620599948DC43C0"
              }
            },
            "signature": {
              "type": "tendermint/SignatureEd25519",
              "value": "WyUNcLUn3bHhSGZAetTsSFOLvmubVOuZrmHD5qvlXZvsbAdnIOLIv9bIJsIhAoo059C4z61nhkJoHqxUD3LzDQ=="
            }
          },
          {
            "validator_address": "E1DBC77881161A5A3A8536A57536EAE546A75D69",
            "validator_index": "79",
            "height": "50574",
            "round": "1",
            "timestamp": "2018-08-02T19:25:15.481356808Z",
            "type": 2,
            "block_id": {
              "hash": "08B57D6F41D9736CFDBBCF6DAC95C030C0F843F7",
              "parts": {
                "total": "1",
                "hash": "B86869FC455C091E58BF72A62620599948DC43C0"
              }
            },
            "signature": {
              "type": "tendermint/SignatureEd25519",
              "value": "AotGRVtxuaLNEHY3+sYbDK2OtXpyXS99pL69b+ivJXebj4FZJivhamO2C/mcSxeZEchhK0y/N9zgOzwD6NqCBQ=="
            }
          },
          {
            "validator_address": "E300E9D484374C1D3E97C1D93CAC3B160A056298",
            "validator_index": "80",
            "height": "50574",
            "round": "1",
            "timestamp": "2018-08-02T19:25:15.842058427Z",
            "type": 2,
            "block_id": {
              "hash": "08B57D6F41D9736CFDBBCF6DAC95C030C0F843F7",
              "parts": {
                "total": "1",
                "hash": "B86869FC455C091E58BF72A62620599948DC43C0"
              }
            },
            "signature": {
              "type": "tendermint/SignatureEd25519",
              "value": "7UtdN6aNrVNHhGOsT/GVIQO4CofsDaec2N9hE1yKsfOT1L8k7hXpMTMHGBOsOzeBAPCwTlkjkjD+ZFde0a4HCg=="
            }
          },
          {
            "validator_address": "E39B5778E0D4297A46F45CF6940B0A163A430FF8",
            "validator_index": "81",
            "height": "50574",
            "round": "1",
            "timestamp": "2018-08-02T19:25:15.570493603Z",
            "type": 2,
            "block_id": {
              "hash": "08B57D6F41D9736CFDBBCF6DAC95C030C0F843F7",
              "parts": {
                "total": "1",
                "hash": "B86869FC455C091E58BF72A62620599948DC43C0"
              }
            },
            "signature": {
              "type": "tendermint/SignatureEd25519",
              "value": "uo/INIBHPbOslwAVpdrJlYtEeIMfDYqymcVFPeRtv46m1wrfnqvad9uqKDT96nUVyGG1dCufeYnMMdFB1ly8BA=="
            }
          },
          {
            "validator_address": "E3B19738F7132F950668504D326C7660F159D170",
            "validator_index": "82",
            "height": "50574",
            "round": "1",
            "timestamp": "2018-08-02T19:25:15.570411149Z",
            "type": 2,
            "block_id": {
              "hash": "08B57D6F41D9736CFDBBCF6DAC95C030C0F843F7",
              "parts": {
                "total": "1",
                "hash": "B86869FC455C091E58BF72A62620599948DC43C0"
              }
            },
            "signature": {
              "type": "tendermint/SignatureEd25519",
              "value": "vIPHfsx7sA7aV9Cea8Lng8pk+ZM4sp4/Wup1XyvC5oULlRIxT1iwa42YAa4nxM1eWMZ6AKD2ic/ebjc/JO3OCw=="
            }
          },
          {
            "validator_address": "E42F8AEABB685219F7027F54D2B0DBC7846F633A",
            "validator_index": "83",
            "height": "50574",
            "round": "1",
            "timestamp": "2018-08-02T19:25:14.581125473Z",
            "type": 2,
            "block_id": {
              "hash": "08B57D6F41D9736CFDBBCF6DAC95C030C0F843F7",
              "parts": {
                "total": "1",
                "hash": "B86869FC455C091E58BF72A62620599948DC43C0"
              }
            },
            "signature": {
              "type": "tendermint/SignatureEd25519",
              "value": "dlJlLC0dFIt4Ju1IugCUE1DYAP7E3gVdsXDBGl6koPXO3p80KzR0/CQ+p8BDAy6C+jeTH5PxZ82Fa70oN5RXCw=="
            }
          },
          {
            "validator_address": "E4E6C2E81269DFFA196C17F98240E491479A6008",
            "validator_index": "84",
            "height": "50574",
            "round": "1",
            "timestamp": "2018-08-02T19:25:15.646479795Z",
            "type": 2,
            "block_id": {
              "hash": "08B57D6F41D9736CFDBBCF6DAC95C030C0F843F7",
              "parts": {
                "total": "1",
                "hash": "B86869FC455C091E58BF72A62620599948DC43C0"
              }
            },
            "signature": {
              "type": "tendermint/SignatureEd25519",
              "value": "rfn3wXQdHHRhm7gGAZSp3HgQF5pIrs2QKGMufKiJpBHRLqySfKEpuCqQzx+GiBCZCUbehigtrEfKP1+Z74ldAA=="
            }
          },
          {
            "validator_address": "E50ADECD5FD27FA2CD610C07F8AED36A2FC4A6A6",
            "validator_index": "85",
            "height": "50574",
            "round": "1",
            "timestamp": "2018-08-02T19:25:15.55584321Z",
            "type": 2,
            "block_id": {
              "hash": "08B57D6F41D9736CFDBBCF6DAC95C030C0F843F7",
              "parts": {
                "total": "1",
                "hash": "B86869FC455C091E58BF72A62620599948DC43C0"
              }
            },
            "signature": {
              "type": "tendermint/SignatureEd25519",
              "value": "ZLXQos15AfNHLYf1i8jj0TCULgoHW7oS3r4ILvZRXM+QZCeBM3LcZTwQqGvEvBlgQvqD/tpMhDJ1gX2/8oBLAw=="
            }
          },
          {
            "validator_address": "E6A7079D584B163750BE0831227F6B685DEAF3C1",
            "validator_index": "86",
            "height": "50574",
            "round": "1",
            "timestamp": "2018-08-02T19:25:15.660563266Z",
            "type": 2,
            "block_id": {
              "hash": "08B57D6F41D9736CFDBBCF6DAC95C030C0F843F7",
              "parts": {
                "total": "1",
                "hash": "B86869FC455C091E58BF72A62620599948DC43C0"
              }
            },
            "signature": {
              "type": "tendermint/SignatureEd25519",
              "value": "Hy4eQRhUuevqSNkywzj8ZjHLrRDRl0VYkTVRKx7ik9uFI0+LnBeNCntB7yDJdxo2xtrqsgFdL0vWZUPK25eaDg=="
            }
          },
          {
            "validator_address": "E7A30077D5D11867D3EAF99ED45BFDC1EB834509",
            "validator_index": "87",
            "height": "50574",
            "round": "1",
            "timestamp": "2018-08-02T19:25:15.588233432Z",
            "type": 2,
            "block_id": {
              "hash": "08B57D6F41D9736CFDBBCF6DAC95C030C0F843F7",
              "parts": {
                "total": "1",
                "hash": "B86869FC455C091E58BF72A62620599948DC43C0"
              }
            },
            "signature": {
              "type": "tendermint/SignatureEd25519",
              "value": "4ke3Q6QQ1Gok4P0bK746/E5Cg9CmwtQ52CHrE7Wv6g99Q7m2AvQR/ofQfD35JKaT6/lCnuElvifRwM+nHYKpCw=="
            }
          },
          null,
          {
            "validator_address": "EC3401441726C40ECC7E51F744483B05BC6DE9BD",
            "validator_index": "89",
            "height": "50574",
            "round": "1",
            "timestamp": "2018-08-02T19:25:15.602597775Z",
            "type": 2,
            "block_id": {
              "hash": "08B57D6F41D9736CFDBBCF6DAC95C030C0F843F7",
              "parts": {
                "total": "1",
                "hash": "B86869FC455C091E58BF72A62620599948DC43C0"
              }
            },
            "signature": {
              "type": "tendermint/SignatureEd25519",
              "value": "8NmFuLux1NlP3YdNUfQsiVrQVTdd2k9/sXQqsNu7vranSopLO6GmWWIDarVf/jPOyk5eI+Pl03O5VPo3iw/hCw=="
            }
          },
          {
            "validator_address": "EC95B111D032181E1EC3B5E8875C5BB8E4AE7140",
            "validator_index": "90",
            "height": "50574",
            "round": "1",
            "timestamp": "2018-08-02T19:25:15.50481914Z",
            "type": 2,
            "block_id": {
              "hash": "08B57D6F41D9736CFDBBCF6DAC95C030C0F843F7",
              "parts": {
                "total": "1",
                "hash": "B86869FC455C091E58BF72A62620599948DC43C0"
              }
            },
            "signature": {
              "type": "tendermint/SignatureEd25519",
              "value": "UdHUCrkw15xmEaWSyUEn24QRnbnsFil4Z3gNidijicMOYtlbWh1su+gvyT49kvNDw8agmcuzoreW2OUygh0oCg=="
            }
          },
          {
            "validator_address": "F13C1805E8131C9B47E2A46818F57D8A2841E578",
            "validator_index": "91",
            "height": "50574",
            "round": "1",
            "timestamp": "2018-08-02T19:25:15.576985386Z",
            "type": 2,
            "block_id": {
              "hash": "08B57D6F41D9736CFDBBCF6DAC95C030C0F843F7",
              "parts": {
                "total": "1",
                "hash": "B86869FC455C091E58BF72A62620599948DC43C0"
              }
            },
            "signature": {
              "type": "tendermint/SignatureEd25519",
              "value": "DfFPpQOA/6efPggWn4yMdrNuPUh4qmrzTujSdPZBMSBuzIrmkReGn+KDBQmz3NfCW/RX4i/2zMoBkx6DsdyDBw=="
            }
          },
          {
            "validator_address": "F23FF36BD5B90C33CE3A03ED72DBDCF5EC07D6AF",
            "validator_index": "92",
            "height": "50574",
            "round": "1",
            "timestamp": "2018-08-02T19:25:15.644403596Z",
            "type": 2,
            "block_id": {
              "hash": "08B57D6F41D9736CFDBBCF6DAC95C030C0F843F7",
              "parts": {
                "total": "1",
                "hash": "B86869FC455C091E58BF72A62620599948DC43C0"
              }
            },
            "signature": {
              "type": "tendermint/SignatureEd25519",
              "value": "StzNwirc8/6Fn0fpV+Pdmk2xTC5iyLRaYxAzf7eeYqH4J72yZ8qIe8nbhCib4UZE66JA7NWDVxKcRcuch1elCg=="
            }
          },
          {
            "validator_address": "F4268597DE93E3E2CED38845010F8AA34E2A879E",
            "validator_index": "93",
            "height": "50574",
            "round": "1",
            "timestamp": "2018-08-02T19:25:15.637673477Z",
            "type": 2,
            "block_id": {
              "hash": "08B57D6F41D9736CFDBBCF6DAC95C030C0F843F7",
              "parts": {
                "total": "1",
                "hash": "B86869FC455C091E58BF72A62620599948DC43C0"
              }
            },
            "signature": {
              "type": "tendermint/SignatureEd25519",
              "value": "H/ntBeFMWJDWA5RBkVdY6SuhIQTiRHdg8CWv7jMUwdoSVHE3k8OTcTNxVYIgqZkyN2tsLVIOcKF6ZoaPGSzXCg=="
            }
          },
          {
            "validator_address": "F4DEB417999B04BE2EFF9FFE03FA373D86011CC0",
            "validator_index": "94",
            "height": "50574",
            "round": "1",
            "timestamp": "2018-08-02T19:25:15.565774591Z",
            "type": 2,
            "block_id": {
              "hash": "08B57D6F41D9736CFDBBCF6DAC95C030C0F843F7",
              "parts": {
                "total": "1",
                "hash": "B86869FC455C091E58BF72A62620599948DC43C0"
              }
            },
            "signature": {
              "type": "tendermint/SignatureEd25519",
              "value": "XwqrWLIGzzTkfnLGaCrSl+ce+7crr3I44y0jiJ0TVwHWJ64cJRMQ3hTyu7vg7N1+B2yLBBisDBzn+oSDXSxCBg=="
            }
          },
          {
            "validator_address": "F6738260186D33D9C14FC6E7017AFE6BB952A63D",
            "validator_index": "95",
            "height": "50574",
            "round": "1",
            "timestamp": "2018-08-02T19:25:15.523260471Z",
            "type": 2,
            "block_id": {
              "hash": "08B57D6F41D9736CFDBBCF6DAC95C030C0F843F7",
              "parts": {
                "total": "1",
                "hash": "B86869FC455C091E58BF72A62620599948DC43C0"
              }
            },
            "signature": {
              "type": "tendermint/SignatureEd25519",
              "value": "2EszMhTve+ECedszBecfMOGT4w77TudJGSUWCtQwNsD870159OqPVKIFfN04PbCMIPwozUjbJCiEKHHUq/LUCQ=="
            }
          },
          {
            "validator_address": "FD8D304F0278229077114B05BED9DABD382D49D8",
            "validator_index": "96",
            "height": "50574",
            "round": "1",
            "timestamp": "2018-08-02T19:25:15.72712539Z",
            "type": 2,
            "block_id": {
              "hash": "08B57D6F41D9736CFDBBCF6DAC95C030C0F843F7",
              "parts": {
                "total": "1",
                "hash": "B86869FC455C091E58BF72A62620599948DC43C0"
              }
            },
            "signature": {
              "type": "tendermint/SignatureEd25519",
              "value": "kuVbZO7qLgjWLS28tknGd/Wcy2nzVVdRipufTkPSdoHRXvVYg0D+rP15QfP07z5jZG5xLl0NqoNrj0pihDe9Aw=="
            }
          },
          {
            "validator_address": "FF3F3FCBCE7E62D7AD5506FF846EC4518D980515",
            "validator_index": "97",
            "height": "50574",
            "round": "1",
            "timestamp": "2018-08-02T19:25:15.505900923Z",
            "type": 2,
            "block_id": {
              "hash": "08B57D6F41D9736CFDBBCF6DAC95C030C0F843F7",
              "parts": {
                "total": "1",
                "hash": "B86869FC455C091E58BF72A62620599948DC43C0"
              }
            },
            "signature": {
              "type": "tendermint/SignatureEd25519",
              "value": "QVW6YSrW6jHVmfNGufNvHWXctqe2Xn04sIBqy8SvO4VS/P5OvzK9CCZoWoieYXKr29MY1Trg+NUuss+7S4A2AQ=="
            }
          }
        ]
      }
    },
    "canonical": true
  }
}