{
  "jsonrpc": "2.0",
  "id": "",
  "result": {
    "SignedHeader": {
      "header": {
        "chain_id": "gaia-7004",
        "height": "50888",
        "time": "2018-08-02T19:57:50.116327368Z",
        "num_txs": "0",
        "last_block_id": {
          "hash": "3B1E6DC82F09D6F83A8984E65D9D97D3A2C22711",
          "parts": {
            "total": "1",
            "hash": "193DE51C524EA2382E11CD9FE07AD3CF332EDC3F"
          }
        },
        "total_txs": "2179",
        "last_commit_hash": "D6EEC3217748B7ADA66EF3BF560A36AFC9E9E6B9",
        "data_hash": "",
        "validators_hash": "58F001323D742D07A6A0B00D8FFCC0BAC190DCE0",
        "consensus_hash": "D6B74BB35BDFFD8392340F2A379173548AE188FE",
        "app_hash": "F3DD774658D740E09C90F4C4CA1F604FFEED1658",
        "last_results_hash": "",
        "evidence_hash": ""
      },
      "commit": {
        "block_id": {
          "hash": "6E2E948FCF518C73A6E245579AECA2512CE91B9E",
          "parts": {
            "total": "1",
            "hash": "6CB3F06BAB4D142628696FB20FD8E1C6E1AE0AF6"
          }
        },
        "precommits": [
          {
            "validator_address": "029359C0C768096273A68ABC902A6B17AC8D1D70",
            "validator_index": "0",
            "height": "50888",
            "round": "0",
            "timestamp": "2018-08-02T19:57:50.913139233Z",
            "type": 2,
            "block_id": {
              "hash": "6E2E948FCF518C73A6E245579AECA2512CE91B9E",
              "parts": {
                "total": "1",
                "hash": "6CB3F06BAB4D142628696FB20FD8E1C6E1AE0AF6"
              }
            },
            "signature": {
              "type": "tendermint/SignatureEd25519",
              "value": "SmWZXOFgsEEJnFKW4nopM6rni2ze5G1lDpAdC/ksAaz+R2CVPJ/UrUNtisQA+YHeMSR+fYbcdRLT0TIjWCzJDA=="
            }
          },
          {
            "validator_address": "02FE4B97A8387F39D1AC19E0C1702B3CC614812F",
            "validator_index": "1",
            "height": "50888",
            "round": "0",
            "timestamp": "2018-08-02T19:57:50.91868603Z",
            "type": 2,
            "block_id": {
              "hash": "6E2E948FCF518C73A6E245579AECA2512CE91B9E",
              "parts": {
                "total": "1",
                "hash": "6CB3F06BAB4D142628696FB20FD8E1C6E1AE0AF6"
              }
            },
            "signature": {
              "type": "tendermint/SignatureEd25519",
              "value": "kbuVpRwyXtI3KU7WJmof6StvO7qycewsxtbHXZticYfx/QzihkAe9Z37RP3SqrXvL9P2SolvxnLC/+4LBsQ/CQ=="
            }
          },
          {
            "validator_address": "0548261C50222FD710EB5EBDF03A0E6567B21D20",
            "validator_index": "2",
            "height": "50888",
            "round": "0",
            "timestamp": "2018-08-02T19:57:50.942748334Z",
            "type": 2,
            "block_id": {
              "hash": "6E2E948FCF518C73A6E245579AECA2512CE91B9E",
              "parts": {
                "total": "1",
                "hash": "6CB3F06BAB4D142628696FB20FD8E1C6E1AE0AF6"
              }
            },
            "signature": {
              "type": "tendermint/SignatureEd25519",
              "value": "sWc8ymIXcwKC3dtB/j/M2G8ubDiLE9O+YWShStsWLpKaFrnmxhEH650mA60L1zWmros3yxamY/YJ1fYHyFgvAg=="
            }
          },
          {
            "validator_address": "0665ADBF9B120B7617BF955AA5653A1992C82B11",
            "validator_index": "3",
            "height": "50888",
            "round": "0",
            "timestamp": "2018-08-02T19:57:50.951553303Z",
            "type": 2,
            "block_id": {
              "hash": "6E2E948FCF518C73A6E245579AECA2512CE91B9E",
              "parts": {
                "total": "1",
                "hash": "6CB3F06BAB4D142628696FB20FD8E1C6E1AE0AF6"
              }
            },
            "signature": {
              "type": "tendermint/SignatureEd25519",
              "value": "481qez48j0krreLi0ppdpy3L577uUR7XOajnkmAUeCqwK9IonOcf5vbmjRjWp8GSb0p1uOcXmnem2KZbFliaBw=="
            }
          },
          {
            "validator_address": "09145E611CC27EEB944FC5A956DDF710F943B9EF",
            "validator_index": "4",
            "height": "50888",
            "round": "0",
            "timestamp": "2018-08-02T19:57:50.901637266Z",
            "type": 2,
            "block_id": {
              "hash": "6E2E948FCF518C73A6E245579AECA2512CE91B9E",
              "parts": {
                "total": "1",
                "hash": "6CB3F06BAB4D142628696FB20FD8E1C6E1AE0AF6"
              }
            },
            "signature": {
              "type": "tendermint/SignatureEd25519",
              "value": "RZTdqyiAmiq7q9yq8wM8wKagCBPGJAERKEwsJpWSCGjMVFQYMjklYJwmreX67kfq0iY+DV+IU8unJvXkEa08CQ=="
            }
          },
          {
            "validator_address": "0989D0355A104B67AE0AE028C68FB610690E174B",
            "validator_index": "5",
            "height": "50888",
            "round": "0",
            "timestamp": "2018-08-02T19:57:50.923779263Z",
            "type": 2,
            "block_id": {
              "hash": "6E2E948FCF518C73A6E245579AECA2512CE91B9E",
              "parts": {
                "total": "1",
                "hash": "6CB3F06BAB4D142628696FB20FD8E1C6E1AE0AF6"
              }
            },
            "signature": {
              "type": "tendermint/SignatureEd25519",
              "value": "EigO5v0SxVcgANSDy2W/NngBDHD9ie3N5/AwkASzUXm6rQnV8hjZXkdvlJf7fYt4/EacOqQQD1lGqVmpFxSdAg=="
            }
          },
          {
            "validator_address": "0A692DBFFE9E5DD28E7DECC33CED1AEB4C0D014E",
            "validator_index": "6",
            "height": "50888",
            "round": "0",
            "timestamp": "2018-08-02T19:57:51.01340233Z",
            "type": 2,
            "block_id": {
              "hash": "6E2E948FCF518C73A6E245579AECA2512CE91B9E",
              "parts": {
                "total": "1",
                "hash": "6CB3F06BAB4D142628696FB20FD8E1C6E1AE0AF6"
              }
            },
            "signature": {
              "type": "tendermint/SignatureEd25519",
              "value": "8XqrTYXl4saUsoMEJlieUIPCc/47KX8mFvnnHpkJ0F6Jsm1JFGMBDmLVAmjzUAghhOR4eCXUCJ6HtvQKT1fgDA=="
            }
          },
          {
            "validator_address": "1751786EFC085D5331C61168FFFC8202EA151B4E",
            "validator_index": "7",
            "height": "50888",
            "round": "0",
            "timestamp": "2018-08-02T19:57:50.648876666Z",
            "type": 2,
            "block_id": {
              "hash": "6E2E948FCF518C73A6E245579AECA2512CE91B9E",
              "parts": {
                "total": "1",
                "hash": "6CB3F06BAB4D142628696FB20FD8E1C6E1AE0AF6"
              }
            },
            "signature": {
              "type": "tendermint/SignatureEd25519",
              "value": "Kjlu4PPBbRYQFgb20Yh4VxmoUgyVu9kykIEdGBoq6WBM5CXl04tjxpR6St+D3LhsAcprOk2dOGGf9wUru1+gBQ=="
            }
          },
          {
            "validator_address": "17BB5CD01E8940FAFB948A04D5FA5A0645E5822E",
            "validator_index": "8",
            "height": "50888",
            "round": "0",
            "timestamp": "2018-08-02T19:57:50.925329879Z",
            "type": 2,
            "block_id": {
              "hash": "6E2E948FCF518C73A6E245579AECA2512CE91B9E",
              "parts": {
                "total": "1",
                "hash": "6CB3F06BAB4D142628696FB20FD8E1C6E1AE0AF6"
              }
            },
            "signature": {
              "type": "tendermint/SignatureEd25519",
              "value": "scqDFdCN/p6bnTTRZ+BVJZRPjOyfDTCTErkml1yACu0L63BbGOpcstFBrSOFzioZTKPelWm+/T+czOhMwd25CQ=="
            }
          },
          {
            "validator_address": "1C683A87904BC38F05004FE83301A3A3E35447EB",
            "validator_index": "9",
            "height": "50888",
            "round": "0",
            "timestamp": "2018-08-02T19:57:50.90325058Z",
            "type": 2,
            "block_id": {
              "hash": "6E2E948FCF518C73A6E245579AECA2512CE91B9E",
              "parts": {
                "total": "1",
                "hash": "6CB3F06BAB4D142628696FB20FD8E1C6E1AE0AF6"
              }
            },
            "signature": {
              "type": "tendermint/SignatureEd25519",
              "value": "7bWWEys38b0ECpmdSsGjeicdecsT+tnnJBYEssxTzdUruMF36AUK7nKUdMBHU8qBC5tiA94WC/BiZ3CYjJ0pBA=="
            }
          },
          {
            "validator_address": "1E9CE94FD0BA5CFEB901F90BC658D64D85B134D2",
            "validator_index": "10",
            "height": "50888",
            "round": "0",
            "timestamp": "2018-08-02T19:57:50.974806374Z",
            "type": 2,
            "block_id": {
              "hash": "6E2E948FCF518C73A6E245579AECA2512CE91B9E",
              "parts": {
                "total": "1",
                "hash": "6CB3F06BAB4D142628696FB20FD8E1C6E1AE0AF6"
              }
            },
            "signature": {
              "type": "tendermint/SignatureEd25519",
              "value": "cVuVb3/ZQvLB/MzSn3Iwjt/QCklpP77oKacAEIu+UoewO9a17p2qk9s05VESE3yAkGv8fbCidrFggs2pQxtVDA=="
            }
          },
          {
            "validator_address": "1ECD8C5FE1341D74CDC633A245DD56858DE2F9A2",
            "validator_index": "11",
            "height": "50888",
            "round": "0",
            "timestamp": "2018-08-02T19:57:51.09048377Z",
            "type": 2,
            "block_id": {
              "hash": "6E2E948FCF518C73A6E245579AECA2512CE91B9E",
              "parts": {
                "total": "1",
                "hash": "6CB3F06BAB4D142628696FB20FD8E1C6E1AE0AF6"
              }
            },
            "signature": {
              "type": "tendermint/SignatureEd25519",
              "value": "rDukKV1SpWZ49iJVVqmG3QBtdnhPatOsznQVpj50UabPgSKcNNwa50lAWo+MYUY2Q5QyY3COhi5rOs/dx/rgAg=="
            }
          },
          {
            "validator_address": "1F3A68CAAD483768AA2BF667DEF10F7104C89928",
            "validator_index": "12",
            "height": "50888",
            "round": "0",
            "timestamp": "2018-08-02T19:57:50.925002585Z",
            "type": 2,
            "block_id": {
              "hash": "6E2E948FCF518C73A6E245579AECA2512CE91B9E",
              "parts": {
                "total": "1",
                "hash": "6CB3F06BAB4D142628696FB20FD8E1C6E1AE0AF6"
              }
            },
            "signature": {
              "type": "tendermint/SignatureEd25519",
              "value": "p2br8O7xZdFLRt6sAC41mdyLuPaW9gZqsdKSWT4vg0yrCHAuBVkDr0q4E6ZumI2LCR58zkpo9YufhJDF4DDAAg=="
            }
          },
          {
            "validator_address": "1F61153F26C2DF27E15874268D30326287323352",
            "validator_index": "13",
            "height": "50888",
            "round": "0",
            "timestamp": "2018-08-02T19:57:50.980554245Z",
            "type": 2,
            "block_id": {
              "hash": "6E2E948FCF518C73A6E245579AECA2512CE91B9E",
              "parts": {
                "total": "1",
                "hash": "6CB3F06BAB4D142628696FB20FD8E1C6E1AE0AF6"
              }
            },
            "signature": {
              "type": "tendermint/SignatureEd25519",
              "value": "TEUvg5j/RCFIGUt9zcoHM5xk7qpXJDXEfF60v2JYQ/C1nZL//IBg86x1WxzVEtLrbGH806k+Xs2DDho7Jju1Ag=="
            }
          },
          {
            "validator_address": "23897586D68E2AC1C78E0EF5BB5DF5C8EAB18F50",
            "validator_index": "14",
            "height": "50888",
            "round": "0",
            "timestamp": "2018-08-02T19:57:50.917557669Z",
            "type": 2,
            "block_id": {
              "hash": "6E2E948FCF518C73A6E245579AECA2512CE91B9E",
              "parts": {
                "total": "1",
                "hash": "6CB3F06BAB4D142628696FB20FD8E1C6E1AE0AF6"
              }
            },
            "signature": {
              "type": "tendermint/SignatureEd25519",
              "value": "d1GeILVobq0kvHVe8W3yExAqxOqnTTI9YPB5B9KEKwvSw0zmXi7CHr4E1ezAQkgvPjdIeIrzoEXuOkm6wl4ICA=="
            }
          },
          {
            "validator_address": "28770D17E8530825E7310A0659308654B7EC9682",
            "validator_index": "15",
            "height": "50888",
            "round": "0",
            "timestamp": "2018-08-02T19:57:50.861373057Z",
            "type": 2,
            "block_id": {
              "hash": "6E2E948FCF518C73A6E245579AECA2512CE91B9E",
              "parts": {
                "total": "1",
                "hash": "6CB3F06BAB4D142628696FB20FD8E1C6E1AE0AF6"
              }
            },
            "signature": {
              "type": "tendermint/SignatureEd25519",
              "value": "J0FNZfsE+9xWxcIfBiWExzBShaiE5y2BD7zADpQctri+kN1rYICsLTi2SgRNn9FlfO2xLBh0dh/+WRaKXJSlBg=="
            }
          },
          {
            "validator_address": "2A92EC3C642140202298D0E245095E0ECFC25228",
            "validator_index": "16",
            "height": "50888",
            "round": "0",
            "timestamp": "2018-08-02T19:57:50.953469132Z",
            "type": 2,
            "block_id": {
              "hash": "6E2E948FCF518C73A6E245579AECA2512CE91B9E",
              "parts": {
                "total": "1",
                "hash": "6CB3F06BAB4D142628696FB20FD8E1C6E1AE0AF6"
              }
            },
            "signature": {
              "type": "tendermint/SignatureEd25519",
              "value": "pKf8rsF2THVhICqBd2BsbeU2nQIrEVOIkcdBB+Fu9VVxAf/5+uWSZvimlSg94Pbj98wayFPsbNzPuR/O9e9ICw=="
            }
          },
          {
            "validator_address": "33412C9A69C60CB0FAA24A5C5B3A906DE24B47C2",
            "validator_index": "17",
            "height": "50888",
            "round": "0",
            "timestamp": "2018-08-02T19:57:50.894133844Z",
            "type": 2,
            "block_id": {
              "hash": "6E2E948FCF518C73A6E245579AECA2512CE91B9E",
              "parts": {
                "total": "1",
                "hash": "6CB3F06BAB4D142628696FB20FD8E1C6E1AE0AF6"
              }
            },
            "signature": {
              "type": "tendermint/SignatureEd25519",
              "value": "6AOpT2nsOYDkBF7sqsbj877eS+soR/aGe7PeIZPP7nr2BbWsSPAnx1hH2tpIFCXE4TDNeRcm43GkbL0jJrXCBw=="
            }
          },
          {
            "validator_address": "36E9B7FAEC964F97D84C028ED62493E373AD0B38",
            "validator_index": "18",
            "height": "50888",
            "round": "0",
            "timestamp": "2018-08-02T19:57:50.99033586Z",
            "type": 2,
            "block_id": {
              "hash": "6E2E948FCF518C73A6E245579AECA2512CE91B9E",
              "parts": {
                "total": "1",
                "hash": "6CB3F06BAB4D142628696FB20FD8E1C6E1AE0AF6"
              }
            },
            "signature": {
              "type": "tendermint/SignatureEd25519",
              "value": "ie+AIsTABER6tz7xD5L99FEVThqQCEvZiz/s3FM+D+cUI4329HtQRXYif1UigIklhoZeUWn9wIPjt3vfDMJCDw=="
            }
          },
          {
            "validator_address": "38A8D85D36BEA2E5FCF8A1E778F53628E450EF13",
            "validator_index": "19",
            "height": "50888",
            "round": "0",
            "timestamp": "2018-08-02T19:57:51.02038528Z",
            "type": 2,
            "block_id": {
              "hash": "6E2E948FCF518C73A6E245579AECA2512CE91B9E",
              "parts": {
                "total": "1",
                "hash": "6CB3F06BAB4D142628696FB20FD8E1C6E1AE0AF6"
              }
            },
            "signature": {
              "type": "tendermint/SignatureEd25519",
              "value": "GFpW6Fqk6iDHufJPMSteDYLByP52TETg1csTNAQKWD3Vwo/R95tdqBz8uclZi2d9PQ+78/WMEadSnBLFVhq9Cw=="
            }
          },
          {
            "validator_address": "39DFDA0C5DB84B269642188B23253508537798E6",
            "validator_index": "20",
            "height": "50888",
            "round": "0",
            "timestamp": "2018-08-02T19:57:50.877390803Z",
            "type": 2,
            "block_id": {
              "hash": "6E2E948FCF518C73A6E245579AECA2512CE91B9E",
              "parts": {
                "total": "1",
                "hash": "6CB3F06BAB4D142628696FB20FD8E1C6E1AE0AF6"
              }
            },
            "signature": {
              "type": "tendermint/SignatureEd25519",
              "value": "p5QTHQ0MCfBuq8ddopeT8puCcyvA5Ub0ThsJ/jIyk90K0Grwxfjp+G10sMuRBwGp6Bf1CW3TPeShh4jwmfOBBA=="
            }
          },
          {
            "validator_address": "3AC99B708404452366E0953A4BE849226DC86CBC",
            "validator_index": "21",
            "height": "50888",
            "round": "0",
            "timestamp": "2018-08-02T19:57:51.011355293Z",
            "type": 2,
            "block_id": {
              "hash": "6E2E948FCF518C73A6E245579AECA2512CE91B9E",
              "parts": {
                "total": "1",
                "hash": "6CB3F06BAB4D142628696FB20FD8E1C6E1AE0AF6"
              }
            },
            "signature": {
              "type": "tendermint/SignatureEd25519",
              "value": "RTXwAXeFcjZjkyiTvXT++lm6WFwcs0Qs7cp+VDmQ0crnaEe+aeJ1jcA4PguBpKWmGQ9Oxf8T6sHcqs8DsT6hDQ=="
            }
          },
          {
            "validator_address": "3DCB822A10ED319EC7C4393D8E3FD4A41B15AAF2",
            "validator_index": "22",
            "height": "50888",
            "round": "0",
            "timestamp": "2018-08-02T19:57:50.878174225Z",
            "type": 2,
            "block_id": {
              "hash": "6E2E948FCF518C73A6E245579AECA2512CE91B9E",
              "parts": {
                "total": "1",
                "hash": "6CB3F06BAB4D142628696FB20FD8E1C6E1AE0AF6"
              }
            },
            "signature": {
              "type": "tendermint/SignatureEd25519",
              "value": "J3u3y88hI97LgvPNsrOt0Z786qvFiQPX83m12dXWVxQMjoaOZB7wviFihl18RG/1o0JYLqQ6cmGKRKgToibyAA=="
            }
          },
          {
            "validator_address": "3E899BA36A93C7370347BD5FE85909F2ECD93F8C",
            "validator_index": "23",
            "height": "50888",
            "round": "0",
            "timestamp": "2018-08-02T19:57:50.89988698Z",
            "type": 2,
            "block_id": {
              "hash": "6E2E948FCF518C73A6E245579AECA2512CE91B9E",
              "parts": {
                "total": "1",
                "hash": "6CB3F06BAB4D142628696FB20FD8E1C6E1AE0AF6"
              }
            },
            "signature": {
              "type": "tendermint/SignatureEd25519",
              "value": "qJ6RxY+bs+2GckiR+wpPVnegG0Uzf0XWjp9a/S7OuAsm6jE6vhyT4U3ZbUsv69A22kfrRqyN0RNeSKiyOQ+RDA=="
            }
          },
          {
            "validator_address": "41CAB2E29E7D0F2282E3275938F188FF9386B84C",
            "validator_index": "24",
            "height": "50888",
            "round": "0",
            "timestamp": "2018-08-02T19:57:50.944297858Z",
            "type": 2,
            "block_id": {
              "hash": "6E2E948FCF518C73A6E245579AECA2512CE91B9E",
              "parts": {
                "total": "1",
                "hash": "6CB3F06BAB4D142628696FB20FD8E1C6E1AE0AF6"
              }
            },
            "signature": {
              "type": "tendermint/SignatureEd25519",
              "value": "ukBoqbmjONsvVS/ffSTtduvPgRQMy4Qso7EJ+1mo4f0R8FEbDhvYtu40AwS0hClp+UD6/yV5hCH2v4GcuCXTCA=="
            }
          },
          {
            "validator_address": "462B656869DB02A8FD1077E255F8CC7401DC37C6",
            "validator_index": "25",
            "height": "50888",
            "round": "0",
            "timestamp": "2018-08-02T19:57:50.892228839Z",
            "type": 2,
            "block_id": {
              "hash": "6E2E948FCF518C73A6E245579AECA2512CE91B9E",
              "parts": {
                "total": "1",
                "hash": "6CB3F06BAB4D142628696FB20FD8E1C6E1AE0AF6"
              }
            },
            "signature": {
              "type": "tendermint/SignatureEd25519",
              "value": "qNulrbN5GEP3stRhWh9qarfMCiuG7JCKkVoMJL0VgeADin629IZsi98IyVg7EkoDHRQB80NRow4660UEb0d4CA=="
            }
          },
          {
            "validator_address": "48E5118163E5442068A1B5A42D2EEDBB75724935",
            "validator_index": "26",
            "height": "50888",
            "round": "0",
            "timestamp": "2018-08-02T19:57:51.016380813Z",
            "type": 2,
            "block_id": {
              "hash": "6E2E948FCF518C73A6E245579AECA2512CE91B9E",
              "parts": {
                "total": "1",
                "hash": "6CB3F06BAB4D142628696FB20FD8E1C6E1AE0AF6"
              }
            },
            "signature": {
              "type": "tendermint/SignatureEd25519",
              "value": "54p7UUY9xuxHxfoj+aHyva/K+HlXrncqv9aJr61/yE1oWzFQbO+QaMyRznIUZMbgtD4GzsisJzwolS4KbkYKAg=="
            }
          },
          {
            "validator_address": "49103C58AFD9C7C069F55EBA218F3DFD9AEA74F9",
            "validator_index": "27",
            "height": "50888",
            "round": "0",
            "timestamp": "2018-08-02T19:57:50.953890886Z",
            "type": 2,
            "block_id": {
              "hash": "6E2E948FCF518C73A6E245579AECA2512CE91B9E",
              "parts": {
                "total": "1",
                "hash": "6CB3F06BAB4D142628696FB20FD8E1C6E1AE0AF6"
              }
            },
            "signature": {
              "type": "tendermint/SignatureEd25519",
              "value": "Dy/Xrgzk8eb8L1cyCCjwdHvI+lwt9EeOrCGlIVYEDScYghfB7cd5IQpy34+zkYLRGy7zX+ImBLSuogKwLo/GCQ=="
            }
          },
          {
            "validator_address": "4944F8BBBB5303E17BC0607DF332320EDBC750EA",
            "validator_index": "28",
            "height": "50888",
            "round": "0",
            "timestamp": "2018-08-02T19:57:50.954645907Z",
            "type": 2,
            "block_id": {
              "hash": "6E2E948FCF518C73A6E245579AECA2512CE91B9E",
              "parts": {
                "total": "1",
                "hash": "6CB3F06BAB4D142628696FB20FD8E1C6E1AE0AF6"
              }
            },
            "signature": {
              "type": "tendermint/SignatureEd25519",
              "value": "uuP3/Mcp69SO8VBAVv16rW2sj4NVNGH6LT2scEp8F+drWe4zpI+E3frTkBcJ48xfBCABgcp6zVoWUh0BnvPlBg=="
            }
          },
          {
            "validator_address": "49841599DE675157CBE1E7D6B35BF8FFC23BD5CB",
            "validator_index": "29",
            "height": "50888",
            "round": "0",
            "timestamp": "2018-08-02T19:57:50.855135613Z",
            "type": 2,
            "block_id": {
              "hash": "6E2E948FCF518C73A6E245579AECA2512CE91B9E",
              "parts": {
                "total": "1",
                "hash": "6CB3F06BAB4D142628696FB20FD8E1C6E1AE0AF6"
              }
            },
            "signature": {
              "type": "tendermint/SignatureEd25519",
              "value": "DOmpB1p/xZEKiQaSRi76vEKrglwHFQJ4vKofcp8sENGcPJuz6x5GeqaxcVSDFsYV9n6W8sZh1GICeAQfi3heDg=="
            }
          },
          {
            "validator_address": "51386C2CF9556821D114D7E4945806802BADB28D",
            "validator_index": "30",
            "height": "50888",
            "round": "0",
            "timestamp": "2018-08-02T19:57:50.91059892Z",
            "type": 2,
            "block_id": {
              "hash": "6E2E948FCF518C73A6E245579AECA2512CE91B9E",
              "parts": {
                "total": "1",
                "hash": "6CB3F06BAB4D142628696FB20FD8E1C6E1AE0AF6"
              }
            },
            "signature": {
              "type": "tendermint/SignatureEd25519",
              "value": "Lfhcrx8KlvSzrt1rhvuuJvcp0QFGlq36dDMtxBYaLX7xLmmUjzrb3fz5mtbpuoseTg8CtTmf9tffRL7cW+BeBg=="
            }
          },
          {
            "validator_address": "543564ECA3AFEFADC73EE8591AAC3A96F079BC8A",
            "validator_index": "31",
            "height": "50888",
            "round": "0",
            "timestamp": "2018-08-02T19:57:50.930645853Z",
            "type": 2,
            "block_id": {
              "hash": "6E2E948FCF518C73A6E245579AECA2512CE91B9E",
              "parts": {
                "total": "1",
                "hash": "6CB3F06BAB4D142628696FB20FD8E1C6E1AE0AF6"
              }
            },
            "signature": {
              "type": "tendermint/SignatureEd25519",
              "value": "/09YL0nSevxWNppRiS4zIHGPLlo1gV0x9d7KKQAvr+oJA5RT7baIGE4DnsukOD4mO9gVzxfE3qQh625YCarrCg=="
            }
          },
          {
            "validator_address": "55D67B1A6DC13E96F8754A5A42EABC20F7F86664",
            "validator_index": "32",
            "height": "50888",
            "round": "0",
            "timestamp": "2018-08-02T19:57:50.896290853Z",
            "type": 2,
            "block_id": {
              "hash": "6E2E948FCF518C73A6E245579AECA2512CE91B9E",
              "parts": {
                "total": "1",
                "hash": "6CB3F06BAB4D142628696FB20FD8E1C6E1AE0AF6"
              }
            },
            "signature": {
              "type": "tendermint/SignatureEd25519",
              "value": "qDnl+dFUeyxCGq8qfZBFjmi+hSl+PnWkUI+EY2H3bqxaXZPpsmIMvHasyupJNfgjS+/XedqhkbpqFcQC0FAABw=="
            }
          },
          {
            "validator_address": "570B6A755ED339EAC56BB3390A48069F6AC9449B",
            "validator_index": "33",
            "height": "50888",
            "round": "0",
            "timestamp": "2018-08-02T19:58:01.557763599Z",
            "type": 2,
            "block_id": {
              "hash": "6E2E948FCF518C73A6E245579AECA2512CE91B9E",
              "parts": {
                "total": "1",
                "hash": "6CB3F06BAB4D142628696FB20FD8E1C6E1AE0AF6"
              }
            },
            "signature": {
              "type": "tendermint/SignatureEd25519",
              "value": "VdGdC31PXR8p496BDF1MD1Q5KqiAKigxTsqoAby2JT+PMF+VItHjOz13AfuN17KzN/TTv4aqflBrCLxhiam/Bg=="
            }
          },
          {
            "validator_address": "5BDF8EA41B1835FBAD865B181A2A4B23F511B5E4",
            "validator_index": "34",
            "height": "50888",
            "round": "0",
            "timestamp": "2018-08-02T19:57:50.863683013Z",
            "type": 2,
            "block_id": {
              "hash": "6E2E948FCF518C73A6E245579AECA2512CE91B9E",
              "parts": {
                "total": "1",
                "hash": "6CB3F06BAB4D142628696FB20FD8E1C6E1AE0AF6"
              }
            },
            "signature": {
              "type": "tendermint/SignatureEd25519",
              "value": "mSMR5PcPhBptNltzyx+YRgBwt65b1gtfRCm+JLdmBRwwCD5kVOSKDDcaX5ltQwc2x8mYFoltTrk45hhzfzrIAQ=="
            }
          },
          {
            "validator_address": "60229E2E273297FE00219E46DFFB8F76844CDEF9",
            "validator_index": "35",
            "height": "50888",
            "round": "0",
            "timestamp": "2018-08-02T19:57:48.097812926Z",
            "type": 2,
            "block_id": {
              "hash": "6E2E948FCF518C73A6E245579AECA2512CE91B9E",
              "parts": {
                "total": "1",
                "hash": "6CB3F06BAB4D142628696FB20FD8E1C6E1AE0AF6"
              }
            },
            "signature": {
              "type": "tendermint/SignatureEd25519",
              "value": "NmDwTrSq+qv+V1dWcEYjIVOZB9fgcZg5ERPZiReX++REUGEp5NZhOhM2rzt81Qk0w0HgNgcJGSEqBF83nMNLDg=="
            }
          },
          {
            "validator_address": "62410D6D1CD98278136E4D0738AA0EA273CDFC54",
            "validator_index": "36",
            "height": "50888",
            "round": "0",
            "timestamp": "2018-08-02T19:57:50.895146608Z",
            "type": 2,
            "block_id": {
              "hash": "6E2E948FCF518C73A6E245579AECA2512CE91B9E",
              "parts": {
                "total": "1",
                "hash": "6CB3F06BAB4D142628696FB20FD8E1C6E1AE0AF6"
              }
            },
            "signature": {
              "type": "tendermint/SignatureEd25519",
              "value": "hOtyWEkDO+0vsh+GdOQ4miKh2kh59X1vlmX0OkCqtap8xEfDntV7V6kqpAbpXFirB+BZHF0Z5flqoh5vSho7Cg=="
            }
          },
          {
            "validator_address": "632F5C139A5A9DFBFE5111DEE29FCFB6157207DC",
            "validator_index": "37",
            "height": "50888",
            "round": "0",
            "timestamp": "2018-08-02T19:57:50.903763802Z",
            "type": 2,
            "block_id": {
              "hash": "6E2E948FCF518C73A6E245579AECA2512CE91B9E",
              "parts": {
                "total": "1",
                "hash": "6CB3F06BAB4D142628696FB20FD8E1C6E1AE0AF6"
              }
            },
            "signature": {
              "type": "tendermint/SignatureEd25519",
              "value": "BInB63HuBMqX7XCM2WhRpUWf66g7kRq6NjILH7x66TYjtULNvEgp2gXpqna/bSm9DivW99QfepmYTgJ1gskaAQ=="
            }
          },
          {
            "validator_address": "64F57F8E796A9B7B590C1EFA4123988C86631D39",
            "validator_index": "38",
            "height": "50888",
            "round": "0",
            "timestamp": "2018-08-02T19:57:50.847128038Z",
            "type": 2,
            "block_id": {
              "hash": "6E2E948FCF518C73A6E245579AECA2512CE91B9E",
              "parts": {
                "total": "1",
                "hash": "6CB3F06BAB4D142628696FB20FD8E1C6E1AE0AF6"
              }
            },
            "signature": {
              "type": "tendermint/SignatureEd25519",
              "value": "QST2JDGBw2ihoEiEO8JAiA00pIiPx2ERSC1JMcvVZ0C3rqTXys5+ApgBS+sAGPqWEvC4ZpZOkebQYTXcmY2/Ag=="
            }
          },
          {
            "validator_address": "69D99B2C66043ACBEAA8447525C356AFC6408E0C",
            "validator_index": "39",
            "height": "50888",
            "round": "0",
            "timestamp": "2018-08-02T19:57:50.981220437Z",
            "type": 2,
            "block_id": {
              "hash": "6E2E948FCF518C73A6E245579AECA2512CE91B9E",
              "parts": {
                "total": "1",
                "hash": "6CB3F06BAB4D142628696FB20FD8E1C6E1AE0AF6"
              }
            },
            "signature": {
              "type": "tendermint/SignatureEd25519",
              "value": "6XqugDQHAEOOir8EJ97KT+HLXaHXRj02Jj4a8VfpNWJ4nz9wKPZCbkUDavHp+z+SDxVUJQa/DVQ22BWMbCEADA=="
            }
          },
          {
            "validator_address": "69EDADFA4A803E9DBF548C900D4A465E7D154262",
            "validator_index": "40",
            "height": "50888",
            "round": "0",
            "timestamp": "2018-08-02T19:57:51.092406516Z",
            "type": 2,
            "block_id": {
              "hash": "6E2E948FCF518C73A6E245579AECA2512CE91B9E",
              "parts": {
                "total": "1",
                "hash": "6CB3F06BAB4D142628696FB20FD8E1C6E1AE0AF6"
              }
            },
            "signature": {
              "type": "tendermint/SignatureEd25519",
              "value": "FUh5uHZ8e6BLk9eMECTIOpX7wnFyabFPXtL+paDCNN3tSAMJFyj9Cr1K3uGi5A3Th3kcdljyT8jHk5MWrgWqBQ=="
            }
          },
          {
            "validator_address": "6D3AD380E398D8592B03AA124BAFED5F125DF863",
            "validator_index": "41",
            "height": "50888",
            "round": "0",
            "timestamp": "2018-08-02T19:56:48.099748122Z",
            "type": 2,
            "block_id": {
              "hash": "6E2E948FCF518C73A6E245579AECA2512CE91B9E",
              "parts": {
                "total": "1",
                "hash": "6CB3F06BAB4D142628696FB20FD8E1C6E1AE0AF6"
              }
            },
            "signature": {
              "type": "tendermint/SignatureEd25519",
              "value": "WAhjHOF8dDYDN+uBwHxq2CodEL1ZnewRokYcGqCZh7I5PHPJGPUZccvUX5C3YbD/mY9d+I74mpgITC1X7roRCA=="
            }
          },
          {
            "validator_address": "6F6C93B8BF3495063FEC9B5C771158607F4AE9D6",
            "validator_index": "42",
            "height": "50888",
            "round": "0",
            "timestamp": "2018-08-02T19:57:50.980461449Z",
            "type": 2,
            "block_id": {
              "hash": "6E2E948FCF518C73A6E245579AECA2512CE91B9E",
              "parts": {
                "total": "1",
                "hash": "6CB3F06BAB4D142628696FB20FD8E1C6E1AE0AF6"
              }
            },
            "signature": {
              "type": "tendermint/SignatureEd25519",
              "value": "BCR/hDNbyVLEX23AvC71ed00VZSomF8OqIjsmriYrso61aaV1VWnxmlm5pFzbptEQctffzPoNiUX6q+CfJTTDA=="
            }
          },
          {
            "validator_address": "732CEEF54C374DDC6ADECBFD707AEFD07FEDC143",
            "validator_index": "43",
            "height": "50888",
            "round": "0",
            "timestamp": "2018-08-02T19:57:51.02917792Z",
            "type": 2,
            "block_id": {
              "hash": "6E2E948FCF518C73A6E245579AECA2512CE91B9E",
              "parts": {
                "total": "1",
                "hash": "6CB3F06BAB4D142628696FB20FD8E1C6E1AE0AF6"
              }
            },
            "signature": {
              "type": "tendermint/SignatureEd25519",
              "value": "lJVGYoDa0D6zNFIc2F8JFNruUiWJBZ0QwDfnREhs5bv07JstxBprKVVSnRLNBr7TbS5WV/HEGEFIccNKkHiQAA=="
            }
          },
          {
            "validator_address": "751E43437224E8BB6D1569B3E2B2616B6E7F4397",
            "validator_index": "44",
            "height": "50888",
            "round": "0",
            "timestamp": "2018-08-02T19:57:50.931003732Z",
            "type": 2,
            "block_id": {
              "hash": "6E2E948FCF518C73A6E245579AECA2512CE91B9E",
              "parts": {
                "total": "1",
                "hash": "6CB3F06BAB4D142628696FB20FD8E1C6E1AE0AF6"
              }
            },
            "signature": {
              "type": "tendermint/SignatureEd25519",
              "value": "ygMhz3CB1tbBszdZtxZoRr74QSsxyU+6LLrQga2FXDaaPWeUnY87iCQYjpTzzJkFI5iWYgVbhAHppiJ2yJHICQ=="
            }
          },
          {
            "validator_address": "7EB7593F519F1180C7E872D0494611464EDF03AE",
            "validator_index": "45",
            "height": "50888",
            "round": "0",
            "timestamp": "2018-08-02T19:57:51.005255376Z",
            "type": 2,
            "block_id": {
              "hash": "6E2E948FCF518C73A6E245579AECA2512CE91B9E",
              "parts": {
                "total": "1",
                "hash": "6CB3F06BAB4D142628696FB20FD8E1C6E1AE0AF6"
              }
            },
            "signature": {
              "type": "tendermint/SignatureEd25519",
              "value": "twEV+uTG1sZAl4GQ8MEaOevwZToGm7UPWwmAhwMTkxUOSaZN7RKSj/Xni5kep/a2AJ1h+GOiffM/ODXjZ0TQDA=="
            }
          },
          {
            "validator_address": "807CF675BA8479FC4FEC1047215DF07970040F1F",
            "validator_index": "46",
            "height": "50888",
            "round": "0",
            "timestamp": "2018-08-02T19:57:51.264166162Z",
            "type": 2,
            "block_id": {
              "hash": "6E2E948FCF518C73A6E245579AECA2512CE91B9E",
              "parts": {
                "total": "1",
                "hash": "6CB3F06BAB4D142628696FB20FD8E1C6E1AE0AF6"
              }
            },
            "signature": {
              "type": "tendermint/SignatureEd25519",
              "value": "e904UJpJWFDF31z+NCIHKEbYGc2HNkGxdWVBSRT9D09wsFB2gReqC4c6hIX2thuhE79YPyNjG6S5cHKq/4fOCg=="
            }
          },
          {
            "validator_address": "8356899C8853BC6640D76F76E59743FFEEA57B81",
            "validator_index": "47",
            "height": "50888",
            "round": "0",
            "timestamp": "2018-08-02T19:57:50.97409242Z",
            "type": 2,
            "block_id": {
              "hash": "6E2E948FCF518C73A6E245579AECA2512CE91B9E",
              "parts": {
                "total": "1",
                "hash": "6CB3F06BAB4D142628696FB20FD8E1C6E1AE0AF6"
              }
            },
            "signature": {
              "type": "tendermint/SignatureEd25519",
              "value": "/8CLk4Db+UTOTQQUH+/UjM6z7zxG9sTRT7M0RSzYMtiZztLWWNNjdGucXdnaaTPjWA9XELwP3sDSuFSw3dGLAg=="
            }
          },
          {
            "validator_address": "83AB321E012C57746689FED3A6064DF331F81007",
            "validator_index": "48",
            "height": "50888",
            "round": "0",
            "timestamp": "2018-08-02T19:57:50.910717752Z",
            "type": 2,
            "block_id": {
              "hash": "6E2E948FCF518C73A6E245579AECA2512CE91B9E",
              "parts": {
                "total": "1",
                "hash": "6CB3F06BAB4D142628696FB20FD8E1C6E1AE0AF6"
              }
            },
            "signature": {
              "type": "tendermint/SignatureEd25519",
              "value": "oMBrG3Bc8iuMZzoicACN3fOV3508LxHhugsgmBMJzTfQUS6QcI9FcJvDCEZCL1yEgSkUl4qNXRgAsPbNIVRPBA=="
            }
          },
          {
            "validator_address": "83BB1B88D3DBB20AD845FECA07749EBD87D3754D",
            "validator_index": "49",
            "height": "50888",
            "round": "0",
            "timestamp": "2018-08-02T19:57:51.11519304Z",
            "type": 2,
            "block_id": {
              "hash": "6E2E948FCF518C73A6E245579AECA2512CE91B9E",
              "parts": {
                "total": "1",
                "hash": "6CB3F06BAB4D142628696FB20FD8E1C6E1AE0AF6"
              }
            },
            "signature": {
              "type": "tendermint/SignatureEd25519",
              "value": "Yim0Cm1NieZMovyMZknIcUAzEBLCIMz9WKfbyYA2cz3EEMVTmlMDvhFlRXugzFWZLJGZ6Y9m1zkc9u0yB2cBBQ=="
            }
          },
          {
            "validator_address": "86DDBEEF35D35786A68834B34869174AC314BB74",
            "validator_index": "50",
            "height": "50888",
            "round": "0",
            "timestamp": "2018-08-02T19:57:50.931662804Z",
            "type": 2,
            "block_id": {
              "hash": "6E2E948FCF518C73A6E245579AECA2512CE91B9E",
              "parts": {
                "total": "1",
                "hash": "6CB3F06BAB4D142628696FB20FD8E1C6E1AE0AF6"
              }
            },
            "signature": {
              "type": "tendermint/SignatureEd25519",
              "value": "2UjMcBELrbF+jlJ44frXvJOyFSX2FxOmlG4xnijIuc6rCCLbxrw4VGKDbfbQrWo9CA+KjtpCB41XLjg8Q6h/Ag=="
            }
          },
          {
            "validator_address": "8F06FE1FD042683C426137FBC4BBAA4288924217",
            "validator_index": "51",
            "height": "50888",
            "round": "0",
            "timestamp": "2018-08-02T19:57:50.939867678Z",
            "type": 2,
            "block_id": {
              "hash": "6E2E948FCF518C73A6E245579AECA2512CE91B9E",
              "parts": {
                "total": "1",
                "hash": "6CB3F06BAB4D142628696FB20FD8E1C6E1AE0AF6"
              }
            },
            "signature": {
              "type": "tendermint/SignatureEd25519",
              "value": "EduMEkJioEq03Zt1c3bG2/sHdOd+xH+uZsm46Ckm/XwrO5ErQuaLZn63B28L7n3HVpXTwuiopBEVjZVoQQYOAg=="
            }
          },
          {
            "validator_address": "95980831E186F2540F6E9FB6C8E74DE2401405AC",
            "validator_index": "52",
            "height": "50888",
            "round": "0",
            "timestamp": "2018-08-02T19:57:50.953534477Z",
            "type": 2,
            "block_id": {
              "hash": "6E2E948FCF518C73A6E245579AECA2512CE91B9E",
              "parts": {
                "total": "1",
                "hash": "6CB3F06BAB4D142628696FB20FD8E1C6E1AE0AF6"
              }
            },
            "signature": {
              "type": "tendermint/SignatureEd25519",
              "value": "iwcFJGrEi28dxDr63iDpw/O+UNdjJy6tbA0a5R5iRsX3+FJdbwi86t4CLhe9gffmJb76bAm37FrtTmIoATDXBA=="
            }
          },
          {
            "validator_address": "95FAFBC1E0579C83D290A063020CE87C5334BD9B",
            "validator_index": "53",
            "height": "50888",
            "round": "0",
            "timestamp": "2018-08-02T19:57:50.946080618Z",
            "type": 2,
            "block_id": {
              "hash": "6E2E948FCF518C73A6E245579AECA2512CE91B9E",
              "parts": {
                "total": "1",
                "hash": "6CB3F06BAB4D142628696FB20FD8E1C6E1AE0AF6"
              }
            },
            "signature": {
              "type": "tendermint/SignatureEd25519",
              "value": "WyOyX/jqmXGuiT7D2FdCsRy6Mb69wnakjd9KXSi/YyUI9p2HUY/cvugWymB+bM20Ife9ErCuU6IzaQdX97tQBA=="
            }
          },
          {
            "validator_address": "96BDE45EC52606CF5CB59853097871AD60680549",
            "validator_index": "54",
            "height": "50888",
            "round": "0",
            "timestamp": "2018-08-02T19:57:50.937525156Z",
            "type": 2,
            "block_id": {
              "hash": "6E2E948FCF518C73A6E245579AECA2512CE91B9E",
              "parts": {
                "total": "1",
                "hash": "6CB3F06BAB4D142628696FB20FD8E1C6E1AE0AF6"
              }
            },
            "signature": {
              "type": "tendermint/SignatureEd25519",
              "value": "IsJ3liOe8kHkp057lfV50Ut1rW+F2XVD+nQTkHc7uCzR/E3RTcbFs/FsewaxpaO7jtozry1DyEVCRTPsJ1dbCw=="
            }
          },
          {
            "validator_address": "970CD321881185BF83DB2923C321B0E75FDBB2B8",
            "validator_index": "55",
            "height": "50888",
            "round": "0",
            "timestamp": "2018-08-02T19:57:50.950346789Z",
            "type": 2,
            "block_id": {
              "hash": "6E2E948FCF518C73A6E245579AECA2512CE91B9E",
              "parts": {
                "total": "1",
                "hash": "6CB3F06BAB4D142628696FB20FD8E1C6E1AE0AF6"
              }
            },
            "signature": {
              "type": "tendermint/SignatureEd25519",
              "value": "liaGEyPObmyBOJeAeUfSNDP+BPCnEHlk5CEwL4VvRBY2zP4jBbd1KEmrM/CaIOP86hQdVjFyMM3ED41yrFguAA=="
            }
          },
          {
            "validator_address": "97DBB3D4B3D6C29287244864448F651DD5B07390",
            "validator_index": "56",
            "height": "50888",
            "round": "0",
            "timestamp": "2018-08-02T19:57:51.065665874Z",
            "type": 2,
            "block_id": {
              "hash": "6E2E948FCF518C73A6E245579AECA2512CE91B9E",
              "parts": {
                "total": "1",
                "hash": "6CB3F06BAB4D142628696FB20FD8E1C6E1AE0AF6"
              }
            },
            "signature": {
              "type": "tendermint/SignatureEd25519",
              "value": "Kfj0tSjoLvrkZnTE2GFAQthmbOnBsYqsxrCK0fOSxW/jtYA5CfmpBTf37vOnZAnGO554KLYiYonWsr890IpLCQ=="
            }
          },
          {
            "validator_address": "9C29C9B76D27586E4D9AD2AED0E943162645E55C",
            "validator_index": "57",
            "height": "50888",
            "round": "0",
            "timestamp": "2018-08-02T19:57:50.895268522Z",
            "type": 2,
            "block_id": {
              "hash": "6E2E948FCF518C73A6E245579AECA2512CE91B9E",
              "parts": {
                "total": "1",
                "hash": "6CB3F06BAB4D142628696FB20FD8E1C6E1AE0AF6"
              }
            },
            "signature": {
              "type": "tendermint/SignatureEd25519",
              "value": "qyTD3tdZYnXIMaEkrrITC43LVG38G9JyVPJWT8BD/0Zp1bbn589PRaVqzcdzHkUSKU9PwpJ8+clMPqBUuhpMCQ=="
            }
          },
          {
            "validator_address": "9D93AD02FE1BD7E76B9E58D7EB461088EAD011E5",
            "validator_index": "58",
            "height": "50888",
            "round": "0",
            "timestamp": "2018-08-02T19:57:50.884068206Z",
            "type": 2,
            "block_id": {
              "hash": "6E2E948FCF518C73A6E245579AECA2512CE91B9E",
              "parts": {
                "total": "1",
                "hash": "6CB3F06BAB4D142628696FB20FD8E1C6E1AE0AF6"
              }
            },
            "signature": {
              "type": "tendermint/SignatureEd25519",
              "value": "SG03WCX2JjV4NLmvM6zYBJxmQmno5oYygsrGoTcY/x1TVjXGAkLzcqEfDOWr6gUFXNcc4fbKcEX+QV+6d2EKCg=="
            }
          },
          {
            "validator_address": "A0A6466F4ABEA09C3B55E3709AFDE217A103209F",
            "validator_index": "59",
            "height": "50888",
            "round": "0",
            "timestamp": "2018-08-02T19:57:50.900104835Z",
            "type": 2,
            "block_id": {
              "hash": "6E2E948FCF518C73A6E245579AECA2512CE91B9E",
              "parts": {
                "total": "1",
                "hash": "6CB3F06BAB4D142628696FB20FD8E1C6E1AE0AF6"
              }
            },
            "signature": {
              "type": "tendermint/SignatureEd25519",
              "value": "pdoGnzRIbaYrZqG2kuSDmKBkjCozloyA+qoXae1fWvCjtfWw2KkByErGDyWvUq2YCXHugqWyikdeVNO8y012Aw=="
            }
          },
          {
            "validator_address": "A5868971300F155020634D7BB49C7634F7AACCD3",
            "validator_index": "60",
            "height": "50888",
            "round": "0",
            "timestamp": "2018-08-02T19:57:50.906739462Z",
            "type": 2,
            "block_id": {
              "hash": "6E2E948FCF518C73A6E245579AECA2512CE91B9E",
              "parts": {
                "total": "1",
                "hash": "6CB3F06BAB4D142628696FB20FD8E1C6E1AE0AF6"
              }
            },
            "signature": {
              "type": "tendermint/SignatureEd25519",
              "value": "Jj1FfcCSHHSFtTZrt7bp8bl0Wm0Bdpo6pHyVuBbMIhF4FX7jeBUMGY0wNl9PrBE6aBs37vUl13runc5CyovZDQ=="
            }
          },
          {
            "validator_address": "A6B3A5B5D982CFD7B5FDFA15CF5A720E7AE25E7F",
            "validator_index": "61",
            "height": "50888",
            "round": "0",
            "timestamp": "2018-08-02T19:57:51.293027748Z",
            "type": 2,
            "block_id": {
              "hash": "6E2E948FCF518C73A6E245579AECA2512CE91B9E",
              "parts": {
                "total": "1",
                "hash": "6CB3F06BAB4D142628696FB20FD8E1C6E1AE0AF6"
              }
            },
            "signature": {
              "type": "tendermint/SignatureEd25519",
              "value": "uLyvqp7ZlvNb2L5dEdrBRDbuBq+SL/nVI5LHIQQgwA4s24ftND6gKCktRdN9+tyUnl4tjJGw0OfSohj8M+72CA=="
            }
          },
          {
            "validator_address": "AC96444A9083890B7C7B430DB17BF1D3EA5EED04",
            "validator_index": "62",
            "height": "50888",
            "round": "0",
            "timestamp": "2018-08-02T19:57:50.975751556Z",
            "type": 2,
            "block_id": {
              "hash": "6E2E948FCF518C73A6E245579AECA2512CE91B9E",
              "parts": {
                "total": "1",
                "hash": "6CB3F06BAB4D142628696FB20FD8E1C6E1AE0AF6"
              }
            },
            "signature": {
              "type": "tendermint/SignatureEd25519",
              "value": "Y0L0Gog+zIvVShmuXi/TpJvB3/Nd/GVYbRY4ViDivM8/GI3NUb/7lAW2aquRWOrC75tWTNJx+iXgOWmALWG6CQ=="
            }
          },
          {
            "validator_address": "B197425B3210375F211661DE02EF2AE36580EB0F",
            "validator_index": "63",
            "height": "50888",
            "round": "0",
            "timestamp": "2018-08-02T19:57:50.909804142Z",
            "type": 2,
            "block_id": {
              "hash": "6E2E948FCF518C73A6E245579AECA2512CE91B9E",
              "parts": {
                "total": "1",
                "hash": "6CB3F06BAB4D142628696FB20FD8E1C6E1AE0AF6"
              }
            },
            "signature": {
              "type": "tendermint/SignatureEd25519",
              "value": "fEyJIIj4WuVpQ3j0Rc03+Y7QHStG7c/4K56DRkkTtkBxJy0kK7cSsbOpwUKNjt+VrxUIrGksVxsc51ew0yhZBA=="
            }
          },
          {
            "validator_address": "B45E54D2D1CB5A4CCD1D49016608C18E7C56B270",
            "validator_index": "64",
            "height": "50888",
            "round": "0",
            "timestamp": "2018-08-02T19:57:51.047169162Z",
            "type": 2,
            "block_id": {
              "hash": "6E2E948FCF518C73A6E245579AECA2512CE91B9E",
              "parts": {
                "total": "1",
                "hash": "6CB3F06BAB4D142628696FB20FD8E1C6E1AE0AF6"
              }
            },
            "signature": {
              "type": "tendermint/SignatureEd25519",
              "value": "alcBO/l6/ojPupcRPESSNfeB7G/BTmb29zhC5gV3PS4Zt+HvDfkZnMpccD7h+5oQetlzv5JgKwIQnY+4hAaKBA=="
            }
          },
          {
            "validator_address": "BB1276BE89834835428664408917649FEEF5D90C",
            "validator_index": "65",
            "height": "50888",
            "round": "0",
            "timestamp": "2018-08-02T19:57:50.965725058Z",
            "type": 2,
            "block_id": {
              "hash": "6E2E948FCF518C73A6E245579AECA2512CE91B9E",
              "parts": {
                "total": "1",
                "hash": "6CB3F06BAB4D142628696FB20FD8E1C6E1AE0AF6"
              }
            },
            "signature": {
              "type": "tendermint/SignatureEd25519",
              "value": "FT/5IT1Pfg8PXc6t1zn2xJYNhgF46mMnKA6aSVzGOWTejleVnWfwFzK0C1DxEv0uRMaDUlvIrAYFydhgkLXhBw=="
            }
          },
          {
            "validator_address": "BC36FEDD6EF6071118A3E51859DF3831A2EC4782",
            "validator_index": "66",
            "height": "50888",
            "round": "0",
            "timestamp": "2018-08-02T19:57:50.928178305Z",
            "type": 2,
            "block_id": {
              "hash": "6E2E948FCF518C73A6E245579AECA2512CE91B9E",
              "parts": {
                "total": "1",
                "hash": "6CB3F06BAB4D142628696FB20FD8E1C6E1AE0AF6"
              }
            },
            "signature": {
              "type": "tendermint/SignatureEd25519",
              "value": "1+4IX/fdfGQS67Bpglm8RaDOK13egc/SuHHznhLSgVUFkJ+6ca9+BhN3WRbOx1P6iiROSgja1cXAXCgGU8osBQ=="
            }
          },
          {
            "validator_address": "BD9D0DA513BF099DB4BB6E725A4E19832789882F",
            "validator_index": "67",
            "height": "50888",
            "round": "0",
            "timestamp": "2018-08-02T19:57:50.848932965Z",
            "type": 2,
            "block_id": {
              "hash": "6E2E948FCF518C73A6E245579AECA2512CE91B9E",
              "parts": {
                "total": "1",
                "hash": "6CB3F06BAB4D142628696FB20FD8E1C6E1AE0AF6"
              }
            },
            "signature": {
              "type": "tendermint/SignatureEd25519",
              "value": "EP8kCq4kuZiXhcjSnixwZ69eWSDoACc3G3DrCQCwEMndkxq0/7lt5lpZKBPs4PHxYED/b05YGldv59EByofrAg=="
            }
          },
          {
            "validator_address": "C1134A2FF8F7338E7CDB3FE57DDD2A655DEB1E22",
            "validator_index": "68",
            "height": "50888",
            "round": "0",
            "timestamp": "2018-08-02T19:57:50.560858679Z",
            "type": 2,
            "block_id": {
              "hash": "6E2E948FCF518C73A6E245579AECA2512CE91B9E",
              "parts": {
                "total": "1",
                "hash": "6CB3F06BAB4D142628696FB20FD8E1C6E1AE0AF6"
              }
            },
            "signature": {
              "type": "tendermint/SignatureEd25519",
              "value": "PQIt1CtpJ1Q4O46BsiRAJ885r6619JLTcCPZOIjJSsUg3RK8dMuZkoPPB5ZOtoew3NFev/SDX21WMJsyKKdqBQ=="
            }
          },
          {
            "validator_address": "C39A8A2B85198DCB8F23AD1F6C198E2BA7AB5D60",
            "validator_index": "69",
            "height": "50888",
            "round": "0",
            "timestamp": "2018-08-02T19:57:50.897343519Z",
            "type": 2,
            "block_id": {
              "hash": "6E2E948FCF518C73A6E245579AECA2512CE91B9E",
              "parts": {
                "total": "1",
                "hash": "6CB3F06BAB4D142628696FB20FD8E1C6E1AE0AF6"
              }
            },
            "signature": {
              "type": "tendermint/SignatureEd25519",
              "value": "VfdVTVqshmUBDdx7jS3I01F00xmx2uDrLaNAbPR0xCU1fxMQsDJVkrxeteCAN8Jmz/EaoOemqRy8z/6m06/SBw=="
            }
          },
          {
            "validator_address": "C4335190C3B5BD4BA5568BC0F99C34162D940D08",
            "validator_index": "70",
            "height": "50888",
            "round": "0",
            "timestamp": "2018-08-02T19:57:50.961196998Z",
            "type": 2,
            "block_id": {
              "hash": "6E2E948FCF518C73A6E245579AECA2512CE91B9E",
              "parts": {
                "total": "1",
                "hash": "6CB3F06BAB4D142628696FB20FD8E1C6E1AE0AF6"
              }
            },
            "signature": {
              "type": "tendermint/SignatureEd25519",
              "value": "juHCPovu8WVZ+MCgKupCfKki/hH98oZY3sn9O5mGt2lGhF7EaRAZmi/4ZbgdIPCc5nq7FgBwYPjQbik0QcmfDg=="
            }
          },
          {
            "validator_address": "C561CFA081677046376396922E7576E5F7B316AD",
            "validator_index": "71",
            "height": "50888",
            "round": "0",
            "timestamp": "2018-08-02T19:57:51.009534306Z",
            "type": 2,
            "block_id": {
              "hash": "6E2E948FCF518C73A6E245579AECA2512CE91B9E",
              "parts": {
                "total": "1",
                "hash": "6CB3F06BAB4D142628696FB20FD8E1C6E1AE0AF6"
              }
            },
            "signature": {
              "type": "tendermint/SignatureEd25519",
              "value": "4tN2Cfg5zK/tqHH7WfobnGNCdv67svqj16gXjkhC0QTns3deH38zOJKUqiBJvi2BNjNhLMQ/sfYmiJSRQG9IBg=="
            }
          },
          {
            "validator_address": "CEB97DB5CB18270247ABDE6CF2F84F9AEE8A2904",
            "validator_index": "72",
            "height": "50888",
            "round": "0",
            "timestamp": "2018-08-02T19:57:52.158265418Z",
            "type": 2,
            "block_id": {
              "hash": "6E2E948FCF518C73A6E245579AECA2512CE91B9E",
              "parts": {
                "total": "1",
                "hash": "6CB3F06BAB4D142628696FB20FD8E1C6E1AE0AF6"
              }
            },
            "signature": {
              "type": "tendermint/SignatureEd25519",
              "value": "9aPN/mWm2m9Eg0rUgss880FicUse44Sglg0Qh9sLIlrv6y59NYHgo9fnivwtsZR0NHeijgDcNKKokgtL4CmpDg=="
            }
          },
          {
            "validator_address": "D2134B826A1E25A955905CB79A4D8731CAFA0CCE",
            "validator_index": "73",
            "height": "50888",
            "round": "0",
            "timestamp": "2018-08-02T19:57:51.02424282Z",
            "type": 2,
            "block_id": {
              "hash": "6E2E948FCF518C73A6E245579AECA2512CE91B9E",
              "parts": {
                "total": "1",
                "hash": "6CB3F06BAB4D142628696FB20FD8E1C6E1AE0AF6"
              }
            },
            "signature": {
              "type": "tendermint/SignatureEd25519",
              "value": "T3F0/PYcn6cMObH3xrAyjwrWIro3NoC7c4RnLabQkYp8ETh6q4UC+l/WbBMdqAmv73HapyLeEMYB3OA9W9HsDg=="
            }
          },
          {
            "validator_address": "D6285C3422C8886445D53757CBE12D2B91B5A9D0",
            "validator_index": "74",
            "height": "50888",
            "round": "0",
            "timestamp": "2018-08-02T19:57:34.406512922Z",
            "type": 2,
            "block_id": {
              "hash": "6E2E948FCF518C73A6E245579AECA2512CE91B9E",
              "parts": {
                "total": "1",
                "hash": "6CB3F06BAB4D142628696FB20FD8E1C6E1AE0AF6"
              }
            },
            "signature": {
              "type": "tendermint/SignatureEd25519",
              "value": "/BBqJW6+Zi0wXtTf8FjvwYebM+gLXukrgaUE3dQvty43eFnXaYtf8FHRlMSstIRv0ylbJq1jd8ziB7+KzETgAQ=="
            }
          },
          {
            "validator_address": "D77FB84A729972CD3E757C9BEB61561855832B92",
            "validator_index": "75",
            "height": "50888",
            "round": "0",
            "timestamp": "2018-08-02T19:57:50.974990422Z",
            "type": 2,
            "block_id": {
              "hash": "6E2E948FCF518C73A6E245579AECA2512CE91B9E",
              "parts": {
                "total": "1",
                "hash": "6CB3F06BAB4D142628696FB20FD8E1C6E1AE0AF6"
              }
            },
            "signature": {
              "type": "tendermint/SignatureEd25519",
              "value": "VEM/IPiEjEF1sI2uCkA96UAhRyKA5uGGL5dna4exQnlvvw9ByFGdNaOVlgvv5NIyf6ru/bTucWdoygRWVhcCDw=="
            }
          },
          {
            "validator_address": "DB7E6732471D3EA5C90C17A9974D9F88AB45F2FB",
            "validator_index": "76",
            "height": "50888",
            "round": "0",
            "timestamp": "2018-08-02T19:57:50.887356839Z",
            "type": 2,
            "block_id": {
              "hash": "6E2E948FCF518C73A6E245579AECA2512CE91B9E",
              "parts": {
                "total": "1",
                "hash": "6CB3F06BAB4D142628696FB20FD8E1C6E1AE0AF6"
              }
            },
            "signature": {
              "type": "tendermint/SignatureEd25519",
              "value": "ZKTG934XRDl6pixoVzAB55UR7SYzykNRYVAvSM21EEzhM+CKZIvG7jquicmZdQagL63lz5Ur7ZaKh6kYkDTXAQ=="
            }
          },
          {
            "validator_address": "DF54B862410BCD9B5C516FBB6C56BDC826ED6FA7",
            "validator_index": "77",
            "height": "50888",
            "round": "0",
            "timestamp": "2018-08-02T19:57:51.027082669Z",
            "type": 2,
            "block_id": {
              "hash": "6E2E948FCF518C73A6E245579AECA2512CE91B9E",
              "parts": {
                "total": "1",
                "hash": "6CB3F06BAB4D142628696FB20FD8E1C6E1AE0AF6"
              }
            },
            "signature": {
              "type": "tendermint/SignatureEd25519",
              "value": "sXDCMZ6BolzZ7g3wMX74NM2OOZ4hCr07VDCMgaaUrJvwnxE9pnZAZGcPJfeRTMscY6ci2HAkN/XCIC6TfNWGCA=="
            }
          },
          {
            "validator_address": "DFAF0C8B1B78D6D552B0189DE3ACA351439A1319",
            "validator_index": "78",
            "height": "50888",
            "round": "0",
            "timestamp": "2018-08-02T19:57:50.93770676Z",
            "type": 2,
            "block_id": {
              "hash": "6E2E948FCF518C73A6E245579AECA2512CE91B9E",
              "parts": {
                "total": "1",
                "hash": "6CB3F06BAB4D142628696FB20FD8E1C6E1AE0AF6"
              }
            },
            "signature": {
              "type": "tendermint/SignatureEd25519",
              "value": "LOQzse82pB9fBvt5aoj3kKMb692wo266IRiBACTlRcH5v7d1o6aqbhPflvoZVkGaextEWwEObloRdTUwGGEdAw=="
            }
          },
          {
            "validator_address": "E1DBC77881161A5A3A8536A57536EAE546A75D69",
            "validator_index": "79",
            "height": "50888",
            "round": "0",
            "timestamp": "2018-08-02T19:57:50.873883816Z",
            "type": 2,
            "block_id": {
              "hash": "6E2E948FCF518C73A6E245579AECA2512CE91B9E",
              "parts": {
                "total": "1",
                "hash": "6CB3F06BAB4D142628696FB20FD8E1C6E1AE0AF6"
              }
            },
            "signature": {
              "type": "tendermint/SignatureEd25519",
              "value": "fSUaXCBPm7OuhVuBCo6hMkuYxHCXc49gro0+H3oo0lQrIJrHR3b8t/lipubXisU5vSwge6HDZxLhdvSnrAliCg=="
            }
          },
          {
            "validator_address": "E300E9D484374C1D3E97C1D93CAC3B160A056298",
            "validator_index": "80",
            "height": "50888",
            "round": "0",
            "timestamp": "2018-08-02T19:57:51.164206392Z",
            "type": 2,
            "block_id": {
              "hash": "6E2E948FCF518C73A6E245579AECA2512CE91B9E",
              "parts": {
                "total": "1",
                "hash": "6CB3F06BAB4D142628696FB20FD8E1C6E1AE0AF6"
              }
            },
            "signature": {
              "type": "tendermint/SignatureEd25519",
              "value": "e8Pq+R0z4YwPb3aaARe/sCSlnV1H9wcknHHPkfCJcgu7U3UrG9JIh+uFQF6UeGt9ZsZaK9wVNrrnryuDGoRnAw=="
            }
          },
          {
            "validator_address": "E39B5778E0D4297A46F45CF6940B0A163A430FF8",
            "validator_index": "81",
            "height": "50888",
            "round": "0",
            "timestamp": "2018-08-02T19:57:50.91166405Z",
            "type": 2,
            "block_id": {
              "hash": "6E2E948FCF518C73A6E245579AECA2512CE91B9E",
              "parts": {
                "total": "1",
                "hash": "6CB3F06BAB4D142628696FB20FD8E1C6E1AE0AF6"
              }
            },
            "signature": {
              "type": "tendermint/SignatureEd25519",
              "value": "SFN3t1JpHjsxsM67MycdGVHVt+sOb2JCy8sxSp0HfHm/cBl9kSdN42Hlzr2mA1kcotD30Eb18fC63chhSEwsDA=="
            }
          },
          {
            "validator_address": "E3B19738F7132F950668504D326C7660F159D170",
            "validator_index": "82",
            "height": "50888",
            "round": "0",
            "timestamp": "2018-08-02T19:57:50.893490256Z",
            "type": 2,
            "block_id": {
              "hash": "6E2E948FCF518C73A6E245579AECA2512CE91B9E",
              "parts": {
                "total": "1",
                "hash": "6CB3F06BAB4D142628696FB20FD8E1C6E1AE0AF6"
              }
            },
            "signature": {
              "type": "tendermint/SignatureEd25519",
              "value": "jf1994XEIPtvPNg/HNBSU7+UifkvTrtwKJZLch5jJCf5Vq5edA1psOCQjka/7yIxVEmchjIDUm2/Zyrd7NJ2BA=="
            }
          },
          {
            "validator_address": "E42F8AEABB685219F7027F54D2B0DBC7846F633A",
            "validator_index": "83",
            "height": "50888",
            "round": "0",
            "timestamp": "2018-08-02T19:57:49.924974866Z",
            "type": 2,
            "block_id": {
              "hash": "6E2E948FCF518C73A6E245579AECA2512CE91B9E",
              "parts": {
                "total": "1",
                "hash": "6CB3F06BAB4D142628696FB20FD8E1C6E1AE0AF6"
              }
            },
            "signature": {
              "type": "tendermint/SignatureEd25519",
              "value": "c1SmsZ1cQ7E4v8PEBgAVD0GVwqIWqDJ0rCJOJdbmQCyxawf7B91ygYnYqZ8qy0/NQFiaEvNRZLlRkYrVFk7eDQ=="
            }
          },
          {
            "validator_address": "E4E6C2E81269DFFA196C17F98240E491479A6008",
            "validator_index": "84",
            "height": "50888",
            "round": "0",
            "timestamp": "2018-08-02T19:57:50.982714441Z",
            "type": 2,
            "block_id": {
              "hash": "6E2E948FCF518C73A6E245579AECA2512CE91B9E",
              "parts": {
                "total": "1",
                "hash": "6CB3F06BAB4D142628696FB20FD8E1C6E1AE0AF6"
              }
            },
            "signature": {
              "type": "tendermint/SignatureEd25519",
              "value": "jqh4uVNeTlZMhqNuGFArcoqIxuziVIg81WsrKYg6dI38Adg8+tXhxH9t187PrHakQJCqDFwCKH3/Y+maz4UbAA=="
            }
          },
          {
            "validator_address": "E50ADECD5FD27FA2CD610C07F8AED36A2FC4A6A6",
            "validator_index": "85",
            "height": "50888",
            "round": "0",
            "timestamp": "2018-08-02T19:57:50.838404189Z",
            "type": 2,
            "block_id": {
              "hash": "6E2E948FCF518C73A6E245579AECA2512CE91B9E",
              "parts": {
                "total": "1",
                "hash": "6CB3F06BAB4D142628696FB20FD8E1C6E1AE0AF6"
              }
            },
            "signature": {
              "type": "tendermint/SignatureEd25519",
              "value": "BK+QW3w/YlVpvHA3OzKU+cWVxojGsxve+NiTP1deFhpRikcsoj9vfepSvcBVi0NqbocKWtZ7eB/9whvM4mHUCQ=="
            }
          },
          {
            "validator_address": "E6A7079D584B163750BE0831227F6B685DEAF3C1",
            "validator_index": "86",
            "height": "50888",
            "round": "0",
            "timestamp": "2018-08-02T19:57:50.985727839Z",
            "type": 2,
            "block_id": {
              "hash": "6E2E948FCF518C73A6E245579AECA2512CE91B9E",
              "parts": {
                "total": "1",
                "hash": "6CB3F06BAB4D142628696FB20FD8E1C6E1AE0AF6"
              }
            },
            "signature": {
              "type": "tendermint/SignatureEd25519",
              "value": "HZzrWhauTSm/xq0yS1HpicZne5Xr3oNryNULnmBb7GxCuKSPVHixzi8Pjhr1U8YVW9Plso0eBjSZTA33e7G/Dg=="
            }
          },
          {
            "validator_address": "E7A30077D5D11867D3EAF99ED45BFDC1EB834509",
            "validator_index": "87",
            "height": "50888",
            "round": "0",
            "timestamp": "2018-08-02T19:57:50.907212066Z",
            "type": 2,
            "block_id": {
              "hash": "6E2E948FCF518C73A6E245579AECA2512CE91B9E",
              "parts": {
                "total": "1",
                "hash": "6CB3F06BAB4D142628696FB20FD8E1C6E1AE0AF6"
              }
            },
            "signature": {
              "type": "tendermint/SignatureEd25519",
              "value": "G2Ev8kcX9Gsn+BuFlXeIMoONalRMau1rDobhiW3Hmv6TSpgzvFYmr/Zui9Z8Ti1sjYpEVwj4mFddSckoM1CiDg=="
            }
          },
          null,
          {
            "validator_address": "EC3401441726C40ECC7E51F744483B05BC6DE9BD",
            "validator_index": "89",
            "height": "50888",
            "round": "0",
            "timestamp": "2018-08-02T19:57:50.939877004Z",
            "type": 2,
            "block_id": {
              "hash": "6E2E948FCF518C73A6E245579AECA2512CE91B9E",
              "parts": {
                "total": "1",
                "hash": "6CB3F06BAB4D142628696FB20FD8E1C6E1AE0AF6"
              }
            },
            "signature": {
              "type": "tendermint/SignatureEd25519",
              "value": "I8ouyGSAUPTxqgoizIod5hBFiXxEx1oQYAo+5Geeb5+4SETdbSoAjFEOQcWtiyQZ9aSIM0f7jcAMOaXEjlXGCA=="
            }
          },
          {
            "validator_address": "EC95B111D032181E1EC3B5E8875C5BB8E4AE7140",
            "validator_index": "90",
            "height": "50888",
            "round": "0",
            "timestamp": "2018-08-02T19:57:50.90321155Z",
            "type": 2,
            "block_id": {
              "hash": "6E2E948FCF518C73A6E245579AECA2512CE91B9E",
              "parts": {
                "total": "1",
                "hash": "6CB3F06BAB4D142628696FB20FD8E1C6E1AE0AF6"
              }
            },
            "signature": {
              "type": "tendermint/SignatureEd25519",
              "value": "qaZncU+cw2PgmQZ0QPmD+7iBrXo9mBqXJTXUfBC0oCAvEZUshM6DrqEmDn+uOg2Rr6C9ad5T6Cr4wOr3AOTyAQ=="
            }
          },
          {
            "validator_address": "F13C1805E8131C9B47E2A46818F57D8A2841E578",
            "validator_index": "91",
            "height": "50888",
            "round": "0",
            "timestamp": "2018-08-02T19:57:50.932392939Z",
            "type": 2,
            "block_id": {
              "hash": "6E2E948FCF518C73A6E245579AECA2512CE91B9E",
              "parts": {
                "total": "1",
                "hash": "6CB3F06BAB4D142628696FB20FD8E1C6E1AE0AF6"
              }
            },
            "signature": {
              "type": "tendermint/SignatureEd25519",
              "value": "HCpcEIEBnW29mtVvsSyL71tnrDc0pv25NSlkYX5hTTze+adwNaZ3sjT5gVQccwC975pDk8ACSHcUFXk9pxLpDQ=="
            }
          },
          {
            "validator_address": "F23FF36BD5B90C33CE3A03ED72DBDCF5EC07D6AF",
            "validator_index": "92",
            "height": "50888",
            "round": "0",
            "timestamp": "2018-08-02T19:57:51.005913843Z",
            "type": 2,
            "block_id": {
              "hash": "6E2E948FCF518C73A6E245579AECA2512CE91B9E",
              "parts": {
                "total": "1",
                "hash": "6CB3F06BAB4D142628696FB20FD8E1C6E1AE0AF6"
              }
            },
            "signature": {
              "type": "tendermint/SignatureEd25519",
              "value": "+2MZ1ygl63zctLIH2e2F1vgSM0H2mpvdi9MJ9S08qgOsX2+RCFQ0jHti4pM2+k4CIFg7Qm4cupb/f7ibzg1rCg=="
            }
          },
          {
            "validator_address": "F4268597DE93E3E2CED38845010F8AA34E2A879E",
            "validator_index": "93",
            "height": "50888",
            "round": "0",
            "timestamp": "2018-08-02T19:57:50.939183435Z",
            "type": 2,
            "block_id": {
              "hash": "6E2E948FCF518C73A6E245579AECA2512CE91B9E",
              "parts": {
                "total": "1",
                "hash": "6CB3F06BAB4D142628696FB20FD8E1C6E1AE0AF6"
              }
            },
            "signature": {
              "type": "tendermint/SignatureEd25519",
              "value": "6fxJKJRvL8UqZnFV+YVDzbMpkq8jBgs2ajvQVVZ8fcECqWmgOWyCW1tZo0kfgEA5SbHpD5wGqQ0j6Ek4n0z/Bw=="
            }
          },
          {
            "validator_address": "F4DEB417999B04BE2EFF9FFE03FA373D86011CC0",
            "validator_index": "94",
            "height": "50888",
            "round": "0",
            "timestamp": "2018-08-02T19:57:50.946440188Z",
            "type": 2,
            "block_id": {
              "hash": "6E2E948FCF518C73A6E245579AECA2512CE91B9E",
              "parts": {
                "total": "1",
                "hash": "6CB3F06BAB4D142628696FB20FD8E1C6E1AE0AF6"
              }
            },
            "signature": {
              "type": "tendermint/SignatureEd25519",
              "value": "2LfjpYbdvxSp8bZVCD3N6y3sX32dUDcXH3maa9DxwISWU/dztxhgJ4fMG6Zq6wvOyH9StcZOZkLxd2MATnrhBA=="
            }
          },
          {
            "validator_address": "F6738260186D33D9C14FC6E7017AFE6BB952A63D",
            "validator_index": "95",
            "height": "50888",
            "round": "0",
            "timestamp": "2018-08-02T19:57:50.940416723Z",
            "type": 2,
            "block_id": {
              "hash": "6E2E948FCF518C73A6E245579AECA2512CE91B9E",
              "parts": {
                "total": "1",
                "hash": "6CB3F06BAB4D142628696FB20FD8E1C6E1AE0AF6"
              }
            },
            "signature": {
              "type": "tendermint/SignatureEd25519",
              "value": "I/E5TDEy+vBzMV63pZxZTGg28FAP3TlGqkZtVaQfoI+pbCq/KSF2QSyFXDZ+iC8RlE8rgzPwIroPn/Xr+omuDQ=="
            }
          },
          {
            "validator_address": "FD8D304F0278229077114B05BED9DABD382D49D8",
            "validator_index": "96",
            "height": "50888",
            "round": "0",
            "timestamp": "2018-08-02T19:57:51.076257206Z",
            "type": 2,
            "block_id": {
              "hash": "6E2E948FCF518C73A6E245579AECA2512CE91B9E",
              "parts": {
                "total": "1",
                "hash": "6CB3F06BAB4D142628696FB20FD8E1C6E1AE0AF6"
              }
            },
            "signature": {
              "type": "tendermint/SignatureEd25519",
              "value": "lq5DoeNfnBMn4YSQ3ru60upmWE2qQCQ2s1dHQXHMpRgsn+PXECos9m+fA0fvnuoO5oeRdfI49Lv8Pj+Z40UeBA=="
            }
          },
          {
            "validator_address": "FF3F3FCBCE7E62D7AD5506FF846EC4518D980515",
            "validator_index": "97",
            "height": "50888",
            "round": "0",
            "timestamp": "2018-08-02T19:57:50.880717191Z",
            "type": 2,
            "block_id": {
              "hash": "6E2E948FCF518C73A6E245579AECA2512CE91B9E",
              "parts": {
                "total": "1",
                "hash": "6CB3F06BAB4D142628696FB20FD8E1C6E1AE0AF6"
              }
            },
            "signature": {
              "type": "tendermint/SignatureEd25519",
              "value": "eBAEAT1lDPXTdaGqcWsVEUILUaAKuZeoguYofvEQT2qeu6lHo0nUmjIHrIfDyYu9+cst/Mc3wXpIB+uGIIPWBA=="
            }
          }
        ]
      }
    },
    "canonical": true
  }
}