{
  "jsonrpc": "2.0",
  "id": "",
  "result": {
    "SignedHeader": {
      "header": {
        "chain_id": "gaia-7004",
        "height": "52310",
        "time": "2018-08-02T22:24:52.911064435Z",
        "num_txs": "0",
        "last_block_id": {
          "hash": "840927B5ADAC938BF6C517A4DF142223E1CA8F9B",
          "parts": {
            "total": "1",
            "hash": "BC0B1D9FBCB8A2DDB5DC2EDD87000972B490C4A1"
          }
        },
        "total_txs": "2234",
        "last_commit_hash": "AC03E8AB988103150E121C8F67F88FB9B64E5BEC",
        "data_hash": "",
        "validators_hash": "BEB4D07F34EC2687BC46F150EAC5707518422BD5",
        "consensus_hash": "D6B74BB35BDFFD8392340F2A379173548AE188FE",
        "app_hash": "3FF380759B0CF47F89AF190317AB880AE43DEBF8",
        "last_results_hash": "E3B0C44298FC1C149AFBF4C8996FB92427AE41E4",
        "evidence_hash": ""
      },
      "commit": {
        "block_id": {
          "hash": "A7AC21FE4894C59632184076AB882701E164746B",
          "parts": {
            "total": "1",
            "hash": "8DD853BCCDF6AB09577D63CBBE885351EB561D17"
          }
        },
        "precommits": [
          {
            "validator_address": "029359C0C768096273A68ABC902A6B17AC8D1D70",
            "validator_index": "0",
            "height": "52310",
            "round": "0",
            "timestamp": "2018-08-02T22:24:53.790453465Z",
            "type": 2,
            "block_id": {
              "hash": "A7AC21FE4894C59632184076AB882701E164746B",
              "parts": {
                "total": "1",
                "hash": "8DD853BCCDF6AB09577D63CBBE885351EB561D17"
              }
            },
            "signature": {
              "type": "tendermint/SignatureEd25519",
              "value": "r+rY3O1SUelq7mQO8e7Rm6ImdAbFl+6qgdQbvW5ld8ysDgzMrxc+jGbO2e/AshhP6E5ThrrtX7up0hEfssw0Bw=="
            }
          },
          {
            "validator_address": "02FE4B97A8387F39D1AC19E0C1702B3CC614812F",
            "validator_index": "1",
            "height": "52310",
            "round": "0",
            "timestamp": "2018-08-02T22:24:53.761056789Z",
            "type": 2,
            "block_id": {
              "hash": "A7AC21FE4894C59632184076AB882701E164746B",
              "parts": {
                "total": "1",
                "hash": "8DD853BCCDF6AB09577D63CBBE885351EB561D17"
              }
            },
            "signature": {
              "type": "tendermint/SignatureEd25519",
              "value": "JLGL4W9lW5pi7eJ8GExXsKm/1z5E+4rWNMqUT2OYGs4P146QcFBrmO72881JpI4y5YvGcrfuMa2NdQx4mIT1BQ=="
            }
          },
          {
            "validator_address": "0548261C50222FD710EB5EBDF03A0E6567B21D20",
            "validator_index": "2",
            "height": "52310",
            "round": "0",
            "timestamp": "2018-08-02T22:24:53.89208316Z",
            "type": 2,
            "block_id": {
              "hash": "A7AC21FE4894C59632184076AB882701E164746B",
              "parts": {
                "total": "1",
                "hash": "8DD853BCCDF6AB09577D63CBBE885351EB561D17"
              }
            },
            "signature": {
              "type": "tendermint/SignatureEd25519",
              "value": "PFPrtx1dIqtcPto75DPXtU8HJItu6IjU3lTceSDRlTswDUP/+eCTexbYyZorQcMLWFHE7fI/69kM9Ok9QVFpBA=="
            }
          },
          {
            "validator_address": "0665ADBF9B120B7617BF955AA5653A1992C82B11",
            "validator_index": "3",
            "height": "52310",
            "round": "0",
            "timestamp": "2018-08-02T22:24:53.809352225Z",
            "type": 2,
            "block_id": {
              "hash": "A7AC21FE4894C59632184076AB882701E164746B",
              "parts": {
                "total": "1",
                "hash": "8DD853BCCDF6AB09577D63CBBE885351EB561D17"
              }
            },
            "signature": {
              "type": "tendermint/SignatureEd25519",
              "value": "mX411LgotS47E4Q8+UY353E6qK7SJXZV46okYtc+tFcU1uNIXSPeKegffb6CxZ3UStv+Ct2H29xgO8JAnL4YDw=="
            }
          },
          {
            "validator_address": "09145E611CC27EEB944FC5A956DDF710F943B9EF",
            "validator_index": "4",
            "height": "52310",
            "round": "0",
            "timestamp": "2018-08-02T22:24:53.75023692Z",
            "type": 2,
            "block_id": {
              "hash": "A7AC21FE4894C59632184076AB882701E164746B",
              "parts": {
                "total": "1",
                "hash": "8DD853BCCDF6AB09577D63CBBE885351EB561D17"
              }
            },
            "signature": {
              "type": "tendermint/SignatureEd25519",
              "value": "cT4/dHyHncsNWIf95q4OS1lgvZRoO8CeVRma31oEP9N64ItfJnCP7ZEW61xFaWAdLJXQJXKzyMj3gj5RAWbwAA=="
            }
          },
          {
            "validator_address": "0989D0355A104B67AE0AE028C68FB610690E174B",
            "validator_index": "5",
            "height": "52310",
            "round": "0",
            "timestamp": "2018-08-02T22:24:53.764008627Z",
            "type": 2,
            "block_id": {
              "hash": "A7AC21FE4894C59632184076AB882701E164746B",
              "parts": {
                "total": "1",
                "hash": "8DD853BCCDF6AB09577D63CBBE885351EB561D17"
              }
            },
            "signature": {
              "type": "tendermint/SignatureEd25519",
              "value": "XFHgBb8dIOSQvibX7ojhdDMwszXoqLTNIPV6HdY53/oxgwSPHuo+GyRmrdZWsghXA6Of1+765yXBfpIjZkzMBA=="
            }
          },
          {
            "validator_address": "0A692DBFFE9E5DD28E7DECC33CED1AEB4C0D014E",
            "validator_index": "6",
            "height": "52310",
            "round": "0",
            "timestamp": "2018-08-02T22:24:53.870090915Z",
            "type": 2,
            "block_id": {
              "hash": "A7AC21FE4894C59632184076AB882701E164746B",
              "parts": {
                "total": "1",
                "hash": "8DD853BCCDF6AB09577D63CBBE885351EB561D17"
              }
            },
            "signature": {
              "type": "tendermint/SignatureEd25519",
              "value": "c6QoqWNZqVjA0eUG8GseK6AuwILbW2QhWSUGLgjOcqHd2iKeEhfdtSUfZAnL4jg3ys7tz7qXAMkjJVl2tRmlDg=="
            }
          },
          {
            "validator_address": "1751786EFC085D5331C61168FFFC8202EA151B4E",
            "validator_index": "7",
            "height": "52310",
            "round": "0",
            "timestamp": "2018-08-02T22:24:53.436314032Z",
            "type": 2,
            "block_id": {
              "hash": "A7AC21FE4894C59632184076AB882701E164746B",
              "parts": {
                "total": "1",
                "hash": "8DD853BCCDF6AB09577D63CBBE885351EB561D17"
              }
            },
            "signature": {
              "type": "tendermint/SignatureEd25519",
              "value": "Fc0DNjzxTQUnIotrbmepdVdrCPZbeMjhsGkfz7QQW7fon7n8SgEbln8KrthHPApKSN+wL8MWx4a+iASK2Pl+Cg=="
            }
          },
          {
            "validator_address": "17BB5CD01E8940FAFB948A04D5FA5A0645E5822E",
            "validator_index": "8",
            "height": "52310",
            "round": "0",
            "timestamp": "2018-08-02T22:24:53.787765893Z",
            "type": 2,
            "block_id": {
              "hash": "A7AC21FE4894C59632184076AB882701E164746B",
              "parts": {
                "total": "1",
                "hash": "8DD853BCCDF6AB09577D63CBBE885351EB561D17"
              }
            },
            "signature": {
              "type": "tendermint/SignatureEd25519",
              "value": "Q5p2RseaXpJ+JKFTqTCUe2LB6/Wyg3sSrBMWOjB10AIB4mSU1QT0PbipwRSLC1sK1QKkwsEXJH3o9Z0FmIcVBg=="
            }
          },
          {
            "validator_address": "1C683A87904BC38F05004FE83301A3A3E35447EB",
            "validator_index": "9",
            "height": "52310",
            "round": "0",
            "timestamp": "2018-08-02T22:24:53.787696803Z",
            "type": 2,
            "block_id": {
              "hash": "A7AC21FE4894C59632184076AB882701E164746B",
              "parts": {
                "total": "1",
                "hash": "8DD853BCCDF6AB09577D63CBBE885351EB561D17"
              }
            },
            "signature": {
              "type": "tendermint/SignatureEd25519",
              "value": "gh3sx3XiEydJ9RGbEjznFGiv8Uhd19zCDQ/RannYP/xtrpKdAXgIH4DXrilPRXkvGKZ+FxmDK2XFwyC0X+RaDg=="
            }
          },
          {
            "validator_address": "1E9CE94FD0BA5CFEB901F90BC658D64D85B134D2",
            "validator_index": "10",
            "height": "52310",
            "round": "0",
            "timestamp": "2018-08-02T22:24:53.815816003Z",
            "type": 2,
            "block_id": {
              "hash": "A7AC21FE4894C59632184076AB882701E164746B",
              "parts": {
                "total": "1",
                "hash": "8DD853BCCDF6AB09577D63CBBE885351EB561D17"
              }
            },
            "signature": {
              "type": "tendermint/SignatureEd25519",
              "value": "Fh3I2zCtJkNuBpctczRI6xLxbxbQ3S+CyJKB5i6Gc+lWnDMlEmfzosRaT18HQkCOXQISnyKRsEMoj+z73uuPDQ=="
            }
          },
          {
            "validator_address": "1ECD8C5FE1341D74CDC633A245DD56858DE2F9A2",
            "validator_index": "11",
            "height": "52310",
            "round": "0",
            "timestamp": "2018-08-02T22:24:53.952897681Z",
            "type": 2,
            "block_id": {
              "hash": "A7AC21FE4894C59632184076AB882701E164746B",
              "parts": {
                "total": "1",
                "hash": "8DD853BCCDF6AB09577D63CBBE885351EB561D17"
              }
            },
            "signature": {
              "type": "tendermint/SignatureEd25519",
              "value": "YgKa7cerSHBkh3KQrnB/eq18qtW+wvVJLgB5klpbe6vJMSGJXBnhOU6qx92zOD6fxFcTtUzcmL48Fqxaaz/3CQ=="
            }
          },
          {
            "validator_address": "1F3A68CAAD483768AA2BF667DEF10F7104C89928",
            "validator_index": "12",
            "height": "52310",
            "round": "0",
            "timestamp": "2018-08-02T22:24:53.831152749Z",
            "type": 2,
            "block_id": {
              "hash": "A7AC21FE4894C59632184076AB882701E164746B",
              "parts": {
                "total": "1",
                "hash": "8DD853BCCDF6AB09577D63CBBE885351EB561D17"
              }
            },
            "signature": {
              "type": "tendermint/SignatureEd25519",
              "value": "y91xWbI0iNIGQi//i4FmirkMLqRiIDxoemX0IFGkUgPLtoGZZvhlj51/1o8PfvztXqYk729lX6uW82OblMr6BA=="
            }
          },
          {
            "validator_address": "1F61153F26C2DF27E15874268D30326287323352",
            "validator_index": "13",
            "height": "52310",
            "round": "0",
            "timestamp": "2018-08-02T22:24:53.8401313Z",
            "type": 2,
            "block_id": {
              "hash": "A7AC21FE4894C59632184076AB882701E164746B",
              "parts": {
                "total": "1",
                "hash": "8DD853BCCDF6AB09577D63CBBE885351EB561D17"
              }
            },
            "signature": {
              "type": "tendermint/SignatureEd25519",
              "value": "uDL4XI12tpgqy3gmxWqqFSPtZMvAIOfI8PlX6s+fYOJCPVKIuL4L+/Y7pSxP/r81019jwZ0zcRsH6nNUQwjpAQ=="
            }
          },
          {
            "validator_address": "23897586D68E2AC1C78E0EF5BB5DF5C8EAB18F50",
            "validator_index": "14",
            "height": "52310",
            "round": "0",
            "timestamp": "2018-08-02T22:24:53.750436161Z",
            "type": 2,
            "block_id": {
              "hash": "A7AC21FE4894C59632184076AB882701E164746B",
              "parts": {
                "total": "1",
                "hash": "8DD853BCCDF6AB09577D63CBBE885351EB561D17"
              }
            },
            "signature": {
              "type": "tendermint/SignatureEd25519",
              "value": "TWoSzr2XdJ8hV/xSQVf8tiCgfWbcDKSdgC0mN32/d5wNzpkhlnu/xW6rHyK7fl8Afowajutt6rhcyCXb1zSJAw=="
            }
          },
          {
            "validator_address": "28770D17E8530825E7310A0659308654B7EC9682",
            "validator_index": "15",
            "height": "52310",
            "round": "0",
            "timestamp": "2018-08-02T22:24:53.740151228Z",
            "type": 2,
            "block_id": {
              "hash": "A7AC21FE4894C59632184076AB882701E164746B",
              "parts": {
                "total": "1",
                "hash": "8DD853BCCDF6AB09577D63CBBE885351EB561D17"
              }
            },
            "signature": {
              "type": "tendermint/SignatureEd25519",
              "value": "xwHTvlK+gVc+cB4n62x7YQfiJjj6tNvdnPkPsEKEEJNTl5VJccybW23DpvInEL5I5QE6RdrGxSzFjfyDj3+2BA=="
            }
          },
          {
            "validator_address": "2A92EC3C642140202298D0E245095E0ECFC25228",
            "validator_index": "16",
            "height": "52310",
            "round": "0",
            "timestamp": "2018-08-02T22:24:53.796444782Z",
            "type": 2,
            "block_id": {
              "hash": "A7AC21FE4894C59632184076AB882701E164746B",
              "parts": {
                "total": "1",
                "hash": "8DD853BCCDF6AB09577D63CBBE885351EB561D17"
              }
            },
            "signature": {
              "type": "tendermint/SignatureEd25519",
              "value": "N+MSKm08tRiS3mMofevNOkZPaKIn+xdsZMWkweUtWprE4Dzo9/wHDPP+u7FRgCAmq+OysTGMDVv3a2f/r/aZAA=="
            }
          },
          {
            "validator_address": "33412C9A69C60CB0FAA24A5C5B3A906DE24B47C2",
            "validator_index": "17",
            "height": "52310",
            "round": "0",
            "timestamp": "2018-08-02T22:24:53.770333794Z",
            "type": 2,
            "block_id": {
              "hash": "A7AC21FE4894C59632184076AB882701E164746B",
              "parts": {
                "total": "1",
                "hash": "8DD853BCCDF6AB09577D63CBBE885351EB561D17"
              }
            },
            "signature": {
              "type": "tendermint/SignatureEd25519",
              "value": "umBHyYmSUY6GkloVp7pIzx/LRIOQxVihyYc4WekJjvuFt2H+KF7N1LHQrWHQEdEX1FjymhQa/hkXP3ZxSi86Aw=="
            }
          },
          {
            "validator_address": "36E9B7FAEC964F97D84C028ED62493E373AD0B38",
            "validator_index": "18",
            "height": "52310",
            "round": "0",
            "timestamp": "2018-08-02T22:24:53.924640905Z",
            "type": 2,
            "block_id": {
              "hash": "A7AC21FE4894C59632184076AB882701E164746B",
              "parts": {
                "total": "1",
                "hash": "8DD853BCCDF6AB09577D63CBBE885351EB561D17"
              }
            },
            "signature": {
              "type": "tendermint/SignatureEd25519",
              "value": "UwOqo6fHhCoWVL6FrB4OpqHoCyRm3ZvpXtcsxkT44eyJGA/+NnBHdiNtl63ghJceea1EHt4ykWvqQpe7aqovCQ=="
            }
          },
          {
            "validator_address": "38A8D85D36BEA2E5FCF8A1E778F53628E450EF13",
            "validator_index": "19",
            "height": "52310",
            "round": "0",
            "timestamp": "2018-08-02T22:24:53.922756752Z",
            "type": 2,
            "block_id": {
              "hash": "A7AC21FE4894C59632184076AB882701E164746B",
              "parts": {
                "total": "1",
                "hash": "8DD853BCCDF6AB09577D63CBBE885351EB561D17"
              }
            },
            "signature": {
              "type": "tendermint/SignatureEd25519",
              "value": "OgmFEl9jGMnW+fjFSiZgvBy/pRyRpSk49PMeNiAO3vOuoTrD7eSRzt2PpyVtUz7IAGaUEMmxj9Ws6yiGOcltAA=="
            }
          },
          {
            "validator_address": "39DFDA0C5DB84B269642188B23253508537798E6",
            "validator_index": "20",
            "height": "52310",
            "round": "0",
            "timestamp": "2018-08-02T22:24:53.722496482Z",
            "type": 2,
            "block_id": {
              "hash": "A7AC21FE4894C59632184076AB882701E164746B",
              "parts": {
                "total": "1",
                "hash": "8DD853BCCDF6AB09577D63CBBE885351EB561D17"
              }
            },
            "signature": {
              "type": "tendermint/SignatureEd25519",
              "value": "rz0nGlfIlOAnqe+vUvxXgLKtBpvFJMbRQMbGWlqOZMJUWN937lpl8YovsQcJC9l8ZvzG0U1WFLXu4ddh1SmJBg=="
            }
          },
          {
            "validator_address": "3AC99B708404452366E0953A4BE849226DC86CBC",
            "validator_index": "21",
            "height": "52310",
            "round": "0",
            "timestamp": "2018-08-02T22:24:53.851783791Z",
            "type": 2,
            "block_id": {
              "hash": "A7AC21FE4894C59632184076AB882701E164746B",
              "parts": {
                "total": "1",
                "hash": "8DD853BCCDF6AB09577D63CBBE885351EB561D17"
              }
            },
            "signature": {
              "type": "tendermint/SignatureEd25519",
              "value": "XnOcvMmh85yfI+IBtYtQ4tnvSczMrLnsNTR3PZS3xSldqLQSEiNBhEXT+grcsGmhmt3gKP4jIvHNCC+JLZHNAQ=="
            }
          },
          {
            "validator_address": "3DCB822A10ED319EC7C4393D8E3FD4A41B15AAF2",
            "validator_index": "22",
            "height": "52310",
            "round": "0",
            "timestamp": "2018-08-02T22:24:53.750301825Z",
            "type": 2,
            "block_id": {
              "hash": "A7AC21FE4894C59632184076AB882701E164746B",
              "parts": {
                "total": "1",
                "hash": "8DD853BCCDF6AB09577D63CBBE885351EB561D17"
              }
            },
            "signature": {
              "type": "tendermint/SignatureEd25519",
              "value": "SSI/1mw2zdb+HgEV0964W2MVHUqX5g8UyBCiwr6rYt/A1nX/pWWDg38hpg7RL6sNftwhz9/l9pbLmn3RrilFAQ=="
            }
          },
          {
            "validator_address": "3E899BA36A93C7370347BD5FE85909F2ECD93F8C",
            "validator_index": "23",
            "height": "52310",
            "round": "0",
            "timestamp": "2018-08-02T22:24:53.864990357Z",
            "type": 2,
            "block_id": {
              "hash": "A7AC21FE4894C59632184076AB882701E164746B",
              "parts": {
                "total": "1",
                "hash": "8DD853BCCDF6AB09577D63CBBE885351EB561D17"
              }
            },
            "signature": {
              "type": "tendermint/SignatureEd25519",
              "value": "yGDUyO/cdR5X6Dw3w0/hiytjtVQzCalqMFx5LBPD7p+T54KYiRDRRD0P25jXMzkSViWcPCqBYZMVRsaKp9XKAA=="
            }
          },
          {
            "validator_address": "41CAB2E29E7D0F2282E3275938F188FF9386B84C",
            "validator_index": "24",
            "height": "52310",
            "round": "0",
            "timestamp": "2018-08-02T22:24:53.867921069Z",
            "type": 2,
            "block_id": {
              "hash": "A7AC21FE4894C59632184076AB882701E164746B",
              "parts": {
                "total": "1",
                "hash": "8DD853BCCDF6AB09577D63CBBE885351EB561D17"
              }
            },
            "signature": {
              "type": "tendermint/SignatureEd25519",
              "value": "M33l6vzy811L7I9mqY14r9KHMCZLnDX5qQg8U215WbB4dTrLA2ZrppDSq9MfNYNer81G/Ajzd65e3ZwbsmacAQ=="
            }
          },
          {
            "validator_address": "462B656869DB02A8FD1077E255F8CC7401DC37C6",
            "validator_index": "25",
            "height": "52310",
            "round": "0",
            "timestamp": "2018-08-02T22:24:53.782089839Z",
            "type": 2,
            "block_id": {
              "hash": "A7AC21FE4894C59632184076AB882701E164746B",
              "parts": {
                "total": "1",
                "hash": "8DD853BCCDF6AB09577D63CBBE885351EB561D17"
              }
            },
            "signature": {
              "type": "tendermint/SignatureEd25519",
              "value": "QqD29g7XGy4fk2z0maKj+MJMAbtQax5iXXGytp+1eHI9DxVb1zDeJCaJM70XH1Rbl19w76/SY27qY0zerjo9Cg=="
            }
          },
          {
            "validator_address": "48E5118163E5442068A1B5A42D2EEDBB75724935",
            "validator_index": "26",
            "height": "52310",
            "round": "0",
            "timestamp": "2018-08-02T22:24:53.981542204Z",
            "type": 2,
            "block_id": {
              "hash": "A7AC21FE4894C59632184076AB882701E164746B",
              "parts": {
                "total": "1",
                "hash": "8DD853BCCDF6AB09577D63CBBE885351EB561D17"
              }
            },
            "signature": {
              "type": "tendermint/SignatureEd25519",
              "value": "P0zVcF5lLe1gmO99gdrpC+95hTBci6rseooFSniJD1ktpI4zS1VVFvZQuHo001BfkcJReQTBodiQnqkQ0xvHBg=="
            }
          },
          {
            "validator_address": "49103C58AFD9C7C069F55EBA218F3DFD9AEA74F9",
            "validator_index": "27",
            "height": "52310",
            "round": "0",
            "timestamp": "2018-08-02T22:24:53.814788166Z",
            "type": 2,
            "block_id": {
              "hash": "A7AC21FE4894C59632184076AB882701E164746B",
              "parts": {
                "total": "1",
                "hash": "8DD853BCCDF6AB09577D63CBBE885351EB561D17"
              }
            },
            "signature": {
              "type": "tendermint/SignatureEd25519",
              "value": "GukObEQhVOfaMvhl0ANoOwo8w4qfJ8BRerzGBHBoEX957ZPKgkBVwMsjnSDqPpeC7DCY810yGK4R2NXEm5zgBw=="
            }
          },
          {
            "validator_address": "4944F8BBBB5303E17BC0607DF332320EDBC750EA",
            "validator_index": "28",
            "height": "52310",
            "round": "0",
            "timestamp": "2018-08-02T22:24:53.793311443Z",
            "type": 2,
            "block_id": {
              "hash": "A7AC21FE4894C59632184076AB882701E164746B",
              "parts": {
                "total": "1",
                "hash": "8DD853BCCDF6AB09577D63CBBE885351EB561D17"
              }
            },
            "signature": {
              "type": "tendermint/SignatureEd25519",
              "value": "+1WVc1ckm9i+C4BYMgOLrEUxuDUx1/OxGEeZzKCKQakBUydrwTQfNrWcZmF2M4UqYYC7lfI3STSXsJLMQSNdDQ=="
            }
          },
          {
            "validator_address": "49841599DE675157CBE1E7D6B35BF8FFC23BD5CB",
            "validator_index": "29",
            "height": "52310",
            "round": "0",
            "timestamp": "2018-08-02T22:24:53.736698233Z",
            "type": 2,
            "block_id": {
              "hash": "A7AC21FE4894C59632184076AB882701E164746B",
              "parts": {
                "total": "1",
                "hash": "8DD853BCCDF6AB09577D63CBBE885351EB561D17"
              }
            },
            "signature": {
              "type": "tendermint/SignatureEd25519",
              "value": "oW9Ka93b/jGSv5wF1/u2tJKjHPuQE7iCIZIFq/QKXhq8AbhiWLYQpzIV7HqI9tV00Ryr7hy5dTG38uQxT7rsCA=="
            }
          },
          {
            "validator_address": "51386C2CF9556821D114D7E4945806802BADB28D",
            "validator_index": "30",
            "height": "52310",
            "round": "0",
            "timestamp": "2018-08-02T22:24:53.863886197Z",
            "type": 2,
            "block_id": {
              "hash": "A7AC21FE4894C59632184076AB882701E164746B",
              "parts": {
                "total": "1",
                "hash": "8DD853BCCDF6AB09577D63CBBE885351EB561D17"
              }
            },
            "signature": {
              "type": "tendermint/SignatureEd25519",
              "value": "vgLBA0Gqm+K3DecJqMz4M5Wc2P2Zqq4QcrYUXx/V+2gS0VtuAVYmOVLkCIoZx3Q0NAd5vTbEqag4889IchsrAg=="
            }
          },
          {
            "validator_address": "543564ECA3AFEFADC73EE8591AAC3A96F079BC8A",
            "validator_index": "31",
            "height": "52310",
            "round": "0",
            "timestamp": "2018-08-02T22:24:53.759703922Z",
            "type": 2,
            "block_id": {
              "hash": "A7AC21FE4894C59632184076AB882701E164746B",
              "parts": {
                "total": "1",
                "hash": "8DD853BCCDF6AB09577D63CBBE885351EB561D17"
              }
            },
            "signature": {
              "type": "tendermint/SignatureEd25519",
              "value": "kFYn2SafsDg5r22pwaVcQPKe8NKunjK1/a+/4oAGXbtmPHpfM0vQrH4DS7RCdIA9Fp6+KWNlIr8xGu2bTvV7Dw=="
            }
          },
          {
            "validator_address": "55D67B1A6DC13E96F8754A5A42EABC20F7F86664",
            "validator_index": "32",
            "height": "52310",
            "round": "0",
            "timestamp": "2018-08-02T22:24:53.778612117Z",
            "type": 2,
            "block_id": {
              "hash": "A7AC21FE4894C59632184076AB882701E164746B",
              "parts": {
                "total": "1",
                "hash": "8DD853BCCDF6AB09577D63CBBE885351EB561D17"
              }
            },
            "signature": {
              "type": "tendermint/SignatureEd25519",
              "value": "XEcIK2PgvNFbDsdDUsyFh+sbx2UGJ/BjKng2UlkA4QNYsvYR1e4KDQKKVfTuGnsF/zZNC9iv1PNhlZ4ZQG7jCw=="
            }
          },
          {
            "validator_address": "570B6A755ED339EAC56BB3390A48069F6AC9449B",
            "validator_index": "33",
            "height": "52310",
            "round": "0",
            "timestamp": "2018-08-02T22:25:04.836255344Z",
            "type": 2,
            "block_id": {
              "hash": "A7AC21FE4894C59632184076AB882701E164746B",
              "parts": {
                "total": "1",
                "hash": "8DD853BCCDF6AB09577D63CBBE885351EB561D17"
              }
            },
            "signature": {
              "type": "tendermint/SignatureEd25519",
              "value": "7Z6XNJmTnbz2VsWo1tH9tX3vLXZpfr8b50ig7Xtpxqq8+io8JSM5NZBDf6AFvM8C38KqcJGwjgf0VwtHfUT3AQ=="
            }
          },
          {
            "validator_address": "5BDF8EA41B1835FBAD865B181A2A4B23F511B5E4",
            "validator_index": "34",
            "height": "52310",
            "round": "0",
            "timestamp": "2018-08-02T22:24:53.735255361Z",
            "type": 2,
            "block_id": {
              "hash": "A7AC21FE4894C59632184076AB882701E164746B",
              "parts": {
                "total": "1",
                "hash": "8DD853BCCDF6AB09577D63CBBE885351EB561D17"
              }
            },
            "signature": {
              "type": "tendermint/SignatureEd25519",
              "value": "tQ3996WZpb7K3QDXYlhwSvJENf3DhMcSE0ZYesxAtyAM8jApWYVmmQ6TNAUnlwkI8uOMfVBtreSc+ZdL2hDHAA=="
            }
          },
          {
            "validator_address": "60229E2E273297FE00219E46DFFB8F76844CDEF9",
            "validator_index": "35",
            "height": "52310",
            "round": "0",
            "timestamp": "2018-08-02T22:24:50.880612409Z",
            "type": 2,
            "block_id": {
              "hash": "A7AC21FE4894C59632184076AB882701E164746B",
              "parts": {
                "total": "1",
                "hash": "8DD853BCCDF6AB09577D63CBBE885351EB561D17"
              }
            },
            "signature": {
              "type": "tendermint/SignatureEd25519",
              "value": "TbvtZcvdyBK0Yo6wnxKrRI9zakZEv+jmyp7cBTQmIxg05QN6TAMyjKe9ouSVrDKfhdF0kjQCphPulQHBqyWWDA=="
            }
          },
          {
            "validator_address": "62410D6D1CD98278136E4D0738AA0EA273CDFC54",
            "validator_index": "36",
            "height": "52310",
            "round": "0",
            "timestamp": "2018-08-02T22:24:53.70446816Z",
            "type": 2,
            "block_id": {
              "hash": "A7AC21FE4894C59632184076AB882701E164746B",
              "parts": {
                "total": "1",
                "hash": "8DD853BCCDF6AB09577D63CBBE885351EB561D17"
              }
            },
            "signature": {
              "type": "tendermint/SignatureEd25519",
              "value": "CzWyu/hWHe90D3K82bOUTrLaS8w2IVKE0jKQOEeRsMCzz0Zx+m/Yyax0eo9brJ7kj+xZB/mMDLlGvtivYvwkDw=="
            }
          },
          {
            "validator_address": "632F5C139A5A9DFBFE5111DEE29FCFB6157207DC",
            "validator_index": "37",
            "height": "52310",
            "round": "0",
            "timestamp": "2018-08-02T22:24:53.8419631Z",
            "type": 2,
            "block_id": {
              "hash": "A7AC21FE4894C59632184076AB882701E164746B",
              "parts": {
                "total": "1",
                "hash": "8DD853BCCDF6AB09577D63CBBE885351EB561D17"
              }
            },
            "signature": {
              "type": "tendermint/SignatureEd25519",
              "value": "VQvX5zDXU89ZMdf/5XM2fdcFi6FoXilgNN/9EgDE0oai62GvpiPgL59b6p2S6Wz/qElEGkrwithVCElwAcrjDA=="
            }
          },
          {
            "validator_address": "64F57F8E796A9B7B590C1EFA4123988C86631D39",
            "validator_index": "38",
            "height": "52310",
            "round": "0",
            "timestamp": "2018-08-02T22:24:53.728374877Z",
            "type": 2,
            "block_id": {
              "hash": "A7AC21FE4894C59632184076AB882701E164746B",
              "parts": {
                "total": "1",
                "hash": "8DD853BCCDF6AB09577D63CBBE885351EB561D17"
              }
            },
            "signature": {
              "type": "tendermint/SignatureEd25519",
              "value": "r26QJi7Hv5WrinpuzwDK1+HrQ8/LZTYNEz4nQnlBDYDZXBHcuRJE2vUOy7D7hF5zsyy91hUVBOLAanRo86y0Cw=="
            }
          },
          {
            "validator_address": "69D99B2C66043ACBEAA8447525C356AFC6408E0C",
            "validator_index": "39",
            "height": "52310",
            "round": "0",
            "timestamp": "2018-08-02T22:24:53.89813766Z",
            "type": 2,
            "block_id": {
              "hash": "A7AC21FE4894C59632184076AB882701E164746B",
              "parts": {
                "total": "1",
                "hash": "8DD853BCCDF6AB09577D63CBBE885351EB561D17"
              }
            },
            "signature": {
              "type": "tendermint/SignatureEd25519",
              "value": "pcni1mB3xqIOAVAr6RG0g6RKzmZuC5Jb+Ayx7PP3hbgK+QMYyWE361f1oTZcJ1wMEvbaAf6WsZ95aNRq3mxwDA=="
            }
          },
          {
            "validator_address": "69EDADFA4A803E9DBF548C900D4A465E7D154262",
            "validator_index": "40",
            "height": "52310",
            "round": "0",
            "timestamp": "2018-08-02T22:24:53.947910846Z",
            "type": 2,
            "block_id": {
              "hash": "A7AC21FE4894C59632184076AB882701E164746B",
              "parts": {
                "total": "1",
                "hash": "8DD853BCCDF6AB09577D63CBBE885351EB561D17"
              }
            },
            "signature": {
              "type": "tendermint/SignatureEd25519",
              "value": "c1Q10gjeba4bXddbCv0rI8myQB8Le5OPk914V7W9s7hc3N71fJYZJ5xR6e7DgSZQzi93x2HlALI/vyLsYAXSBw=="
            }
          },
          {
            "validator_address": "6D3AD380E398D8592B03AA124BAFED5F125DF863",
            "validator_index": "41",
            "height": "52310",
            "round": "0",
            "timestamp": "2018-08-02T22:23:50.977421375Z",
            "type": 2,
            "block_id": {
              "hash": "A7AC21FE4894C59632184076AB882701E164746B",
              "parts": {
                "total": "1",
                "hash": "8DD853BCCDF6AB09577D63CBBE885351EB561D17"
              }
            },
            "signature": {
              "type": "tendermint/SignatureEd25519",
              "value": "qsAKnTv0tpjfSydZizyNi7fkEzYh/nziKYU3LkHrugaMB8Adpg5O/jby514tm3ajKIkmamFDsP0kGo6vjiprAA=="
            }
          },
          {
            "validator_address": "6F6C93B8BF3495063FEC9B5C771158607F4AE9D6",
            "validator_index": "42",
            "height": "52310",
            "round": "0",
            "timestamp": "2018-08-02T22:24:53.827202065Z",
            "type": 2,
            "block_id": {
              "hash": "A7AC21FE4894C59632184076AB882701E164746B",
              "parts": {
                "total": "1",
                "hash": "8DD853BCCDF6AB09577D63CBBE885351EB561D17"
              }
            },
            "signature": {
              "type": "tendermint/SignatureEd25519",
              "value": "1SpyppMpp/jJRtqQLqOp1V4g3so+b4V0MDq0Nxz6aJz9JicxA3Xc3OVLbfYEfNuruhPkSVU+CpoK1mIJ6uFhAg=="
            }
          },
          {
            "validator_address": "732CEEF54C374DDC6ADECBFD707AEFD07FEDC143",
            "validator_index": "43",
            "height": "52310",
            "round": "0",
            "timestamp": "2018-08-02T22:24:53.847800489Z",
            "type": 2,
            "block_id": {
              "hash": "A7AC21FE4894C59632184076AB882701E164746B",
              "parts": {
                "total": "1",
                "hash": "8DD853BCCDF6AB09577D63CBBE885351EB561D17"
              }
            },
            "signature": {
              "type": "tendermint/SignatureEd25519",
              "value": "Nhkq4cOcyiSuKwxv4pRysoTKkUWG3mr0rQJpeZwhybYh8YrdoyC/TMvnqxSHpK1qc1JV5ktB5od7ZoVhnn5oAQ=="
            }
          },
          {
            "validator_address": "751E43437224E8BB6D1569B3E2B2616B6E7F4397",
            "validator_index": "44",
            "height": "52310",
            "round": "0",
            "timestamp": "2018-08-02T22:24:53.858744046Z",
            "type": 2,
            "block_id": {
              "hash": "A7AC21FE4894C59632184076AB882701E164746B",
              "parts": {
                "total": "1",
                "hash": "8DD853BCCDF6AB09577D63CBBE885351EB561D17"
              }
            },
            "signature": {
              "type": "tendermint/SignatureEd25519",
              "value": "/D0a1Fctg3qRpJAtMGoCickfRLf/gjg/v+bB6nfgX5zZZnD7coHXfRyLzLHYZUY3DpS5qALy4BoeVv1/C2gpBw=="
            }
          },
          {
            "validator_address": "7EB7593F519F1180C7E872D0494611464EDF03AE",
            "validator_index": "45",
            "height": "52310",
            "round": "0",
            "timestamp": "2018-08-02T22:24:53.875359228Z",
            "type": 2,
            "block_id": {
              "hash": "A7AC21FE4894C59632184076AB882701E164746B",
              "parts": {
                "total": "1",
                "hash": "8DD853BCCDF6AB09577D63CBBE885351EB561D17"
              }
            },
            "signature": {
              "type": "tendermint/SignatureEd25519",
              "value": "doYnOG9rYd+YlNuNm71DZ1ChW0GSMeGhm+oF4UYDCRkk3iXrZ2+oRB5bE2FlB13rkkKRYn24orCkVy6+NOxjBA=="
            }
          },
          {
            "validator_address": "807CF675BA8479FC4FEC1047215DF07970040F1F",
            "validator_index": "46",
            "height": "52310",
            "round": "0",
            "timestamp": "2018-08-02T22:24:54.057867487Z",
            "type": 2,
            "block_id": {
              "hash": "A7AC21FE4894C59632184076AB882701E164746B",
              "parts": {
                "total": "1",
                "hash": "8DD853BCCDF6AB09577D63CBBE885351EB561D17"
              }
            },
            "signature": {
              "type": "tendermint/SignatureEd25519",
              "value": "spnmjDKgD3r0BUVy0UV8h7xG//aPfmjn5ySxCnUpq6NT9Gx8PhC+Ji+rE5RhvQNVE89NPySUptsWsSSfxgwlDw=="
            }
          },
          {
            "validator_address": "8356899C8853BC6640D76F76E59743FFEEA57B81",
            "validator_index": "47",
            "height": "52310",
            "round": "0",
            "timestamp": "2018-08-02T22:24:56.405794925Z",
            "type": 2,
            "block_id": {
              "hash": "",
              "parts": {
                "total": "0",
                "hash": ""
              }
            },
            "signature": {
              "type": "tendermint/SignatureEd25519",
              "value": "axzl2yZjMfneejyeKqFqo0th1VOn+fDaBbRHrN/OIySVKRkbWrceMYjDNrkWnQeZAo8rCxGyhJu2Yl7FNgZdCw=="
            }
          },
          {
            "validator_address": "83AB321E012C57746689FED3A6064DF331F81007",
            "validator_index": "48",
            "height": "52310",
            "round": "0",
            "timestamp": "2018-08-02T22:24:53.815123639Z",
            "type": 2,
            "block_id": {
              "hash": "A7AC21FE4894C59632184076AB882701E164746B",
              "parts": {
                "total": "1",
                "hash": "8DD853BCCDF6AB09577D63CBBE885351EB561D17"
              }
            },
            "signature": {
              "type": "tendermint/SignatureEd25519",
              "value": "NP0ZlUgJCHBTn125galmLdU7U7l9Z/b5ZrSSxYRewBSp2nDLcso5NWODfaRABfjvXzQwMdD3G9HZ8CAV2UzjDw=="
            }
          },
          {
            "validator_address": "83BB1B88D3DBB20AD845FECA07749EBD87D3754D",
            "validator_index": "49",
            "height": "52310",
            "round": "0",
            "timestamp": "2018-08-02T22:24:53.949072709Z",
            "type": 2,
            "block_id": {
              "hash": "A7AC21FE4894C59632184076AB882701E164746B",
              "parts": {
                "total": "1",
                "hash": "8DD853BCCDF6AB09577D63CBBE885351EB561D17"
              }
            },
            "signature": {
              "type": "tendermint/SignatureEd25519",
              "value": "0RW4Yrxgd37dKOQtpS2ZFzVstz9XyWQP9Hqb9T7QKs9jpXVkNKCIDvcxxsmmGiYz7pDU9NMBMTgPVt7hOxlKDA=="
            }
          },
          {
            "validator_address": "86DDBEEF35D35786A68834B34869174AC314BB74",
            "validator_index": "50",
            "height": "52310",
            "round": "0",
            "timestamp": "2018-08-02T22:24:53.794520623Z",
            "type": 2,
            "block_id": {
              "hash": "A7AC21FE4894C59632184076AB882701E164746B",
              "parts": {
                "total": "1",
                "hash": "8DD853BCCDF6AB09577D63CBBE885351EB561D17"
              }
            },
            "signature": {
              "type": "tendermint/SignatureEd25519",
              "value": "3svf/L+dPbTOyym0l0zvoILMvFytZh2z5E1Bq1XfSGAJuJ4cOHQmbCukjtMrR2ALcvA614bp1OFNDPsvYhrMCw=="
            }
          },
          {
            "validator_address": "8F06FE1FD042683C426137FBC4BBAA4288924217",
            "validator_index": "51",
            "height": "52310",
            "round": "0",
            "timestamp": "2018-08-02T22:24:53.792271465Z",
            "type": 2,
            "block_id": {
              "hash": "A7AC21FE4894C59632184076AB882701E164746B",
              "parts": {
                "total": "1",
                "hash": "8DD853BCCDF6AB09577D63CBBE885351EB561D17"
              }
            },
            "signature": {
              "type": "tendermint/SignatureEd25519",
              "value": "yUP5S2ioUYi5MYYaarWRquFPLQEWuTQCI5YjQYKtSXoliUMPZtlCuNJzasnobAkz5JcpAFff9ZpSKjIPqL5PCg=="
            }
          },
          {
            "validator_address": "95980831E186F2540F6E9FB6C8E74DE2401405AC",
            "validator_index": "52",
            "height": "52310",
            "round": "0",
            "timestamp": "2018-08-02T22:24:53.850928794Z",
            "type": 2,
            "block_id": {
              "hash": "A7AC21FE4894C59632184076AB882701E164746B",
              "parts": {
                "total": "1",
                "hash": "8DD853BCCDF6AB09577D63CBBE885351EB561D17"
              }
            },
            "signature": {
              "type": "tendermint/SignatureEd25519",
              "value": "nGmkoQSMyIdAS5EccyweEpvV7H2FNtgtk886YMnz5iN1oUj414mmCp3Qy8f1GzkD8wflnATCyBkyzq31ApIkBg=="
            }
          },
          {
            "validator_address": "95FAFBC1E0579C83D290A063020CE87C5334BD9B",
            "validator_index": "53",
            "height": "52310",
            "round": "0",
            "timestamp": "2018-08-02T22:24:53.837744139Z",
            "type": 2,
            "block_id": {
              "hash": "A7AC21FE4894C59632184076AB882701E164746B",
              "parts": {
                "total": "1",
                "hash": "8DD853BCCDF6AB09577D63CBBE885351EB561D17"
              }
            },
            "signature": {
              "type": "tendermint/SignatureEd25519",
              "value": "4rZyMfoBaI/VuJU690jDC0wnjVlYNI0j6qfItic3s8VlQuriy4Cmz3FdftuSD7WbFMAvYuvKswgRiOugvy7wAA=="
            }
          },
          {
            "validator_address": "96BDE45EC52606CF5CB59853097871AD60680549",
            "validator_index": "54",
            "height": "52310",
            "round": "0",
            "timestamp": "2018-08-02T22:24:53.822163409Z",
            "type": 2,
            "block_id": {
              "hash": "A7AC21FE4894C59632184076AB882701E164746B",
              "parts": {
                "total": "1",
                "hash": "8DD853BCCDF6AB09577D63CBBE885351EB561D17"
              }
            },
            "signature": {
              "type": "tendermint/SignatureEd25519",
              "value": "OLtqmYKaHvXkIE6Ej7WY1cFeAkXOgs3KV6HTvEaXQ91hUR1R+IZuoRNaGtxMtFowGi6H5RumdQlUOPLJbyaAAA=="
            }
          },
          {
            "validator_address": "970CD321881185BF83DB2923C321B0E75FDBB2B8",
            "validator_index": "55",
            "height": "52310",
            "round": "0",
            "timestamp": "2018-08-02T22:24:53.858389021Z",
            "type": 2,
            "block_id": {
              "hash": "A7AC21FE4894C59632184076AB882701E164746B",
              "parts": {
                "total": "1",
                "hash": "8DD853BCCDF6AB09577D63CBBE885351EB561D17"
              }
            },
            "signature": {
              "type": "tendermint/SignatureEd25519",
              "value": "aj+1OwGA2xlhWBQzlBzQl+bbbL8mkopJ30H+PpTwgjygmmnW8VMb6oB53FZOCHVxCeacFGKqdZd0ftUgazBJBA=="
            }
          },
          {
            "validator_address": "97DBB3D4B3D6C29287244864448F651DD5B07390",
            "validator_index": "56",
            "height": "52310",
            "round": "0",
            "timestamp": "2018-08-02T22:24:53.893102048Z",
            "type": 2,
            "block_id": {
              "hash": "A7AC21FE4894C59632184076AB882701E164746B",
              "parts": {
                "total": "1",
                "hash": "8DD853BCCDF6AB09577D63CBBE885351EB561D17"
              }
            },
            "signature": {
              "type": "tendermint/SignatureEd25519",
              "value": "iBXIAjZHikjgtsqTE53g8bovlMuxl2zEg/v9Tcr/1h7BVQw62xxcH6gvpgvv+Y9VUVhMUaEN6+1HGzCvJreaAQ=="
            }
          },
          {
            "validator_address": "9C29C9B76D27586E4D9AD2AED0E943162645E55C",
            "validator_index": "57",
            "height": "52310",
            "round": "0",
            "timestamp": "2018-08-02T22:24:53.742459537Z",
            "type": 2,
            "block_id": {
              "hash": "A7AC21FE4894C59632184076AB882701E164746B",
              "parts": {
                "total": "1",
                "hash": "8DD853BCCDF6AB09577D63CBBE885351EB561D17"
              }
            },
            "signature": {
              "type": "tendermint/SignatureEd25519",
              "value": "QvMFu3h5aBnqwX5qamxCgdL+U3/dD2Uolg1qdsPcazXwtAEAWs/0fYVmtoz3zT3p4fiX/mznnhSOL7HTK9jrDg=="
            }
          },
          {
            "validator_address": "9D93AD02FE1BD7E76B9E58D7EB461088EAD011E5",
            "validator_index": "58",
            "height": "52310",
            "round": "0",
            "timestamp": "2018-08-02T22:24:53.726163252Z",
            "type": 2,
            "block_id": {
              "hash": "A7AC21FE4894C59632184076AB882701E164746B",
              "parts": {
                "total": "1",
                "hash": "8DD853BCCDF6AB09577D63CBBE885351EB561D17"
              }
            },
            "signature": {
              "type": "tendermint/SignatureEd25519",
              "value": "BPpSzNxWd514wILxV77szH/IBSwN3JFzSDGHB7IHOj6Xm7BK/RqFXURDqjtsYOA1abWy6SLds3GDr8ms2tzhCA=="
            }
          },
          {
            "validator_address": "A0A6466F4ABEA09C3B55E3709AFDE217A103209F",
            "validator_index": "59",
            "height": "52310",
            "round": "0",
            "timestamp": "2018-08-02T22:24:53.740706056Z",
            "type": 2,
            "block_id": {
              "hash": "A7AC21FE4894C59632184076AB882701E164746B",
              "parts": {
                "total": "1",
                "hash": "8DD853BCCDF6AB09577D63CBBE885351EB561D17"
              }
            },
            "signature": {
              "type": "tendermint/SignatureEd25519",
              "value": "ksz1i885lfq1r1W0joa+ncdkqMXB2CMe5wo1XviwdigfE1YySP7BvCCdy1/J6J6HVEfKoCzOC7hNc6/uiSXOAA=="
            }
          },
          {
            "validator_address": "A5868971300F155020634D7BB49C7634F7AACCD3",
            "validator_index": "60",
            "height": "52310",
            "round": "0",
            "timestamp": "2018-08-02T22:24:53.835513163Z",
            "type": 2,
            "block_id": {
              "hash": "A7AC21FE4894C59632184076AB882701E164746B",
              "parts": {
                "total": "1",
                "hash": "8DD853BCCDF6AB09577D63CBBE885351EB561D17"
              }
            },
            "signature": {
              "type": "tendermint/SignatureEd25519",
              "value": "KUAxmLQ6hbg80UUagdfvWyw1nLi9XTWp0QsVes2zFVTDDLpdOB/7m7xsv4HTWBpiTzPrxPq+9FleJIYlVBIyBQ=="
            }
          },
          {
            "validator_address": "A6B3A5B5D982CFD7B5FDFA15CF5A720E7AE25E7F",
            "validator_index": "61",
            "height": "52310",
            "round": "0",
            "timestamp": "2018-08-02T22:24:54.139925633Z",
            "type": 2,
            "block_id": {
              "hash": "A7AC21FE4894C59632184076AB882701E164746B",
              "parts": {
                "total": "1",
                "hash": "8DD853BCCDF6AB09577D63CBBE885351EB561D17"
              }
            },
            "signature": {
              "type": "tendermint/SignatureEd25519",
              "value": "d3Zc+3b4w95nS2mHOLd1MyQw+dv67ezyXn7ix5Sylg7K21U2Gtrqt0Fpfbujbd0D42rg74/lqzZyQXpFH8D0DQ=="
            }
          },
          {
            "validator_address": "AC96444A9083890B7C7B430DB17BF1D3EA5EED04",
            "validator_index": "62",
            "height": "52310",
            "round": "0",
            "timestamp": "2018-08-02T22:24:53.851156921Z",
            "type": 2,
            "block_id": {
              "hash": "A7AC21FE4894C59632184076AB882701E164746B",
              "parts": {
                "total": "1",
                "hash": "8DD853BCCDF6AB09577D63CBBE885351EB561D17"
              }
            },
            "signature": {
              "type": "tendermint/SignatureEd25519",
              "value": "6SJzk6LRBtJ0POCCeWci3I0d+YkIVOJatvL8Icq9TCCug3bOBsHWyahiIbht6X4pdc4E/agW+DJSekqvAXtSCg=="
            }
          },
          {
            "validator_address": "B197425B3210375F211661DE02EF2AE36580EB0F",
            "validator_index": "63",
            "height": "52310",
            "round": "0",
            "timestamp": "2018-08-02T22:24:53.824470406Z",
            "type": 2,
            "block_id": {
              "hash": "A7AC21FE4894C59632184076AB882701E164746B",
              "parts": {
                "total": "1",
                "hash": "8DD853BCCDF6AB09577D63CBBE885351EB561D17"
              }
            },
            "signature": {
              "type": "tendermint/SignatureEd25519",
              "value": "T/36KgXKUXYhzQ0MCFrTiX0RxEdZr7rShs6U4rEYoHLasLERHU7oabU0ofeJzSkriDoULxaXiM/5uTapoAawBQ=="
            }
          },
          {
            "validator_address": "B45E54D2D1CB5A4CCD1D49016608C18E7C56B270",
            "validator_index": "64",
            "height": "52310",
            "round": "0",
            "timestamp": "2018-08-02T22:24:53.830478754Z",
            "type": 2,
            "block_id": {
              "hash": "A7AC21FE4894C59632184076AB882701E164746B",
              "parts": {
                "total": "1",
                "hash": "8DD853BCCDF6AB09577D63CBBE885351EB561D17"
              }
            },
            "signature": {
              "type": "tendermint/SignatureEd25519",
              "value": "QJJpcH4oohdMniCd0Foqlm20GLAiRYBVJlqiK2PDrks6h7OBrvmoH8qPzUJB9VA/bhv55M7tTmCI4D1hwLNdAw=="
            }
          },
          {
            "validator_address": "BB1276BE89834835428664408917649FEEF5D90C",
            "validator_index": "65",
            "height": "52310",
            "round": "0",
            "timestamp": "2018-08-02T22:24:53.914373403Z",
            "type": 2,
            "block_id": {
              "hash": "A7AC21FE4894C59632184076AB882701E164746B",
              "parts": {
                "total": "1",
                "hash": "8DD853BCCDF6AB09577D63CBBE885351EB561D17"
              }
            },
            "signature": {
              "type": "tendermint/SignatureEd25519",
              "value": "diuSyg9KUwJwJ2XYLxFSg1wJOi5ARoPd/03FEuRSIGTygqkS/YDMn89lKKu0RDMzIciICZ2mCgmrRNu8InBvDg=="
            }
          },
          {
            "validator_address": "BC36FEDD6EF6071118A3E51859DF3831A2EC4782",
            "validator_index": "66",
            "height": "52310",
            "round": "0",
            "timestamp": "2018-08-02T22:24:53.835888877Z",
            "type": 2,
            "block_id": {
              "hash": "A7AC21FE4894C59632184076AB882701E164746B",
              "parts": {
                "total": "1",
                "hash": "8DD853BCCDF6AB09577D63CBBE885351EB561D17"
              }
            },
            "signature": {
              "type": "tendermint/SignatureEd25519",
              "value": "ldsTcKy8QIDzHm4oMpz/42ZnMs9D44p5EDvINv7tr8jBQH3Psy33bV7WJfh10qKd7FLgAh7mOPV3swXVdoXhDA=="
            }
          },
          {
            "validator_address": "BD9D0DA513BF099DB4BB6E725A4E19832789882F",
            "validator_index": "67",
            "height": "52310",
            "round": "0",
            "timestamp": "2018-08-02T22:24:53.756390206Z",
            "type": 2,
            "block_id": {
              "hash": "A7AC21FE4894C59632184076AB882701E164746B",
              "parts": {
                "total": "1",
                "hash": "8DD853BCCDF6AB09577D63CBBE885351EB561D17"
              }
            },
            "signature": {
              "type": "tendermint/SignatureEd25519",
              "value": "US2XKQEbDxrMzQXceoqyHTF5tdg9e9oNkV7+9Z5dMxZAfD1vK4peYP6srfurqDiZU+0gWDXLVv1+BYpA5eLiBg=="
            }
          },
          {
            "validator_address": "C1134A2FF8F7338E7CDB3FE57DDD2A655DEB1E22",
            "validator_index": "68",
            "height": "52310",
            "round": "0",
            "timestamp": "2018-08-02T22:24:53.529086569Z",
            "type": 2,
            "block_id": {
              "hash": "A7AC21FE4894C59632184076AB882701E164746B",
              "parts": {
                "total": "1",
                "hash": "8DD853BCCDF6AB09577D63CBBE885351EB561D17"
              }
            },
            "signature": {
              "type": "tendermint/SignatureEd25519",
              "value": "8sp9Rc4ois+fItPpd2itt3VwjP+I5fxOLsicsU0FZ6L9YO8lnIqHinA6o6eiSmEn4vnF7c8/MPB2S6Czd+rbCg=="
            }
          },
          {
            "validator_address": "C39A8A2B85198DCB8F23AD1F6C198E2BA7AB5D60",
            "validator_index": "69",
            "height": "52310",
            "round": "0",
            "timestamp": "2018-08-02T22:24:53.742528261Z",
            "type": 2,
            "block_id": {
              "hash": "A7AC21FE4894C59632184076AB882701E164746B",
              "parts": {
                "total": "1",
                "hash": "8DD853BCCDF6AB09577D63CBBE885351EB561D17"
              }
            },
            "signature": {
              "type": "tendermint/SignatureEd25519",
              "value": "LjvfiZd2K+E1zdGeQcAR4kyqBbJRBRGT97qA26WwsHAc1IEPAgfQfGcFUYtr0iZ6R83JcOt3gPY0nCA7+KHtCQ=="
            }
          },
          {
            "validator_address": "C4335190C3B5BD4BA5568BC0F99C34162D940D08",
            "validator_index": "70",
            "height": "52310",
            "round": "0",
            "timestamp": "2018-08-02T22:24:53.870305539Z",
            "type": 2,
            "block_id": {
              "hash": "A7AC21FE4894C59632184076AB882701E164746B",
              "parts": {
                "total": "1",
                "hash": "8DD853BCCDF6AB09577D63CBBE885351EB561D17"
              }
            },
            "signature": {
              "type": "tendermint/SignatureEd25519",
              "value": "HMEmiy/2KPkZoQyUN7BR8GiPkWMjfGnljCVHYKpcr0aKDGKGhvaTZ8beIFnHkZ4wHAq9E72ML8hweuS0+9rEDA=="
            }
          },
          {
            "validator_address": "C561CFA081677046376396922E7576E5F7B316AD",
            "validator_index": "71",
            "height": "52310",
            "round": "0",
            "timestamp": "2018-08-02T22:24:53.910155146Z",
            "type": 2,
            "block_id": {
              "hash": "A7AC21FE4894C59632184076AB882701E164746B",
              "parts": {
                "total": "1",
                "hash": "8DD853BCCDF6AB09577D63CBBE885351EB561D17"
              }
            },
            "signature": {
              "type": "tendermint/SignatureEd25519",
              "value": "C3eiSqD/3WCUEY5Rgd5KVgvL7tjbrQEVDQc5bzlbzGyKwdpBBhiHKaeLySeh/CH36DDTEWbrYAgQFcOGikefDg=="
            }
          },
          {
            "validator_address": "CEB97DB5CB18270247ABDE6CF2F84F9AEE8A2904",
            "validator_index": "72",
            "height": "52310",
            "round": "0",
            "timestamp": "2018-08-02T22:24:55.149400901Z",
            "type": 2,
            "block_id": {
              "hash": "A7AC21FE4894C59632184076AB882701E164746B",
              "parts": {
                "total": "1",
                "hash": "8DD853BCCDF6AB09577D63CBBE885351EB561D17"
              }
            },
            "signature": {
              "type": "tendermint/SignatureEd25519",
              "value": "3y46gvwdVK+MSp3Du4bAbY9+yzmhZ2WEU1jGTrIOTLRc+ZhIO/pEDRnOCiDV5zjU/CuNvYG2vo8SHODAljoYDA=="
            }
          },
          {
            "validator_address": "D2134B826A1E25A955905CB79A4D8731CAFA0CCE",
            "validator_index": "73",
            "height": "52310",
            "round": "0",
            "timestamp": "2018-08-02T22:24:53.855848371Z",
            "type": 2,
            "block_id": {
              "hash": "A7AC21FE4894C59632184076AB882701E164746B",
              "parts": {
                "total": "1",
                "hash": "8DD853BCCDF6AB09577D63CBBE885351EB561D17"
              }
            },
            "signature": {
              "type": "tendermint/SignatureEd25519",
              "value": "LMvboBDHDmGmCHe/0sl3DEl9pRlNXEar7D5bJk36VSQMEnZsKeXAMvtzCMsDdw4YmzyGzDLK7EeCRjszEgREBg=="
            }
          },
          {
            "validator_address": "D6285C3422C8886445D53757CBE12D2B91B5A9D0",
            "validator_index": "74",
            "height": "52310",
            "round": "0",
            "timestamp": "2018-08-02T22:24:37.385448091Z",
            "type": 2,
            "block_id": {
              "hash": "A7AC21FE4894C59632184076AB882701E164746B",
              "parts": {
                "total": "1",
                "hash": "8DD853BCCDF6AB09577D63CBBE885351EB561D17"
              }
            },
            "signature": {
              "type": "tendermint/SignatureEd25519",
              "value": "7TB8BYEZpTUegF5nob99SpU6O49Q4XGSLQDJJK/MHeyFkUQNEAaABm3Fwa9rcmCSZYNbSmYQYwGBoPJ3vH0JDg=="
            }
          },
          {
            "validator_address": "D77FB84A729972CD3E757C9BEB61561855832B92",
            "validator_index": "75",
            "height": "52310",
            "round": "0",
            "timestamp": "2018-08-02T22:24:53.891144647Z",
            "type": 2,
            "block_id": {
              "hash": "A7AC21FE4894C59632184076AB882701E164746B",
              "parts": {
                "total": "1",
                "hash": "8DD853BCCDF6AB09577D63CBBE885351EB561D17"
              }
            },
            "signature": {
              "type": "tendermint/SignatureEd25519",
              "value": "/eAr7tY+lU2nSX0RKf+GLKWEmNdWZmpnO+EIx8ggFOePHFTa4VYD1r0l7+p8lt+f2bF5Arf5GwNFQbZTymdhCw=="
            }
          },
          {
            "validator_address": "DB7E6732471D3EA5C90C17A9974D9F88AB45F2FB",
            "validator_index": "76",
            "height": "52310",
            "round": "0",
            "timestamp": "2018-08-02T22:24:53.765436759Z",
            "type": 2,
            "block_id": {
              "hash": "A7AC21FE4894C59632184076AB882701E164746B",
              "parts": {
                "total": "1",
                "hash": "8DD853BCCDF6AB09577D63CBBE885351EB561D17"
              }
            },
            "signature": {
              "type": "tendermint/SignatureEd25519",
              "value": "WT/lGxpB9BVberrTHVb4eYK9/MZQy60QU9KSEDYwE/vJy3t4owLixYAom5yq+VFAml4fAB3Hx9bzJ58govdXCA=="
            }
          },
          {
            "validator_address": "DF54B862410BCD9B5C516FBB6C56BDC826ED6FA7",
            "validator_index": "77",
            "height": "52310",
            "round": "0",
            "timestamp": "2018-08-02T22:24:53.980054521Z",
            "type": 2,
            "block_id": {
              "hash": "A7AC21FE4894C59632184076AB882701E164746B",
              "parts": {
                "total": "1",
                "hash": "8DD853BCCDF6AB09577D63CBBE885351EB561D17"
              }
            },
            "signature": {
              "type": "tendermint/SignatureEd25519",
              "value": "c61K6ASpUbyVGhCCC4rVOXvSKt3p+aL7aFtFK3JfPJTbmxrXPyyhNaoiHxwVEArER+eHHgUrlYpkH80uPJmODw=="
            }
          },
          {
            "validator_address": "DFAF0C8B1B78D6D552B0189DE3ACA351439A1319",
            "validator_index": "78",
            "height": "52310",
            "round": "0",
            "timestamp": "2018-08-02T22:24:53.82041502Z",
            "type": 2,
            "block_id": {
              "hash": "A7AC21FE4894C59632184076AB882701E164746B",
              "parts": {
                "total": "1",
                "hash": "8DD853BCCDF6AB09577D63CBBE885351EB561D17"
              }
            },
            "signature": {
              "type": "tendermint/SignatureEd25519",
              "value": "IGlMcFehLLtjBB75PzswDWbzCKPVNz2awkPoQi3NvJuH1of6RLMIUNlXXTZ+eT3jKM0Q0p/ok67EWL1MmfxsBQ=="
            }
          },
          {
            "validator_address": "E1DBC77881161A5A3A8536A57536EAE546A75D69",
            "validator_index": "79",
            "height": "52310",
            "round": "0",
            "timestamp": "2018-08-02T22:24:53.780596542Z",
            "type": 2,
            "block_id": {
              "hash": "A7AC21FE4894C59632184076AB882701E164746B",
              "parts": {
                "total": "1",
                "hash": "8DD853BCCDF6AB09577D63CBBE885351EB561D17"
              }
            },
            "signature": {
              "type": "tendermint/SignatureEd25519",
              "value": "HaaEgz3bFb5GHM8psuy4c0witeX5wowojVAM3/Ncug3PHyp3E2ZhGOhqdAn/YR6Eo8pZWrBD+D3Q0wEuH8/UBQ=="
            }
          },
          {
            "validator_address": "E300E9D484374C1D3E97C1D93CAC3B160A056298",
            "validator_index": "80",
            "height": "52310",
            "round": "0",
            "timestamp": "2018-08-02T22:24:54.012066479Z",
            "type": 2,
            "block_id": {
              "hash": "A7AC21FE4894C59632184076AB882701E164746B",
              "parts": {
                "total": "1",
                "hash": "8DD853BCCDF6AB09577D63CBBE885351EB561D17"
              }
            },
            "signature": {
              "type": "tendermint/SignatureEd25519",
              "value": "yHocRs4zIz3W+dzI0WTucfGsck7HRqFB0A8sXkKnFkBiBkVguEgEEVBMcVHSUdHvnYf9nzbV+kVSfokdBAHPDg=="
            }
          },
          {
            "validator_address": "E39B5778E0D4297A46F45CF6940B0A163A430FF8",
            "validator_index": "81",
            "height": "52310",
            "round": "0",
            "timestamp": "2018-08-02T22:24:53.769074728Z",
            "type": 2,
            "block_id": {
              "hash": "A7AC21FE4894C59632184076AB882701E164746B",
              "parts": {
                "total": "1",
                "hash": "8DD853BCCDF6AB09577D63CBBE885351EB561D17"
              }
            },
            "signature": {
              "type": "tendermint/SignatureEd25519",
              "value": "fbYkksiDWUTS1/0THl0vh2yaGcei5wTOkb3jUiLNZgJpBBGUVnNWKaxy66S7xYFT43wldRMXU95cGxNtznaBDw=="
            }
          },
          {
            "validator_address": "E3B19738F7132F950668504D326C7660F159D170",
            "validator_index": "82",
            "height": "52310",
            "round": "0",
            "timestamp": "2018-08-02T22:24:53.732334542Z",
            "type": 2,
            "block_id": {
              "hash": "A7AC21FE4894C59632184076AB882701E164746B",
              "parts": {
                "total": "1",
                "hash": "8DD853BCCDF6AB09577D63CBBE885351EB561D17"
              }
            },
            "signature": {
              "type": "tendermint/SignatureEd25519",
              "value": "qaD4mgahWA0zZto1OxYV1c3/x1NeLdMd+3XTzGju0rUcb5Oc0bnrArumNJo/MbHTCPBtg1xfCqJbqwjj9ERqBw=="
            }
          },
          {
            "validator_address": "E42F8AEABB685219F7027F54D2B0DBC7846F633A",
            "validator_index": "83",
            "height": "52310",
            "round": "0",
            "timestamp": "2018-08-02T22:24:52.744769851Z",
            "type": 2,
            "block_id": {
              "hash": "A7AC21FE4894C59632184076AB882701E164746B",
              "parts": {
                "total": "1",
                "hash": "8DD853BCCDF6AB09577D63CBBE885351EB561D17"
              }
            },
            "signature": {
              "type": "tendermint/SignatureEd25519",
              "value": "+p3dLLEXBc2RBJ7u4ob0Jm5227M/M4QXgZsC14ZTYtgXX2UyE9wMJnSE0u7cNgzys/PS8W6faWoLARvNtonmAQ=="
            }
          },
          {
            "validator_address": "E4E6C2E81269DFFA196C17F98240E491479A6008",
            "validator_index": "84",
            "height": "52310",
            "round": "0",
            "timestamp": "2018-08-02T22:24:53.906674175Z",
            "type": 2,
            "block_id": {
              "hash": "A7AC21FE4894C59632184076AB882701E164746B",
              "parts": {
                "total": "1",
                "hash": "8DD853BCCDF6AB09577D63CBBE885351EB561D17"
              }
            },
            "signature": {
              "type": "tendermint/SignatureEd25519",
              "value": "9HcuMp75d6tOyqVuC2CIbNlDmImwmn7wflSDw6+6uyU6whOQ5seDcDQhoVJBlivzSe5k3WFYCHXYMBgLvMppAA=="
            }
          },
          {
            "validator_address": "E50ADECD5FD27FA2CD610C07F8AED36A2FC4A6A6",
            "validator_index": "85",
            "height": "52310",
            "round": "0",
            "timestamp": "2018-08-02T22:24:53.758328942Z",
            "type": 2,
            "block_id": {
              "hash": "A7AC21FE4894C59632184076AB882701E164746B",
              "parts": {
                "total": "1",
                "hash": "8DD853BCCDF6AB09577D63CBBE885351EB561D17"
              }
            },
            "signature": {
              "type": "tendermint/SignatureEd25519",
              "value": "M0D6mXBdRVX+yt2a+29lsLmzZLavj4ZkarRTjl2m6FBDnKXdwNivbG1mkiYCp6r6f626jxVFirJZvecMgDDBAA=="
            }
          },
          {
            "validator_address": "E6A7079D584B163750BE0831227F6B685DEAF3C1",
            "validator_index": "86",
            "height": "52310",
            "round": "0",
            "timestamp": "2018-08-02T22:24:53.902579879Z",
            "type": 2,
            "block_id": {
              "hash": "A7AC21FE4894C59632184076AB882701E164746B",
              "parts": {
                "total": "1",
                "hash": "8DD853BCCDF6AB09577D63CBBE885351EB561D17"
              }
            },
            "signature": {
              "type": "tendermint/SignatureEd25519",
              "value": "NEjFJP7Tghfpz8/DkgYZcczV62R7gmzdIHdbdxDNWa9OCHKM22Ye2ultjLBWnM5LhLiHrV1hMnC7jLo7kNlpBg=="
            }
          },
          {
            "validator_address": "E7A30077D5D11867D3EAF99ED45BFDC1EB834509",
            "validator_index": "87",
            "height": "52310",
            "round": "0",
            "timestamp": "2018-08-02T22:24:53.875059089Z",
            "type": 2,
            "block_id": {
              "hash": "A7AC21FE4894C59632184076AB882701E164746B",
              "parts": {
                "total": "1",
                "hash": "8DD853BCCDF6AB09577D63CBBE885351EB561D17"
              }
            },
            "signature": {
              "type": "tendermint/SignatureEd25519",
              "value": "HaxAXZzcSlwkir101+a47UAoJVOW+f/IQ6FuSUExsIMs81SO/CHUe4jm8WcTPsbMZbHdflKaaZYOVv8SaIHjBQ=="
            }
          },
          {
            "validator_address": "EBC613967F66F4EC306852CDF58B4F151CF16738",
            "validator_index": "88",
            "height": "52310",
            "round": "0",
            "timestamp": "2018-08-02T22:24:53.891911492Z",
            "type": 2,
            "block_id": {
              "hash": "A7AC21FE4894C59632184076AB882701E164746B",
              "parts": {
                "total": "1",
                "hash": "8DD853BCCDF6AB09577D63CBBE885351EB561D17"
              }
            },
            "signature": {
              "type": "tendermint/SignatureEd25519",
              "value": "kgnTJlPkcSdZRoWe9mHcRfh5yS64AeceeKhVWz3wBgGphenw+HRd04Fg4dd3fGfSJJT8yt334vvzmJgMqlYkCQ=="
            }
          },
          {
            "validator_address": "EC3401441726C40ECC7E51F744483B05BC6DE9BD",
            "validator_index": "89",
            "height": "52310",
            "round": "0",
            "timestamp": "2018-08-02T22:24:53.827307714Z",
            "type": 2,
            "block_id": {
              "hash": "A7AC21FE4894C59632184076AB882701E164746B",
              "parts": {
                "total": "1",
                "hash": "8DD853BCCDF6AB09577D63CBBE885351EB561D17"
              }
            },
            "signature": {
              "type": "tendermint/SignatureEd25519",
              "value": "dwyEWZ+z+bMMesNsltsPKf0eNj73543Cno713EDJENXrIp0lq+IoAbycLjmAY0dy6/g67K0N/zKp3Yk2r9HECw=="
            }
          },
          {
            "validator_address": "EC95B111D032181E1EC3B5E8875C5BB8E4AE7140",
            "validator_index": "90",
            "height": "52310",
            "round": "0",
            "timestamp": "2018-08-02T22:24:53.72236012Z",
            "type": 2,
            "block_id": {
              "hash": "A7AC21FE4894C59632184076AB882701E164746B",
              "parts": {
                "total": "1",
                "hash": "8DD853BCCDF6AB09577D63CBBE885351EB561D17"
              }
            },
            "signature": {
              "type": "tendermint/SignatureEd25519",
              "value": "bLaE9DJlSQU48uR9mGBXCmAqEK6Ejzk5hyCbOf27NCK7XKCo3ex7OcJR8+0ZA3pssPBiyQXtnf86z8Niyf4IAQ=="
            }
          },
          {
            "validator_address": "F13C1805E8131C9B47E2A46818F57D8A2841E578",
            "validator_index": "91",
            "height": "52310",
            "round": "0",
            "timestamp": "2018-08-02T22:24:53.86546935Z",
            "type": 2,
            "block_id": {
              "hash": "A7AC21FE4894C59632184076AB882701E164746B",
              "parts": {
                "total": "1",
                "hash": "8DD853BCCDF6AB09577D63CBBE885351EB561D17"
              }
            },
            "signature": {
              "type": "tendermint/SignatureEd25519",
              "value": "1qQGnqGqisVaegCwrXQ5buu716hsFhNLzqIoyMA4qz4jYKCcQ3gqvd7FbtCyT8lNADbvHsnYelnCMycB+S9DAg=="
            }
          },
          {
            "validator_address": "F23FF36BD5B90C33CE3A03ED72DBDCF5EC07D6AF",
            "validator_index": "92",
            "height": "52310",
            "round": "0",
            "timestamp": "2018-08-02T22:24:53.921368502Z",
            "type": 2,
            "block_id": {
              "hash": "A7AC21FE4894C59632184076AB882701E164746B",
              "parts": {
                "total": "1",
                "hash": "8DD853BCCDF6AB09577D63CBBE885351EB561D17"
              }
            },
            "signature": {
              "type": "tendermint/SignatureEd25519",
              "value": "onRytZoN1kOo4AQ1ksRb/ZTylL5PPu/R+rowpsAjXqGwxnSgf8A6XWXypdw7SXJQNDnpNoEv+hBUrXoWPM4SAA=="
            }
          },
          {
            "validator_address": "F4268597DE93E3E2CED38845010F8AA34E2A879E",
            "validator_index": "93",
            "height": "52310",
            "round": "0",
            "timestamp": "2018-08-02T22:24:53.866977917Z",
            "type": 2,
            "block_id": {
              "hash": "A7AC21FE4894C59632184076AB882701E164746B",
              "parts": {
                "total": "1",
                "hash": "8DD853BCCDF6AB09577D63CBBE885351EB561D17"
              }
            },
            "signature": {
              "type": "tendermint/SignatureEd25519",
              "value": "sf4Xf5menNN1fkNAsmNZXwL/XEAGaXc98CCkUUsWA+ZRXG+N5BNFVzftlWFj2TUzwrmCtjEMxKqxxFWoCmbqBA=="
            }
          },
          {
            "validator_address": "F4DEB417999B04BE2EFF9FFE03FA373D86011CC0",
            "validator_index": "94",
            "height": "52310",
            "round": "0",
            "timestamp": "2018-08-02T22:24:53.81877139Z",
            "type": 2,
            "block_id": {
              "hash": "A7AC21FE4894C59632184076AB882701E164746B",
              "parts": {
                "total": "1",
                "hash": "8DD853BCCDF6AB09577D63CBBE885351EB561D17"
              }
            },
            "signature": {
              "type": "tendermint/SignatureEd25519",
              "value": "54nwc8AiAICSKAOe/68POnaWXx/hlWFDdrEokwoYFj5jmkh9WgsvsYTkMPj+hK9Yw2gg3ph4C2CHaBosMDA6BQ=="
            }
          },
          {
            "validator_address": "F6738260186D33D9C14FC6E7017AFE6BB952A63D",
            "validator_index": "95",
            "height": "52310",
            "round": "0",
            "timestamp": "2018-08-02T22:24:53.781673859Z",
            "type": 2,
            "block_id": {
              "hash": "A7AC21FE4894C59632184076AB882701E164746B",
              "parts": {
                "total": "1",
                "hash": "8DD853BCCDF6AB09577D63CBBE885351EB561D17"
              }
            },
            "signature": {
              "type": "tendermint/SignatureEd25519",
              "value": "Qee2lmUkXC40SjATkvDJZhnJ9oPYS+6d0yU+nBoEPyMAutmCdjAFXWB9mTYsF0ErU+k5rvhkw5ukymYQrRvRCQ=="
            }
          },
          {
            "validator_address": "FD8D304F0278229077114B05BED9DABD382D49D8",
            "validator_index": "96",
            "height": "52310",
            "round": "0",
            "timestamp": "2018-08-02T22:24:53.900490411Z",
            "type": 2,
            "block_id": {
              "hash": "A7AC21FE4894C59632184076AB882701E164746B",
              "parts": {
                "total": "1",
                "hash": "8DD853BCCDF6AB09577D63CBBE885351EB561D17"
              }
            },
            "signature": {
              "type": "tendermint/SignatureEd25519",
              "value": "Axc+9rs0gt3mVV2CMLrKOoMOCn+baVXoYATkY8xyjv549VdWvddarEc/+6KouTwYxf4YdAaPT/3QEz4zrP2NBA=="
            }
          },
          {
            "validator_address": "FF3F3FCBCE7E62D7AD5506FF846EC4518D980515",
            "validator_index": "97",
            "height": "52310",
            "round": "0",
            "timestamp": "2018-08-02T22:24:53.715470051Z",
            "type": 2,
            "block_id": {
              "hash": "A7AC21FE4894C59632184076AB882701E164746B",
              "parts": {
                "total": "1",
                "hash": "8DD853BCCDF6AB09577D63CBBE885351EB561D17"
              }
            },
            "signature": {
              "type": "tendermint/SignatureEd25519",
              "value": "JxdPFpFpKT5hIdZr/HsC80Mr27BYwfVYXnv3GwE1+sgV1q3EUyvtU9vfR7Pkfjd+wbaG5fk7EAtOvgIUOgKdAg=="
            }
          }
        ]
      }
    },
    "canonical": true
  }
}