{
  "jsonrpc": "2.0",
  "id": "",
  "result": {
    "SignedHeader": {
      "header": {
        "chain_id": "gaia-7004",
        "height": "52538",
        "time": "2018-08-02T22:47:50.008769548Z",
        "num_txs": "0",
        "last_block_id": {
          "hash": "BA0B63BEB99901C79AF0D82EE86D6E9C2F972377",
          "parts": {
            "total": "1",
            "hash": "8E8F59D3ABAB47BBD209DF68EE70EB265111EFD5"
          }
        },
        "total_txs": "2253",
        "last_commit_hash": "9D83D73835B92A05F2EF865554AB92A798AE5B49",
        "data_hash": "",
        "validators_hash": "BEB4D07F34EC2687BC46F150EAC5707518422BD5",
        "consensus_hash": "D6B74BB35BDFFD8392340F2A379173548AE188FE",
        "app_hash": "DE2ED06C41BFE548DDA17B592EBCD8CED7C7AC44",
        "last_results_hash": "",
        "evidence_hash": ""
      },
      "commit": {
        "block_id": {
          "hash": "E945FFF94B684F3A8F29D708C130A82EA5B9DA52",
          "parts": {
            "total": "1",
            "hash": "F39699F2907E0E2F65EEB9701273D070E30F10B0"
          }
        },
        "precommits": [
          {
            "validator_address": "029359C0C768096273A68ABC902A6B17AC8D1D70",
            "validator_index": "0",
            "height": "52538",
            "round": "1",
            "timestamp": "2018-08-02T22:47:50.853575324Z",
            "type": 2,
            "block_id": {
              "hash": "E945FFF94B684F3A8F29D708C130A82EA5B9DA52",
              "parts": {
                "total": "1",
                "hash": "F39699F2907E0E2F65EEB9701273D070E30F10B0"
              }
            },
            "signature": {
              "type": "tendermint/SignatureEd25519",
              "value": "jg7aZphufpXNRTX0lydBrtQeS8fXlGu6E5KlUQWQX5QlGR2PemsZ+l9gCfNPqgg68AgepPZRZTAc1TaCepgaCQ=="
            }
          },
          {
            "validator_address": "02FE4B97A8387F39D1AC19E0C1702B3CC614812F",
            "validator_index": "1",
            "height": "52538",
            "round": "1",
            "timestamp": "2018-08-02T22:47:50.868340098Z",
            "type": 2,
            "block_id": {
              "hash": "E945FFF94B684F3A8F29D708C130A82EA5B9DA52",
              "parts": {
                "total": "1",
                "hash": "F39699F2907E0E2F65EEB9701273D070E30F10B0"
              }
            },
            "signature": {
              "type": "tendermint/SignatureEd25519",
              "value": "0RShXFthaZu/tR8OqVaHPRRVBZWi76tTzMbAZRG3RQXpC60M7iqCJdgGJHeRAzVW1S4IO7HLXjXqHKAhpzwJAA=="
            }
          },
          {
            "validator_address": "0548261C50222FD710EB5EBDF03A0E6567B21D20",
            "validator_index": "2",
            "height": "52538",
            "round": "1",
            "timestamp": "2018-08-02T22:47:50.84296006Z",
            "type": 2,
            "block_id": {
              "hash": "E945FFF94B684F3A8F29D708C130A82EA5B9DA52",
              "parts": {
                "total": "1",
                "hash": "F39699F2907E0E2F65EEB9701273D070E30F10B0"
              }
            },
            "signature": {
              "type": "tendermint/SignatureEd25519",
              "value": "m3Eol7zyBh792LD7xYwO9CtY8WVIFY3LTzPlRn0gS4Aiovk8zWGD48nV+aRTWebgR40rdXAZawnB55p3TXGsBg=="
            }
          },
          {
            "validator_address": "0665ADBF9B120B7617BF955AA5653A1992C82B11",
            "validator_index": "3",
            "height": "52538",
            "round": "1",
            "timestamp": "2018-08-02T22:47:50.843750638Z",
            "type": 2,
            "block_id": {
              "hash": "E945FFF94B684F3A8F29D708C130A82EA5B9DA52",
              "parts": {
                "total": "1",
                "hash": "F39699F2907E0E2F65EEB9701273D070E30F10B0"
              }
            },
            "signature": {
              "type": "tendermint/SignatureEd25519",
              "value": "KrobAL6WJEfRdQZDnT2q3m9sYbq1+KUdUvyb9MM8ze8Rf2spaq0MqFovFEtVLBgtmOoearuzEBNm4Jep0tzBAA=="
            }
          },
          {
            "validator_address": "09145E611CC27EEB944FC5A956DDF710F943B9EF",
            "validator_index": "4",
            "height": "52538",
            "round": "1",
            "timestamp": "2018-08-02T22:47:50.759925199Z",
            "type": 2,
            "block_id": {
              "hash": "E945FFF94B684F3A8F29D708C130A82EA5B9DA52",
              "parts": {
                "total": "1",
                "hash": "F39699F2907E0E2F65EEB9701273D070E30F10B0"
              }
            },
            "signature": {
              "type": "tendermint/SignatureEd25519",
              "value": "RC2e5YIzcWT1KiiNulbAUoMCXLArlKSeAtYvr+GQIkI0U8DxVokn65G+YeZUXlIbEFQmTBB8OECnzMWgYJwDDA=="
            }
          },
          {
            "validator_address": "0989D0355A104B67AE0AE028C68FB610690E174B",
            "validator_index": "5",
            "height": "52538",
            "round": "1",
            "timestamp": "2018-08-02T22:47:50.834024524Z",
            "type": 2,
            "block_id": {
              "hash": "E945FFF94B684F3A8F29D708C130A82EA5B9DA52",
              "parts": {
                "total": "1",
                "hash": "F39699F2907E0E2F65EEB9701273D070E30F10B0"
              }
            },
            "signature": {
              "type": "tendermint/SignatureEd25519",
              "value": "zWd4GaKYZhm2Dpuz5WcELy8r2Xu6UDwjtfjJAODbVVVC+xslxIKmwYFEVfJWps5tA15193RIYaWzSjU20W/VAw=="
            }
          },
          {
            "validator_address": "0A692DBFFE9E5DD28E7DECC33CED1AEB4C0D014E",
            "validator_index": "6",
            "height": "52538",
            "round": "1",
            "timestamp": "2018-08-02T22:47:50.941643485Z",
            "type": 2,
            "block_id": {
              "hash": "E945FFF94B684F3A8F29D708C130A82EA5B9DA52",
              "parts": {
                "total": "1",
                "hash": "F39699F2907E0E2F65EEB9701273D070E30F10B0"
              }
            },
            "signature": {
              "type": "tendermint/SignatureEd25519",
              "value": "c2EvmRmW9oRKTo5fSbwCgiZNM8N0APjCy+vi6RAp2OODK0udzitscswUPiPb6SKL5Onld+yzRTqTWe3736LmDQ=="
            }
          },
          {
            "validator_address": "1751786EFC085D5331C61168FFFC8202EA151B4E",
            "validator_index": "7",
            "height": "52538",
            "round": "1",
            "timestamp": "2018-08-02T22:47:50.472753982Z",
            "type": 2,
            "block_id": {
              "hash": "E945FFF94B684F3A8F29D708C130A82EA5B9DA52",
              "parts": {
                "total": "1",
                "hash": "F39699F2907E0E2F65EEB9701273D070E30F10B0"
              }
            },
            "signature": {
              "type": "tendermint/SignatureEd25519",
              "value": "34j2NMrAySVQeMmkJLwBe0VXMAZh7KggTRtQVJoDwpbHJedD2yYsGV+J4Ci0m851WESj07dLFkhG6h6SyiiuCg=="
            }
          },
          {
            "validator_address": "17BB5CD01E8940FAFB948A04D5FA5A0645E5822E",
            "validator_index": "8",
            "height": "52538",
            "round": "1",
            "timestamp": "2018-08-02T22:47:50.877939492Z",
            "type": 2,
            "block_id": {
              "hash": "E945FFF94B684F3A8F29D708C130A82EA5B9DA52",
              "parts": {
                "total": "1",
                "hash": "F39699F2907E0E2F65EEB9701273D070E30F10B0"
              }
            },
            "signature": {
              "type": "tendermint/SignatureEd25519",
              "value": "KF1Hg+xbxtT9U+ZGmuJSLQSiIqjivc3TflWDSSQj188cnRfM7nZSH/65kaNYefuKnNxCdZOJQS/wRpdTwv58Dw=="
            }
          },
          {
            "validator_address": "1C683A87904BC38F05004FE83301A3A3E35447EB",
            "validator_index": "9",
            "height": "52538",
            "round": "1",
            "timestamp": "2018-08-02T22:47:50.779778661Z",
            "type": 2,
            "block_id": {
              "hash": "E945FFF94B684F3A8F29D708C130A82EA5B9DA52",
              "parts": {
                "total": "1",
                "hash": "F39699F2907E0E2F65EEB9701273D070E30F10B0"
              }
            },
            "signature": {
              "type": "tendermint/SignatureEd25519",
              "value": "52emaicMqH6ssOcCtgzzGUGABtSZYjumIue5dmgVHGIhtMZy4kREWwKrFvnOo02RWmT6eVER00HTDSirkd5/Bg=="
            }
          },
          {
            "validator_address": "1E9CE94FD0BA5CFEB901F90BC658D64D85B134D2",
            "validator_index": "10",
            "height": "52538",
            "round": "1",
            "timestamp": "2018-08-02T22:47:50.840219543Z",
            "type": 2,
            "block_id": {
              "hash": "E945FFF94B684F3A8F29D708C130A82EA5B9DA52",
              "parts": {
                "total": "1",
                "hash": "F39699F2907E0E2F65EEB9701273D070E30F10B0"
              }
            },
            "signature": {
              "type": "tendermint/SignatureEd25519",
              "value": "mtH395q4ZDtzZYaoPE3IU9kzsAWTYo/X7LB20zm7usjk8b5635XSZQ0nfFT6a3Cr/j2Xc4hEdwFTPSv8QTO9CQ=="
            }
          },
          {
            "validator_address": "1ECD8C5FE1341D74CDC633A245DD56858DE2F9A2",
            "validator_index": "11",
            "height": "52538",
            "round": "1",
            "timestamp": "2018-08-02T22:47:50.898551954Z",
            "type": 2,
            "block_id": {
              "hash": "E945FFF94B684F3A8F29D708C130A82EA5B9DA52",
              "parts": {
                "total": "1",
                "hash": "F39699F2907E0E2F65EEB9701273D070E30F10B0"
              }
            },
            "signature": {
              "type": "tendermint/SignatureEd25519",
              "value": "0IL1VBk6xBj3s6RpKc0Ee67Xu4UMrdnsq2+CnbYNDzClASeY475tzYLtK2RCpWZuNty1oDrK3ELy1Q2I0MqBAw=="
            }
          },
          {
            "validator_address": "1F3A68CAAD483768AA2BF667DEF10F7104C89928",
            "validator_index": "12",
            "height": "52538",
            "round": "1",
            "timestamp": "2018-08-02T22:47:50.855144294Z",
            "type": 2,
            "block_id": {
              "hash": "E945FFF94B684F3A8F29D708C130A82EA5B9DA52",
              "parts": {
                "total": "1",
                "hash": "F39699F2907E0E2F65EEB9701273D070E30F10B0"
              }
            },
            "signature": {
              "type": "tendermint/SignatureEd25519",
              "value": "r+C3OVQfNpDdjY8iuvJq1nxA7b9eMVOd6xujHm2d27CrLHRFC1LGU6Oj1E6u2ad1ZUe1X6rowglU09gyWKSVDA=="
            }
          },
          {
            "validator_address": "1F61153F26C2DF27E15874268D30326287323352",
            "validator_index": "13",
            "height": "52538",
            "round": "1",
            "timestamp": "2018-08-02T22:47:50.922912155Z",
            "type": 2,
            "block_id": {
              "hash": "E945FFF94B684F3A8F29D708C130A82EA5B9DA52",
              "parts": {
                "total": "1",
                "hash": "F39699F2907E0E2F65EEB9701273D070E30F10B0"
              }
            },
            "signature": {
              "type": "tendermint/SignatureEd25519",
              "value": "+/aePIPiCQqlzLb6gXXrWhWsH9wNRpgbYqLfi2U4wFi1EKAsNbe5jPpZxwi+AZ7upDjvYij5G4583W5RUt7oAQ=="
            }
          },
          {
            "validator_address": "23897586D68E2AC1C78E0EF5BB5DF5C8EAB18F50",
            "validator_index": "14",
            "height": "52538",
            "round": "1",
            "timestamp": "2018-08-02T22:47:50.86166891Z",
            "type": 2,
            "block_id": {
              "hash": "E945FFF94B684F3A8F29D708C130A82EA5B9DA52",
              "parts": {
                "total": "1",
                "hash": "F39699F2907E0E2F65EEB9701273D070E30F10B0"
              }
            },
            "signature": {
              "type": "tendermint/SignatureEd25519",
              "value": "wa9eul5uCUh1xALpEY6jjME6qA9svJtbQyOAG36r8rel7pfPX758geHaIdSegNmaDGhPL0JXBXXiEywFlbo1Cg=="
            }
          },
          {
            "validator_address": "28770D17E8530825E7310A0659308654B7EC9682",
            "validator_index": "15",
            "height": "52538",
            "round": "1",
            "timestamp": "2018-08-02T22:47:50.817327453Z",
            "type": 2,
            "block_id": {
              "hash": "E945FFF94B684F3A8F29D708C130A82EA5B9DA52",
              "parts": {
                "total": "1",
                "hash": "F39699F2907E0E2F65EEB9701273D070E30F10B0"
              }
            },
            "signature": {
              "type": "tendermint/SignatureEd25519",
              "value": "oF3y+WhXMsv+FnoAUvEa8zENLlSudS9/hJeoX3b+mqAmyBKMBCki8GHIfEa4OAwwXfdmE5/5+kDt5j864bikCA=="
            }
          },
          {
            "validator_address": "2A92EC3C642140202298D0E245095E0ECFC25228",
            "validator_index": "16",
            "height": "52538",
            "round": "1",
            "timestamp": "2018-08-02T22:47:50.860484694Z",
            "type": 2,
            "block_id": {
              "hash": "E945FFF94B684F3A8F29D708C130A82EA5B9DA52",
              "parts": {
                "total": "1",
                "hash": "F39699F2907E0E2F65EEB9701273D070E30F10B0"
              }
            },
            "signature": {
              "type": "tendermint/SignatureEd25519",
              "value": "xYbhtLoIBHE2/ZdinHXiYuNiqE168LCqPS4TSHJT7rcwjmj0rOXSHmhWIKnevBRFFBbC6iEpHmpXPTKjM0y2DA=="
            }
          },
          {
            "validator_address": "33412C9A69C60CB0FAA24A5C5B3A906DE24B47C2",
            "validator_index": "17",
            "height": "52538",
            "round": "1",
            "timestamp": "2018-08-02T22:47:50.813357433Z",
            "type": 2,
            "block_id": {
              "hash": "E945FFF94B684F3A8F29D708C130A82EA5B9DA52",
              "parts": {
                "total": "1",
                "hash": "F39699F2907E0E2F65EEB9701273D070E30F10B0"
              }
            },
            "signature": {
              "type": "tendermint/SignatureEd25519",
              "value": "v8iDs/JCJsf2DCbLINHyeLP5i5gBZdC9nY/zP1JcXQUu7gce3q9YKDY+uHXkpdqIHXkQz1xAMyJd0ruREUqNBQ=="
            }
          },
          {
            "validator_address": "36E9B7FAEC964F97D84C028ED62493E373AD0B38",
            "validator_index": "18",
            "height": "52538",
            "round": "1",
            "timestamp": "2018-08-02T22:47:50.923653637Z",
            "type": 2,
            "block_id": {
              "hash": "E945FFF94B684F3A8F29D708C130A82EA5B9DA52",
              "parts": {
                "total": "1",
                "hash": "F39699F2907E0E2F65EEB9701273D070E30F10B0"
              }
            },
            "signature": {
              "type": "tendermint/SignatureEd25519",
              "value": "VN4l6/O5OAwnwxD5Ktvis85Oxkv2IbzJc7sKPFXoavQN9rr4He28DbVr1omXq5BQKq14I//AqoybAAwXQiKBCg=="
            }
          },
          {
            "validator_address": "38A8D85D36BEA2E5FCF8A1E778F53628E450EF13",
            "validator_index": "19",
            "height": "52538",
            "round": "1",
            "timestamp": "2018-08-02T22:47:51.003336603Z",
            "type": 2,
            "block_id": {
              "hash": "E945FFF94B684F3A8F29D708C130A82EA5B9DA52",
              "parts": {
                "total": "1",
                "hash": "F39699F2907E0E2F65EEB9701273D070E30F10B0"
              }
            },
            "signature": {
              "type": "tendermint/SignatureEd25519",
              "value": "8L9wvSYzGFiQIuwfgxfdrfK+EPhzlQmCmDvYXUbPhaPl7pWGJPYXvZiC7aWwgPPETgc3vU8gHqUtRrOJO1fGDQ=="
            }
          },
          {
            "validator_address": "39DFDA0C5DB84B269642188B23253508537798E6",
            "validator_index": "20",
            "height": "52538",
            "round": "1",
            "timestamp": "2018-08-02T22:47:50.786309158Z",
            "type": 2,
            "block_id": {
              "hash": "E945FFF94B684F3A8F29D708C130A82EA5B9DA52",
              "parts": {
                "total": "1",
                "hash": "F39699F2907E0E2F65EEB9701273D070E30F10B0"
              }
            },
            "signature": {
              "type": "tendermint/SignatureEd25519",
              "value": "Ne++cMBguVUt/buvmxlwsufQRUYPAMQopq4FkvCSG9aUYbywqwIp5yA6dL2US2BMnyImYw5QFquqgcrQN4jhDg=="
            }
          },
          {
            "validator_address": "3AC99B708404452366E0953A4BE849226DC86CBC",
            "validator_index": "21",
            "height": "52538",
            "round": "1",
            "timestamp": "2018-08-02T22:47:50.938100521Z",
            "type": 2,
            "block_id": {
              "hash": "E945FFF94B684F3A8F29D708C130A82EA5B9DA52",
              "parts": {
                "total": "1",
                "hash": "F39699F2907E0E2F65EEB9701273D070E30F10B0"
              }
            },
            "signature": {
              "type": "tendermint/SignatureEd25519",
              "value": "al/OMGyI9PrHSjsshOXWrMTPlCDg9HIqlIXlMWzG/s0+6YNDojPZAZdiPcYTlr9fMJfWC9amY8N1NATYzf+wCA=="
            }
          },
          {
            "validator_address": "3DCB822A10ED319EC7C4393D8E3FD4A41B15AAF2",
            "validator_index": "22",
            "height": "52538",
            "round": "1",
            "timestamp": "2018-08-02T22:47:50.819894979Z",
            "type": 2,
            "block_id": {
              "hash": "E945FFF94B684F3A8F29D708C130A82EA5B9DA52",
              "parts": {
                "total": "1",
                "hash": "F39699F2907E0E2F65EEB9701273D070E30F10B0"
              }
            },
            "signature": {
              "type": "tendermint/SignatureEd25519",
              "value": "AGMItExBHdvy0i3sPym96jTo1XSuQLEEQTbSEpaXzsOXi0xv2DukLiTyYk5Qqm8SCHHOwashhqim2q+AqMlvBQ=="
            }
          },
          {
            "validator_address": "3E899BA36A93C7370347BD5FE85909F2ECD93F8C",
            "validator_index": "23",
            "height": "52538",
            "round": "1",
            "timestamp": "2018-08-02T22:47:50.883027766Z",
            "type": 2,
            "block_id": {
              "hash": "E945FFF94B684F3A8F29D708C130A82EA5B9DA52",
              "parts": {
                "total": "1",
                "hash": "F39699F2907E0E2F65EEB9701273D070E30F10B0"
              }
            },
            "signature": {
              "type": "tendermint/SignatureEd25519",
              "value": "Nr31x5W7zDzDhkjFGzApkkEn2cKjOhjuCPOVh3MClA8oV0WOqlbnfdmd28LHS9xb6jxSnpNulZEg7Al4w3ckCQ=="
            }
          },
          {
            "validator_address": "41CAB2E29E7D0F2282E3275938F188FF9386B84C",
            "validator_index": "24",
            "height": "52538",
            "round": "1",
            "timestamp": "2018-08-02T22:47:50.861649028Z",
            "type": 2,
            "block_id": {
              "hash": "E945FFF94B684F3A8F29D708C130A82EA5B9DA52",
              "parts": {
                "total": "1",
                "hash": "F39699F2907E0E2F65EEB9701273D070E30F10B0"
              }
            },
            "signature": {
              "type": "tendermint/SignatureEd25519",
              "value": "+3c4EJCqmoeb7EF1EHTwG9CqMO5l2pv4NjydtOs4P5JT3agirfajsGi9afl0PIQgICw5/Wqt31xpImee/y45BQ=="
            }
          },
          {
            "validator_address": "462B656869DB02A8FD1077E255F8CC7401DC37C6",
            "validator_index": "25",
            "height": "52538",
            "round": "1",
            "timestamp": "2018-08-02T22:47:50.814698548Z",
            "type": 2,
            "block_id": {
              "hash": "E945FFF94B684F3A8F29D708C130A82EA5B9DA52",
              "parts": {
                "total": "1",
                "hash": "F39699F2907E0E2F65EEB9701273D070E30F10B0"
              }
            },
            "signature": {
              "type": "tendermint/SignatureEd25519",
              "value": "HaMjxTSaF9zJaDyYUrMITpXWF2k4XGSl+wsf5O0dYUFzJp5SohZ2+ZfzojKfrOd7npTKptN8QTTCGXGRLeS2DA=="
            }
          },
          {
            "validator_address": "48E5118163E5442068A1B5A42D2EEDBB75724935",
            "validator_index": "26",
            "height": "52538",
            "round": "1",
            "timestamp": "2018-08-02T22:47:50.969658487Z",
            "type": 2,
            "block_id": {
              "hash": "E945FFF94B684F3A8F29D708C130A82EA5B9DA52",
              "parts": {
                "total": "1",
                "hash": "F39699F2907E0E2F65EEB9701273D070E30F10B0"
              }
            },
            "signature": {
              "type": "tendermint/SignatureEd25519",
              "value": "/VBMCS86jeSFml60tDkP2NwAdk3taVmaeaSTgqMD1HBDdX5KNzZm+IKMHk+oLOFWiiJ7r++gjV6Z9xa8gDe4AA=="
            }
          },
          {
            "validator_address": "49103C58AFD9C7C069F55EBA218F3DFD9AEA74F9",
            "validator_index": "27",
            "height": "52538",
            "round": "1",
            "timestamp": "2018-08-02T22:47:50.804627477Z",
            "type": 2,
            "block_id": {
              "hash": "E945FFF94B684F3A8F29D708C130A82EA5B9DA52",
              "parts": {
                "total": "1",
                "hash": "F39699F2907E0E2F65EEB9701273D070E30F10B0"
              }
            },
            "signature": {
              "type": "tendermint/SignatureEd25519",
              "value": "/3qc7IceIddJG0y3XHnPg+OVsOcS2R4z8t1FmEUhVrVHB/nadvPd3TSN+W8Cqz9za3+rw5JV0YBPBr5hXAJmDg=="
            }
          },
          {
            "validator_address": "4944F8BBBB5303E17BC0607DF332320EDBC750EA",
            "validator_index": "28",
            "height": "52538",
            "round": "1",
            "timestamp": "2018-08-02T22:47:50.781744744Z",
            "type": 2,
            "block_id": {
              "hash": "E945FFF94B684F3A8F29D708C130A82EA5B9DA52",
              "parts": {
                "total": "1",
                "hash": "F39699F2907E0E2F65EEB9701273D070E30F10B0"
              }
            },
            "signature": {
              "type": "tendermint/SignatureEd25519",
              "value": "qMxflHNgGfPGsRpYtlHW189MUvm5V94GDpt7ZYKHHvp0INkX1uTmP6P+wMUGA5yENQZMXMMBuTQPMFn81qMgAw=="
            }
          },
          {
            "validator_address": "49841599DE675157CBE1E7D6B35BF8FFC23BD5CB",
            "validator_index": "29",
            "height": "52538",
            "round": "1",
            "timestamp": "2018-08-02T22:47:50.811728399Z",
            "type": 2,
            "block_id": {
              "hash": "E945FFF94B684F3A8F29D708C130A82EA5B9DA52",
              "parts": {
                "total": "1",
                "hash": "F39699F2907E0E2F65EEB9701273D070E30F10B0"
              }
            },
            "signature": {
              "type": "tendermint/SignatureEd25519",
              "value": "vAEMipK4OunnQmhLqAceRTxDxju+abt4E/xwML/6Pu/gem+JCeWaUZGwyeY0yG+DyTKDmN/k0T9FIVhicxKACw=="
            }
          },
          {
            "validator_address": "51386C2CF9556821D114D7E4945806802BADB28D",
            "validator_index": "30",
            "height": "52538",
            "round": "1",
            "timestamp": "2018-08-02T22:47:50.910280222Z",
            "type": 2,
            "block_id": {
              "hash": "E945FFF94B684F3A8F29D708C130A82EA5B9DA52",
              "parts": {
                "total": "1",
                "hash": "F39699F2907E0E2F65EEB9701273D070E30F10B0"
              }
            },
            "signature": {
              "type": "tendermint/SignatureEd25519",
              "value": "E2X2vmRcNzGY3vcUx5BvC8hbIuGq1RIFhKF+7tLOaA+eACoUrv+DU/jYPHCpkMMoA+a5POmu90+0gPNvcT1lCw=="
            }
          },
          {
            "validator_address": "543564ECA3AFEFADC73EE8591AAC3A96F079BC8A",
            "validator_index": "31",
            "height": "52538",
            "round": "1",
            "timestamp": "2018-08-02T22:47:50.80464381Z",
            "type": 2,
            "block_id": {
              "hash": "E945FFF94B684F3A8F29D708C130A82EA5B9DA52",
              "parts": {
                "total": "1",
                "hash": "F39699F2907E0E2F65EEB9701273D070E30F10B0"
              }
            },
            "signature": {
              "type": "tendermint/SignatureEd25519",
              "value": "wWDdKchbHulpyUFSGiTTZrBxHzEcP+rSPzu+Kik1vbVfvhlxi1v1kNlQc0M/h8kteAELtI1MgvFJV2CgxwoDBg=="
            }
          },
          {
            "validator_address": "55D67B1A6DC13E96F8754A5A42EABC20F7F86664",
            "validator_index": "32",
            "height": "52538",
            "round": "1",
            "timestamp": "2018-08-02T22:47:50.799281644Z",
            "type": 2,
            "block_id": {
              "hash": "E945FFF94B684F3A8F29D708C130A82EA5B9DA52",
              "parts": {
                "total": "1",
                "hash": "F39699F2907E0E2F65EEB9701273D070E30F10B0"
              }
            },
            "signature": {
              "type": "tendermint/SignatureEd25519",
              "value": "EVJkVPxIOLj6KG37Xp4O8ijidEqjU3FG8Yq7E4DCzdvM4VfNXY6/kbkgP/Tw9g+SZgy5nNb6pZEZSo19MPYoCg=="
            }
          },
          {
            "validator_address": "570B6A755ED339EAC56BB3390A48069F6AC9449B",
            "validator_index": "33",
            "height": "52538",
            "round": "1",
            "timestamp": "2018-08-02T22:48:01.836555452Z",
            "type": 2,
            "block_id": {
              "hash": "E945FFF94B684F3A8F29D708C130A82EA5B9DA52",
              "parts": {
                "total": "1",
                "hash": "F39699F2907E0E2F65EEB9701273D070E30F10B0"
              }
            },
            "signature": {
              "type": "tendermint/SignatureEd25519",
              "value": "uzzl3N/9eHoAfgpvzoMm2JMW5huBgwsTGDHi+1fKDUZ4njNU+ABnt5kkU6YXF7J7UOMTtBOGEGKa9zQPW4KJAA=="
            }
          },
          {
            "validator_address": "5BDF8EA41B1835FBAD865B181A2A4B23F511B5E4",
            "validator_index": "34",
            "height": "52538",
            "round": "1",
            "timestamp": "2018-08-02T22:47:50.814288545Z",
            "type": 2,
            "block_id": {
              "hash": "E945FFF94B684F3A8F29D708C130A82EA5B9DA52",
              "parts": {
                "total": "1",
                "hash": "F39699F2907E0E2F65EEB9701273D070E30F10B0"
              }
            },
            "signature": {
              "type": "tendermint/SignatureEd25519",
              "value": "+jRogG2als30g1DmlyVNuNe2XIuFaJkfXaE8lX3nI3VtgkfnTzFiRlMiD67qtunQxqcBEbZ0mijO2vW0m6nIBw=="
            }
          },
          {
            "validator_address": "60229E2E273297FE00219E46DFFB8F76844CDEF9",
            "validator_index": "35",
            "height": "52538",
            "round": "1",
            "timestamp": "2018-08-02T22:47:47.912612122Z",
            "type": 2,
            "block_id": {
              "hash": "E945FFF94B684F3A8F29D708C130A82EA5B9DA52",
              "parts": {
                "total": "1",
                "hash": "F39699F2907E0E2F65EEB9701273D070E30F10B0"
              }
            },
            "signature": {
              "type": "tendermint/SignatureEd25519",
              "value": "XnzRD5vyBUOx+h926gecQ4lkuQbMsIBQCR7EuXgdknqQk/6Gx6/vEqcIwW55SiF2HWuCTBb+Kq4M99ulZQYIBA=="
            }
          },
          {
            "validator_address": "62410D6D1CD98278136E4D0738AA0EA273CDFC54",
            "validator_index": "36",
            "height": "52538",
            "round": "1",
            "timestamp": "2018-08-02T22:47:50.817675209Z",
            "type": 2,
            "block_id": {
              "hash": "E945FFF94B684F3A8F29D708C130A82EA5B9DA52",
              "parts": {
                "total": "1",
                "hash": "F39699F2907E0E2F65EEB9701273D070E30F10B0"
              }
            },
            "signature": {
              "type": "tendermint/SignatureEd25519",
              "value": "x2GibnFnvKjw5tC95B1csm5/ZKDpuZjVe1AJtjIrMtpU2SS/zeE1mf1Y+9YHl3KSQWGVSS1Domz56Pm8zz3EDw=="
            }
          },
          {
            "validator_address": "632F5C139A5A9DFBFE5111DEE29FCFB6157207DC",
            "validator_index": "37",
            "height": "52538",
            "round": "1",
            "timestamp": "2018-08-02T22:47:50.818556038Z",
            "type": 2,
            "block_id": {
              "hash": "E945FFF94B684F3A8F29D708C130A82EA5B9DA52",
              "parts": {
                "total": "1",
                "hash": "F39699F2907E0E2F65EEB9701273D070E30F10B0"
              }
            },
            "signature": {
              "type": "tendermint/SignatureEd25519",
              "value": "BL1sxh8Hsbfqq4Qr58OMjyMgB448Tq/Rk29XC5rCVU0nL7orQ0Vt5z6no5mWY1yiIGMFACTjyuOp7Z/6/bfKDw=="
            }
          },
          {
            "validator_address": "64F57F8E796A9B7B590C1EFA4123988C86631D39",
            "validator_index": "38",
            "height": "52538",
            "round": "1",
            "timestamp": "2018-08-02T22:47:50.88237512Z",
            "type": 2,
            "block_id": {
              "hash": "E945FFF94B684F3A8F29D708C130A82EA5B9DA52",
              "parts": {
                "total": "1",
                "hash": "F39699F2907E0E2F65EEB9701273D070E30F10B0"
              }
            },
            "signature": {
              "type": "tendermint/SignatureEd25519",
              "value": "HwhorA8VG3BR39lv2KTTDu6Om+7bDcBibVikS54U+jD5cvqtiLlEQhwBpPYOpJFhscyHDmNkYuKjNU47lPDJBA=="
            }
          },
          {
            "validator_address": "69D99B2C66043ACBEAA8447525C356AFC6408E0C",
            "validator_index": "39",
            "height": "52538",
            "round": "1",
            "timestamp": "2018-08-02T22:47:50.952131498Z",
            "type": 2,
            "block_id": {
              "hash": "E945FFF94B684F3A8F29D708C130A82EA5B9DA52",
              "parts": {
                "total": "1",
                "hash": "F39699F2907E0E2F65EEB9701273D070E30F10B0"
              }
            },
            "signature": {
              "type": "tendermint/SignatureEd25519",
              "value": "1+u2Bdr+28BUNLWnVxDo7S8VZzlwXdAPRu/vrQ3ZxACM8ZXawFVMAI+ajBlo7YUFm0CrvgqRpq0CimjoJeDpDQ=="
            }
          },
          {
            "validator_address": "69EDADFA4A803E9DBF548C900D4A465E7D154262",
            "validator_index": "40",
            "height": "52538",
            "round": "1",
            "timestamp": "2018-08-02T22:47:50.892000538Z",
            "type": 2,
            "block_id": {
              "hash": "E945FFF94B684F3A8F29D708C130A82EA5B9DA52",
              "parts": {
                "total": "1",
                "hash": "F39699F2907E0E2F65EEB9701273D070E30F10B0"
              }
            },
            "signature": {
              "type": "tendermint/SignatureEd25519",
              "value": "dWwEJ1NouHT7vYJAbIurs7ZIaU1ggmuPpdNpwqkO9Qc3CSRloHEtwHDx9eL1BsR76pE9y9ZydRrJLrDtY7epCA=="
            }
          },
          {
            "validator_address": "6D3AD380E398D8592B03AA124BAFED5F125DF863",
            "validator_index": "41",
            "height": "52538",
            "round": "1",
            "timestamp": "2018-08-02T22:46:48.002639891Z",
            "type": 2,
            "block_id": {
              "hash": "E945FFF94B684F3A8F29D708C130A82EA5B9DA52",
              "parts": {
                "total": "1",
                "hash": "F39699F2907E0E2F65EEB9701273D070E30F10B0"
              }
            },
            "signature": {
              "type": "tendermint/SignatureEd25519",
              "value": "ZlUwM2DkL8Ss14/86ff9Z6AanGv1JUFpqA8bWfzfGZtfZ0S8jUq/cXEuGYavn1yDa/7z968+hhq9BvWmCqXVCw=="
            }
          },
          {
            "validator_address": "6F6C93B8BF3495063FEC9B5C771158607F4AE9D6",
            "validator_index": "42",
            "height": "52538",
            "round": "1",
            "timestamp": "2018-08-02T22:47:50.943160437Z",
            "type": 2,
            "block_id": {
              "hash": "E945FFF94B684F3A8F29D708C130A82EA5B9DA52",
              "parts": {
                "total": "1",
                "hash": "F39699F2907E0E2F65EEB9701273D070E30F10B0"
              }
            },
            "signature": {
              "type": "tendermint/SignatureEd25519",
              "value": "YJRUK/xqrNYUfPnmuanUMEYh1E5ZN8l2yMsMHszSirBt+Q8wvC8m8kAvnZRIhBIWRn4/AzgB9uq1hNVWLCSjAw=="
            }
          },
          {
            "validator_address": "732CEEF54C374DDC6ADECBFD707AEFD07FEDC143",
            "validator_index": "43",
            "height": "52538",
            "round": "1",
            "timestamp": "2018-08-02T22:47:50.914800707Z",
            "type": 2,
            "block_id": {
              "hash": "E945FFF94B684F3A8F29D708C130A82EA5B9DA52",
              "parts": {
                "total": "1",
                "hash": "F39699F2907E0E2F65EEB9701273D070E30F10B0"
              }
            },
            "signature": {
              "type": "tendermint/SignatureEd25519",
              "value": "RWF51dQ8cpzM7J4YLytnjx6NXx2PQkWmydXF+jR3djiiL6azeKciGyT/12ajawXQEsNBv9oZJKzx4zgZlyFnCw=="
            }
          },
          {
            "validator_address": "751E43437224E8BB6D1569B3E2B2616B6E7F4397",
            "validator_index": "44",
            "height": "52538",
            "round": "1",
            "timestamp": "2018-08-02T22:47:50.836507716Z",
            "type": 2,
            "block_id": {
              "hash": "E945FFF94B684F3A8F29D708C130A82EA5B9DA52",
              "parts": {
                "total": "1",
                "hash": "F39699F2907E0E2F65EEB9701273D070E30F10B0"
              }
            },
            "signature": {
              "type": "tendermint/SignatureEd25519",
              "value": "zLhXDL03FGDYoH/7ixvuA/pjSnbIqaKLzDtx/TbKnXJfnAWXcsrBlmFSJAKUY0yAw+6+7Iwgi1UdbZWkpiMSDw=="
            }
          },
          {
            "validator_address": "7EB7593F519F1180C7E872D0494611464EDF03AE",
            "validator_index": "45",
            "height": "52538",
            "round": "1",
            "timestamp": "2018-08-02T22:47:50.957506454Z",
            "type": 2,
            "block_id": {
              "hash": "E945FFF94B684F3A8F29D708C130A82EA5B9DA52",
              "parts": {
                "total": "1",
                "hash": "F39699F2907E0E2F65EEB9701273D070E30F10B0"
              }
            },
            "signature": {
              "type": "tendermint/SignatureEd25519",
              "value": "p/tNHqc08ZE0b8fPj0bD0unrQ+PAhMiDjuZjB+B+pLm+l7+QI+OjSFsDjs7ko6JRtLhhPZD+smmF3kij9sc0BQ=="
            }
          },
          {
            "validator_address": "807CF675BA8479FC4FEC1047215DF07970040F1F",
            "validator_index": "46",
            "height": "52538",
            "round": "1",
            "timestamp": "2018-08-02T22:47:51.048412353Z",
            "type": 2,
            "block_id": {
              "hash": "E945FFF94B684F3A8F29D708C130A82EA5B9DA52",
              "parts": {
                "total": "1",
                "hash": "F39699F2907E0E2F65EEB9701273D070E30F10B0"
              }
            },
            "signature": {
              "type": "tendermint/SignatureEd25519",
              "value": "Y5U8pAaRH+GghdR9Q2wNO/qk3B29VDP9QHHu89WklceCjYgHlpfsKLbRmI0GWgzgkAgaY1SMjxK/8QPQSZVNBg=="
            }
          },
          {
            "validator_address": "8356899C8853BC6640D76F76E59743FFEEA57B81",
            "validator_index": "47",
            "height": "52538",
            "round": "1",
            "timestamp": "2018-08-02T22:47:51.612464006Z",
            "type": 2,
            "block_id": {
              "hash": "E945FFF94B684F3A8F29D708C130A82EA5B9DA52",
              "parts": {
                "total": "1",
                "hash": "F39699F2907E0E2F65EEB9701273D070E30F10B0"
              }
            },
            "signature": {
              "type": "tendermint/SignatureEd25519",
              "value": "fDSkltRsZdPTGNOOCdHW1W4MwgptNZMsj+uS1xptfdlg+Q21Id0Qg+hdodlpX+NzHGGVA86AFEqr0cGbsRjlCg=="
            }
          },
          {
            "validator_address": "83AB321E012C57746689FED3A6064DF331F81007",
            "validator_index": "48",
            "height": "52538",
            "round": "1",
            "timestamp": "2018-08-02T22:47:50.849876687Z",
            "type": 2,
            "block_id": {
              "hash": "E945FFF94B684F3A8F29D708C130A82EA5B9DA52",
              "parts": {
                "total": "1",
                "hash": "F39699F2907E0E2F65EEB9701273D070E30F10B0"
              }
            },
            "signature": {
              "type": "tendermint/SignatureEd25519",
              "value": "mOhor4MlPZIsFIQDie158aSKmN5xBGmjuL4C+9K5BPULJbnZhzvxN/iWf/LsH3GU7e4GyNqXo5CM72ZGL1ucBQ=="
            }
          },
          {
            "validator_address": "83BB1B88D3DBB20AD845FECA07749EBD87D3754D",
            "validator_index": "49",
            "height": "52538",
            "round": "1",
            "timestamp": "2018-08-02T22:47:51.04731422Z",
            "type": 2,
            "block_id": {
              "hash": "E945FFF94B684F3A8F29D708C130A82EA5B9DA52",
              "parts": {
                "total": "1",
                "hash": "F39699F2907E0E2F65EEB9701273D070E30F10B0"
              }
            },
            "signature": {
              "type": "tendermint/SignatureEd25519",
              "value": "VgwCsHprPZTD20kxekf5oj4NrwHaa7WwCx6xCfm3Cy2HovxnuuFeF0ph1Purh8UtL8I2Pbq217FjuiA7Wg8xAg=="
            }
          },
          {
            "validator_address": "86DDBEEF35D35786A68834B34869174AC314BB74",
            "validator_index": "50",
            "height": "52538",
            "round": "1",
            "timestamp": "2018-08-02T22:47:50.851093531Z",
            "type": 2,
            "block_id": {
              "hash": "E945FFF94B684F3A8F29D708C130A82EA5B9DA52",
              "parts": {
                "total": "1",
                "hash": "F39699F2907E0E2F65EEB9701273D070E30F10B0"
              }
            },
            "signature": {
              "type": "tendermint/SignatureEd25519",
              "value": "JewpFi3azIX1A7fXU9Vg6vmCuOZc/HJ1xqn6Mry4xxoZ64EDOhtppQdj78o6youDLvMjDLQCkJ5VfgTJkQ3/BQ=="
            }
          },
          {
            "validator_address": "8F06FE1FD042683C426137FBC4BBAA4288924217",
            "validator_index": "51",
            "height": "52538",
            "round": "1",
            "timestamp": "2018-08-02T22:47:50.847063196Z",
            "type": 2,
            "block_id": {
              "hash": "E945FFF94B684F3A8F29D708C130A82EA5B9DA52",
              "parts": {
                "total": "1",
                "hash": "F39699F2907E0E2F65EEB9701273D070E30F10B0"
              }
            },
            "signature": {
              "type": "tendermint/SignatureEd25519",
              "value": "edB7NF64pUz6PpnV/KtU97pN4N7UiuuK64R2Jzw6mms+u7EbTh6A7c5uxci/4wpT/rB0yanLGIhxrLa5MujuDg=="
            }
          },
          {
            "validator_address": "95980831E186F2540F6E9FB6C8E74DE2401405AC",
            "validator_index": "52",
            "height": "52538",
            "round": "1",
            "timestamp": "2018-08-02T22:47:50.921181273Z",
            "type": 2,
            "block_id": {
              "hash": "E945FFF94B684F3A8F29D708C130A82EA5B9DA52",
              "parts": {
                "total": "1",
                "hash": "F39699F2907E0E2F65EEB9701273D070E30F10B0"
              }
            },
            "signature": {
              "type": "tendermint/SignatureEd25519",
              "value": "4mBFivWAzORkmH+nsmbTnJ5DMQaHi0dk1fUcuyJhJPuHqybK5eeFNvRtcToPFELg9DQVdUwq5JUWMcXY5LUTDw=="
            }
          },
          {
            "validator_address": "95FAFBC1E0579C83D290A063020CE87C5334BD9B",
            "validator_index": "53",
            "height": "52538",
            "round": "1",
            "timestamp": "2018-08-02T22:47:50.866860188Z",
            "type": 2,
            "block_id": {
              "hash": "E945FFF94B684F3A8F29D708C130A82EA5B9DA52",
              "parts": {
                "total": "1",
                "hash": "F39699F2907E0E2F65EEB9701273D070E30F10B0"
              }
            },
            "signature": {
              "type": "tendermint/SignatureEd25519",
              "value": "L6L9xhuqJK6Ry6RLfTFSilc+KX9qPTLTx+ZpmTy3oIR3sYmTcSZgj0Lyw1OGuEN9SqhjgmXu2EDAM8w5WZFHDA=="
            }
          },
          {
            "validator_address": "96BDE45EC52606CF5CB59853097871AD60680549",
            "validator_index": "54",
            "height": "52538",
            "round": "1",
            "timestamp": "2018-08-02T22:47:50.856949867Z",
            "type": 2,
            "block_id": {
              "hash": "E945FFF94B684F3A8F29D708C130A82EA5B9DA52",
              "parts": {
                "total": "1",
                "hash": "F39699F2907E0E2F65EEB9701273D070E30F10B0"
              }
            },
            "signature": {
              "type": "tendermint/SignatureEd25519",
              "value": "M/dmfUKTiuOw9OdxF4AgQ2/WZcCaFeGFKsW6z2drdySXIyd7K7Y+WIF3VnJT0itpaVWfB/l8mIbSnlw1cUYNBA=="
            }
          },
          {
            "validator_address": "970CD321881185BF83DB2923C321B0E75FDBB2B8",
            "validator_index": "55",
            "height": "52538",
            "round": "1",
            "timestamp": "2018-08-02T22:47:50.905306475Z",
            "type": 2,
            "block_id": {
              "hash": "E945FFF94B684F3A8F29D708C130A82EA5B9DA52",
              "parts": {
                "total": "1",
                "hash": "F39699F2907E0E2F65EEB9701273D070E30F10B0"
              }
            },
            "signature": {
              "type": "tendermint/SignatureEd25519",
              "value": "N/XKMb1PbPkVpl8IHjEXZs5Kon8Ahljg0+OTHICMytkEGf+zKuGnFRQoi9iKUx9GEy9NwRA3WIVTEO81+7LOAg=="
            }
          },
          {
            "validator_address": "97DBB3D4B3D6C29287244864448F651DD5B07390",
            "validator_index": "56",
            "height": "52538",
            "round": "1",
            "timestamp": "2018-08-02T22:47:50.859437058Z",
            "type": 2,
            "block_id": {
              "hash": "E945FFF94B684F3A8F29D708C130A82EA5B9DA52",
              "parts": {
                "total": "1",
                "hash": "F39699F2907E0E2F65EEB9701273D070E30F10B0"
              }
            },
            "signature": {
              "type": "tendermint/SignatureEd25519",
              "value": "qBFW72BMANW4y7HPHvpiKKB8HuhBBojxEVI9BxSpHzpnvVNbsd9BWAqqMlQse6/RBIAaQPBRDfE50sWqW3CYDA=="
            }
          },
          {
            "validator_address": "9C29C9B76D27586E4D9AD2AED0E943162645E55C",
            "validator_index": "57",
            "height": "52538",
            "round": "1",
            "timestamp": "2018-08-02T22:47:50.810298486Z",
            "type": 2,
            "block_id": {
              "hash": "E945FFF94B684F3A8F29D708C130A82EA5B9DA52",
              "parts": {
                "total": "1",
                "hash": "F39699F2907E0E2F65EEB9701273D070E30F10B0"
              }
            },
            "signature": {
              "type": "tendermint/SignatureEd25519",
              "value": "qEuSxmR88wgHWxYAa5pqt8wwZ2hwPsjEyfbTS5QoRvlM9Pqii7HjsfN019bbzNWV+0kWghsZLxgVJWAkalt2DA=="
            }
          },
          {
            "validator_address": "9D93AD02FE1BD7E76B9E58D7EB461088EAD011E5",
            "validator_index": "58",
            "height": "52538",
            "round": "1",
            "timestamp": "2018-08-02T22:47:50.785420932Z",
            "type": 2,
            "block_id": {
              "hash": "E945FFF94B684F3A8F29D708C130A82EA5B9DA52",
              "parts": {
                "total": "1",
                "hash": "F39699F2907E0E2F65EEB9701273D070E30F10B0"
              }
            },
            "signature": {
              "type": "tendermint/SignatureEd25519",
              "value": "fgfGYc8jQSZvR/k4qfCzPkZ5BMN9E684gisxxltXQl/BJ+YuW2TpGRWk92tv8hcpOm6SymDie851fuitYmSvCg=="
            }
          },
          {
            "validator_address": "A0A6466F4ABEA09C3B55E3709AFDE217A103209F",
            "validator_index": "59",
            "height": "52538",
            "round": "1",
            "timestamp": "2018-08-02T22:47:50.803069367Z",
            "type": 2,
            "block_id": {
              "hash": "E945FFF94B684F3A8F29D708C130A82EA5B9DA52",
              "parts": {
                "total": "1",
                "hash": "F39699F2907E0E2F65EEB9701273D070E30F10B0"
              }
            },
            "signature": {
              "type": "tendermint/SignatureEd25519",
              "value": "ChNYqgy8e0G7cu4xJ7t+u0Gck6cxHQ6p0QpbJKKZ4mbCc4OvUaMl/GyXy8BtSlSdTWtZAqR0QpzKJSsrkDuIAA=="
            }
          },
          {
            "validator_address": "A5868971300F155020634D7BB49C7634F7AACCD3",
            "validator_index": "60",
            "height": "52538",
            "round": "1",
            "timestamp": "2018-08-02T22:47:50.833549053Z",
            "type": 2,
            "block_id": {
              "hash": "E945FFF94B684F3A8F29D708C130A82EA5B9DA52",
              "parts": {
                "total": "1",
                "hash": "F39699F2907E0E2F65EEB9701273D070E30F10B0"
              }
            },
            "signature": {
              "type": "tendermint/SignatureEd25519",
              "value": "6N4vWYmlcvFXxm5SyFvla33JiJbZaq1jHD6CZWw1tTOAGWD4lckDzgUMxbRcklpTcrD+aKrIOhyEngoeL4SGBg=="
            }
          },
          {
            "validator_address": "A6B3A5B5D982CFD7B5FDFA15CF5A720E7AE25E7F",
            "validator_index": "61",
            "height": "52538",
            "round": "1",
            "timestamp": "2018-08-02T22:47:51.310496921Z",
            "type": 2,
            "block_id": {
              "hash": "E945FFF94B684F3A8F29D708C130A82EA5B9DA52",
              "parts": {
                "total": "1",
                "hash": "F39699F2907E0E2F65EEB9701273D070E30F10B0"
              }
            },
            "signature": {
              "type": "tendermint/SignatureEd25519",
              "value": "X5wAOLIKItMDENG8xy2Zfvgvrpfp10ZPxdrl7JoG2ZT7oWTRgmelEBQzBTnkzWPnNq3u6236JytT/z8Dvz76DA=="
            }
          },
          {
            "validator_address": "AC96444A9083890B7C7B430DB17BF1D3EA5EED04",
            "validator_index": "62",
            "height": "52538",
            "round": "1",
            "timestamp": "2018-08-02T22:47:50.938638517Z",
            "type": 2,
            "block_id": {
              "hash": "E945FFF94B684F3A8F29D708C130A82EA5B9DA52",
              "parts": {
                "total": "1",
                "hash": "F39699F2907E0E2F65EEB9701273D070E30F10B0"
              }
            },
            "signature": {
              "type": "tendermint/SignatureEd25519",
              "value": "+i9TUJFV0CaY9VKe44D/zPq5oB6ohXTUPeJx2pgZs/jIovi8sxogQA5K7GJotCQwXrKCuA5LEM+g21EZCGeyCg=="
            }
          },
          {
            "validator_address": "B197425B3210375F211661DE02EF2AE36580EB0F",
            "validator_index": "63",
            "height": "52538",
            "round": "1",
            "timestamp": "2018-08-02T22:47:50.826032016Z",
            "type": 2,
            "block_id": {
              "hash": "E945FFF94B684F3A8F29D708C130A82EA5B9DA52",
              "parts": {
                "total": "1",
                "hash": "F39699F2907E0E2F65EEB9701273D070E30F10B0"
              }
            },
            "signature": {
              "type": "tendermint/SignatureEd25519",
              "value": "Zi8z63Qys/ZBgiR/LCnNGUXDhrOwT/WFtalp/L/Lqzz7sbPxqTYzLDEWLp4tfMeVE/yXcBGtb27jqcQIyPGlCw=="
            }
          },
          {
            "validator_address": "B45E54D2D1CB5A4CCD1D49016608C18E7C56B270",
            "validator_index": "64",
            "height": "52538",
            "round": "1",
            "timestamp": "2018-08-02T22:47:50.917580842Z",
            "type": 2,
            "block_id": {
              "hash": "E945FFF94B684F3A8F29D708C130A82EA5B9DA52",
              "parts": {
                "total": "1",
                "hash": "F39699F2907E0E2F65EEB9701273D070E30F10B0"
              }
            },
            "signature": {
              "type": "tendermint/SignatureEd25519",
              "value": "8O6PrFnK2G+/JKuL38wqQ/SmBTVa6eGBXzlA4wZW5qrufgmBjpGpiyYd0+Zdr7PqQaTphKX0yvKhBcZA4veCDQ=="
            }
          },
          {
            "validator_address": "BB1276BE89834835428664408917649FEEF5D90C",
            "validator_index": "65",
            "height": "52538",
            "round": "1",
            "timestamp": "2018-08-02T22:47:50.947506842Z",
            "type": 2,
            "block_id": {
              "hash": "E945FFF94B684F3A8F29D708C130A82EA5B9DA52",
              "parts": {
                "total": "1",
                "hash": "F39699F2907E0E2F65EEB9701273D070E30F10B0"
              }
            },
            "signature": {
              "type": "tendermint/SignatureEd25519",
              "value": "7B8HzjJ+CoG5DTbNj0ltPvSxjCkck54sZ7yzVhcmZi6HpIhhmhAfSanB1+9iHZeTPY5Rs/MSON8+B3NdQ7tABw=="
            }
          },
          {
            "validator_address": "BC36FEDD6EF6071118A3E51859DF3831A2EC4782",
            "validator_index": "66",
            "height": "52538",
            "round": "1",
            "timestamp": "2018-08-02T22:47:50.905448563Z",
            "type": 2,
            "block_id": {
              "hash": "E945FFF94B684F3A8F29D708C130A82EA5B9DA52",
              "parts": {
                "total": "1",
                "hash": "F39699F2907E0E2F65EEB9701273D070E30F10B0"
              }
            },
            "signature": {
              "type": "tendermint/SignatureEd25519",
              "value": "RnBQzMkKXjcS7THxr6SjOTzTRZSSt93x+7Vn3wd3yfi1hKYBLNId9XnC9GLTubxRFlt03fRvC1V5BLceGD6eBQ=="
            }
          },
          {
            "validator_address": "BD9D0DA513BF099DB4BB6E725A4E19832789882F",
            "validator_index": "67",
            "height": "52538",
            "round": "1",
            "timestamp": "2018-08-02T22:47:50.920909629Z",
            "type": 2,
            "block_id": {
              "hash": "E945FFF94B684F3A8F29D708C130A82EA5B9DA52",
              "parts": {
                "total": "1",
                "hash": "F39699F2907E0E2F65EEB9701273D070E30F10B0"
              }
            },
            "signature": {
              "type": "tendermint/SignatureEd25519",
              "value": "RyFnkjMDigayLtAM/EgQhoKD9c67KqqONG1iL95nuVX9kdTyY2uvCWjw/4/hWio3lezEkUxdG33mXbZT1392Dg=="
            }
          },
          {
            "validator_address": "C1134A2FF8F7338E7CDB3FE57DDD2A655DEB1E22",
            "validator_index": "68",
            "height": "52538",
            "round": "1",
            "timestamp": "2018-08-02T22:47:50.753495704Z",
            "type": 2,
            "block_id": {
              "hash": "E945FFF94B684F3A8F29D708C130A82EA5B9DA52",
              "parts": {
                "total": "1",
                "hash": "F39699F2907E0E2F65EEB9701273D070E30F10B0"
              }
            },
            "signature": {
              "type": "tendermint/SignatureEd25519",
              "value": "LqY+CUuoHP/MiyfdAMVjIGbEvZtuLoqj4KZmAY32Rx3WHPiYS8fNJ8knB7Nl0x34kIv/PZ0olRtN3T6a8P5/DA=="
            }
          },
          {
            "validator_address": "C39A8A2B85198DCB8F23AD1F6C198E2BA7AB5D60",
            "validator_index": "69",
            "height": "52538",
            "round": "1",
            "timestamp": "2018-08-02T22:47:50.885979187Z",
            "type": 2,
            "block_id": {
              "hash": "E945FFF94B684F3A8F29D708C130A82EA5B9DA52",
              "parts": {
                "total": "1",
                "hash": "F39699F2907E0E2F65EEB9701273D070E30F10B0"
              }
            },
            "signature": {
              "type": "tendermint/SignatureEd25519",
              "value": "lHC/LXw8oh37K3FNdY2ULc0VXWnlHZ+xpbkjhx2yuLA6F8gAxcbaFhSe7q4MA5c1oQO9DnoKcwVJhZMQJQPOAg=="
            }
          },
          {
            "validator_address": "C4335190C3B5BD4BA5568BC0F99C34162D940D08",
            "validator_index": "70",
            "height": "52538",
            "round": "1",
            "timestamp": "2018-08-02T22:47:50.92857156Z",
            "type": 2,
            "block_id": {
              "hash": "E945FFF94B684F3A8F29D708C130A82EA5B9DA52",
              "parts": {
                "total": "1",
                "hash": "F39699F2907E0E2F65EEB9701273D070E30F10B0"
              }
            },
            "signature": {
              "type": "tendermint/SignatureEd25519",
              "value": "HKVkys3uj5dkIQkYaAbd+L74URMPBVSJgzAykWQ/MC42AhLg4n26z4wxpQCQNIlc4eL5edRLD5vxZFqBqSi9Cg=="
            }
          },
          {
            "validator_address": "C561CFA081677046376396922E7576E5F7B316AD",
            "validator_index": "71",
            "height": "52538",
            "round": "1",
            "timestamp": "2018-08-02T22:47:50.944378508Z",
            "type": 2,
            "block_id": {
              "hash": "E945FFF94B684F3A8F29D708C130A82EA5B9DA52",
              "parts": {
                "total": "1",
                "hash": "F39699F2907E0E2F65EEB9701273D070E30F10B0"
              }
            },
            "signature": {
              "type": "tendermint/SignatureEd25519",
              "value": "amoINnUKQMq4x0TrwG1Q85Fxnzc4XkDdWBUviwQMtUyP6hFyv7X0QZK6bdE+dsxeyM+d2b4Dye6W4cCOdhdcDQ=="
            }
          },
          {
            "validator_address": "CEB97DB5CB18270247ABDE6CF2F84F9AEE8A2904",
            "validator_index": "72",
            "height": "52538",
            "round": "1",
            "timestamp": "2018-08-02T22:47:52.178146142Z",
            "type": 2,
            "block_id": {
              "hash": "E945FFF94B684F3A8F29D708C130A82EA5B9DA52",
              "parts": {
                "total": "1",
                "hash": "F39699F2907E0E2F65EEB9701273D070E30F10B0"
              }
            },
            "signature": {
              "type": "tendermint/SignatureEd25519",
              "value": "wXZXArKaxRO0ISJwC6s7XO+lUX51b+RmfM0Tbb1snCxktLl2PDmYZQtL56UvHcCAew4k9Fh6ulrMXoTqOdF/DQ=="
            }
          },
          {
            "validator_address": "D2134B826A1E25A955905CB79A4D8731CAFA0CCE",
            "validator_index": "73",
            "height": "52538",
            "round": "1",
            "timestamp": "2018-08-02T22:47:50.950822473Z",
            "type": 2,
            "block_id": {
              "hash": "E945FFF94B684F3A8F29D708C130A82EA5B9DA52",
              "parts": {
                "total": "1",
                "hash": "F39699F2907E0E2F65EEB9701273D070E30F10B0"
              }
            },
            "signature": {
              "type": "tendermint/SignatureEd25519",
              "value": "6jNY6UB8KJVH7J/rmuGYOKKknQf0lnpWarZwjtfsoKstYSo3TRn/PDIvlhaoeSdLTZSh/ot0M2clF24lc7SQBw=="
            }
          },
          {
            "validator_address": "D6285C3422C8886445D53757CBE12D2B91B5A9D0",
            "validator_index": "74",
            "height": "52538",
            "round": "1",
            "timestamp": "2018-08-02T22:47:34.390724242Z",
            "type": 2,
            "block_id": {
              "hash": "E945FFF94B684F3A8F29D708C130A82EA5B9DA52",
              "parts": {
                "total": "1",
                "hash": "F39699F2907E0E2F65EEB9701273D070E30F10B0"
              }
            },
            "signature": {
              "type": "tendermint/SignatureEd25519",
              "value": "wwWje87tOM5nvl2HVRcrTBN+nYl3lwS9fMEGpPFOsxXciPCnScrAmINPaMSnOAqOLOx/9gzRoQLRXhMc61FMBQ=="
            }
          },
          {
            "validator_address": "D77FB84A729972CD3E757C9BEB61561855832B92",
            "validator_index": "75",
            "height": "52538",
            "round": "1",
            "timestamp": "2018-08-02T22:47:50.910924307Z",
            "type": 2,
            "block_id": {
              "hash": "E945FFF94B684F3A8F29D708C130A82EA5B9DA52",
              "parts": {
                "total": "1",
                "hash": "F39699F2907E0E2F65EEB9701273D070E30F10B0"
              }
            },
            "signature": {
              "type": "tendermint/SignatureEd25519",
              "value": "L1WUDmFerNDhULW92B1eDpWMGiq950mpF4APEUJvgNnHVxI0H2PY4wBWpyMabpA21K1Of2Qz5Rig/h4x8rVRBw=="
            }
          },
          {
            "validator_address": "DB7E6732471D3EA5C90C17A9974D9F88AB45F2FB",
            "validator_index": "76",
            "height": "52538",
            "round": "1",
            "timestamp": "2018-08-02T22:47:50.87012499Z",
            "type": 2,
            "block_id": {
              "hash": "E945FFF94B684F3A8F29D708C130A82EA5B9DA52",
              "parts": {
                "total": "1",
                "hash": "F39699F2907E0E2F65EEB9701273D070E30F10B0"
              }
            },
            "signature": {
              "type": "tendermint/SignatureEd25519",
              "value": "mPLfP2F80U9x7qsU1ERCUoQvjoYBTwuc3m8VElEMbv5e1v0jWmoYnglDelC+3qvc2ZL0SipwC878aSNdiTBjBQ=="
            }
          },
          {
            "validator_address": "DF54B862410BCD9B5C516FBB6C56BDC826ED6FA7",
            "validator_index": "77",
            "height": "52538",
            "round": "1",
            "timestamp": "2018-08-02T22:47:50.964990932Z",
            "type": 2,
            "block_id": {
              "hash": "E945FFF94B684F3A8F29D708C130A82EA5B9DA52",
              "parts": {
                "total": "1",
                "hash": "F39699F2907E0E2F65EEB9701273D070E30F10B0"
              }
            },
            "signature": {
              "type": "tendermint/SignatureEd25519",
              "value": "jvedIMpzVCSe96xN8f8/uHGPDqqsh4y+9mMp1UMCT/zWHQhgvqOZTwVbqD1saMjHFTq4S+ME1jNOZxBL5OeiCw=="
            }
          },
          {
            "validator_address": "DFAF0C8B1B78D6D552B0189DE3ACA351439A1319",
            "validator_index": "78",
            "height": "52538",
            "round": "1",
            "timestamp": "2018-08-02T22:47:50.849445375Z",
            "type": 2,
            "block_id": {
              "hash": "E945FFF94B684F3A8F29D708C130A82EA5B9DA52",
              "parts": {
                "total": "1",
                "hash": "F39699F2907E0E2F65EEB9701273D070E30F10B0"
              }
            },
            "signature": {
              "type": "tendermint/SignatureEd25519",
              "value": "Qc7AJLJlEXGuAYq8pO1b7SUwJZ5dXKfANoKDowfOc7bOaqQeceeZygktf9faUOaYLvIELanJifTJ5zFxpRQHAg=="
            }
          },
          {
            "validator_address": "E1DBC77881161A5A3A8536A57536EAE546A75D69",
            "validator_index": "79",
            "height": "52538",
            "round": "1",
            "timestamp": "2018-08-02T22:47:50.820869808Z",
            "type": 2,
            "block_id": {
              "hash": "E945FFF94B684F3A8F29D708C130A82EA5B9DA52",
              "parts": {
                "total": "1",
                "hash": "F39699F2907E0E2F65EEB9701273D070E30F10B0"
              }
            },
            "signature": {
              "type": "tendermint/SignatureEd25519",
              "value": "e7rpZ3CFZ32zNnnmJWpEztnO6QFT22ssJu4LaSGTtBG5JsFsM+FNxmZD8CENbGoBO9yqZVI2dy16JKVflrc0Aw=="
            }
          },
          {
            "validator_address": "E300E9D484374C1D3E97C1D93CAC3B160A056298",
            "validator_index": "80",
            "height": "52538",
            "round": "1",
            "timestamp": "2018-08-02T22:47:51.036762454Z",
            "type": 2,
            "block_id": {
              "hash": "E945FFF94B684F3A8F29D708C130A82EA5B9DA52",
              "parts": {
                "total": "1",
                "hash": "F39699F2907E0E2F65EEB9701273D070E30F10B0"
              }
            },
            "signature": {
              "type": "tendermint/SignatureEd25519",
              "value": "MQ41STfPWmzDFtxbZJD1LioxcDOsyCjRNsW4mh6XnpoLiQ+FLHAVO65q3I3CaahnD4tJCMvh4rwjmhLftnmoDA=="
            }
          },
          {
            "validator_address": "E39B5778E0D4297A46F45CF6940B0A163A430FF8",
            "validator_index": "81",
            "height": "52538",
            "round": "1",
            "timestamp": "2018-08-02T22:47:50.900686736Z",
            "type": 2,
            "block_id": {
              "hash": "E945FFF94B684F3A8F29D708C130A82EA5B9DA52",
              "parts": {
                "total": "1",
                "hash": "F39699F2907E0E2F65EEB9701273D070E30F10B0"
              }
            },
            "signature": {
              "type": "tendermint/SignatureEd25519",
              "value": "ODAa/tTqpyZo1+lzMbClPrSoglAGm1bADVrLicSJ1uMdKtOKxZBQzpDhOIigADQw1Tyky018Rl5EpUul0v6yCg=="
            }
          },
          {
            "validator_address": "E3B19738F7132F950668504D326C7660F159D170",
            "validator_index": "82",
            "height": "52538",
            "round": "1",
            "timestamp": "2018-08-02T22:47:50.808383481Z",
            "type": 2,
            "block_id": {
              "hash": "E945FFF94B684F3A8F29D708C130A82EA5B9DA52",
              "parts": {
                "total": "1",
                "hash": "F39699F2907E0E2F65EEB9701273D070E30F10B0"
              }
            },
            "signature": {
              "type": "tendermint/SignatureEd25519",
              "value": "0GosR1Xt9CetIR7k4TaOTJRBnBMUvL3vikeW7mCsX6vy+vj9bPYsSxJURLb5VB2QrJb8JQRfC61OPHsAF0a0BA=="
            }
          },
          {
            "validator_address": "E42F8AEABB685219F7027F54D2B0DBC7846F633A",
            "validator_index": "83",
            "height": "52538",
            "round": "1",
            "timestamp": "2018-08-02T22:47:49.775376528Z",
            "type": 2,
            "block_id": {
              "hash": "E945FFF94B684F3A8F29D708C130A82EA5B9DA52",
              "parts": {
                "total": "1",
                "hash": "F39699F2907E0E2F65EEB9701273D070E30F10B0"
              }
            },
            "signature": {
              "type": "tendermint/SignatureEd25519",
              "value": "eE89EuViddCE8BFUcBXxHIQJgDZI/hF66CuNEhW7QegqkrYqInyhRTSPnJzTDdcvQhrqt1sCY2gYTeW1rPkLCg=="
            }
          },
          {
            "validator_address": "E4E6C2E81269DFFA196C17F98240E491479A6008",
            "validator_index": "84",
            "height": "52538",
            "round": "1",
            "timestamp": "2018-08-02T22:47:50.920363215Z",
            "type": 2,
            "block_id": {
              "hash": "E945FFF94B684F3A8F29D708C130A82EA5B9DA52",
              "parts": {
                "total": "1",
                "hash": "F39699F2907E0E2F65EEB9701273D070E30F10B0"
              }
            },
            "signature": {
              "type": "tendermint/SignatureEd25519",
              "value": "3ejxMfhazzUjZ3ymoSSNw9phskkoR+QRweOyDxslC6CZZ8DqbFLQXVZh9GliC8XTdwFRHRK56e0jFFGeH/78DA=="
            }
          },
          {
            "validator_address": "E50ADECD5FD27FA2CD610C07F8AED36A2FC4A6A6",
            "validator_index": "85",
            "height": "52538",
            "round": "1",
            "timestamp": "2018-08-02T22:47:50.776967108Z",
            "type": 2,
            "block_id": {
              "hash": "E945FFF94B684F3A8F29D708C130A82EA5B9DA52",
              "parts": {
                "total": "1",
                "hash": "F39699F2907E0E2F65EEB9701273D070E30F10B0"
              }
            },
            "signature": {
              "type": "tendermint/SignatureEd25519",
              "value": "xdyhCGK/rhcBJTz2UhbGtHx6iEiHAfQGswRDh6Vm3d/IYUXwJR97XFkX0WX5yO6ZFfIxJOd+LaFaJPGVnN72CA=="
            }
          },
          {
            "validator_address": "E6A7079D584B163750BE0831227F6B685DEAF3C1",
            "validator_index": "86",
            "height": "52538",
            "round": "1",
            "timestamp": "2018-08-02T22:47:50.985270318Z",
            "type": 2,
            "block_id": {
              "hash": "E945FFF94B684F3A8F29D708C130A82EA5B9DA52",
              "parts": {
                "total": "1",
                "hash": "F39699F2907E0E2F65EEB9701273D070E30F10B0"
              }
            },
            "signature": {
              "type": "tendermint/SignatureEd25519",
              "value": "HbJ9oGiEnwQ75hnBxAMo+AQZX4Vp3h+c7H0Os4TYX6THnJrS/nTMgdqMZLYrl9WVIWaEJntflFwLb+fNDistDQ=="
            }
          },
          {
            "validator_address": "E7A30077D5D11867D3EAF99ED45BFDC1EB834509",
            "validator_index": "87",
            "height": "52538",
            "round": "1",
            "timestamp": "2018-08-02T22:47:50.82349536Z",
            "type": 2,
            "block_id": {
              "hash": "E945FFF94B684F3A8F29D708C130A82EA5B9DA52",
              "parts": {
                "total": "1",
                "hash": "F39699F2907E0E2F65EEB9701273D070E30F10B0"
              }
            },
            "signature": {
              "type": "tendermint/SignatureEd25519",
              "value": "YZntMB/t7hf7NZJ/GUMfpLUkn+19yT91pOmOYKwFSY0XL4qd6ME1G4RtkCMdwjiio7taoPqfUpVTf0eQX49DBw=="
            }
          },
          {
            "validator_address": "EBC613967F66F4EC306852CDF58B4F151CF16738",
            "validator_index": "88",
            "height": "52538",
            "round": "1",
            "timestamp": "2018-08-02T22:47:50.950444364Z",
            "type": 2,
            "block_id": {
              "hash": "E945FFF94B684F3A8F29D708C130A82EA5B9DA52",
              "parts": {
                "total": "1",
                "hash": "F39699F2907E0E2F65EEB9701273D070E30F10B0"
              }
            },
            "signature": {
              "type": "tendermint/SignatureEd25519",
              "value": "Vj71P1FLOTue9m5gMOdBfjY/nnfkKcuB4dMzXMXShqg/+BXLqR1uDbx+vXS1l9QjZN9gThjTjIrqGDexTJHVBw=="
            }
          },
          {
            "validator_address": "EC3401441726C40ECC7E51F744483B05BC6DE9BD",
            "validator_index": "89",
            "height": "52538",
            "round": "1",
            "timestamp": "2018-08-02T22:47:50.875534899Z",
            "type": 2,
            "block_id": {
              "hash": "E945FFF94B684F3A8F29D708C130A82EA5B9DA52",
              "parts": {
                "total": "1",
                "hash": "F39699F2907E0E2F65EEB9701273D070E30F10B0"
              }
            },
            "signature": {
              "type": "tendermint/SignatureEd25519",
              "value": "Sr4QtLxE4z51+S5T6W+LdZYNV3xaNQl6CdyQpHm1woAKmk27XwgguSUUA7aV+Ctrzr3g974KfOQpWE6KfRk8Cg=="
            }
          },
          {
            "validator_address": "EC95B111D032181E1EC3B5E8875C5BB8E4AE7140",
            "validator_index": "90",
            "height": "52538",
            "round": "1",
            "timestamp": "2018-08-02T22:47:50.84421734Z",
            "type": 2,
            "block_id": {
              "hash": "E945FFF94B684F3A8F29D708C130A82EA5B9DA52",
              "parts": {
                "total": "1",
                "hash": "F39699F2907E0E2F65EEB9701273D070E30F10B0"
              }
            },
            "signature": {
              "type": "tendermint/SignatureEd25519",
              "value": "JRd/M8x8PFqdPsd9kS4hEMoSm+Jj/uv8rMip50oZYsoBsSfhPyrug76qZZ/VcXlKh3JDfPhXFe5QqnCsjqrJCA=="
            }
          },
          {
            "validator_address": "F13C1805E8131C9B47E2A46818F57D8A2841E578",
            "validator_index": "91",
            "height": "52538",
            "round": "1",
            "timestamp": "2018-08-02T22:47:50.933314404Z",
            "type": 2,
            "block_id": {
              "hash": "E945FFF94B684F3A8F29D708C130A82EA5B9DA52",
              "parts": {
                "total": "1",
                "hash": "F39699F2907E0E2F65EEB9701273D070E30F10B0"
              }
            },
            "signature": {
              "type": "tendermint/SignatureEd25519",
              "value": "YDP1VuIjtRjeqTpIpdEqDTC2bIOkEDQhG/QOafc8hxwiC4On47TVOaOumpkd4aVO7e4WyEx2TWn0r+tNG77OBg=="
            }
          },
          {
            "validator_address": "F23FF36BD5B90C33CE3A03ED72DBDCF5EC07D6AF",
            "validator_index": "92",
            "height": "52538",
            "round": "1",
            "timestamp": "2018-08-02T22:47:50.893793141Z",
            "type": 2,
            "block_id": {
              "hash": "E945FFF94B684F3A8F29D708C130A82EA5B9DA52",
              "parts": {
                "total": "1",
                "hash": "F39699F2907E0E2F65EEB9701273D070E30F10B0"
              }
            },
            "signature": {
              "type": "tendermint/SignatureEd25519",
              "value": "CAv12LHXv01o+BS6CiQxHzAGqtDt6LW7ka3KbKz3I/72VQ5VyMETlj3qXbt30F+lxmxcjGDG43MLqIg4s26HAA=="
            }
          },
          {
            "validator_address": "F4268597DE93E3E2CED38845010F8AA34E2A879E",
            "validator_index": "93",
            "height": "52538",
            "round": "1",
            "timestamp": "2018-08-02T22:47:50.920545068Z",
            "type": 2,
            "block_id": {
              "hash": "E945FFF94B684F3A8F29D708C130A82EA5B9DA52",
              "parts": {
                "total": "1",
                "hash": "F39699F2907E0E2F65EEB9701273D070E30F10B0"
              }
            },
            "signature": {
              "type": "tendermint/SignatureEd25519",
              "value": "zEve5b7vaEuUrd+oc9GQTTf5eRK/iAm6yZMPNBkG0OjesaQnl1xT00YRukBh3P3pEt6ttHeBPyyPbKR6PiafDg=="
            }
          },
          {
            "validator_address": "F4DEB417999B04BE2EFF9FFE03FA373D86011CC0",
            "validator_index": "94",
            "height": "52538",
            "round": "1",
            "timestamp": "2018-08-02T22:47:50.872377696Z",
            "type": 2,
            "block_id": {
              "hash": "E945FFF94B684F3A8F29D708C130A82EA5B9DA52",
              "parts": {
                "total": "1",
                "hash": "F39699F2907E0E2F65EEB9701273D070E30F10B0"
              }
            },
            "signature": {
              "type": "tendermint/SignatureEd25519",
              "value": "zv2qwpZwrTYYB03bGd9EdZFEUEN59j4i20cQ6art0ZjyfT+UH6w7/71Bz1ljEdBbdiAZh37GfPmOpyiswDFnCA=="
            }
          },
          {
            "validator_address": "F6738260186D33D9C14FC6E7017AFE6BB952A63D",
            "validator_index": "95",
            "height": "52538",
            "round": "1",
            "timestamp": "2018-08-02T22:47:50.832855018Z",
            "type": 2,
            "block_id": {
              "hash": "E945FFF94B684F3A8F29D708C130A82EA5B9DA52",
              "parts": {
                "total": "1",
                "hash": "F39699F2907E0E2F65EEB9701273D070E30F10B0"
              }
            },
            "signature": {
              "type": "tendermint/SignatureEd25519",
              "value": "oJJRcy7EIh9ZZFGSZEaQHxAHtas31gzDzhVBIoWuU8ab35kW5trJjSPxMHDDSI34vVmBecjwughH+ySIbAwZDQ=="
            }
          },
          {
            "validator_address": "FD8D304F0278229077114B05BED9DABD382D49D8",
            "validator_index": "96",
            "height": "52538",
            "round": "1",
            "timestamp": "2018-08-02T22:47:50.88397743Z",
            "type": 2,
            "block_id": {
              "hash": "E945FFF94B684F3A8F29D708C130A82EA5B9DA52",
              "parts": {
                "total": "1",
                "hash": "F39699F2907E0E2F65EEB9701273D070E30F10B0"
              }
            },
            "signature": {
              "type": "tendermint/SignatureEd25519",
              "value": "g6ALn8dxNBE/7mKusFWUVNb2ovn3aef/7xwT8FOyE2NFAgd88Ucs751XKcqu7M6aFTkMc3OzMtws9/8Wq3yNAQ=="
            }
          },
          {
            "validator_address": "FF3F3FCBCE7E62D7AD5506FF846EC4518D980515",
            "validator_index": "97",
            "height": "52538",
            "round": "1",
            "timestamp": "2018-08-02T22:47:50.785276332Z",
            "type": 2,
            "block_id": {
              "hash": "E945FFF94B684F3A8F29D708C130A82EA5B9DA52",
              "parts": {
                "total": "1",
                "hash": "F39699F2907E0E2F65EEB9701273D070E30F10B0"
              }
            },
            "signature": {
              "type": "tendermint/SignatureEd25519",
              "value": "g8sg6ndGYv2GTWtwDjMZ2TnZmQrQjx/nDfPsyXQNFwMxL5QWhXt0hMqCKyKx+AxqCRCJUQux1I6oKPd8ixI1CQ=="
            }
          }
        ]
      }
    },
    "canonical": true
  }
}