{
  "jsonrpc": "2.0",
  "id": "",
  "result": {
    "SignedHeader": {
      "header": {
        "chain_id": "gaia-7004",
        "height": "53874",
        "time": "2018-08-03T01:03:52.294675955Z",
        "num_txs": "0",
        "last_block_id": {
          "hash": "3A68FC6ACA97CEC51249B1AC52CDC848552720F2",
          "parts": {
            "total": "1",
            "hash": "C7E3AC420ED505A5451984F8865953610B08B1EC"
          }
        },
        "total_txs": "2258",
        "last_commit_hash": "FCB666FDC7ED0BC0B8074B7679E4600853F258CD",
        "data_hash": "",
        "validators_hash": "BEB4D07F34EC2687BC46F150EAC5707518422BD5",
        "consensus_hash": "D6B74BB35BDFFD8392340F2A379173548AE188FE",
        "app_hash": "61FE2DA91A62C53293DC5DEFB967B444B8BCD459",
        "last_results_hash": "",
        "evidence_hash": ""
      },
      "commit": {
        "block_id": {
          "hash": "7D7CCDD6E66E21180DBDE810477FF5DC5C456444",
          "parts": {
            "total": "1",
            "hash": "6BC801DCF0CDE00BE023C402F40F1A661DB33370"
          }
        },
        "precommits": [
          {
            "validator_address": "029359C0C768096273A68ABC902A6B17AC8D1D70",
            "validator_index": "0",
            "height": "53874",
            "round": "1",
            "timestamp": "2018-08-03T01:03:54.484186898Z",
            "type": 2,
            "block_id": {
              "hash": "7D7CCDD6E66E21180DBDE810477FF5DC5C456444",
              "parts": {
                "total": "1",
                "hash": "6BC801DCF0CDE00BE023C402F40F1A661DB33370"
              }
            },
            "signature": {
              "type": "tendermint/SignatureEd25519",
              "value": "s0PTwb+jOWhLTvxyxRkRKyD61szcugggSy//FNHgexPNkT1AgYLuT3c3Xa7v4/K/8fuvs+sU/FqwocxbDVD+Ag=="
            }
          },
          {
            "validator_address": "02FE4B97A8387F39D1AC19E0C1702B3CC614812F",
            "validator_index": "1",
            "height": "53874",
            "round": "1",
            "timestamp": "2018-08-03T01:03:54.450762656Z",
            "type": 2,
            "block_id": {
              "hash": "7D7CCDD6E66E21180DBDE810477FF5DC5C456444",
              "parts": {
                "total": "1",
                "hash": "6BC801DCF0CDE00BE023C402F40F1A661DB33370"
              }
            },
            "signature": {
              "type": "tendermint/SignatureEd25519",
              "value": "c0mK5ukq2EWslrHsjQjovxV1vfgv74GFcCxS/TGuayCEepQO4zfUUK3ygab/q0KqfuZ1bFtH+FwcAoZEnzWmCA=="
            }
          },
          {
            "validator_address": "0548261C50222FD710EB5EBDF03A0E6567B21D20",
            "validator_index": "2",
            "height": "53874",
            "round": "1",
            "timestamp": "2018-08-03T01:03:54.505588327Z",
            "type": 2,
            "block_id": {
              "hash": "7D7CCDD6E66E21180DBDE810477FF5DC5C456444",
              "parts": {
                "total": "1",
                "hash": "6BC801DCF0CDE00BE023C402F40F1A661DB33370"
              }
            },
            "signature": {
              "type": "tendermint/SignatureEd25519",
              "value": "yXUHRt/vBsk6oqAlB+OBz4D0/RG66+4Mw1sKn3TwFS2EFor3U7sVo1C2ItJHXrnHL3sJcgtPeO49o6fPnZqADA=="
            }
          },
          {
            "validator_address": "0665ADBF9B120B7617BF955AA5653A1992C82B11",
            "validator_index": "3",
            "height": "53874",
            "round": "1",
            "timestamp": "2018-08-03T01:03:54.507632414Z",
            "type": 2,
            "block_id": {
              "hash": "7D7CCDD6E66E21180DBDE810477FF5DC5C456444",
              "parts": {
                "total": "1",
                "hash": "6BC801DCF0CDE00BE023C402F40F1A661DB33370"
              }
            },
            "signature": {
              "type": "tendermint/SignatureEd25519",
              "value": "uQFS8qnxGqHlYKZjT/1HxKdyREoREdUeyArifLZRSIFL9nR1Fax5GqY4/m+yIl9L2YlOmBqhuIBwVGPJYckkDA=="
            }
          },
          {
            "validator_address": "09145E611CC27EEB944FC5A956DDF710F943B9EF",
            "validator_index": "4",
            "height": "53874",
            "round": "1",
            "timestamp": "2018-08-03T01:03:54.471819175Z",
            "type": 2,
            "block_id": {
              "hash": "7D7CCDD6E66E21180DBDE810477FF5DC5C456444",
              "parts": {
                "total": "1",
                "hash": "6BC801DCF0CDE00BE023C402F40F1A661DB33370"
              }
            },
            "signature": {
              "type": "tendermint/SignatureEd25519",
              "value": "pQmR6Ti0p8nnfNq3zcrqjiOCxtw4x/Gk1CuJK6L7t2UmKdx5FZL3OOTXk5wRxx/l16F8R41meg0qz0yxFyLwBg=="
            }
          },
          {
            "validator_address": "0989D0355A104B67AE0AE028C68FB610690E174B",
            "validator_index": "5",
            "height": "53874",
            "round": "1",
            "timestamp": "2018-08-03T01:03:54.467192284Z",
            "type": 2,
            "block_id": {
              "hash": "7D7CCDD6E66E21180DBDE810477FF5DC5C456444",
              "parts": {
                "total": "1",
                "hash": "6BC801DCF0CDE00BE023C402F40F1A661DB33370"
              }
            },
            "signature": {
              "type": "tendermint/SignatureEd25519",
              "value": "gSFqY4jkwBnvaDRbO9jxbVS2f7+UckpS1WcUabrqxSsUh8D8Od15yyVyFjSLlq6Ng6pQGqo5+6uEPIauOrdGBQ=="
            }
          },
          {
            "validator_address": "0A692DBFFE9E5DD28E7DECC33CED1AEB4C0D014E",
            "validator_index": "6",
            "height": "53874",
            "round": "1",
            "timestamp": "2018-08-03T01:03:54.585180291Z",
            "type": 2,
            "block_id": {
              "hash": "7D7CCDD6E66E21180DBDE810477FF5DC5C456444",
              "parts": {
                "total": "1",
                "hash": "6BC801DCF0CDE00BE023C402F40F1A661DB33370"
              }
            },
            "signature": {
              "type": "tendermint/SignatureEd25519",
              "value": "Xi8woIpWUXZxQq0i39yw5Jszqi7GyRpZ9dhTSEt29k4yxYnHTbxFKaTrg0GT6+EC1tNWUfTEz0Qfh5FXI7UfAw=="
            }
          },
          {
            "validator_address": "1751786EFC085D5331C61168FFFC8202EA151B4E",
            "validator_index": "7",
            "height": "53874",
            "round": "1",
            "timestamp": "2018-08-03T01:03:54.156244041Z",
            "type": 2,
            "block_id": {
              "hash": "7D7CCDD6E66E21180DBDE810477FF5DC5C456444",
              "parts": {
                "total": "1",
                "hash": "6BC801DCF0CDE00BE023C402F40F1A661DB33370"
              }
            },
            "signature": {
              "type": "tendermint/SignatureEd25519",
              "value": "RtNdjzu9UNsXLtiuaC2cm1v+w9UTnJFj8taEiILLzPSzW8IRqcjt5IGJk56WYxN2cm7CEwoXioasOS9UwYZuBA=="
            }
          },
          {
            "validator_address": "17BB5CD01E8940FAFB948A04D5FA5A0645E5822E",
            "validator_index": "8",
            "height": "53874",
            "round": "1",
            "timestamp": "2018-08-03T01:03:54.476225139Z",
            "type": 2,
            "block_id": {
              "hash": "7D7CCDD6E66E21180DBDE810477FF5DC5C456444",
              "parts": {
                "total": "1",
                "hash": "6BC801DCF0CDE00BE023C402F40F1A661DB33370"
              }
            },
            "signature": {
              "type": "tendermint/SignatureEd25519",
              "value": "iI4Epb3ZbNX6GqgLLa9BLZwIJ3ZnEqIGTqTEXhFHinWzk6lEz2xd4/QUbIcJ38usmRek4t18DZAl3rQaXhi8CQ=="
            }
          },
          {
            "validator_address": "1C683A87904BC38F05004FE83301A3A3E35447EB",
            "validator_index": "9",
            "height": "53874",
            "round": "1",
            "timestamp": "2018-08-03T01:03:54.490866561Z",
            "type": 2,
            "block_id": {
              "hash": "7D7CCDD6E66E21180DBDE810477FF5DC5C456444",
              "parts": {
                "total": "1",
                "hash": "6BC801DCF0CDE00BE023C402F40F1A661DB33370"
              }
            },
            "signature": {
              "type": "tendermint/SignatureEd25519",
              "value": "xPv2ijqiQg7wXZ75LUEUfODk4seMc35jdFScuxyo6h9LcTBj5YZk8eExMRbOxniglD/cANJ2m20o6c0zEr8pBw=="
            }
          },
          {
            "validator_address": "1E9CE94FD0BA5CFEB901F90BC658D64D85B134D2",
            "validator_index": "10",
            "height": "53874",
            "round": "1",
            "timestamp": "2018-08-03T01:03:54.467865967Z",
            "type": 2,
            "block_id": {
              "hash": "7D7CCDD6E66E21180DBDE810477FF5DC5C456444",
              "parts": {
                "total": "1",
                "hash": "6BC801DCF0CDE00BE023C402F40F1A661DB33370"
              }
            },
            "signature": {
              "type": "tendermint/SignatureEd25519",
              "value": "bq/bDBMJZYPPKmTPA2shS8G/5q9r/Uo4RmWSnhiD7AjncGKBwS8uo2pL+7rvsBVW+4RhOxEvlFEBkk07Ff0ABg=="
            }
          },
          {
            "validator_address": "1ECD8C5FE1341D74CDC633A245DD56858DE2F9A2",
            "validator_index": "11",
            "height": "53874",
            "round": "1",
            "timestamp": "2018-08-03T01:03:54.599922851Z",
            "type": 2,
            "block_id": {
              "hash": "7D7CCDD6E66E21180DBDE810477FF5DC5C456444",
              "parts": {
                "total": "1",
                "hash": "6BC801DCF0CDE00BE023C402F40F1A661DB33370"
              }
            },
            "signature": {
              "type": "tendermint/SignatureEd25519",
              "value": "Q6T3PKb6kiZ/BtcShWSh2fN4NdSA7L55z/WKJvIABaXyKTM71K7+dUWUodsXyEUjqJs37EL8brCItNngnHuECQ=="
            }
          },
          {
            "validator_address": "1F3A68CAAD483768AA2BF667DEF10F7104C89928",
            "validator_index": "12",
            "height": "53874",
            "round": "1",
            "timestamp": "2018-08-03T01:03:54.531166696Z",
            "type": 2,
            "block_id": {
              "hash": "7D7CCDD6E66E21180DBDE810477FF5DC5C456444",
              "parts": {
                "total": "1",
                "hash": "6BC801DCF0CDE00BE023C402F40F1A661DB33370"
              }
            },
            "signature": {
              "type": "tendermint/SignatureEd25519",
              "value": "iYAnIQbpLouasAIIiGWPg8px+xCK/Q9sVLNiXxhg5kHVyU5iOciMBrp7naARmTKofPRqNoXy2sQFPOpdewZcAA=="
            }
          },
          {
            "validator_address": "1F61153F26C2DF27E15874268D30326287323352",
            "validator_index": "13",
            "height": "53874",
            "round": "1",
            "timestamp": "2018-08-03T01:03:54.562033239Z",
            "type": 2,
            "block_id": {
              "hash": "7D7CCDD6E66E21180DBDE810477FF5DC5C456444",
              "parts": {
                "total": "1",
                "hash": "6BC801DCF0CDE00BE023C402F40F1A661DB33370"
              }
            },
            "signature": {
              "type": "tendermint/SignatureEd25519",
              "value": "lcADOG6zvpZ+Lm43pNQEdeR//IV/Fj+cPjZbWcmmVuPI+yQ6u3Fl70MURJHlZxnRLSheHoQiZwXhNU6Mc2YkAA=="
            }
          },
          {
            "validator_address": "23897586D68E2AC1C78E0EF5BB5DF5C8EAB18F50",
            "validator_index": "14",
            "height": "53874",
            "round": "1",
            "timestamp": "2018-08-03T01:03:54.475560668Z",
            "type": 2,
            "block_id": {
              "hash": "7D7CCDD6E66E21180DBDE810477FF5DC5C456444",
              "parts": {
                "total": "1",
                "hash": "6BC801DCF0CDE00BE023C402F40F1A661DB33370"
              }
            },
            "signature": {
              "type": "tendermint/SignatureEd25519",
              "value": "9xfzcuE5nobdYESvviQET4yjHxFXL/ZkDUl1EJYgrMvb54n6uEiPtrN5Fll3ZuctBfJYNJFbF6GEzQDqYg2uBw=="
            }
          },
          {
            "validator_address": "28770D17E8530825E7310A0659308654B7EC9682",
            "validator_index": "15",
            "height": "53874",
            "round": "1",
            "timestamp": "2018-08-03T01:03:54.460943227Z",
            "type": 2,
            "block_id": {
              "hash": "7D7CCDD6E66E21180DBDE810477FF5DC5C456444",
              "parts": {
                "total": "1",
                "hash": "6BC801DCF0CDE00BE023C402F40F1A661DB33370"
              }
            },
            "signature": {
              "type": "tendermint/SignatureEd25519",
              "value": "1dXjdKS+1XCj0s4ppNQObxCZli8VEToFL+qyXiravzrK55d//PHpHX95eKoQ7j4VFLKyxoVo6bhQGlZ//YbwAw=="
            }
          },
          {
            "validator_address": "2A92EC3C642140202298D0E245095E0ECFC25228",
            "validator_index": "16",
            "height": "53874",
            "round": "1",
            "timestamp": "2018-08-03T01:03:54.551662771Z",
            "type": 2,
            "block_id": {
              "hash": "7D7CCDD6E66E21180DBDE810477FF5DC5C456444",
              "parts": {
                "total": "1",
                "hash": "6BC801DCF0CDE00BE023C402F40F1A661DB33370"
              }
            },
            "signature": {
              "type": "tendermint/SignatureEd25519",
              "value": "N38eLuBWgvOlLbXKIAxQ5HtMY7JpWQyY54SpUNEoey1HCYq2oayZnl8n2k065poHN3OjAs6qEouTooiFAbTADA=="
            }
          },
          {
            "validator_address": "33412C9A69C60CB0FAA24A5C5B3A906DE24B47C2",
            "validator_index": "17",
            "height": "53874",
            "round": "1",
            "timestamp": "2018-08-03T01:03:54.552188735Z",
            "type": 2,
            "block_id": {
              "hash": "7D7CCDD6E66E21180DBDE810477FF5DC5C456444",
              "parts": {
                "total": "1",
                "hash": "6BC801DCF0CDE00BE023C402F40F1A661DB33370"
              }
            },
            "signature": {
              "type": "tendermint/SignatureEd25519",
              "value": "IO3jWW6YasiwQRlFjGQeQFzDHNNo74nXxvtRZukVrfk3yRaHnzEq3OW5VF7RXhy70/azW9lA2dstR+1cbZUxBg=="
            }
          },
          {
            "validator_address": "36E9B7FAEC964F97D84C028ED62493E373AD0B38",
            "validator_index": "18",
            "height": "53874",
            "round": "1",
            "timestamp": "2018-08-03T01:03:54.592956517Z",
            "type": 2,
            "block_id": {
              "hash": "7D7CCDD6E66E21180DBDE810477FF5DC5C456444",
              "parts": {
                "total": "1",
                "hash": "6BC801DCF0CDE00BE023C402F40F1A661DB33370"
              }
            },
            "signature": {
              "type": "tendermint/SignatureEd25519",
              "value": "jQgKhJEp4x5DYZXq0K8CaRhOmIK7t50tz6Y68baZvagJZZVyM2Y/tYIoMEZIaq24SE2ROFnvPCmty0PjONr7Ag=="
            }
          },
          {
            "validator_address": "38A8D85D36BEA2E5FCF8A1E778F53628E450EF13",
            "validator_index": "19",
            "height": "53874",
            "round": "1",
            "timestamp": "2018-08-03T01:03:54.664510059Z",
            "type": 2,
            "block_id": {
              "hash": "7D7CCDD6E66E21180DBDE810477FF5DC5C456444",
              "parts": {
                "total": "1",
                "hash": "6BC801DCF0CDE00BE023C402F40F1A661DB33370"
              }
            },
            "signature": {
              "type": "tendermint/SignatureEd25519",
              "value": "9zkJ81w0FI4Yqu8JzZYXWaRqUa3FSwDf034LSKzGyuPFbQurh0QgHMttU3OuzcI3RQsKMzY7Xn+r05YO4uDMDw=="
            }
          },
          {
            "validator_address": "39DFDA0C5DB84B269642188B23253508537798E6",
            "validator_index": "20",
            "height": "53874",
            "round": "1",
            "timestamp": "2018-08-03T01:03:54.429967001Z",
            "type": 2,
            "block_id": {
              "hash": "7D7CCDD6E66E21180DBDE810477FF5DC5C456444",
              "parts": {
                "total": "1",
                "hash": "6BC801DCF0CDE00BE023C402F40F1A661DB33370"
              }
            },
            "signature": {
              "type": "tendermint/SignatureEd25519",
              "value": "2drsxtpggme2X/wbmKWeZkBNOTWZAIAyUqCF7Y6cNytsLIGtQWyegYrVoQ1AihFS8eewI5JkgJdLdRZIs7whDw=="
            }
          },
          {
            "validator_address": "3AC99B708404452366E0953A4BE849226DC86CBC",
            "validator_index": "21",
            "height": "53874",
            "round": "1",
            "timestamp": "2018-08-03T01:03:54.563425938Z",
            "type": 2,
            "block_id": {
              "hash": "7D7CCDD6E66E21180DBDE810477FF5DC5C456444",
              "parts": {
                "total": "1",
                "hash": "6BC801DCF0CDE00BE023C402F40F1A661DB33370"
              }
            },
            "signature": {
              "type": "tendermint/SignatureEd25519",
              "value": "ZmPZ3t1jeLhSCA3SMbfr4J/9/uJ6S8ilat6yuOSGWS/8LDBC4QLlQcoiueJxj6ffjhHReu/i+SmaVLmpFwEBCg=="
            }
          },
          {
            "validator_address": "3DCB822A10ED319EC7C4393D8E3FD4A41B15AAF2",
            "validator_index": "22",
            "height": "53874",
            "round": "1",
            "timestamp": "2018-08-03T01:03:54.489795619Z",
            "type": 2,
            "block_id": {
              "hash": "7D7CCDD6E66E21180DBDE810477FF5DC5C456444",
              "parts": {
                "total": "1",
                "hash": "6BC801DCF0CDE00BE023C402F40F1A661DB33370"
              }
            },
            "signature": {
              "type": "tendermint/SignatureEd25519",
              "value": "mJpwkKLDw4Efgepz3ITft7fIXrauuCJrQDVFaXw0xjiAGZv5HN9TDXFd81Jci2gcUwhWWRoidY9m1gm548kdBA=="
            }
          },
          {
            "validator_address": "3E899BA36A93C7370347BD5FE85909F2ECD93F8C",
            "validator_index": "23",
            "height": "53874",
            "round": "1",
            "timestamp": "2018-08-03T01:03:54.522409753Z",
            "type": 2,
            "block_id": {
              "hash": "7D7CCDD6E66E21180DBDE810477FF5DC5C456444",
              "parts": {
                "total": "1",
                "hash": "6BC801DCF0CDE00BE023C402F40F1A661DB33370"
              }
            },
            "signature": {
              "type": "tendermint/SignatureEd25519",
              "value": "ulDYW4aIqFlLpKcYjI5V5efktmUrk0+sBshJPTZpQAX02c5yXhZ+T5jwvnkBnMZsmKSmZuDiNRtl1+21JvuwAA=="
            }
          },
          {
            "validator_address": "41CAB2E29E7D0F2282E3275938F188FF9386B84C",
            "validator_index": "24",
            "height": "53874",
            "round": "1",
            "timestamp": "2018-08-03T01:03:54.518257695Z",
            "type": 2,
            "block_id": {
              "hash": "7D7CCDD6E66E21180DBDE810477FF5DC5C456444",
              "parts": {
                "total": "1",
                "hash": "6BC801DCF0CDE00BE023C402F40F1A661DB33370"
              }
            },
            "signature": {
              "type": "tendermint/SignatureEd25519",
              "value": "tVnnaOQyaoUnDty5Aci/R2RbakuPT0XxzxyAV30FhVTUgSWpALsMpPa/FsGJh7d3Bz3Q6uDkRzLYoSbe9VQsCw=="
            }
          },
          {
            "validator_address": "462B656869DB02A8FD1077E255F8CC7401DC37C6",
            "validator_index": "25",
            "height": "53874",
            "round": "1",
            "timestamp": "2018-08-03T01:03:54.47597575Z",
            "type": 2,
            "block_id": {
              "hash": "7D7CCDD6E66E21180DBDE810477FF5DC5C456444",
              "parts": {
                "total": "1",
                "hash": "6BC801DCF0CDE00BE023C402F40F1A661DB33370"
              }
            },
            "signature": {
              "type": "tendermint/SignatureEd25519",
              "value": "LK/BlWtGOd1HPzbrKR3GIbM5sFofH63Ak+xOte0qyppOEloXpKUIFPMU1BGnqDCtiMXv5p86E5qdZA5bo055CQ=="
            }
          },
          {
            "validator_address": "48E5118163E5442068A1B5A42D2EEDBB75724935",
            "validator_index": "26",
            "height": "53874",
            "round": "1",
            "timestamp": "2018-08-03T01:03:54.61053557Z",
            "type": 2,
            "block_id": {
              "hash": "7D7CCDD6E66E21180DBDE810477FF5DC5C456444",
              "parts": {
                "total": "1",
                "hash": "6BC801DCF0CDE00BE023C402F40F1A661DB33370"
              }
            },
            "signature": {
              "type": "tendermint/SignatureEd25519",
              "value": "9THMcQa7Zg/GWHalWVn2b9pZe5KTMURNQ2/3Y6m40Qf4A63kLft4iMN2tfNWmEPkJFcRvg8ZP4UJENz/X0lsDQ=="
            }
          },
          {
            "validator_address": "49103C58AFD9C7C069F55EBA218F3DFD9AEA74F9",
            "validator_index": "27",
            "height": "53874",
            "round": "1",
            "timestamp": "2018-08-03T01:03:54.53720659Z",
            "type": 2,
            "block_id": {
              "hash": "7D7CCDD6E66E21180DBDE810477FF5DC5C456444",
              "parts": {
                "total": "1",
                "hash": "6BC801DCF0CDE00BE023C402F40F1A661DB33370"
              }
            },
            "signature": {
              "type": "tendermint/SignatureEd25519",
              "value": "8VlENf/jXEmIzqVstBLstA0dg/U9lES38JBHjFNsReAqjy3JUPfq4CPHpCua17pGgtrB85DijmUVosekBpaVAQ=="
            }
          },
          {
            "validator_address": "4944F8BBBB5303E17BC0607DF332320EDBC750EA",
            "validator_index": "28",
            "height": "53874",
            "round": "1",
            "timestamp": "2018-08-03T01:03:54.466962729Z",
            "type": 2,
            "block_id": {
              "hash": "7D7CCDD6E66E21180DBDE810477FF5DC5C456444",
              "parts": {
                "total": "1",
                "hash": "6BC801DCF0CDE00BE023C402F40F1A661DB33370"
              }
            },
            "signature": {
              "type": "tendermint/SignatureEd25519",
              "value": "HZeLXqkJJDGMCuEmMp8S23WcXxDly4NjtJT9weVmWhKH7qwBdQhkPn49miuaydg/eY2Z1Lgie3gurk0ivWixCg=="
            }
          },
          {
            "validator_address": "49841599DE675157CBE1E7D6B35BF8FFC23BD5CB",
            "validator_index": "29",
            "height": "53874",
            "round": "1",
            "timestamp": "2018-08-03T01:03:54.416384145Z",
            "type": 2,
            "block_id": {
              "hash": "7D7CCDD6E66E21180DBDE810477FF5DC5C456444",
              "parts": {
                "total": "1",
                "hash": "6BC801DCF0CDE00BE023C402F40F1A661DB33370"
              }
            },
            "signature": {
              "type": "tendermint/SignatureEd25519",
              "value": "aXppkmPJmj4clJcjmNTe5woezOnk4uuEXlB0DbAvPRuAuL8vA6chEqAMX6ONiDIkn/22X5z0ZPdSmLeRWtTyCQ=="
            }
          },
          {
            "validator_address": "51386C2CF9556821D114D7E4945806802BADB28D",
            "validator_index": "30",
            "height": "53874",
            "round": "1",
            "timestamp": "2018-08-03T01:03:54.511727637Z",
            "type": 2,
            "block_id": {
              "hash": "7D7CCDD6E66E21180DBDE810477FF5DC5C456444",
              "parts": {
                "total": "1",
                "hash": "6BC801DCF0CDE00BE023C402F40F1A661DB33370"
              }
            },
            "signature": {
              "type": "tendermint/SignatureEd25519",
              "value": "gjV8MuElQ0gDg2HCOy/vfS0UB7F2X9GXChO+gvsz9irf0h9Ll+Hv+FV0gtLxHctSC88wdnBc1Ehx4S3NdoSDCg=="
            }
          },
          {
            "validator_address": "543564ECA3AFEFADC73EE8591AAC3A96F079BC8A",
            "validator_index": "31",
            "height": "53874",
            "round": "1",
            "timestamp": "2018-08-03T01:03:54.458719366Z",
            "type": 2,
            "block_id": {
              "hash": "7D7CCDD6E66E21180DBDE810477FF5DC5C456444",
              "parts": {
                "total": "1",
                "hash": "6BC801DCF0CDE00BE023C402F40F1A661DB33370"
              }
            },
            "signature": {
              "type": "tendermint/SignatureEd25519",
              "value": "xsB4Lry54NljDTx1I11RYHshItVLxJxHvjnqUqeM5MfWAz0pcdNCB3cPCqRI20zDfIXVHmc90Br18IotSeW5AA=="
            }
          },
          {
            "validator_address": "55D67B1A6DC13E96F8754A5A42EABC20F7F86664",
            "validator_index": "32",
            "height": "53874",
            "round": "1",
            "timestamp": "2018-08-03T01:03:54.446155936Z",
            "type": 2,
            "block_id": {
              "hash": "7D7CCDD6E66E21180DBDE810477FF5DC5C456444",
              "parts": {
                "total": "1",
                "hash": "6BC801DCF0CDE00BE023C402F40F1A661DB33370"
              }
            },
            "signature": {
              "type": "tendermint/SignatureEd25519",
              "value": "sR62QWuMOlwJkPnwvTGoI4JjGnUP3TbLZWJyfHCm4EsYboGSKTKH+3bQneLo1yaQBBvb7JfYWn5iofE2acXtAQ=="
            }
          },
          {
            "validator_address": "570B6A755ED339EAC56BB3390A48069F6AC9449B",
            "validator_index": "33",
            "height": "53874",
            "round": "1",
            "timestamp": "2018-08-03T01:04:05.750116981Z",
            "type": 2,
            "block_id": {
              "hash": "7D7CCDD6E66E21180DBDE810477FF5DC5C456444",
              "parts": {
                "total": "1",
                "hash": "6BC801DCF0CDE00BE023C402F40F1A661DB33370"
              }
            },
            "signature": {
              "type": "tendermint/SignatureEd25519",
              "value": "uST32Zx2IHdE3CbkS0/4gk3+cZaoPrSpZZ0NcuMwHKiwpozoKZ6dXL51Z3+z3XPGnITJPRCuxzeTtj9q3gdnAA=="
            }
          },
          {
            "validator_address": "5BDF8EA41B1835FBAD865B181A2A4B23F511B5E4",
            "validator_index": "34",
            "height": "53874",
            "round": "1",
            "timestamp": "2018-08-03T01:03:54.487658944Z",
            "type": 2,
            "block_id": {
              "hash": "7D7CCDD6E66E21180DBDE810477FF5DC5C456444",
              "parts": {
                "total": "1",
                "hash": "6BC801DCF0CDE00BE023C402F40F1A661DB33370"
              }
            },
            "signature": {
              "type": "tendermint/SignatureEd25519",
              "value": "WA80+nHGO8OPOK0yxpb+HWOu75fdGA/PmSxD7dtu/dxoD22tg6lZ/9Pw/ZyVPbpEDIBdSrsJuQRAWEywxwFGDQ=="
            }
          },
          {
            "validator_address": "60229E2E273297FE00219E46DFFB8F76844CDEF9",
            "validator_index": "35",
            "height": "53874",
            "round": "1",
            "timestamp": "2018-08-03T01:03:51.499240475Z",
            "type": 2,
            "block_id": {
              "hash": "7D7CCDD6E66E21180DBDE810477FF5DC5C456444",
              "parts": {
                "total": "1",
                "hash": "6BC801DCF0CDE00BE023C402F40F1A661DB33370"
              }
            },
            "signature": {
              "type": "tendermint/SignatureEd25519",
              "value": "SqLHjcHI5Vg1qIbFDslDPxkientY32eHRTREXKsivCq6OHJX7LGX/MJPVV4Ls/pelmqbY3Q89fiBkOo4EKgADw=="
            }
          },
          {
            "validator_address": "62410D6D1CD98278136E4D0738AA0EA273CDFC54",
            "validator_index": "36",
            "height": "53874",
            "round": "1",
            "timestamp": "2018-08-03T01:03:54.49452358Z",
            "type": 2,
            "block_id": {
              "hash": "7D7CCDD6E66E21180DBDE810477FF5DC5C456444",
              "parts": {
                "total": "1",
                "hash": "6BC801DCF0CDE00BE023C402F40F1A661DB33370"
              }
            },
            "signature": {
              "type": "tendermint/SignatureEd25519",
              "value": "48nhgYJR9nozLavvQT3LJONgrY0gwFxb8yALP9rGNoAB2sefaJixnWxLgTaNXEaeYcHkmecOu5dtLwuXWpJCBg=="
            }
          },
          {
            "validator_address": "632F5C139A5A9DFBFE5111DEE29FCFB6157207DC",
            "validator_index": "37",
            "height": "53874",
            "round": "1",
            "timestamp": "2018-08-03T01:03:54.496027633Z",
            "type": 2,
            "block_id": {
              "hash": "7D7CCDD6E66E21180DBDE810477FF5DC5C456444",
              "parts": {
                "total": "1",
                "hash": "6BC801DCF0CDE00BE023C402F40F1A661DB33370"
              }
            },
            "signature": {
              "type": "tendermint/SignatureEd25519",
              "value": "H55YF4DDxZO34FMpVIbOBu3sa66TmA4MV4cI6MAYFlenyR0UT5U7cV/Vni0eBDKvBtyUjkM6Fyh6WEF9jGSTBA=="
            }
          },
          {
            "validator_address": "64F57F8E796A9B7B590C1EFA4123988C86631D39",
            "validator_index": "38",
            "height": "53874",
            "round": "1",
            "timestamp": "2018-08-03T01:03:54.483908192Z",
            "type": 2,
            "block_id": {
              "hash": "7D7CCDD6E66E21180DBDE810477FF5DC5C456444",
              "parts": {
                "total": "1",
                "hash": "6BC801DCF0CDE00BE023C402F40F1A661DB33370"
              }
            },
            "signature": {
              "type": "tendermint/SignatureEd25519",
              "value": "RAcl1l+TSpcL25Yw2xQ1ZtLWJWiJhvZyLBuXpqsYoHLtc3ZN1f5KNfIyYGkQEU8PYHkk7Ix8W+B65YaUMghvCQ=="
            }
          },
          {
            "validator_address": "69D99B2C66043ACBEAA8447525C356AFC6408E0C",
            "validator_index": "39",
            "height": "53874",
            "round": "1",
            "timestamp": "2018-08-03T01:03:54.588873671Z",
            "type": 2,
            "block_id": {
              "hash": "7D7CCDD6E66E21180DBDE810477FF5DC5C456444",
              "parts": {
                "total": "1",
                "hash": "6BC801DCF0CDE00BE023C402F40F1A661DB33370"
              }
            },
            "signature": {
              "type": "tendermint/SignatureEd25519",
              "value": "UpdcEUnWkknJYmq9pQJLiVfEGmMEHH3U1z5/0HrdjFpa1URFGCc1JDDFdIR+LMDbp7iJliL3KFIoEjzmDJH6BQ=="
            }
          },
          {
            "validator_address": "69EDADFA4A803E9DBF548C900D4A465E7D154262",
            "validator_index": "40",
            "height": "53874",
            "round": "1",
            "timestamp": "2018-08-03T01:03:54.606119587Z",
            "type": 2,
            "block_id": {
              "hash": "7D7CCDD6E66E21180DBDE810477FF5DC5C456444",
              "parts": {
                "total": "1",
                "hash": "6BC801DCF0CDE00BE023C402F40F1A661DB33370"
              }
            },
            "signature": {
              "type": "tendermint/SignatureEd25519",
              "value": "hxnfoNAtR6qwYW8y5YOWjWYXtNlw/wakboHnGoWfET+N4iqoJ/xjrHwfSXribuyaI1LMn51QOF97ogJuqcv+Cg=="
            }
          },
          {
            "validator_address": "6D3AD380E398D8592B03AA124BAFED5F125DF863",
            "validator_index": "41",
            "height": "53874",
            "round": "1",
            "timestamp": "2018-08-03T01:02:51.657291513Z",
            "type": 2,
            "block_id": {
              "hash": "7D7CCDD6E66E21180DBDE810477FF5DC5C456444",
              "parts": {
                "total": "1",
                "hash": "6BC801DCF0CDE00BE023C402F40F1A661DB33370"
              }
            },
            "signature": {
              "type": "tendermint/SignatureEd25519",
              "value": "Gsr0sZJFw5XenumELre/LSz7hAVnTc/r0Y9nR6GFCd4egigzPLvQFXeClWx9Eyi5G6YnMmE95CVuhfz/4nZLCg=="
            }
          },
          {
            "validator_address": "6F6C93B8BF3495063FEC9B5C771158607F4AE9D6",
            "validator_index": "42",
            "height": "53874",
            "round": "1",
            "timestamp": "2018-08-03T01:03:54.560743033Z",
            "type": 2,
            "block_id": {
              "hash": "7D7CCDD6E66E21180DBDE810477FF5DC5C456444",
              "parts": {
                "total": "1",
                "hash": "6BC801DCF0CDE00BE023C402F40F1A661DB33370"
              }
            },
            "signature": {
              "type": "tendermint/SignatureEd25519",
              "value": "h2zH7b8X4zPdiWLgm+zyvQS3qzFIvYQtKtcFpvVs0LQhZxcv8S7O78RDWdV6a7kysNCTe1QX0wwHV4Nmm4TpAQ=="
            }
          },
          {
            "validator_address": "732CEEF54C374DDC6ADECBFD707AEFD07FEDC143",
            "validator_index": "43",
            "height": "53874",
            "round": "1",
            "timestamp": "2018-08-03T01:03:54.579020307Z",
            "type": 2,
            "block_id": {
              "hash": "7D7CCDD6E66E21180DBDE810477FF5DC5C456444",
              "parts": {
                "total": "1",
                "hash": "6BC801DCF0CDE00BE023C402F40F1A661DB33370"
              }
            },
            "signature": {
              "type": "tendermint/SignatureEd25519",
              "value": "K37CJh6GsfUMzublFTlIi0qOJ/ViL6gE8kvQX568ZsVRbYvDR4grQ5NDQgUCPmK67LzAIimZYZN3UdAySzF0Bw=="
            }
          },
          {
            "validator_address": "751E43437224E8BB6D1569B3E2B2616B6E7F4397",
            "validator_index": "44",
            "height": "53874",
            "round": "1",
            "timestamp": "2018-08-03T01:03:54.492932079Z",
            "type": 2,
            "block_id": {
              "hash": "7D7CCDD6E66E21180DBDE810477FF5DC5C456444",
              "parts": {
                "total": "1",
                "hash": "6BC801DCF0CDE00BE023C402F40F1A661DB33370"
              }
            },
            "signature": {
              "type": "tendermint/SignatureEd25519",
              "value": "Kr4qF7j8F/WY0v97dXTakfq4jPrLcSTZqHKT2+OEBNBNHyrhFoRXns1pQ8m93lVus4vG9QqIAG6DtQJF78StAA=="
            }
          },
          {
            "validator_address": "7EB7593F519F1180C7E872D0494611464EDF03AE",
            "validator_index": "45",
            "height": "53874",
            "round": "1",
            "timestamp": "2018-08-03T01:03:54.567636138Z",
            "type": 2,
            "block_id": {
              "hash": "7D7CCDD6E66E21180DBDE810477FF5DC5C456444",
              "parts": {
                "total": "1",
                "hash": "6BC801DCF0CDE00BE023C402F40F1A661DB33370"
              }
            },
            "signature": {
              "type": "tendermint/SignatureEd25519",
              "value": "ES1vlV660pplv45MJrLsGI8zFWFINC8/eHvigG1IPj0QY6pIe5ysk+JLIhxfbwEtqSzAs3IKY/4nFQkatid/CA=="
            }
          },
          {
            "validator_address": "807CF675BA8479FC4FEC1047215DF07970040F1F",
            "validator_index": "46",
            "height": "53874",
            "round": "1",
            "timestamp": "2018-08-03T01:03:54.803610677Z",
            "type": 2,
            "block_id": {
              "hash": "7D7CCDD6E66E21180DBDE810477FF5DC5C456444",
              "parts": {
                "total": "1",
                "hash": "6BC801DCF0CDE00BE023C402F40F1A661DB33370"
              }
            },
            "signature": {
              "type": "tendermint/SignatureEd25519",
              "value": "jGveSzHeHtpZET/Bxuxu9gW3Z7lV3cf4ynam0lbUAsOGTb2miEPzxWHfgJQ7bRZA/SfNlkruW1JKFewpKTOQDg=="
            }
          },
          null,
          {
            "validator_address": "83AB321E012C57746689FED3A6064DF331F81007",
            "validator_index": "48",
            "height": "53874",
            "round": "1",
            "timestamp": "2018-08-03T01:03:54.487836408Z",
            "type": 2,
            "block_id": {
              "hash": "7D7CCDD6E66E21180DBDE810477FF5DC5C456444",
              "parts": {
                "total": "1",
                "hash": "6BC801DCF0CDE00BE023C402F40F1A661DB33370"
              }
            },
            "signature": {
              "type": "tendermint/SignatureEd25519",
              "value": "mujiSZbK4rn3m/ypJD1oIceM+GbiXiLyADR0fVAYxRPtXMiojiQlDtZK/EdPXi7/n0xGCD50WGbRzIclY1tpCg=="
            }
          },
          {
            "validator_address": "83BB1B88D3DBB20AD845FECA07749EBD87D3754D",
            "validator_index": "49",
            "height": "53874",
            "round": "1",
            "timestamp": "2018-08-03T01:03:54.659720902Z",
            "type": 2,
            "block_id": {
              "hash": "7D7CCDD6E66E21180DBDE810477FF5DC5C456444",
              "parts": {
                "total": "1",
                "hash": "6BC801DCF0CDE00BE023C402F40F1A661DB33370"
              }
            },
            "signature": {
              "type": "tendermint/SignatureEd25519",
              "value": "kS64Lf+61/JTdFvK0uAlPLa1+4c8cBzvkvMgiNQWh1NIFGhF5UsX3IEpf3hEA+eFX+fBd4LOMKsthTAkeOBoCQ=="
            }
          },
          {
            "validator_address": "86DDBEEF35D35786A68834B34869174AC314BB74",
            "validator_index": "50",
            "height": "53874",
            "round": "1",
            "timestamp": "2018-08-03T01:03:54.481951521Z",
            "type": 2,
            "block_id": {
              "hash": "7D7CCDD6E66E21180DBDE810477FF5DC5C456444",
              "parts": {
                "total": "1",
                "hash": "6BC801DCF0CDE00BE023C402F40F1A661DB33370"
              }
            },
            "signature": {
              "type": "tendermint/SignatureEd25519",
              "value": "GRLLceSnpK6JMvm5Wy0QUUI93tLtGKOhxxy7NyvCLVoLpRtxGEWOyhMM3y+aqxizoOLg4HQMen4PE8uUmLX3CQ=="
            }
          },
          {
            "validator_address": "8F06FE1FD042683C426137FBC4BBAA4288924217",
            "validator_index": "51",
            "height": "53874",
            "round": "1",
            "timestamp": "2018-08-03T01:03:54.524206718Z",
            "type": 2,
            "block_id": {
              "hash": "7D7CCDD6E66E21180DBDE810477FF5DC5C456444",
              "parts": {
                "total": "1",
                "hash": "6BC801DCF0CDE00BE023C402F40F1A661DB33370"
              }
            },
            "signature": {
              "type": "tendermint/SignatureEd25519",
              "value": "Bpdi3GXzfJ7HyeCn15fbFMO7uTKSYg/SK8wQPyfI+9UzMzeTh/10TUQdT+aNy2Ov5DZzhKAiBnqSOTr735WDCQ=="
            }
          },
          {
            "validator_address": "95980831E186F2540F6E9FB6C8E74DE2401405AC",
            "validator_index": "52",
            "height": "53874",
            "round": "1",
            "timestamp": "2018-08-03T01:03:54.542038558Z",
            "type": 2,
            "block_id": {
              "hash": "7D7CCDD6E66E21180DBDE810477FF5DC5C456444",
              "parts": {
                "total": "1",
                "hash": "6BC801DCF0CDE00BE023C402F40F1A661DB33370"
              }
            },
            "signature": {
              "type": "tendermint/SignatureEd25519",
              "value": "MSVjGLO47iYmyp7Q3OQ4Q+s6u51Ui0i2D0aGBW9PLI9iRUExl8J78v3y52ZjRaWwY6qfns9UuCSnxg/TvnnYAg=="
            }
          },
          {
            "validator_address": "95FAFBC1E0579C83D290A063020CE87C5334BD9B",
            "validator_index": "53",
            "height": "53874",
            "round": "1",
            "timestamp": "2018-08-03T01:03:54.491510509Z",
            "type": 2,
            "block_id": {
              "hash": "7D7CCDD6E66E21180DBDE810477FF5DC5C456444",
              "parts": {
                "total": "1",
                "hash": "6BC801DCF0CDE00BE023C402F40F1A661DB33370"
              }
            },
            "signature": {
              "type": "tendermint/SignatureEd25519",
              "value": "+29rAFyLFY87W1hgucGWPw6KIqRxNHCzsB2I2SvPbsaIrmFfdxhKWKRaUTNjMMwyTEsTbDF9tGq+VrvkUAULAg=="
            }
          },
          {
            "validator_address": "96BDE45EC52606CF5CB59853097871AD60680549",
            "validator_index": "54",
            "height": "53874",
            "round": "1",
            "timestamp": "2018-08-03T01:03:54.525362224Z",
            "type": 2,
            "block_id": {
              "hash": "7D7CCDD6E66E21180DBDE810477FF5DC5C456444",
              "parts": {
                "total": "1",
                "hash": "6BC801DCF0CDE00BE023C402F40F1A661DB33370"
              }
            },
            "signature": {
              "type": "tendermint/SignatureEd25519",
              "value": "QCAISkTqifuET9TAW7QJwRcng5c7efNL/I8XVT2oRCuilF/LMO7kgj+uDpY9dg5ZvjON0yOSNk2vpf3ha4LtAg=="
            }
          },
          {
            "validator_address": "970CD321881185BF83DB2923C321B0E75FDBB2B8",
            "validator_index": "55",
            "height": "53874",
            "round": "1",
            "timestamp": "2018-08-03T01:03:54.592677019Z",
            "type": 2,
            "block_id": {
              "hash": "7D7CCDD6E66E21180DBDE810477FF5DC5C456444",
              "parts": {
                "total": "1",
                "hash": "6BC801DCF0CDE00BE023C402F40F1A661DB33370"
              }
            },
            "signature": {
              "type": "tendermint/SignatureEd25519",
              "value": "66G7fL3XIbqgSgfDBkQeW87tdWcCD3yPwSVeqX7G2S1TFgzWT8CtjUUeUitHO5HN3BP/Zs48GItYaGDKXGaHCg=="
            }
          },
          {
            "validator_address": "97DBB3D4B3D6C29287244864448F651DD5B07390",
            "validator_index": "56",
            "height": "53874",
            "round": "1",
            "timestamp": "2018-08-03T01:03:54.593909255Z",
            "type": 2,
            "block_id": {
              "hash": "7D7CCDD6E66E21180DBDE810477FF5DC5C456444",
              "parts": {
                "total": "1",
                "hash": "6BC801DCF0CDE00BE023C402F40F1A661DB33370"
              }
            },
            "signature": {
              "type": "tendermint/SignatureEd25519",
              "value": "jQBzKQ01wxfyvFdxgixndwSBt+wW4VZ04skukxbPPoDY0PVWJP6crvAbZHdKv2OMQ2bChNboWiRHEQcWTgUvAw=="
            }
          },
          {
            "validator_address": "9C29C9B76D27586E4D9AD2AED0E943162645E55C",
            "validator_index": "57",
            "height": "53874",
            "round": "1",
            "timestamp": "2018-08-03T01:03:54.475001291Z",
            "type": 2,
            "block_id": {
              "hash": "7D7CCDD6E66E21180DBDE810477FF5DC5C456444",
              "parts": {
                "total": "1",
                "hash": "6BC801DCF0CDE00BE023C402F40F1A661DB33370"
              }
            },
            "signature": {
              "type": "tendermint/SignatureEd25519",
              "value": "+s7QSLviDvhEnRnhlfMsxv0SDNkQ+MZ7uaskHu5Jnu5An80yOeCDabhKQiDb1MTY2NCsilsqaIWq2uthbPreDA=="
            }
          },
          {
            "validator_address": "9D93AD02FE1BD7E76B9E58D7EB461088EAD011E5",
            "validator_index": "58",
            "height": "53874",
            "round": "1",
            "timestamp": "2018-08-03T01:03:54.470760875Z",
            "type": 2,
            "block_id": {
              "hash": "7D7CCDD6E66E21180DBDE810477FF5DC5C456444",
              "parts": {
                "total": "1",
                "hash": "6BC801DCF0CDE00BE023C402F40F1A661DB33370"
              }
            },
            "signature": {
              "type": "tendermint/SignatureEd25519",
              "value": "2vkGTU82El2m/9Nm2/PLvi28LiraF8E0eqsIw2E44wHIqD63jjUQlo0OyYViFdq6Iiw5Jzk3jzEHAcjig4Y1AA=="
            }
          },
          {
            "validator_address": "A0A6466F4ABEA09C3B55E3709AFDE217A103209F",
            "validator_index": "59",
            "height": "53874",
            "round": "1",
            "timestamp": "2018-08-03T01:03:54.48088057Z",
            "type": 2,
            "block_id": {
              "hash": "7D7CCDD6E66E21180DBDE810477FF5DC5C456444",
              "parts": {
                "total": "1",
                "hash": "6BC801DCF0CDE00BE023C402F40F1A661DB33370"
              }
            },
            "signature": {
              "type": "tendermint/SignatureEd25519",
              "value": "Njh8S+NMMcLD0zvfejE9/f+GP10RVpY35RI1v0V3zk8EC8kKYLCq65N1kfzGT5e+rAQd5vJf3pUwkCeEnrGAAw=="
            }
          },
          {
            "validator_address": "A5868971300F155020634D7BB49C7634F7AACCD3",
            "validator_index": "60",
            "height": "53874",
            "round": "1",
            "timestamp": "2018-08-03T01:03:54.489722084Z",
            "type": 2,
            "block_id": {
              "hash": "7D7CCDD6E66E21180DBDE810477FF5DC5C456444",
              "parts": {
                "total": "1",
                "hash": "6BC801DCF0CDE00BE023C402F40F1A661DB33370"
              }
            },
            "signature": {
              "type": "tendermint/SignatureEd25519",
              "value": "vW1T9LEmb0J6eeVCD9nMj31gaWpe5upMP+DBLte/8B9yUbwfAA56/I6PxiMfeCrIraxekFf5uXEUADIY1TG2Bw=="
            }
          },
          {
            "validator_address": "A6B3A5B5D982CFD7B5FDFA15CF5A720E7AE25E7F",
            "validator_index": "61",
            "height": "53874",
            "round": "1",
            "timestamp": "2018-08-03T01:03:54.982096728Z",
            "type": 2,
            "block_id": {
              "hash": "7D7CCDD6E66E21180DBDE810477FF5DC5C456444",
              "parts": {
                "total": "1",
                "hash": "6BC801DCF0CDE00BE023C402F40F1A661DB33370"
              }
            },
            "signature": {
              "type": "tendermint/SignatureEd25519",
              "value": "S3eId31HtuB/uds8CBKaXOGE38T1FlyUx62Kx+MFG4szy5J3Nq/ZCoIy0PR6+igswCXG77rdrkz+vky7XLPSCg=="
            }
          },
          {
            "validator_address": "AC96444A9083890B7C7B430DB17BF1D3EA5EED04",
            "validator_index": "62",
            "height": "53874",
            "round": "1",
            "timestamp": "2018-08-03T01:03:54.555441143Z",
            "type": 2,
            "block_id": {
              "hash": "7D7CCDD6E66E21180DBDE810477FF5DC5C456444",
              "parts": {
                "total": "1",
                "hash": "6BC801DCF0CDE00BE023C402F40F1A661DB33370"
              }
            },
            "signature": {
              "type": "tendermint/SignatureEd25519",
              "value": "lvbaEEBL9T7RqWolN5qx6LGxijnXD1YGhyK8uoRtTye7R1z/qhaPsxp+Za1GNvNte4II8dmhImiEFgI+xxWNDg=="
            }
          },
          {
            "validator_address": "B197425B3210375F211661DE02EF2AE36580EB0F",
            "validator_index": "63",
            "height": "53874",
            "round": "1",
            "timestamp": "2018-08-03T01:03:54.50233898Z",
            "type": 2,
            "block_id": {
              "hash": "7D7CCDD6E66E21180DBDE810477FF5DC5C456444",
              "parts": {
                "total": "1",
                "hash": "6BC801DCF0CDE00BE023C402F40F1A661DB33370"
              }
            },
            "signature": {
              "type": "tendermint/SignatureEd25519",
              "value": "dQT50T8wyD6Bn8oSj41UrsfUje+8taDNT2Ni9IdXnE0cljhCl7ATD+ohFYpRlrGIIuuthJRPNg9srdZGrnzkDg=="
            }
          },
          {
            "validator_address": "B45E54D2D1CB5A4CCD1D49016608C18E7C56B270",
            "validator_index": "64",
            "height": "53874",
            "round": "1",
            "timestamp": "2018-08-03T01:03:54.530810719Z",
            "type": 2,
            "block_id": {
              "hash": "7D7CCDD6E66E21180DBDE810477FF5DC5C456444",
              "parts": {
                "total": "1",
                "hash": "6BC801DCF0CDE00BE023C402F40F1A661DB33370"
              }
            },
            "signature": {
              "type": "tendermint/SignatureEd25519",
              "value": "YzqqZVlt670HwXiKpOSCeqic2N+lIBcpkS6X4yP9aQ+UJqNwCLTM3TPcdEKNU3ZEi9QcGbiX9pfrtAD8AdNnAQ=="
            }
          },
          {
            "validator_address": "BB1276BE89834835428664408917649FEEF5D90C",
            "validator_index": "65",
            "height": "53874",
            "round": "1",
            "timestamp": "2018-08-03T01:03:54.600881056Z",
            "type": 2,
            "block_id": {
              "hash": "7D7CCDD6E66E21180DBDE810477FF5DC5C456444",
              "parts": {
                "total": "1",
                "hash": "6BC801DCF0CDE00BE023C402F40F1A661DB33370"
              }
            },
            "signature": {
              "type": "tendermint/SignatureEd25519",
              "value": "l15wqKrMqap3uU3Ewl7pfSxsnPwlgQ28z8AgEU1JK4zKYWVRVVlMvFNajCvEhOEyPJuAQcxt84NxrxTCQokUAw=="
            }
          },
          {
            "validator_address": "BC36FEDD6EF6071118A3E51859DF3831A2EC4782",
            "validator_index": "66",
            "height": "53874",
            "round": "1",
            "timestamp": "2018-08-03T01:03:54.57858065Z",
            "type": 2,
            "block_id": {
              "hash": "7D7CCDD6E66E21180DBDE810477FF5DC5C456444",
              "parts": {
                "total": "1",
                "hash": "6BC801DCF0CDE00BE023C402F40F1A661DB33370"
              }
            },
            "signature": {
              "type": "tendermint/SignatureEd25519",
              "value": "ZUJ0I1lYnh+Gv2efJ0ObRgKR8Onc/umDOHOgduvkt4NthQyM/gE+H1lnFoy7IQhetanlCdR4/mtwkjyXX5cwBQ=="
            }
          },
          {
            "validator_address": "BD9D0DA513BF099DB4BB6E725A4E19832789882F",
            "validator_index": "67",
            "height": "53874",
            "round": "1",
            "timestamp": "2018-08-03T01:03:54.532721395Z",
            "type": 2,
            "block_id": {
              "hash": "7D7CCDD6E66E21180DBDE810477FF5DC5C456444",
              "parts": {
                "total": "1",
                "hash": "6BC801DCF0CDE00BE023C402F40F1A661DB33370"
              }
            },
            "signature": {
              "type": "tendermint/SignatureEd25519",
              "value": "lkgD9Llu6AzkjsiExxGg8Ux8yeO8kls+fgY7r1mS/iC55yZickWcmxT8ehEA/ohCyDCh0zkVfNdrt1dhGEGECw=="
            }
          },
          {
            "validator_address": "C1134A2FF8F7338E7CDB3FE57DDD2A655DEB1E22",
            "validator_index": "68",
            "height": "53874",
            "round": "1",
            "timestamp": "2018-08-03T01:03:54.39212187Z",
            "type": 2,
            "block_id": {
              "hash": "7D7CCDD6E66E21180DBDE810477FF5DC5C456444",
              "parts": {
                "total": "1",
                "hash": "6BC801DCF0CDE00BE023C402F40F1A661DB33370"
              }
            },
            "signature": {
              "type": "tendermint/SignatureEd25519",
              "value": "uhE0wVVcUXVKhnn5siwHZs6+JwRmsJYdtpuWuuRh8ymwElAqjDOVZnIzROJUEsa1wXoTka8ppClqZJ2Vydd7Dw=="
            }
          },
          {
            "validator_address": "C39A8A2B85198DCB8F23AD1F6C198E2BA7AB5D60",
            "validator_index": "69",
            "height": "53874",
            "round": "1",
            "timestamp": "2018-08-03T01:03:54.452085488Z",
            "type": 2,
            "block_id": {
              "hash": "7D7CCDD6E66E21180DBDE810477FF5DC5C456444",
              "parts": {
                "total": "1",
                "hash": "6BC801DCF0CDE00BE023C402F40F1A661DB33370"
              }
            },
            "signature": {
              "type": "tendermint/SignatureEd25519",
              "value": "A2fQudEmj66ENHM168MXtW/zCC/vVUYXxD75lTRyAo9E5cd4CCwVawCiABPdibyF9JkcXeOTelPmK7IAPig2DQ=="
            }
          },
          {
            "validator_address": "C4335190C3B5BD4BA5568BC0F99C34162D940D08",
            "validator_index": "70",
            "height": "53874",
            "round": "1",
            "timestamp": "2018-08-03T01:03:54.570184732Z",
            "type": 2,
            "block_id": {
              "hash": "7D7CCDD6E66E21180DBDE810477FF5DC5C456444",
              "parts": {
                "total": "1",
                "hash": "6BC801DCF0CDE00BE023C402F40F1A661DB33370"
              }
            },
            "signature": {
              "type": "tendermint/SignatureEd25519",
              "value": "snnaXkbXaTfFn3a2zxRK+NbMwH+HQHmregAyW++9bMQ7ETuS1iM9hxtBUx2lPDFOHoYWDCq5O/7YynxEpM3rDA=="
            }
          },
          {
            "validator_address": "C561CFA081677046376396922E7576E5F7B316AD",
            "validator_index": "71",
            "height": "53874",
            "round": "1",
            "timestamp": "2018-08-03T01:03:54.538178063Z",
            "type": 2,
            "block_id": {
              "hash": "7D7CCDD6E66E21180DBDE810477FF5DC5C456444",
              "parts": {
                "total": "1",
                "hash": "6BC801DCF0CDE00BE023C402F40F1A661DB33370"
              }
            },
            "signature": {
              "type": "tendermint/SignatureEd25519",
              "value": "kAC2KGISqQgI/vlQ3FWVbzWLQ+ClfaIUfnx9hSrhE7FyM0F55jWAmTaLLC/EVJS3aUY8P9oZ/uTo487T/JcKBA=="
            }
          },
          {
            "validator_address": "CEB97DB5CB18270247ABDE6CF2F84F9AEE8A2904",
            "validator_index": "72",
            "height": "53874",
            "round": "1",
            "timestamp": "2018-08-03T01:03:55.848275253Z",
            "type": 2,
            "block_id": {
              "hash": "7D7CCDD6E66E21180DBDE810477FF5DC5C456444",
              "parts": {
                "total": "1",
                "hash": "6BC801DCF0CDE00BE023C402F40F1A661DB33370"
              }
            },
            "signature": {
              "type": "tendermint/SignatureEd25519",
              "value": "+/00pyJGXiGhtkd+33y1BYrAtL5+xHpk1LqSNykVrf+AGxCiAUcJe0y767HhttMhCsXsHQ9/6ux7+gdIPgjCCQ=="
            }
          },
          {
            "validator_address": "D2134B826A1E25A955905CB79A4D8731CAFA0CCE",
            "validator_index": "73",
            "height": "53874",
            "round": "1",
            "timestamp": "2018-08-03T01:03:54.577766618Z",
            "type": 2,
            "block_id": {
              "hash": "7D7CCDD6E66E21180DBDE810477FF5DC5C456444",
              "parts": {
                "total": "1",
                "hash": "6BC801DCF0CDE00BE023C402F40F1A661DB33370"
              }
            },
            "signature": {
              "type": "tendermint/SignatureEd25519",
              "value": "ZImN2JN++tgS7/KuwZjKcM2HZEfzmfb/aZNunst2Abh0FleutKLmwuUTD1LLFG5Jyg7pjBIx5roOVb+lgnNxCQ=="
            }
          },
          {
            "validator_address": "D6285C3422C8886445D53757CBE12D2B91B5A9D0",
            "validator_index": "74",
            "height": "53874",
            "round": "1",
            "timestamp": "2018-08-03T01:03:38.061607327Z",
            "type": 2,
            "block_id": {
              "hash": "7D7CCDD6E66E21180DBDE810477FF5DC5C456444",
              "parts": {
                "total": "1",
                "hash": "6BC801DCF0CDE00BE023C402F40F1A661DB33370"
              }
            },
            "signature": {
              "type": "tendermint/SignatureEd25519",
              "value": "tTpc18SFvEWfXA8mmGf0ZzQcPFLJ2p9doRAtv62ZwTsE/Mc7EWJJ1v4aQKJA9xbskUskpfG8JRPq+YYifaRcAg=="
            }
          },
          {
            "validator_address": "D77FB84A729972CD3E757C9BEB61561855832B92",
            "validator_index": "75",
            "height": "53874",
            "round": "1",
            "timestamp": "2018-08-03T01:03:54.588510783Z",
            "type": 2,
            "block_id": {
              "hash": "7D7CCDD6E66E21180DBDE810477FF5DC5C456444",
              "parts": {
                "total": "1",
                "hash": "6BC801DCF0CDE00BE023C402F40F1A661DB33370"
              }
            },
            "signature": {
              "type": "tendermint/SignatureEd25519",
              "value": "mLJOuveFPZyiMnMqVFmLj49rqvYe5cSBHYxjnMV3IpzPlxHnNwuWG1l9Xoz2NP7dElnWRZJTaa+6cwIiBJp4CA=="
            }
          },
          {
            "validator_address": "DB7E6732471D3EA5C90C17A9974D9F88AB45F2FB",
            "validator_index": "76",
            "height": "53874",
            "round": "1",
            "timestamp": "2018-08-03T01:03:54.525440967Z",
            "type": 2,
            "block_id": {
              "hash": "7D7CCDD6E66E21180DBDE810477FF5DC5C456444",
              "parts": {
                "total": "1",
                "hash": "6BC801DCF0CDE00BE023C402F40F1A661DB33370"
              }
            },
            "signature": {
              "type": "tendermint/SignatureEd25519",
              "value": "6PKoEdcHcLkNHAQ7iPfYxfTrjM0fAQOhHS/x792/+FgWUOCttmGPB8nRF8clbkSxwI9d37IDZF7NXdoCn/SBDA=="
            }
          },
          {
            "validator_address": "DF54B862410BCD9B5C516FBB6C56BDC826ED6FA7",
            "validator_index": "77",
            "height": "53874",
            "round": "1",
            "timestamp": "2018-08-03T01:03:54.598832749Z",
            "type": 2,
            "block_id": {
              "hash": "7D7CCDD6E66E21180DBDE810477FF5DC5C456444",
              "parts": {
                "total": "1",
                "hash": "6BC801DCF0CDE00BE023C402F40F1A661DB33370"
              }
            },
            "signature": {
              "type": "tendermint/SignatureEd25519",
              "value": "KUt0Mi8bCWfOXedL8+O2SOXCyduYExHa5qn7HOqcPpVzXvuUl8b4ZK4HVyCj4loBKruEc7YPpTCC3y0EiQWJAQ=="
            }
          },
          {
            "validator_address": "DFAF0C8B1B78D6D552B0189DE3ACA351439A1319",
            "validator_index": "78",
            "height": "53874",
            "round": "1",
            "timestamp": "2018-08-03T01:03:54.496878418Z",
            "type": 2,
            "block_id": {
              "hash": "7D7CCDD6E66E21180DBDE810477FF5DC5C456444",
              "parts": {
                "total": "1",
                "hash": "6BC801DCF0CDE00BE023C402F40F1A661DB33370"
              }
            },
            "signature": {
              "type": "tendermint/SignatureEd25519",
              "value": "mWrF2lUEZkKiM1aIBO1davUevT1xpzmoKUqcklnIJJwyDR1DIk6VGA0tFSA+IyBQu82dzipfVOOnslpGVKycBQ=="
            }
          },
          {
            "validator_address": "E1DBC77881161A5A3A8536A57536EAE546A75D69",
            "validator_index": "79",
            "height": "53874",
            "round": "1",
            "timestamp": "2018-08-03T01:03:54.409680508Z",
            "type": 2,
            "block_id": {
              "hash": "7D7CCDD6E66E21180DBDE810477FF5DC5C456444",
              "parts": {
                "total": "1",
                "hash": "6BC801DCF0CDE00BE023C402F40F1A661DB33370"
              }
            },
            "signature": {
              "type": "tendermint/SignatureEd25519",
              "value": "YAqyS7zzQq97qxW4PBGpqmQqyl0yY4VnMF6NjmKv/ljq9BnsH7MtTZTuFGSErGhHJ+iQpMTsORAtHVRYeV6fBQ=="
            }
          },
          {
            "validator_address": "E300E9D484374C1D3E97C1D93CAC3B160A056298",
            "validator_index": "80",
            "height": "53874",
            "round": "1",
            "timestamp": "2018-08-03T01:03:54.764650529Z",
            "type": 2,
            "block_id": {
              "hash": "7D7CCDD6E66E21180DBDE810477FF5DC5C456444",
              "parts": {
                "total": "1",
                "hash": "6BC801DCF0CDE00BE023C402F40F1A661DB33370"
              }
            },
            "signature": {
              "type": "tendermint/SignatureEd25519",
              "value": "8B5FWTCfkaqrA3h++1MXEmB2Ppf5MqKVvGAM3xfEbKRB6XD1NVXmGF/WEYP5Y1HIp4W9MRvPKrsn/eiME9GQDA=="
            }
          },
          {
            "validator_address": "E39B5778E0D4297A46F45CF6940B0A163A430FF8",
            "validator_index": "81",
            "height": "53874",
            "round": "1",
            "timestamp": "2018-08-03T01:03:54.546082712Z",
            "type": 2,
            "block_id": {
              "hash": "7D7CCDD6E66E21180DBDE810477FF5DC5C456444",
              "parts": {
                "total": "1",
                "hash": "6BC801DCF0CDE00BE023C402F40F1A661DB33370"
              }
            },
            "signature": {
              "type": "tendermint/SignatureEd25519",
              "value": "Jkh0OVe5+WHpCG1+xj0Kem3wbtw234USXs0Geku+O6sbOiXQ8ZyNKbhPZRL7trlWWqjatPHB6drawwR6ayfBDQ=="
            }
          },
          {
            "validator_address": "E3B19738F7132F950668504D326C7660F159D170",
            "validator_index": "82",
            "height": "53874",
            "round": "1",
            "timestamp": "2018-08-03T01:03:54.600768366Z",
            "type": 2,
            "block_id": {
              "hash": "7D7CCDD6E66E21180DBDE810477FF5DC5C456444",
              "parts": {
                "total": "1",
                "hash": "6BC801DCF0CDE00BE023C402F40F1A661DB33370"
              }
            },
            "signature": {
              "type": "tendermint/SignatureEd25519",
              "value": "yX50XcHXnxUrOYrNHb98BQWqZuF0oDCIvrZU67D2XwBmtUGxAAumZxjEMrHMvSTHlgFOWnXlxWJxORtJBxt7DQ=="
            }
          },
          {
            "validator_address": "E42F8AEABB685219F7027F54D2B0DBC7846F633A",
            "validator_index": "83",
            "height": "53874",
            "round": "1",
            "timestamp": "2018-08-03T01:03:53.465067111Z",
            "type": 2,
            "block_id": {
              "hash": "7D7CCDD6E66E21180DBDE810477FF5DC5C456444",
              "parts": {
                "total": "1",
                "hash": "6BC801DCF0CDE00BE023C402F40F1A661DB33370"
              }
            },
            "signature": {
              "type": "tendermint/SignatureEd25519",
              "value": "iV+FMuybWQs+Z1Rm7Eh7A4vPtpvXtmZMfZWtYYFZ1JENCz2tzFUvLdnL4N1lLbNE2WEWkFqLgOFzcpOeADnKCQ=="
            }
          },
          {
            "validator_address": "E4E6C2E81269DFFA196C17F98240E491479A6008",
            "validator_index": "84",
            "height": "53874",
            "round": "1",
            "timestamp": "2018-08-03T01:03:54.525294398Z",
            "type": 2,
            "block_id": {
              "hash": "7D7CCDD6E66E21180DBDE810477FF5DC5C456444",
              "parts": {
                "total": "1",
                "hash": "6BC801DCF0CDE00BE023C402F40F1A661DB33370"
              }
            },
            "signature": {
              "type": "tendermint/SignatureEd25519",
              "value": "DQNgu17WlEcxVsbLyxRptO3iWpWG7Piaq8JeWSpX0y73U7ooRwRJC6k727YanhHveeHlCnYauIblUWqqHtAlAA=="
            }
          },
          {
            "validator_address": "E50ADECD5FD27FA2CD610C07F8AED36A2FC4A6A6",
            "validator_index": "85",
            "height": "53874",
            "round": "1",
            "timestamp": "2018-08-03T01:03:54.457785267Z",
            "type": 2,
            "block_id": {
              "hash": "7D7CCDD6E66E21180DBDE810477FF5DC5C456444",
              "parts": {
                "total": "1",
                "hash": "6BC801DCF0CDE00BE023C402F40F1A661DB33370"
              }
            },
            "signature": {
              "type": "tendermint/SignatureEd25519",
              "value": "Tzm3iMQ24WS1XpUUldKJZlJBseAaXEje0U7/jt3LHnSFq9GnARiyUHwZUkVbdFdvZwY2rgpGIPxVZ1UI7+ZgBg=="
            }
          },
          {
            "validator_address": "E6A7079D584B163750BE0831227F6B685DEAF3C1",
            "validator_index": "86",
            "height": "53874",
            "round": "1",
            "timestamp": "2018-08-03T01:03:54.59139743Z",
            "type": 2,
            "block_id": {
              "hash": "7D7CCDD6E66E21180DBDE810477FF5DC5C456444",
              "parts": {
                "total": "1",
                "hash": "6BC801DCF0CDE00BE023C402F40F1A661DB33370"
              }
            },
            "signature": {
              "type": "tendermint/SignatureEd25519",
              "value": "9Na+50t0puQS3wNoTa3K0NCxgqSQbdSSGjAUnrZ0umd3HYdA9nXaXiUuppmaqVsCD2yFjpS1ij9TjAkK55kSBg=="
            }
          },
          {
            "validator_address": "E7A30077D5D11867D3EAF99ED45BFDC1EB834509",
            "validator_index": "87",
            "height": "53874",
            "round": "1",
            "timestamp": "2018-08-03T01:03:54.511455966Z",
            "type": 2,
            "block_id": {
              "hash": "7D7CCDD6E66E21180DBDE810477FF5DC5C456444",
              "parts": {
                "total": "1",
                "hash": "6BC801DCF0CDE00BE023C402F40F1A661DB33370"
              }
            },
            "signature": {
              "type": "tendermint/SignatureEd25519",
              "value": "IIgl9EBO32cBcOaB7Fo4DthqNI3ZaSiQqnib6vv0F7x2BWIOLsLPCRTTzPTFjOJwVYjqtG7fVtiJ52QITLLVDw=="
            }
          },
          {
            "validator_address": "EBC613967F66F4EC306852CDF58B4F151CF16738",
            "validator_index": "88",
            "height": "53874",
            "round": "1",
            "timestamp": "2018-08-03T01:03:54.633848898Z",
            "type": 2,
            "block_id": {
              "hash": "7D7CCDD6E66E21180DBDE810477FF5DC5C456444",
              "parts": {
                "total": "1",
                "hash": "6BC801DCF0CDE00BE023C402F40F1A661DB33370"
              }
            },
            "signature": {
              "type": "tendermint/SignatureEd25519",
              "value": "SJE7waLOUKOKVafCpqG40RmvYNzosW0vLGrCvt1NAsK2zIqJbInRQW4YI5KaDCWuq8NN1qU7sV9JgjLqdvgRDw=="
            }
          },
          {
            "validator_address": "EC3401441726C40ECC7E51F744483B05BC6DE9BD",
            "validator_index": "89",
            "height": "53874",
            "round": "1",
            "timestamp": "2018-08-03T01:03:54.525603711Z",
            "type": 2,
            "block_id": {
              "hash": "7D7CCDD6E66E21180DBDE810477FF5DC5C456444",
              "parts": {
                "total": "1",
                "hash": "6BC801DCF0CDE00BE023C402F40F1A661DB33370"
              }
            },
            "signature": {
              "type": "tendermint/SignatureEd25519",
              "value": "uk12+31jqRmJNnQ5m/UwubuXUJfqzGmv8Raq23S4wKcjmFnPafKoBZRxfzCiYzQKKJnC/pNeWE0aztunCz8rDw=="
            }
          },
          {
            "validator_address": "EC95B111D032181E1EC3B5E8875C5BB8E4AE7140",
            "validator_index": "90",
            "height": "53874",
            "round": "1",
            "timestamp": "2018-08-03T01:03:54.448945971Z",
            "type": 2,
            "block_id": {
              "hash": "7D7CCDD6E66E21180DBDE810477FF5DC5C456444",
              "parts": {
                "total": "1",
                "hash": "6BC801DCF0CDE00BE023C402F40F1A661DB33370"
              }
            },
            "signature": {
              "type": "tendermint/SignatureEd25519",
              "value": "LsFlh2jegmSzeQnreja8LyNLzmxKuwOJ8mGQgLTJNl/1qgivc01KjI9/yVO2wym8n+4k4mt0VpjsXMsJ4hZjDA=="
            }
          },
          {
            "validator_address": "F13C1805E8131C9B47E2A46818F57D8A2841E578",
            "validator_index": "91",
            "height": "53874",
            "round": "1",
            "timestamp": "2018-08-03T01:03:54.58476448Z",
            "type": 2,
            "block_id": {
              "hash": "7D7CCDD6E66E21180DBDE810477FF5DC5C456444",
              "parts": {
                "total": "1",
                "hash": "6BC801DCF0CDE00BE023C402F40F1A661DB33370"
              }
            },
            "signature": {
              "type": "tendermint/SignatureEd25519",
              "value": "Z1dD8PJCCUqui77PXDoNaRpG95NiZ7nbAggxoNaGc7s9OoJqMqlh+7OXRaZbRouklXLOf6t1sK5D3Mev86ThAg=="
            }
          },
          {
            "validator_address": "F23FF36BD5B90C33CE3A03ED72DBDCF5EC07D6AF",
            "validator_index": "92",
            "height": "53874",
            "round": "1",
            "timestamp": "2018-08-03T01:03:54.510847777Z",
            "type": 2,
            "block_id": {
              "hash": "7D7CCDD6E66E21180DBDE810477FF5DC5C456444",
              "parts": {
                "total": "1",
                "hash": "6BC801DCF0CDE00BE023C402F40F1A661DB33370"
              }
            },
            "signature": {
              "type": "tendermint/SignatureEd25519",
              "value": "S8j0F5dKR+A5dalY8hotF8sbOudWSIcdYQPYeXsipfvc7VEY6rGm9PmPK2Mw5IEiFKLZTWD967c1F7189rXpCg=="
            }
          },
          {
            "validator_address": "F4268597DE93E3E2CED38845010F8AA34E2A879E",
            "validator_index": "93",
            "height": "53874",
            "round": "1",
            "timestamp": "2018-08-03T01:03:54.563207136Z",
            "type": 2,
            "block_id": {
              "hash": "7D7CCDD6E66E21180DBDE810477FF5DC5C456444",
              "parts": {
                "total": "1",
                "hash": "6BC801DCF0CDE00BE023C402F40F1A661DB33370"
              }
            },
            "signature": {
              "type": "tendermint/SignatureEd25519",
              "value": "ds6Zcnpf3PDrESV+OYVWOYpof9dYdfwLWZmNBWC5Pm8+KXbohSf91Of1u4LjS8wYwU56tYMR3S4shjiv3JFGDg=="
            }
          },
          {
            "validator_address": "F4DEB417999B04BE2EFF9FFE03FA373D86011CC0",
            "validator_index": "94",
            "height": "53874",
            "round": "1",
            "timestamp": "2018-08-03T01:03:54.542633447Z",
            "type": 2,
            "block_id": {
              "hash": "7D7CCDD6E66E21180DBDE810477FF5DC5C456444",
              "parts": {
                "total": "1",
                "hash": "6BC801DCF0CDE00BE023C402F40F1A661DB33370"
              }
            },
            "signature": {
              "type": "tendermint/SignatureEd25519",
              "value": "2tNJ/adqs4wxnuDySruj9G4MwfEPwTTbkJg7yp1y3A4baY3X3/CcZk5nqo9zVNVIuFk3Y2QjnRzpJzSxP00RAA=="
            }
          },
          {
            "validator_address": "F6738260186D33D9C14FC6E7017AFE6BB952A63D",
            "validator_index": "95",
            "height": "53874",
            "round": "1",
            "timestamp": "2018-08-03T01:03:54.512150576Z",
            "type": 2,
            "block_id": {
              "hash": "7D7CCDD6E66E21180DBDE810477FF5DC5C456444",
              "parts": {
                "total": "1",
                "hash": "6BC801DCF0CDE00BE023C402F40F1A661DB33370"
              }
            },
            "signature": {
              "type": "tendermint/SignatureEd25519",
              "value": "WvKqEtUpqAMthJsEe/lNwjqFAlCiCVsyWqjz504OsT9xmSXkZDV+OzzXV/ybK5HAFo5TMW8AeQGx/TbPk1chBQ=="
            }
          },
          {
            "validator_address": "FD8D304F0278229077114B05BED9DABD382D49D8",
            "validator_index": "96",
            "height": "53874",
            "round": "1",
            "timestamp": "2018-08-03T01:03:54.635215541Z",
            "type": 2,
            "block_id": {
              "hash": "7D7CCDD6E66E21180DBDE810477FF5DC5C456444",
              "parts": {
                "total": "1",
                "hash": "6BC801DCF0CDE00BE023C402F40F1A661DB33370"
              }
            },
            "signature": {
              "type": "tendermint/SignatureEd25519",
              "value": "TPf9fNah9F5qrjjUTSUKAvsYVXPn8emyYm/UqWRGI6OfF2FziU4+pw97OJlf6jdqFhaL+4EVDSZ6ePI4xkblBw=="
            }
          },
          {
            "validator_address": "FF3F3FCBCE7E62D7AD5506FF846EC4518D980515",
            "validator_index": "97",
            "height": "53874",
            "round": "1",
            "timestamp": "2018-08-03T01:03:54.415897255Z",
            "type": 2,
            "block_id": {
              "hash": "7D7CCDD6E66E21180DBDE810477FF5DC5C456444",
              "parts": {
                "total": "1",
                "hash": "6BC801DCF0CDE00BE023C402F40F1A661DB33370"
              }
            },
            "signature": {
              "type": "tendermint/SignatureEd25519",
              "value": "VDxqbYATpyMtgNGunNFrVjk7E/Wg9klOsj92uhAIuTzJy6vIjbZOJ4+2DbPsAF21zBfROpZTQnTHQ4nR+ZvaCw=="
            }
          }
        ]
      }
    },
    "canonical": true
  }
}