{
  "jsonrpc": "2.0",
  "id": "",
  "result": {
    "SignedHeader": {
      "header": {
        "chain_id": "gaia-7004",
        "height": "54098",
        "time": "2018-08-03T01:26:53.016016012Z",
        "num_txs": "0",
        "last_block_id": {
          "hash": "711EEE9EA27BB011FC707577636D770F931451FF",
          "parts": {
            "total": "1",
            "hash": "ED14EE80589BE2F3B9D248273412CB67F7AF0138"
          }
        },
        "total_txs": "2258",
        "last_commit_hash": "CC92BF539F1D8D40632AF3374E5A26BA138A7736",
        "data_hash": "",
        "validators_hash": "BEB4D07F34EC2687BC46F150EAC5707518422BD5",
        "consensus_hash": "D6B74BB35BDFFD8392340F2A379173548AE188FE",
        "app_hash": "04566755FDD96D2334D36BDAF41CD73633AA4B10",
        "last_results_hash": "",
        "evidence_hash": ""
      },
      "commit": {
        "block_id": {
          "hash": "83DD54D863CD2559051F651FAA1CECEC6C12D97F",
          "parts": {
            "total": "1",
            "hash": "46861EB1817267FF9EA8A8EA30826B508DCC0138"
          }
        },
        "precommits": [
          {
            "validator_address": "029359C0C768096273A68ABC902A6B17AC8D1D70",
            "validator_index": "0",
            "height": "54098",
            "round": "1",
            "timestamp": "2018-08-03T01:26:53.923202916Z",
            "type": 2,
            "block_id": {
              "hash": "83DD54D863CD2559051F651FAA1CECEC6C12D97F",
              "parts": {
                "total": "1",
                "hash": "46861EB1817267FF9EA8A8EA30826B508DCC0138"
              }
            },
            "signature": {
              "type": "tendermint/SignatureEd25519",
              "value": "2HYyU4zsn8YOHG+Nky/JukVl0MFfUeSMcLJLt6l7ElRJ1OO4eLN8XTHGZwI7TGA9RRHER5P+mDTlBuPya3DtDw=="
            }
          },
          {
            "validator_address": "02FE4B97A8387F39D1AC19E0C1702B3CC614812F",
            "validator_index": "1",
            "height": "54098",
            "round": "1",
            "timestamp": "2018-08-03T01:26:53.880899943Z",
            "type": 2,
            "block_id": {
              "hash": "83DD54D863CD2559051F651FAA1CECEC6C12D97F",
              "parts": {
                "total": "1",
                "hash": "46861EB1817267FF9EA8A8EA30826B508DCC0138"
              }
            },
            "signature": {
              "type": "tendermint/SignatureEd25519",
              "value": "hVFZ0C/rb33vAB35ijMGXgX1pnCn35BWPGQrUV4lg4SoS6V4xOlKl0oZmjS/mtWe/gfoogx08+ujDQGXzgzMDQ=="
            }
          },
          {
            "validator_address": "0548261C50222FD710EB5EBDF03A0E6567B21D20",
            "validator_index": "2",
            "height": "54098",
            "round": "1",
            "timestamp": "2018-08-03T01:26:53.948181002Z",
            "type": 2,
            "block_id": {
              "hash": "83DD54D863CD2559051F651FAA1CECEC6C12D97F",
              "parts": {
                "total": "1",
                "hash": "46861EB1817267FF9EA8A8EA30826B508DCC0138"
              }
            },
            "signature": {
              "type": "tendermint/SignatureEd25519",
              "value": "XbEJ7+y8GLMhF9jOFFcmhhtdEFm0xINoOOaU8XC1mhL6HmKF/j6DPO3FjEUGjCs6qF1I++sYF/T24qdQ9ECqBg=="
            }
          },
          {
            "validator_address": "0665ADBF9B120B7617BF955AA5653A1992C82B11",
            "validator_index": "3",
            "height": "54098",
            "round": "1",
            "timestamp": "2018-08-03T01:26:53.934244607Z",
            "type": 2,
            "block_id": {
              "hash": "83DD54D863CD2559051F651FAA1CECEC6C12D97F",
              "parts": {
                "total": "1",
                "hash": "46861EB1817267FF9EA8A8EA30826B508DCC0138"
              }
            },
            "signature": {
              "type": "tendermint/SignatureEd25519",
              "value": "ZQPS+tPrVUMERD0d6FlVZjBxUpIWHHtmuJM2IlZxWwRDmIERPrZQ2q7BtcUvqT/Y04O4EkNtDgtSjupPJVn4DA=="
            }
          },
          {
            "validator_address": "09145E611CC27EEB944FC5A956DDF710F943B9EF",
            "validator_index": "4",
            "height": "54098",
            "round": "1",
            "timestamp": "2018-08-03T01:26:53.91825586Z",
            "type": 2,
            "block_id": {
              "hash": "83DD54D863CD2559051F651FAA1CECEC6C12D97F",
              "parts": {
                "total": "1",
                "hash": "46861EB1817267FF9EA8A8EA30826B508DCC0138"
              }
            },
            "signature": {
              "type": "tendermint/SignatureEd25519",
              "value": "JZfmAPpvP/2dA+sds1xOkrZn87tVAS/szNLW+QoImv6vZzn2ucH1cUQwoAtjVJvc2XCJ/7VjxM0/x5T4FLVtBQ=="
            }
          },
          {
            "validator_address": "0989D0355A104B67AE0AE028C68FB610690E174B",
            "validator_index": "5",
            "height": "54098",
            "round": "1",
            "timestamp": "2018-08-03T01:26:53.92447009Z",
            "type": 2,
            "block_id": {
              "hash": "83DD54D863CD2559051F651FAA1CECEC6C12D97F",
              "parts": {
                "total": "1",
                "hash": "46861EB1817267FF9EA8A8EA30826B508DCC0138"
              }
            },
            "signature": {
              "type": "tendermint/SignatureEd25519",
              "value": "zj8te11P/hYqDbAwNkOW/8/AtAby4+mDIcYuJpfGjt+Vr/QVJT/pl8P5V+S3+n1oZFEyWeIhWn7PMmcC3Kc9Aw=="
            }
          },
          {
            "validator_address": "0A692DBFFE9E5DD28E7DECC33CED1AEB4C0D014E",
            "validator_index": "6",
            "height": "54098",
            "round": "1",
            "timestamp": "2018-08-03T01:26:54.071004047Z",
            "type": 2,
            "block_id": {
              "hash": "83DD54D863CD2559051F651FAA1CECEC6C12D97F",
              "parts": {
                "total": "1",
                "hash": "46861EB1817267FF9EA8A8EA30826B508DCC0138"
              }
            },
            "signature": {
              "type": "tendermint/SignatureEd25519",
              "value": "BMWeQDRurP9s/dAZJm4Jq05tbJC2DvdYp35wDhIVgIZvC1GUUEy56mvf9IMmG6c7ZLlIgmaowWAJ+amMpNsRDQ=="
            }
          },
          {
            "validator_address": "1751786EFC085D5331C61168FFFC8202EA151B4E",
            "validator_index": "7",
            "height": "54098",
            "round": "1",
            "timestamp": "2018-08-03T01:26:53.503626131Z",
            "type": 2,
            "block_id": {
              "hash": "83DD54D863CD2559051F651FAA1CECEC6C12D97F",
              "parts": {
                "total": "1",
                "hash": "46861EB1817267FF9EA8A8EA30826B508DCC0138"
              }
            },
            "signature": {
              "type": "tendermint/SignatureEd25519",
              "value": "r+6KOIQOCPLlFoDLFVFVlHdBmf7cHixcsA9UiPlfK8w6E1++7rwc/Kk0yPWa19QLm5mpCLvfkDq8LvwiATRwAA=="
            }
          },
          {
            "validator_address": "17BB5CD01E8940FAFB948A04D5FA5A0645E5822E",
            "validator_index": "8",
            "height": "54098",
            "round": "1",
            "timestamp": "2018-08-03T01:26:53.936367198Z",
            "type": 2,
            "block_id": {
              "hash": "83DD54D863CD2559051F651FAA1CECEC6C12D97F",
              "parts": {
                "total": "1",
                "hash": "46861EB1817267FF9EA8A8EA30826B508DCC0138"
              }
            },
            "signature": {
              "type": "tendermint/SignatureEd25519",
              "value": "K0eIb9evPKywDCBYez0GAnfGXHfyXTKsEtLqrdvg8E9z8Zog0Tzmf2MkBWxb+sEFc8hCI8bIBtuulIXZYp/IAg=="
            }
          },
          {
            "validator_address": "1C683A87904BC38F05004FE83301A3A3E35447EB",
            "validator_index": "9",
            "height": "54098",
            "round": "1",
            "timestamp": "2018-08-03T01:26:53.847617135Z",
            "type": 2,
            "block_id": {
              "hash": "83DD54D863CD2559051F651FAA1CECEC6C12D97F",
              "parts": {
                "total": "1",
                "hash": "46861EB1817267FF9EA8A8EA30826B508DCC0138"
              }
            },
            "signature": {
              "type": "tendermint/SignatureEd25519",
              "value": "kL1WJhVO+z77CDyfUVrkX5z1RQFK2M6piLZC6KBab5TXJEa02cXpjNmSYSDrhytrW+aOTe3LIw5nak1VpKbNAg=="
            }
          },
          {
            "validator_address": "1E9CE94FD0BA5CFEB901F90BC658D64D85B134D2",
            "validator_index": "10",
            "height": "54098",
            "round": "1",
            "timestamp": "2018-08-03T01:26:53.919551977Z",
            "type": 2,
            "block_id": {
              "hash": "83DD54D863CD2559051F651FAA1CECEC6C12D97F",
              "parts": {
                "total": "1",
                "hash": "46861EB1817267FF9EA8A8EA30826B508DCC0138"
              }
            },
            "signature": {
              "type": "tendermint/SignatureEd25519",
              "value": "vWug73L6l2l1CcfX1d5JsALFBMcB9Gi69n249rECZRnOxXYVgPiHUhai3zM32Zf6zmQPKzTshcshP+tKiVQpBQ=="
            }
          },
          {
            "validator_address": "1ECD8C5FE1341D74CDC633A245DD56858DE2F9A2",
            "validator_index": "11",
            "height": "54098",
            "round": "1",
            "timestamp": "2018-08-03T01:26:54.008581962Z",
            "type": 2,
            "block_id": {
              "hash": "83DD54D863CD2559051F651FAA1CECEC6C12D97F",
              "parts": {
                "total": "1",
                "hash": "46861EB1817267FF9EA8A8EA30826B508DCC0138"
              }
            },
            "signature": {
              "type": "tendermint/SignatureEd25519",
              "value": "QOQMCRJcQZlx9iKwhoK9O5kvIAgwmImmfrQXIFTkz5OoalWoY0MtVBKpsqIH6SBkuosri7EyPHF9igl1RlrQBQ=="
            }
          },
          {
            "validator_address": "1F3A68CAAD483768AA2BF667DEF10F7104C89928",
            "validator_index": "12",
            "height": "54098",
            "round": "1",
            "timestamp": "2018-08-03T01:26:53.954384856Z",
            "type": 2,
            "block_id": {
              "hash": "83DD54D863CD2559051F651FAA1CECEC6C12D97F",
              "parts": {
                "total": "1",
                "hash": "46861EB1817267FF9EA8A8EA30826B508DCC0138"
              }
            },
            "signature": {
              "type": "tendermint/SignatureEd25519",
              "value": "RAIq/OLdXf+iY18pUG+hq0SeN1D/kcQQPOdacgXrxCJ0rhSuud+3Q598P6uq5oNbFhtZZcvORiKeYhnqYlz7Ag=="
            }
          },
          {
            "validator_address": "1F61153F26C2DF27E15874268D30326287323352",
            "validator_index": "13",
            "height": "54098",
            "round": "1",
            "timestamp": "2018-08-03T01:26:53.914217602Z",
            "type": 2,
            "block_id": {
              "hash": "83DD54D863CD2559051F651FAA1CECEC6C12D97F",
              "parts": {
                "total": "1",
                "hash": "46861EB1817267FF9EA8A8EA30826B508DCC0138"
              }
            },
            "signature": {
              "type": "tendermint/SignatureEd25519",
              "value": "NL/0kyo89mrHnDx0W9X0Md3ABLkp0hQCeOY/X+fs8Tg5AYZ9a7gaq4vxkHuuPkTMyHesvGj5RSfiFFO0J90qCw=="
            }
          },
          {
            "validator_address": "23897586D68E2AC1C78E0EF5BB5DF5C8EAB18F50",
            "validator_index": "14",
            "height": "54098",
            "round": "1",
            "timestamp": "2018-08-03T01:26:53.940238095Z",
            "type": 2,
            "block_id": {
              "hash": "83DD54D863CD2559051F651FAA1CECEC6C12D97F",
              "parts": {
                "total": "1",
                "hash": "46861EB1817267FF9EA8A8EA30826B508DCC0138"
              }
            },
            "signature": {
              "type": "tendermint/SignatureEd25519",
              "value": "9D5NJ37LCNM+3T7J0qoNPeiKh08i9UCoRhq4G8yOSHf7LQ8GgiPD4CAbuedLK5w8EN079tJQtXyyQ95QRIuMDg=="
            }
          },
          {
            "validator_address": "28770D17E8530825E7310A0659308654B7EC9682",
            "validator_index": "15",
            "height": "54098",
            "round": "1",
            "timestamp": "2018-08-03T01:26:53.848723204Z",
            "type": 2,
            "block_id": {
              "hash": "83DD54D863CD2559051F651FAA1CECEC6C12D97F",
              "parts": {
                "total": "1",
                "hash": "46861EB1817267FF9EA8A8EA30826B508DCC0138"
              }
            },
            "signature": {
              "type": "tendermint/SignatureEd25519",
              "value": "zvFXI0CZqxQTxcl4MpKMdDYrgfF8/Tkj7Wxt4OiZNskHxLCp1Yie/EA5XfXaiAbYwLkolv0m90roJeNgE4GGDw=="
            }
          },
          {
            "validator_address": "2A92EC3C642140202298D0E245095E0ECFC25228",
            "validator_index": "16",
            "height": "54098",
            "round": "1",
            "timestamp": "2018-08-03T01:26:53.906955678Z",
            "type": 2,
            "block_id": {
              "hash": "83DD54D863CD2559051F651FAA1CECEC6C12D97F",
              "parts": {
                "total": "1",
                "hash": "46861EB1817267FF9EA8A8EA30826B508DCC0138"
              }
            },
            "signature": {
              "type": "tendermint/SignatureEd25519",
              "value": "ZqpV6rbOxbONA/xJOpUmaYv6ir5Vm+D5/r0HAQNbZzCpUHgUEH7Fb5JXU8Y1iXb0HvFRGtfJLUr4SFkVui/YBg=="
            }
          },
          {
            "validator_address": "33412C9A69C60CB0FAA24A5C5B3A906DE24B47C2",
            "validator_index": "17",
            "height": "54098",
            "round": "1",
            "timestamp": "2018-08-03T01:26:53.913771174Z",
            "type": 2,
            "block_id": {
              "hash": "83DD54D863CD2559051F651FAA1CECEC6C12D97F",
              "parts": {
                "total": "1",
                "hash": "46861EB1817267FF9EA8A8EA30826B508DCC0138"
              }
            },
            "signature": {
              "type": "tendermint/SignatureEd25519",
              "value": "3n8uDvlaTIJSa1eYt4MlKpF2/KcFmHtG0UvGrSowR3QfCi7I0ACi+6eyfBc8KFwKgBxf8XHhac6AcaWg95kqDA=="
            }
          },
          {
            "validator_address": "36E9B7FAEC964F97D84C028ED62493E373AD0B38",
            "validator_index": "18",
            "height": "54098",
            "round": "1",
            "timestamp": "2018-08-03T01:26:54.010124025Z",
            "type": 2,
            "block_id": {
              "hash": "83DD54D863CD2559051F651FAA1CECEC6C12D97F",
              "parts": {
                "total": "1",
                "hash": "46861EB1817267FF9EA8A8EA30826B508DCC0138"
              }
            },
            "signature": {
              "type": "tendermint/SignatureEd25519",
              "value": "rH81r5DH13mauYlc+TeQ7zeN3EBjIAV7Ws3rYfOsEVnJPB//3JcnZ4sRxox/1rNq29oHeapGhHi43SgnKW2WAA=="
            }
          },
          {
            "validator_address": "38A8D85D36BEA2E5FCF8A1E778F53628E450EF13",
            "validator_index": "19",
            "height": "54098",
            "round": "1",
            "timestamp": "2018-08-03T01:26:54.04900413Z",
            "type": 2,
            "block_id": {
              "hash": "83DD54D863CD2559051F651FAA1CECEC6C12D97F",
              "parts": {
                "total": "1",
                "hash": "46861EB1817267FF9EA8A8EA30826B508DCC0138"
              }
            },
            "signature": {
              "type": "tendermint/SignatureEd25519",
              "value": "zuwIp27kREIDDzJ6KtDaZMAgzUTsgkbqfkglRiUclVcfeiv3qrX4wsB3ZHZRE4ZL+zG2EbqGdhiSB69FGslSAg=="
            }
          },
          {
            "validator_address": "39DFDA0C5DB84B269642188B23253508537798E6",
            "validator_index": "20",
            "height": "54098",
            "round": "1",
            "timestamp": "2018-08-03T01:26:53.849582217Z",
            "type": 2,
            "block_id": {
              "hash": "83DD54D863CD2559051F651FAA1CECEC6C12D97F",
              "parts": {
                "total": "1",
                "hash": "46861EB1817267FF9EA8A8EA30826B508DCC0138"
              }
            },
            "signature": {
              "type": "tendermint/SignatureEd25519",
              "value": "1KdZof+jTmexEDP5O+FsNOPQnS74/dX/f5OPybf8nryHUD2fevw50rWVUc+Q4zJdUPNJeK4sYgv0nFlJIGwYAw=="
            }
          },
          {
            "validator_address": "3AC99B708404452366E0953A4BE849226DC86CBC",
            "validator_index": "21",
            "height": "54098",
            "round": "1",
            "timestamp": "2018-08-03T01:26:54.023662568Z",
            "type": 2,
            "block_id": {
              "hash": "83DD54D863CD2559051F651FAA1CECEC6C12D97F",
              "parts": {
                "total": "1",
                "hash": "46861EB1817267FF9EA8A8EA30826B508DCC0138"
              }
            },
            "signature": {
              "type": "tendermint/SignatureEd25519",
              "value": "u5pX06dZMI6cIRPk8Qg/d0BxdfyUmJKHMvCyEuMyp4kbrhrdIl6xS0bG1WikEOiBZX9NaQXThvwqIID6R8k+DA=="
            }
          },
          {
            "validator_address": "3DCB822A10ED319EC7C4393D8E3FD4A41B15AAF2",
            "validator_index": "22",
            "height": "54098",
            "round": "1",
            "timestamp": "2018-08-03T01:26:53.86922332Z",
            "type": 2,
            "block_id": {
              "hash": "83DD54D863CD2559051F651FAA1CECEC6C12D97F",
              "parts": {
                "total": "1",
                "hash": "46861EB1817267FF9EA8A8EA30826B508DCC0138"
              }
            },
            "signature": {
              "type": "tendermint/SignatureEd25519",
              "value": "QHwRqzDaOQlfQS+XR8hnVoR6LXzqyofoyFtGWkAqZzc529PYtMcNMkyVhvsS38NERWcnlBl/b6sUjw0zJtD3Dw=="
            }
          },
          {
            "validator_address": "3E899BA36A93C7370347BD5FE85909F2ECD93F8C",
            "validator_index": "23",
            "height": "54098",
            "round": "1",
            "timestamp": "2018-08-03T01:26:53.898614731Z",
            "type": 2,
            "block_id": {
              "hash": "83DD54D863CD2559051F651FAA1CECEC6C12D97F",
              "parts": {
                "total": "1",
                "hash": "46861EB1817267FF9EA8A8EA30826B508DCC0138"
              }
            },
            "signature": {
              "type": "tendermint/SignatureEd25519",
              "value": "PkerGd1exJr/m+qUpaO2jxPpqLweWhecl3zuGuMBbGYgyy+XGmVyCJg97G8XYd2gGfeP8ar96n77iuIeU26lDw=="
            }
          },
          {
            "validator_address": "41CAB2E29E7D0F2282E3275938F188FF9386B84C",
            "validator_index": "24",
            "height": "54098",
            "round": "1",
            "timestamp": "2018-08-03T01:26:53.901619211Z",
            "type": 2,
            "block_id": {
              "hash": "83DD54D863CD2559051F651FAA1CECEC6C12D97F",
              "parts": {
                "total": "1",
                "hash": "46861EB1817267FF9EA8A8EA30826B508DCC0138"
              }
            },
            "signature": {
              "type": "tendermint/SignatureEd25519",
              "value": "xWz3bAlfyY9WsNsNXO85U0io6mRW6eu3y01RXDY7eXrzmPly3nxH22HyR5RBHi2n1EBk4JVq9wOtBFtZt9DnCA=="
            }
          },
          {
            "validator_address": "462B656869DB02A8FD1077E255F8CC7401DC37C6",
            "validator_index": "25",
            "height": "54098",
            "round": "1",
            "timestamp": "2018-08-03T01:26:53.892541943Z",
            "type": 2,
            "block_id": {
              "hash": "83DD54D863CD2559051F651FAA1CECEC6C12D97F",
              "parts": {
                "total": "1",
                "hash": "46861EB1817267FF9EA8A8EA30826B508DCC0138"
              }
            },
            "signature": {
              "type": "tendermint/SignatureEd25519",
              "value": "zvlA8FIdpEfLL8fb8Oq4ThZw1T3fgacZCWkSW/s1XghMY8khpWr3EzvH34ioKV6M29EFmqrU88zhOB7dWhCFAw=="
            }
          },
          {
            "validator_address": "48E5118163E5442068A1B5A42D2EEDBB75724935",
            "validator_index": "26",
            "height": "54098",
            "round": "1",
            "timestamp": "2018-08-03T01:26:54.002687224Z",
            "type": 2,
            "block_id": {
              "hash": "83DD54D863CD2559051F651FAA1CECEC6C12D97F",
              "parts": {
                "total": "1",
                "hash": "46861EB1817267FF9EA8A8EA30826B508DCC0138"
              }
            },
            "signature": {
              "type": "tendermint/SignatureEd25519",
              "value": "pirDRmbGOWSdduMcukanEyKxaa02ucfKOLyIxxmWUqqr+o72WiINcx0gubfHat6is8UibKVna9JZMuoU5zHrDQ=="
            }
          },
          {
            "validator_address": "49103C58AFD9C7C069F55EBA218F3DFD9AEA74F9",
            "validator_index": "27",
            "height": "54098",
            "round": "1",
            "timestamp": "2018-08-03T01:26:53.962210639Z",
            "type": 2,
            "block_id": {
              "hash": "83DD54D863CD2559051F651FAA1CECEC6C12D97F",
              "parts": {
                "total": "1",
                "hash": "46861EB1817267FF9EA8A8EA30826B508DCC0138"
              }
            },
            "signature": {
              "type": "tendermint/SignatureEd25519",
              "value": "lAtTS/BCoukN1rRa9FflmBNTbEW8IDgYg3LzNCqtASyBnVfYAHsEL/CSgMnkqwyNG1Xq5lj8CovhgRErgWb2AQ=="
            }
          },
          {
            "validator_address": "4944F8BBBB5303E17BC0607DF332320EDBC750EA",
            "validator_index": "28",
            "height": "54098",
            "round": "1",
            "timestamp": "2018-08-03T01:26:53.894706133Z",
            "type": 2,
            "block_id": {
              "hash": "83DD54D863CD2559051F651FAA1CECEC6C12D97F",
              "parts": {
                "total": "1",
                "hash": "46861EB1817267FF9EA8A8EA30826B508DCC0138"
              }
            },
            "signature": {
              "type": "tendermint/SignatureEd25519",
              "value": "77dnp2uWcBjE4VELUfv620EGV7158YHIsw2oTCdAsmh9lDUgDwc/7cEebfHt2ZLq1HTkfR+E/c4XNXOV0jG2Cw=="
            }
          },
          {
            "validator_address": "49841599DE675157CBE1E7D6B35BF8FFC23BD5CB",
            "validator_index": "29",
            "height": "54098",
            "round": "1",
            "timestamp": "2018-08-03T01:26:53.845494611Z",
            "type": 2,
            "block_id": {
              "hash": "83DD54D863CD2559051F651FAA1CECEC6C12D97F",
              "parts": {
                "total": "1",
                "hash": "46861EB1817267FF9EA8A8EA30826B508DCC0138"
              }
            },
            "signature": {
              "type": "tendermint/SignatureEd25519",
              "value": "VdZ/0vjsSIpfVHmK+Q9NtJj5WgtjRsg2MaD+2gDXp87ZcHtBM/g9vC3r6toHuFlmysCvEv7Rc250OUiVOUl/BQ=="
            }
          },
          {
            "validator_address": "51386C2CF9556821D114D7E4945806802BADB28D",
            "validator_index": "30",
            "height": "54098",
            "round": "1",
            "timestamp": "2018-08-03T01:26:53.934175552Z",
            "type": 2,
            "block_id": {
              "hash": "83DD54D863CD2559051F651FAA1CECEC6C12D97F",
              "parts": {
                "total": "1",
                "hash": "46861EB1817267FF9EA8A8EA30826B508DCC0138"
              }
            },
            "signature": {
              "type": "tendermint/SignatureEd25519",
              "value": "N7OzHHX5BLNrYxVPsz94AD7X33TEGb+NEjZU1+2qQVA7UNITUWCnie4tchIal8HA2jy/uhhrVz2SZ7LZ4LCECA=="
            }
          },
          {
            "validator_address": "543564ECA3AFEFADC73EE8591AAC3A96F079BC8A",
            "validator_index": "31",
            "height": "54098",
            "round": "1",
            "timestamp": "2018-08-03T01:26:53.866383143Z",
            "type": 2,
            "block_id": {
              "hash": "83DD54D863CD2559051F651FAA1CECEC6C12D97F",
              "parts": {
                "total": "1",
                "hash": "46861EB1817267FF9EA8A8EA30826B508DCC0138"
              }
            },
            "signature": {
              "type": "tendermint/SignatureEd25519",
              "value": "T1DM0Xuk9U+R3WZPWDEs16/Hd0DFLY0gC74XcJ4C0Fik/xbKS9Oms6mqzT5zSpocoK18vPbmhyM/C+GlTUDSCg=="
            }
          },
          {
            "validator_address": "55D67B1A6DC13E96F8754A5A42EABC20F7F86664",
            "validator_index": "32",
            "height": "54098",
            "round": "1",
            "timestamp": "2018-08-03T01:26:53.874465616Z",
            "type": 2,
            "block_id": {
              "hash": "83DD54D863CD2559051F651FAA1CECEC6C12D97F",
              "parts": {
                "total": "1",
                "hash": "46861EB1817267FF9EA8A8EA30826B508DCC0138"
              }
            },
            "signature": {
              "type": "tendermint/SignatureEd25519",
              "value": "gCzB2LfPE1jJIQC2lNkXxrMaiKGzF6o7sWz4T1kEcjPKHRfovg7JJLhyfq9tA7VS83AWxA6Aql9i0eO1w2AvCg=="
            }
          },
          {
            "validator_address": "570B6A755ED339EAC56BB3390A48069F6AC9449B",
            "validator_index": "33",
            "height": "54098",
            "round": "1",
            "timestamp": "2018-08-03T01:27:05.213961359Z",
            "type": 2,
            "block_id": {
              "hash": "83DD54D863CD2559051F651FAA1CECEC6C12D97F",
              "parts": {
                "total": "1",
                "hash": "46861EB1817267FF9EA8A8EA30826B508DCC0138"
              }
            },
            "signature": {
              "type": "tendermint/SignatureEd25519",
              "value": "EOF6WTvwtGn519TFS2GBPZ9ppX1LF8x+qTM9kD1AIjgs0+WbUeu6rNEBN4G04/PqRtUusrOHnNPcWQ7iqlCsAQ=="
            }
          },
          {
            "validator_address": "5BDF8EA41B1835FBAD865B181A2A4B23F511B5E4",
            "validator_index": "34",
            "height": "54098",
            "round": "1",
            "timestamp": "2018-08-03T01:26:53.923482817Z",
            "type": 2,
            "block_id": {
              "hash": "83DD54D863CD2559051F651FAA1CECEC6C12D97F",
              "parts": {
                "total": "1",
                "hash": "46861EB1817267FF9EA8A8EA30826B508DCC0138"
              }
            },
            "signature": {
              "type": "tendermint/SignatureEd25519",
              "value": "t9c2cduKaXQNe9oLME+yOiiyJWf8bkE/JunW0DqCerHOahQJcRGR546A7A7cW8/iz2ejXV4FJtT+kl5LZV+yCA=="
            }
          },
          {
            "validator_address": "60229E2E273297FE00219E46DFFB8F76844CDEF9",
            "validator_index": "35",
            "height": "54098",
            "round": "1",
            "timestamp": "2018-08-03T01:26:50.922014595Z",
            "type": 2,
            "block_id": {
              "hash": "83DD54D863CD2559051F651FAA1CECEC6C12D97F",
              "parts": {
                "total": "1",
                "hash": "46861EB1817267FF9EA8A8EA30826B508DCC0138"
              }
            },
            "signature": {
              "type": "tendermint/SignatureEd25519",
              "value": "5jflwgQAsa/pig+fA7Ep7dVHCrygLeRfZeC5dGQxbvtOlJ8qqgIJCphY2XnoUGD96GaTxbEGTJvcW60bhr74CQ=="
            }
          },
          {
            "validator_address": "62410D6D1CD98278136E4D0738AA0EA273CDFC54",
            "validator_index": "36",
            "height": "54098",
            "round": "1",
            "timestamp": "2018-08-03T01:26:53.847133661Z",
            "type": 2,
            "block_id": {
              "hash": "83DD54D863CD2559051F651FAA1CECEC6C12D97F",
              "parts": {
                "total": "1",
                "hash": "46861EB1817267FF9EA8A8EA30826B508DCC0138"
              }
            },
            "signature": {
              "type": "tendermint/SignatureEd25519",
              "value": "Cw07LznZqGyhuZmk/5KX36gFZe4BPgUh5oqJKjSKnp6QHp4kA6OCOBTfoBvHosfaWgJHDPT8H0c0aoNjbkRFDw=="
            }
          },
          {
            "validator_address": "632F5C139A5A9DFBFE5111DEE29FCFB6157207DC",
            "validator_index": "37",
            "height": "54098",
            "round": "1",
            "timestamp": "2018-08-03T01:26:53.934309257Z",
            "type": 2,
            "block_id": {
              "hash": "83DD54D863CD2559051F651FAA1CECEC6C12D97F",
              "parts": {
                "total": "1",
                "hash": "46861EB1817267FF9EA8A8EA30826B508DCC0138"
              }
            },
            "signature": {
              "type": "tendermint/SignatureEd25519",
              "value": "CXpsLgpoZHheOml1JodbvOjIcfcz82czJF2w5r7GCtY+asykyqE5haqnAZAjFwbkM6oIQpf6BroNgQG2LibqDA=="
            }
          },
          {
            "validator_address": "64F57F8E796A9B7B590C1EFA4123988C86631D39",
            "validator_index": "38",
            "height": "54098",
            "round": "1",
            "timestamp": "2018-08-03T01:26:53.854332529Z",
            "type": 2,
            "block_id": {
              "hash": "83DD54D863CD2559051F651FAA1CECEC6C12D97F",
              "parts": {
                "total": "1",
                "hash": "46861EB1817267FF9EA8A8EA30826B508DCC0138"
              }
            },
            "signature": {
              "type": "tendermint/SignatureEd25519",
              "value": "LmbJ6iFdMUKg5zWjSacgasmTdEekOmiuQJIUi0+0sTFV49MLkKn5IhW+f67O5+NXEe0C+uem9gBZHazQ6R6KBQ=="
            }
          },
          {
            "validator_address": "69D99B2C66043ACBEAA8447525C356AFC6408E0C",
            "validator_index": "39",
            "height": "54098",
            "round": "1",
            "timestamp": "2018-08-03T01:26:54.005371168Z",
            "type": 2,
            "block_id": {
              "hash": "83DD54D863CD2559051F651FAA1CECEC6C12D97F",
              "parts": {
                "total": "1",
                "hash": "46861EB1817267FF9EA8A8EA30826B508DCC0138"
              }
            },
            "signature": {
              "type": "tendermint/SignatureEd25519",
              "value": "5ox/jFhV7GSdWaI7w6cCBEU6Q8q4m9ZzS4pZW1gZP8vXwHaI0EeaFRvzYwWCJWdpVd9KnDAPVST8h8nmiPKUAg=="
            }
          },
          {
            "validator_address": "69EDADFA4A803E9DBF548C900D4A465E7D154262",
            "validator_index": "40",
            "height": "54098",
            "round": "1",
            "timestamp": "2018-08-03T01:26:54.014988998Z",
            "type": 2,
            "block_id": {
              "hash": "83DD54D863CD2559051F651FAA1CECEC6C12D97F",
              "parts": {
                "total": "1",
                "hash": "46861EB1817267FF9EA8A8EA30826B508DCC0138"
              }
            },
            "signature": {
              "type": "tendermint/SignatureEd25519",
              "value": "5x6VI0R2cGuc6xPu0YI2CQQEOT9hQJeMvx6UqpH33B4Q0rgQUZXmvHRfY6Y9gU3ujsCzaI/gDBNwhll7egxtCg=="
            }
          },
          {
            "validator_address": "6D3AD380E398D8592B03AA124BAFED5F125DF863",
            "validator_index": "41",
            "height": "54098",
            "round": "1",
            "timestamp": "2018-08-03T01:25:50.95845951Z",
            "type": 2,
            "block_id": {
              "hash": "83DD54D863CD2559051F651FAA1CECEC6C12D97F",
              "parts": {
                "total": "1",
                "hash": "46861EB1817267FF9EA8A8EA30826B508DCC0138"
              }
            },
            "signature": {
              "type": "tendermint/SignatureEd25519",
              "value": "Mn3W3whtd16UZfZimXX5fdJSjcCs7bLVxWBpFHHgfWZP2cqTwWQeX7cgWe2pTBJuJrzddtipHLa/5mnCrRA3AQ=="
            }
          },
          {
            "validator_address": "6F6C93B8BF3495063FEC9B5C771158607F4AE9D6",
            "validator_index": "42",
            "height": "54098",
            "round": "1",
            "timestamp": "2018-08-03T01:26:53.949878404Z",
            "type": 2,
            "block_id": {
              "hash": "83DD54D863CD2559051F651FAA1CECEC6C12D97F",
              "parts": {
                "total": "1",
                "hash": "46861EB1817267FF9EA8A8EA30826B508DCC0138"
              }
            },
            "signature": {
              "type": "tendermint/SignatureEd25519",
              "value": "zr5ccIOmbp9w0Q1TuPPgaZcE0silHBEv8+UvYcX59jpGPwm5eT3SD2Nart2EtedG1QjjykZWk/655dsUJ61SCg=="
            }
          },
          {
            "validator_address": "732CEEF54C374DDC6ADECBFD707AEFD07FEDC143",
            "validator_index": "43",
            "height": "54098",
            "round": "1",
            "timestamp": "2018-08-03T01:26:54.076352846Z",
            "type": 2,
            "block_id": {
              "hash": "83DD54D863CD2559051F651FAA1CECEC6C12D97F",
              "parts": {
                "total": "1",
                "hash": "46861EB1817267FF9EA8A8EA30826B508DCC0138"
              }
            },
            "signature": {
              "type": "tendermint/SignatureEd25519",
              "value": "Nr3PDmH8YJn1AFajteR7qFxhpStHdRmLg3LwC/YvktAFqmFJOW8dkg6+IkwrPtZZhFIh/E7OapvLU7tcaiwvBg=="
            }
          },
          {
            "validator_address": "751E43437224E8BB6D1569B3E2B2616B6E7F4397",
            "validator_index": "44",
            "height": "54098",
            "round": "1",
            "timestamp": "2018-08-03T01:26:53.900013272Z",
            "type": 2,
            "block_id": {
              "hash": "83DD54D863CD2559051F651FAA1CECEC6C12D97F",
              "parts": {
                "total": "1",
                "hash": "46861EB1817267FF9EA8A8EA30826B508DCC0138"
              }
            },
            "signature": {
              "type": "tendermint/SignatureEd25519",
              "value": "n1CgU+9xftxcJVFj96Vv6MXqg0E9yB5gf01X4zpJDoYgArwXHG3Yzc0WZnfjNdAXtYxliidIzKm3Nq7stlngBQ=="
            }
          },
          {
            "validator_address": "7EB7593F519F1180C7E872D0494611464EDF03AE",
            "validator_index": "45",
            "height": "54098",
            "round": "1",
            "timestamp": "2018-08-03T01:26:54.053458853Z",
            "type": 2,
            "block_id": {
              "hash": "83DD54D863CD2559051F651FAA1CECEC6C12D97F",
              "parts": {
                "total": "1",
                "hash": "46861EB1817267FF9EA8A8EA30826B508DCC0138"
              }
            },
            "signature": {
              "type": "tendermint/SignatureEd25519",
              "value": "2CsYJwdKUNyocDkvtWYekvzd8X9ocrS6H5VSrZFjCSdmVYvA1Jdn111gH58cw2xfYzWbHG0Tw7Ry1/AIVa2YBQ=="
            }
          },
          {
            "validator_address": "807CF675BA8479FC4FEC1047215DF07970040F1F",
            "validator_index": "46",
            "height": "54098",
            "round": "1",
            "timestamp": "2018-08-03T01:26:54.253470198Z",
            "type": 2,
            "block_id": {
              "hash": "83DD54D863CD2559051F651FAA1CECEC6C12D97F",
              "parts": {
                "total": "1",
                "hash": "46861EB1817267FF9EA8A8EA30826B508DCC0138"
              }
            },
            "signature": {
              "type": "tendermint/SignatureEd25519",
              "value": "ygXP6Ppj3NR2RlvAoh4oGMNUaufpZq5VHhGUxDghd8zoWEKa9BaSeUSXfeuaHyu4MvkyZX2MfbVtRA2jagBuBA=="
            }
          },
          {
            "validator_address": "8356899C8853BC6640D76F76E59743FFEEA57B81",
            "validator_index": "47",
            "height": "54098",
            "round": "1",
            "timestamp": "2018-08-03T01:26:53.908087704Z",
            "type": 2,
            "block_id": {
              "hash": "83DD54D863CD2559051F651FAA1CECEC6C12D97F",
              "parts": {
                "total": "1",
                "hash": "46861EB1817267FF9EA8A8EA30826B508DCC0138"
              }
            },
            "signature": {
              "type": "tendermint/SignatureEd25519",
              "value": "EQ/pEjia5zBk7IzFFRv+kXvqgVb0R9IXzCMGvzmdxs8yYYcSMJ3SKyKmq6Z71mugVddH8BHXc8y6OyJ/uoEFAA=="
            }
          },
          {
            "validator_address": "83AB321E012C57746689FED3A6064DF331F81007",
            "validator_index": "48",
            "height": "54098",
            "round": "1",
            "timestamp": "2018-08-03T01:26:53.915845204Z",
            "type": 2,
            "block_id": {
              "hash": "83DD54D863CD2559051F651FAA1CECEC6C12D97F",
              "parts": {
                "total": "1",
                "hash": "46861EB1817267FF9EA8A8EA30826B508DCC0138"
              }
            },
            "signature": {
              "type": "tendermint/SignatureEd25519",
              "value": "ZVhS74fM3IYgP3/vwpZXlvQUf9yAqTwA4z0QGYE8nPTxt648dtKZUtPeBMO9VTzQDGiFa5RvMXqRiXmWnwYyAQ=="
            }
          },
          {
            "validator_address": "83BB1B88D3DBB20AD845FECA07749EBD87D3754D",
            "validator_index": "49",
            "height": "54098",
            "round": "1",
            "timestamp": "2018-08-03T01:26:54.144810022Z",
            "type": 2,
            "block_id": {
              "hash": "83DD54D863CD2559051F651FAA1CECEC6C12D97F",
              "parts": {
                "total": "1",
                "hash": "46861EB1817267FF9EA8A8EA30826B508DCC0138"
              }
            },
            "signature": {
              "type": "tendermint/SignatureEd25519",
              "value": "crq6lKjIqRg4U+hVhUx56h4Gf4QKVhuAUYjataXdvkqgMQwxQvUAvhzdyoYVQvlagQ4+cbDhQZ+VIpZWyc75AA=="
            }
          },
          {
            "validator_address": "86DDBEEF35D35786A68834B34869174AC314BB74",
            "validator_index": "50",
            "height": "54098",
            "round": "1",
            "timestamp": "2018-08-03T01:26:53.828743931Z",
            "type": 2,
            "block_id": {
              "hash": "83DD54D863CD2559051F651FAA1CECEC6C12D97F",
              "parts": {
                "total": "1",
                "hash": "46861EB1817267FF9EA8A8EA30826B508DCC0138"
              }
            },
            "signature": {
              "type": "tendermint/SignatureEd25519",
              "value": "Bcz9x/AsjLrYAlKvr6zoWgc7LG4PjH2L9CM/rfFtplTXFqRHpfs1I0yUsCZtMsoUpeOGkSq1QivGV4Q+AmikCA=="
            }
          },
          {
            "validator_address": "8F06FE1FD042683C426137FBC4BBAA4288924217",
            "validator_index": "51",
            "height": "54098",
            "round": "1",
            "timestamp": "2018-08-03T01:26:53.891873938Z",
            "type": 2,
            "block_id": {
              "hash": "83DD54D863CD2559051F651FAA1CECEC6C12D97F",
              "parts": {
                "total": "1",
                "hash": "46861EB1817267FF9EA8A8EA30826B508DCC0138"
              }
            },
            "signature": {
              "type": "tendermint/SignatureEd25519",
              "value": "R6wP+GrRoJ6uuuhhwsTwbV2euEoRkXlYJu2czZO2L/xC4aRytpO82ymi1nxe50Ki5BnpSVI9zoo9xvj60x3zCw=="
            }
          },
          {
            "validator_address": "95980831E186F2540F6E9FB6C8E74DE2401405AC",
            "validator_index": "52",
            "height": "54098",
            "round": "1",
            "timestamp": "2018-08-03T01:26:53.862063959Z",
            "type": 2,
            "block_id": {
              "hash": "83DD54D863CD2559051F651FAA1CECEC6C12D97F",
              "parts": {
                "total": "1",
                "hash": "46861EB1817267FF9EA8A8EA30826B508DCC0138"
              }
            },
            "signature": {
              "type": "tendermint/SignatureEd25519",
              "value": "YLAzOQex9noVTiHaWX6HQKnDt8i4DE7WGLuQaZGddPrbb/ZvSIttfPGhi7m8MIeAavAQOFd8/Pg14G7TOklfBA=="
            }
          },
          {
            "validator_address": "95FAFBC1E0579C83D290A063020CE87C5334BD9B",
            "validator_index": "53",
            "height": "54098",
            "round": "1",
            "timestamp": "2018-08-03T01:26:53.901548233Z",
            "type": 2,
            "block_id": {
              "hash": "83DD54D863CD2559051F651FAA1CECEC6C12D97F",
              "parts": {
                "total": "1",
                "hash": "46861EB1817267FF9EA8A8EA30826B508DCC0138"
              }
            },
            "signature": {
              "type": "tendermint/SignatureEd25519",
              "value": "e/rYa1S880Y+QU/3aElcoeDrfhNzla/EZMbp2KdSlhh2xf51AGNFvMeXt7n0EGjSxT77gPrQSPGY5pRzy6rqCg=="
            }
          },
          {
            "validator_address": "96BDE45EC52606CF5CB59853097871AD60680549",
            "validator_index": "54",
            "height": "54098",
            "round": "1",
            "timestamp": "2018-08-03T01:26:53.905851465Z",
            "type": 2,
            "block_id": {
              "hash": "83DD54D863CD2559051F651FAA1CECEC6C12D97F",
              "parts": {
                "total": "1",
                "hash": "46861EB1817267FF9EA8A8EA30826B508DCC0138"
              }
            },
            "signature": {
              "type": "tendermint/SignatureEd25519",
              "value": "uPc2e9DUtQTYgf+6ziQePYHMXKpOwwfSW+DwG3iMQGBfFBIo3J+sI2MgHCQqlk/blbQWzfgSoQ+p9/LQzP3ABQ=="
            }
          },
          {
            "validator_address": "970CD321881185BF83DB2923C321B0E75FDBB2B8",
            "validator_index": "55",
            "height": "54098",
            "round": "1",
            "timestamp": "2018-08-03T01:26:53.961443908Z",
            "type": 2,
            "block_id": {
              "hash": "83DD54D863CD2559051F651FAA1CECEC6C12D97F",
              "parts": {
                "total": "1",
                "hash": "46861EB1817267FF9EA8A8EA30826B508DCC0138"
              }
            },
            "signature": {
              "type": "tendermint/SignatureEd25519",
              "value": "MkhA7Narv/3f66QDXVVjJUXfX6nCbe9Hm2P4IvfZfeE3JtVSowc1Q5l5JbnmOSQ/TolhFTGsRDQovhXRtxmkAw=="
            }
          },
          {
            "validator_address": "97DBB3D4B3D6C29287244864448F651DD5B07390",
            "validator_index": "56",
            "height": "54098",
            "round": "1",
            "timestamp": "2018-08-03T01:26:53.982370884Z",
            "type": 2,
            "block_id": {
              "hash": "83DD54D863CD2559051F651FAA1CECEC6C12D97F",
              "parts": {
                "total": "1",
                "hash": "46861EB1817267FF9EA8A8EA30826B508DCC0138"
              }
            },
            "signature": {
              "type": "tendermint/SignatureEd25519",
              "value": "URIn8ywvEiU1heWvoJkWPpt8XD9Az0YII2bPFs7+Gm38ojFEc1tXs5Rv0GK005yhSfkUqsHArRiueeOGub/bCw=="
            }
          },
          {
            "validator_address": "9C29C9B76D27586E4D9AD2AED0E943162645E55C",
            "validator_index": "57",
            "height": "54098",
            "round": "1",
            "timestamp": "2018-08-03T01:26:53.880925432Z",
            "type": 2,
            "block_id": {
              "hash": "83DD54D863CD2559051F651FAA1CECEC6C12D97F",
              "parts": {
                "total": "1",
                "hash": "46861EB1817267FF9EA8A8EA30826B508DCC0138"
              }
            },
            "signature": {
              "type": "tendermint/SignatureEd25519",
              "value": "U5f2xW/iIeI1jN9z87+maM8Seb4ZVXc/H4YgAsx5zDcdfBwZH9NZtQE5GK9QjKG9VPADZc8/x6jVw7V/UG6+DQ=="
            }
          },
          {
            "validator_address": "9D93AD02FE1BD7E76B9E58D7EB461088EAD011E5",
            "validator_index": "58",
            "height": "54098",
            "round": "1",
            "timestamp": "2018-08-03T01:26:53.842911345Z",
            "type": 2,
            "block_id": {
              "hash": "83DD54D863CD2559051F651FAA1CECEC6C12D97F",
              "parts": {
                "total": "1",
                "hash": "46861EB1817267FF9EA8A8EA30826B508DCC0138"
              }
            },
            "signature": {
              "type": "tendermint/SignatureEd25519",
              "value": "vana16y9TaHEbKsDkGnmqmcrKw3VCtwrMUSCecBZ+Urk78LMwjSY+iE8+Ymepsm7BOKJnhsYjNcnMcQ/o01aCA=="
            }
          },
          {
            "validator_address": "A0A6466F4ABEA09C3B55E3709AFDE217A103209F",
            "validator_index": "59",
            "height": "54098",
            "round": "1",
            "timestamp": "2018-08-03T01:26:53.893924949Z",
            "type": 2,
            "block_id": {
              "hash": "83DD54D863CD2559051F651FAA1CECEC6C12D97F",
              "parts": {
                "total": "1",
                "hash": "46861EB1817267FF9EA8A8EA30826B508DCC0138"
              }
            },
            "signature": {
              "type": "tendermint/SignatureEd25519",
              "value": "tKrvujM0UXPGcjJoOxMGjnLIxJErUz7HIRaaQAQ7MM9HopiDoSN/lDT+bfAceOeZMqx0zx/JVce1OrucgDcIDg=="
            }
          },
          {
            "validator_address": "A5868971300F155020634D7BB49C7634F7AACCD3",
            "validator_index": "60",
            "height": "54098",
            "round": "1",
            "timestamp": "2018-08-03T01:26:53.884610791Z",
            "type": 2,
            "block_id": {
              "hash": "83DD54D863CD2559051F651FAA1CECEC6C12D97F",
              "parts": {
                "total": "1",
                "hash": "46861EB1817267FF9EA8A8EA30826B508DCC0138"
              }
            },
            "signature": {
              "type": "tendermint/SignatureEd25519",
              "value": "jsjWJJ+c0f4Io3+B4BBTLqo5ZhNsTdix+k7ZrNpgOCd1S7deJ+jJhBrme16ss5a+jGAUrAJtztpzoYDC/4cgBw=="
            }
          },
          {
            "validator_address": "A6B3A5B5D982CFD7B5FDFA15CF5A720E7AE25E7F",
            "validator_index": "61",
            "height": "54098",
            "round": "1",
            "timestamp": "2018-08-03T01:26:54.320585448Z",
            "type": 2,
            "block_id": {
              "hash": "83DD54D863CD2559051F651FAA1CECEC6C12D97F",
              "parts": {
                "total": "1",
                "hash": "46861EB1817267FF9EA8A8EA30826B508DCC0138"
              }
            },
            "signature": {
              "type": "tendermint/SignatureEd25519",
              "value": "8wqbBTYf7hMIBU6cmXmxNi+NTjUgly8ZeBJidX1ux5ZJKEG6JXsPiYDsWndI9aKD6uIfubuodCWvwag8TUVADA=="
            }
          },
          {
            "validator_address": "AC96444A9083890B7C7B430DB17BF1D3EA5EED04",
            "validator_index": "62",
            "height": "54098",
            "round": "1",
            "timestamp": "2018-08-03T01:26:53.988213129Z",
            "type": 2,
            "block_id": {
              "hash": "83DD54D863CD2559051F651FAA1CECEC6C12D97F",
              "parts": {
                "total": "1",
                "hash": "46861EB1817267FF9EA8A8EA30826B508DCC0138"
              }
            },
            "signature": {
              "type": "tendermint/SignatureEd25519",
              "value": "spNsWeLmDHWGaPAYgSKBaJkGd5fl12BWZFP158fo8TfVo92xGsh4llWMTJPi2md74orVouLkSGwQkmHPWaKPDQ=="
            }
          },
          {
            "validator_address": "B197425B3210375F211661DE02EF2AE36580EB0F",
            "validator_index": "63",
            "height": "54098",
            "round": "1",
            "timestamp": "2018-08-03T01:26:53.91257393Z",
            "type": 2,
            "block_id": {
              "hash": "83DD54D863CD2559051F651FAA1CECEC6C12D97F",
              "parts": {
                "total": "1",
                "hash": "46861EB1817267FF9EA8A8EA30826B508DCC0138"
              }
            },
            "signature": {
              "type": "tendermint/SignatureEd25519",
              "value": "6N6MDjdz7/6utwwye5fCdc7cXerfb2UqZoV3bJdf7M5rw87Mc9ATGhe5tlL6dsNKf/7LFQ/ZBrbixQDi0oWeCw=="
            }
          },
          {
            "validator_address": "B45E54D2D1CB5A4CCD1D49016608C18E7C56B270",
            "validator_index": "64",
            "height": "54098",
            "round": "1",
            "timestamp": "2018-08-03T01:26:54.019513316Z",
            "type": 2,
            "block_id": {
              "hash": "83DD54D863CD2559051F651FAA1CECEC6C12D97F",
              "parts": {
                "total": "1",
                "hash": "46861EB1817267FF9EA8A8EA30826B508DCC0138"
              }
            },
            "signature": {
              "type": "tendermint/SignatureEd25519",
              "value": "H62UKoEMsoYDISA5dVNGQQ4gZrXyS54JZBqW+i4EnxsVHR0euqfEO67oET9iBOINzj96CO8Gcr68BFRVPEWTAg=="
            }
          },
          {
            "validator_address": "BB1276BE89834835428664408917649FEEF5D90C",
            "validator_index": "65",
            "height": "54098",
            "round": "1",
            "timestamp": "2018-08-03T01:26:53.945082974Z",
            "type": 2,
            "block_id": {
              "hash": "83DD54D863CD2559051F651FAA1CECEC6C12D97F",
              "parts": {
                "total": "1",
                "hash": "46861EB1817267FF9EA8A8EA30826B508DCC0138"
              }
            },
            "signature": {
              "type": "tendermint/SignatureEd25519",
              "value": "6hg2sbL/wLaf9YZ1OJdsVe+NINKuFzn+QIPdHrBovJCRguKwnKthJPTdvZmPhrGvQZlStQFDp6VntxxC1srNCQ=="
            }
          },
          {
            "validator_address": "BC36FEDD6EF6071118A3E51859DF3831A2EC4782",
            "validator_index": "66",
            "height": "54098",
            "round": "1",
            "timestamp": "2018-08-03T01:26:53.899830053Z",
            "type": 2,
            "block_id": {
              "hash": "83DD54D863CD2559051F651FAA1CECEC6C12D97F",
              "parts": {
                "total": "1",
                "hash": "46861EB1817267FF9EA8A8EA30826B508DCC0138"
              }
            },
            "signature": {
              "type": "tendermint/SignatureEd25519",
              "value": "eyVS2KeJ//1C8LRmzJZ2o39CQJeIyWQ5br4d71Kvj64uFCzNG4E+GA2nb0zz7TaOc6Gsh7QyzW/RmBMSQf25CA=="
            }
          },
          {
            "validator_address": "BD9D0DA513BF099DB4BB6E725A4E19832789882F",
            "validator_index": "67",
            "height": "54098",
            "round": "1",
            "timestamp": "2018-08-03T01:26:53.913775129Z",
            "type": 2,
            "block_id": {
              "hash": "83DD54D863CD2559051F651FAA1CECEC6C12D97F",
              "parts": {
                "total": "1",
                "hash": "46861EB1817267FF9EA8A8EA30826B508DCC0138"
              }
            },
            "signature": {
              "type": "tendermint/SignatureEd25519",
              "value": "sfskCMoMYTQ89ey0Rb1hmIV9p/VcutsuNWip+09FanTzIp/3oJyhuuBDhZlT470tK2fMiXxc0+q7KM+GblzuCw=="
            }
          },
          {
            "validator_address": "C1134A2FF8F7338E7CDB3FE57DDD2A655DEB1E22",
            "validator_index": "68",
            "height": "54098",
            "round": "1",
            "timestamp": "2018-08-03T01:26:53.658442593Z",
            "type": 2,
            "block_id": {
              "hash": "83DD54D863CD2559051F651FAA1CECEC6C12D97F",
              "parts": {
                "total": "1",
                "hash": "46861EB1817267FF9EA8A8EA30826B508DCC0138"
              }
            },
            "signature": {
              "type": "tendermint/SignatureEd25519",
              "value": "zezM+nNHpWQeEg0bYrkbvLSavc2F96BjyibmKx8aQ1gWTI14ajnjrV3m2Lfjfun3rJSa4+/nRbUPetJfPKazDg=="
            }
          },
          {
            "validator_address": "C39A8A2B85198DCB8F23AD1F6C198E2BA7AB5D60",
            "validator_index": "69",
            "height": "54098",
            "round": "1",
            "timestamp": "2018-08-03T01:26:53.833239551Z",
            "type": 2,
            "block_id": {
              "hash": "83DD54D863CD2559051F651FAA1CECEC6C12D97F",
              "parts": {
                "total": "1",
                "hash": "46861EB1817267FF9EA8A8EA30826B508DCC0138"
              }
            },
            "signature": {
              "type": "tendermint/SignatureEd25519",
              "value": "xDwimdOLHQJDukaT4ejfPN+gm4bjD2IzAldUk/P8t93sqITKQpaT2eq8jBYDRt9MHSeUgJoZsZzp8TYMciWpDw=="
            }
          },
          {
            "validator_address": "C4335190C3B5BD4BA5568BC0F99C34162D940D08",
            "validator_index": "70",
            "height": "54098",
            "round": "1",
            "timestamp": "2018-08-03T01:26:53.920832358Z",
            "type": 2,
            "block_id": {
              "hash": "83DD54D863CD2559051F651FAA1CECEC6C12D97F",
              "parts": {
                "total": "1",
                "hash": "46861EB1817267FF9EA8A8EA30826B508DCC0138"
              }
            },
            "signature": {
              "type": "tendermint/SignatureEd25519",
              "value": "nQtd0fx1bKpZMXImpq6DDxmXn4fczzWMi36Ni5v6qaxhc8Y/BHLoQXxCxpyyow3evRNXPOcoJ0CIyJPpfIuyDg=="
            }
          },
          {
            "validator_address": "C561CFA081677046376396922E7576E5F7B316AD",
            "validator_index": "71",
            "height": "54098",
            "round": "1",
            "timestamp": "2018-08-03T01:26:53.957905152Z",
            "type": 2,
            "block_id": {
              "hash": "83DD54D863CD2559051F651FAA1CECEC6C12D97F",
              "parts": {
                "total": "1",
                "hash": "46861EB1817267FF9EA8A8EA30826B508DCC0138"
              }
            },
            "signature": {
              "type": "tendermint/SignatureEd25519",
              "value": "3kAE7w86sD8z9O/OllW8Tz5TopUcx5aaHPbKQxJzgembbnW5a7JA9Z6R++6cA9VfbC9PawlcIlQrCrALOm06Aw=="
            }
          },
          {
            "validator_address": "CEB97DB5CB18270247ABDE6CF2F84F9AEE8A2904",
            "validator_index": "72",
            "height": "54098",
            "round": "1",
            "timestamp": "2018-08-03T01:26:55.298147426Z",
            "type": 2,
            "block_id": {
              "hash": "83DD54D863CD2559051F651FAA1CECEC6C12D97F",
              "parts": {
                "total": "1",
                "hash": "46861EB1817267FF9EA8A8EA30826B508DCC0138"
              }
            },
            "signature": {
              "type": "tendermint/SignatureEd25519",
              "value": "RmwggJQlj3X+39EbjNvPg4qxQsdPxcdNS8a2b1lmLfXs4P1MS0O+vNXsjVuwKFoiO9VA/dqK/UuGL074n/iNAQ=="
            }
          },
          {
            "validator_address": "D2134B826A1E25A955905CB79A4D8731CAFA0CCE",
            "validator_index": "73",
            "height": "54098",
            "round": "1",
            "timestamp": "2018-08-03T01:26:53.909859423Z",
            "type": 2,
            "block_id": {
              "hash": "83DD54D863CD2559051F651FAA1CECEC6C12D97F",
              "parts": {
                "total": "1",
                "hash": "46861EB1817267FF9EA8A8EA30826B508DCC0138"
              }
            },
            "signature": {
              "type": "tendermint/SignatureEd25519",
              "value": "naFDHZD4GhnXKRW+G4UJMEVHLtEEQaicXDiydvCVxKBu0drziJy8Svly+vE2AqMJbt245MFIScBCPa3Nj1sCCg=="
            }
          },
          {
            "validator_address": "D6285C3422C8886445D53757CBE12D2B91B5A9D0",
            "validator_index": "74",
            "height": "54098",
            "round": "1",
            "timestamp": "2018-08-03T01:26:37.470720583Z",
            "type": 2,
            "block_id": {
              "hash": "83DD54D863CD2559051F651FAA1CECEC6C12D97F",
              "parts": {
                "total": "1",
                "hash": "46861EB1817267FF9EA8A8EA30826B508DCC0138"
              }
            },
            "signature": {
              "type": "tendermint/SignatureEd25519",
              "value": "Mysq5ytn4zgzmMaFpp+in3vbKD5KDRz7HX7GvSqOfVjdSUUn+7xMCpQDfJtm1BHMJlCJGtpm4KxXehLnoAzIDg=="
            }
          },
          {
            "validator_address": "D77FB84A729972CD3E757C9BEB61561855832B92",
            "validator_index": "75",
            "height": "54098",
            "round": "1",
            "timestamp": "2018-08-03T01:26:54.028430096Z",
            "type": 2,
            "block_id": {
              "hash": "83DD54D863CD2559051F651FAA1CECEC6C12D97F",
              "parts": {
                "total": "1",
                "hash": "46861EB1817267FF9EA8A8EA30826B508DCC0138"
              }
            },
            "signature": {
              "type": "tendermint/SignatureEd25519",
              "value": "I3qn2kHd/Bj8/d6NbApwdDkH0Gl6zDyvqKG3f0Sj7O2ULYopXDKtO4LGvbcH5+ZDFQybolHc/0SleSirYurUCg=="
            }
          },
          {
            "validator_address": "DB7E6732471D3EA5C90C17A9974D9F88AB45F2FB",
            "validator_index": "76",
            "height": "54098",
            "round": "1",
            "timestamp": "2018-08-03T01:26:53.890103982Z",
            "type": 2,
            "block_id": {
              "hash": "83DD54D863CD2559051F651FAA1CECEC6C12D97F",
              "parts": {
                "total": "1",
                "hash": "46861EB1817267FF9EA8A8EA30826B508DCC0138"
              }
            },
            "signature": {
              "type": "tendermint/SignatureEd25519",
              "value": "ouCmBxLEGyS6vKeUybrbVeAfbIRgaodtk/TrWQMkAYFu2AaTOFzlzTaH0tIQsQcygg9dfwePz0YJdMYUru5nAg=="
            }
          },
          {
            "validator_address": "DF54B862410BCD9B5C516FBB6C56BDC826ED6FA7",
            "validator_index": "77",
            "height": "54098",
            "round": "1",
            "timestamp": "2018-08-03T01:26:54.010731793Z",
            "type": 2,
            "block_id": {
              "hash": "83DD54D863CD2559051F651FAA1CECEC6C12D97F",
              "parts": {
                "total": "1",
                "hash": "46861EB1817267FF9EA8A8EA30826B508DCC0138"
              }
            },
            "signature": {
              "type": "tendermint/SignatureEd25519",
              "value": "m/SFaQQVKs+P/g5tLR6TDRJQs70NzduFMkP3N2rsuouTHDPPrvbcA4eKZ4LoqktzwKiDbNLSJixOuYCYN1OyDQ=="
            }
          },
          {
            "validator_address": "DFAF0C8B1B78D6D552B0189DE3ACA351439A1319",
            "validator_index": "78",
            "height": "54098",
            "round": "1",
            "timestamp": "2018-08-03T01:26:53.872631925Z",
            "type": 2,
            "block_id": {
              "hash": "83DD54D863CD2559051F651FAA1CECEC6C12D97F",
              "parts": {
                "total": "1",
                "hash": "46861EB1817267FF9EA8A8EA30826B508DCC0138"
              }
            },
            "signature": {
              "type": "tendermint/SignatureEd25519",
              "value": "cjHxZVO1Q6cMnNYMnMYe0FBsHj4GYdR2FvLnMRmE5cDiUIeY1XKIqPYUcbwDAAA+V3XOWxf1ey9pjBnboQvoBQ=="
            }
          },
          {
            "validator_address": "E1DBC77881161A5A3A8536A57536EAE546A75D69",
            "validator_index": "79",
            "height": "54098",
            "round": "1",
            "timestamp": "2018-08-03T01:26:53.848417715Z",
            "type": 2,
            "block_id": {
              "hash": "83DD54D863CD2559051F651FAA1CECEC6C12D97F",
              "parts": {
                "total": "1",
                "hash": "46861EB1817267FF9EA8A8EA30826B508DCC0138"
              }
            },
            "signature": {
              "type": "tendermint/SignatureEd25519",
              "value": "KdNKvGgo9IgTUpBCKZF4NNs1gHdQ8ZFSYkqpKXFjUcmVOkoRlbE4cBBAYktNgQK+9PjhCwR9vdYY/mwj9gkmBA=="
            }
          },
          {
            "validator_address": "E300E9D484374C1D3E97C1D93CAC3B160A056298",
            "validator_index": "80",
            "height": "54098",
            "round": "1",
            "timestamp": "2018-08-03T01:26:54.151746014Z",
            "type": 2,
            "block_id": {
              "hash": "83DD54D863CD2559051F651FAA1CECEC6C12D97F",
              "parts": {
                "total": "1",
                "hash": "46861EB1817267FF9EA8A8EA30826B508DCC0138"
              }
            },
            "signature": {
              "type": "tendermint/SignatureEd25519",
              "value": "vSSeG6OtyiW2qCMCLSPIiL16OE25aGdMSrgyrjSnRUKp0XxkmEmkOiRskfwDWI+NZtpOXFre9hJV7eCDxamYCQ=="
            }
          },
          {
            "validator_address": "E39B5778E0D4297A46F45CF6940B0A163A430FF8",
            "validator_index": "81",
            "height": "54098",
            "round": "1",
            "timestamp": "2018-08-03T01:26:53.947578377Z",
            "type": 2,
            "block_id": {
              "hash": "83DD54D863CD2559051F651FAA1CECEC6C12D97F",
              "parts": {
                "total": "1",
                "hash": "46861EB1817267FF9EA8A8EA30826B508DCC0138"
              }
            },
            "signature": {
              "type": "tendermint/SignatureEd25519",
              "value": "ZpFQlr6u5FPaU0hAG+jTUVmbsRTJV68gU1YWFbK0I2xksn/XfISTfQ+FD7/ctxXP8uU0KGQxWrdm2BNJ6OIFAw=="
            }
          },
          {
            "validator_address": "E3B19738F7132F950668504D326C7660F159D170",
            "validator_index": "82",
            "height": "54098",
            "round": "1",
            "timestamp": "2018-08-03T01:26:53.890730275Z",
            "type": 2,
            "block_id": {
              "hash": "83DD54D863CD2559051F651FAA1CECEC6C12D97F",
              "parts": {
                "total": "1",
                "hash": "46861EB1817267FF9EA8A8EA30826B508DCC0138"
              }
            },
            "signature": {
              "type": "tendermint/SignatureEd25519",
              "value": "bibxVjrQy84qn+/VHzFDpC1w6IaDNk2i6FYwRSEHFepbkN5f6MjGP1xrreFKJ1cBPBOnp9MtGyQwTqON4xReAw=="
            }
          },
          {
            "validator_address": "E42F8AEABB685219F7027F54D2B0DBC7846F633A",
            "validator_index": "83",
            "height": "54098",
            "round": "1",
            "timestamp": "2018-08-03T01:26:52.852359706Z",
            "type": 2,
            "block_id": {
              "hash": "83DD54D863CD2559051F651FAA1CECEC6C12D97F",
              "parts": {
                "total": "1",
                "hash": "46861EB1817267FF9EA8A8EA30826B508DCC0138"
              }
            },
            "signature": {
              "type": "tendermint/SignatureEd25519",
              "value": "ucbQD8tqYcKjDgxCQX6pPe4inOAX+4iS/9Tn9MeGOErcS05DKZpxTOTsrgb9HZCad+jjOzOwMXP4X2nqxGJaDA=="
            }
          },
          {
            "validator_address": "E4E6C2E81269DFFA196C17F98240E491479A6008",
            "validator_index": "84",
            "height": "54098",
            "round": "1",
            "timestamp": "2018-08-03T01:26:53.97908056Z",
            "type": 2,
            "block_id": {
              "hash": "83DD54D863CD2559051F651FAA1CECEC6C12D97F",
              "parts": {
                "total": "1",
                "hash": "46861EB1817267FF9EA8A8EA30826B508DCC0138"
              }
            },
            "signature": {
              "type": "tendermint/SignatureEd25519",
              "value": "eQtOkI0MsQZLhUmsNmvMqPwkuxm9I+gFMzi/Y17leZjvFLBNAt8kcBWq5tZalNIlkHuVXaTk5vPjUtPL8YEPBA=="
            }
          },
          {
            "validator_address": "E50ADECD5FD27FA2CD610C07F8AED36A2FC4A6A6",
            "validator_index": "85",
            "height": "54098",
            "round": "1",
            "timestamp": "2018-08-03T01:26:53.882543893Z",
            "type": 2,
            "block_id": {
              "hash": "83DD54D863CD2559051F651FAA1CECEC6C12D97F",
              "parts": {
                "total": "1",
                "hash": "46861EB1817267FF9EA8A8EA30826B508DCC0138"
              }
            },
            "signature": {
              "type": "tendermint/SignatureEd25519",
              "value": "PCLiWvCuTXl9bl68bnsV44r7pB83Bt4KXxSxSMC06M8jmjy+3WJksQ3T31VZlGzVsmWTIE6OrFX0IvtQgJz9BA=="
            }
          },
          {
            "validator_address": "E6A7079D584B163750BE0831227F6B685DEAF3C1",
            "validator_index": "86",
            "height": "54098",
            "round": "1",
            "timestamp": "2018-08-03T01:26:53.941448544Z",
            "type": 2,
            "block_id": {
              "hash": "83DD54D863CD2559051F651FAA1CECEC6C12D97F",
              "parts": {
                "total": "1",
                "hash": "46861EB1817267FF9EA8A8EA30826B508DCC0138"
              }
            },
            "signature": {
              "type": "tendermint/SignatureEd25519",
              "value": "Vq1NY7BgEbaI+MrwrukuANuHcgwoTHeONPjUK+SE1W5uUlHABN8iO5+6fXfBruMNV5fyF9QFTktXyFuD3wglAw=="
            }
          },
          {
            "validator_address": "E7A30077D5D11867D3EAF99ED45BFDC1EB834509",
            "validator_index": "87",
            "height": "54098",
            "round": "1",
            "timestamp": "2018-08-03T01:26:53.87814383Z",
            "type": 2,
            "block_id": {
              "hash": "83DD54D863CD2559051F651FAA1CECEC6C12D97F",
              "parts": {
                "total": "1",
                "hash": "46861EB1817267FF9EA8A8EA30826B508DCC0138"
              }
            },
            "signature": {
              "type": "tendermint/SignatureEd25519",
              "value": "fY536enufYANXsg/MHp9cRmYn9B1KStdnCHG7hmevlTcNyfC6+TM/gnTeWvSSkbySpNJMrxpq0HH0KQfhPqIBg=="
            }
          },
          {
            "validator_address": "EBC613967F66F4EC306852CDF58B4F151CF16738",
            "validator_index": "88",
            "height": "54098",
            "round": "1",
            "timestamp": "2018-08-03T01:26:54.01214297Z",
            "type": 2,
            "block_id": {
              "hash": "83DD54D863CD2559051F651FAA1CECEC6C12D97F",
              "parts": {
                "total": "1",
                "hash": "46861EB1817267FF9EA8A8EA30826B508DCC0138"
              }
            },
            "signature": {
              "type": "tendermint/SignatureEd25519",
              "value": "gB/ZhUmEmHzoBybcIj7xsJY3g2LHh9lAR/rqZn38IFVSeed+Zi9WtGsFfA0yFn3bXIhF+1fokDxfTagOjEH1BA=="
            }
          },
          {
            "validator_address": "EC3401441726C40ECC7E51F744483B05BC6DE9BD",
            "validator_index": "89",
            "height": "54098",
            "round": "1",
            "timestamp": "2018-08-03T01:26:53.944997954Z",
            "type": 2,
            "block_id": {
              "hash": "83DD54D863CD2559051F651FAA1CECEC6C12D97F",
              "parts": {
                "total": "1",
                "hash": "46861EB1817267FF9EA8A8EA30826B508DCC0138"
              }
            },
            "signature": {
              "type": "tendermint/SignatureEd25519",
              "value": "18FMgQInNGv8/4EkdKGZCaAwYmRDMT5fW1qh2agt2qSLnhvdSH4gXPxY7L0qcS/8QCoCyuE3tq8vABzlJsn7AA=="
            }
          },
          {
            "validator_address": "EC95B111D032181E1EC3B5E8875C5BB8E4AE7140",
            "validator_index": "90",
            "height": "54098",
            "round": "1",
            "timestamp": "2018-08-03T01:26:53.905351915Z",
            "type": 2,
            "block_id": {
              "hash": "83DD54D863CD2559051F651FAA1CECEC6C12D97F",
              "parts": {
                "total": "1",
                "hash": "46861EB1817267FF9EA8A8EA30826B508DCC0138"
              }
            },
            "signature": {
              "type": "tendermint/SignatureEd25519",
              "value": "t2a9PymHgu5mv4B1HmXxh4WwWMWdSwQFutAgvWbzvr0gx3QuY1+Ijgr4fr2lqfJwdYSGN9Ol52cW/fq14DIyCw=="
            }
          },
          {
            "validator_address": "F13C1805E8131C9B47E2A46818F57D8A2841E578",
            "validator_index": "91",
            "height": "54098",
            "round": "1",
            "timestamp": "2018-08-03T01:26:54.00891296Z",
            "type": 2,
            "block_id": {
              "hash": "83DD54D863CD2559051F651FAA1CECEC6C12D97F",
              "parts": {
                "total": "1",
                "hash": "46861EB1817267FF9EA8A8EA30826B508DCC0138"
              }
            },
            "signature": {
              "type": "tendermint/SignatureEd25519",
              "value": "U1SHO8AZZA0nBtvwNlPMvEOcmgtXS6767JzxVMkIYq6zJAy/SpQ7KIV+jLS5DaFVoBh7RPDbWe4hvgxRxw+DCw=="
            }
          },
          {
            "validator_address": "F23FF36BD5B90C33CE3A03ED72DBDCF5EC07D6AF",
            "validator_index": "92",
            "height": "54098",
            "round": "1",
            "timestamp": "2018-08-03T01:26:53.982066782Z",
            "type": 2,
            "block_id": {
              "hash": "83DD54D863CD2559051F651FAA1CECEC6C12D97F",
              "parts": {
                "total": "1",
                "hash": "46861EB1817267FF9EA8A8EA30826B508DCC0138"
              }
            },
            "signature": {
              "type": "tendermint/SignatureEd25519",
              "value": "k7bEXNMl9aNfnQmrs8lQPD0FKXfXeKuMe5fWAfwR2KZuRIk1aW9q6y0OZZdO+OiaplP9L0vg9JuzD/V7/CvUDQ=="
            }
          },
          {
            "validator_address": "F4268597DE93E3E2CED38845010F8AA34E2A879E",
            "validator_index": "93",
            "height": "54098",
            "round": "1",
            "timestamp": "2018-08-03T01:26:54.020187705Z",
            "type": 2,
            "block_id": {
              "hash": "83DD54D863CD2559051F651FAA1CECEC6C12D97F",
              "parts": {
                "total": "1",
                "hash": "46861EB1817267FF9EA8A8EA30826B508DCC0138"
              }
            },
            "signature": {
              "type": "tendermint/SignatureEd25519",
              "value": "NcDqmb63Sg43WOvyj96nK1uq2Svqf4Mjl7Nr75csSDUorLgtIIznqY27f3D+kYEs0zcImlwpl86/J+YhZ0zJCw=="
            }
          },
          {
            "validator_address": "F4DEB417999B04BE2EFF9FFE03FA373D86011CC0",
            "validator_index": "94",
            "height": "54098",
            "round": "1",
            "timestamp": "2018-08-03T01:26:53.999674308Z",
            "type": 2,
            "block_id": {
              "hash": "83DD54D863CD2559051F651FAA1CECEC6C12D97F",
              "parts": {
                "total": "1",
                "hash": "46861EB1817267FF9EA8A8EA30826B508DCC0138"
              }
            },
            "signature": {
              "type": "tendermint/SignatureEd25519",
              "value": "vHZs170A7gduYk3hMSlWp6m0aG4eLBgBoid2yixqHda8niQWNwGmQafhP8cQ8T/HMNhWHnwFOIuKCPFJ+UmWCQ=="
            }
          },
          {
            "validator_address": "F6738260186D33D9C14FC6E7017AFE6BB952A63D",
            "validator_index": "95",
            "height": "54098",
            "round": "1",
            "timestamp": "2018-08-03T01:26:53.890812239Z",
            "type": 2,
            "block_id": {
              "hash": "83DD54D863CD2559051F651FAA1CECEC6C12D97F",
              "parts": {
                "total": "1",
                "hash": "46861EB1817267FF9EA8A8EA30826B508DCC0138"
              }
            },
            "signature": {
              "type": "tendermint/SignatureEd25519",
              "value": "VSwxMIgl31f4sD1yoBPKZ704a4lOHbbWinZB4gnRghywg7/ZEKOw8WZ2K+fZAFFR0ScgtDKZyxfQ0BlPbdKJDw=="
            }
          },
          {
            "validator_address": "FD8D304F0278229077114B05BED9DABD382D49D8",
            "validator_index": "96",
            "height": "54098",
            "round": "1",
            "timestamp": "2018-08-03T01:26:53.99758609Z",
            "type": 2,
            "block_id": {
              "hash": "83DD54D863CD2559051F651FAA1CECEC6C12D97F",
              "parts": {
                "total": "1",
                "hash": "46861EB1817267FF9EA8A8EA30826B508DCC0138"
              }
            },
            "signature": {
              "type": "tendermint/SignatureEd25519",
              "value": "NEyrX8gIFwclaXPq1V0MxpLiZfHk7OQvBJzHz5XlWjSXTcClVWcqsMue5Xrp1FHv0b/L8LaZsdUuKqP1xqVnAw=="
            }
          },
          {
            "validator_address": "FF3F3FCBCE7E62D7AD5506FF846EC4518D980515",
            "validator_index": "97",
            "height": "54098",
            "round": "1",
            "timestamp": "2018-08-03T01:26:53.868889429Z",
            "type": 2,
            "block_id": {
              "hash": "83DD54D863CD2559051F651FAA1CECEC6C12D97F",
              "parts": {
                "total": "1",
                "hash": "46861EB1817267FF9EA8A8EA30826B508DCC0138"
              }
            },
            "signature": {
              "type": "tendermint/SignatureEd25519",
              "value": "AmQbV6aDYnfoYv45f2OIQfZmMMna1Utgqs4dNWSp3ZPOdhb71no06CsbUtBR4uIGwbStUb8CUT54CodWmMmXBQ=="
            }
          }
        ]
      }
    },
    "canonical": true
  }
}