{
  "jsonrpc": "2.0",
  "id": "",
  "result": {
    "SignedHeader": {
      "header": {
        "chain_id": "gaia-7004",
        "height": "54629",
        "time": "2018-08-03T02:21:00.765248485Z",
        "num_txs": "0",
        "last_block_id": {
          "hash": "D494ABE27805E95DD0E500CDDCA4F9FC69BEC8B0",
          "parts": {
            "total": "1",
            "hash": "4BA46F9EEFCEC396DA35B03CD7A51894D2EC01F7"
          }
        },
        "total_txs": "2347",
        "last_commit_hash": "3AF8609FBDAC7B44204059FD7E7AC5F51779B0A6",
        "data_hash": "",
        "validators_hash": "BEB4D07F34EC2687BC46F150EAC5707518422BD5",
        "consensus_hash": "D6B74BB35BDFFD8392340F2A379173548AE188FE",
        "app_hash": "645B15C90B32522FCE705C8D2D9EC96C0C93A6BD",
        "last_results_hash": "",
        "evidence_hash": ""
      },
      "commit": {
        "block_id": {
          "hash": "85FC8AE72BAC62B5BAAE24AA26E55FB5EA010742",
          "parts": {
            "total": "1",
            "hash": "25CAD36EC1D001EDEBDEA3337EC15F21019D54D4"
          }
        },
        "precommits": [
          {
            "validator_address": "029359C0C768096273A68ABC902A6B17AC8D1D70",
            "validator_index": "0",
            "height": "54629",
            "round": "0",
            "timestamp": "2018-08-03T02:21:01.539915308Z",
            "type": 2,
            "block_id": {
              "hash": "85FC8AE72BAC62B5BAAE24AA26E55FB5EA010742",
              "parts": {
                "total": "1",
                "hash": "25CAD36EC1D001EDEBDEA3337EC15F21019D54D4"
              }
            },
            "signature": {
              "type": "tendermint/SignatureEd25519",
              "value": "QwKtiNF+o2dWjDtCWYRskIToZz1qiMFpji3EheOXMwzTScQQpDTYh2DuB+0+Rekt3cZGR1XbR95F3BFtoJCgBQ=="
            }
          },
          {
            "validator_address": "02FE4B97A8387F39D1AC19E0C1702B3CC614812F",
            "validator_index": "1",
            "height": "54629",
            "round": "0",
            "timestamp": "2018-08-03T02:21:01.546681782Z",
            "type": 2,
            "block_id": {
              "hash": "85FC8AE72BAC62B5BAAE24AA26E55FB5EA010742",
              "parts": {
                "total": "1",
                "hash": "25CAD36EC1D001EDEBDEA3337EC15F21019D54D4"
              }
            },
            "signature": {
              "type": "tendermint/SignatureEd25519",
              "value": "P/2X1AW2NCRsD8UK82kf/m8d/2AP3znqsthcWvk4dWJnsflWEPW1rk6ebduAFkj6smbMHvO4BmK9u8ULogrXBw=="
            }
          },
          {
            "validator_address": "0548261C50222FD710EB5EBDF03A0E6567B21D20",
            "validator_index": "2",
            "height": "54629",
            "round": "0",
            "timestamp": "2018-08-03T02:21:01.669342047Z",
            "type": 2,
            "block_id": {
              "hash": "85FC8AE72BAC62B5BAAE24AA26E55FB5EA010742",
              "parts": {
                "total": "1",
                "hash": "25CAD36EC1D001EDEBDEA3337EC15F21019D54D4"
              }
            },
            "signature": {
              "type": "tendermint/SignatureEd25519",
              "value": "ufGr2R94o7AFYHLCxkyc0MgmHmPuexgaor6BkQkdZ9RRcq/R+1z31tyxZCxnCigXESPt3ptIPDeuYGAf6fG4DA=="
            }
          },
          {
            "validator_address": "0665ADBF9B120B7617BF955AA5653A1992C82B11",
            "validator_index": "3",
            "height": "54629",
            "round": "0",
            "timestamp": "2018-08-03T02:21:01.543376564Z",
            "type": 2,
            "block_id": {
              "hash": "85FC8AE72BAC62B5BAAE24AA26E55FB5EA010742",
              "parts": {
                "total": "1",
                "hash": "25CAD36EC1D001EDEBDEA3337EC15F21019D54D4"
              }
            },
            "signature": {
              "type": "tendermint/SignatureEd25519",
              "value": "r9vwQxV3d/ufFns50rSBPUzg7B1jgM9iZSjzCSFg0cEwZzPSkD74QatnhaWtGVVXE+j/Ce3AdqFFiR48blCpAQ=="
            }
          },
          {
            "validator_address": "09145E611CC27EEB944FC5A956DDF710F943B9EF",
            "validator_index": "4",
            "height": "54629",
            "round": "0",
            "timestamp": "2018-08-03T02:21:01.596136314Z",
            "type": 2,
            "block_id": {
              "hash": "85FC8AE72BAC62B5BAAE24AA26E55FB5EA010742",
              "parts": {
                "total": "1",
                "hash": "25CAD36EC1D001EDEBDEA3337EC15F21019D54D4"
              }
            },
            "signature": {
              "type": "tendermint/SignatureEd25519",
              "value": "fFdWFSgAQ7E9J5j3N2uqoHLtUo3bkbFTh9yog0Dc6zlsFFW1NjKPOsf2UAUgmG/EQg/2f3K45g92MPNCcZtGAw=="
            }
          },
          {
            "validator_address": "0989D0355A104B67AE0AE028C68FB610690E174B",
            "validator_index": "5",
            "height": "54629",
            "round": "0",
            "timestamp": "2018-08-03T02:21:01.557837385Z",
            "type": 2,
            "block_id": {
              "hash": "85FC8AE72BAC62B5BAAE24AA26E55FB5EA010742",
              "parts": {
                "total": "1",
                "hash": "25CAD36EC1D001EDEBDEA3337EC15F21019D54D4"
              }
            },
            "signature": {
              "type": "tendermint/SignatureEd25519",
              "value": "5XyQc8YLqMaK16+O4y5+MXvTDUzowgMpD1/JzHmI+i9S9LJiRCQuKtySYkxI4DpMiErBIxvDiPGuDZ1pGi1KCQ=="
            }
          },
          {
            "validator_address": "0A692DBFFE9E5DD28E7DECC33CED1AEB4C0D014E",
            "validator_index": "6",
            "height": "54629",
            "round": "0",
            "timestamp": "2018-08-03T02:21:01.674160092Z",
            "type": 2,
            "block_id": {
              "hash": "85FC8AE72BAC62B5BAAE24AA26E55FB5EA010742",
              "parts": {
                "total": "1",
                "hash": "25CAD36EC1D001EDEBDEA3337EC15F21019D54D4"
              }
            },
            "signature": {
              "type": "tendermint/SignatureEd25519",
              "value": "sA9Khv9tinMDwEhHjyVgReBKaP6pqIsqeAhZ/y54RA/98Pj4EQPin8XgIsd99mu0YAdoQvx17gxxqIsUtS6CDQ=="
            }
          },
          {
            "validator_address": "1751786EFC085D5331C61168FFFC8202EA151B4E",
            "validator_index": "7",
            "height": "54629",
            "round": "0",
            "timestamp": "2018-08-03T02:21:01.160257569Z",
            "type": 2,
            "block_id": {
              "hash": "85FC8AE72BAC62B5BAAE24AA26E55FB5EA010742",
              "parts": {
                "total": "1",
                "hash": "25CAD36EC1D001EDEBDEA3337EC15F21019D54D4"
              }
            },
            "signature": {
              "type": "tendermint/SignatureEd25519",
              "value": "rOv+LkK2jG7ENdiJhMFA77tpNQFvGpLh7iIr/EXUXZtljIiZeab5crqBG0IUMEFWldySyMKNHIFJCxV4K2LLBw=="
            }
          },
          {
            "validator_address": "17BB5CD01E8940FAFB948A04D5FA5A0645E5822E",
            "validator_index": "8",
            "height": "54629",
            "round": "0",
            "timestamp": "2018-08-03T02:21:01.595404173Z",
            "type": 2,
            "block_id": {
              "hash": "85FC8AE72BAC62B5BAAE24AA26E55FB5EA010742",
              "parts": {
                "total": "1",
                "hash": "25CAD36EC1D001EDEBDEA3337EC15F21019D54D4"
              }
            },
            "signature": {
              "type": "tendermint/SignatureEd25519",
              "value": "pD0rXUZ+/3U58h0NAat7eYdY37BUrNjHJa5SN4LUSPshJ18uhyawVZze2W3zQiDz/av2xOWAJUASogxFy5qxAg=="
            }
          },
          {
            "validator_address": "1C683A87904BC38F05004FE83301A3A3E35447EB",
            "validator_index": "9",
            "height": "54629",
            "round": "0",
            "timestamp": "2018-08-03T02:21:01.514346891Z",
            "type": 2,
            "block_id": {
              "hash": "85FC8AE72BAC62B5BAAE24AA26E55FB5EA010742",
              "parts": {
                "total": "1",
                "hash": "25CAD36EC1D001EDEBDEA3337EC15F21019D54D4"
              }
            },
            "signature": {
              "type": "tendermint/SignatureEd25519",
              "value": "jX4lAaITTYad22Z5jCWJ9XCVYetctI/RU52B2/6+dylm/Vernns/0lArVI+PnH062+OfNFxR5VOSD9noGejjBw=="
            }
          },
          {
            "validator_address": "1E9CE94FD0BA5CFEB901F90BC658D64D85B134D2",
            "validator_index": "10",
            "height": "54629",
            "round": "0",
            "timestamp": "2018-08-03T02:21:01.555087761Z",
            "type": 2,
            "block_id": {
              "hash": "85FC8AE72BAC62B5BAAE24AA26E55FB5EA010742",
              "parts": {
                "total": "1",
                "hash": "25CAD36EC1D001EDEBDEA3337EC15F21019D54D4"
              }
            },
            "signature": {
              "type": "tendermint/SignatureEd25519",
              "value": "7WEzigCUJn6Z6Joq8zdiP7WhwmctHHs1FokEdmN+cpdRfx5KU/XjXdPaUix/4ktd7Ok9St6QCWZQr6Xw/wWfAg=="
            }
          },
          {
            "validator_address": "1ECD8C5FE1341D74CDC633A245DD56858DE2F9A2",
            "validator_index": "11",
            "height": "54629",
            "round": "0",
            "timestamp": "2018-08-03T02:21:01.641795902Z",
            "type": 2,
            "block_id": {
              "hash": "85FC8AE72BAC62B5BAAE24AA26E55FB5EA010742",
              "parts": {
                "total": "1",
                "hash": "25CAD36EC1D001EDEBDEA3337EC15F21019D54D4"
              }
            },
            "signature": {
              "type": "tendermint/SignatureEd25519",
              "value": "d/GlazEyvKpWe6gYoQI3eYknpEhT7ZhcfuxRa2qgz8dBSDBUYImFBfJI1K1TIvn4miufY7gWbK5WUpFVH2PTBQ=="
            }
          },
          {
            "validator_address": "1F3A68CAAD483768AA2BF667DEF10F7104C89928",
            "validator_index": "12",
            "height": "54629",
            "round": "0",
            "timestamp": "2018-08-03T02:21:01.581954259Z",
            "type": 2,
            "block_id": {
              "hash": "85FC8AE72BAC62B5BAAE24AA26E55FB5EA010742",
              "parts": {
                "total": "1",
                "hash": "25CAD36EC1D001EDEBDEA3337EC15F21019D54D4"
              }
            },
            "signature": {
              "type": "tendermint/SignatureEd25519",
              "value": "8N753tFRQRTPl8OXAXK1UUimtvtvWXCzWC2rI7LE14Dj9xg6gq/1JTSI2uzKESQe4OjKFmUf2WDvDrYXzpOsAQ=="
            }
          },
          {
            "validator_address": "1F61153F26C2DF27E15874268D30326287323352",
            "validator_index": "13",
            "height": "54629",
            "round": "0",
            "timestamp": "2018-08-03T02:21:01.635385299Z",
            "type": 2,
            "block_id": {
              "hash": "85FC8AE72BAC62B5BAAE24AA26E55FB5EA010742",
              "parts": {
                "total": "1",
                "hash": "25CAD36EC1D001EDEBDEA3337EC15F21019D54D4"
              }
            },
            "signature": {
              "type": "tendermint/SignatureEd25519",
              "value": "/Om1I5Ql6LhpDQWMbyot2ToAb02hITU8/CqGewL13hSbPREj9lQ87+m5O0V6DyNiMlVU+euc4+zxNrZlfLtIDw=="
            }
          },
          {
            "validator_address": "23897586D68E2AC1C78E0EF5BB5DF5C8EAB18F50",
            "validator_index": "14",
            "height": "54629",
            "round": "0",
            "timestamp": "2018-08-03T02:21:01.613299272Z",
            "type": 2,
            "block_id": {
              "hash": "85FC8AE72BAC62B5BAAE24AA26E55FB5EA010742",
              "parts": {
                "total": "1",
                "hash": "25CAD36EC1D001EDEBDEA3337EC15F21019D54D4"
              }
            },
            "signature": {
              "type": "tendermint/SignatureEd25519",
              "value": "d/ZexM/bDk+mpb5bvPdp08SjXPbCZKVvVE0h8ZGHF1B5TY+aIE1Ls+zh7zKkr6vtFYNY1gT2g5I3VDc7dq3LDA=="
            }
          },
          {
            "validator_address": "28770D17E8530825E7310A0659308654B7EC9682",
            "validator_index": "15",
            "height": "54629",
            "round": "0",
            "timestamp": "2018-08-03T02:21:01.555127293Z",
            "type": 2,
            "block_id": {
              "hash": "85FC8AE72BAC62B5BAAE24AA26E55FB5EA010742",
              "parts": {
                "total": "1",
                "hash": "25CAD36EC1D001EDEBDEA3337EC15F21019D54D4"
              }
            },
            "signature": {
              "type": "tendermint/SignatureEd25519",
              "value": "d3vccobThjqEwD3KTZdcI0aHLExccD+vX4f8x+KMsD1oDUG9rt4upsALntCte+wDcc+2IHXCZyOdZDa8tp70Bg=="
            }
          },
          {
            "validator_address": "2A92EC3C642140202298D0E245095E0ECFC25228",
            "validator_index": "16",
            "height": "54629",
            "round": "0",
            "timestamp": "2018-08-03T02:21:01.631344539Z",
            "type": 2,
            "block_id": {
              "hash": "85FC8AE72BAC62B5BAAE24AA26E55FB5EA010742",
              "parts": {
                "total": "1",
                "hash": "25CAD36EC1D001EDEBDEA3337EC15F21019D54D4"
              }
            },
            "signature": {
              "type": "tendermint/SignatureEd25519",
              "value": "RmzYFEqzDwE+a6wo28Fe8vu7REhRggZgh54mB8ta1Ai0SPfIqUtTGVs4y6xUPujzlFr4hc0Gz81AlR94WHFyAA=="
            }
          },
          {
            "validator_address": "33412C9A69C60CB0FAA24A5C5B3A906DE24B47C2",
            "validator_index": "17",
            "height": "54629",
            "round": "0",
            "timestamp": "2018-08-03T02:21:01.545536962Z",
            "type": 2,
            "block_id": {
              "hash": "85FC8AE72BAC62B5BAAE24AA26E55FB5EA010742",
              "parts": {
                "total": "1",
                "hash": "25CAD36EC1D001EDEBDEA3337EC15F21019D54D4"
              }
            },
            "signature": {
              "type": "tendermint/SignatureEd25519",
              "value": "kIADuIGdXCDqvDVsjx4M18UeHezEHSZBIEJco4uvfBzKuHcBMtCvaTzx0nVsyM/93lAc38kzCWRASvh74aCPBg=="
            }
          },
          {
            "validator_address": "36E9B7FAEC964F97D84C028ED62493E373AD0B38",
            "validator_index": "18",
            "height": "54629",
            "round": "0",
            "timestamp": "2018-08-03T02:21:01.637472517Z",
            "type": 2,
            "block_id": {
              "hash": "85FC8AE72BAC62B5BAAE24AA26E55FB5EA010742",
              "parts": {
                "total": "1",
                "hash": "25CAD36EC1D001EDEBDEA3337EC15F21019D54D4"
              }
            },
            "signature": {
              "type": "tendermint/SignatureEd25519",
              "value": "ivdyYE70BAoWwDEV9sKtuzpkV61Uoi9BpCFf6XOGL//2zt0XlNTtt3DXmibT2r92cnxcInJ8o1sM0tesEthFAw=="
            }
          },
          {
            "validator_address": "38A8D85D36BEA2E5FCF8A1E778F53628E450EF13",
            "validator_index": "19",
            "height": "54629",
            "round": "0",
            "timestamp": "2018-08-03T02:21:01.696654052Z",
            "type": 2,
            "block_id": {
              "hash": "85FC8AE72BAC62B5BAAE24AA26E55FB5EA010742",
              "parts": {
                "total": "1",
                "hash": "25CAD36EC1D001EDEBDEA3337EC15F21019D54D4"
              }
            },
            "signature": {
              "type": "tendermint/SignatureEd25519",
              "value": "nY7o31uvO1PLKIgxwlHysS75NvsqmrpAhiLbWq8D4U2Wdup4XRip9hrlVpNG1030AYnquZ0vaVf/vG30jHanBw=="
            }
          },
          {
            "validator_address": "39DFDA0C5DB84B269642188B23253508537798E6",
            "validator_index": "20",
            "height": "54629",
            "round": "0",
            "timestamp": "2018-08-03T02:21:01.533446279Z",
            "type": 2,
            "block_id": {
              "hash": "85FC8AE72BAC62B5BAAE24AA26E55FB5EA010742",
              "parts": {
                "total": "1",
                "hash": "25CAD36EC1D001EDEBDEA3337EC15F21019D54D4"
              }
            },
            "signature": {
              "type": "tendermint/SignatureEd25519",
              "value": "7JBpUkz2GxZS3XQitDOgsBJTV07DMPQ6/M8oDVaUFRghKkD6S/unAKOgOSEqgJ3xahJOz1Ly3g2Nw2m49XX3Dw=="
            }
          },
          {
            "validator_address": "3AC99B708404452366E0953A4BE849226DC86CBC",
            "validator_index": "21",
            "height": "54629",
            "round": "0",
            "timestamp": "2018-08-03T02:21:01.695621516Z",
            "type": 2,
            "block_id": {
              "hash": "85FC8AE72BAC62B5BAAE24AA26E55FB5EA010742",
              "parts": {
                "total": "1",
                "hash": "25CAD36EC1D001EDEBDEA3337EC15F21019D54D4"
              }
            },
            "signature": {
              "type": "tendermint/SignatureEd25519",
              "value": "B3EILbhDP96MPxwzt0LegZsxtnPpw5aC5dzi3lGAE4NwmohXKRHaLYMHLbQwVJTWdrAMrT4O/TnPjI3MGqaJDg=="
            }
          },
          {
            "validator_address": "3DCB822A10ED319EC7C4393D8E3FD4A41B15AAF2",
            "validator_index": "22",
            "height": "54629",
            "round": "0",
            "timestamp": "2018-08-03T02:21:01.552453504Z",
            "type": 2,
            "block_id": {
              "hash": "85FC8AE72BAC62B5BAAE24AA26E55FB5EA010742",
              "parts": {
                "total": "1",
                "hash": "25CAD36EC1D001EDEBDEA3337EC15F21019D54D4"
              }
            },
            "signature": {
              "type": "tendermint/SignatureEd25519",
              "value": "sdOrc8jCtLmdUxyl+3JNxja2LDRKU51WK+o4BQ2zHitM35VvM9jh6T1GK5vME1cQlhfVNWS525x7yWsc6ntEBQ=="
            }
          },
          {
            "validator_address": "3E899BA36A93C7370347BD5FE85909F2ECD93F8C",
            "validator_index": "23",
            "height": "54629",
            "round": "0",
            "timestamp": "2018-08-03T02:21:01.589506553Z",
            "type": 2,
            "block_id": {
              "hash": "85FC8AE72BAC62B5BAAE24AA26E55FB5EA010742",
              "parts": {
                "total": "1",
                "hash": "25CAD36EC1D001EDEBDEA3337EC15F21019D54D4"
              }
            },
            "signature": {
              "type": "tendermint/SignatureEd25519",
              "value": "Od+oimkBcNlBCJeqUddsd0yWKUvXEmNs/JnNQb3M/LgQVmuCg9rgdYjWBGIhB/gd6XqLkpg41Fo8UAL632vxDw=="
            }
          },
          {
            "validator_address": "41CAB2E29E7D0F2282E3275938F188FF9386B84C",
            "validator_index": "24",
            "height": "54629",
            "round": "0",
            "timestamp": "2018-08-03T02:21:01.660814458Z",
            "type": 2,
            "block_id": {
              "hash": "85FC8AE72BAC62B5BAAE24AA26E55FB5EA010742",
              "parts": {
                "total": "1",
                "hash": "25CAD36EC1D001EDEBDEA3337EC15F21019D54D4"
              }
            },
            "signature": {
              "type": "tendermint/SignatureEd25519",
              "value": "FAJgdK+X1mrrCUkALXjmve/TYwf5jKwCQficTRGby8LVWNXYXatlDn17lFldJ5AY0Je8t0+qo4fptkSplJ8ABw=="
            }
          },
          {
            "validator_address": "462B656869DB02A8FD1077E255F8CC7401DC37C6",
            "validator_index": "25",
            "height": "54629",
            "round": "0",
            "timestamp": "2018-08-03T02:21:01.55148227Z",
            "type": 2,
            "block_id": {
              "hash": "85FC8AE72BAC62B5BAAE24AA26E55FB5EA010742",
              "parts": {
                "total": "1",
                "hash": "25CAD36EC1D001EDEBDEA3337EC15F21019D54D4"
              }
            },
            "signature": {
              "type": "tendermint/SignatureEd25519",
              "value": "pJnFyIWFky6IBKaAT0SF0Lw+FcyrmBa6gPu6LnT2omy57lIPSvymYuz2qijDzrus228ZNo1+TDL7TUgbAu+mDw=="
            }
          },
          {
            "validator_address": "48E5118163E5442068A1B5A42D2EEDBB75724935",
            "validator_index": "26",
            "height": "54629",
            "round": "0",
            "timestamp": "2018-08-03T02:21:01.709398841Z",
            "type": 2,
            "block_id": {
              "hash": "85FC8AE72BAC62B5BAAE24AA26E55FB5EA010742",
              "parts": {
                "total": "1",
                "hash": "25CAD36EC1D001EDEBDEA3337EC15F21019D54D4"
              }
            },
            "signature": {
              "type": "tendermint/SignatureEd25519",
              "value": "yf6V4y2oUDwucTM2Sbws29/l+i6PoFQrnKh+RTDy1iuVtPZTvzBYQnVXGOGxXYqyj6+AeHtNBQG/3Kw0AWNHAQ=="
            }
          },
          {
            "validator_address": "49103C58AFD9C7C069F55EBA218F3DFD9AEA74F9",
            "validator_index": "27",
            "height": "54629",
            "round": "0",
            "timestamp": "2018-08-03T02:21:01.602844822Z",
            "type": 2,
            "block_id": {
              "hash": "85FC8AE72BAC62B5BAAE24AA26E55FB5EA010742",
              "parts": {
                "total": "1",
                "hash": "25CAD36EC1D001EDEBDEA3337EC15F21019D54D4"
              }
            },
            "signature": {
              "type": "tendermint/SignatureEd25519",
              "value": "QZBmLV6bBX5AUlTyA0b5Ys3UwT9/TIrq+BlyaAk4F5KCRBbuTRNXnlyKnyBbY78fD/3s0hTvLe5DHPg50yLbCA=="
            }
          },
          {
            "validator_address": "4944F8BBBB5303E17BC0607DF332320EDBC750EA",
            "validator_index": "28",
            "height": "54629",
            "round": "0",
            "timestamp": "2018-08-03T02:21:01.56867226Z",
            "type": 2,
            "block_id": {
              "hash": "85FC8AE72BAC62B5BAAE24AA26E55FB5EA010742",
              "parts": {
                "total": "1",
                "hash": "25CAD36EC1D001EDEBDEA3337EC15F21019D54D4"
              }
            },
            "signature": {
              "type": "tendermint/SignatureEd25519",
              "value": "XlN+DEgIf7QN+EcCV5kYqZTHJ6KotJ7nzZtYfz6OvvoCG5z5C+XgSwCKTvNmnxjrjWK1aWwzGL04mYkVEvISAA=="
            }
          },
          {
            "validator_address": "49841599DE675157CBE1E7D6B35BF8FFC23BD5CB",
            "validator_index": "29",
            "height": "54629",
            "round": "0",
            "timestamp": "2018-08-03T02:21:01.5334284Z",
            "type": 2,
            "block_id": {
              "hash": "85FC8AE72BAC62B5BAAE24AA26E55FB5EA010742",
              "parts": {
                "total": "1",
                "hash": "25CAD36EC1D001EDEBDEA3337EC15F21019D54D4"
              }
            },
            "signature": {
              "type": "tendermint/SignatureEd25519",
              "value": "n2WeqzdushRBr8TCHZGc4bnjUh+hoK1ha7z7wk5B90w4wG1L7rNINJByoEWIjyjcglRsgqFC76jloLDcQriSDA=="
            }
          },
          {
            "validator_address": "51386C2CF9556821D114D7E4945806802BADB28D",
            "validator_index": "30",
            "height": "54629",
            "round": "0",
            "timestamp": "2018-08-03T02:21:01.606035257Z",
            "type": 2,
            "block_id": {
              "hash": "85FC8AE72BAC62B5BAAE24AA26E55FB5EA010742",
              "parts": {
                "total": "1",
                "hash": "25CAD36EC1D001EDEBDEA3337EC15F21019D54D4"
              }
            },
            "signature": {
              "type": "tendermint/SignatureEd25519",
              "value": "zZbUR287aF7tJKdC6iD8hYvjE4cqqkXGdnXLIRPavpWNRHZh66nFLbA9feXbSrDOly9aMDnnymwH5/hkjz/6Bw=="
            }
          },
          {
            "validator_address": "543564ECA3AFEFADC73EE8591AAC3A96F079BC8A",
            "validator_index": "31",
            "height": "54629",
            "round": "0",
            "timestamp": "2018-08-03T02:21:01.54472206Z",
            "type": 2,
            "block_id": {
              "hash": "85FC8AE72BAC62B5BAAE24AA26E55FB5EA010742",
              "parts": {
                "total": "1",
                "hash": "25CAD36EC1D001EDEBDEA3337EC15F21019D54D4"
              }
            },
            "signature": {
              "type": "tendermint/SignatureEd25519",
              "value": "nf6m8V6IGRjEArIJrRbRvVKTfdh7raX6eTfCsDoH53mUFvxEEZ0vltn8JTNsEucbvb0+MG/cKuXOLtOfXhmlAA=="
            }
          },
          {
            "validator_address": "55D67B1A6DC13E96F8754A5A42EABC20F7F86664",
            "validator_index": "32",
            "height": "54629",
            "round": "0",
            "timestamp": "2018-08-03T02:21:01.549818244Z",
            "type": 2,
            "block_id": {
              "hash": "85FC8AE72BAC62B5BAAE24AA26E55FB5EA010742",
              "parts": {
                "total": "1",
                "hash": "25CAD36EC1D001EDEBDEA3337EC15F21019D54D4"
              }
            },
            "signature": {
              "type": "tendermint/SignatureEd25519",
              "value": "9gHEY+1bIhE1cJi9neEpT/g1ccZbyhGmzRAY70FYMbPiwFTpvZGEIA5J6kMpy1SkPExIv4054EBXk0i75Fq9DQ=="
            }
          },
          {
            "validator_address": "570B6A755ED339EAC56BB3390A48069F6AC9449B",
            "validator_index": "33",
            "height": "54629",
            "round": "0",
            "timestamp": "2018-08-03T02:21:12.880398576Z",
            "type": 2,
            "block_id": {
              "hash": "85FC8AE72BAC62B5BAAE24AA26E55FB5EA010742",
              "parts": {
                "total": "1",
                "hash": "25CAD36EC1D001EDEBDEA3337EC15F21019D54D4"
              }
            },
            "signature": {
              "type": "tendermint/SignatureEd25519",
              "value": "dxYdx3Grjh6R6jQnBjjS4PqW2/Xh/bjdrLUFjIee43C6otCb3XeU7bI4gIacqL2cF5wiLCpHVpiD/g60ZpmhDQ=="
            }
          },
          {
            "validator_address": "5BDF8EA41B1835FBAD865B181A2A4B23F511B5E4",
            "validator_index": "34",
            "height": "54629",
            "round": "0",
            "timestamp": "2018-08-03T02:21:01.543370963Z",
            "type": 2,
            "block_id": {
              "hash": "85FC8AE72BAC62B5BAAE24AA26E55FB5EA010742",
              "parts": {
                "total": "1",
                "hash": "25CAD36EC1D001EDEBDEA3337EC15F21019D54D4"
              }
            },
            "signature": {
              "type": "tendermint/SignatureEd25519",
              "value": "eEmWReg6bWhHHOafYewmPIY4pTEZgz6v7JdninA3TGCxO+Ms/N6P86EVXzJ7nOpIav5CAHLpoJisYbbW2AijAA=="
            }
          },
          {
            "validator_address": "60229E2E273297FE00219E46DFFB8F76844CDEF9",
            "validator_index": "35",
            "height": "54629",
            "round": "0",
            "timestamp": "2018-08-03T02:20:58.538745272Z",
            "type": 2,
            "block_id": {
              "hash": "85FC8AE72BAC62B5BAAE24AA26E55FB5EA010742",
              "parts": {
                "total": "1",
                "hash": "25CAD36EC1D001EDEBDEA3337EC15F21019D54D4"
              }
            },
            "signature": {
              "type": "tendermint/SignatureEd25519",
              "value": "ove4oAI6wbNBqDByXXGMugGQBIEfrdraZAl+Yni45X5u2Zdrb7zEoBnlQ6oZNrIIRRdmfpUBFyaV6V5I7SvxBg=="
            }
          },
          {
            "validator_address": "62410D6D1CD98278136E4D0738AA0EA273CDFC54",
            "validator_index": "36",
            "height": "54629",
            "round": "0",
            "timestamp": "2018-08-03T02:21:01.519601732Z",
            "type": 2,
            "block_id": {
              "hash": "85FC8AE72BAC62B5BAAE24AA26E55FB5EA010742",
              "parts": {
                "total": "1",
                "hash": "25CAD36EC1D001EDEBDEA3337EC15F21019D54D4"
              }
            },
            "signature": {
              "type": "tendermint/SignatureEd25519",
              "value": "7WXAjOk9DyyPMxfLx6d4qqrQ+e7cIrwe38ZVns+5nawvbjfV1Tb0aPSOYvNE6CrF+F5dUHhMZlZGkliL+TCUAA=="
            }
          },
          {
            "validator_address": "632F5C139A5A9DFBFE5111DEE29FCFB6157207DC",
            "validator_index": "37",
            "height": "54629",
            "round": "0",
            "timestamp": "2018-08-03T02:21:01.576447534Z",
            "type": 2,
            "block_id": {
              "hash": "85FC8AE72BAC62B5BAAE24AA26E55FB5EA010742",
              "parts": {
                "total": "1",
                "hash": "25CAD36EC1D001EDEBDEA3337EC15F21019D54D4"
              }
            },
            "signature": {
              "type": "tendermint/SignatureEd25519",
              "value": "su9dFWbPscZyqu4FZZu+gyFkXFIDbteJ8DIaTy2CL8LHQ0A/xriEQOF2pIxyyYxYHOEAIzfT6J/fA52ApCBuDg=="
            }
          },
          {
            "validator_address": "64F57F8E796A9B7B590C1EFA4123988C86631D39",
            "validator_index": "38",
            "height": "54629",
            "round": "0",
            "timestamp": "2018-08-03T02:21:01.522011579Z",
            "type": 2,
            "block_id": {
              "hash": "85FC8AE72BAC62B5BAAE24AA26E55FB5EA010742",
              "parts": {
                "total": "1",
                "hash": "25CAD36EC1D001EDEBDEA3337EC15F21019D54D4"
              }
            },
            "signature": {
              "type": "tendermint/SignatureEd25519",
              "value": "0SDl1xF5V6OOeI93FrJ4lk9Ri5oCCFAjM6W0QqkHDLo7kG+ctLQmyJN8/Rebg825Q0Q8BedTs8THojkhUqngBw=="
            }
          },
          {
            "validator_address": "69D99B2C66043ACBEAA8447525C356AFC6408E0C",
            "validator_index": "39",
            "height": "54629",
            "round": "0",
            "timestamp": "2018-08-03T02:21:01.686469591Z",
            "type": 2,
            "block_id": {
              "hash": "85FC8AE72BAC62B5BAAE24AA26E55FB5EA010742",
              "parts": {
                "total": "1",
                "hash": "25CAD36EC1D001EDEBDEA3337EC15F21019D54D4"
              }
            },
            "signature": {
              "type": "tendermint/SignatureEd25519",
              "value": "d2cIyABWD1D83w11/m6EJhH0T6r134vATfSvpGY0PBS8MQJfqXhMbNG2dAl1W+BOI2Tu14o7pjc5cHYwCeUHDg=="
            }
          },
          {
            "validator_address": "69EDADFA4A803E9DBF548C900D4A465E7D154262",
            "validator_index": "40",
            "height": "54629",
            "round": "0",
            "timestamp": "2018-08-03T02:21:01.643695578Z",
            "type": 2,
            "block_id": {
              "hash": "85FC8AE72BAC62B5BAAE24AA26E55FB5EA010742",
              "parts": {
                "total": "1",
                "hash": "25CAD36EC1D001EDEBDEA3337EC15F21019D54D4"
              }
            },
            "signature": {
              "type": "tendermint/SignatureEd25519",
              "value": "UxFeF2LApS08G03+UiQTN7U4hxBhSjmtapOV1GC8xoFen5Now11j8DVRSJTAHUuC+h/WnxqriIR1hXmuByqNDg=="
            }
          },
          {
            "validator_address": "6D3AD380E398D8592B03AA124BAFED5F125DF863",
            "validator_index": "41",
            "height": "54629",
            "round": "0",
            "timestamp": "2018-08-03T02:19:58.621959451Z",
            "type": 2,
            "block_id": {
              "hash": "85FC8AE72BAC62B5BAAE24AA26E55FB5EA010742",
              "parts": {
                "total": "1",
                "hash": "25CAD36EC1D001EDEBDEA3337EC15F21019D54D4"
              }
            },
            "signature": {
              "type": "tendermint/SignatureEd25519",
              "value": "DUEHntT4lNUJVkl16qyNx0RXOwZ+pThfHC6kTLMqnwjchytRUVrXzr8TVtReOQ+GZ+H72LMEqPeqCI5WHL89AA=="
            }
          },
          {
            "validator_address": "6F6C93B8BF3495063FEC9B5C771158607F4AE9D6",
            "validator_index": "42",
            "height": "54629",
            "round": "0",
            "timestamp": "2018-08-03T02:21:01.691855448Z",
            "type": 2,
            "block_id": {
              "hash": "85FC8AE72BAC62B5BAAE24AA26E55FB5EA010742",
              "parts": {
                "total": "1",
                "hash": "25CAD36EC1D001EDEBDEA3337EC15F21019D54D4"
              }
            },
            "signature": {
              "type": "tendermint/SignatureEd25519",
              "value": "Xgtm8lQvjKCNW6cad2UhFIDHieCt35N6Gk0oODbzVZqIClU4t08C8YzESXmgEZomeWw/Enwxz7dDpIIbFKP2CQ=="
            }
          },
          {
            "validator_address": "732CEEF54C374DDC6ADECBFD707AEFD07FEDC143",
            "validator_index": "43",
            "height": "54629",
            "round": "0",
            "timestamp": "2018-08-03T02:21:01.701277733Z",
            "type": 2,
            "block_id": {
              "hash": "85FC8AE72BAC62B5BAAE24AA26E55FB5EA010742",
              "parts": {
                "total": "1",
                "hash": "25CAD36EC1D001EDEBDEA3337EC15F21019D54D4"
              }
            },
            "signature": {
              "type": "tendermint/SignatureEd25519",
              "value": "9bAqzttdDCfIEOdKyyyuDUliPZjFLAcx0hf2TaqWgDUIge6xrLD2krvgoRxxPrB26xfKGO5n6qw69ZS4+8mEDA=="
            }
          },
          {
            "validator_address": "751E43437224E8BB6D1569B3E2B2616B6E7F4397",
            "validator_index": "44",
            "height": "54629",
            "round": "0",
            "timestamp": "2018-08-03T02:21:01.556598167Z",
            "type": 2,
            "block_id": {
              "hash": "85FC8AE72BAC62B5BAAE24AA26E55FB5EA010742",
              "parts": {
                "total": "1",
                "hash": "25CAD36EC1D001EDEBDEA3337EC15F21019D54D4"
              }
            },
            "signature": {
              "type": "tendermint/SignatureEd25519",
              "value": "5G5Q9pfx4YmI+VQ/Rri/m+0MZXKNL8CZjRtQ4GL6KNpbLtoBD61pZEqOFoUK7FZUATxO+kIKvZ6up6Cwl2/DAw=="
            }
          },
          {
            "validator_address": "7EB7593F519F1180C7E872D0494611464EDF03AE",
            "validator_index": "45",
            "height": "54629",
            "round": "0",
            "timestamp": "2018-08-03T02:21:01.6082284Z",
            "type": 2,
            "block_id": {
              "hash": "85FC8AE72BAC62B5BAAE24AA26E55FB5EA010742",
              "parts": {
                "total": "1",
                "hash": "25CAD36EC1D001EDEBDEA3337EC15F21019D54D4"
              }
            },
            "signature": {
              "type": "tendermint/SignatureEd25519",
              "value": "OhAjj0HjVu49HynIIQVz5Lrw5fIUJc35CZIII4CyQbqnYj2zfgguFj6e0A4UUtjuEncXDRAA1gfnvmjn5qGaDQ=="
            }
          },
          {
            "validator_address": "807CF675BA8479FC4FEC1047215DF07970040F1F",
            "validator_index": "46",
            "height": "54629",
            "round": "0",
            "timestamp": "2018-08-03T02:21:01.919000003Z",
            "type": 2,
            "block_id": {
              "hash": "85FC8AE72BAC62B5BAAE24AA26E55FB5EA010742",
              "parts": {
                "total": "1",
                "hash": "25CAD36EC1D001EDEBDEA3337EC15F21019D54D4"
              }
            },
            "signature": {
              "type": "tendermint/SignatureEd25519",
              "value": "+JKdRPjaKU/jwZOSsGcHO0ib+UKK89KQ99mmloF4FPGlXGIcV7eM7pVcDewmbuCsL1OTHczUdk4gPB9FMKsSCg=="
            }
          },
          {
            "validator_address": "8356899C8853BC6640D76F76E59743FFEEA57B81",
            "validator_index": "47",
            "height": "54629",
            "round": "0",
            "timestamp": "2018-08-03T02:21:01.613345925Z",
            "type": 2,
            "block_id": {
              "hash": "85FC8AE72BAC62B5BAAE24AA26E55FB5EA010742",
              "parts": {
                "total": "1",
                "hash": "25CAD36EC1D001EDEBDEA3337EC15F21019D54D4"
              }
            },
            "signature": {
              "type": "tendermint/SignatureEd25519",
              "value": "Xo0lasB8I8MfMIyHsBlrTzeHpQ9W5YGCxEaUwftXmJSKPsTB8JNuM9+a1tjfe4cg3Mj0ZqM5LxfHTt39xHmCBA=="
            }
          },
          {
            "validator_address": "83AB321E012C57746689FED3A6064DF331F81007",
            "validator_index": "48",
            "height": "54629",
            "round": "0",
            "timestamp": "2018-08-03T02:21:01.611444861Z",
            "type": 2,
            "block_id": {
              "hash": "85FC8AE72BAC62B5BAAE24AA26E55FB5EA010742",
              "parts": {
                "total": "1",
                "hash": "25CAD36EC1D001EDEBDEA3337EC15F21019D54D4"
              }
            },
            "signature": {
              "type": "tendermint/SignatureEd25519",
              "value": "rX+ozLKJeIIXBqk6NAYyZ81s2dv8AgT+WpeRby47n9CZpL7grtAx/XsU2PCoMgivJLvnamb9Fm9B8zo3zrpnCw=="
            }
          },
          {
            "validator_address": "83BB1B88D3DBB20AD845FECA07749EBD87D3754D",
            "validator_index": "49",
            "height": "54629",
            "round": "0",
            "timestamp": "2018-08-03T02:21:01.735526811Z",
            "type": 2,
            "block_id": {
              "hash": "85FC8AE72BAC62B5BAAE24AA26E55FB5EA010742",
              "parts": {
                "total": "1",
                "hash": "25CAD36EC1D001EDEBDEA3337EC15F21019D54D4"
              }
            },
            "signature": {
              "type": "tendermint/SignatureEd25519",
              "value": "ILDm1iRaclolAWawlllE0EvARNELgiQnFpUoESiiDZwHOnpLzWXou3VhaULPirBFhhouFBhrO0KZl7KQrtlmAQ=="
            }
          },
          {
            "validator_address": "86DDBEEF35D35786A68834B34869174AC314BB74",
            "validator_index": "50",
            "height": "54629",
            "round": "0",
            "timestamp": "2018-08-03T02:21:01.620678703Z",
            "type": 2,
            "block_id": {
              "hash": "85FC8AE72BAC62B5BAAE24AA26E55FB5EA010742",
              "parts": {
                "total": "1",
                "hash": "25CAD36EC1D001EDEBDEA3337EC15F21019D54D4"
              }
            },
            "signature": {
              "type": "tendermint/SignatureEd25519",
              "value": "ydhnTe0ASe+piqS8Op+b9f1y8ofMVZfXbMTMKtCh+0jb3Yo2SKBq8dNypkXmso+LlgFj3bWg5sOIgnEsVQ7GCg=="
            }
          },
          {
            "validator_address": "8F06FE1FD042683C426137FBC4BBAA4288924217",
            "validator_index": "51",
            "height": "54629",
            "round": "0",
            "timestamp": "2018-08-03T02:21:01.574809896Z",
            "type": 2,
            "block_id": {
              "hash": "85FC8AE72BAC62B5BAAE24AA26E55FB5EA010742",
              "parts": {
                "total": "1",
                "hash": "25CAD36EC1D001EDEBDEA3337EC15F21019D54D4"
              }
            },
            "signature": {
              "type": "tendermint/SignatureEd25519",
              "value": "lDgfUpTmncFjqfh0jQFS+TA4UNaNLDNnRy3FnW8lO7uLzImGEklltVNEVepL/DQwVaWrAcjiwGzT+x/xI4MMAA=="
            }
          },
          {
            "validator_address": "95980831E186F2540F6E9FB6C8E74DE2401405AC",
            "validator_index": "52",
            "height": "54629",
            "round": "0",
            "timestamp": "2018-08-03T02:21:01.706571902Z",
            "type": 2,
            "block_id": {
              "hash": "85FC8AE72BAC62B5BAAE24AA26E55FB5EA010742",
              "parts": {
                "total": "1",
                "hash": "25CAD36EC1D001EDEBDEA3337EC15F21019D54D4"
              }
            },
            "signature": {
              "type": "tendermint/SignatureEd25519",
              "value": "52IdnwihK6euGWghjI4Udb8A9VeIU9Tk7Kfq5rZJANqmdOvk8Nv5DDcTqvhiIE27w/EkK7YjkDHVlR4KwqPpCQ=="
            }
          },
          {
            "validator_address": "95FAFBC1E0579C83D290A063020CE87C5334BD9B",
            "validator_index": "53",
            "height": "54629",
            "round": "0",
            "timestamp": "2018-08-03T02:21:01.589453884Z",
            "type": 2,
            "block_id": {
              "hash": "85FC8AE72BAC62B5BAAE24AA26E55FB5EA010742",
              "parts": {
                "total": "1",
                "hash": "25CAD36EC1D001EDEBDEA3337EC15F21019D54D4"
              }
            },
            "signature": {
              "type": "tendermint/SignatureEd25519",
              "value": "jStmI89iLt44wkHVo5goF1e3TaVa5eZY6bUJHvKWfmnFoC0IybyzDHKeDiOjYZU807gAAYXYsoQ+Y7fb10f6Cg=="
            }
          },
          {
            "validator_address": "96BDE45EC52606CF5CB59853097871AD60680549",
            "validator_index": "54",
            "height": "54629",
            "round": "0",
            "timestamp": "2018-08-03T02:21:01.57123961Z",
            "type": 2,
            "block_id": {
              "hash": "85FC8AE72BAC62B5BAAE24AA26E55FB5EA010742",
              "parts": {
                "total": "1",
                "hash": "25CAD36EC1D001EDEBDEA3337EC15F21019D54D4"
              }
            },
            "signature": {
              "type": "tendermint/SignatureEd25519",
              "value": "IGicNA05rzxyNlQIrcUFxtU9mj4mi5cc/gzUchX0x4rIAVl8DHchnIlObitTXSamgIy0dOuR9FHPOSkymZCgAQ=="
            }
          },
          {
            "validator_address": "970CD321881185BF83DB2923C321B0E75FDBB2B8",
            "validator_index": "55",
            "height": "54629",
            "round": "0",
            "timestamp": "2018-08-03T02:21:01.63866658Z",
            "type": 2,
            "block_id": {
              "hash": "85FC8AE72BAC62B5BAAE24AA26E55FB5EA010742",
              "parts": {
                "total": "1",
                "hash": "25CAD36EC1D001EDEBDEA3337EC15F21019D54D4"
              }
            },
            "signature": {
              "type": "tendermint/SignatureEd25519",
              "value": "Rw+1DUfqvuSkGY2hBsKpkiLIXPrlReYaB/LYIANef28oYNZwqxih8PSHG4Kh9pORACg7TJchnjddiQLu+2P2Ag=="
            }
          },
          {
            "validator_address": "97DBB3D4B3D6C29287244864448F651DD5B07390",
            "validator_index": "56",
            "height": "54629",
            "round": "0",
            "timestamp": "2018-08-03T02:21:01.606136372Z",
            "type": 2,
            "block_id": {
              "hash": "85FC8AE72BAC62B5BAAE24AA26E55FB5EA010742",
              "parts": {
                "total": "1",
                "hash": "25CAD36EC1D001EDEBDEA3337EC15F21019D54D4"
              }
            },
            "signature": {
              "type": "tendermint/SignatureEd25519",
              "value": "ra/ABlc7NQwoyPHLIISbhZXHsHLVqBml4gBNRlV/WX8bSkag1QzgmXl3Hoid5Jk9v/DFK+fy0pc52crobm/HDw=="
            }
          },
          {
            "validator_address": "9C29C9B76D27586E4D9AD2AED0E943162645E55C",
            "validator_index": "57",
            "height": "54629",
            "round": "0",
            "timestamp": "2018-08-03T02:21:01.55669681Z",
            "type": 2,
            "block_id": {
              "hash": "85FC8AE72BAC62B5BAAE24AA26E55FB5EA010742",
              "parts": {
                "total": "1",
                "hash": "25CAD36EC1D001EDEBDEA3337EC15F21019D54D4"
              }
            },
            "signature": {
              "type": "tendermint/SignatureEd25519",
              "value": "oJ0OXw9QasyuVV/RMio6iM+wIRXPOaB2Mf3edfC0lhxQyjyQmLpVCXMHv1MHZW2W+XwiTfXzreS1yJxudOjKBw=="
            }
          },
          {
            "validator_address": "9D93AD02FE1BD7E76B9E58D7EB461088EAD011E5",
            "validator_index": "58",
            "height": "54629",
            "round": "0",
            "timestamp": "2018-08-03T02:21:01.556201589Z",
            "type": 2,
            "block_id": {
              "hash": "85FC8AE72BAC62B5BAAE24AA26E55FB5EA010742",
              "parts": {
                "total": "1",
                "hash": "25CAD36EC1D001EDEBDEA3337EC15F21019D54D4"
              }
            },
            "signature": {
              "type": "tendermint/SignatureEd25519",
              "value": "4QUV2eXD3zR/6XHqHydPrZcB0VQWSIzRPPbd4kMlwJ7P42ppQ5F3Jo2CSE1Jr71DP+KIc7v2s0WgCKTmQmgoBg=="
            }
          },
          {
            "validator_address": "A0A6466F4ABEA09C3B55E3709AFDE217A103209F",
            "validator_index": "59",
            "height": "54629",
            "round": "0",
            "timestamp": "2018-08-03T02:21:01.555912563Z",
            "type": 2,
            "block_id": {
              "hash": "85FC8AE72BAC62B5BAAE24AA26E55FB5EA010742",
              "parts": {
                "total": "1",
                "hash": "25CAD36EC1D001EDEBDEA3337EC15F21019D54D4"
              }
            },
            "signature": {
              "type": "tendermint/SignatureEd25519",
              "value": "TzLpIVKHyTj0Wu5AW3FXfOZk+FK+xsKBOD3mzVy1il44w/1tycIV04Snby5ydCIlNaBOpf374bz3d6B+z/iCDQ=="
            }
          },
          {
            "validator_address": "A5868971300F155020634D7BB49C7634F7AACCD3",
            "validator_index": "60",
            "height": "54629",
            "round": "0",
            "timestamp": "2018-08-03T02:21:01.544525693Z",
            "type": 2,
            "block_id": {
              "hash": "85FC8AE72BAC62B5BAAE24AA26E55FB5EA010742",
              "parts": {
                "total": "1",
                "hash": "25CAD36EC1D001EDEBDEA3337EC15F21019D54D4"
              }
            },
            "signature": {
              "type": "tendermint/SignatureEd25519",
              "value": "SIGa6rqUJLwQahU2uHrU/dTJmQpx5OGwPu1jKsiPBuxFIdT1HH/JbXQY6HtxE7dICi+A4b0peDo6jeDk7nsbCw=="
            }
          },
          {
            "validator_address": "A6B3A5B5D982CFD7B5FDFA15CF5A720E7AE25E7F",
            "validator_index": "61",
            "height": "54629",
            "round": "0",
            "timestamp": "2018-08-03T02:21:01.977243756Z",
            "type": 2,
            "block_id": {
              "hash": "85FC8AE72BAC62B5BAAE24AA26E55FB5EA010742",
              "parts": {
                "total": "1",
                "hash": "25CAD36EC1D001EDEBDEA3337EC15F21019D54D4"
              }
            },
            "signature": {
              "type": "tendermint/SignatureEd25519",
              "value": "P7OPuLrx960FsVQUqWw7DJQ61ITMRUJSUkNXojC8QzGwv5+XP6HBBEhMC2jlYavk88T8csuGSwLD3rUq+zNsCQ=="
            }
          },
          {
            "validator_address": "AC96444A9083890B7C7B430DB17BF1D3EA5EED04",
            "validator_index": "62",
            "height": "54629",
            "round": "0",
            "timestamp": "2018-08-03T02:21:01.606576736Z",
            "type": 2,
            "block_id": {
              "hash": "85FC8AE72BAC62B5BAAE24AA26E55FB5EA010742",
              "parts": {
                "total": "1",
                "hash": "25CAD36EC1D001EDEBDEA3337EC15F21019D54D4"
              }
            },
            "signature": {
              "type": "tendermint/SignatureEd25519",
              "value": "y5zjzvw3dyuy3sgKW546Efgijwmz15Y+7TD1rc9hcE49QOVWjPp4nZgS2XZcovVJXIZRJX4cPIHNMngT3CbuBg=="
            }
          },
          {
            "validator_address": "B197425B3210375F211661DE02EF2AE36580EB0F",
            "validator_index": "63",
            "height": "54629",
            "round": "0",
            "timestamp": "2018-08-03T02:21:01.569484457Z",
            "type": 2,
            "block_id": {
              "hash": "85FC8AE72BAC62B5BAAE24AA26E55FB5EA010742",
              "parts": {
                "total": "1",
                "hash": "25CAD36EC1D001EDEBDEA3337EC15F21019D54D4"
              }
            },
            "signature": {
              "type": "tendermint/SignatureEd25519",
              "value": "ounjVcgrfSmQMTPFYS9cGc7F9Lajsz9P3ObbWZldLvrfpBHHQ9qZxgLEZTAfke+3Wy9TRAkMMrzkSf9ASgCPBA=="
            }
          },
          {
            "validator_address": "B45E54D2D1CB5A4CCD1D49016608C18E7C56B270",
            "validator_index": "64",
            "height": "54629",
            "round": "0",
            "timestamp": "2018-08-03T02:21:01.621799923Z",
            "type": 2,
            "block_id": {
              "hash": "85FC8AE72BAC62B5BAAE24AA26E55FB5EA010742",
              "parts": {
                "total": "1",
                "hash": "25CAD36EC1D001EDEBDEA3337EC15F21019D54D4"
              }
            },
            "signature": {
              "type": "tendermint/SignatureEd25519",
              "value": "REj39sPcnKJmHROpxPtzY+uSa0uB7/p2IggjWH1gWGa31foWMS4FWNfWAFthzPbCahBW+mGp/RWcBcp9dbBLBQ=="
            }
          },
          {
            "validator_address": "BB1276BE89834835428664408917649FEEF5D90C",
            "validator_index": "65",
            "height": "54629",
            "round": "0",
            "timestamp": "2018-08-03T02:21:01.631706726Z",
            "type": 2,
            "block_id": {
              "hash": "85FC8AE72BAC62B5BAAE24AA26E55FB5EA010742",
              "parts": {
                "total": "1",
                "hash": "25CAD36EC1D001EDEBDEA3337EC15F21019D54D4"
              }
            },
            "signature": {
              "type": "tendermint/SignatureEd25519",
              "value": "hw8eQmTwhYJzTMvr2l2PX2ruynG6avkmwEc39EY+BxWnRrZiAt+YzkOx86RFh67jLIs9cyozPBnAWqzV50GaDQ=="
            }
          },
          {
            "validator_address": "BC36FEDD6EF6071118A3E51859DF3831A2EC4782",
            "validator_index": "66",
            "height": "54629",
            "round": "0",
            "timestamp": "2018-08-03T02:21:01.570903515Z",
            "type": 2,
            "block_id": {
              "hash": "85FC8AE72BAC62B5BAAE24AA26E55FB5EA010742",
              "parts": {
                "total": "1",
                "hash": "25CAD36EC1D001EDEBDEA3337EC15F21019D54D4"
              }
            },
            "signature": {
              "type": "tendermint/SignatureEd25519",
              "value": "2zOaGwwJI2e6W4JgJ82K0ukyKAuFl+jP1Mmy56pUQblGK6s68KiDcRgIgZAAXzxmMAnMUzAlo/hP93PzsY/bDA=="
            }
          },
          {
            "validator_address": "BD9D0DA513BF099DB4BB6E725A4E19832789882F",
            "validator_index": "67",
            "height": "54629",
            "round": "0",
            "timestamp": "2018-08-03T02:21:01.581109253Z",
            "type": 2,
            "block_id": {
              "hash": "85FC8AE72BAC62B5BAAE24AA26E55FB5EA010742",
              "parts": {
                "total": "1",
                "hash": "25CAD36EC1D001EDEBDEA3337EC15F21019D54D4"
              }
            },
            "signature": {
              "type": "tendermint/SignatureEd25519",
              "value": "NrZmlOGpbcM79thC1ZhMJUfkUB8ZsEx1lGhl7gPGFvRsflhzzlH04hotH4FfKrb0Fr0geldyjsdyGv21/gPMDg=="
            }
          },
          {
            "validator_address": "C1134A2FF8F7338E7CDB3FE57DDD2A655DEB1E22",
            "validator_index": "68",
            "height": "54629",
            "round": "0",
            "timestamp": "2018-08-03T02:21:00.837876976Z",
            "type": 2,
            "block_id": {
              "hash": "85FC8AE72BAC62B5BAAE24AA26E55FB5EA010742",
              "parts": {
                "total": "1",
                "hash": "25CAD36EC1D001EDEBDEA3337EC15F21019D54D4"
              }
            },
            "signature": {
              "type": "tendermint/SignatureEd25519",
              "value": "SS5/RAAi6jhMTMnO4ePFRD1aqg4Y5xAZRmK8t0YsBEW9QpNwF0Vjo4BGrDo9JvFbzFIKEYVZYYuglFGpb7FTBA=="
            }
          },
          {
            "validator_address": "C39A8A2B85198DCB8F23AD1F6C198E2BA7AB5D60",
            "validator_index": "69",
            "height": "54629",
            "round": "0",
            "timestamp": "2018-08-03T02:21:01.645258635Z",
            "type": 2,
            "block_id": {
              "hash": "85FC8AE72BAC62B5BAAE24AA26E55FB5EA010742",
              "parts": {
                "total": "1",
                "hash": "25CAD36EC1D001EDEBDEA3337EC15F21019D54D4"
              }
            },
            "signature": {
              "type": "tendermint/SignatureEd25519",
              "value": "5uEEPzAAFmA+wlkhXq2JxifmQ4m92A7mnEC6/lwRdnze4OtaGthl/nnaK2C42ppTNY4FagkCyFQ2AcbRRk8jAQ=="
            }
          },
          {
            "validator_address": "C4335190C3B5BD4BA5568BC0F99C34162D940D08",
            "validator_index": "70",
            "height": "54629",
            "round": "0",
            "timestamp": "2018-08-03T02:21:01.703159907Z",
            "type": 2,
            "block_id": {
              "hash": "85FC8AE72BAC62B5BAAE24AA26E55FB5EA010742",
              "parts": {
                "total": "1",
                "hash": "25CAD36EC1D001EDEBDEA3337EC15F21019D54D4"
              }
            },
            "signature": {
              "type": "tendermint/SignatureEd25519",
              "value": "CyHi2dJfW4YYVxSebzdbR0UVgEjQCK+99Okqxpg3ywr02e2UksegzexJiFcRKkCPn/xIYYe2YLOCKHfmau7mDQ=="
            }
          },
          {
            "validator_address": "C561CFA081677046376396922E7576E5F7B316AD",
            "validator_index": "71",
            "height": "54629",
            "round": "0",
            "timestamp": "2018-08-03T02:21:01.72167766Z",
            "type": 2,
            "block_id": {
              "hash": "85FC8AE72BAC62B5BAAE24AA26E55FB5EA010742",
              "parts": {
                "total": "1",
                "hash": "25CAD36EC1D001EDEBDEA3337EC15F21019D54D4"
              }
            },
            "signature": {
              "type": "tendermint/SignatureEd25519",
              "value": "Vvh05YdkRaXqEPN9YNvil2aF4aC1qR/aRtiDnKJk18qclQUimr3CZ43zgVZ75rpPCLQcDCNwhLYSOqPsLssHAA=="
            }
          },
          {
            "validator_address": "CEB97DB5CB18270247ABDE6CF2F84F9AEE8A2904",
            "validator_index": "72",
            "height": "54629",
            "round": "0",
            "timestamp": "2018-08-03T02:21:03.042459452Z",
            "type": 2,
            "block_id": {
              "hash": "85FC8AE72BAC62B5BAAE24AA26E55FB5EA010742",
              "parts": {
                "total": "1",
                "hash": "25CAD36EC1D001EDEBDEA3337EC15F21019D54D4"
              }
            },
            "signature": {
              "type": "tendermint/SignatureEd25519",
              "value": "MkVM7ogheDTfNimIhW0/aO9l4Es9LTvUmQ94857q3Nj/wpIUlZVnvro8k6CYTGWjnIvDsUd5QMnvmA9nB/YuBw=="
            }
          },
          {
            "validator_address": "D2134B826A1E25A955905CB79A4D8731CAFA0CCE",
            "validator_index": "73",
            "height": "54629",
            "round": "0",
            "timestamp": "2018-08-03T02:21:01.657122755Z",
            "type": 2,
            "block_id": {
              "hash": "85FC8AE72BAC62B5BAAE24AA26E55FB5EA010742",
              "parts": {
                "total": "1",
                "hash": "25CAD36EC1D001EDEBDEA3337EC15F21019D54D4"
              }
            },
            "signature": {
              "type": "tendermint/SignatureEd25519",
              "value": "BJGixjZWvBDKqeOvhekTurU0gk98+CdaUsAjlDEcvt5pdo2rd9IlONTYac+kNpD5abeRrOmuGsG1hVWYiXU/AA=="
            }
          },
          {
            "validator_address": "D6285C3422C8886445D53757CBE12D2B91B5A9D0",
            "validator_index": "74",
            "height": "54629",
            "round": "0",
            "timestamp": "2018-08-03T02:20:45.199827885Z",
            "type": 2,
            "block_id": {
              "hash": "85FC8AE72BAC62B5BAAE24AA26E55FB5EA010742",
              "parts": {
                "total": "1",
                "hash": "25CAD36EC1D001EDEBDEA3337EC15F21019D54D4"
              }
            },
            "signature": {
              "type": "tendermint/SignatureEd25519",
              "value": "J5VDddixrK8jzscOLZ7tlS1lhPFGskEZueUxKI+JL855+sLmjKDXVr5oYxkbeKKrZBWV7QGX8yOEfVw3liSWBg=="
            }
          },
          {
            "validator_address": "D77FB84A729972CD3E757C9BEB61561855832B92",
            "validator_index": "75",
            "height": "54629",
            "round": "0",
            "timestamp": "2018-08-03T02:21:01.659825901Z",
            "type": 2,
            "block_id": {
              "hash": "85FC8AE72BAC62B5BAAE24AA26E55FB5EA010742",
              "parts": {
                "total": "1",
                "hash": "25CAD36EC1D001EDEBDEA3337EC15F21019D54D4"
              }
            },
            "signature": {
              "type": "tendermint/SignatureEd25519",
              "value": "ATpFn6z40/mvuTRwqZ1ZytI9O9WRvFBC6lzf8vucfIU5Ei4ETJNbweHcv586uh9opxDFFRKMYcSfjoDNaXM+BQ=="
            }
          },
          {
            "validator_address": "DB7E6732471D3EA5C90C17A9974D9F88AB45F2FB",
            "validator_index": "76",
            "height": "54629",
            "round": "0",
            "timestamp": "2018-08-03T02:21:01.573947477Z",
            "type": 2,
            "block_id": {
              "hash": "85FC8AE72BAC62B5BAAE24AA26E55FB5EA010742",
              "parts": {
                "total": "1",
                "hash": "25CAD36EC1D001EDEBDEA3337EC15F21019D54D4"
              }
            },
            "signature": {
              "type": "tendermint/SignatureEd25519",
              "value": "1kAbUP6gj3RIu2KG7Qomm0LREE/v78fjQ5SZmuQeymayWaLp1cLa+orvn3wUsTTie866QrjKkzq8RcPxfEslDQ=="
            }
          },
          {
            "validator_address": "DF54B862410BCD9B5C516FBB6C56BDC826ED6FA7",
            "validator_index": "77",
            "height": "54629",
            "round": "0",
            "timestamp": "2018-08-03T02:21:01.758456581Z",
            "type": 2,
            "block_id": {
              "hash": "85FC8AE72BAC62B5BAAE24AA26E55FB5EA010742",
              "parts": {
                "total": "1",
                "hash": "25CAD36EC1D001EDEBDEA3337EC15F21019D54D4"
              }
            },
            "signature": {
              "type": "tendermint/SignatureEd25519",
              "value": "ZP59E17NhCyaaMCkbxHL2t+Z1r9iMFb701S0mQKIPNYLm25J+0KvATfP8JRp7PYnqErbAUw8VB1b/oMhWKn0Bg=="
            }
          },
          {
            "validator_address": "DFAF0C8B1B78D6D552B0189DE3ACA351439A1319",
            "validator_index": "78",
            "height": "54629",
            "round": "0",
            "timestamp": "2018-08-03T02:21:01.606756Z",
            "type": 2,
            "block_id": {
              "hash": "85FC8AE72BAC62B5BAAE24AA26E55FB5EA010742",
              "parts": {
                "total": "1",
                "hash": "25CAD36EC1D001EDEBDEA3337EC15F21019D54D4"
              }
            },
            "signature": {
              "type": "tendermint/SignatureEd25519",
              "value": "qr8UGQ3/ZRfv42NgygSkbhnKXgnx7zTn9h/Cz5rybl7Vy3OSiNf0YdGR9tqkJH7ALKzOGkTyYfombHPa1ZSdDg=="
            }
          },
          {
            "validator_address": "E1DBC77881161A5A3A8536A57536EAE546A75D69",
            "validator_index": "79",
            "height": "54629",
            "round": "0",
            "timestamp": "2018-08-03T02:21:01.533931672Z",
            "type": 2,
            "block_id": {
              "hash": "85FC8AE72BAC62B5BAAE24AA26E55FB5EA010742",
              "parts": {
                "total": "1",
                "hash": "25CAD36EC1D001EDEBDEA3337EC15F21019D54D4"
              }
            },
            "signature": {
              "type": "tendermint/SignatureEd25519",
              "value": "xjGSnR4MWx/sCYtFo4iap93a9TzGxe1PNue2Z575epFLym+zrZfIVnB87NV4xlv4AXg1+3lVOJto8Dk+Kq9zAA=="
            }
          },
          {
            "validator_address": "E300E9D484374C1D3E97C1D93CAC3B160A056298",
            "validator_index": "80",
            "height": "54629",
            "round": "0",
            "timestamp": "2018-08-03T02:21:01.868070051Z",
            "type": 2,
            "block_id": {
              "hash": "85FC8AE72BAC62B5BAAE24AA26E55FB5EA010742",
              "parts": {
                "total": "1",
                "hash": "25CAD36EC1D001EDEBDEA3337EC15F21019D54D4"
              }
            },
            "signature": {
              "type": "tendermint/SignatureEd25519",
              "value": "Naa7nDcIm0j16zgRzmie0h1FklCDJiBz5exu6oYfpB4fbA1FT6XRx73ItF8skc+1H1k72Q8Q+k85NndX5mqkBw=="
            }
          },
          {
            "validator_address": "E39B5778E0D4297A46F45CF6940B0A163A430FF8",
            "validator_index": "81",
            "height": "54629",
            "round": "0",
            "timestamp": "2018-08-03T02:21:01.606990345Z",
            "type": 2,
            "block_id": {
              "hash": "85FC8AE72BAC62B5BAAE24AA26E55FB5EA010742",
              "parts": {
                "total": "1",
                "hash": "25CAD36EC1D001EDEBDEA3337EC15F21019D54D4"
              }
            },
            "signature": {
              "type": "tendermint/SignatureEd25519",
              "value": "tbOt8OhnqaGm1zzzcnIY5Hroy26H7xeQiDvpm/LZO8Lhj7xu//nKldFm1iqTUSVLD0q9zd67crDi/PJBZJo0AQ=="
            }
          },
          {
            "validator_address": "E3B19738F7132F950668504D326C7660F159D170",
            "validator_index": "82",
            "height": "54629",
            "round": "0",
            "timestamp": "2018-08-03T02:21:01.533140158Z",
            "type": 2,
            "block_id": {
              "hash": "85FC8AE72BAC62B5BAAE24AA26E55FB5EA010742",
              "parts": {
                "total": "1",
                "hash": "25CAD36EC1D001EDEBDEA3337EC15F21019D54D4"
              }
            },
            "signature": {
              "type": "tendermint/SignatureEd25519",
              "value": "M0rRW72QiXT/fgw8eOBhPne7p2g0bIth5YXraag2xlZu/LFKtgviMBk0IAs0A1isK+/RGsLbt5G0pNkpTMV4BQ=="
            }
          },
          {
            "validator_address": "E42F8AEABB685219F7027F54D2B0DBC7846F633A",
            "validator_index": "83",
            "height": "54629",
            "round": "0",
            "timestamp": "2018-08-03T02:21:00.428628507Z",
            "type": 2,
            "block_id": {
              "hash": "85FC8AE72BAC62B5BAAE24AA26E55FB5EA010742",
              "parts": {
                "total": "1",
                "hash": "25CAD36EC1D001EDEBDEA3337EC15F21019D54D4"
              }
            },
            "signature": {
              "type": "tendermint/SignatureEd25519",
              "value": "bpHBbgUGDt0Rh5ys5oKgmYqTAlyLiK0Y0ie2lzvkoxxAUeYuRrQTu18ra38h8ZIPPHo3b2cfzvdTrOkFpj8yCA=="
            }
          },
          {
            "validator_address": "E4E6C2E81269DFFA196C17F98240E491479A6008",
            "validator_index": "84",
            "height": "54629",
            "round": "0",
            "timestamp": "2018-08-03T02:21:01.655441362Z",
            "type": 2,
            "block_id": {
              "hash": "85FC8AE72BAC62B5BAAE24AA26E55FB5EA010742",
              "parts": {
                "total": "1",
                "hash": "25CAD36EC1D001EDEBDEA3337EC15F21019D54D4"
              }
            },
            "signature": {
              "type": "tendermint/SignatureEd25519",
              "value": "BDFIYFmCl5MUJPFhP/RtylfZ8L8iydno4iBB+GwFRXo5En8zZUYflJkX4nMY24wiBhWryBubAyU/WXfJYVA5Dg=="
            }
          },
          {
            "validator_address": "E50ADECD5FD27FA2CD610C07F8AED36A2FC4A6A6",
            "validator_index": "85",
            "height": "54629",
            "round": "0",
            "timestamp": "2018-08-03T02:21:01.550803812Z",
            "type": 2,
            "block_id": {
              "hash": "85FC8AE72BAC62B5BAAE24AA26E55FB5EA010742",
              "parts": {
                "total": "1",
                "hash": "25CAD36EC1D001EDEBDEA3337EC15F21019D54D4"
              }
            },
            "signature": {
              "type": "tendermint/SignatureEd25519",
              "value": "HyHZglNnHhBJm/EskOGAWq5RJESEbd/5FCEkf5Cb+frVF97ov9FEcOqjc5Ae/8kJhhqQcYZdYlaxU4EjKhEGAw=="
            }
          },
          {
            "validator_address": "E6A7079D584B163750BE0831227F6B685DEAF3C1",
            "validator_index": "86",
            "height": "54629",
            "round": "0",
            "timestamp": "2018-08-03T02:21:01.711269523Z",
            "type": 2,
            "block_id": {
              "hash": "85FC8AE72BAC62B5BAAE24AA26E55FB5EA010742",
              "parts": {
                "total": "1",
                "hash": "25CAD36EC1D001EDEBDEA3337EC15F21019D54D4"
              }
            },
            "signature": {
              "type": "tendermint/SignatureEd25519",
              "value": "X4Tv3P8ERrHrgUOWj4Do3HQoJzBQYzFBQIbj6wwM1Qtr6pC54QuS3MbmQbJPiBM/VhY4ShFqyl94NGozx/29AQ=="
            }
          },
          {
            "validator_address": "E7A30077D5D11867D3EAF99ED45BFDC1EB834509",
            "validator_index": "87",
            "height": "54629",
            "round": "0",
            "timestamp": "2018-08-03T02:21:01.562343242Z",
            "type": 2,
            "block_id": {
              "hash": "85FC8AE72BAC62B5BAAE24AA26E55FB5EA010742",
              "parts": {
                "total": "1",
                "hash": "25CAD36EC1D001EDEBDEA3337EC15F21019D54D4"
              }
            },
            "signature": {
              "type": "tendermint/SignatureEd25519",
              "value": "yE4LHnClnxjTKEXN5bAFKYiWyZNjb7W0dt6iYoLfdBbQmQ/3TAPpg0nBXqQEaiMD5Poifuy080qfXqH1/Cl+Bg=="
            }
          },
          {
            "validator_address": "EBC613967F66F4EC306852CDF58B4F151CF16738",
            "validator_index": "88",
            "height": "54629",
            "round": "0",
            "timestamp": "2018-08-03T02:21:01.623773643Z",
            "type": 2,
            "block_id": {
              "hash": "85FC8AE72BAC62B5BAAE24AA26E55FB5EA010742",
              "parts": {
                "total": "1",
                "hash": "25CAD36EC1D001EDEBDEA3337EC15F21019D54D4"
              }
            },
            "signature": {
              "type": "tendermint/SignatureEd25519",
              "value": "ZYbeEy/2+iRhGGRCXR64J5Eq9p6gn1EfFemnZCGVMjTLfHfgsln4S0l2c7TrT8Tz0aJZgeTYHWkWa67qYJI6CA=="
            }
          },
          {
            "validator_address": "EC3401441726C40ECC7E51F744483B05BC6DE9BD",
            "validator_index": "89",
            "height": "54629",
            "round": "0",
            "timestamp": "2018-08-03T02:21:01.571107483Z",
            "type": 2,
            "block_id": {
              "hash": "85FC8AE72BAC62B5BAAE24AA26E55FB5EA010742",
              "parts": {
                "total": "1",
                "hash": "25CAD36EC1D001EDEBDEA3337EC15F21019D54D4"
              }
            },
            "signature": {
              "type": "tendermint/SignatureEd25519",
              "value": "GganZe2cpdkt2MZ4eshvBXRLcsR+VafPIorPcHjifGCCiwynbqJcuBTufY5GEg4OdSfiQ3UfpR22p8165mY8Bw=="
            }
          },
          {
            "validator_address": "EC95B111D032181E1EC3B5E8875C5BB8E4AE7140",
            "validator_index": "90",
            "height": "54629",
            "round": "0",
            "timestamp": "2018-08-03T02:21:01.60014324Z",
            "type": 2,
            "block_id": {
              "hash": "85FC8AE72BAC62B5BAAE24AA26E55FB5EA010742",
              "parts": {
                "total": "1",
                "hash": "25CAD36EC1D001EDEBDEA3337EC15F21019D54D4"
              }
            },
            "signature": {
              "type": "tendermint/SignatureEd25519",
              "value": "0RWtG3ePR/5wivSMX0y8CVus16GdvYnA10Po1wsNlVxgG7KDmUp9YyxrJo+rLq45jRTvzwjAM4Z4QOL2CHPJCw=="
            }
          },
          {
            "validator_address": "F13C1805E8131C9B47E2A46818F57D8A2841E578",
            "validator_index": "91",
            "height": "54629",
            "round": "0",
            "timestamp": "2018-08-03T02:21:01.61336474Z",
            "type": 2,
            "block_id": {
              "hash": "85FC8AE72BAC62B5BAAE24AA26E55FB5EA010742",
              "parts": {
                "total": "1",
                "hash": "25CAD36EC1D001EDEBDEA3337EC15F21019D54D4"
              }
            },
            "signature": {
              "type": "tendermint/SignatureEd25519",
              "value": "d2XqXpwaCoPKgTB7j9rOZ0Pxw97/I+eJ5IGF+MOJtHQ+hL1VbF88EJ+olm37n4RDSsgNAO1RSlpLaDLnYWnWDg=="
            }
          },
          {
            "validator_address": "F23FF36BD5B90C33CE3A03ED72DBDCF5EC07D6AF",
            "validator_index": "92",
            "height": "54629",
            "round": "0",
            "timestamp": "2018-08-03T02:21:01.671516573Z",
            "type": 2,
            "block_id": {
              "hash": "85FC8AE72BAC62B5BAAE24AA26E55FB5EA010742",
              "parts": {
                "total": "1",
                "hash": "25CAD36EC1D001EDEBDEA3337EC15F21019D54D4"
              }
            },
            "signature": {
              "type": "tendermint/SignatureEd25519",
              "value": "MWWNScyPT/AO2lE59uczbraacDexfDp0HSGKvCR3ZQAF83VQrJ+XtQUSJBOCIxITcPGTx8ZGSOu4d/hIG0abAQ=="
            }
          },
          {
            "validator_address": "F4268597DE93E3E2CED38845010F8AA34E2A879E",
            "validator_index": "93",
            "height": "54629",
            "round": "0",
            "timestamp": "2018-08-03T02:21:01.641760404Z",
            "type": 2,
            "block_id": {
              "hash": "85FC8AE72BAC62B5BAAE24AA26E55FB5EA010742",
              "parts": {
                "total": "1",
                "hash": "25CAD36EC1D001EDEBDEA3337EC15F21019D54D4"
              }
            },
            "signature": {
              "type": "tendermint/SignatureEd25519",
              "value": "QWOXh6W3PmHjDIEbUm5xFfnwQ/xJTfw7OMzzrOxq96mHs5uKGjLfjLH6/i0VVR8jaIoXPCFa68HvA6ZIzcmTCw=="
            }
          },
          {
            "validator_address": "F4DEB417999B04BE2EFF9FFE03FA373D86011CC0",
            "validator_index": "94",
            "height": "54629",
            "round": "0",
            "timestamp": "2018-08-03T02:21:01.553891298Z",
            "type": 2,
            "block_id": {
              "hash": "85FC8AE72BAC62B5BAAE24AA26E55FB5EA010742",
              "parts": {
                "total": "1",
                "hash": "25CAD36EC1D001EDEBDEA3337EC15F21019D54D4"
              }
            },
            "signature": {
              "type": "tendermint/SignatureEd25519",
              "value": "rig+qjmWYdfl6Tbcsj9nKQSVs02gUKra5+inToyC/wYmh7vA6eGw45N3BwT0fnmq2iAKAhZtOLG8gImNbkLbBg=="
            }
          },
          {
            "validator_address": "F6738260186D33D9C14FC6E7017AFE6BB952A63D",
            "validator_index": "95",
            "height": "54629",
            "round": "0",
            "timestamp": "2018-08-03T02:21:01.569380541Z",
            "type": 2,
            "block_id": {
              "hash": "85FC8AE72BAC62B5BAAE24AA26E55FB5EA010742",
              "parts": {
                "total": "1",
                "hash": "25CAD36EC1D001EDEBDEA3337EC15F21019D54D4"
              }
            },
            "signature": {
              "type": "tendermint/SignatureEd25519",
              "value": "qVhGqoW8hr4RzGz3ZeOGLwEnln6JXZB60eZtTytcB0yudJPuadztWu6eFYUlPiOXSJWUsMigTHutJju6E7blAw=="
            }
          },
          {
            "validator_address": "FD8D304F0278229077114B05BED9DABD382D49D8",
            "validator_index": "96",
            "height": "54629",
            "round": "0",
            "timestamp": "2018-08-03T02:21:01.697083143Z",
            "type": 2,
            "block_id": {
              "hash": "85FC8AE72BAC62B5BAAE24AA26E55FB5EA010742",
              "parts": {
                "total": "1",
                "hash": "25CAD36EC1D001EDEBDEA3337EC15F21019D54D4"
              }
            },
            "signature": {
              "type": "tendermint/SignatureEd25519",
              "value": "CZJH2W7UzPBBbTWphwStgnG5bFsND9zGRjs18VEqmh/y+jvwSsKB/fL+Rd0SlnA8xusdK4GovD9huf70MPpQAg=="
            }
          },
          {
            "validator_address": "FF3F3FCBCE7E62D7AD5506FF846EC4518D980515",
            "validator_index": "97",
            "height": "54629",
            "round": "0",
            "timestamp": "2018-08-03T02:21:01.537874157Z",
            "type": 2,
            "block_id": {
              "hash": "85FC8AE72BAC62B5BAAE24AA26E55FB5EA010742",
              "parts": {
                "total": "1",
                "hash": "25CAD36EC1D001EDEBDEA3337EC15F21019D54D4"
              }
            },
            "signature": {
              "type": "tendermint/SignatureEd25519",
              "value": "Ps8nMLmvOXPKchOkoWmYuzvocGIgLxdodcHbwWehjIzJYRBegcW7gEbkPwr0ZHCHVIp4ZxgAwawBqLTL90j7BA=="
            }
          }
        ]
      }
    },
    "canonical": true
  }
}