{
  "jsonrpc": "2.0",
  "id": "",
  "result": {
    "SignedHeader": {
      "header": {
        "chain_id": "gaia-7004",
        "height": "55000",
        "time": "2018-08-03T02:58:31.478138969Z",
        "num_txs": "0",
        "last_block_id": {
          "hash": "AACC03BACEF673EFED3BA10D21AC046190BBA68E",
          "parts": {
            "total": "1",
            "hash": "4695EB1A32AA61ACC4F3801CA9754EAA26C44DB0"
          }
        },
        "total_txs": "2362",
        "last_commit_hash": "0BB0A89C20AD0984CFA03006AC8D406ECBF5A79D",
        "data_hash": "",
        "validators_hash": "DF75068D00413DA9092D65609FB2C45E6E7B6630",
        "consensus_hash": "D6B74BB35BDFFD8392340F2A379173548AE188FE",
        "app_hash": "E6A862C3C2C413F54EEE6EFBE940A3D4BF225967",
        "last_results_hash": "",
        "evidence_hash": ""
      },
      "commit": {
        "block_id": {
          "hash": "AF7170EE28D21F6ACD63775A80586AEE657E7F7A",
          "parts": {
            "total": "1",
            "hash": "868D5A22FA475A72439A55DEC3185232E09FE3F1"
          }
        },
        "precommits": [
          {
            "validator_address": "029359C0C768096273A68ABC902A6B17AC8D1D70",
            "validator_index": "0",
            "height": "55000",
            "round": "1",
            "timestamp": "2018-08-03T02:58:32.335603238Z",
            "type": 2,
            "block_id": {
              "hash": "AF7170EE28D21F6ACD63775A80586AEE657E7F7A",
              "parts": {
                "total": "1",
                "hash": "868D5A22FA475A72439A55DEC3185232E09FE3F1"
              }
            },
            "signature": {
              "type": "tendermint/SignatureEd25519",
              "value": "7QFud7nCMftIQpOHtjXuJC6zUhA6s8LPeSKj73o4gOnpvHTQd7c+3AjqCfiZ4MnfakfecSjBCNcCj8YiwrmtCQ=="
            }
          },
          {
            "validator_address": "02FE4B97A8387F39D1AC19E0C1702B3CC614812F",
            "validator_index": "1",
            "height": "55000",
            "round": "1",
            "timestamp": "2018-08-03T02:58:32.383369355Z",
            "type": 2,
            "block_id": {
              "hash": "AF7170EE28D21F6ACD63775A80586AEE657E7F7A",
              "parts": {
                "total": "1",
                "hash": "868D5A22FA475A72439A55DEC3185232E09FE3F1"
              }
            },
            "signature": {
              "type": "tendermint/SignatureEd25519",
              "value": "/rem3bU8f33pDrFSIkjPGg7tA9nkDqH0++A1a1K2srsImsHNNQfWjOzJ68fXu4DDtixfVwAzvEFx3zGOSXEDAQ=="
            }
          },
          {
            "validator_address": "0548261C50222FD710EB5EBDF03A0E6567B21D20",
            "validator_index": "2",
            "height": "55000",
            "round": "1",
            "timestamp": "2018-08-03T02:58:32.384983936Z",
            "type": 2,
            "block_id": {
              "hash": "AF7170EE28D21F6ACD63775A80586AEE657E7F7A",
              "parts": {
                "total": "1",
                "hash": "868D5A22FA475A72439A55DEC3185232E09FE3F1"
              }
            },
            "signature": {
              "type": "tendermint/SignatureEd25519",
              "value": "2jr1/YTRa1FDoMCbvVjzY8j9JUcS0SYRrQk5+gyEEQ42J5A+wON0H8Yuf4ayRyV03mLCMt0zJl50UFB6J5fmBA=="
            }
          },
          {
            "validator_address": "0665ADBF9B120B7617BF955AA5653A1992C82B11",
            "validator_index": "3",
            "height": "55000",
            "round": "1",
            "timestamp": "2018-08-03T02:58:32.418534966Z",
            "type": 2,
            "block_id": {
              "hash": "AF7170EE28D21F6ACD63775A80586AEE657E7F7A",
              "parts": {
                "total": "1",
                "hash": "868D5A22FA475A72439A55DEC3185232E09FE3F1"
              }
            },
            "signature": {
              "type": "tendermint/SignatureEd25519",
              "value": "k3NQ7qK+zNX63QGSyjK+tic0RQ50UnvPoL1q4B7o9zZljER6v5XxDJN8ICAHdyWONo1v/wgcNcjAOdVlxwpLCQ=="
            }
          },
          {
            "validator_address": "09145E611CC27EEB944FC5A956DDF710F943B9EF",
            "validator_index": "4",
            "height": "55000",
            "round": "1",
            "timestamp": "2018-08-03T02:58:32.39932814Z",
            "type": 2,
            "block_id": {
              "hash": "AF7170EE28D21F6ACD63775A80586AEE657E7F7A",
              "parts": {
                "total": "1",
                "hash": "868D5A22FA475A72439A55DEC3185232E09FE3F1"
              }
            },
            "signature": {
              "type": "tendermint/SignatureEd25519",
              "value": "aS24Ygdz8AArNSp34sRdifdb7zgiQZBCTxr6yOkT9d4i7S59QwLW5MKzNt3LAAxBNWp3PZ1MULG9GVp9F14HCg=="
            }
          },
          {
            "validator_address": "0989D0355A104B67AE0AE028C68FB610690E174B",
            "validator_index": "5",
            "height": "55000",
            "round": "1",
            "timestamp": "2018-08-03T02:58:32.348532411Z",
            "type": 2,
            "block_id": {
              "hash": "AF7170EE28D21F6ACD63775A80586AEE657E7F7A",
              "parts": {
                "total": "1",
                "hash": "868D5A22FA475A72439A55DEC3185232E09FE3F1"
              }
            },
            "signature": {
              "type": "tendermint/SignatureEd25519",
              "value": "rSOyqQxRYBL9GCRYBxMz+sRhGR1NGLLDEjOd2zeTZ1vN5AG0A1CENhd/rfMrtSuhdhY0VOrTycr5SIbghElhCQ=="
            }
          },
          {
            "validator_address": "0A692DBFFE9E5DD28E7DECC33CED1AEB4C0D014E",
            "validator_index": "6",
            "height": "55000",
            "round": "1",
            "timestamp": "2018-08-03T02:58:32.477594526Z",
            "type": 2,
            "block_id": {
              "hash": "AF7170EE28D21F6ACD63775A80586AEE657E7F7A",
              "parts": {
                "total": "1",
                "hash": "868D5A22FA475A72439A55DEC3185232E09FE3F1"
              }
            },
            "signature": {
              "type": "tendermint/SignatureEd25519",
              "value": "NqJXluLGX4iNb6S9nB5OsN9EU/4fdx2PUm0ugure+BydGmc4plOnJ/IsRVGJGdOAtFKP1GiLxhpFWhFeIjKuCw=="
            }
          },
          {
            "validator_address": "1751786EFC085D5331C61168FFFC8202EA151B4E",
            "validator_index": "7",
            "height": "55000",
            "round": "1",
            "timestamp": "2018-08-03T02:58:32.09607974Z",
            "type": 2,
            "block_id": {
              "hash": "AF7170EE28D21F6ACD63775A80586AEE657E7F7A",
              "parts": {
                "total": "1",
                "hash": "868D5A22FA475A72439A55DEC3185232E09FE3F1"
              }
            },
            "signature": {
              "type": "tendermint/SignatureEd25519",
              "value": "9YEZLr0wfTDEFoOpzbD/UJvxgmRJSWWos1sSnu052cnkPfiEYtIpwONllKAhRw/U0lqkGl2Pe8CfZ5soEQO1Ag=="
            }
          },
          {
            "validator_address": "17BB5CD01E8940FAFB948A04D5FA5A0645E5822E",
            "validator_index": "8",
            "height": "55000",
            "round": "1",
            "timestamp": "2018-08-03T02:58:32.34073186Z",
            "type": 2,
            "block_id": {
              "hash": "AF7170EE28D21F6ACD63775A80586AEE657E7F7A",
              "parts": {
                "total": "1",
                "hash": "868D5A22FA475A72439A55DEC3185232E09FE3F1"
              }
            },
            "signature": {
              "type": "tendermint/SignatureEd25519",
              "value": "nl5N+y90VBbKY3PB9c+oBKP2hInqurU6yCA3tXwMPyUO22jFLLKJdthYyGKI33oqfE/AXM+FnWtMEzcWMvYNAA=="
            }
          },
          {
            "validator_address": "1C683A87904BC38F05004FE83301A3A3E35447EB",
            "validator_index": "9",
            "height": "55000",
            "round": "1",
            "timestamp": "2018-08-03T02:58:32.295299354Z",
            "type": 2,
            "block_id": {
              "hash": "AF7170EE28D21F6ACD63775A80586AEE657E7F7A",
              "parts": {
                "total": "1",
                "hash": "868D5A22FA475A72439A55DEC3185232E09FE3F1"
              }
            },
            "signature": {
              "type": "tendermint/SignatureEd25519",
              "value": "qNi7EmmIPGuuHBc6Pq3YnOWR2yeNAyUgDJ9s3BfLXszVVy1JQv4+mWUiqmJch1vkq5B647+nXUyFWyOr1n8+DA=="
            }
          },
          {
            "validator_address": "1E9CE94FD0BA5CFEB901F90BC658D64D85B134D2",
            "validator_index": "10",
            "height": "55000",
            "round": "1",
            "timestamp": "2018-08-03T02:58:32.386280913Z",
            "type": 2,
            "block_id": {
              "hash": "AF7170EE28D21F6ACD63775A80586AEE657E7F7A",
              "parts": {
                "total": "1",
                "hash": "868D5A22FA475A72439A55DEC3185232E09FE3F1"
              }
            },
            "signature": {
              "type": "tendermint/SignatureEd25519",
              "value": "tzf5gWUfEr9ktBxdHPVjQNpgUiBGO73V6AKZs9e1O356/2ZgaUVFVJ9onZqyva+cDQnlU3SPwDfukgsUvRFJDQ=="
            }
          },
          {
            "validator_address": "1ECD8C5FE1341D74CDC633A245DD56858DE2F9A2",
            "validator_index": "11",
            "height": "55000",
            "round": "1",
            "timestamp": "2018-08-03T02:58:32.543996346Z",
            "type": 2,
            "block_id": {
              "hash": "AF7170EE28D21F6ACD63775A80586AEE657E7F7A",
              "parts": {
                "total": "1",
                "hash": "868D5A22FA475A72439A55DEC3185232E09FE3F1"
              }
            },
            "signature": {
              "type": "tendermint/SignatureEd25519",
              "value": "fMV0cjj8xrutQT0CNxRxOoC5t8RPtpCrUBL284utJ+LvBEEnOfqVTxlGoeeyxgiK4tZxAcv2Imaka9kwYPRpAQ=="
            }
          },
          {
            "validator_address": "1F3A68CAAD483768AA2BF667DEF10F7104C89928",
            "validator_index": "12",
            "height": "55000",
            "round": "1",
            "timestamp": "2018-08-03T02:58:32.328183613Z",
            "type": 2,
            "block_id": {
              "hash": "AF7170EE28D21F6ACD63775A80586AEE657E7F7A",
              "parts": {
                "total": "1",
                "hash": "868D5A22FA475A72439A55DEC3185232E09FE3F1"
              }
            },
            "signature": {
              "type": "tendermint/SignatureEd25519",
              "value": "6M7jvnJNOS9ej6/lZ6J0I03wWpVJ9mBz+QsuxPvtLXirYvZVWh+O1Ad1ScCBaFrZGSByhb9MMvTA3New5OkKAw=="
            }
          },
          {
            "validator_address": "1F61153F26C2DF27E15874268D30326287323352",
            "validator_index": "13",
            "height": "55000",
            "round": "1",
            "timestamp": "2018-08-03T02:58:32.412088309Z",
            "type": 2,
            "block_id": {
              "hash": "AF7170EE28D21F6ACD63775A80586AEE657E7F7A",
              "parts": {
                "total": "1",
                "hash": "868D5A22FA475A72439A55DEC3185232E09FE3F1"
              }
            },
            "signature": {
              "type": "tendermint/SignatureEd25519",
              "value": "HN+G55YlIJU2MrETOR6vJyHciQUudqP2IoWmWm17ETM857nyKNTNGPPkD/I0n3Kw+oVYoBoeOS5BH16xXlIDDQ=="
            }
          },
          {
            "validator_address": "23897586D68E2AC1C78E0EF5BB5DF5C8EAB18F50",
            "validator_index": "14",
            "height": "55000",
            "round": "1",
            "timestamp": "2018-08-03T02:58:32.37565731Z",
            "type": 2,
            "block_id": {
              "hash": "AF7170EE28D21F6ACD63775A80586AEE657E7F7A",
              "parts": {
                "total": "1",
                "hash": "868D5A22FA475A72439A55DEC3185232E09FE3F1"
              }
            },
            "signature": {
              "type": "tendermint/SignatureEd25519",
              "value": "wKKnkE9+KPCY9cqYTegP17Cnk0KknNoanFwfbs7PmEsh53EnxIlMucaMsZmdMQ8IqkV95zvHjQiTqpz3GFYfCg=="
            }
          },
          {
            "validator_address": "28770D17E8530825E7310A0659308654B7EC9682",
            "validator_index": "15",
            "height": "55000",
            "round": "1",
            "timestamp": "2018-08-03T02:58:32.342361235Z",
            "type": 2,
            "block_id": {
              "hash": "AF7170EE28D21F6ACD63775A80586AEE657E7F7A",
              "parts": {
                "total": "1",
                "hash": "868D5A22FA475A72439A55DEC3185232E09FE3F1"
              }
            },
            "signature": {
              "type": "tendermint/SignatureEd25519",
              "value": "qcSI02iwiHf6dsIrL5vYcgZuKgsvHdV8yTQN1i7Lwfq8qp+WLJdJ30dbSTdAjBR9DmvotZkFv6pNzIRLiIsfBw=="
            }
          },
          {
            "validator_address": "2A92EC3C642140202298D0E245095E0ECFC25228",
            "validator_index": "16",
            "height": "55000",
            "round": "1",
            "timestamp": "2018-08-03T02:58:32.39491127Z",
            "type": 2,
            "block_id": {
              "hash": "AF7170EE28D21F6ACD63775A80586AEE657E7F7A",
              "parts": {
                "total": "1",
                "hash": "868D5A22FA475A72439A55DEC3185232E09FE3F1"
              }
            },
            "signature": {
              "type": "tendermint/SignatureEd25519",
              "value": "BgNNvm9DORIEP1+l3hZpVF3FHLns4+wuIvhuP3WsE/tizhsVzTDyN/WQrz25mOsVGTBEdX0nbLo5iiw7Pi+wBQ=="
            }
          },
          {
            "validator_address": "33412C9A69C60CB0FAA24A5C5B3A906DE24B47C2",
            "validator_index": "17",
            "height": "55000",
            "round": "1",
            "timestamp": "2018-08-03T02:58:32.293426086Z",
            "type": 2,
            "block_id": {
              "hash": "AF7170EE28D21F6ACD63775A80586AEE657E7F7A",
              "parts": {
                "total": "1",
                "hash": "868D5A22FA475A72439A55DEC3185232E09FE3F1"
              }
            },
            "signature": {
              "type": "tendermint/SignatureEd25519",
              "value": "BnmSzwN0ds1uuGl/CB6oEhtwjIRmLVksxNqWyFwVJn7CzhLihsCTJcxt5H7+puyUKb2N5n9mBI1GQUQRRQgxBg=="
            }
          },
          {
            "validator_address": "36E9B7FAEC964F97D84C028ED62493E373AD0B38",
            "validator_index": "18",
            "height": "55000",
            "round": "1",
            "timestamp": "2018-08-03T02:58:32.393441383Z",
            "type": 2,
            "block_id": {
              "hash": "AF7170EE28D21F6ACD63775A80586AEE657E7F7A",
              "parts": {
                "total": "1",
                "hash": "868D5A22FA475A72439A55DEC3185232E09FE3F1"
              }
            },
            "signature": {
              "type": "tendermint/SignatureEd25519",
              "value": "CpWBS9rQd0PIzhb54xapcVqCNAL+HJPYkZ2B7GWKIAJFaV6tsvWNH3IlbfmQGVnFgQ5zOHKNSU+K5MT+tmfwDg=="
            }
          },
          {
            "validator_address": "38A8D85D36BEA2E5FCF8A1E778F53628E450EF13",
            "validator_index": "19",
            "height": "55000",
            "round": "1",
            "timestamp": "2018-08-03T02:58:32.431330482Z",
            "type": 2,
            "block_id": {
              "hash": "AF7170EE28D21F6ACD63775A80586AEE657E7F7A",
              "parts": {
                "total": "1",
                "hash": "868D5A22FA475A72439A55DEC3185232E09FE3F1"
              }
            },
            "signature": {
              "type": "tendermint/SignatureEd25519",
              "value": "lC0NrREsOssgSANPaAR9UUc7q99K5Wok+/KnfEyKpIv58Cins3BIkk+GQrZJyzfFgjwCrxDJVxbwFzLzlJw+Dw=="
            }
          },
          {
            "validator_address": "39DFDA0C5DB84B269642188B23253508537798E6",
            "validator_index": "20",
            "height": "55000",
            "round": "1",
            "timestamp": "2018-08-03T02:58:32.461359739Z",
            "type": 2,
            "block_id": {
              "hash": "AF7170EE28D21F6ACD63775A80586AEE657E7F7A",
              "parts": {
                "total": "1",
                "hash": "868D5A22FA475A72439A55DEC3185232E09FE3F1"
              }
            },
            "signature": {
              "type": "tendermint/SignatureEd25519",
              "value": "5AhkduxwEKmyJjwgt9rIKa0iY9NNIU1yic06zc6uJH7CFNEomnKFW5zG0koFUjEz6BgYhx7htfg6U9O3yTl4BA=="
            }
          },
          {
            "validator_address": "3AC99B708404452366E0953A4BE849226DC86CBC",
            "validator_index": "21",
            "height": "55000",
            "round": "1",
            "timestamp": "2018-08-03T02:58:32.462388395Z",
            "type": 2,
            "block_id": {
              "hash": "AF7170EE28D21F6ACD63775A80586AEE657E7F7A",
              "parts": {
                "total": "1",
                "hash": "868D5A22FA475A72439A55DEC3185232E09FE3F1"
              }
            },
            "signature": {
              "type": "tendermint/SignatureEd25519",
              "value": "bkZlR8qaWAEU7w1AUyROA+0JMA49n/Xo1Yia9URfAguKtAfN+htYbKVEemjp5gsXd15Csvew1ZcPypV1fBOyAQ=="
            }
          },
          {
            "validator_address": "3DCB822A10ED319EC7C4393D8E3FD4A41B15AAF2",
            "validator_index": "22",
            "height": "55000",
            "round": "1",
            "timestamp": "2018-08-03T02:58:32.344919751Z",
            "type": 2,
            "block_id": {
              "hash": "AF7170EE28D21F6ACD63775A80586AEE657E7F7A",
              "parts": {
                "total": "1",
                "hash": "868D5A22FA475A72439A55DEC3185232E09FE3F1"
              }
            },
            "signature": {
              "type": "tendermint/SignatureEd25519",
              "value": "BBg1z2W6cKkjKz4bxSFDNhEbfd5p6IDg6pFtZkiG7FZ7QMMFMwqoqZd9e2F8yaBbL/rKpAurWQib5ga4Te0yBg=="
            }
          },
          {
            "validator_address": "3E899BA36A93C7370347BD5FE85909F2ECD93F8C",
            "validator_index": "23",
            "height": "55000",
            "round": "1",
            "timestamp": "2018-08-03T02:58:32.390445856Z",
            "type": 2,
            "block_id": {
              "hash": "AF7170EE28D21F6ACD63775A80586AEE657E7F7A",
              "parts": {
                "total": "1",
                "hash": "868D5A22FA475A72439A55DEC3185232E09FE3F1"
              }
            },
            "signature": {
              "type": "tendermint/SignatureEd25519",
              "value": "J7TaBJbnk1rW4oj48orsCrAtoAIp9di6AhuwkDLgx3nmkNZgO7BKnwdae/M4YC3OaYJ+kqrwzMIDsTiuFudwBw=="
            }
          },
          {
            "validator_address": "41CAB2E29E7D0F2282E3275938F188FF9386B84C",
            "validator_index": "24",
            "height": "55000",
            "round": "1",
            "timestamp": "2018-08-03T02:58:32.487047872Z",
            "type": 2,
            "block_id": {
              "hash": "AF7170EE28D21F6ACD63775A80586AEE657E7F7A",
              "parts": {
                "total": "1",
                "hash": "868D5A22FA475A72439A55DEC3185232E09FE3F1"
              }
            },
            "signature": {
              "type": "tendermint/SignatureEd25519",
              "value": "Dil7FH7MUd7WG5sLQC10xQKAn15W8y1Ey2zbXeqpVrtjhNFfwP3rjKtQF52Ih+bYIoBqzUlxF565lzoejOAXDg=="
            }
          },
          {
            "validator_address": "462B656869DB02A8FD1077E255F8CC7401DC37C6",
            "validator_index": "25",
            "height": "55000",
            "round": "1",
            "timestamp": "2018-08-03T02:58:32.350557476Z",
            "type": 2,
            "block_id": {
              "hash": "AF7170EE28D21F6ACD63775A80586AEE657E7F7A",
              "parts": {
                "total": "1",
                "hash": "868D5A22FA475A72439A55DEC3185232E09FE3F1"
              }
            },
            "signature": {
              "type": "tendermint/SignatureEd25519",
              "value": "Huthvkq1d2jO3aAaeiXfV4Cbs9gocfju+P16jtuV1NwJgJGqViOnJE8KutaHvs3c83qzrv5qSAOztW9+ar2ZCw=="
            }
          },
          {
            "validator_address": "48E5118163E5442068A1B5A42D2EEDBB75724935",
            "validator_index": "26",
            "height": "55000",
            "round": "1",
            "timestamp": "2018-08-03T02:58:32.525272492Z",
            "type": 2,
            "block_id": {
              "hash": "AF7170EE28D21F6ACD63775A80586AEE657E7F7A",
              "parts": {
                "total": "1",
                "hash": "868D5A22FA475A72439A55DEC3185232E09FE3F1"
              }
            },
            "signature": {
              "type": "tendermint/SignatureEd25519",
              "value": "7TZ7393mL5Ht9qr9QcHbtFgkVvMFDUDsz67UujlAugM6aNeIzHb/sAmJZ9Cg66FkHU26P2UvVpT1y9DT9EDICg=="
            }
          },
          {
            "validator_address": "49103C58AFD9C7C069F55EBA218F3DFD9AEA74F9",
            "validator_index": "27",
            "height": "55000",
            "round": "1",
            "timestamp": "2018-08-03T02:58:32.370932587Z",
            "type": 2,
            "block_id": {
              "hash": "AF7170EE28D21F6ACD63775A80586AEE657E7F7A",
              "parts": {
                "total": "1",
                "hash": "868D5A22FA475A72439A55DEC3185232E09FE3F1"
              }
            },
            "signature": {
              "type": "tendermint/SignatureEd25519",
              "value": "YXOgE10rhPJTBFiTTfX0ZxERszbVVaG4e6mdisfUqBBTHUImc/qGHuuLadyYZk98hO0Z++zCslR3d5kJFkWkDg=="
            }
          },
          {
            "validator_address": "4944F8BBBB5303E17BC0607DF332320EDBC750EA",
            "validator_index": "28",
            "height": "55000",
            "round": "1",
            "timestamp": "2018-08-03T02:58:32.368394996Z",
            "type": 2,
            "block_id": {
              "hash": "AF7170EE28D21F6ACD63775A80586AEE657E7F7A",
              "parts": {
                "total": "1",
                "hash": "868D5A22FA475A72439A55DEC3185232E09FE3F1"
              }
            },
            "signature": {
              "type": "tendermint/SignatureEd25519",
              "value": "7npSM4w8bNuU3CqFoZDeMw/fT++y3CatmRD9ui5Db4trhygUK4LZljudE4tah7/j7uVis1NqCYeKaT+h8A14Cw=="
            }
          },
          {
            "validator_address": "49841599DE675157CBE1E7D6B35BF8FFC23BD5CB",
            "validator_index": "29",
            "height": "55000",
            "round": "1",
            "timestamp": "2018-08-03T02:58:32.296805679Z",
            "type": 2,
            "block_id": {
              "hash": "AF7170EE28D21F6ACD63775A80586AEE657E7F7A",
              "parts": {
                "total": "1",
                "hash": "868D5A22FA475A72439A55DEC3185232E09FE3F1"
              }
            },
            "signature": {
              "type": "tendermint/SignatureEd25519",
              "value": "/tCtmCwzx7LxVMhAqPzRfFdWzT9yt/BaeYoyuwjdC8eJKa2ADeuGsgzv2r9AXz2wCbIHhGUGJry2xZiNxPoSAQ=="
            }
          },
          {
            "validator_address": "51386C2CF9556821D114D7E4945806802BADB28D",
            "validator_index": "30",
            "height": "55000",
            "round": "1",
            "timestamp": "2018-08-03T02:58:32.402936917Z",
            "type": 2,
            "block_id": {
              "hash": "AF7170EE28D21F6ACD63775A80586AEE657E7F7A",
              "parts": {
                "total": "1",
                "hash": "868D5A22FA475A72439A55DEC3185232E09FE3F1"
              }
            },
            "signature": {
              "type": "tendermint/SignatureEd25519",
              "value": "9qbeKTn+3O7iOMJbSaD0Bc76q37FKPcqrgJNOprlITMz2funmgSdiKW/bZF25kZDAsecuIaoPnVMUBJ5h5HACA=="
            }
          },
          {
            "validator_address": "543564ECA3AFEFADC73EE8591AAC3A96F079BC8A",
            "validator_index": "31",
            "height": "55000",
            "round": "1",
            "timestamp": "2018-08-03T02:58:32.343539116Z",
            "type": 2,
            "block_id": {
              "hash": "AF7170EE28D21F6ACD63775A80586AEE657E7F7A",
              "parts": {
                "total": "1",
                "hash": "868D5A22FA475A72439A55DEC3185232E09FE3F1"
              }
            },
            "signature": {
              "type": "tendermint/SignatureEd25519",
              "value": "MR3jWrDjtzBSGwR5OU+8NGygZ808Rd5QMBXKLGF6WBwo7XMo9y5g3TQtwCHetY9ViSeSd+oc09Xdd0gOLfyOBg=="
            }
          },
          {
            "validator_address": "55D67B1A6DC13E96F8754A5A42EABC20F7F86664",
            "validator_index": "32",
            "height": "55000",
            "round": "1",
            "timestamp": "2018-08-03T02:58:32.298800224Z",
            "type": 2,
            "block_id": {
              "hash": "AF7170EE28D21F6ACD63775A80586AEE657E7F7A",
              "parts": {
                "total": "1",
                "hash": "868D5A22FA475A72439A55DEC3185232E09FE3F1"
              }
            },
            "signature": {
              "type": "tendermint/SignatureEd25519",
              "value": "U/4cOxj1JS7xyv4pT+EItvBa70qICz40I2iqZBvaXdv0EBV2JAPoq7QU2aJU9Vd/OU1pxmo/+0TGDkpj1dDDBw=="
            }
          },
          {
            "validator_address": "570B6A755ED339EAC56BB3390A48069F6AC9449B",
            "validator_index": "33",
            "height": "55000",
            "round": "1",
            "timestamp": "2018-08-03T02:58:43.79818594Z",
            "type": 2,
            "block_id": {
              "hash": "AF7170EE28D21F6ACD63775A80586AEE657E7F7A",
              "parts": {
                "total": "1",
                "hash": "868D5A22FA475A72439A55DEC3185232E09FE3F1"
              }
            },
            "signature": {
              "type": "tendermint/SignatureEd25519",
              "value": "VawPu8a6YAOuGTWMF6gqFBE9E3FsnyxuqUbHR08ZFpIw7G5sG5Q6VNv1qCu/RqveDON9CjKSi2uVHnVyp9XACQ=="
            }
          },
          {
            "validator_address": "5BDF8EA41B1835FBAD865B181A2A4B23F511B5E4",
            "validator_index": "34",
            "height": "55000",
            "round": "1",
            "timestamp": "2018-08-03T02:58:32.315105974Z",
            "type": 2,
            "block_id": {
              "hash": "AF7170EE28D21F6ACD63775A80586AEE657E7F7A",
              "parts": {
                "total": "1",
                "hash": "868D5A22FA475A72439A55DEC3185232E09FE3F1"
              }
            },
            "signature": {
              "type": "tendermint/SignatureEd25519",
              "value": "G/fHuz9LaVMdmmACEY6EzcNNQQqvV1gVjnWm6aBgiWtDy+XMe+XZmG1FaQ9iwDpwlr7hXkUxVgLPJRKltLCbBw=="
            }
          },
          {
            "validator_address": "60229E2E273297FE00219E46DFFB8F76844CDEF9",
            "validator_index": "35",
            "height": "55000",
            "round": "1",
            "timestamp": "2018-08-03T02:58:29.387804197Z",
            "type": 2,
            "block_id": {
              "hash": "AF7170EE28D21F6ACD63775A80586AEE657E7F7A",
              "parts": {
                "total": "1",
                "hash": "868D5A22FA475A72439A55DEC3185232E09FE3F1"
              }
            },
            "signature": {
              "type": "tendermint/SignatureEd25519",
              "value": "ZhKiAJeeobgOk9glXH9voewlky91BiqM4a5+F9ZUhZDmLrMLClCwuVeAvywDvT/guM0vphBEUDJUaWlXME0rBA=="
            }
          },
          {
            "validator_address": "62410D6D1CD98278136E4D0738AA0EA273CDFC54",
            "validator_index": "36",
            "height": "55000",
            "round": "1",
            "timestamp": "2018-08-03T02:58:32.324902435Z",
            "type": 2,
            "block_id": {
              "hash": "AF7170EE28D21F6ACD63775A80586AEE657E7F7A",
              "parts": {
                "total": "1",
                "hash": "868D5A22FA475A72439A55DEC3185232E09FE3F1"
              }
            },
            "signature": {
              "type": "tendermint/SignatureEd25519",
              "value": "RaeFZ2E5jLmfxi1ttMiRp0IEFE1nKBvp2MHLw0AZCySgR+ZO/Tzk5s3OFIclIPeW8QDuf8dSwlWNPcb3n0EyCg=="
            }
          },
          {
            "validator_address": "632F5C139A5A9DFBFE5111DEE29FCFB6157207DC",
            "validator_index": "37",
            "height": "55000",
            "round": "1",
            "timestamp": "2018-08-03T02:58:32.385014057Z",
            "type": 2,
            "block_id": {
              "hash": "AF7170EE28D21F6ACD63775A80586AEE657E7F7A",
              "parts": {
                "total": "1",
                "hash": "868D5A22FA475A72439A55DEC3185232E09FE3F1"
              }
            },
            "signature": {
              "type": "tendermint/SignatureEd25519",
              "value": "1ppuvgmoBjMA0jfp235is/+OKQRVi/aNA4KMuJ1N7xmGNiOOIjXSXaVfbA2Pxg+sio9IMsvgr9xn0fY7m48+BA=="
            }
          },
          {
            "validator_address": "64F57F8E796A9B7B590C1EFA4123988C86631D39",
            "validator_index": "38",
            "height": "55000",
            "round": "1",
            "timestamp": "2018-08-03T02:58:32.353368237Z",
            "type": 2,
            "block_id": {
              "hash": "AF7170EE28D21F6ACD63775A80586AEE657E7F7A",
              "parts": {
                "total": "1",
                "hash": "868D5A22FA475A72439A55DEC3185232E09FE3F1"
              }
            },
            "signature": {
              "type": "tendermint/SignatureEd25519",
              "value": "ftT+NheP7N8VRuzCYRIEIRezfN8ZTUyqsIGbqH7qO+4zGCUNkZ/DAUBgDQPlOkohV1qWSmGe3bbmbWIc4wvYAw=="
            }
          },
          {
            "validator_address": "69D99B2C66043ACBEAA8447525C356AFC6408E0C",
            "validator_index": "39",
            "height": "55000",
            "round": "1",
            "timestamp": "2018-08-03T02:58:32.497375524Z",
            "type": 2,
            "block_id": {
              "hash": "AF7170EE28D21F6ACD63775A80586AEE657E7F7A",
              "parts": {
                "total": "1",
                "hash": "868D5A22FA475A72439A55DEC3185232E09FE3F1"
              }
            },
            "signature": {
              "type": "tendermint/SignatureEd25519",
              "value": "nxGEhwimEXRnxjw6BQP6jr8GCMM/X/QkZdSzyMjGvdxtzwdThuAyQSWLGDIRs9sK4jIBIIeikLnrCDlN6hYgBg=="
            }
          },
          {
            "validator_address": "69EDADFA4A803E9DBF548C900D4A465E7D154262",
            "validator_index": "40",
            "height": "55000",
            "round": "1",
            "timestamp": "2018-08-03T02:58:32.502916203Z",
            "type": 2,
            "block_id": {
              "hash": "AF7170EE28D21F6ACD63775A80586AEE657E7F7A",
              "parts": {
                "total": "1",
                "hash": "868D5A22FA475A72439A55DEC3185232E09FE3F1"
              }
            },
            "signature": {
              "type": "tendermint/SignatureEd25519",
              "value": "nxyEujkQckVbAOQrx1Kk+ezFIpv7gon2ApqZw7h9yHlwcpyKi+jRf9+UgFyi62v3CODpbSxQB+392ErFo3DTBQ=="
            }
          },
          {
            "validator_address": "6D3AD380E398D8592B03AA124BAFED5F125DF863",
            "validator_index": "41",
            "height": "55000",
            "round": "1",
            "timestamp": "2018-08-03T02:57:29.439973465Z",
            "type": 2,
            "block_id": {
              "hash": "AF7170EE28D21F6ACD63775A80586AEE657E7F7A",
              "parts": {
                "total": "1",
                "hash": "868D5A22FA475A72439A55DEC3185232E09FE3F1"
              }
            },
            "signature": {
              "type": "tendermint/SignatureEd25519",
              "value": "FJVPgRE46aB/jFdEhHbwhAJ3wpLObx9TkTu6Zj9CmnsABLwbFo9q8RuN41e2IWL2XUagPArN/qC3q91RgHLqAQ=="
            }
          },
          {
            "validator_address": "6F6C93B8BF3495063FEC9B5C771158607F4AE9D6",
            "validator_index": "42",
            "height": "55000",
            "round": "1",
            "timestamp": "2018-08-03T02:58:32.45695052Z",
            "type": 2,
            "block_id": {
              "hash": "AF7170EE28D21F6ACD63775A80586AEE657E7F7A",
              "parts": {
                "total": "1",
                "hash": "868D5A22FA475A72439A55DEC3185232E09FE3F1"
              }
            },
            "signature": {
              "type": "tendermint/SignatureEd25519",
              "value": "xY+57lwccMTR/SPyxlS3rEG5ikDXs2HjZcnM/uMZupGQhETTI1ru98rEzj63wZ/macCTVZXzNsE3XkdQBOM7CQ=="
            }
          },
          {
            "validator_address": "732CEEF54C374DDC6ADECBFD707AEFD07FEDC143",
            "validator_index": "43",
            "height": "55000",
            "round": "1",
            "timestamp": "2018-08-03T02:58:32.506671333Z",
            "type": 2,
            "block_id": {
              "hash": "AF7170EE28D21F6ACD63775A80586AEE657E7F7A",
              "parts": {
                "total": "1",
                "hash": "868D5A22FA475A72439A55DEC3185232E09FE3F1"
              }
            },
            "signature": {
              "type": "tendermint/SignatureEd25519",
              "value": "AsjJcK918E9NrnAtxpB5uHIlgZlqti0PWHEhJwkh/Bexu1+AuqZKauCWnJuVScTtLCK3kRRm8t0R4SmUtIHWBA=="
            }
          },
          {
            "validator_address": "751E43437224E8BB6D1569B3E2B2616B6E7F4397",
            "validator_index": "44",
            "height": "55000",
            "round": "1",
            "timestamp": "2018-08-03T02:58:32.38657627Z",
            "type": 2,
            "block_id": {
              "hash": "AF7170EE28D21F6ACD63775A80586AEE657E7F7A",
              "parts": {
                "total": "1",
                "hash": "868D5A22FA475A72439A55DEC3185232E09FE3F1"
              }
            },
            "signature": {
              "type": "tendermint/SignatureEd25519",
              "value": "luMva7ItXSbzlp3+SFCnicdt6zFxTrdgEz/mIe4nkQjWPdlKFaobNeYtCBl3XBRyJRoUo2D6AdHLfNl7MIr6Ag=="
            }
          },
          {
            "validator_address": "7EB7593F519F1180C7E872D0494611464EDF03AE",
            "validator_index": "45",
            "height": "55000",
            "round": "1",
            "timestamp": "2018-08-03T02:58:32.459682361Z",
            "type": 2,
            "block_id": {
              "hash": "AF7170EE28D21F6ACD63775A80586AEE657E7F7A",
              "parts": {
                "total": "1",
                "hash": "868D5A22FA475A72439A55DEC3185232E09FE3F1"
              }
            },
            "signature": {
              "type": "tendermint/SignatureEd25519",
              "value": "SRrhQRPTQcezICGFQ0E4P8BNmQh2345GURMXUCRe73jcGnWtHoQ1yBCIZAlq0pXiIyjIyK+n1ukog5ltEFsMAg=="
            }
          },
          {
            "validator_address": "807CF675BA8479FC4FEC1047215DF07970040F1F",
            "validator_index": "46",
            "height": "55000",
            "round": "1",
            "timestamp": "2018-08-03T02:58:32.704406282Z",
            "type": 2,
            "block_id": {
              "hash": "AF7170EE28D21F6ACD63775A80586AEE657E7F7A",
              "parts": {
                "total": "1",
                "hash": "868D5A22FA475A72439A55DEC3185232E09FE3F1"
              }
            },
            "signature": {
              "type": "tendermint/SignatureEd25519",
              "value": "9nnR/GTD/XCvjBuTW+BRWSj7u9PkK44/ihRv7wZjQgvDu7BgtOst3t0t78WKfz5VEJe4hz3DFzvHjlEijfSEBg=="
            }
          },
          null,
          {
            "validator_address": "83AB321E012C57746689FED3A6064DF331F81007",
            "validator_index": "48",
            "height": "55000",
            "round": "1",
            "timestamp": "2018-08-03T02:58:32.393730978Z",
            "type": 2,
            "block_id": {
              "hash": "AF7170EE28D21F6ACD63775A80586AEE657E7F7A",
              "parts": {
                "total": "1",
                "hash": "868D5A22FA475A72439A55DEC3185232E09FE3F1"
              }
            },
            "signature": {
              "type": "tendermint/SignatureEd25519",
              "value": "EGKxkbJbTiDUKzDbXV150823F/HUUwCvfpLP358Dkf+swLcol54ESw+aGgMgU4/zOBnxbBZD9soXgsUHy8aODA=="
            }
          },
          {
            "validator_address": "83BB1B88D3DBB20AD845FECA07749EBD87D3754D",
            "validator_index": "49",
            "height": "55000",
            "round": "1",
            "timestamp": "2018-08-03T02:58:32.565160978Z",
            "type": 2,
            "block_id": {
              "hash": "AF7170EE28D21F6ACD63775A80586AEE657E7F7A",
              "parts": {
                "total": "1",
                "hash": "868D5A22FA475A72439A55DEC3185232E09FE3F1"
              }
            },
            "signature": {
              "type": "tendermint/SignatureEd25519",
              "value": "iCqo+8sct26YfWd6SasjTEUnSLGL0+R3vRymz3EY0fr9esnyYW/ikXaxhuR7IvkdYDhh0Gd7KaZTOjMF+Pv0AA=="
            }
          },
          {
            "validator_address": "86DDBEEF35D35786A68834B34869174AC314BB74",
            "validator_index": "50",
            "height": "55000",
            "round": "1",
            "timestamp": "2018-08-03T02:58:32.367411774Z",
            "type": 2,
            "block_id": {
              "hash": "AF7170EE28D21F6ACD63775A80586AEE657E7F7A",
              "parts": {
                "total": "1",
                "hash": "868D5A22FA475A72439A55DEC3185232E09FE3F1"
              }
            },
            "signature": {
              "type": "tendermint/SignatureEd25519",
              "value": "TUY6jvFMBQHkTyxo2F03aZNua1IlaS77wQkhhKd2SH1kkNe1uS2+Fj44f3c/ievNw5777ycG/wd4c7f8gohwDQ=="
            }
          },
          {
            "validator_address": "8F06FE1FD042683C426137FBC4BBAA4288924217",
            "validator_index": "51",
            "height": "55000",
            "round": "1",
            "timestamp": "2018-08-03T02:58:32.353670187Z",
            "type": 2,
            "block_id": {
              "hash": "AF7170EE28D21F6ACD63775A80586AEE657E7F7A",
              "parts": {
                "total": "1",
                "hash": "868D5A22FA475A72439A55DEC3185232E09FE3F1"
              }
            },
            "signature": {
              "type": "tendermint/SignatureEd25519",
              "value": "EDuvOpCe8CCWvnHeIokZV6af9K1KcGDvFyDHGlsOk9dodnBr/3+Ut+mTYdfxWmjpVS5Caf8UIT7B0JzKy6tVCA=="
            }
          },
          {
            "validator_address": "95980831E186F2540F6E9FB6C8E74DE2401405AC",
            "validator_index": "52",
            "height": "55000",
            "round": "1",
            "timestamp": "2018-08-03T02:58:32.407973338Z",
            "type": 2,
            "block_id": {
              "hash": "AF7170EE28D21F6ACD63775A80586AEE657E7F7A",
              "parts": {
                "total": "1",
                "hash": "868D5A22FA475A72439A55DEC3185232E09FE3F1"
              }
            },
            "signature": {
              "type": "tendermint/SignatureEd25519",
              "value": "IcebIStHVIJW3ID3Qhs12BrZvi16SrLHFLuM4Gx8wbbk7KIyqTmrR16HeTk2bHCD9o4owAf9/cIJ8CCeZgdKCg=="
            }
          },
          {
            "validator_address": "95FAFBC1E0579C83D290A063020CE87C5334BD9B",
            "validator_index": "53",
            "height": "55000",
            "round": "1",
            "timestamp": "2018-08-03T02:58:32.339892523Z",
            "type": 2,
            "block_id": {
              "hash": "AF7170EE28D21F6ACD63775A80586AEE657E7F7A",
              "parts": {
                "total": "1",
                "hash": "868D5A22FA475A72439A55DEC3185232E09FE3F1"
              }
            },
            "signature": {
              "type": "tendermint/SignatureEd25519",
              "value": "c4WpKTrYhZpfCY2ygWuYY6P3ubz2y50HWt1N1Sv0RhdP1MjenNKApJKP5PZoK18OVAdisjfCrbTcFn2grERSDQ=="
            }
          },
          {
            "validator_address": "96BDE45EC52606CF5CB59853097871AD60680549",
            "validator_index": "54",
            "height": "55000",
            "round": "1",
            "timestamp": "2018-08-03T02:58:32.368051963Z",
            "type": 2,
            "block_id": {
              "hash": "AF7170EE28D21F6ACD63775A80586AEE657E7F7A",
              "parts": {
                "total": "1",
                "hash": "868D5A22FA475A72439A55DEC3185232E09FE3F1"
              }
            },
            "signature": {
              "type": "tendermint/SignatureEd25519",
              "value": "87xDttArws35itBf6gnPZC60aP9WtAe6NbSwOKHKxD849+kTqv+dfdf1foi92X1stcH5CGRG0IBhoKyTT+MuAA=="
            }
          },
          {
            "validator_address": "970CD321881185BF83DB2923C321B0E75FDBB2B8",
            "validator_index": "55",
            "height": "55000",
            "round": "1",
            "timestamp": "2018-08-03T02:58:32.399286877Z",
            "type": 2,
            "block_id": {
              "hash": "AF7170EE28D21F6ACD63775A80586AEE657E7F7A",
              "parts": {
                "total": "1",
                "hash": "868D5A22FA475A72439A55DEC3185232E09FE3F1"
              }
            },
            "signature": {
              "type": "tendermint/SignatureEd25519",
              "value": "BYxf7z5ZFTJ5qKkQcukKRQjYHjDUaRFmXQchQCj8o5b2mutRCz7/2rv1lE2vNxxtB0IWzwbIgHr+Ruj++qAeBw=="
            }
          },
          {
            "validator_address": "97DBB3D4B3D6C29287244864448F651DD5B07390",
            "validator_index": "56",
            "height": "55000",
            "round": "1",
            "timestamp": "2018-08-03T02:58:32.442725757Z",
            "type": 2,
            "block_id": {
              "hash": "AF7170EE28D21F6ACD63775A80586AEE657E7F7A",
              "parts": {
                "total": "1",
                "hash": "868D5A22FA475A72439A55DEC3185232E09FE3F1"
              }
            },
            "signature": {
              "type": "tendermint/SignatureEd25519",
              "value": "Lu1oB0lKhrXnMlMRGHZWLBpff7H3bpa1/4RVBBh6Zk3Mhfx/1+m6HfZL+qpL5s53hTYJvkYB2B1/ZYQUvFfiAw=="
            }
          },
          {
            "validator_address": "9C29C9B76D27586E4D9AD2AED0E943162645E55C",
            "validator_index": "57",
            "height": "55000",
            "round": "1",
            "timestamp": "2018-08-03T02:58:32.308256996Z",
            "type": 2,
            "block_id": {
              "hash": "AF7170EE28D21F6ACD63775A80586AEE657E7F7A",
              "parts": {
                "total": "1",
                "hash": "868D5A22FA475A72439A55DEC3185232E09FE3F1"
              }
            },
            "signature": {
              "type": "tendermint/SignatureEd25519",
              "value": "1Xeex/jJHh3AVOVUk+IOdFfpq0so+Qtyvvq1xqHjIr5buxn2qYeasKwP6/eSzO8mGk1rRvR4RaeTEprs2lHnAQ=="
            }
          },
          {
            "validator_address": "9D93AD02FE1BD7E76B9E58D7EB461088EAD011E5",
            "validator_index": "58",
            "height": "55000",
            "round": "1",
            "timestamp": "2018-08-03T02:58:32.338863737Z",
            "type": 2,
            "block_id": {
              "hash": "AF7170EE28D21F6ACD63775A80586AEE657E7F7A",
              "parts": {
                "total": "1",
                "hash": "868D5A22FA475A72439A55DEC3185232E09FE3F1"
              }
            },
            "signature": {
              "type": "tendermint/SignatureEd25519",
              "value": "fvd5+qsZtOcy0nPnHtUfYqiXGp4sZlXEZeE4fa3OTtMa9LtHNfU7agxdxSjA0JLhwOZJ8TXcosJphQfxcI5kCg=="
            }
          },
          {
            "validator_address": "A0A6466F4ABEA09C3B55E3709AFDE217A103209F",
            "validator_index": "59",
            "height": "55000",
            "round": "1",
            "timestamp": "2018-08-03T02:58:32.363154409Z",
            "type": 2,
            "block_id": {
              "hash": "AF7170EE28D21F6ACD63775A80586AEE657E7F7A",
              "parts": {
                "total": "1",
                "hash": "868D5A22FA475A72439A55DEC3185232E09FE3F1"
              }
            },
            "signature": {
              "type": "tendermint/SignatureEd25519",
              "value": "OQSyIDGJHlibJ+uwkxe7dS3XT2F9+gN7vaDVunxmYdwkyFOr62BbSqltM4OYGvSKsiNVxf4ehiWr97KdIBiLAQ=="
            }
          },
          {
            "validator_address": "A5868971300F155020634D7BB49C7634F7AACCD3",
            "validator_index": "60",
            "height": "55000",
            "round": "1",
            "timestamp": "2018-08-03T02:58:32.358312383Z",
            "type": 2,
            "block_id": {
              "hash": "AF7170EE28D21F6ACD63775A80586AEE657E7F7A",
              "parts": {
                "total": "1",
                "hash": "868D5A22FA475A72439A55DEC3185232E09FE3F1"
              }
            },
            "signature": {
              "type": "tendermint/SignatureEd25519",
              "value": "eJadv0p4pVZ48uGwGksO7DdD9vUg6K/4fo6VX2UyF8KLxLsuyrk1adIFpFqe26aDpmM7Toq61xbXS/Qk7jWoBQ=="
            }
          },
          {
            "validator_address": "A6B3A5B5D982CFD7B5FDFA15CF5A720E7AE25E7F",
            "validator_index": "61",
            "height": "55000",
            "round": "1",
            "timestamp": "2018-08-03T02:58:32.893304237Z",
            "type": 2,
            "block_id": {
              "hash": "AF7170EE28D21F6ACD63775A80586AEE657E7F7A",
              "parts": {
                "total": "1",
                "hash": "868D5A22FA475A72439A55DEC3185232E09FE3F1"
              }
            },
            "signature": {
              "type": "tendermint/SignatureEd25519",
              "value": "3NHA7u6UiK5sVkzIySGo+Z6qjcqu/8awAQ1qvbU0dObbu0aonYXkt6r+Oc9rLYgrENKbBfC+ERgJDjqEg4ahCQ=="
            }
          },
          {
            "validator_address": "AC96444A9083890B7C7B430DB17BF1D3EA5EED04",
            "validator_index": "62",
            "height": "55000",
            "round": "1",
            "timestamp": "2018-08-03T02:58:32.424159127Z",
            "type": 2,
            "block_id": {
              "hash": "AF7170EE28D21F6ACD63775A80586AEE657E7F7A",
              "parts": {
                "total": "1",
                "hash": "868D5A22FA475A72439A55DEC3185232E09FE3F1"
              }
            },
            "signature": {
              "type": "tendermint/SignatureEd25519",
              "value": "KKvsFLDOntEzfMbv+cJYPpT2o7CeUc7lnXiZaTcHeRl7ZI4Km5UiXyD2tTrBmcX+UHfr4p8x+F9fLKCiUQDgBQ=="
            }
          },
          {
            "validator_address": "B197425B3210375F211661DE02EF2AE36580EB0F",
            "validator_index": "63",
            "height": "55000",
            "round": "1",
            "timestamp": "2018-08-03T02:58:32.353842718Z",
            "type": 2,
            "block_id": {
              "hash": "AF7170EE28D21F6ACD63775A80586AEE657E7F7A",
              "parts": {
                "total": "1",
                "hash": "868D5A22FA475A72439A55DEC3185232E09FE3F1"
              }
            },
            "signature": {
              "type": "tendermint/SignatureEd25519",
              "value": "S+b2qc7HBWyl7PF9URpQrOFkhTQlNDO+HRwjaDG8E6Ts1MqCu0Jndq5LOxuo3MH7wWMUBtHyrrhWqFsPadmkCg=="
            }
          },
          {
            "validator_address": "B45E54D2D1CB5A4CCD1D49016608C18E7C56B270",
            "validator_index": "64",
            "height": "55000",
            "round": "1",
            "timestamp": "2018-08-03T02:58:32.469317986Z",
            "type": 2,
            "block_id": {
              "hash": "AF7170EE28D21F6ACD63775A80586AEE657E7F7A",
              "parts": {
                "total": "1",
                "hash": "868D5A22FA475A72439A55DEC3185232E09FE3F1"
              }
            },
            "signature": {
              "type": "tendermint/SignatureEd25519",
              "value": "iotbAZgtHz5JMXHQrQ0eO17gt5Q/kLm8e1vAwagME0Z+4oUd8w2vJgu6msjTPQk7OGjSxKlRIqkIyjdlokKcCQ=="
            }
          },
          {
            "validator_address": "BB1276BE89834835428664408917649FEEF5D90C",
            "validator_index": "65",
            "height": "55000",
            "round": "1",
            "timestamp": "2018-08-03T02:58:32.507188777Z",
            "type": 2,
            "block_id": {
              "hash": "AF7170EE28D21F6ACD63775A80586AEE657E7F7A",
              "parts": {
                "total": "1",
                "hash": "868D5A22FA475A72439A55DEC3185232E09FE3F1"
              }
            },
            "signature": {
              "type": "tendermint/SignatureEd25519",
              "value": "biyBAqWSVnWQc/ytetgC7ZOOKd8PGmZ0Cg7gMOHlCtfRvwtvVSiBXxF062ycNJSFGlrGsJEIwOS1EaLsDSneCQ=="
            }
          },
          {
            "validator_address": "BC36FEDD6EF6071118A3E51859DF3831A2EC4782",
            "validator_index": "66",
            "height": "55000",
            "round": "1",
            "timestamp": "2018-08-03T02:58:32.443243564Z",
            "type": 2,
            "block_id": {
              "hash": "AF7170EE28D21F6ACD63775A80586AEE657E7F7A",
              "parts": {
                "total": "1",
                "hash": "868D5A22FA475A72439A55DEC3185232E09FE3F1"
              }
            },
            "signature": {
              "type": "tendermint/SignatureEd25519",
              "value": "QgfYXmDm0g9l7uDzugIu9lf2tZOmbExhvSVtBKv0gytlMx+jA94/SnG0kEhhLPc7Sd2Naw0Ty3QKHMAOYzx/DA=="
            }
          },
          {
            "validator_address": "BD9D0DA513BF099DB4BB6E725A4E19832789882F",
            "validator_index": "67",
            "height": "55000",
            "round": "1",
            "timestamp": "2018-08-03T02:58:32.40271898Z",
            "type": 2,
            "block_id": {
              "hash": "AF7170EE28D21F6ACD63775A80586AEE657E7F7A",
              "parts": {
                "total": "1",
                "hash": "868D5A22FA475A72439A55DEC3185232E09FE3F1"
              }
            },
            "signature": {
              "type": "tendermint/SignatureEd25519",
              "value": "zAkFLnvFcE5cAmHXXPQqGIab7mNQ9XHlXzIVqKbPkd6s5h5JS3620MxnMRq+mMGEvj6PCJ1UBnxDoFGuma8ZCA=="
            }
          },
          {
            "validator_address": "C1134A2FF8F7338E7CDB3FE57DDD2A655DEB1E22",
            "validator_index": "68",
            "height": "55000",
            "round": "1",
            "timestamp": "2018-08-03T02:58:32.337065956Z",
            "type": 2,
            "block_id": {
              "hash": "AF7170EE28D21F6ACD63775A80586AEE657E7F7A",
              "parts": {
                "total": "1",
                "hash": "868D5A22FA475A72439A55DEC3185232E09FE3F1"
              }
            },
            "signature": {
              "type": "tendermint/SignatureEd25519",
              "value": "pNonBZXxYRpRW9MXAjFzSQqAvjpX0ZFeOqgPRd9+y8bi517piJapvxHs0rjOs3CLvArjLDkebciFE4L42dWgBA=="
            }
          },
          {
            "validator_address": "C39A8A2B85198DCB8F23AD1F6C198E2BA7AB5D60",
            "validator_index": "69",
            "height": "55000",
            "round": "1",
            "timestamp": "2018-08-03T02:58:32.363024562Z",
            "type": 2,
            "block_id": {
              "hash": "AF7170EE28D21F6ACD63775A80586AEE657E7F7A",
              "parts": {
                "total": "1",
                "hash": "868D5A22FA475A72439A55DEC3185232E09FE3F1"
              }
            },
            "signature": {
              "type": "tendermint/SignatureEd25519",
              "value": "MLgczPSFaRuNrNWHSCsR7cCCkWo8hRTto6kDQKOUoqCLyZ4vkWN7JpQI8JFBKl47dN2i7cKu2S+vH7gzlXV3Ag=="
            }
          },
          {
            "validator_address": "C4335190C3B5BD4BA5568BC0F99C34162D940D08",
            "validator_index": "70",
            "height": "55000",
            "round": "1",
            "timestamp": "2018-08-03T02:58:32.451167827Z",
            "type": 2,
            "block_id": {
              "hash": "AF7170EE28D21F6ACD63775A80586AEE657E7F7A",
              "parts": {
                "total": "1",
                "hash": "868D5A22FA475A72439A55DEC3185232E09FE3F1"
              }
            },
            "signature": {
              "type": "tendermint/SignatureEd25519",
              "value": "3VBbkZo/XgYcetlExLB+iKKx1RpjOteik3tyt1uTWifE+l21LmTW7B/SvKYi76GERYLojjsWO9lwjmo9b54QBQ=="
            }
          },
          {
            "validator_address": "C561CFA081677046376396922E7576E5F7B316AD",
            "validator_index": "71",
            "height": "55000",
            "round": "1",
            "timestamp": "2018-08-03T02:58:32.365662726Z",
            "type": 2,
            "block_id": {
              "hash": "AF7170EE28D21F6ACD63775A80586AEE657E7F7A",
              "parts": {
                "total": "1",
                "hash": "868D5A22FA475A72439A55DEC3185232E09FE3F1"
              }
            },
            "signature": {
              "type": "tendermint/SignatureEd25519",
              "value": "syBd8MskJYyvq2DEs7snXcZpOXWCxmf16ThOX76c6EY3/BEjnzXWWpUP8nVP8QB8cQgo1SpcNbDXr4UqGuP3Dg=="
            }
          },
          {
            "validator_address": "CEB97DB5CB18270247ABDE6CF2F84F9AEE8A2904",
            "validator_index": "72",
            "height": "55000",
            "round": "1",
            "timestamp": "2018-08-03T02:58:33.835504367Z",
            "type": 2,
            "block_id": {
              "hash": "AF7170EE28D21F6ACD63775A80586AEE657E7F7A",
              "parts": {
                "total": "1",
                "hash": "868D5A22FA475A72439A55DEC3185232E09FE3F1"
              }
            },
            "signature": {
              "type": "tendermint/SignatureEd25519",
              "value": "AhzxO4i8E488/SnzBohbScqjMu7PX05YioH2u0bHfNHRWI+m6FHvLHLK0cagKgNsUgfmJbZgAOjUFCdcB3wSAQ=="
            }
          },
          {
            "validator_address": "D2134B826A1E25A955905CB79A4D8731CAFA0CCE",
            "validator_index": "73",
            "height": "55000",
            "round": "1",
            "timestamp": "2018-08-03T02:58:32.463468438Z",
            "type": 2,
            "block_id": {
              "hash": "AF7170EE28D21F6ACD63775A80586AEE657E7F7A",
              "parts": {
                "total": "1",
                "hash": "868D5A22FA475A72439A55DEC3185232E09FE3F1"
              }
            },
            "signature": {
              "type": "tendermint/SignatureEd25519",
              "value": "tHejo2l2LdkZOA60unMNK2Mks4WBOqCX6bzP5hDnrARiH6teVfPAP6QooZRCGSdsra/FprdciNrjgz62diO7AQ=="
            }
          },
          {
            "validator_address": "D6285C3422C8886445D53757CBE12D2B91B5A9D0",
            "validator_index": "74",
            "height": "55000",
            "round": "1",
            "timestamp": "2018-08-03T02:58:16.047406919Z",
            "type": 2,
            "block_id": {
              "hash": "AF7170EE28D21F6ACD63775A80586AEE657E7F7A",
              "parts": {
                "total": "1",
                "hash": "868D5A22FA475A72439A55DEC3185232E09FE3F1"
              }
            },
            "signature": {
              "type": "tendermint/SignatureEd25519",
              "value": "SJdJQ1c0GRAzrIMB8FEMpEg9wSMiaF57Ayajr7xLxK0J8IasUWN6yPuBsSR58t1zdvdHI1iJX10lwmGNs4ZhAA=="
            }
          },
          {
            "validator_address": "D77FB84A729972CD3E757C9BEB61561855832B92",
            "validator_index": "75",
            "height": "55000",
            "round": "1",
            "timestamp": "2018-08-03T02:58:32.417391015Z",
            "type": 2,
            "block_id": {
              "hash": "AF7170EE28D21F6ACD63775A80586AEE657E7F7A",
              "parts": {
                "total": "1",
                "hash": "868D5A22FA475A72439A55DEC3185232E09FE3F1"
              }
            },
            "signature": {
              "type": "tendermint/SignatureEd25519",
              "value": "swSTzdhllY60Q/EzapaS0/65VXovtNlLTwJQ5zKrMHpb3v1STGtxLk9l8zlyvIvQsqQ7Q+7YIyt0JZAskHmlCA=="
            }
          },
          {
            "validator_address": "DB7E6732471D3EA5C90C17A9974D9F88AB45F2FB",
            "validator_index": "76",
            "height": "55000",
            "round": "1",
            "timestamp": "2018-08-03T02:58:32.342913529Z",
            "type": 2,
            "block_id": {
              "hash": "AF7170EE28D21F6ACD63775A80586AEE657E7F7A",
              "parts": {
                "total": "1",
                "hash": "868D5A22FA475A72439A55DEC3185232E09FE3F1"
              }
            },
            "signature": {
              "type": "tendermint/SignatureEd25519",
              "value": "/S8RTh9tbIbO4CW4nhC+Z3/ZsidRT35CnYXH1RfKQWc5H6Ftt73SlI5gvzz07lyI3GbaJqcU2rO00S3CTMugCA=="
            }
          },
          {
            "validator_address": "DF54B862410BCD9B5C516FBB6C56BDC826ED6FA7",
            "validator_index": "77",
            "height": "55000",
            "round": "1",
            "timestamp": "2018-08-03T02:58:32.485353047Z",
            "type": 2,
            "block_id": {
              "hash": "AF7170EE28D21F6ACD63775A80586AEE657E7F7A",
              "parts": {
                "total": "1",
                "hash": "868D5A22FA475A72439A55DEC3185232E09FE3F1"
              }
            },
            "signature": {
              "type": "tendermint/SignatureEd25519",
              "value": "qRVGS0Q9krYkiQHwzz7ooaCSDPYXLQv/SpyZuYUnRmg6aqLrshr8H91LOcFgN3OXRNt69mNrkiA3jyAzw8BAAQ=="
            }
          },
          {
            "validator_address": "DFAF0C8B1B78D6D552B0189DE3ACA351439A1319",
            "validator_index": "78",
            "height": "55000",
            "round": "1",
            "timestamp": "2018-08-03T02:58:32.361723643Z",
            "type": 2,
            "block_id": {
              "hash": "AF7170EE28D21F6ACD63775A80586AEE657E7F7A",
              "parts": {
                "total": "1",
                "hash": "868D5A22FA475A72439A55DEC3185232E09FE3F1"
              }
            },
            "signature": {
              "type": "tendermint/SignatureEd25519",
              "value": "sPjSL0slmjKp1YEma7SxLY1bTrS4eqlHbsVcPJ3IOd0Q8Ni8XG2fLD5xX5oBUWCt1+n0opctfOLm2QWHaBx7Cw=="
            }
          },
          {
            "validator_address": "E1DBC77881161A5A3A8536A57536EAE546A75D69",
            "validator_index": "79",
            "height": "55000",
            "round": "1",
            "timestamp": "2018-08-03T02:58:32.353746729Z",
            "type": 2,
            "block_id": {
              "hash": "AF7170EE28D21F6ACD63775A80586AEE657E7F7A",
              "parts": {
                "total": "1",
                "hash": "868D5A22FA475A72439A55DEC3185232E09FE3F1"
              }
            },
            "signature": {
              "type": "tendermint/SignatureEd25519",
              "value": "6PpfLkuAccpAEY0O9PKos1sPnIdGHUR2WhdELwMCn61tfyOw4AsW6XtKdNnyfM2Yc67cg1rBoN6I1MY6r/i2Dg=="
            }
          },
          {
            "validator_address": "E300E9D484374C1D3E97C1D93CAC3B160A056298",
            "validator_index": "80",
            "height": "55000",
            "round": "1",
            "timestamp": "2018-08-03T02:58:32.685339727Z",
            "type": 2,
            "block_id": {
              "hash": "AF7170EE28D21F6ACD63775A80586AEE657E7F7A",
              "parts": {
                "total": "1",
                "hash": "868D5A22FA475A72439A55DEC3185232E09FE3F1"
              }
            },
            "signature": {
              "type": "tendermint/SignatureEd25519",
              "value": "F70Z2q+auOQi2fp5xzG5Ukj9NvWi9ysrZJBSVOOaWKQL7InmE106SG7g1kZVRSYQAp3ERxK3vwliBh1zP8xxAg=="
            }
          },
          {
            "validator_address": "E39B5778E0D4297A46F45CF6940B0A163A430FF8",
            "validator_index": "81",
            "height": "55000",
            "round": "1",
            "timestamp": "2018-08-03T02:58:32.388754398Z",
            "type": 2,
            "block_id": {
              "hash": "AF7170EE28D21F6ACD63775A80586AEE657E7F7A",
              "parts": {
                "total": "1",
                "hash": "868D5A22FA475A72439A55DEC3185232E09FE3F1"
              }
            },
            "signature": {
              "type": "tendermint/SignatureEd25519",
              "value": "354MEfFULxgWhcxfM2d+Xjpr/soEOF9WjpfNWINCD/1OsS36pUDtispbjKULz5KLMPQ/u5NJWieBHOeesKdMCA=="
            }
          },
          {
            "validator_address": "E3B19738F7132F950668504D326C7660F159D170",
            "validator_index": "82",
            "height": "55000",
            "round": "1",
            "timestamp": "2018-08-03T02:58:32.374659603Z",
            "type": 2,
            "block_id": {
              "hash": "AF7170EE28D21F6ACD63775A80586AEE657E7F7A",
              "parts": {
                "total": "1",
                "hash": "868D5A22FA475A72439A55DEC3185232E09FE3F1"
              }
            },
            "signature": {
              "type": "tendermint/SignatureEd25519",
              "value": "RUVXtf4Q8dIwGtERjRlyhyebd1aF5UT4vj71P8hUb9OxOcrgPesMpvHYE2uacLrtlQo6+jaD8rnHmhjjfIPTBw=="
            }
          },
          {
            "validator_address": "E42F8AEABB685219F7027F54D2B0DBC7846F633A",
            "validator_index": "83",
            "height": "55000",
            "round": "1",
            "timestamp": "2018-08-03T02:58:31.503249632Z",
            "type": 2,
            "block_id": {
              "hash": "AF7170EE28D21F6ACD63775A80586AEE657E7F7A",
              "parts": {
                "total": "1",
                "hash": "868D5A22FA475A72439A55DEC3185232E09FE3F1"
              }
            },
            "signature": {
              "type": "tendermint/SignatureEd25519",
              "value": "w9JOHngS2HRomYfZHH1tlSoF0FCbJAMKhyO9/1Oqvhm9b4/czDW0NW/IakqCYteV8c0pn3VkSeUSo9UTbWhaDQ=="
            }
          },
          {
            "validator_address": "E4E6C2E81269DFFA196C17F98240E491479A6008",
            "validator_index": "84",
            "height": "55000",
            "round": "1",
            "timestamp": "2018-08-03T02:58:32.523725684Z",
            "type": 2,
            "block_id": {
              "hash": "AF7170EE28D21F6ACD63775A80586AEE657E7F7A",
              "parts": {
                "total": "1",
                "hash": "868D5A22FA475A72439A55DEC3185232E09FE3F1"
              }
            },
            "signature": {
              "type": "tendermint/SignatureEd25519",
              "value": "89CC0MDLhppo5fuIZMmw+y+ZgZCh0hZTnsKJibwyeZ7c54ArDbksjBSxOtKAjnZOfWqWntTCe22OtP1TGgoeAA=="
            }
          },
          {
            "validator_address": "E50ADECD5FD27FA2CD610C07F8AED36A2FC4A6A6",
            "validator_index": "85",
            "height": "55000",
            "round": "1",
            "timestamp": "2018-08-03T02:58:32.332506143Z",
            "type": 2,
            "block_id": {
              "hash": "AF7170EE28D21F6ACD63775A80586AEE657E7F7A",
              "parts": {
                "total": "1",
                "hash": "868D5A22FA475A72439A55DEC3185232E09FE3F1"
              }
            },
            "signature": {
              "type": "tendermint/SignatureEd25519",
              "value": "4jea0wfTL6HdFZyR/NPjRYV7dcrBKdQMPjWWubW1rDL+vhtkzl9XsUqK1vuZ88/bYMT3RVhumHgQCsG3bSzvAA=="
            }
          },
          {
            "validator_address": "E6A7079D584B163750BE0831227F6B685DEAF3C1",
            "validator_index": "86",
            "height": "55000",
            "round": "1",
            "timestamp": "2018-08-03T02:58:32.463135016Z",
            "type": 2,
            "block_id": {
              "hash": "AF7170EE28D21F6ACD63775A80586AEE657E7F7A",
              "parts": {
                "total": "1",
                "hash": "868D5A22FA475A72439A55DEC3185232E09FE3F1"
              }
            },
            "signature": {
              "type": "tendermint/SignatureEd25519",
              "value": "u7WTFA5Opb+cqSjRQYjtPPW8hovZtvf45VHyZcAgefNwgLvWRIQ8bS96Fd4ygoq8F5qivQxtgsC5vzpl7qQtDw=="
            }
          },
          {
            "validator_address": "E7A30077D5D11867D3EAF99ED45BFDC1EB834509",
            "validator_index": "87",
            "height": "55000",
            "round": "1",
            "timestamp": "2018-08-03T02:58:32.3800184Z",
            "type": 2,
            "block_id": {
              "hash": "AF7170EE28D21F6ACD63775A80586AEE657E7F7A",
              "parts": {
                "total": "1",
                "hash": "868D5A22FA475A72439A55DEC3185232E09FE3F1"
              }
            },
            "signature": {
              "type": "tendermint/SignatureEd25519",
              "value": "g1ppjwDRHGI5Sfak5QfWQlB/gCvi50+gLGuBptZwjMDfR7om3/MgtlAeZCRPYhktdKlIF7p0G/Dl7rrCeMu5BA=="
            }
          },
          {
            "validator_address": "EBC613967F66F4EC306852CDF58B4F151CF16738",
            "validator_index": "88",
            "height": "55000",
            "round": "1",
            "timestamp": "2018-08-03T02:58:32.37981482Z",
            "type": 2,
            "block_id": {
              "hash": "AF7170EE28D21F6ACD63775A80586AEE657E7F7A",
              "parts": {
                "total": "1",
                "hash": "868D5A22FA475A72439A55DEC3185232E09FE3F1"
              }
            },
            "signature": {
              "type": "tendermint/SignatureEd25519",
              "value": "9UnbOHSC9/AclrxM9TERLZ+L3f3HPkpCYd+Mu39vXpG4g1yL6LdddXnBrMC6FATpREmXqkaSVe/TkF7bBHQcDg=="
            }
          },
          {
            "validator_address": "EC3401441726C40ECC7E51F744483B05BC6DE9BD",
            "validator_index": "89",
            "height": "55000",
            "round": "1",
            "timestamp": "2018-08-03T02:58:32.398116871Z",
            "type": 2,
            "block_id": {
              "hash": "AF7170EE28D21F6ACD63775A80586AEE657E7F7A",
              "parts": {
                "total": "1",
                "hash": "868D5A22FA475A72439A55DEC3185232E09FE3F1"
              }
            },
            "signature": {
              "type": "tendermint/SignatureEd25519",
              "value": "PGUnKy+f5tsGSilW1OhU8QUKZIByCf3ipSky21XAijB0JSz93cQPB2KawtvmkWmb9CENB2izdDRL9hFaup71Cw=="
            }
          },
          {
            "validator_address": "EC95B111D032181E1EC3B5E8875C5BB8E4AE7140",
            "validator_index": "90",
            "height": "55000",
            "round": "1",
            "timestamp": "2018-08-03T02:58:32.326928516Z",
            "type": 2,
            "block_id": {
              "hash": "AF7170EE28D21F6ACD63775A80586AEE657E7F7A",
              "parts": {
                "total": "1",
                "hash": "868D5A22FA475A72439A55DEC3185232E09FE3F1"
              }
            },
            "signature": {
              "type": "tendermint/SignatureEd25519",
              "value": "tg82YUI9d3v4qa1yeXTXbE0AB6rsXyMlqQl6m/A3mpRkLpTKlbSUu+A6mU5WxgBrsqE1sKesixi5kt1C0Cj9Cw=="
            }
          },
          {
            "validator_address": "F13C1805E8131C9B47E2A46818F57D8A2841E578",
            "validator_index": "91",
            "height": "55000",
            "round": "1",
            "timestamp": "2018-08-03T02:58:32.508852292Z",
            "type": 2,
            "block_id": {
              "hash": "AF7170EE28D21F6ACD63775A80586AEE657E7F7A",
              "parts": {
                "total": "1",
                "hash": "868D5A22FA475A72439A55DEC3185232E09FE3F1"
              }
            },
            "signature": {
              "type": "tendermint/SignatureEd25519",
              "value": "ft/pKEdKoNybVNdrwOen11nFlQBs93z2bQEkhlEVf72KeFj1LzM7yaypGGXM+fJcawDZ+66XbWmi9NsCbh5pAg=="
            }
          },
          {
            "validator_address": "F23FF36BD5B90C33CE3A03ED72DBDCF5EC07D6AF",
            "validator_index": "92",
            "height": "55000",
            "round": "1",
            "timestamp": "2018-08-03T02:58:32.508613889Z",
            "type": 2,
            "block_id": {
              "hash": "AF7170EE28D21F6ACD63775A80586AEE657E7F7A",
              "parts": {
                "total": "1",
                "hash": "868D5A22FA475A72439A55DEC3185232E09FE3F1"
              }
            },
            "signature": {
              "type": "tendermint/SignatureEd25519",
              "value": "a/Omll7t/thCcoCvrUXLyVzOIHkVkkZhO7mHeUAItqegv5y/LMxUwuQbx8SO4vkKyqKh40KXVn5AeyJEQ3HCCA=="
            }
          },
          {
            "validator_address": "F4268597DE93E3E2CED38845010F8AA34E2A879E",
            "validator_index": "93",
            "height": "55000",
            "round": "1",
            "timestamp": "2018-08-03T02:58:32.433725882Z",
            "type": 2,
            "block_id": {
              "hash": "AF7170EE28D21F6ACD63775A80586AEE657E7F7A",
              "parts": {
                "total": "1",
                "hash": "868D5A22FA475A72439A55DEC3185232E09FE3F1"
              }
            },
            "signature": {
              "type": "tendermint/SignatureEd25519",
              "value": "WtV6gofImDb1cRUE1vYdxKSA8Y6SSfQ0s02XfqBGRRi5Y6Hl5k12+b/rm8zJbm7xQ4VKOPcZGc+ctNlKnloCAw=="
            }
          },
          {
            "validator_address": "F4DEB417999B04BE2EFF9FFE03FA373D86011CC0",
            "validator_index": "94",
            "height": "55000",
            "round": "1",
            "timestamp": "2018-08-03T02:58:32.462789824Z",
            "type": 2,
            "block_id": {
              "hash": "AF7170EE28D21F6ACD63775A80586AEE657E7F7A",
              "parts": {
                "total": "1",
                "hash": "868D5A22FA475A72439A55DEC3185232E09FE3F1"
              }
            },
            "signature": {
              "type": "tendermint/SignatureEd25519",
              "value": "vR7V+aQtzGr5bqxUuSwOCesiarQicDjDVg1vwuSNwQ7+hXjSbaiGbWqnuH8gMiSuLgWjdzpiDhUGZF6IGbp0Cg=="
            }
          },
          {
            "validator_address": "F6738260186D33D9C14FC6E7017AFE6BB952A63D",
            "validator_index": "95",
            "height": "55000",
            "round": "1",
            "timestamp": "2018-08-03T02:58:32.359760891Z",
            "type": 2,
            "block_id": {
              "hash": "AF7170EE28D21F6ACD63775A80586AEE657E7F7A",
              "parts": {
                "total": "1",
                "hash": "868D5A22FA475A72439A55DEC3185232E09FE3F1"
              }
            },
            "signature": {
              "type": "tendermint/SignatureEd25519",
              "value": "54WpKv7wZcXjVsXSEZaoCn1SQ3SsZduLkFAsJqlCiyUh/5AmhJRdvpHyZQWzQ/z63Zr+WrER8t+xyuFNVIHICA=="
            }
          },
          {
            "validator_address": "FD8D304F0278229077114B05BED9DABD382D49D8",
            "validator_index": "96",
            "height": "55000",
            "round": "1",
            "timestamp": "2018-08-03T02:58:32.485281358Z",
            "type": 2,
            "block_id": {
              "hash": "AF7170EE28D21F6ACD63775A80586AEE657E7F7A",
              "parts": {
                "total": "1",
                "hash": "868D5A22FA475A72439A55DEC3185232E09FE3F1"
              }
            },
            "signature": {
              "type": "tendermint/SignatureEd25519",
              "value": "TCGVtAk9VXJbTQqVo9W0eXoNo+5YcuU0TFJQsFXhjkI/tL2yNlscJSfLNSpBhHWKsVirr9faLhBDs5YWj9uXCg=="
            }
          },
          {
            "validator_address": "FF3F3FCBCE7E62D7AD5506FF846EC4518D980515",
            "validator_index": "97",
            "height": "55000",
            "round": "1",
            "timestamp": "2018-08-03T02:58:32.324772015Z",
            "type": 2,
            "block_id": {
              "hash": "AF7170EE28D21F6ACD63775A80586AEE657E7F7A",
              "parts": {
                "total": "1",
                "hash": "868D5A22FA475A72439A55DEC3185232E09FE3F1"
              }
            },
            "signature": {
              "type": "tendermint/SignatureEd25519",
              "value": "CmLgolJYclkg7dcfYw97/kCfSG/AKuZ7KBv3iwu517vzr+MmB0eGHcJgcvG35jByC408ImAwSd9w6JCtmiHZDw=="
            }
          }
        ]
      }
    },
    "canonical": true
  }
}