{
  "jsonrpc": "2.0",
  "id": "",
  "result": {
    "SignedHeader": {
      "header": {
        "chain_id": "gaia-7004",
        "height": "55079",
        "time": "2018-08-03T03:06:35.156653651Z",
        "num_txs": "0",
        "last_block_id": {
          "hash": "C67FDD95286A62D2DB557F49CA92A5541974C8B0",
          "parts": {
            "total": "1",
            "hash": "09D2E0DF4A61A8B70BFB104604EC06F6CFFEE93D"
          }
        },
        "total_txs": "2366",
        "last_commit_hash": "21E93BC744D1859253B37C9377B1C18352260CF9",
        "data_hash": "",
        "validators_hash": "B0C43EE35956E4F121C0882F7D1B135E89C04B09",
        "consensus_hash": "D6B74BB35BDFFD8392340F2A379173548AE188FE",
        "app_hash": "28E410030CD3A692F55E44A5D2259F22B25B36F8",
        "last_results_hash": "",
        "evidence_hash": ""
      },
      "commit": {
        "block_id": {
          "hash": "14662F740D6E5516837397493CB7963FF7DF0FB0",
          "parts": {
            "total": "1",
            "hash": "472A9B4042005AE0B0B55CAC3D79D618526A1A0C"
          }
        },
        "precommits": [
          {
            "validator_address": "029359C0C768096273A68ABC902A6B17AC8D1D70",
            "validator_index": "0",
            "height": "55079",
            "round": "0",
            "timestamp": "2018-08-03T03:06:36.005671285Z",
            "type": 2,
            "block_id": {
              "hash": "14662F740D6E5516837397493CB7963FF7DF0FB0",
              "parts": {
                "total": "1",
                "hash": "472A9B4042005AE0B0B55CAC3D79D618526A1A0C"
              }
            },
            "signature": {
              "type": "tendermint/SignatureEd25519",
              "value": "mQlkVeXMD6ljkKCPnS873ulf0tb80OHZrmgeZJhl8XFCukWs/t2JFuXMZGxE/1JhkByO0/Sm0kaKupi7pOBTCQ=="
            }
          },
          {
            "validator_address": "02FE4B97A8387F39D1AC19E0C1702B3CC614812F",
            "validator_index": "1",
            "height": "55079",
            "round": "0",
            "timestamp": "2018-08-03T03:06:35.984221266Z",
            "type": 2,
            "block_id": {
              "hash": "14662F740D6E5516837397493CB7963FF7DF0FB0",
              "parts": {
                "total": "1",
                "hash": "472A9B4042005AE0B0B55CAC3D79D618526A1A0C"
              }
            },
            "signature": {
              "type": "tendermint/SignatureEd25519",
              "value": "XiDFPxvwVun5QwDAFkJW9tsAK05xAtM3/OTaseabBUjJxxf/navgvLlr6RTU1ipg5VOL5gBdjpatnvd5+YGVCw=="
            }
          },
          {
            "validator_address": "0548261C50222FD710EB5EBDF03A0E6567B21D20",
            "validator_index": "2",
            "height": "55079",
            "round": "0",
            "timestamp": "2018-08-03T03:06:36.052159853Z",
            "type": 2,
            "block_id": {
              "hash": "14662F740D6E5516837397493CB7963FF7DF0FB0",
              "parts": {
                "total": "1",
                "hash": "472A9B4042005AE0B0B55CAC3D79D618526A1A0C"
              }
            },
            "signature": {
              "type": "tendermint/SignatureEd25519",
              "value": "p3PxlNmRGlfqnPWF9G5Kf5SrKM22iQVR9vxYPP4aKFQgULxzsoQZXBBfjeFskMo3QJfrLzrkL9ufAUTdoKEWAA=="
            }
          },
          {
            "validator_address": "0665ADBF9B120B7617BF955AA5653A1992C82B11",
            "validator_index": "3",
            "height": "55079",
            "round": "0",
            "timestamp": "2018-08-03T03:06:35.954846047Z",
            "type": 2,
            "block_id": {
              "hash": "14662F740D6E5516837397493CB7963FF7DF0FB0",
              "parts": {
                "total": "1",
                "hash": "472A9B4042005AE0B0B55CAC3D79D618526A1A0C"
              }
            },
            "signature": {
              "type": "tendermint/SignatureEd25519",
              "value": "0ZPblslvbmHp3HCPsaPw8V76H+EPEn8CEF5dyv6dLtgQ9jbfNMJ4YHz94yso/Mf/8OakOqhaJ/b4y6F4SJV/Aw=="
            }
          },
          {
            "validator_address": "09145E611CC27EEB944FC5A956DDF710F943B9EF",
            "validator_index": "4",
            "height": "55079",
            "round": "0",
            "timestamp": "2018-08-03T03:06:36.037733214Z",
            "type": 2,
            "block_id": {
              "hash": "14662F740D6E5516837397493CB7963FF7DF0FB0",
              "parts": {
                "total": "1",
                "hash": "472A9B4042005AE0B0B55CAC3D79D618526A1A0C"
              }
            },
            "signature": {
              "type": "tendermint/SignatureEd25519",
              "value": "JPBEOPMo7/Bb9RUSN/rwZ/f/JLExVsjh+gbG0dCJnGoFZLLx7yokfGqKwVOHTOYEmp6U/sV8khlMRutCLg0VBQ=="
            }
          },
          {
            "validator_address": "0989D0355A104B67AE0AE028C68FB610690E174B",
            "validator_index": "5",
            "height": "55079",
            "round": "0",
            "timestamp": "2018-08-03T03:06:36.043045182Z",
            "type": 2,
            "block_id": {
              "hash": "14662F740D6E5516837397493CB7963FF7DF0FB0",
              "parts": {
                "total": "1",
                "hash": "472A9B4042005AE0B0B55CAC3D79D618526A1A0C"
              }
            },
            "signature": {
              "type": "tendermint/SignatureEd25519",
              "value": "qcUQipVdo7kMMsCulrgBc6V/c4w2p3hdl1COMjYHv7eDJCGLj8VDPtLn2L13v4dtZTZQD/gURLlTho/c66LgBA=="
            }
          },
          {
            "validator_address": "0A692DBFFE9E5DD28E7DECC33CED1AEB4C0D014E",
            "validator_index": "6",
            "height": "55079",
            "round": "0",
            "timestamp": "2018-08-03T03:06:36.153551414Z",
            "type": 2,
            "block_id": {
              "hash": "14662F740D6E5516837397493CB7963FF7DF0FB0",
              "parts": {
                "total": "1",
                "hash": "472A9B4042005AE0B0B55CAC3D79D618526A1A0C"
              }
            },
            "signature": {
              "type": "tendermint/SignatureEd25519",
              "value": "iV7B/DbYtiKKCPxHS818lvTLStsUQhki82VHBQ8efTwohsV7E40IbV40EEVQhqelKMwhvuD6O6TFCu2LRVHxBA=="
            }
          },
          {
            "validator_address": "1751786EFC085D5331C61168FFFC8202EA151B4E",
            "validator_index": "7",
            "height": "55079",
            "round": "0",
            "timestamp": "2018-08-03T03:06:35.625849259Z",
            "type": 2,
            "block_id": {
              "hash": "14662F740D6E5516837397493CB7963FF7DF0FB0",
              "parts": {
                "total": "1",
                "hash": "472A9B4042005AE0B0B55CAC3D79D618526A1A0C"
              }
            },
            "signature": {
              "type": "tendermint/SignatureEd25519",
              "value": "MnK/jlcCehybwBe3pMMSexfeNixTWJHMsTKnp0NMKw/Qt9OqOfMr03VMWKAMU+k+JCtlff5wkDTJ2OKLXWfNCQ=="
            }
          },
          {
            "validator_address": "17BB5CD01E8940FAFB948A04D5FA5A0645E5822E",
            "validator_index": "8",
            "height": "55079",
            "round": "0",
            "timestamp": "2018-08-03T03:06:36.012926557Z",
            "type": 2,
            "block_id": {
              "hash": "14662F740D6E5516837397493CB7963FF7DF0FB0",
              "parts": {
                "total": "1",
                "hash": "472A9B4042005AE0B0B55CAC3D79D618526A1A0C"
              }
            },
            "signature": {
              "type": "tendermint/SignatureEd25519",
              "value": "OzeqzBNG/Ju4O11C8In7vMZ/d8DEfXiGhH905Sn/z4lQ6cY7Vuoii0y4NPjzGAhT6KMY3N8G3c/zS8z4hCfBAA=="
            }
          },
          {
            "validator_address": "1C683A87904BC38F05004FE83301A3A3E35447EB",
            "validator_index": "9",
            "height": "55079",
            "round": "0",
            "timestamp": "2018-08-03T03:06:35.920364654Z",
            "type": 2,
            "block_id": {
              "hash": "14662F740D6E5516837397493CB7963FF7DF0FB0",
              "parts": {
                "total": "1",
                "hash": "472A9B4042005AE0B0B55CAC3D79D618526A1A0C"
              }
            },
            "signature": {
              "type": "tendermint/SignatureEd25519",
              "value": "VNxblP94jFOxU5kvd3pJnFYg9fFZRM/wSbIwidWSYXq6J2HfcfVHQ6+d9LerC9/h7uX4Sp+fJy4Rw17VdWPKAg=="
            }
          },
          {
            "validator_address": "1E9CE94FD0BA5CFEB901F90BC658D64D85B134D2",
            "validator_index": "10",
            "height": "55079",
            "round": "0",
            "timestamp": "2018-08-03T03:06:36.010830824Z",
            "type": 2,
            "block_id": {
              "hash": "14662F740D6E5516837397493CB7963FF7DF0FB0",
              "parts": {
                "total": "1",
                "hash": "472A9B4042005AE0B0B55CAC3D79D618526A1A0C"
              }
            },
            "signature": {
              "type": "tendermint/SignatureEd25519",
              "value": "m1JwAFYRZbniqmBL7LNMQZGCTZ8CHr+bc220MGrIdJvQWuYBLqiO1KODkzp3LWDflStjMKWyMf3F0Irn1wu3Bg=="
            }
          },
          {
            "validator_address": "1ECD8C5FE1341D74CDC633A245DD56858DE2F9A2",
            "validator_index": "11",
            "height": "55079",
            "round": "0",
            "timestamp": "2018-08-03T03:06:36.168161806Z",
            "type": 2,
            "block_id": {
              "hash": "14662F740D6E5516837397493CB7963FF7DF0FB0",
              "parts": {
                "total": "1",
                "hash": "472A9B4042005AE0B0B55CAC3D79D618526A1A0C"
              }
            },
            "signature": {
              "type": "tendermint/SignatureEd25519",
              "value": "ifHAXjL5kJ6izsiO2bQhWupo/8qcHZk29qrz/NjY7XsLHvWfjPc9hD1ESeLLX+BxCs0LhP6Wx8YiPZrax55VBg=="
            }
          },
          {
            "validator_address": "1F3A68CAAD483768AA2BF667DEF10F7104C89928",
            "validator_index": "12",
            "height": "55079",
            "round": "0",
            "timestamp": "2018-08-03T03:06:35.98945391Z",
            "type": 2,
            "block_id": {
              "hash": "14662F740D6E5516837397493CB7963FF7DF0FB0",
              "parts": {
                "total": "1",
                "hash": "472A9B4042005AE0B0B55CAC3D79D618526A1A0C"
              }
            },
            "signature": {
              "type": "tendermint/SignatureEd25519",
              "value": "PRefjqkUHatfHIz8aJ62Jx3TLtaa1BDxd9s7bDWQj1LXzF1WRujvvgK9Ae65bBttyV9ZynGA8SSRn5PjXDyxDg=="
            }
          },
          {
            "validator_address": "1F61153F26C2DF27E15874268D30326287323352",
            "validator_index": "13",
            "height": "55079",
            "round": "0",
            "timestamp": "2018-08-03T03:06:36.08060679Z",
            "type": 2,
            "block_id": {
              "hash": "14662F740D6E5516837397493CB7963FF7DF0FB0",
              "parts": {
                "total": "1",
                "hash": "472A9B4042005AE0B0B55CAC3D79D618526A1A0C"
              }
            },
            "signature": {
              "type": "tendermint/SignatureEd25519",
              "value": "gTI4faRZt7Ik36o/YYUt4zjmclku/fJR4DapFoEKNDviJvoqkgYgPqKqGG9Uu5SUqrboL+7wV5wkwCrYzCl2DA=="
            }
          },
          {
            "validator_address": "23897586D68E2AC1C78E0EF5BB5DF5C8EAB18F50",
            "validator_index": "14",
            "height": "55079",
            "round": "0",
            "timestamp": "2018-08-03T03:06:35.97365137Z",
            "type": 2,
            "block_id": {
              "hash": "14662F740D6E5516837397493CB7963FF7DF0FB0",
              "parts": {
                "total": "1",
                "hash": "472A9B4042005AE0B0B55CAC3D79D618526A1A0C"
              }
            },
            "signature": {
              "type": "tendermint/SignatureEd25519",
              "value": "xIdoVXuP3F5BBqZk5SHDjrILqL276qQ8ECgb9vLrsJD1finB1YMvzVlw0kcc5hnHtFk/QyFakqq9ZI43+mzkAQ=="
            }
          },
          {
            "validator_address": "28770D17E8530825E7310A0659308654B7EC9682",
            "validator_index": "15",
            "height": "55079",
            "round": "0",
            "timestamp": "2018-08-03T03:06:36.006605713Z",
            "type": 2,
            "block_id": {
              "hash": "14662F740D6E5516837397493CB7963FF7DF0FB0",
              "parts": {
                "total": "1",
                "hash": "472A9B4042005AE0B0B55CAC3D79D618526A1A0C"
              }
            },
            "signature": {
              "type": "tendermint/SignatureEd25519",
              "value": "UkYT96i4oZgEP5CsPsYSqaUwXMvBpEWgQhkkXFLqB5ZyB0UTUv7lTZz7vei3+QFMnbRBXJn3wI00NiQntilqCg=="
            }
          },
          {
            "validator_address": "2A92EC3C642140202298D0E245095E0ECFC25228",
            "validator_index": "16",
            "height": "55079",
            "round": "0",
            "timestamp": "2018-08-03T03:06:36.042113396Z",
            "type": 2,
            "block_id": {
              "hash": "14662F740D6E5516837397493CB7963FF7DF0FB0",
              "parts": {
                "total": "1",
                "hash": "472A9B4042005AE0B0B55CAC3D79D618526A1A0C"
              }
            },
            "signature": {
              "type": "tendermint/SignatureEd25519",
              "value": "1gOU6WjKWqGzDKP+1oSvE7lBjQCBuEWOtXL4bWI+GbZjg59B3nENZADMRl2yoFJ7VR31MOiKsFnaptoJ++PeDw=="
            }
          },
          {
            "validator_address": "33412C9A69C60CB0FAA24A5C5B3A906DE24B47C2",
            "validator_index": "17",
            "height": "55079",
            "round": "0",
            "timestamp": "2018-08-03T03:06:35.980711333Z",
            "type": 2,
            "block_id": {
              "hash": "14662F740D6E5516837397493CB7963FF7DF0FB0",
              "parts": {
                "total": "1",
                "hash": "472A9B4042005AE0B0B55CAC3D79D618526A1A0C"
              }
            },
            "signature": {
              "type": "tendermint/SignatureEd25519",
              "value": "JM76hfBTNaKPSw+QEBIJE3n9gBffvDhPxp2yMSE0wt4DRVnBYk/RLXkETLDpaLmfpYt6cK+fbx+S180NisHNBg=="
            }
          },
          {
            "validator_address": "36E9B7FAEC964F97D84C028ED62493E373AD0B38",
            "validator_index": "18",
            "height": "55079",
            "round": "0",
            "timestamp": "2018-08-03T03:06:36.096458225Z",
            "type": 2,
            "block_id": {
              "hash": "14662F740D6E5516837397493CB7963FF7DF0FB0",
              "parts": {
                "total": "1",
                "hash": "472A9B4042005AE0B0B55CAC3D79D618526A1A0C"
              }
            },
            "signature": {
              "type": "tendermint/SignatureEd25519",
              "value": "liG7REAGaQP6bsgkozTblZhQzV/WXT16DKr5vC50K36DbLcPkir+8n0vAklm1cexRKgCTh7ICIEzg8wraHSLAA=="
            }
          },
          {
            "validator_address": "38A8D85D36BEA2E5FCF8A1E778F53628E450EF13",
            "validator_index": "19",
            "height": "55079",
            "round": "0",
            "timestamp": "2018-08-03T03:06:36.102823926Z",
            "type": 2,
            "block_id": {
              "hash": "14662F740D6E5516837397493CB7963FF7DF0FB0",
              "parts": {
                "total": "1",
                "hash": "472A9B4042005AE0B0B55CAC3D79D618526A1A0C"
              }
            },
            "signature": {
              "type": "tendermint/SignatureEd25519",
              "value": "MUbkM0/Asji7S4nZQax3xalM+t9zRGdxKjq2HYXRzALS6dgkeVNHHekZl6gGg+3gOwbts+WKk9mjGVEsMkMgCA=="
            }
          },
          {
            "validator_address": "39DFDA0C5DB84B269642188B23253508537798E6",
            "validator_index": "20",
            "height": "55079",
            "round": "0",
            "timestamp": "2018-08-03T03:06:35.967487952Z",
            "type": 2,
            "block_id": {
              "hash": "14662F740D6E5516837397493CB7963FF7DF0FB0",
              "parts": {
                "total": "1",
                "hash": "472A9B4042005AE0B0B55CAC3D79D618526A1A0C"
              }
            },
            "signature": {
              "type": "tendermint/SignatureEd25519",
              "value": "3Wst/zNrTztwtl/psXeGpWq+h3YEyN6Sz02k5MxnQ3Z54CyrwWp4+d1ko8KdoHF4F1dYVYeXTuHepzZGOhbKBQ=="
            }
          },
          {
            "validator_address": "3AC99B708404452366E0953A4BE849226DC86CBC",
            "validator_index": "21",
            "height": "55079",
            "round": "0",
            "timestamp": "2018-08-03T03:06:36.022008864Z",
            "type": 2,
            "block_id": {
              "hash": "14662F740D6E5516837397493CB7963FF7DF0FB0",
              "parts": {
                "total": "1",
                "hash": "472A9B4042005AE0B0B55CAC3D79D618526A1A0C"
              }
            },
            "signature": {
              "type": "tendermint/SignatureEd25519",
              "value": "JH4WtMavNsuPgGU+9sNuzhuqZZaBJcfMYT4HBrxDXvXAOCmmW/vQChqUvHkHV9GlEOFjwAuJzaS11lsfoLo7DA=="
            }
          },
          {
            "validator_address": "3DCB822A10ED319EC7C4393D8E3FD4A41B15AAF2",
            "validator_index": "22",
            "height": "55079",
            "round": "0",
            "timestamp": "2018-08-03T03:06:36.009620208Z",
            "type": 2,
            "block_id": {
              "hash": "14662F740D6E5516837397493CB7963FF7DF0FB0",
              "parts": {
                "total": "1",
                "hash": "472A9B4042005AE0B0B55CAC3D79D618526A1A0C"
              }
            },
            "signature": {
              "type": "tendermint/SignatureEd25519",
              "value": "uGSnqjlT9ue43JCWDjb4lZ0dIzgJOUhI6yHH91EkqwmxTy11mXhEA5c8ugA/z2q5u6kFnltH13ZPy39UmlI9Dg=="
            }
          },
          {
            "validator_address": "3E899BA36A93C7370347BD5FE85909F2ECD93F8C",
            "validator_index": "23",
            "height": "55079",
            "round": "0",
            "timestamp": "2018-08-03T03:06:36.04069543Z",
            "type": 2,
            "block_id": {
              "hash": "14662F740D6E5516837397493CB7963FF7DF0FB0",
              "parts": {
                "total": "1",
                "hash": "472A9B4042005AE0B0B55CAC3D79D618526A1A0C"
              }
            },
            "signature": {
              "type": "tendermint/SignatureEd25519",
              "value": "A7GP1r4RAy2pFHNnnxccrbtxhziYrEzTkoNdmeKxgoPWNI7UnOxziPdSvy25zNMTZ/UooRy+kLTnycJNBoxsAQ=="
            }
          },
          {
            "validator_address": "41CAB2E29E7D0F2282E3275938F188FF9386B84C",
            "validator_index": "24",
            "height": "55079",
            "round": "0",
            "timestamp": "2018-08-03T03:06:36.026361183Z",
            "type": 2,
            "block_id": {
              "hash": "14662F740D6E5516837397493CB7963FF7DF0FB0",
              "parts": {
                "total": "1",
                "hash": "472A9B4042005AE0B0B55CAC3D79D618526A1A0C"
              }
            },
            "signature": {
              "type": "tendermint/SignatureEd25519",
              "value": "k6rryomvxWB5ki8uTr9Y5t/Iwb7vkDjEMdxEmiWn2c/SnG7Gli12qv7Eqf4KUtPV9WTjcFthrZHcWRL+8JFKCQ=="
            }
          },
          {
            "validator_address": "462B656869DB02A8FD1077E255F8CC7401DC37C6",
            "validator_index": "25",
            "height": "55079",
            "round": "0",
            "timestamp": "2018-08-03T03:06:35.979703022Z",
            "type": 2,
            "block_id": {
              "hash": "14662F740D6E5516837397493CB7963FF7DF0FB0",
              "parts": {
                "total": "1",
                "hash": "472A9B4042005AE0B0B55CAC3D79D618526A1A0C"
              }
            },
            "signature": {
              "type": "tendermint/SignatureEd25519",
              "value": "0J0qeA1hYXwNL6UFJBq3H23DKfKmzFzE8achPPFXJjc4s7shpbBsR3ruFOrJrYhTssRIB6JJU4ln8mz9GV2MCA=="
            }
          },
          {
            "validator_address": "48E5118163E5442068A1B5A42D2EEDBB75724935",
            "validator_index": "26",
            "height": "55079",
            "round": "0",
            "timestamp": "2018-08-03T03:06:36.13432041Z",
            "type": 2,
            "block_id": {
              "hash": "14662F740D6E5516837397493CB7963FF7DF0FB0",
              "parts": {
                "total": "1",
                "hash": "472A9B4042005AE0B0B55CAC3D79D618526A1A0C"
              }
            },
            "signature": {
              "type": "tendermint/SignatureEd25519",
              "value": "6NWxxt7tvD058Pi3YXz5C+fgTi9OkGd7Ng9YuS3pTGm+9GR9I5KGzm8mJJwn5SCNgTDxt/Ka3hKcEyOZg5U6AQ=="
            }
          },
          {
            "validator_address": "49103C58AFD9C7C069F55EBA218F3DFD9AEA74F9",
            "validator_index": "27",
            "height": "55079",
            "round": "0",
            "timestamp": "2018-08-03T03:06:36.041680901Z",
            "type": 2,
            "block_id": {
              "hash": "14662F740D6E5516837397493CB7963FF7DF0FB0",
              "parts": {
                "total": "1",
                "hash": "472A9B4042005AE0B0B55CAC3D79D618526A1A0C"
              }
            },
            "signature": {
              "type": "tendermint/SignatureEd25519",
              "value": "HF84cnvtDshqPDtQ2T4zZEaki7Z+KMbEvpH+VLGTZSjyPq59zCThgkhehGQ0de2UakCgAh5DvUFGlRvK0ylBCg=="
            }
          },
          {
            "validator_address": "4944F8BBBB5303E17BC0607DF332320EDBC750EA",
            "validator_index": "28",
            "height": "55079",
            "round": "0",
            "timestamp": "2018-08-03T03:06:35.99509615Z",
            "type": 2,
            "block_id": {
              "hash": "14662F740D6E5516837397493CB7963FF7DF0FB0",
              "parts": {
                "total": "1",
                "hash": "472A9B4042005AE0B0B55CAC3D79D618526A1A0C"
              }
            },
            "signature": {
              "type": "tendermint/SignatureEd25519",
              "value": "CdeHfMLapOa7Sj1Rb6x1zCYTANtuiahqKqJOn0y4QSchRtF6sQdLtIJUz5vkHoO73dIQldvuED11ezNldgVoAw=="
            }
          },
          {
            "validator_address": "49841599DE675157CBE1E7D6B35BF8FFC23BD5CB",
            "validator_index": "29",
            "height": "55079",
            "round": "0",
            "timestamp": "2018-08-03T03:06:35.944802205Z",
            "type": 2,
            "block_id": {
              "hash": "14662F740D6E5516837397493CB7963FF7DF0FB0",
              "parts": {
                "total": "1",
                "hash": "472A9B4042005AE0B0B55CAC3D79D618526A1A0C"
              }
            },
            "signature": {
              "type": "tendermint/SignatureEd25519",
              "value": "p4Y2MBaPkKlNF+dRe0rzNAA8WcORi/NaFz2I+EO49vWV7rZibY5GhenOG10f2Cyr07BqnMbwLvHE5SnQX76pDg=="
            }
          },
          {
            "validator_address": "51386C2CF9556821D114D7E4945806802BADB28D",
            "validator_index": "30",
            "height": "55079",
            "round": "0",
            "timestamp": "2018-08-03T03:06:36.042602478Z",
            "type": 2,
            "block_id": {
              "hash": "14662F740D6E5516837397493CB7963FF7DF0FB0",
              "parts": {
                "total": "1",
                "hash": "472A9B4042005AE0B0B55CAC3D79D618526A1A0C"
              }
            },
            "signature": {
              "type": "tendermint/SignatureEd25519",
              "value": "nSiv0YIcTF3Em/UZdh38Qd/cJentk+PZDWyWAxafEcU54T5YzPlOaRk7mU8eXlwsr+Akpp8w+TlyRe1tTTrDBg=="
            }
          },
          {
            "validator_address": "543564ECA3AFEFADC73EE8591AAC3A96F079BC8A",
            "validator_index": "31",
            "height": "55079",
            "round": "0",
            "timestamp": "2018-08-03T03:06:36.030133444Z",
            "type": 2,
            "block_id": {
              "hash": "14662F740D6E5516837397493CB7963FF7DF0FB0",
              "parts": {
                "total": "1",
                "hash": "472A9B4042005AE0B0B55CAC3D79D618526A1A0C"
              }
            },
            "signature": {
              "type": "tendermint/SignatureEd25519",
              "value": "K/dVd4zdJcJrainfQXX987ZKtdb91hrgxqXRCXV9eHh/QlomGUxAeq3NHIfOmKuLR+nTbiIL5naqQjkBOEWcBQ=="
            }
          },
          {
            "validator_address": "55D67B1A6DC13E96F8754A5A42EABC20F7F86664",
            "validator_index": "32",
            "height": "55079",
            "round": "0",
            "timestamp": "2018-08-03T03:06:35.978953711Z",
            "type": 2,
            "block_id": {
              "hash": "14662F740D6E5516837397493CB7963FF7DF0FB0",
              "parts": {
                "total": "1",
                "hash": "472A9B4042005AE0B0B55CAC3D79D618526A1A0C"
              }
            },
            "signature": {
              "type": "tendermint/SignatureEd25519",
              "value": "ml84jtegHH31wFzv6bnnpSlT5dzixIdMyCKwsjGyfkR181A15P8ughxVQ6s8MXmG0D5U9m7RuvAUJBgYzeBSDA=="
            }
          },
          {
            "validator_address": "570B6A755ED339EAC56BB3390A48069F6AC9449B",
            "validator_index": "33",
            "height": "55079",
            "round": "0",
            "timestamp": "2018-08-03T03:06:47.511689153Z",
            "type": 2,
            "block_id": {
              "hash": "14662F740D6E5516837397493CB7963FF7DF0FB0",
              "parts": {
                "total": "1",
                "hash": "472A9B4042005AE0B0B55CAC3D79D618526A1A0C"
              }
            },
            "signature": {
              "type": "tendermint/SignatureEd25519",
              "value": "8wXFZ4XgBOVRJWKO9C3THeBMIs8mWOvJ9aCp81UHQxi6kWzIH5Ny4kKGtkcNTROSLd1j+9Q+b/W3bni5Vo5iBA=="
            }
          },
          {
            "validator_address": "5BDF8EA41B1835FBAD865B181A2A4B23F511B5E4",
            "validator_index": "34",
            "height": "55079",
            "round": "0",
            "timestamp": "2018-08-03T03:06:35.970949717Z",
            "type": 2,
            "block_id": {
              "hash": "14662F740D6E5516837397493CB7963FF7DF0FB0",
              "parts": {
                "total": "1",
                "hash": "472A9B4042005AE0B0B55CAC3D79D618526A1A0C"
              }
            },
            "signature": {
              "type": "tendermint/SignatureEd25519",
              "value": "7fdECRk65FFegeyXohiM3Dt4NaYC0RP5GdVs9K2wLNOmBemUjtOdvT2aYNx3EoZGjtPKzUCJqZ/X1c1+vE0IBw=="
            }
          },
          {
            "validator_address": "60229E2E273297FE00219E46DFFB8F76844CDEF9",
            "validator_index": "35",
            "height": "55079",
            "round": "0",
            "timestamp": "2018-08-03T03:06:33.047784721Z",
            "type": 2,
            "block_id": {
              "hash": "14662F740D6E5516837397493CB7963FF7DF0FB0",
              "parts": {
                "total": "1",
                "hash": "472A9B4042005AE0B0B55CAC3D79D618526A1A0C"
              }
            },
            "signature": {
              "type": "tendermint/SignatureEd25519",
              "value": "dupuKM4v2v0hx/RZtTqGhrZwZ9rMBMTTxJXeyWiBaKVhvwLDk+qN4YHUSSfQ2M9gJHDys7D4mCzbermBP8lQBA=="
            }
          },
          {
            "validator_address": "62410D6D1CD98278136E4D0738AA0EA273CDFC54",
            "validator_index": "36",
            "height": "55079",
            "round": "0",
            "timestamp": "2018-08-03T03:06:35.980057758Z",
            "type": 2,
            "block_id": {
              "hash": "14662F740D6E5516837397493CB7963FF7DF0FB0",
              "parts": {
                "total": "1",
                "hash": "472A9B4042005AE0B0B55CAC3D79D618526A1A0C"
              }
            },
            "signature": {
              "type": "tendermint/SignatureEd25519",
              "value": "2z5RMvVhiU6qcdSTVUy2Wn4hJ3Dn6PMXLSe6VghiSHPCFFytVD1SBH5+nBjqaXHe6RAoZ7czMA24+3iSf/q4DQ=="
            }
          },
          {
            "validator_address": "632F5C139A5A9DFBFE5111DEE29FCFB6157207DC",
            "validator_index": "37",
            "height": "55079",
            "round": "0",
            "timestamp": "2018-08-03T03:06:36.070059748Z",
            "type": 2,
            "block_id": {
              "hash": "14662F740D6E5516837397493CB7963FF7DF0FB0",
              "parts": {
                "total": "1",
                "hash": "472A9B4042005AE0B0B55CAC3D79D618526A1A0C"
              }
            },
            "signature": {
              "type": "tendermint/SignatureEd25519",
              "value": "feZfcVkQ0XlCwnbH2U9zjxf4Al3GOhM6q6eLJ6Rc5yzUBml3uJOOeloyFzbFoZni/EX2SYiuoIExi7SmZpcBCg=="
            }
          },
          {
            "validator_address": "64F57F8E796A9B7B590C1EFA4123988C86631D39",
            "validator_index": "38",
            "height": "55079",
            "round": "0",
            "timestamp": "2018-08-03T03:06:35.97682548Z",
            "type": 2,
            "block_id": {
              "hash": "14662F740D6E5516837397493CB7963FF7DF0FB0",
              "parts": {
                "total": "1",
                "hash": "472A9B4042005AE0B0B55CAC3D79D618526A1A0C"
              }
            },
            "signature": {
              "type": "tendermint/SignatureEd25519",
              "value": "Fup1cBFXRWNEqdcDWOsQAk8rhpMHg4mqt/Ig/fbGMLBJPogtLHags9PFFVMnZa6ls8kAqD9PxugV2ZDhaLamDA=="
            }
          },
          {
            "validator_address": "69D99B2C66043ACBEAA8447525C356AFC6408E0C",
            "validator_index": "39",
            "height": "55079",
            "round": "0",
            "timestamp": "2018-08-03T03:06:36.081840325Z",
            "type": 2,
            "block_id": {
              "hash": "14662F740D6E5516837397493CB7963FF7DF0FB0",
              "parts": {
                "total": "1",
                "hash": "472A9B4042005AE0B0B55CAC3D79D618526A1A0C"
              }
            },
            "signature": {
              "type": "tendermint/SignatureEd25519",
              "value": "VF2V/8LXgQ/ciW/xZrfo86IIFbGcccS1OrSeU7cgZOIcMCR5b5mSlV2j+wFmWCw/6DhtVWcMZ2HTpvUnmSmoBQ=="
            }
          },
          {
            "validator_address": "69EDADFA4A803E9DBF548C900D4A465E7D154262",
            "validator_index": "40",
            "height": "55079",
            "round": "0",
            "timestamp": "2018-08-03T03:06:36.077305634Z",
            "type": 2,
            "block_id": {
              "hash": "14662F740D6E5516837397493CB7963FF7DF0FB0",
              "parts": {
                "total": "1",
                "hash": "472A9B4042005AE0B0B55CAC3D79D618526A1A0C"
              }
            },
            "signature": {
              "type": "tendermint/SignatureEd25519",
              "value": "4SHkOpE6pjQa8ftF36YRNbWv87ELiOj4p6xBiFVkv5vfA/rgWkbk8c9QC/MjCKAZkW2qMGd4CEMtWSfKW3qfAg=="
            }
          },
          {
            "validator_address": "6D3AD380E398D8592B03AA124BAFED5F125DF863",
            "validator_index": "41",
            "height": "55079",
            "round": "0",
            "timestamp": "2018-08-03T03:05:33.099938792Z",
            "type": 2,
            "block_id": {
              "hash": "14662F740D6E5516837397493CB7963FF7DF0FB0",
              "parts": {
                "total": "1",
                "hash": "472A9B4042005AE0B0B55CAC3D79D618526A1A0C"
              }
            },
            "signature": {
              "type": "tendermint/SignatureEd25519",
              "value": "yfeoBhEQxz+UzJ1VhvZbYMHxwYRqAD2Ke6/6YJr3qjp+OxXsZAylTmBMfzLCs+OHiuuYGigN5nP+/XD6Gug7Ag=="
            }
          },
          {
            "validator_address": "6F6C93B8BF3495063FEC9B5C771158607F4AE9D6",
            "validator_index": "42",
            "height": "55079",
            "round": "0",
            "timestamp": "2018-08-03T03:06:36.114243714Z",
            "type": 2,
            "block_id": {
              "hash": "14662F740D6E5516837397493CB7963FF7DF0FB0",
              "parts": {
                "total": "1",
                "hash": "472A9B4042005AE0B0B55CAC3D79D618526A1A0C"
              }
            },
            "signature": {
              "type": "tendermint/SignatureEd25519",
              "value": "wwE5ZiTMD+bKz5xYIyYswfy2kOF+JJAfxT9jVIOWaqCpxB2QKCtWXFUZTcGXvsD9VIW8gJdJwrGUleWypfOLAA=="
            }
          },
          {
            "validator_address": "732CEEF54C374DDC6ADECBFD707AEFD07FEDC143",
            "validator_index": "43",
            "height": "55079",
            "round": "0",
            "timestamp": "2018-08-03T03:06:36.169433742Z",
            "type": 2,
            "block_id": {
              "hash": "14662F740D6E5516837397493CB7963FF7DF0FB0",
              "parts": {
                "total": "1",
                "hash": "472A9B4042005AE0B0B55CAC3D79D618526A1A0C"
              }
            },
            "signature": {
              "type": "tendermint/SignatureEd25519",
              "value": "2vSAbMr2jVlHeXAXVQbgZEqPCPjMShDq3FwzVFSvlR2DDuMOMelCtsQHVaB5IsBfGOpjacmrSQPdLOnqsE2JBA=="
            }
          },
          {
            "validator_address": "751E43437224E8BB6D1569B3E2B2616B6E7F4397",
            "validator_index": "44",
            "height": "55079",
            "round": "0",
            "timestamp": "2018-08-03T03:06:36.008056498Z",
            "type": 2,
            "block_id": {
              "hash": "14662F740D6E5516837397493CB7963FF7DF0FB0",
              "parts": {
                "total": "1",
                "hash": "472A9B4042005AE0B0B55CAC3D79D618526A1A0C"
              }
            },
            "signature": {
              "type": "tendermint/SignatureEd25519",
              "value": "SKxoaCjV8S5oORcHv3FQTdJbHwqv9iZo+wgqeOeAJLGLzB7UCJuQJanp7pm63bRclS6OG1C6bmLUpxwlj5wMAw=="
            }
          },
          {
            "validator_address": "7EB7593F519F1180C7E872D0494611464EDF03AE",
            "validator_index": "45",
            "height": "55079",
            "round": "0",
            "timestamp": "2018-08-03T03:06:36.093650314Z",
            "type": 2,
            "block_id": {
              "hash": "14662F740D6E5516837397493CB7963FF7DF0FB0",
              "parts": {
                "total": "1",
                "hash": "472A9B4042005AE0B0B55CAC3D79D618526A1A0C"
              }
            },
            "signature": {
              "type": "tendermint/SignatureEd25519",
              "value": "ZUnMJEOLI6LYyXnZSL3FCFTuJKXvZ0N13k/yf7HqHrMJ0f96Fs0SxsZJy6BgxzkHc9U+L1TpYw25/+ZF5LZPDg=="
            }
          },
          {
            "validator_address": "807CF675BA8479FC4FEC1047215DF07970040F1F",
            "validator_index": "46",
            "height": "55079",
            "round": "0",
            "timestamp": "2018-08-03T03:06:36.257475475Z",
            "type": 2,
            "block_id": {
              "hash": "14662F740D6E5516837397493CB7963FF7DF0FB0",
              "parts": {
                "total": "1",
                "hash": "472A9B4042005AE0B0B55CAC3D79D618526A1A0C"
              }
            },
            "signature": {
              "type": "tendermint/SignatureEd25519",
              "value": "2EG44bO4ztnM06NzqcvEy0Vml1ym6gj7eJ2ZOjBs69T2JT/BScNZu2ZqsCSEJZHLWWO5/VT4EbWspGtpdCgtCQ=="
            }
          },
          {
            "validator_address": "8356899C8853BC6640D76F76E59743FFEEA57B81",
            "validator_index": "47",
            "height": "55079",
            "round": "0",
            "timestamp": "2018-08-03T03:06:36.073525978Z",
            "type": 2,
            "block_id": {
              "hash": "14662F740D6E5516837397493CB7963FF7DF0FB0",
              "parts": {
                "total": "1",
                "hash": "472A9B4042005AE0B0B55CAC3D79D618526A1A0C"
              }
            },
            "signature": {
              "type": "tendermint/SignatureEd25519",
              "value": "rWEyiulyDbJlNDFd4VRs3jCMLQpPnn8MVpL9s8CiV+2xtR0vYGFngrVjf+ajxhq9Aicma0LD0WbivN0atwGDAg=="
            }
          },
          {
            "validator_address": "83AB321E012C57746689FED3A6064DF331F81007",
            "validator_index": "48",
            "height": "55079",
            "round": "0",
            "timestamp": "2018-08-03T03:06:36.052129272Z",
            "type": 2,
            "block_id": {
              "hash": "14662F740D6E5516837397493CB7963FF7DF0FB0",
              "parts": {
                "total": "1",
                "hash": "472A9B4042005AE0B0B55CAC3D79D618526A1A0C"
              }
            },
            "signature": {
              "type": "tendermint/SignatureEd25519",
              "value": "KB4sO15g0GMmCYajWUbQIXMpwks0gwkuIiHNAmeKo2GA0Qbc1x6kACIktkHQkRTgwzUTeyeRG9H8jtlylTv8Cw=="
            }
          },
          {
            "validator_address": "83BB1B88D3DBB20AD845FECA07749EBD87D3754D",
            "validator_index": "49",
            "height": "55079",
            "round": "0",
            "timestamp": "2018-08-03T03:06:36.13672293Z",
            "type": 2,
            "block_id": {
              "hash": "14662F740D6E5516837397493CB7963FF7DF0FB0",
              "parts": {
                "total": "1",
                "hash": "472A9B4042005AE0B0B55CAC3D79D618526A1A0C"
              }
            },
            "signature": {
              "type": "tendermint/SignatureEd25519",
              "value": "lpBX+1x1b3A82Ar8JY2Qhc5626hTQc7pWYZgZfjwFTp70iJdwZqNQlUYnx3z5yDenrw3DG91MNB8bHRZokraAw=="
            }
          },
          {
            "validator_address": "86DDBEEF35D35786A68834B34869174AC314BB74",
            "validator_index": "50",
            "height": "55079",
            "round": "0",
            "timestamp": "2018-08-03T03:06:35.996493566Z",
            "type": 2,
            "block_id": {
              "hash": "14662F740D6E5516837397493CB7963FF7DF0FB0",
              "parts": {
                "total": "1",
                "hash": "472A9B4042005AE0B0B55CAC3D79D618526A1A0C"
              }
            },
            "signature": {
              "type": "tendermint/SignatureEd25519",
              "value": "aMH/aYoGMu93qU5z1Lyp8/onimfObIxn3RMVUJ1RpxdMrvrg0hdzUU2hZt6kU/wGkDbQ0PRC8qQpGuPSGjHVCg=="
            }
          },
          {
            "validator_address": "8F06FE1FD042683C426137FBC4BBAA4288924217",
            "validator_index": "51",
            "height": "55079",
            "round": "0",
            "timestamp": "2018-08-03T03:06:36.033085613Z",
            "type": 2,
            "block_id": {
              "hash": "14662F740D6E5516837397493CB7963FF7DF0FB0",
              "parts": {
                "total": "1",
                "hash": "472A9B4042005AE0B0B55CAC3D79D618526A1A0C"
              }
            },
            "signature": {
              "type": "tendermint/SignatureEd25519",
              "value": "uFSx3y+1AXrLbHyp7OZ7vWnYG6TRjwcf5DU7BQ6MI5f6n3M6QsabeNc6VqA7E6ZajzvqbWjFPvVyCXypRak1Dw=="
            }
          },
          {
            "validator_address": "95980831E186F2540F6E9FB6C8E74DE2401405AC",
            "validator_index": "52",
            "height": "55079",
            "round": "0",
            "timestamp": "2018-08-03T03:06:36.086909011Z",
            "type": 2,
            "block_id": {
              "hash": "14662F740D6E5516837397493CB7963FF7DF0FB0",
              "parts": {
                "total": "1",
                "hash": "472A9B4042005AE0B0B55CAC3D79D618526A1A0C"
              }
            },
            "signature": {
              "type": "tendermint/SignatureEd25519",
              "value": "y6NvnMQStthh4+3MSFFnK+4o7P1caSd1qZOGWJJZ6daVfDN3m8hO2Nfl8v5gBdHMo7B42qhgUfhYc8gyGd24Dw=="
            }
          },
          {
            "validator_address": "95FAFBC1E0579C83D290A063020CE87C5334BD9B",
            "validator_index": "53",
            "height": "55079",
            "round": "0",
            "timestamp": "2018-08-03T03:06:36.088236386Z",
            "type": 2,
            "block_id": {
              "hash": "14662F740D6E5516837397493CB7963FF7DF0FB0",
              "parts": {
                "total": "1",
                "hash": "472A9B4042005AE0B0B55CAC3D79D618526A1A0C"
              }
            },
            "signature": {
              "type": "tendermint/SignatureEd25519",
              "value": "Ljv+JCwQLUn6PvesG/hkuph4tKo2qtVH3rKxwkLb4LURAexi0g5jJ6xF14SErf5REt34xUF/r3uQCcGwzd+gBA=="
            }
          },
          {
            "validator_address": "96BDE45EC52606CF5CB59853097871AD60680549",
            "validator_index": "54",
            "height": "55079",
            "round": "0",
            "timestamp": "2018-08-03T03:06:36.002917118Z",
            "type": 2,
            "block_id": {
              "hash": "14662F740D6E5516837397493CB7963FF7DF0FB0",
              "parts": {
                "total": "1",
                "hash": "472A9B4042005AE0B0B55CAC3D79D618526A1A0C"
              }
            },
            "signature": {
              "type": "tendermint/SignatureEd25519",
              "value": "UFfQSyNUyifP0G8UGOBDBsXIf1TmMObHWZDzE5FmevHHvGXI6F2mhEWsCIAKW2c8jVGa3cIhVplRZf6vife9AA=="
            }
          },
          {
            "validator_address": "970CD321881185BF83DB2923C321B0E75FDBB2B8",
            "validator_index": "55",
            "height": "55079",
            "round": "0",
            "timestamp": "2018-08-03T03:06:36.074399923Z",
            "type": 2,
            "block_id": {
              "hash": "14662F740D6E5516837397493CB7963FF7DF0FB0",
              "parts": {
                "total": "1",
                "hash": "472A9B4042005AE0B0B55CAC3D79D618526A1A0C"
              }
            },
            "signature": {
              "type": "tendermint/SignatureEd25519",
              "value": "FJqp8eTLETJywTPXGkWzieetvufE6HjpQE9JbKOKWvDHVdz9FWfoCRc97iXYjRiWi5Vr0oComrBrL7c2Gb/kDQ=="
            }
          },
          {
            "validator_address": "97DBB3D4B3D6C29287244864448F651DD5B07390",
            "validator_index": "56",
            "height": "55079",
            "round": "0",
            "timestamp": "2018-08-03T03:06:36.102978297Z",
            "type": 2,
            "block_id": {
              "hash": "14662F740D6E5516837397493CB7963FF7DF0FB0",
              "parts": {
                "total": "1",
                "hash": "472A9B4042005AE0B0B55CAC3D79D618526A1A0C"
              }
            },
            "signature": {
              "type": "tendermint/SignatureEd25519",
              "value": "a2Z1+pfEPJdsnO60pW9Ul0DWcr7LPdKgtNa1M7gLLZzF4xq0RJmaxwb1mx7aMyGZFl/LfHQLct5KQVzgCMc9BQ=="
            }
          },
          {
            "validator_address": "9C29C9B76D27586E4D9AD2AED0E943162645E55C",
            "validator_index": "57",
            "height": "55079",
            "round": "0",
            "timestamp": "2018-08-03T03:06:35.949056018Z",
            "type": 2,
            "block_id": {
              "hash": "14662F740D6E5516837397493CB7963FF7DF0FB0",
              "parts": {
                "total": "1",
                "hash": "472A9B4042005AE0B0B55CAC3D79D618526A1A0C"
              }
            },
            "signature": {
              "type": "tendermint/SignatureEd25519",
              "value": "Qq38N1osmH15HHd0IUIM0XgWyWpJ2VhmaVblHeBJgnWbxZDOSfr3+zA376Z/w4wDu/JiFh82QLfD0quwgi7SBA=="
            }
          },
          {
            "validator_address": "9D93AD02FE1BD7E76B9E58D7EB461088EAD011E5",
            "validator_index": "58",
            "height": "55079",
            "round": "0",
            "timestamp": "2018-08-03T03:06:35.958369828Z",
            "type": 2,
            "block_id": {
              "hash": "14662F740D6E5516837397493CB7963FF7DF0FB0",
              "parts": {
                "total": "1",
                "hash": "472A9B4042005AE0B0B55CAC3D79D618526A1A0C"
              }
            },
            "signature": {
              "type": "tendermint/SignatureEd25519",
              "value": "KaYxhth+jYDuXcR95j4qNBTky7rBGS92MBqGkrBieZJQ3zjvsLd6zQ1kryhO/RGHUcA9bnqF8wrw2eOY3lAaAA=="
            }
          },
          {
            "validator_address": "A0A6466F4ABEA09C3B55E3709AFDE217A103209F",
            "validator_index": "59",
            "height": "55079",
            "round": "0",
            "timestamp": "2018-08-03T03:06:35.930469375Z",
            "type": 2,
            "block_id": {
              "hash": "14662F740D6E5516837397493CB7963FF7DF0FB0",
              "parts": {
                "total": "1",
                "hash": "472A9B4042005AE0B0B55CAC3D79D618526A1A0C"
              }
            },
            "signature": {
              "type": "tendermint/SignatureEd25519",
              "value": "MlWt7C2/QHH7dYJaOMliVDMbe+uPoVAPcbB2xz3ymUng7SfQwS2mdPs9HUSiuZpMF92G92t6v6Pk77X3PgW6Ag=="
            }
          },
          {
            "validator_address": "A5868971300F155020634D7BB49C7634F7AACCD3",
            "validator_index": "60",
            "height": "55079",
            "round": "0",
            "timestamp": "2018-08-03T03:06:35.959829435Z",
            "type": 2,
            "block_id": {
              "hash": "14662F740D6E5516837397493CB7963FF7DF0FB0",
              "parts": {
                "total": "1",
                "hash": "472A9B4042005AE0B0B55CAC3D79D618526A1A0C"
              }
            },
            "signature": {
              "type": "tendermint/SignatureEd25519",
              "value": "+ERvLEjxm5X8niC5wOIdOzBLWUgz0PkdV0V33T+9DMdFCndCXbntUPRnqPwHv36QgaLkaSvcBqpEvCgCuLy9AA=="
            }
          },
          {
            "validator_address": "A6B3A5B5D982CFD7B5FDFA15CF5A720E7AE25E7F",
            "validator_index": "61",
            "height": "55079",
            "round": "0",
            "timestamp": "2018-08-03T03:06:36.49288717Z",
            "type": 2,
            "block_id": {
              "hash": "14662F740D6E5516837397493CB7963FF7DF0FB0",
              "parts": {
                "total": "1",
                "hash": "472A9B4042005AE0B0B55CAC3D79D618526A1A0C"
              }
            },
            "signature": {
              "type": "tendermint/SignatureEd25519",
              "value": "DrK/RtGK9+487ZxS+QgPMjsy3RlEp02opmyuZVmtNu/vgMhvBI4Eohfyam6yAj7XmMlPBaE0XCTiU0+ZqYWhBQ=="
            }
          },
          {
            "validator_address": "AC96444A9083890B7C7B430DB17BF1D3EA5EED04",
            "validator_index": "62",
            "height": "55079",
            "round": "0",
            "timestamp": "2018-08-03T03:06:35.992387127Z",
            "type": 2,
            "block_id": {
              "hash": "14662F740D6E5516837397493CB7963FF7DF0FB0",
              "parts": {
                "total": "1",
                "hash": "472A9B4042005AE0B0B55CAC3D79D618526A1A0C"
              }
            },
            "signature": {
              "type": "tendermint/SignatureEd25519",
              "value": "4aPlT3TGn0DW2SQzBTy59z7IVqpXQJduWSYd5bRc1XCOkFXyFisSHdweMW/YuWWDfZ1esWYDKofo8q0/i1eUAA=="
            }
          },
          {
            "validator_address": "B197425B3210375F211661DE02EF2AE36580EB0F",
            "validator_index": "63",
            "height": "55079",
            "round": "0",
            "timestamp": "2018-08-03T03:06:36.037405276Z",
            "type": 2,
            "block_id": {
              "hash": "14662F740D6E5516837397493CB7963FF7DF0FB0",
              "parts": {
                "total": "1",
                "hash": "472A9B4042005AE0B0B55CAC3D79D618526A1A0C"
              }
            },
            "signature": {
              "type": "tendermint/SignatureEd25519",
              "value": "VKuW//u8E2KFB+asEIQvhnBWkMm9VxLKAiFtRXwbCcWo1svXlQ2llxgmMiW6OnP4Hv3nXxW5CwTjd6QkbCGhDQ=="
            }
          },
          {
            "validator_address": "B45E54D2D1CB5A4CCD1D49016608C18E7C56B270",
            "validator_index": "64",
            "height": "55079",
            "round": "0",
            "timestamp": "2018-08-03T03:06:36.129044411Z",
            "type": 2,
            "block_id": {
              "hash": "14662F740D6E5516837397493CB7963FF7DF0FB0",
              "parts": {
                "total": "1",
                "hash": "472A9B4042005AE0B0B55CAC3D79D618526A1A0C"
              }
            },
            "signature": {
              "type": "tendermint/SignatureEd25519",
              "value": "o+LmR7A38aVfM/+Go+0LkTxZG94OOspAZQqeJMHYzDd0KPdzjN9PUnkMr0E7BfLspeIcE+lEB3Xpi81DkOElCw=="
            }
          },
          {
            "validator_address": "BB1276BE89834835428664408917649FEEF5D90C",
            "validator_index": "65",
            "height": "55079",
            "round": "0",
            "timestamp": "2018-08-03T03:06:36.125526481Z",
            "type": 2,
            "block_id": {
              "hash": "14662F740D6E5516837397493CB7963FF7DF0FB0",
              "parts": {
                "total": "1",
                "hash": "472A9B4042005AE0B0B55CAC3D79D618526A1A0C"
              }
            },
            "signature": {
              "type": "tendermint/SignatureEd25519",
              "value": "2Tbbi8+bX/5QaWkB8HmrxCvd0FFUtI0lssiR3DokGHmbbQRafP8863tNnXQH+53SayqcerKVCgfL9c2aWNefDg=="
            }
          },
          {
            "validator_address": "BC36FEDD6EF6071118A3E51859DF3831A2EC4782",
            "validator_index": "66",
            "height": "55079",
            "round": "0",
            "timestamp": "2018-08-03T03:06:36.053081396Z",
            "type": 2,
            "block_id": {
              "hash": "14662F740D6E5516837397493CB7963FF7DF0FB0",
              "parts": {
                "total": "1",
                "hash": "472A9B4042005AE0B0B55CAC3D79D618526A1A0C"
              }
            },
            "signature": {
              "type": "tendermint/SignatureEd25519",
              "value": "A4BSuE/HMzzJqHC645FfA+yAAH/UPFIAUAN8IAK9Z6908gX4rPL77s9eDpzZqvkdwhEXn2xzRAlz0s78+WHLCA=="
            }
          },
          {
            "validator_address": "BD9D0DA513BF099DB4BB6E725A4E19832789882F",
            "validator_index": "67",
            "height": "55079",
            "round": "0",
            "timestamp": "2018-08-03T03:06:35.989616021Z",
            "type": 2,
            "block_id": {
              "hash": "14662F740D6E5516837397493CB7963FF7DF0FB0",
              "parts": {
                "total": "1",
                "hash": "472A9B4042005AE0B0B55CAC3D79D618526A1A0C"
              }
            },
            "signature": {
              "type": "tendermint/SignatureEd25519",
              "value": "wU9w9XjSqcWgsKRbLiWIfv6rj9PA6LWAq+PEnTN7rG48Cp6u9/i0v1HrulQuwFd74QX6Y5cP0Pbgj6RlS1hSCw=="
            }
          },
          {
            "validator_address": "C1134A2FF8F7338E7CDB3FE57DDD2A655DEB1E22",
            "validator_index": "68",
            "height": "55079",
            "round": "0",
            "timestamp": "2018-08-03T03:06:36.064566974Z",
            "type": 2,
            "block_id": {
              "hash": "14662F740D6E5516837397493CB7963FF7DF0FB0",
              "parts": {
                "total": "1",
                "hash": "472A9B4042005AE0B0B55CAC3D79D618526A1A0C"
              }
            },
            "signature": {
              "type": "tendermint/SignatureEd25519",
              "value": "rJTa4SJCt5EyqNlSkjMQILNWNyTzPSE+rRN7s5ZkEJE5n603Piv8e1E37gi6neHzW8ImYLuljcJZFehYLDsrDg=="
            }
          },
          {
            "validator_address": "C39A8A2B85198DCB8F23AD1F6C198E2BA7AB5D60",
            "validator_index": "69",
            "height": "55079",
            "round": "0",
            "timestamp": "2018-08-03T03:06:36.010953676Z",
            "type": 2,
            "block_id": {
              "hash": "14662F740D6E5516837397493CB7963FF7DF0FB0",
              "parts": {
                "total": "1",
                "hash": "472A9B4042005AE0B0B55CAC3D79D618526A1A0C"
              }
            },
            "signature": {
              "type": "tendermint/SignatureEd25519",
              "value": "1bEpMYu4eFldiyPEDFtdzCjZtBudR9ZNt1pzoWu+4ykQfls9HmlFzvw/x23Nlx+ENjSurohfqoviB0yqTna4Cg=="
            }
          },
          {
            "validator_address": "C4335190C3B5BD4BA5568BC0F99C34162D940D08",
            "validator_index": "70",
            "height": "55079",
            "round": "0",
            "timestamp": "2018-08-03T03:06:36.055528058Z",
            "type": 2,
            "block_id": {
              "hash": "14662F740D6E5516837397493CB7963FF7DF0FB0",
              "parts": {
                "total": "1",
                "hash": "472A9B4042005AE0B0B55CAC3D79D618526A1A0C"
              }
            },
            "signature": {
              "type": "tendermint/SignatureEd25519",
              "value": "LSIkWkpP/M3o40JBv6zGxLca3Oq8JFleMLhdMBeKjCWmUFM1hoPSiVjM4ZM71hVF0I5H8Wsl0xdMhSd1YVWPDw=="
            }
          },
          {
            "validator_address": "C561CFA081677046376396922E7576E5F7B316AD",
            "validator_index": "71",
            "height": "55079",
            "round": "0",
            "timestamp": "2018-08-03T03:06:36.140033774Z",
            "type": 2,
            "block_id": {
              "hash": "14662F740D6E5516837397493CB7963FF7DF0FB0",
              "parts": {
                "total": "1",
                "hash": "472A9B4042005AE0B0B55CAC3D79D618526A1A0C"
              }
            },
            "signature": {
              "type": "tendermint/SignatureEd25519",
              "value": "DV0aHIueJSQucQH3nCl0ABCgdAWMen7ceLVxF2F5Iwd1dY6kRIADwrgJBHtA6GpPkExG2ukpk9nC7MWlJYerBg=="
            }
          },
          {
            "validator_address": "CEB97DB5CB18270247ABDE6CF2F84F9AEE8A2904",
            "validator_index": "72",
            "height": "55079",
            "round": "0",
            "timestamp": "2018-08-03T03:06:37.388081688Z",
            "type": 2,
            "block_id": {
              "hash": "14662F740D6E5516837397493CB7963FF7DF0FB0",
              "parts": {
                "total": "1",
                "hash": "472A9B4042005AE0B0B55CAC3D79D618526A1A0C"
              }
            },
            "signature": {
              "type": "tendermint/SignatureEd25519",
              "value": "aknDLRPvusAUweR2WjudczlHmfy0VUrMlxvdTqehhvUG5p89ot/MHwobo7YnsZ/timq2I6kWLzA8P7fWxsx7Aw=="
            }
          },
          {
            "validator_address": "D2134B826A1E25A955905CB79A4D8731CAFA0CCE",
            "validator_index": "73",
            "height": "55079",
            "round": "0",
            "timestamp": "2018-08-03T03:06:36.106203866Z",
            "type": 2,
            "block_id": {
              "hash": "14662F740D6E5516837397493CB7963FF7DF0FB0",
              "parts": {
                "total": "1",
                "hash": "472A9B4042005AE0B0B55CAC3D79D618526A1A0C"
              }
            },
            "signature": {
              "type": "tendermint/SignatureEd25519",
              "value": "4yMFXfs6ssm+8iloxOPJeNy8Ny4SMO4qDk7k3kUIaKqsO/nWk2FR4epxe3/lGptoOvFEm0Isu4gKrGEJ+36GAg=="
            }
          },
          {
            "validator_address": "D6285C3422C8886445D53757CBE12D2B91B5A9D0",
            "validator_index": "74",
            "height": "55079",
            "round": "0",
            "timestamp": "2018-08-03T03:06:19.696177193Z",
            "type": 2,
            "block_id": {
              "hash": "14662F740D6E5516837397493CB7963FF7DF0FB0",
              "parts": {
                "total": "1",
                "hash": "472A9B4042005AE0B0B55CAC3D79D618526A1A0C"
              }
            },
            "signature": {
              "type": "tendermint/SignatureEd25519",
              "value": "yQZ1DQGXUQ772MDHJM/Rmpopmr+C3vVlipanroWBfY1BnVGM+jJsVHTGdtdv3SQGLq9vKG6r8+wagoTVf0emBA=="
            }
          },
          {
            "validator_address": "D77FB84A729972CD3E757C9BEB61561855832B92",
            "validator_index": "75",
            "height": "55079",
            "round": "0",
            "timestamp": "2018-08-03T03:06:36.107517984Z",
            "type": 2,
            "block_id": {
              "hash": "14662F740D6E5516837397493CB7963FF7DF0FB0",
              "parts": {
                "total": "1",
                "hash": "472A9B4042005AE0B0B55CAC3D79D618526A1A0C"
              }
            },
            "signature": {
              "type": "tendermint/SignatureEd25519",
              "value": "HBTdctRWdJ2qsxdtvFdAE5g5cp8CuPxFeDWrFCsaDcW0rjcmKM+XchZxelXjELLFJnakrEAAzWDC9HZ0vz1gDA=="
            }
          },
          {
            "validator_address": "DB7E6732471D3EA5C90C17A9974D9F88AB45F2FB",
            "validator_index": "76",
            "height": "55079",
            "round": "0",
            "timestamp": "2018-08-03T03:06:36.097400511Z",
            "type": 2,
            "block_id": {
              "hash": "14662F740D6E5516837397493CB7963FF7DF0FB0",
              "parts": {
                "total": "1",
                "hash": "472A9B4042005AE0B0B55CAC3D79D618526A1A0C"
              }
            },
            "signature": {
              "type": "tendermint/SignatureEd25519",
              "value": "2dhdXPqIYi0mX05arZPa4qqEMTHMu099QCwvPRIoukArXYW9po9EUycNhac6fBJuKyJKkfX5Z3r/xCuwBYNnDA=="
            }
          },
          {
            "validator_address": "DF54B862410BCD9B5C516FBB6C56BDC826ED6FA7",
            "validator_index": "77",
            "height": "55079",
            "round": "0",
            "timestamp": "2018-08-03T03:06:36.042396051Z",
            "type": 2,
            "block_id": {
              "hash": "14662F740D6E5516837397493CB7963FF7DF0FB0",
              "parts": {
                "total": "1",
                "hash": "472A9B4042005AE0B0B55CAC3D79D618526A1A0C"
              }
            },
            "signature": {
              "type": "tendermint/SignatureEd25519",
              "value": "vbBZcyfFYsRanKP16o7Sr0Urj3LhfGZF68nG0ijCBQA9P8AYOStzemlwxy0hMrvPB4b/yp+8KG7HyQZnmH5dCg=="
            }
          },
          {
            "validator_address": "DFAF0C8B1B78D6D552B0189DE3ACA351439A1319",
            "validator_index": "78",
            "height": "55079",
            "round": "0",
            "timestamp": "2018-08-03T03:06:35.993828805Z",
            "type": 2,
            "block_id": {
              "hash": "14662F740D6E5516837397493CB7963FF7DF0FB0",
              "parts": {
                "total": "1",
                "hash": "472A9B4042005AE0B0B55CAC3D79D618526A1A0C"
              }
            },
            "signature": {
              "type": "tendermint/SignatureEd25519",
              "value": "KS1imellGEQsvOzNGIZMBrXZKXBR9M48h5kKZbBdSPiQl/9U1OSBSKM/6dxu6GWe8AQqApNcIHw8j1qjVbyXAw=="
            }
          },
          {
            "validator_address": "E1DBC77881161A5A3A8536A57536EAE546A75D69",
            "validator_index": "79",
            "height": "55079",
            "round": "0",
            "timestamp": "2018-08-03T03:06:35.963576242Z",
            "type": 2,
            "block_id": {
              "hash": "14662F740D6E5516837397493CB7963FF7DF0FB0",
              "parts": {
                "total": "1",
                "hash": "472A9B4042005AE0B0B55CAC3D79D618526A1A0C"
              }
            },
            "signature": {
              "type": "tendermint/SignatureEd25519",
              "value": "3pL7/YyrJytPiz3YChVPLOGb7rdeezrnTnZoc0B8lycu7HFIyFeEyrLOH9oeTVFvMfaNa8XBmxRe3IG/9nTKBA=="
            }
          },
          {
            "validator_address": "E300E9D484374C1D3E97C1D93CAC3B160A056298",
            "validator_index": "80",
            "height": "55079",
            "round": "0",
            "timestamp": "2018-08-03T03:06:36.216363518Z",
            "type": 2,
            "block_id": {
              "hash": "14662F740D6E5516837397493CB7963FF7DF0FB0",
              "parts": {
                "total": "1",
                "hash": "472A9B4042005AE0B0B55CAC3D79D618526A1A0C"
              }
            },
            "signature": {
              "type": "tendermint/SignatureEd25519",
              "value": "4IsZ3m1BV+brPV9TnoAiGKz2iUvoPlj8nqQO/X9GJoGVIYx7ToldfkzZ6zjnC929pKYKcJYVHhcVH8RpzouLDg=="
            }
          },
          {
            "validator_address": "E39B5778E0D4297A46F45CF6940B0A163A430FF8",
            "validator_index": "81",
            "height": "55079",
            "round": "0",
            "timestamp": "2018-08-03T03:06:36.052812771Z",
            "type": 2,
            "block_id": {
              "hash": "14662F740D6E5516837397493CB7963FF7DF0FB0",
              "parts": {
                "total": "1",
                "hash": "472A9B4042005AE0B0B55CAC3D79D618526A1A0C"
              }
            },
            "signature": {
              "type": "tendermint/SignatureEd25519",
              "value": "0JPeiQlHU3967I9OQvLVZLN7xr3ve0d2jmjhJipwvU97wt2aGIkFBfWxrMo977La9lOZ8NFXalZbgcy/SafcBQ=="
            }
          },
          {
            "validator_address": "E3B19738F7132F950668504D326C7660F159D170",
            "validator_index": "82",
            "height": "55079",
            "round": "0",
            "timestamp": "2018-08-03T03:06:36.000268347Z",
            "type": 2,
            "block_id": {
              "hash": "14662F740D6E5516837397493CB7963FF7DF0FB0",
              "parts": {
                "total": "1",
                "hash": "472A9B4042005AE0B0B55CAC3D79D618526A1A0C"
              }
            },
            "signature": {
              "type": "tendermint/SignatureEd25519",
              "value": "HFsW/CYXimF4EQhY48BGUknrUcFm+7uP34ecEm9oAXaxLjAkCc5jUGvfzsvH+GkbN9t0g4WvZmOq75zuQx0UBg=="
            }
          },
          {
            "validator_address": "E42F8AEABB685219F7027F54D2B0DBC7846F633A",
            "validator_index": "83",
            "height": "55079",
            "round": "0",
            "timestamp": "2018-08-03T03:06:34.946754782Z",
            "type": 2,
            "block_id": {
              "hash": "14662F740D6E5516837397493CB7963FF7DF0FB0",
              "parts": {
                "total": "1",
                "hash": "472A9B4042005AE0B0B55CAC3D79D618526A1A0C"
              }
            },
            "signature": {
              "type": "tendermint/SignatureEd25519",
              "value": "hUksVLgr+dlDAavIHRUB4YnR8Dcf7EtuM423lXT6cfw80EOLdmpdCUWdMUbE1J0+3fJSkmOlEvFHmEPnjvzZAA=="
            }
          },
          {
            "validator_address": "E4E6C2E81269DFFA196C17F98240E491479A6008",
            "validator_index": "84",
            "height": "55079",
            "round": "0",
            "timestamp": "2018-08-03T03:06:36.149637359Z",
            "type": 2,
            "block_id": {
              "hash": "14662F740D6E5516837397493CB7963FF7DF0FB0",
              "parts": {
                "total": "1",
                "hash": "472A9B4042005AE0B0B55CAC3D79D618526A1A0C"
              }
            },
            "signature": {
              "type": "tendermint/SignatureEd25519",
              "value": "7FdCOvbHdddJbqGOcdMskfPb8nPT4VC/X04RbxTqqbe8NySu93Lot6620mKxKw1/8sW/55dtOoUFryDIP1Q0AA=="
            }
          },
          {
            "validator_address": "E50ADECD5FD27FA2CD610C07F8AED36A2FC4A6A6",
            "validator_index": "85",
            "height": "55079",
            "round": "0",
            "timestamp": "2018-08-03T03:06:35.972364466Z",
            "type": 2,
            "block_id": {
              "hash": "14662F740D6E5516837397493CB7963FF7DF0FB0",
              "parts": {
                "total": "1",
                "hash": "472A9B4042005AE0B0B55CAC3D79D618526A1A0C"
              }
            },
            "signature": {
              "type": "tendermint/SignatureEd25519",
              "value": "QbrbF+p49oKLTW1dg39xXgHFT+1UPqFPxtXJ1lKMq5iM9PypxQAf5Lba7IwsD5pzezK/naIX/36aL3R94hAsCQ=="
            }
          },
          {
            "validator_address": "E6A7079D584B163750BE0831227F6B685DEAF3C1",
            "validator_index": "86",
            "height": "55079",
            "round": "0",
            "timestamp": "2018-08-03T03:06:36.089261334Z",
            "type": 2,
            "block_id": {
              "hash": "14662F740D6E5516837397493CB7963FF7DF0FB0",
              "parts": {
                "total": "1",
                "hash": "472A9B4042005AE0B0B55CAC3D79D618526A1A0C"
              }
            },
            "signature": {
              "type": "tendermint/SignatureEd25519",
              "value": "mVNLml/9TAahT+kVQBhASO8Bg2MM/wa4odDfLrtGIWb6UNpaAuCvrsj5p72h9wU/hWQx73ClfWVa8Z3l5N/HCA=="
            }
          },
          {
            "validator_address": "E7A30077D5D11867D3EAF99ED45BFDC1EB834509",
            "validator_index": "87",
            "height": "55079",
            "round": "0",
            "timestamp": "2018-08-03T03:06:36.008768363Z",
            "type": 2,
            "block_id": {
              "hash": "14662F740D6E5516837397493CB7963FF7DF0FB0",
              "parts": {
                "total": "1",
                "hash": "472A9B4042005AE0B0B55CAC3D79D618526A1A0C"
              }
            },
            "signature": {
              "type": "tendermint/SignatureEd25519",
              "value": "3QR/MYI8OdMjZTf06Ge/rVlIJX5870v35pVMNXoVmCvERwprBeGMAj7lwTBtyytWo3fbP28RoVJg2T3UHXPkBQ=="
            }
          },
          {
            "validator_address": "EBC613967F66F4EC306852CDF58B4F151CF16738",
            "validator_index": "88",
            "height": "55079",
            "round": "0",
            "timestamp": "2018-08-03T03:06:36.141650541Z",
            "type": 2,
            "block_id": {
              "hash": "14662F740D6E5516837397493CB7963FF7DF0FB0",
              "parts": {
                "total": "1",
                "hash": "472A9B4042005AE0B0B55CAC3D79D618526A1A0C"
              }
            },
            "signature": {
              "type": "tendermint/SignatureEd25519",
              "value": "HlHHhKBFKw99XbB834uohJoLRvAfvBM8MiLfQNtTLRKd6JJZVSxMUMeK+VlwLHJTwv0P0HXt3GVvpNm2w7+0BQ=="
            }
          },
          {
            "validator_address": "EC3401441726C40ECC7E51F744483B05BC6DE9BD",
            "validator_index": "89",
            "height": "55079",
            "round": "0",
            "timestamp": "2018-08-03T03:06:36.02130067Z",
            "type": 2,
            "block_id": {
              "hash": "14662F740D6E5516837397493CB7963FF7DF0FB0",
              "parts": {
                "total": "1",
                "hash": "472A9B4042005AE0B0B55CAC3D79D618526A1A0C"
              }
            },
            "signature": {
              "type": "tendermint/SignatureEd25519",
              "value": "FrvhSgM1jTLnoGCYHK2JFFU275JAtNtb6ywzNkYNXqSEdBYyNu8wn/X0gQVvpkZ/eskkIhSjRbj692ncnZPnDw=="
            }
          },
          {
            "validator_address": "EC95B111D032181E1EC3B5E8875C5BB8E4AE7140",
            "validator_index": "90",
            "height": "55079",
            "round": "0",
            "timestamp": "2018-08-03T03:06:35.970882932Z",
            "type": 2,
            "block_id": {
              "hash": "14662F740D6E5516837397493CB7963FF7DF0FB0",
              "parts": {
                "total": "1",
                "hash": "472A9B4042005AE0B0B55CAC3D79D618526A1A0C"
              }
            },
            "signature": {
              "type": "tendermint/SignatureEd25519",
              "value": "0QUd/6/m+iYJSsXBrlO0gCMi/U1FfTjsLgHLfIai7bo8AW0ej5El9njeDh8UPISo3WcWoNvOskBdpUhkXRZZDA=="
            }
          },
          {
            "validator_address": "F13C1805E8131C9B47E2A46818F57D8A2841E578",
            "validator_index": "91",
            "height": "55079",
            "round": "0",
            "timestamp": "2018-08-03T03:06:36.08129399Z",
            "type": 2,
            "block_id": {
              "hash": "14662F740D6E5516837397493CB7963FF7DF0FB0",
              "parts": {
                "total": "1",
                "hash": "472A9B4042005AE0B0B55CAC3D79D618526A1A0C"
              }
            },
            "signature": {
              "type": "tendermint/SignatureEd25519",
              "value": "Wv0xsTyF2TLezv05yMYgka/tYZKzCxFbdpBDWQOxjzGC1eytzr4ClubUn4G55bqjrHhIdi9ZIC/FeZy4CPukAg=="
            }
          },
          {
            "validator_address": "F23FF36BD5B90C33CE3A03ED72DBDCF5EC07D6AF",
            "validator_index": "92",
            "height": "55079",
            "round": "0",
            "timestamp": "2018-08-03T03:06:36.090752813Z",
            "type": 2,
            "block_id": {
              "hash": "14662F740D6E5516837397493CB7963FF7DF0FB0",
              "parts": {
                "total": "1",
                "hash": "472A9B4042005AE0B0B55CAC3D79D618526A1A0C"
              }
            },
            "signature": {
              "type": "tendermint/SignatureEd25519",
              "value": "OQzWxwX3nU2VuGbq8MsdNY82jgmDgCT8O8s48ZIZKQG7b0ABk3//e638iN6upCIYbJxNsqaU/GaSzQhcygngAQ=="
            }
          },
          {
            "validator_address": "F4268597DE93E3E2CED38845010F8AA34E2A879E",
            "validator_index": "93",
            "height": "55079",
            "round": "0",
            "timestamp": "2018-08-03T03:06:36.059589568Z",
            "type": 2,
            "block_id": {
              "hash": "14662F740D6E5516837397493CB7963FF7DF0FB0",
              "parts": {
                "total": "1",
                "hash": "472A9B4042005AE0B0B55CAC3D79D618526A1A0C"
              }
            },
            "signature": {
              "type": "tendermint/SignatureEd25519",
              "value": "+nT3DAJrTmf3p3MxXDUqyh6GkOz3r/JiBoW0enPqTf0dCfpdfOqjXRCYH/bLN0soCDP6OUDT1HTAeryqwdw+Cw=="
            }
          },
          {
            "validator_address": "F4DEB417999B04BE2EFF9FFE03FA373D86011CC0",
            "validator_index": "94",
            "height": "55079",
            "round": "0",
            "timestamp": "2018-08-03T03:06:35.975094536Z",
            "type": 2,
            "block_id": {
              "hash": "14662F740D6E5516837397493CB7963FF7DF0FB0",
              "parts": {
                "total": "1",
                "hash": "472A9B4042005AE0B0B55CAC3D79D618526A1A0C"
              }
            },
            "signature": {
              "type": "tendermint/SignatureEd25519",
              "value": "GCa24mwNhkPP9Ck1U0se99PUAZe8HP1VD41lSlkmnVwHDwJXfxB2SaL2zMYK9Z3JD88yGcgabr+N9N2WOD+QDQ=="
            }
          },
          {
            "validator_address": "F6738260186D33D9C14FC6E7017AFE6BB952A63D",
            "validator_index": "95",
            "height": "55079",
            "round": "0",
            "timestamp": "2018-08-03T03:06:36.003999689Z",
            "type": 2,
            "block_id": {
              "hash": "14662F740D6E5516837397493CB7963FF7DF0FB0",
              "parts": {
                "total": "1",
                "hash": "472A9B4042005AE0B0B55CAC3D79D618526A1A0C"
              }
            },
            "signature": {
              "type": "tendermint/SignatureEd25519",
              "value": "7Cq3RPbt1jSICcpPijMLAee/hKheoCZZMIgL329MOvDHcRuXcM92nvH2xgYP7pOx3Cp87trWxpUwxz6f7AY3BQ=="
            }
          },
          {
            "validator_address": "FD8D304F0278229077114B05BED9DABD382D49D8",
            "validator_index": "96",
            "height": "55079",
            "round": "0",
            "timestamp": "2018-08-03T03:06:36.115576165Z",
            "type": 2,
            "block_id": {
              "hash": "14662F740D6E5516837397493CB7963FF7DF0FB0",
              "parts": {
                "total": "1",
                "hash": "472A9B4042005AE0B0B55CAC3D79D618526A1A0C"
              }
            },
            "signature": {
              "type": "tendermint/SignatureEd25519",
              "value": "e3NKPlm0aYqOGKY26aJ/VlhZFxYjvWy+rFH5NTfZJQdj8pcNKEBi95ksmhqwFnFFbgj+vGN2cDG+jpZgb5oQBg=="
            }
          },
          {
            "validator_address": "FF3F3FCBCE7E62D7AD5506FF846EC4518D980515",
            "validator_index": "97",
            "height": "55079",
            "round": "0",
            "timestamp": "2018-08-03T03:06:35.972194688Z",
            "type": 2,
            "block_id": {
              "hash": "14662F740D6E5516837397493CB7963FF7DF0FB0",
              "parts": {
                "total": "1",
                "hash": "472A9B4042005AE0B0B55CAC3D79D618526A1A0C"
              }
            },
            "signature": {
              "type": "tendermint/SignatureEd25519",
              "value": "fmWd1IQGEloECwFwlO7MMyaUnKP4ZG4mBWYPBx4bNhk3TPAK+W2pMoXiQY4NNlxX4UlUEwmcRp/NB1DDxH0eCQ=="
            }
          }
        ]
      }
    },
    "canonical": true
  }
}