{
  "jsonrpc": "2.0",
  "id": "",
  "result": {
    "SignedHeader": {
      "header": {
        "chain_id": "gaia-7004",
        "height": "55584",
        "time": "2018-08-03T03:58:12.596263262Z",
        "num_txs": "0",
        "last_block_id": {
          "hash": "5BE8FCD7E4A95BD01B867564617878C429B1CBE6",
          "parts": {
            "total": "1",
            "hash": "2EEFAB1E819DFD567A011F7265F93E86CD786E19"
          }
        },
        "total_txs": "2408",
        "last_commit_hash": "1D5D2604494BDB74E1E7505B10461DB4FB27F32D",
        "data_hash": "",
        "validators_hash": "47A519E3F3F52235135B01171458D409B61BEA3C",
        "consensus_hash": "D6B74BB35BDFFD8392340F2A379173548AE188FE",
        "app_hash": "34290575F4CB47B3DBD63526E621F267B0774B81",
        "last_results_hash": "",
        "evidence_hash": ""
      },
      "commit": {
        "block_id": {
          "hash": "332827FE37D6ACE8E91066B7FFDF2B627E4936F7",
          "parts": {
            "total": "1",
            "hash": "7FAFE9D497E35EFA1659C863D9D8C2BDD9A4AB7E"
          }
        },
        "precommits": [
          {
            "validator_address": "029359C0C768096273A68ABC902A6B17AC8D1D70",
            "validator_index": "0",
            "height": "55584",
            "round": "1",
            "timestamp": "2018-08-03T03:58:13.574658732Z",
            "type": 2,
            "block_id": {
              "hash": "332827FE37D6ACE8E91066B7FFDF2B627E4936F7",
              "parts": {
                "total": "1",
                "hash": "7FAFE9D497E35EFA1659C863D9D8C2BDD9A4AB7E"
              }
            },
            "signature": {
              "type": "tendermint/SignatureEd25519",
              "value": "siP9pS2zuLnKGigowHx6cCn/Jri4f1MxCkJZtVS9Wth3gEmbW9H5U1N4DbanRU9Q711obRiTPTdvjRFWYoa7Dw=="
            }
          },
          {
            "validator_address": "02FE4B97A8387F39D1AC19E0C1702B3CC614812F",
            "validator_index": "1",
            "height": "55584",
            "round": "1",
            "timestamp": "2018-08-03T03:58:13.528005536Z",
            "type": 2,
            "block_id": {
              "hash": "332827FE37D6ACE8E91066B7FFDF2B627E4936F7",
              "parts": {
                "total": "1",
                "hash": "7FAFE9D497E35EFA1659C863D9D8C2BDD9A4AB7E"
              }
            },
            "signature": {
              "type": "tendermint/SignatureEd25519",
              "value": "U5k8zSAGruMCc7gnefhmdXCxIUrJ8XJY/3vyrrz6qyG7W93wO8hL/v/XBtCE6iyO9raKgVfidknOgPkqs0ZSCg=="
            }
          },
          {
            "validator_address": "0548261C50222FD710EB5EBDF03A0E6567B21D20",
            "validator_index": "2",
            "height": "55584",
            "round": "1",
            "timestamp": "2018-08-03T03:58:13.555261978Z",
            "type": 2,
            "block_id": {
              "hash": "332827FE37D6ACE8E91066B7FFDF2B627E4936F7",
              "parts": {
                "total": "1",
                "hash": "7FAFE9D497E35EFA1659C863D9D8C2BDD9A4AB7E"
              }
            },
            "signature": {
              "type": "tendermint/SignatureEd25519",
              "value": "Vm52dkZ65o/OqJX3MMl6rk+synjxQoHB2b0ZoooF7uVZB5lrDk8Gj1xsllaYgISm3EO6br02iTvWwX93uVpDBg=="
            }
          },
          {
            "validator_address": "0665ADBF9B120B7617BF955AA5653A1992C82B11",
            "validator_index": "3",
            "height": "55584",
            "round": "1",
            "timestamp": "2018-08-03T03:58:13.52900323Z",
            "type": 2,
            "block_id": {
              "hash": "332827FE37D6ACE8E91066B7FFDF2B627E4936F7",
              "parts": {
                "total": "1",
                "hash": "7FAFE9D497E35EFA1659C863D9D8C2BDD9A4AB7E"
              }
            },
            "signature": {
              "type": "tendermint/SignatureEd25519",
              "value": "4bwo5HV+E/sbom4wXi6Gt8qN7HE7FgtAJbuaXyBXWWcr1WA6cLodLnbQdUMFYyMe9C1MLfdVHu55FbrMr4MZDw=="
            }
          },
          {
            "validator_address": "09145E611CC27EEB944FC5A956DDF710F943B9EF",
            "validator_index": "4",
            "height": "55584",
            "round": "1",
            "timestamp": "2018-08-03T03:58:13.551686893Z",
            "type": 2,
            "block_id": {
              "hash": "332827FE37D6ACE8E91066B7FFDF2B627E4936F7",
              "parts": {
                "total": "1",
                "hash": "7FAFE9D497E35EFA1659C863D9D8C2BDD9A4AB7E"
              }
            },
            "signature": {
              "type": "tendermint/SignatureEd25519",
              "value": "+xED2JCH9GAElZmynW7PM/4AYwnHlILsF7Mgd78QdzmYTwClClmh4KbwEL6VC2xXIYp+4LF7Ye6g2IDxuty9Cw=="
            }
          },
          {
            "validator_address": "0989D0355A104B67AE0AE028C68FB610690E174B",
            "validator_index": "5",
            "height": "55584",
            "round": "1",
            "timestamp": "2018-08-03T03:58:13.554213128Z",
            "type": 2,
            "block_id": {
              "hash": "332827FE37D6ACE8E91066B7FFDF2B627E4936F7",
              "parts": {
                "total": "1",
                "hash": "7FAFE9D497E35EFA1659C863D9D8C2BDD9A4AB7E"
              }
            },
            "signature": {
              "type": "tendermint/SignatureEd25519",
              "value": "D5MGDktZeLagvB6QTPXla08xxfVMoV8ucpA9PltwOsGzQaRYScyEyQQzA3qDh1kgUE2aZ8mk0DBDG6jnfX6yCw=="
            }
          },
          {
            "validator_address": "0A692DBFFE9E5DD28E7DECC33CED1AEB4C0D014E",
            "validator_index": "6",
            "height": "55584",
            "round": "1",
            "timestamp": "2018-08-03T03:58:13.632205603Z",
            "type": 2,
            "block_id": {
              "hash": "332827FE37D6ACE8E91066B7FFDF2B627E4936F7",
              "parts": {
                "total": "1",
                "hash": "7FAFE9D497E35EFA1659C863D9D8C2BDD9A4AB7E"
              }
            },
            "signature": {
              "type": "tendermint/SignatureEd25519",
              "value": "ELQNZ/1IdQcaldCXdVwEzEQSek7ET4JQBUtRSRhhSJO55nZTFdntlikGFy+aW9ch0sO2z2RRJ/OH/rddeOYKBw=="
            }
          },
          {
            "validator_address": "1751786EFC085D5331C61168FFFC8202EA151B4E",
            "validator_index": "7",
            "height": "55584",
            "round": "1",
            "timestamp": "2018-08-03T03:58:13.17233654Z",
            "type": 2,
            "block_id": {
              "hash": "332827FE37D6ACE8E91066B7FFDF2B627E4936F7",
              "parts": {
                "total": "1",
                "hash": "7FAFE9D497E35EFA1659C863D9D8C2BDD9A4AB7E"
              }
            },
            "signature": {
              "type": "tendermint/SignatureEd25519",
              "value": "mYHqYd+5A+tnEr2Qj5kZFmOFT+mn4lCx4VTEJVNXzcSbZGs7HKnKmq3+O/AUiSiztFD9/qVuSRRISWqvx5IRAQ=="
            }
          },
          {
            "validator_address": "17BB5CD01E8940FAFB948A04D5FA5A0645E5822E",
            "validator_index": "8",
            "height": "55584",
            "round": "1",
            "timestamp": "2018-08-03T03:58:13.545579483Z",
            "type": 2,
            "block_id": {
              "hash": "332827FE37D6ACE8E91066B7FFDF2B627E4936F7",
              "parts": {
                "total": "1",
                "hash": "7FAFE9D497E35EFA1659C863D9D8C2BDD9A4AB7E"
              }
            },
            "signature": {
              "type": "tendermint/SignatureEd25519",
              "value": "cpOgyPiW0D3pb40EIrNp9BDzGrR++4Rd9fFuyI50cdKJgrHrPuHMdS9Cfs5OENqb4uc9jQV7zj4ZXKDiprIoBQ=="
            }
          },
          {
            "validator_address": "1C683A87904BC38F05004FE83301A3A3E35447EB",
            "validator_index": "9",
            "height": "55584",
            "round": "1",
            "timestamp": "2018-08-03T03:58:13.525964915Z",
            "type": 2,
            "block_id": {
              "hash": "332827FE37D6ACE8E91066B7FFDF2B627E4936F7",
              "parts": {
                "total": "1",
                "hash": "7FAFE9D497E35EFA1659C863D9D8C2BDD9A4AB7E"
              }
            },
            "signature": {
              "type": "tendermint/SignatureEd25519",
              "value": "frAvorK4TkHVE8fOKquJ8to1LiuKK7sG5iUY3RlNItkaQPapp12yNN7ysT3XhsXf4KY+mhhcwnnKiHjOxLZ6Cg=="
            }
          },
          {
            "validator_address": "1E9CE94FD0BA5CFEB901F90BC658D64D85B134D2",
            "validator_index": "10",
            "height": "55584",
            "round": "1",
            "timestamp": "2018-08-03T03:58:13.559976943Z",
            "type": 2,
            "block_id": {
              "hash": "332827FE37D6ACE8E91066B7FFDF2B627E4936F7",
              "parts": {
                "total": "1",
                "hash": "7FAFE9D497E35EFA1659C863D9D8C2BDD9A4AB7E"
              }
            },
            "signature": {
              "type": "tendermint/SignatureEd25519",
              "value": "7Vu/MhdhlmKREwayxVdtW8ZMVHoDxCDjy5GqoQ980YjJoQar53IqTHEPSRLImMTYLC2qsckmVk+c9JPU8HNYBQ=="
            }
          },
          {
            "validator_address": "1ECD8C5FE1341D74CDC633A245DD56858DE2F9A2",
            "validator_index": "11",
            "height": "55584",
            "round": "1",
            "timestamp": "2018-08-03T03:58:13.685278184Z",
            "type": 2,
            "block_id": {
              "hash": "332827FE37D6ACE8E91066B7FFDF2B627E4936F7",
              "parts": {
                "total": "1",
                "hash": "7FAFE9D497E35EFA1659C863D9D8C2BDD9A4AB7E"
              }
            },
            "signature": {
              "type": "tendermint/SignatureEd25519",
              "value": "0hJBbV9a9aUH0OkmVT6dFI9+TTkGNKfEbQ4ZqwbTX02+Ytlc6Qa5iJPAnH11D3r/mFz337jQKUUkYOkc/FbVCw=="
            }
          },
          {
            "validator_address": "1F3A68CAAD483768AA2BF667DEF10F7104C89928",
            "validator_index": "12",
            "height": "55584",
            "round": "1",
            "timestamp": "2018-08-03T03:58:13.53302961Z",
            "type": 2,
            "block_id": {
              "hash": "332827FE37D6ACE8E91066B7FFDF2B627E4936F7",
              "parts": {
                "total": "1",
                "hash": "7FAFE9D497E35EFA1659C863D9D8C2BDD9A4AB7E"
              }
            },
            "signature": {
              "type": "tendermint/SignatureEd25519",
              "value": "dVvn1Ms8qTScRSwl8CiWSrDms+vPsVa+WoiZu1ywBU+8VleFhumk38Wa+oSick+zzYY5Goc+MfNKn/IJUuVBBQ=="
            }
          },
          {
            "validator_address": "1F61153F26C2DF27E15874268D30326287323352",
            "validator_index": "13",
            "height": "55584",
            "round": "1",
            "timestamp": "2018-08-03T03:58:13.609127737Z",
            "type": 2,
            "block_id": {
              "hash": "332827FE37D6ACE8E91066B7FFDF2B627E4936F7",
              "parts": {
                "total": "1",
                "hash": "7FAFE9D497E35EFA1659C863D9D8C2BDD9A4AB7E"
              }
            },
            "signature": {
              "type": "tendermint/SignatureEd25519",
              "value": "CWQBO/J+tDg0K00i1D3aOCIZXlc4DEt7whMLx2Sb/2D7x8bbfOIJYbW/xfXm2QjUx5iF7S5QHkHiI4AEb7GXCQ=="
            }
          },
          {
            "validator_address": "23897586D68E2AC1C78E0EF5BB5DF5C8EAB18F50",
            "validator_index": "14",
            "height": "55584",
            "round": "1",
            "timestamp": "2018-08-03T03:58:13.570980771Z",
            "type": 2,
            "block_id": {
              "hash": "332827FE37D6ACE8E91066B7FFDF2B627E4936F7",
              "parts": {
                "total": "1",
                "hash": "7FAFE9D497E35EFA1659C863D9D8C2BDD9A4AB7E"
              }
            },
            "signature": {
              "type": "tendermint/SignatureEd25519",
              "value": "PyMiNOZB4PKcWrJBnpqwyaOzfbVUg0y0jUYGrZAeJhvg+lCFuFBLgMy3iGZVFxbyf99vg9oHkK7cPMfqgRqcCQ=="
            }
          },
          {
            "validator_address": "28770D17E8530825E7310A0659308654B7EC9682",
            "validator_index": "15",
            "height": "55584",
            "round": "1",
            "timestamp": "2018-08-03T03:58:13.509997642Z",
            "type": 2,
            "block_id": {
              "hash": "332827FE37D6ACE8E91066B7FFDF2B627E4936F7",
              "parts": {
                "total": "1",
                "hash": "7FAFE9D497E35EFA1659C863D9D8C2BDD9A4AB7E"
              }
            },
            "signature": {
              "type": "tendermint/SignatureEd25519",
              "value": "rMsUwASaAgePNStJ3NDCBM4czIO9ek92wx8EzbTT1EneZNzs3NMeFWYCXeo3pnloOdatQ0yYbaZUYRqv5aemAA=="
            }
          },
          {
            "validator_address": "2A92EC3C642140202298D0E245095E0ECFC25228",
            "validator_index": "16",
            "height": "55584",
            "round": "1",
            "timestamp": "2018-08-03T03:58:13.553894301Z",
            "type": 2,
            "block_id": {
              "hash": "332827FE37D6ACE8E91066B7FFDF2B627E4936F7",
              "parts": {
                "total": "1",
                "hash": "7FAFE9D497E35EFA1659C863D9D8C2BDD9A4AB7E"
              }
            },
            "signature": {
              "type": "tendermint/SignatureEd25519",
              "value": "uGoklLSVfP2EPMBT0qklR5thme8aBZhLuXZ8prRfGWHoNO8W+7WOA4vzwQiMTa9oFJ1MQDrdf/jcZYCYj5MXAA=="
            }
          },
          null,
          {
            "validator_address": "36E9B7FAEC964F97D84C028ED62493E373AD0B38",
            "validator_index": "18",
            "height": "55584",
            "round": "1",
            "timestamp": "2018-08-03T03:58:13.64927497Z",
            "type": 2,
            "block_id": {
              "hash": "332827FE37D6ACE8E91066B7FFDF2B627E4936F7",
              "parts": {
                "total": "1",
                "hash": "7FAFE9D497E35EFA1659C863D9D8C2BDD9A4AB7E"
              }
            },
            "signature": {
              "type": "tendermint/SignatureEd25519",
              "value": "/YlJb/phUER8tc99B0ZiiLqEggLpz2TLcl3DasjfNKpfVrExBEf3sZ01T9XXK74vh7PLMRMJi00JFvztO1x/DQ=="
            }
          },
          {
            "validator_address": "38A8D85D36BEA2E5FCF8A1E778F53628E450EF13",
            "validator_index": "19",
            "height": "55584",
            "round": "1",
            "timestamp": "2018-08-03T03:58:13.701386253Z",
            "type": 2,
            "block_id": {
              "hash": "332827FE37D6ACE8E91066B7FFDF2B627E4936F7",
              "parts": {
                "total": "1",
                "hash": "7FAFE9D497E35EFA1659C863D9D8C2BDD9A4AB7E"
              }
            },
            "signature": {
              "type": "tendermint/SignatureEd25519",
              "value": "UBDQKTLO4v10LOeQtMDbEdAVJMem59gDm1T3GF0ngHjPxWuKNqXcRdAE/xtegZDi8gUUdgOH26kvg6JTsc/CBA=="
            }
          },
          {
            "validator_address": "39DFDA0C5DB84B269642188B23253508537798E6",
            "validator_index": "20",
            "height": "55584",
            "round": "1",
            "timestamp": "2018-08-03T03:58:13.520577709Z",
            "type": 2,
            "block_id": {
              "hash": "332827FE37D6ACE8E91066B7FFDF2B627E4936F7",
              "parts": {
                "total": "1",
                "hash": "7FAFE9D497E35EFA1659C863D9D8C2BDD9A4AB7E"
              }
            },
            "signature": {
              "type": "tendermint/SignatureEd25519",
              "value": "aujWo1mRCV3kpWj3TxprUzd/u3KdZVttVY0rbCXapU9zSVgr94gnch/QdbuN5C9zdMUJbLGmRlg+GI88L/BLBg=="
            }
          },
          {
            "validator_address": "3AC99B708404452366E0953A4BE849226DC86CBC",
            "validator_index": "21",
            "height": "55584",
            "round": "1",
            "timestamp": "2018-08-03T03:58:13.651368732Z",
            "type": 2,
            "block_id": {
              "hash": "332827FE37D6ACE8E91066B7FFDF2B627E4936F7",
              "parts": {
                "total": "1",
                "hash": "7FAFE9D497E35EFA1659C863D9D8C2BDD9A4AB7E"
              }
            },
            "signature": {
              "type": "tendermint/SignatureEd25519",
              "value": "56Gzjz8e2iJHeMTkX05U0+G/I75E+uZp7tQBwbKcrUPlxv+CnCU6RX6LftO1BxU8f+m/f9XLE2bjmxs9xIsWCg=="
            }
          },
          {
            "validator_address": "3DCB822A10ED319EC7C4393D8E3FD4A41B15AAF2",
            "validator_index": "22",
            "height": "55584",
            "round": "1",
            "timestamp": "2018-08-03T03:58:13.510608414Z",
            "type": 2,
            "block_id": {
              "hash": "332827FE37D6ACE8E91066B7FFDF2B627E4936F7",
              "parts": {
                "total": "1",
                "hash": "7FAFE9D497E35EFA1659C863D9D8C2BDD9A4AB7E"
              }
            },
            "signature": {
              "type": "tendermint/SignatureEd25519",
              "value": "hG0LlJ4sFVqSRQbanJaAZyO8GVwpMTlogCcfws9iXONTeZAaoEvjeTOrguywgJE9yjw0KhjksehC9dGlXshiBQ=="
            }
          },
          {
            "validator_address": "3E899BA36A93C7370347BD5FE85909F2ECD93F8C",
            "validator_index": "23",
            "height": "55584",
            "round": "1",
            "timestamp": "2018-08-03T03:58:13.55871366Z",
            "type": 2,
            "block_id": {
              "hash": "332827FE37D6ACE8E91066B7FFDF2B627E4936F7",
              "parts": {
                "total": "1",
                "hash": "7FAFE9D497E35EFA1659C863D9D8C2BDD9A4AB7E"
              }
            },
            "signature": {
              "type": "tendermint/SignatureEd25519",
              "value": "d5taKUFJ2JZZITQjqEDCXkKESHuiBgDIQ82Jk+8dT1qJVMQ7L5Rq3uCtlqj5BKS499RnRLZSr0CVaEptSAOIAQ=="
            }
          },
          {
            "validator_address": "41CAB2E29E7D0F2282E3275938F188FF9386B84C",
            "validator_index": "24",
            "height": "55584",
            "round": "1",
            "timestamp": "2018-08-03T03:58:13.563676507Z",
            "type": 2,
            "block_id": {
              "hash": "332827FE37D6ACE8E91066B7FFDF2B627E4936F7",
              "parts": {
                "total": "1",
                "hash": "7FAFE9D497E35EFA1659C863D9D8C2BDD9A4AB7E"
              }
            },
            "signature": {
              "type": "tendermint/SignatureEd25519",
              "value": "b6P5Xatp9sft0EZ4LtYqJFEBInedPMIc2KStnz/flQ+pzP4bJe2+s6kE31/RLwJ4OhdRotHalZIGJ1y8YDHpDA=="
            }
          },
          {
            "validator_address": "462B656869DB02A8FD1077E255F8CC7401DC37C6",
            "validator_index": "25",
            "height": "55584",
            "round": "1",
            "timestamp": "2018-08-03T03:58:13.5407594Z",
            "type": 2,
            "block_id": {
              "hash": "332827FE37D6ACE8E91066B7FFDF2B627E4936F7",
              "parts": {
                "total": "1",
                "hash": "7FAFE9D497E35EFA1659C863D9D8C2BDD9A4AB7E"
              }
            },
            "signature": {
              "type": "tendermint/SignatureEd25519",
              "value": "7zYOFAabiI/hc7RksBeToY0t4DJ5embgjz/0sRG/DdSyIdEeYwQUPVjEWMHI4jef7ZgrWn7H5cWVfOjSyBLuCg=="
            }
          },
          {
            "validator_address": "48E5118163E5442068A1B5A42D2EEDBB75724935",
            "validator_index": "26",
            "height": "55584",
            "round": "1",
            "timestamp": "2018-08-03T03:58:13.646178463Z",
            "type": 2,
            "block_id": {
              "hash": "332827FE37D6ACE8E91066B7FFDF2B627E4936F7",
              "parts": {
                "total": "1",
                "hash": "7FAFE9D497E35EFA1659C863D9D8C2BDD9A4AB7E"
              }
            },
            "signature": {
              "type": "tendermint/SignatureEd25519",
              "value": "ePGrraPs2D+IKI1VMv4PRCdoZECACJmsF6bOFV1FRYG0OKXfIcNLAFlzk73Ylo5voq6bLK2j5AN+LxiFJONiDA=="
            }
          },
          {
            "validator_address": "49103C58AFD9C7C069F55EBA218F3DFD9AEA74F9",
            "validator_index": "27",
            "height": "55584",
            "round": "1",
            "timestamp": "2018-08-03T03:58:13.545764682Z",
            "type": 2,
            "block_id": {
              "hash": "332827FE37D6ACE8E91066B7FFDF2B627E4936F7",
              "parts": {
                "total": "1",
                "hash": "7FAFE9D497E35EFA1659C863D9D8C2BDD9A4AB7E"
              }
            },
            "signature": {
              "type": "tendermint/SignatureEd25519",
              "value": "x47S0Xe1RKPdTR6A2zXGubTx4Ld7yBhqOSOwRtyQBCRPx8FEx72iZcgsACFi2rhQNB94RSx6yZXHWr1u55NfDg=="
            }
          },
          {
            "validator_address": "4944F8BBBB5303E17BC0607DF332320EDBC750EA",
            "validator_index": "28",
            "height": "55584",
            "round": "1",
            "timestamp": "2018-08-03T03:58:13.526299035Z",
            "type": 2,
            "block_id": {
              "hash": "332827FE37D6ACE8E91066B7FFDF2B627E4936F7",
              "parts": {
                "total": "1",
                "hash": "7FAFE9D497E35EFA1659C863D9D8C2BDD9A4AB7E"
              }
            },
            "signature": {
              "type": "tendermint/SignatureEd25519",
              "value": "O1wGubJ3G7Y+D1VWDGdIRS2j8wSkP0gkDN6WNyREDVN01cqfCAqdI4DfFOjZ98AyFqi7d5tkIcSD1BVZJJRNDw=="
            }
          },
          {
            "validator_address": "49841599DE675157CBE1E7D6B35BF8FFC23BD5CB",
            "validator_index": "29",
            "height": "55584",
            "round": "1",
            "timestamp": "2018-08-03T03:58:13.485820635Z",
            "type": 2,
            "block_id": {
              "hash": "332827FE37D6ACE8E91066B7FFDF2B627E4936F7",
              "parts": {
                "total": "1",
                "hash": "7FAFE9D497E35EFA1659C863D9D8C2BDD9A4AB7E"
              }
            },
            "signature": {
              "type": "tendermint/SignatureEd25519",
              "value": "t9ykdwrOp6e4YhqQd1Z8gNtZICVIHX/DqHFsWyGfCF7/nh5Q7hHzUYIWa9KcGqWZJoaANCjYpRvKWqDE6Xb9Ag=="
            }
          },
          {
            "validator_address": "51386C2CF9556821D114D7E4945806802BADB28D",
            "validator_index": "30",
            "height": "55584",
            "round": "1",
            "timestamp": "2018-08-03T03:58:13.52630462Z",
            "type": 2,
            "block_id": {
              "hash": "332827FE37D6ACE8E91066B7FFDF2B627E4936F7",
              "parts": {
                "total": "1",
                "hash": "7FAFE9D497E35EFA1659C863D9D8C2BDD9A4AB7E"
              }
            },
            "signature": {
              "type": "tendermint/SignatureEd25519",
              "value": "vQI0C5cu7wVKUvJSOrnDkk1iRPDwd4PGw/rElB0kVM9fh1sFk632WxvyOrjjjNRymbGizAqicIyfI6Au0DzkAQ=="
            }
          },
          {
            "validator_address": "543564ECA3AFEFADC73EE8591AAC3A96F079BC8A",
            "validator_index": "31",
            "height": "55584",
            "round": "1",
            "timestamp": "2018-08-03T03:58:13.555057991Z",
            "type": 2,
            "block_id": {
              "hash": "332827FE37D6ACE8E91066B7FFDF2B627E4936F7",
              "parts": {
                "total": "1",
                "hash": "7FAFE9D497E35EFA1659C863D9D8C2BDD9A4AB7E"
              }
            },
            "signature": {
              "type": "tendermint/SignatureEd25519",
              "value": "M5dmrxjkpkoo9+fC6OV8jxOcf6H7dci5a20XzhH28f6xWenPtj2flxPR+u0jOv+q3mZwzzNKlXuuehZFnnQoBg=="
            }
          },
          {
            "validator_address": "55D67B1A6DC13E96F8754A5A42EABC20F7F86664",
            "validator_index": "32",
            "height": "55584",
            "round": "1",
            "timestamp": "2018-08-03T03:58:13.549876207Z",
            "type": 2,
            "block_id": {
              "hash": "332827FE37D6ACE8E91066B7FFDF2B627E4936F7",
              "parts": {
                "total": "1",
                "hash": "7FAFE9D497E35EFA1659C863D9D8C2BDD9A4AB7E"
              }
            },
            "signature": {
              "type": "tendermint/SignatureEd25519",
              "value": "KOtaH9yD3NUzPue4HSr8seDjRGh+QDGJ+YTkcQfd7MceIdT9zYhzTfJAiqbcUL25LiQBv9954aqW+b/sUMV0AA=="
            }
          },
          {
            "validator_address": "570B6A755ED339EAC56BB3390A48069F6AC9449B",
            "validator_index": "33",
            "height": "55584",
            "round": "1",
            "timestamp": "2018-08-03T03:58:25.150956297Z",
            "type": 2,
            "block_id": {
              "hash": "332827FE37D6ACE8E91066B7FFDF2B627E4936F7",
              "parts": {
                "total": "1",
                "hash": "7FAFE9D497E35EFA1659C863D9D8C2BDD9A4AB7E"
              }
            },
            "signature": {
              "type": "tendermint/SignatureEd25519",
              "value": "PCeKb5UtfYKpEMSMnBtEuYwKHtzx2+KbsP7QTyA1u428CUyJWwHQFPTiT8PPAVAUzTBm09su7EcsL7JsOnT8Cw=="
            }
          },
          {
            "validator_address": "5BDF8EA41B1835FBAD865B181A2A4B23F511B5E4",
            "validator_index": "34",
            "height": "55584",
            "round": "1",
            "timestamp": "2018-08-03T03:58:13.506254889Z",
            "type": 2,
            "block_id": {
              "hash": "332827FE37D6ACE8E91066B7FFDF2B627E4936F7",
              "parts": {
                "total": "1",
                "hash": "7FAFE9D497E35EFA1659C863D9D8C2BDD9A4AB7E"
              }
            },
            "signature": {
              "type": "tendermint/SignatureEd25519",
              "value": "f+IFMVYHPXmqAumYHi4MLn/Vg7MAbdekREv1u1Cr/xqHQWr5WEhOTMPf+mDWEDx4j37iLODMM8ixMNCb7OucAQ=="
            }
          },
          {
            "validator_address": "60229E2E273297FE00219E46DFFB8F76844CDEF9",
            "validator_index": "35",
            "height": "55584",
            "round": "1",
            "timestamp": "2018-08-03T03:58:10.430642092Z",
            "type": 2,
            "block_id": {
              "hash": "332827FE37D6ACE8E91066B7FFDF2B627E4936F7",
              "parts": {
                "total": "1",
                "hash": "7FAFE9D497E35EFA1659C863D9D8C2BDD9A4AB7E"
              }
            },
            "signature": {
              "type": "tendermint/SignatureEd25519",
              "value": "D036QSX+ptObbLn/3moNyVvtQhaXcp4aFG/1Mmqy4yy2c7MgDT+7xwGFT6QH7OIzNzLDA1AoCWbWJrcJUub3Bw=="
            }
          },
          {
            "validator_address": "62410D6D1CD98278136E4D0738AA0EA273CDFC54",
            "validator_index": "36",
            "height": "55584",
            "round": "1",
            "timestamp": "2018-08-03T03:58:13.485239599Z",
            "type": 2,
            "block_id": {
              "hash": "332827FE37D6ACE8E91066B7FFDF2B627E4936F7",
              "parts": {
                "total": "1",
                "hash": "7FAFE9D497E35EFA1659C863D9D8C2BDD9A4AB7E"
              }
            },
            "signature": {
              "type": "tendermint/SignatureEd25519",
              "value": "s6ukGw4l0XfYIFAQzMVv8EN8OvWU4/ixP8KG/f/BAm7aCjGqF6yDCvj8/1yc54dZDRKvaCOIokOjCqpcos72BQ=="
            }
          },
          {
            "validator_address": "632F5C139A5A9DFBFE5111DEE29FCFB6157207DC",
            "validator_index": "37",
            "height": "55584",
            "round": "1",
            "timestamp": "2018-08-03T03:58:13.587110835Z",
            "type": 2,
            "block_id": {
              "hash": "332827FE37D6ACE8E91066B7FFDF2B627E4936F7",
              "parts": {
                "total": "1",
                "hash": "7FAFE9D497E35EFA1659C863D9D8C2BDD9A4AB7E"
              }
            },
            "signature": {
              "type": "tendermint/SignatureEd25519",
              "value": "hzaMg73Qcy4ASWPC5tGpmWmqjarbeFR8OYb+aoSLeYWG60cA6xArq1m7hC3odyuLSDuYQKY9Efw4q9/todqWCA=="
            }
          },
          {
            "validator_address": "64F57F8E796A9B7B590C1EFA4123988C86631D39",
            "validator_index": "38",
            "height": "55584",
            "round": "1",
            "timestamp": "2018-08-03T03:58:13.504186469Z",
            "type": 2,
            "block_id": {
              "hash": "332827FE37D6ACE8E91066B7FFDF2B627E4936F7",
              "parts": {
                "total": "1",
                "hash": "7FAFE9D497E35EFA1659C863D9D8C2BDD9A4AB7E"
              }
            },
            "signature": {
              "type": "tendermint/SignatureEd25519",
              "value": "Eq7egVmRxkOXY2qZ9hHxsYEB1Mw5Km04oxRCccMyLUuB77d73PeUY4gHM0SA1XirJcEkVzzeen9WiVQpll0oCQ=="
            }
          },
          {
            "validator_address": "69D99B2C66043ACBEAA8447525C356AFC6408E0C",
            "validator_index": "39",
            "height": "55584",
            "round": "1",
            "timestamp": "2018-08-03T03:58:13.676420832Z",
            "type": 2,
            "block_id": {
              "hash": "332827FE37D6ACE8E91066B7FFDF2B627E4936F7",
              "parts": {
                "total": "1",
                "hash": "7FAFE9D497E35EFA1659C863D9D8C2BDD9A4AB7E"
              }
            },
            "signature": {
              "type": "tendermint/SignatureEd25519",
              "value": "f9tC7DKDCqQfzsejwvCtSKhIKgnee5LbFWOkCFRuvVD2DOcfC1YKOeoD8PJacDX+rRB8qWPdWHUR/oHcGyM6BA=="
            }
          },
          {
            "validator_address": "69EDADFA4A803E9DBF548C900D4A465E7D154262",
            "validator_index": "40",
            "height": "55584",
            "round": "1",
            "timestamp": "2018-08-03T03:58:13.685801082Z",
            "type": 2,
            "block_id": {
              "hash": "332827FE37D6ACE8E91066B7FFDF2B627E4936F7",
              "parts": {
                "total": "1",
                "hash": "7FAFE9D497E35EFA1659C863D9D8C2BDD9A4AB7E"
              }
            },
            "signature": {
              "type": "tendermint/SignatureEd25519",
              "value": "GRVOiiTbWgGbKE37kjhdPK3zz2/v2uzsPmzQ0/cs4izR43s8mjVZJhTuPUBp400dq0BOpSaSvgyOhhWr1W4XBQ=="
            }
          },
          {
            "validator_address": "6D3AD380E398D8592B03AA124BAFED5F125DF863",
            "validator_index": "41",
            "height": "55584",
            "round": "1",
            "timestamp": "2018-08-03T03:57:10.612259164Z",
            "type": 2,
            "block_id": {
              "hash": "332827FE37D6ACE8E91066B7FFDF2B627E4936F7",
              "parts": {
                "total": "1",
                "hash": "7FAFE9D497E35EFA1659C863D9D8C2BDD9A4AB7E"
              }
            },
            "signature": {
              "type": "tendermint/SignatureEd25519",
              "value": "kXx/t49xmVzO6I6khSKg8QO3QtK6iAUACvVDc1DGCPk9HMdVO0LHVH3gLYgnqagbcHDnsV2WzJZ38qy57z4QAQ=="
            }
          },
          {
            "validator_address": "6F6C93B8BF3495063FEC9B5C771158607F4AE9D6",
            "validator_index": "42",
            "height": "55584",
            "round": "1",
            "timestamp": "2018-08-03T03:58:13.661062575Z",
            "type": 2,
            "block_id": {
              "hash": "332827FE37D6ACE8E91066B7FFDF2B627E4936F7",
              "parts": {
                "total": "1",
                "hash": "7FAFE9D497E35EFA1659C863D9D8C2BDD9A4AB7E"
              }
            },
            "signature": {
              "type": "tendermint/SignatureEd25519",
              "value": "VSxR0BK6rxYB+zoY8C6uK0xq0iXbicF9hFYBhVccndEBK6Z2BzCU6dKgEg0w97o5L2TJqwSuFChzXuBaEXUpDg=="
            }
          },
          {
            "validator_address": "732CEEF54C374DDC6ADECBFD707AEFD07FEDC143",
            "validator_index": "43",
            "height": "55584",
            "round": "1",
            "timestamp": "2018-08-03T03:58:13.625004109Z",
            "type": 2,
            "block_id": {
              "hash": "332827FE37D6ACE8E91066B7FFDF2B627E4936F7",
              "parts": {
                "total": "1",
                "hash": "7FAFE9D497E35EFA1659C863D9D8C2BDD9A4AB7E"
              }
            },
            "signature": {
              "type": "tendermint/SignatureEd25519",
              "value": "Rg3PtB8yqmKnxnhPdX9pyO3MHOjjh9s39hDDnMXwvghW0PMv4B7ywoiLXP0jhiBNe3N1QJtDBR7H+ArFOJy5Cw=="
            }
          },
          {
            "validator_address": "751E43437224E8BB6D1569B3E2B2616B6E7F4397",
            "validator_index": "44",
            "height": "55584",
            "round": "1",
            "timestamp": "2018-08-03T03:58:13.561680853Z",
            "type": 2,
            "block_id": {
              "hash": "332827FE37D6ACE8E91066B7FFDF2B627E4936F7",
              "parts": {
                "total": "1",
                "hash": "7FAFE9D497E35EFA1659C863D9D8C2BDD9A4AB7E"
              }
            },
            "signature": {
              "type": "tendermint/SignatureEd25519",
              "value": "4IphXv/HF8YlR3bhP2plzQDZxLFiRKCCtnrQOBW7fRjgIrtkmLcT5hCsqaihI6QvC2ssCV059ZwPnffA9IRXCQ=="
            }
          },
          {
            "validator_address": "7EB7593F519F1180C7E872D0494611464EDF03AE",
            "validator_index": "45",
            "height": "55584",
            "round": "1",
            "timestamp": "2018-08-03T03:58:13.701938293Z",
            "type": 2,
            "block_id": {
              "hash": "332827FE37D6ACE8E91066B7FFDF2B627E4936F7",
              "parts": {
                "total": "1",
                "hash": "7FAFE9D497E35EFA1659C863D9D8C2BDD9A4AB7E"
              }
            },
            "signature": {
              "type": "tendermint/SignatureEd25519",
              "value": "LhTCQcWiAOUC+Hy9nInTuAyb3bOFGDGoKFp7CqQnmHbofEXH4nDlVRClgltjSIl3+4GnLLq8n8AcvaiSSBFLDw=="
            }
          },
          {
            "validator_address": "807CF675BA8479FC4FEC1047215DF07970040F1F",
            "validator_index": "46",
            "height": "55584",
            "round": "1",
            "timestamp": "2018-08-03T03:58:13.855972511Z",
            "type": 2,
            "block_id": {
              "hash": "332827FE37D6ACE8E91066B7FFDF2B627E4936F7",
              "parts": {
                "total": "1",
                "hash": "7FAFE9D497E35EFA1659C863D9D8C2BDD9A4AB7E"
              }
            },
            "signature": {
              "type": "tendermint/SignatureEd25519",
              "value": "7NAoQmx2v0J1tu0WIA8PKoBqMoTDz2DDhe1mU6/n1051rO1kIR33jCpOhOvxtipKhYGLVzgXgOJqyEtCVLukDA=="
            }
          },
          {
            "validator_address": "8356899C8853BC6640D76F76E59743FFEEA57B81",
            "validator_index": "47",
            "height": "55584",
            "round": "1",
            "timestamp": "2018-08-03T03:58:14.088375177Z",
            "type": 2,
            "block_id": {
              "hash": "332827FE37D6ACE8E91066B7FFDF2B627E4936F7",
              "parts": {
                "total": "1",
                "hash": "7FAFE9D497E35EFA1659C863D9D8C2BDD9A4AB7E"
              }
            },
            "signature": {
              "type": "tendermint/SignatureEd25519",
              "value": "k4xGmEft2qrm7fS6y/X8sI9YbXRtlUuuKD2AiBTuEjEfgA4LUYOBdg8mj5uoO3Dt8LriuxCNWPPgoXy37CKDAQ=="
            }
          },
          {
            "validator_address": "83AB321E012C57746689FED3A6064DF331F81007",
            "validator_index": "48",
            "height": "55584",
            "round": "1",
            "timestamp": "2018-08-03T03:58:13.567114965Z",
            "type": 2,
            "block_id": {
              "hash": "332827FE37D6ACE8E91066B7FFDF2B627E4936F7",
              "parts": {
                "total": "1",
                "hash": "7FAFE9D497E35EFA1659C863D9D8C2BDD9A4AB7E"
              }
            },
            "signature": {
              "type": "tendermint/SignatureEd25519",
              "value": "Jc0LWbRJN5Fw19GtXEoGpBTXQ7hO7SVgFNfM386+Qc6v6J6gbBRDMnhJTvclJg5XPX4j+yAxEL6XgpxAvRuuAw=="
            }
          },
          {
            "validator_address": "83BB1B88D3DBB20AD845FECA07749EBD87D3754D",
            "validator_index": "49",
            "height": "55584",
            "round": "1",
            "timestamp": "2018-08-03T03:58:13.686825218Z",
            "type": 2,
            "block_id": {
              "hash": "332827FE37D6ACE8E91066B7FFDF2B627E4936F7",
              "parts": {
                "total": "1",
                "hash": "7FAFE9D497E35EFA1659C863D9D8C2BDD9A4AB7E"
              }
            },
            "signature": {
              "type": "tendermint/SignatureEd25519",
              "value": "i9jiMI/zCw6t9YQTSVM6KPGF9NVsdvMFKct5YD7AnrEQ74OZsCJIJoD8EcVBIPf+uGr2YpwkZNK4t1KHRsVGDA=="
            }
          },
          {
            "validator_address": "86DDBEEF35D35786A68834B34869174AC314BB74",
            "validator_index": "50",
            "height": "55584",
            "round": "1",
            "timestamp": "2018-08-03T03:58:13.518954823Z",
            "type": 2,
            "block_id": {
              "hash": "332827FE37D6ACE8E91066B7FFDF2B627E4936F7",
              "parts": {
                "total": "1",
                "hash": "7FAFE9D497E35EFA1659C863D9D8C2BDD9A4AB7E"
              }
            },
            "signature": {
              "type": "tendermint/SignatureEd25519",
              "value": "EdHi5qQ+OD7cYYxaUA4QPcsudBC1JqzqidjzwJk6bAMIbSJODWy/z9MX0Fj5Vvp07K6cXIwnRwCMyHgTdq80Dg=="
            }
          },
          {
            "validator_address": "8F06FE1FD042683C426137FBC4BBAA4288924217",
            "validator_index": "51",
            "height": "55584",
            "round": "1",
            "timestamp": "2018-08-03T03:58:13.516432116Z",
            "type": 2,
            "block_id": {
              "hash": "332827FE37D6ACE8E91066B7FFDF2B627E4936F7",
              "parts": {
                "total": "1",
                "hash": "7FAFE9D497E35EFA1659C863D9D8C2BDD9A4AB7E"
              }
            },
            "signature": {
              "type": "tendermint/SignatureEd25519",
              "value": "l/EAbkp90WJO2Cx32B2KKsaNjSNXPeYakEtaVgeGFZY1d+51TxTi5XZRa8pFLnXQZPBgNJABvTyxlAFi/E25Cw=="
            }
          },
          {
            "validator_address": "95980831E186F2540F6E9FB6C8E74DE2401405AC",
            "validator_index": "52",
            "height": "55584",
            "round": "1",
            "timestamp": "2018-08-03T03:58:13.575428246Z",
            "type": 2,
            "block_id": {
              "hash": "332827FE37D6ACE8E91066B7FFDF2B627E4936F7",
              "parts": {
                "total": "1",
                "hash": "7FAFE9D497E35EFA1659C863D9D8C2BDD9A4AB7E"
              }
            },
            "signature": {
              "type": "tendermint/SignatureEd25519",
              "value": "i0wc5kgI9OVb8eb3JlPu2WqWj042gzpX0gatJnESvEkmvwzpdBQB/6Ys5WCjrY/0t8EvhloKhg92Mc/KO4a2Ag=="
            }
          },
          {
            "validator_address": "95FAFBC1E0579C83D290A063020CE87C5334BD9B",
            "validator_index": "53",
            "height": "55584",
            "round": "1",
            "timestamp": "2018-08-03T03:58:13.548926919Z",
            "type": 2,
            "block_id": {
              "hash": "332827FE37D6ACE8E91066B7FFDF2B627E4936F7",
              "parts": {
                "total": "1",
                "hash": "7FAFE9D497E35EFA1659C863D9D8C2BDD9A4AB7E"
              }
            },
            "signature": {
              "type": "tendermint/SignatureEd25519",
              "value": "UrP+KrrQbwNMjMVePuwCr3LvFweqBBW4CPKVM6Us8d06uW/KsjcKLBPi+XBkOdicXWdtj4K0phNSkJPdxL/kAg=="
            }
          },
          {
            "validator_address": "96BDE45EC52606CF5CB59853097871AD60680549",
            "validator_index": "54",
            "height": "55584",
            "round": "1",
            "timestamp": "2018-08-03T03:58:13.571891424Z",
            "type": 2,
            "block_id": {
              "hash": "332827FE37D6ACE8E91066B7FFDF2B627E4936F7",
              "parts": {
                "total": "1",
                "hash": "7FAFE9D497E35EFA1659C863D9D8C2BDD9A4AB7E"
              }
            },
            "signature": {
              "type": "tendermint/SignatureEd25519",
              "value": "0eDZ9LQ4O2SqpwPwJPgUHlxlHqxEDg58mdJ8IWa/vsxqUnQTjm+4wFMG/1OoBclumHStjD6i5cw4n7Ajc5wnBQ=="
            }
          },
          {
            "validator_address": "970CD321881185BF83DB2923C321B0E75FDBB2B8",
            "validator_index": "55",
            "height": "55584",
            "round": "1",
            "timestamp": "2018-08-03T03:58:13.587879098Z",
            "type": 2,
            "block_id": {
              "hash": "332827FE37D6ACE8E91066B7FFDF2B627E4936F7",
              "parts": {
                "total": "1",
                "hash": "7FAFE9D497E35EFA1659C863D9D8C2BDD9A4AB7E"
              }
            },
            "signature": {
              "type": "tendermint/SignatureEd25519",
              "value": "0YFxRHwEzpUJqKWGxX4m9tj3AVbN+VtGSD85jgkUzTTYiHYC3HnAj2sRXrFqv+aizonUv8vDLtDkqSTHMhPWBA=="
            }
          },
          {
            "validator_address": "97DBB3D4B3D6C29287244864448F651DD5B07390",
            "validator_index": "56",
            "height": "55584",
            "round": "1",
            "timestamp": "2018-08-03T03:58:13.587796425Z",
            "type": 2,
            "block_id": {
              "hash": "332827FE37D6ACE8E91066B7FFDF2B627E4936F7",
              "parts": {
                "total": "1",
                "hash": "7FAFE9D497E35EFA1659C863D9D8C2BDD9A4AB7E"
              }
            },
            "signature": {
              "type": "tendermint/SignatureEd25519",
              "value": "EZSjqqkhT5SsnuHwfCMRXgjg1LiiDBWCpY0ap/Rg27C3PrMxtvg3XR0D0TmFKooUIkydbAflUU0mlGXGAr0FBg=="
            }
          },
          {
            "validator_address": "9C29C9B76D27586E4D9AD2AED0E943162645E55C",
            "validator_index": "57",
            "height": "55584",
            "round": "1",
            "timestamp": "2018-08-03T03:58:13.513681654Z",
            "type": 2,
            "block_id": {
              "hash": "332827FE37D6ACE8E91066B7FFDF2B627E4936F7",
              "parts": {
                "total": "1",
                "hash": "7FAFE9D497E35EFA1659C863D9D8C2BDD9A4AB7E"
              }
            },
            "signature": {
              "type": "tendermint/SignatureEd25519",
              "value": "byBPbjvkZeL9ZOzWZo23eQ+ZL109Ntn/LfA1/ZgI0oolcj8XS6aVpTyUcazQF9EIewIbkupEUvG3mbcmUhGZCA=="
            }
          },
          {
            "validator_address": "9D93AD02FE1BD7E76B9E58D7EB461088EAD011E5",
            "validator_index": "58",
            "height": "55584",
            "round": "1",
            "timestamp": "2018-08-03T03:58:13.497969422Z",
            "type": 2,
            "block_id": {
              "hash": "332827FE37D6ACE8E91066B7FFDF2B627E4936F7",
              "parts": {
                "total": "1",
                "hash": "7FAFE9D497E35EFA1659C863D9D8C2BDD9A4AB7E"
              }
            },
            "signature": {
              "type": "tendermint/SignatureEd25519",
              "value": "0+48UgOXEG+lk/6zisUYyy4gj8xNEsiWSc6Kz3y3aZ2/9ECoB8x1GHYOFJt8o2EiU36ruX3HBf2YtgVQh9/bCg=="
            }
          },
          {
            "validator_address": "A0A6466F4ABEA09C3B55E3709AFDE217A103209F",
            "validator_index": "59",
            "height": "55584",
            "round": "1",
            "timestamp": "2018-08-03T03:58:13.524112682Z",
            "type": 2,
            "block_id": {
              "hash": "332827FE37D6ACE8E91066B7FFDF2B627E4936F7",
              "parts": {
                "total": "1",
                "hash": "7FAFE9D497E35EFA1659C863D9D8C2BDD9A4AB7E"
              }
            },
            "signature": {
              "type": "tendermint/SignatureEd25519",
              "value": "lDro9DQPUqhCDiPQenIkw9xBe1uxQ6okQvbta98SxkNGOue6kxwVxCBAs4D3N9TXZLgywHfIw5PrJCzSk147BQ=="
            }
          },
          {
            "validator_address": "A5868971300F155020634D7BB49C7634F7AACCD3",
            "validator_index": "60",
            "height": "55584",
            "round": "1",
            "timestamp": "2018-08-03T03:58:13.567003094Z",
            "type": 2,
            "block_id": {
              "hash": "332827FE37D6ACE8E91066B7FFDF2B627E4936F7",
              "parts": {
                "total": "1",
                "hash": "7FAFE9D497E35EFA1659C863D9D8C2BDD9A4AB7E"
              }
            },
            "signature": {
              "type": "tendermint/SignatureEd25519",
              "value": "w2GPoeiyjgwSxUiXwU1lDIumRVZd2eYXiEweQu9m8MUcdRZZw4xGjtyX00AE77ccbvoO9g3kD4FcgY/mBmQcDg=="
            }
          },
          {
            "validator_address": "A6B3A5B5D982CFD7B5FDFA15CF5A720E7AE25E7F",
            "validator_index": "61",
            "height": "55584",
            "round": "1",
            "timestamp": "2018-08-03T03:58:14.033805845Z",
            "type": 2,
            "block_id": {
              "hash": "332827FE37D6ACE8E91066B7FFDF2B627E4936F7",
              "parts": {
                "total": "1",
                "hash": "7FAFE9D497E35EFA1659C863D9D8C2BDD9A4AB7E"
              }
            },
            "signature": {
              "type": "tendermint/SignatureEd25519",
              "value": "xMbx/lXd6fNrtWF9f5v6PsFmMdi/9TfQ8q9jszYHjjRRrlEGROoOlQSnNx0UiYD0M2upYy1NneZst7s2S1wTAw=="
            }
          },
          {
            "validator_address": "AC96444A9083890B7C7B430DB17BF1D3EA5EED04",
            "validator_index": "62",
            "height": "55584",
            "round": "1",
            "timestamp": "2018-08-03T03:58:13.667598616Z",
            "type": 2,
            "block_id": {
              "hash": "332827FE37D6ACE8E91066B7FFDF2B627E4936F7",
              "parts": {
                "total": "1",
                "hash": "7FAFE9D497E35EFA1659C863D9D8C2BDD9A4AB7E"
              }
            },
            "signature": {
              "type": "tendermint/SignatureEd25519",
              "value": "CmWXzy0xMh94BHfbfw5/Lho+yIbxcT2Wnk5rJsma6r8dvZhsyLRwrp6BaWc3MzXCgP8fXAwwHPdVFlPAe+HsDA=="
            }
          },
          {
            "validator_address": "B197425B3210375F211661DE02EF2AE36580EB0F",
            "validator_index": "63",
            "height": "55584",
            "round": "1",
            "timestamp": "2018-08-03T03:58:13.474537035Z",
            "type": 2,
            "block_id": {
              "hash": "332827FE37D6ACE8E91066B7FFDF2B627E4936F7",
              "parts": {
                "total": "1",
                "hash": "7FAFE9D497E35EFA1659C863D9D8C2BDD9A4AB7E"
              }
            },
            "signature": {
              "type": "tendermint/SignatureEd25519",
              "value": "cy4R/kJa32b6OnhW7AUFSTZ2DS+l8frnscxEzGboXZEpiJBuLRYuSR1pLM70s6dybixD7Jwz0RLkMEth8//kAA=="
            }
          },
          {
            "validator_address": "B45E54D2D1CB5A4CCD1D49016608C18E7C56B270",
            "validator_index": "64",
            "height": "55584",
            "round": "1",
            "timestamp": "2018-08-03T03:58:13.627398474Z",
            "type": 2,
            "block_id": {
              "hash": "332827FE37D6ACE8E91066B7FFDF2B627E4936F7",
              "parts": {
                "total": "1",
                "hash": "7FAFE9D497E35EFA1659C863D9D8C2BDD9A4AB7E"
              }
            },
            "signature": {
              "type": "tendermint/SignatureEd25519",
              "value": "X1wz9mQF71q2jjhUUovzgVqPqyDd5ih9FWPw/EKjgHF5yOvYpXfCVJ+/nt+MZWNwpmdM0f+dZjjwnJd4eq1yBw=="
            }
          },
          {
            "validator_address": "BB1276BE89834835428664408917649FEEF5D90C",
            "validator_index": "65",
            "height": "55584",
            "round": "1",
            "timestamp": "2018-08-03T03:58:13.579528213Z",
            "type": 2,
            "block_id": {
              "hash": "332827FE37D6ACE8E91066B7FFDF2B627E4936F7",
              "parts": {
                "total": "1",
                "hash": "7FAFE9D497E35EFA1659C863D9D8C2BDD9A4AB7E"
              }
            },
            "signature": {
              "type": "tendermint/SignatureEd25519",
              "value": "MsUD+rCo7IYmK/8XDcqk+kj9AFfHquzADTVS5nkMZdaa1RJ2gHkO6wxwPbvrVyEgk+SSv33EOo6R00zDD93kDQ=="
            }
          },
          {
            "validator_address": "BC36FEDD6EF6071118A3E51859DF3831A2EC4782",
            "validator_index": "66",
            "height": "55584",
            "round": "1",
            "timestamp": "2018-08-03T03:58:13.594219408Z",
            "type": 2,
            "block_id": {
              "hash": "332827FE37D6ACE8E91066B7FFDF2B627E4936F7",
              "parts": {
                "total": "1",
                "hash": "7FAFE9D497E35EFA1659C863D9D8C2BDD9A4AB7E"
              }
            },
            "signature": {
              "type": "tendermint/SignatureEd25519",
              "value": "uCD8E9DZwa5JcAqg0dSNPB3vP846ZW9L9ciZ8GKlgtfptzoyaNnedv8T2Z33tbfzTaOp/8QUpu2aBpujO65MBQ=="
            }
          },
          {
            "validator_address": "BD9D0DA513BF099DB4BB6E725A4E19832789882F",
            "validator_index": "67",
            "height": "55584",
            "round": "1",
            "timestamp": "2018-08-03T03:58:13.504594812Z",
            "type": 2,
            "block_id": {
              "hash": "332827FE37D6ACE8E91066B7FFDF2B627E4936F7",
              "parts": {
                "total": "1",
                "hash": "7FAFE9D497E35EFA1659C863D9D8C2BDD9A4AB7E"
              }
            },
            "signature": {
              "type": "tendermint/SignatureEd25519",
              "value": "IfGG87KlNc4abJWHvxWyaq4fyFxpYw86hB+lgb+5pSTvVWFvrS7NIE4vc2+lwJf95S2d3WWBa8sG3gax4BxfAw=="
            }
          },
          {
            "validator_address": "C1134A2FF8F7338E7CDB3FE57DDD2A655DEB1E22",
            "validator_index": "68",
            "height": "55584",
            "round": "1",
            "timestamp": "2018-08-03T03:58:13.655803989Z",
            "type": 2,
            "block_id": {
              "hash": "332827FE37D6ACE8E91066B7FFDF2B627E4936F7",
              "parts": {
                "total": "1",
                "hash": "7FAFE9D497E35EFA1659C863D9D8C2BDD9A4AB7E"
              }
            },
            "signature": {
              "type": "tendermint/SignatureEd25519",
              "value": "gCLBn5UgYDXPY1ypuPKN7eL65k4RuoebX8b2FixGzyYfjlYbOPFG7YeCRijV1oEf8fO7WgASE+hHfGK4vRCqDA=="
            }
          },
          {
            "validator_address": "C39A8A2B85198DCB8F23AD1F6C198E2BA7AB5D60",
            "validator_index": "69",
            "height": "55584",
            "round": "1",
            "timestamp": "2018-08-03T03:58:13.545487016Z",
            "type": 2,
            "block_id": {
              "hash": "332827FE37D6ACE8E91066B7FFDF2B627E4936F7",
              "parts": {
                "total": "1",
                "hash": "7FAFE9D497E35EFA1659C863D9D8C2BDD9A4AB7E"
              }
            },
            "signature": {
              "type": "tendermint/SignatureEd25519",
              "value": "RwhY8RbUoRpqOX6KNCEUXssCj3oZkXMnoNn6/9mgBTxjAKS74EWRPYM6Ft3KyAVSZDXbhZGJFLHbSS2x9LxkDg=="
            }
          },
          {
            "validator_address": "C4335190C3B5BD4BA5568BC0F99C34162D940D08",
            "validator_index": "70",
            "height": "55584",
            "round": "1",
            "timestamp": "2018-08-03T03:58:13.609751229Z",
            "type": 2,
            "block_id": {
              "hash": "332827FE37D6ACE8E91066B7FFDF2B627E4936F7",
              "parts": {
                "total": "1",
                "hash": "7FAFE9D497E35EFA1659C863D9D8C2BDD9A4AB7E"
              }
            },
            "signature": {
              "type": "tendermint/SignatureEd25519",
              "value": "uU0KyyneX8FK6FeSX7p+ifx0zPO4cE8JPttgBWtgUW9NyldVq6/g+iSXaqz3KF/+DRGQ/o86MDrYV17zzftEBQ=="
            }
          },
          {
            "validator_address": "C561CFA081677046376396922E7576E5F7B316AD",
            "validator_index": "71",
            "height": "55584",
            "round": "1",
            "timestamp": "2018-08-03T03:58:13.642246031Z",
            "type": 2,
            "block_id": {
              "hash": "332827FE37D6ACE8E91066B7FFDF2B627E4936F7",
              "parts": {
                "total": "1",
                "hash": "7FAFE9D497E35EFA1659C863D9D8C2BDD9A4AB7E"
              }
            },
            "signature": {
              "type": "tendermint/SignatureEd25519",
              "value": "4B5Om7TOgnBOCcZgZ0CDrhYEoMMT8SKOpZ4CUbVt6HznIRVEfgBZgYGM89J8xXMXIrVfeOy34D3d9H0U+NRDAg=="
            }
          },
          {
            "validator_address": "CEB97DB5CB18270247ABDE6CF2F84F9AEE8A2904",
            "validator_index": "72",
            "height": "55584",
            "round": "1",
            "timestamp": "2018-08-03T03:58:14.963905096Z",
            "type": 2,
            "block_id": {
              "hash": "332827FE37D6ACE8E91066B7FFDF2B627E4936F7",
              "parts": {
                "total": "1",
                "hash": "7FAFE9D497E35EFA1659C863D9D8C2BDD9A4AB7E"
              }
            },
            "signature": {
              "type": "tendermint/SignatureEd25519",
              "value": "tNOrGvVqWTO3Ovj3QCsg/QjVV65ShEWNKBEWL9hX8x14I9hy6OX2RFSoHksik2j2aOp8jcRgaVK9o3U19c9LBw=="
            }
          },
          {
            "validator_address": "D2134B826A1E25A955905CB79A4D8731CAFA0CCE",
            "validator_index": "73",
            "height": "55584",
            "round": "1",
            "timestamp": "2018-08-03T03:58:13.606156787Z",
            "type": 2,
            "block_id": {
              "hash": "332827FE37D6ACE8E91066B7FFDF2B627E4936F7",
              "parts": {
                "total": "1",
                "hash": "7FAFE9D497E35EFA1659C863D9D8C2BDD9A4AB7E"
              }
            },
            "signature": {
              "type": "tendermint/SignatureEd25519",
              "value": "Q1T04obPiyB9Aolb1ZpRMprB+sPTCgXZQ4vdOjZQPYb4Z0JUXm+YiD5H3Px+dPuKjkmdEaKHlwBlnTEBLHSfBA=="
            }
          },
          {
            "validator_address": "D6285C3422C8886445D53757CBE12D2B91B5A9D0",
            "validator_index": "74",
            "height": "55584",
            "round": "1",
            "timestamp": "2018-08-03T03:57:57.254463099Z",
            "type": 2,
            "block_id": {
              "hash": "332827FE37D6ACE8E91066B7FFDF2B627E4936F7",
              "parts": {
                "total": "1",
                "hash": "7FAFE9D497E35EFA1659C863D9D8C2BDD9A4AB7E"
              }
            },
            "signature": {
              "type": "tendermint/SignatureEd25519",
              "value": "tKjMMQBVRXhpr5a9nz+vRNdB2uaC8IsdfzHBY4WLKPbqr1YbRGII80KnMjWa+NqhYhjtc8rGHfDP+x1DZXNQDQ=="
            }
          },
          {
            "validator_address": "D77FB84A729972CD3E757C9BEB61561855832B92",
            "validator_index": "75",
            "height": "55584",
            "round": "1",
            "timestamp": "2018-08-03T03:58:13.671572668Z",
            "type": 2,
            "block_id": {
              "hash": "332827FE37D6ACE8E91066B7FFDF2B627E4936F7",
              "parts": {
                "total": "1",
                "hash": "7FAFE9D497E35EFA1659C863D9D8C2BDD9A4AB7E"
              }
            },
            "signature": {
              "type": "tendermint/SignatureEd25519",
              "value": "2wbP4TleqZrrUIjYekrAierHhcWZtA4OgPWTbz1L/BqR/+rzsRU7N1YwmGSFMhXceiRyj9RO1vyC4Ve8tZgPAg=="
            }
          },
          {
            "validator_address": "DB7E6732471D3EA5C90C17A9974D9F88AB45F2FB",
            "validator_index": "76",
            "height": "55584",
            "round": "1",
            "timestamp": "2018-08-03T03:58:13.541841814Z",
            "type": 2,
            "block_id": {
              "hash": "332827FE37D6ACE8E91066B7FFDF2B627E4936F7",
              "parts": {
                "total": "1",
                "hash": "7FAFE9D497E35EFA1659C863D9D8C2BDD9A4AB7E"
              }
            },
            "signature": {
              "type": "tendermint/SignatureEd25519",
              "value": "w4wJs/B/7KEBIrdC0bh4gR/lG2WJgzN67FDJXF3HiIQaiOhn4XA/J0QlN6ZqSNWJwsNcFZ2zvg7ZmVF/kw0TCQ=="
            }
          },
          {
            "validator_address": "DF54B862410BCD9B5C516FBB6C56BDC826ED6FA7",
            "validator_index": "77",
            "height": "55584",
            "round": "1",
            "timestamp": "2018-08-03T03:58:13.751453129Z",
            "type": 2,
            "block_id": {
              "hash": "332827FE37D6ACE8E91066B7FFDF2B627E4936F7",
              "parts": {
                "total": "1",
                "hash": "7FAFE9D497E35EFA1659C863D9D8C2BDD9A4AB7E"
              }
            },
            "signature": {
              "type": "tendermint/SignatureEd25519",
              "value": "Mu9b07BLIybmfGSThPE/fMrOdpf9nplwSxCJf4KBnmqQA22DntfXiKmWQ35DSbUw4EwZ2ZJPSAH1AoEKhx+ICA=="
            }
          },
          {
            "validator_address": "DFAF0C8B1B78D6D552B0189DE3ACA351439A1319",
            "validator_index": "78",
            "height": "55584",
            "round": "1",
            "timestamp": "2018-08-03T03:58:13.478074114Z",
            "type": 2,
            "block_id": {
              "hash": "332827FE37D6ACE8E91066B7FFDF2B627E4936F7",
              "parts": {
                "total": "1",
                "hash": "7FAFE9D497E35EFA1659C863D9D8C2BDD9A4AB7E"
              }
            },
            "signature": {
              "type": "tendermint/SignatureEd25519",
              "value": "tcy76epD7L+xoRt8LMlHlhgPsadEgLZxpJx6B3i5mEu6Isy6y9+P5EipLrWZUeif32Sx6PPkaCSYXv01Y28OCQ=="
            }
          },
          {
            "validator_address": "E1DBC77881161A5A3A8536A57536EAE546A75D69",
            "validator_index": "79",
            "height": "55584",
            "round": "1",
            "timestamp": "2018-08-03T03:58:13.493839675Z",
            "type": 2,
            "block_id": {
              "hash": "332827FE37D6ACE8E91066B7FFDF2B627E4936F7",
              "parts": {
                "total": "1",
                "hash": "7FAFE9D497E35EFA1659C863D9D8C2BDD9A4AB7E"
              }
            },
            "signature": {
              "type": "tendermint/SignatureEd25519",
              "value": "ieGzCIvffTOk59Gt/CuxcVpilFY4VIk6nFfbo+g10VFYaVudcBwViE2ZhePF1SRuDcFFV5xKzjH0NiF98Q37AQ=="
            }
          },
          {
            "validator_address": "E300E9D484374C1D3E97C1D93CAC3B160A056298",
            "validator_index": "80",
            "height": "55584",
            "round": "1",
            "timestamp": "2018-08-03T03:58:13.803831665Z",
            "type": 2,
            "block_id": {
              "hash": "332827FE37D6ACE8E91066B7FFDF2B627E4936F7",
              "parts": {
                "total": "1",
                "hash": "7FAFE9D497E35EFA1659C863D9D8C2BDD9A4AB7E"
              }
            },
            "signature": {
              "type": "tendermint/SignatureEd25519",
              "value": "Z6lWddBh/VKY+CLPn7FXqUAUbWR40l/1SlsGCINHDxi5uRGazDk72cAQg1qfu1+ycQn1z/RTiUjsEbqxby9yDw=="
            }
          },
          {
            "validator_address": "E39B5778E0D4297A46F45CF6940B0A163A430FF8",
            "validator_index": "81",
            "height": "55584",
            "round": "1",
            "timestamp": "2018-08-03T03:58:13.609008905Z",
            "type": 2,
            "block_id": {
              "hash": "332827FE37D6ACE8E91066B7FFDF2B627E4936F7",
              "parts": {
                "total": "1",
                "hash": "7FAFE9D497E35EFA1659C863D9D8C2BDD9A4AB7E"
              }
            },
            "signature": {
              "type": "tendermint/SignatureEd25519",
              "value": "/qX0sM8nY/0bJ+89XC/S36hvuMmgFvch6MbJtLi5IEqxyBMAvX8/Eix3Zd4luGZn/scexY2eC6MlLoBFKVqBDA=="
            }
          },
          {
            "validator_address": "E3B19738F7132F950668504D326C7660F159D170",
            "validator_index": "82",
            "height": "55584",
            "round": "1",
            "timestamp": "2018-08-03T03:58:13.511681473Z",
            "type": 2,
            "block_id": {
              "hash": "332827FE37D6ACE8E91066B7FFDF2B627E4936F7",
              "parts": {
                "total": "1",
                "hash": "7FAFE9D497E35EFA1659C863D9D8C2BDD9A4AB7E"
              }
            },
            "signature": {
              "type": "tendermint/SignatureEd25519",
              "value": "wHZuS2Qxrj+sbdXqA+pXlP72FSvWV09XkLWstMk8uOsPr/scZksMIPbYzD/FJcCx+x+gW/LT058TAaYMuS24Cg=="
            }
          },
          {
            "validator_address": "E42F8AEABB685219F7027F54D2B0DBC7846F633A",
            "validator_index": "83",
            "height": "55584",
            "round": "1",
            "timestamp": "2018-08-03T03:58:12.368680042Z",
            "type": 2,
            "block_id": {
              "hash": "332827FE37D6ACE8E91066B7FFDF2B627E4936F7",
              "parts": {
                "total": "1",
                "hash": "7FAFE9D497E35EFA1659C863D9D8C2BDD9A4AB7E"
              }
            },
            "signature": {
              "type": "tendermint/SignatureEd25519",
              "value": "GPDoJC23Sa6dEW8jxiFglCI3Bv4MwZps06bpE7pvLhgbswWT7WbhImrDiR0zFWyhyBSd3OFoDyb2IwQOgGK7Bg=="
            }
          },
          {
            "validator_address": "E4E6C2E81269DFFA196C17F98240E491479A6008",
            "validator_index": "84",
            "height": "55584",
            "round": "1",
            "timestamp": "2018-08-03T03:58:13.638993624Z",
            "type": 2,
            "block_id": {
              "hash": "332827FE37D6ACE8E91066B7FFDF2B627E4936F7",
              "parts": {
                "total": "1",
                "hash": "7FAFE9D497E35EFA1659C863D9D8C2BDD9A4AB7E"
              }
            },
            "signature": {
              "type": "tendermint/SignatureEd25519",
              "value": "V8y+IBjrnLAATOhm1SVDESar7M6pHYtfB4SzEjPaa6QSnY3uQxi7f+OXHMGxMFrX6kwg6sGz5C0l+QYNstSzDQ=="
            }
          },
          {
            "validator_address": "E50ADECD5FD27FA2CD610C07F8AED36A2FC4A6A6",
            "validator_index": "85",
            "height": "55584",
            "round": "1",
            "timestamp": "2018-08-03T03:58:13.522425923Z",
            "type": 2,
            "block_id": {
              "hash": "332827FE37D6ACE8E91066B7FFDF2B627E4936F7",
              "parts": {
                "total": "1",
                "hash": "7FAFE9D497E35EFA1659C863D9D8C2BDD9A4AB7E"
              }
            },
            "signature": {
              "type": "tendermint/SignatureEd25519",
              "value": "R52Me4EZTMLJgJJ3Ic1jv0B6TuMeky673GRpoEpq/zHHFXFAU+uJy1aUYpeadfVqUftMBTS6tR95BcIykRQyBw=="
            }
          },
          {
            "validator_address": "E6A7079D584B163750BE0831227F6B685DEAF3C1",
            "validator_index": "86",
            "height": "55584",
            "round": "1",
            "timestamp": "2018-08-03T03:58:13.718189597Z",
            "type": 2,
            "block_id": {
              "hash": "332827FE37D6ACE8E91066B7FFDF2B627E4936F7",
              "parts": {
                "total": "1",
                "hash": "7FAFE9D497E35EFA1659C863D9D8C2BDD9A4AB7E"
              }
            },
            "signature": {
              "type": "tendermint/SignatureEd25519",
              "value": "S11AQdPVF8C0WDI2FA+qsrWhrs6Ma+c2SooQ4ZfN2CDInwlO79GE9gWlbwKPIM6WXX/01WUGePw4efoa4TZVCQ=="
            }
          },
          {
            "validator_address": "E7A30077D5D11867D3EAF99ED45BFDC1EB834509",
            "validator_index": "87",
            "height": "55584",
            "round": "1",
            "timestamp": "2018-08-03T03:58:13.540602612Z",
            "type": 2,
            "block_id": {
              "hash": "332827FE37D6ACE8E91066B7FFDF2B627E4936F7",
              "parts": {
                "total": "1",
                "hash": "7FAFE9D497E35EFA1659C863D9D8C2BDD9A4AB7E"
              }
            },
            "signature": {
              "type": "tendermint/SignatureEd25519",
              "value": "6gHoJendYGT8+r6nCkZPVjuTdhMpkaAbFz3CayqsBd+ST5gqtR1jAHxOD6AT85fors60LDFIrH8OVhcv6VcbDA=="
            }
          },
          {
            "validator_address": "EBC613967F66F4EC306852CDF58B4F151CF16738",
            "validator_index": "88",
            "height": "55584",
            "round": "1",
            "timestamp": "2018-08-03T03:58:13.65956278Z",
            "type": 2,
            "block_id": {
              "hash": "332827FE37D6ACE8E91066B7FFDF2B627E4936F7",
              "parts": {
                "total": "1",
                "hash": "7FAFE9D497E35EFA1659C863D9D8C2BDD9A4AB7E"
              }
            },
            "signature": {
              "type": "tendermint/SignatureEd25519",
              "value": "A73DdeqYzkdT6vzs6KTJngExdzdjjYQj0omZQD2vdefMI+w96WLm5W9CNoSzkfJLtPwff/K+v5uIqtSKIHqbDA=="
            }
          },
          {
            "validator_address": "EC3401441726C40ECC7E51F744483B05BC6DE9BD",
            "validator_index": "89",
            "height": "55584",
            "round": "1",
            "timestamp": "2018-08-03T03:58:13.566168658Z",
            "type": 2,
            "block_id": {
              "hash": "332827FE37D6ACE8E91066B7FFDF2B627E4936F7",
              "parts": {
                "total": "1",
                "hash": "7FAFE9D497E35EFA1659C863D9D8C2BDD9A4AB7E"
              }
            },
            "signature": {
              "type": "tendermint/SignatureEd25519",
              "value": "6WIhDRr/q+IASxWeGzwSUJg40rBZfKVBGqOLFxY14eH3rSMvKKA6EcaubMXYnrwGcwTLFAdBacXVBidhDAVTCA=="
            }
          },
          {
            "validator_address": "EC95B111D032181E1EC3B5E8875C5BB8E4AE7140",
            "validator_index": "90",
            "height": "55584",
            "round": "1",
            "timestamp": "2018-08-03T03:58:13.522249897Z",
            "type": 2,
            "block_id": {
              "hash": "332827FE37D6ACE8E91066B7FFDF2B627E4936F7",
              "parts": {
                "total": "1",
                "hash": "7FAFE9D497E35EFA1659C863D9D8C2BDD9A4AB7E"
              }
            },
            "signature": {
              "type": "tendermint/SignatureEd25519",
              "value": "qZ3aIGqp9b51xEtWpNgFziG0rWDivcrUc3pWL3rWmZpoKX38Hft7ADTRzF7hiF9QvOw5EH4QhPMrQgfNzKymDg=="
            }
          },
          {
            "validator_address": "F13C1805E8131C9B47E2A46818F57D8A2841E578",
            "validator_index": "91",
            "height": "55584",
            "round": "1",
            "timestamp": "2018-08-03T03:58:13.684720139Z",
            "type": 2,
            "block_id": {
              "hash": "332827FE37D6ACE8E91066B7FFDF2B627E4936F7",
              "parts": {
                "total": "1",
                "hash": "7FAFE9D497E35EFA1659C863D9D8C2BDD9A4AB7E"
              }
            },
            "signature": {
              "type": "tendermint/SignatureEd25519",
              "value": "2OqxMyTr+tOETUQ7ZSOMU2sSJHv1nXWPSh/q/Tq2a6O53gv0UQJ80AY0WK5DuNVaDBCkGzH7esbHepziQfeMAg=="
            }
          },
          {
            "validator_address": "F23FF36BD5B90C33CE3A03ED72DBDCF5EC07D6AF",
            "validator_index": "92",
            "height": "55584",
            "round": "1",
            "timestamp": "2018-08-03T03:58:13.603812337Z",
            "type": 2,
            "block_id": {
              "hash": "332827FE37D6ACE8E91066B7FFDF2B627E4936F7",
              "parts": {
                "total": "1",
                "hash": "7FAFE9D497E35EFA1659C863D9D8C2BDD9A4AB7E"
              }
            },
            "signature": {
              "type": "tendermint/SignatureEd25519",
              "value": "8PtujZN7PWHCjh+fwSWu8JHmQbY8Ns9gwcmTYiHCJCkdDdhazke26P0Q65tSy71WZB3PjlKe66ztg/kvipPQDg=="
            }
          },
          {
            "validator_address": "F4268597DE93E3E2CED38845010F8AA34E2A879E",
            "validator_index": "93",
            "height": "55584",
            "round": "1",
            "timestamp": "2018-08-03T03:58:13.633695838Z",
            "type": 2,
            "block_id": {
              "hash": "332827FE37D6ACE8E91066B7FFDF2B627E4936F7",
              "parts": {
                "total": "1",
                "hash": "7FAFE9D497E35EFA1659C863D9D8C2BDD9A4AB7E"
              }
            },
            "signature": {
              "type": "tendermint/SignatureEd25519",
              "value": "UMSwbffhCUsxUiESYvtYet5uwis4GYfS85TV8uMiZElcMXK2nbTX7zoNDwqzGC1ynf7sl4IGIRaJbNWVlZlZBA=="
            }
          },
          {
            "validator_address": "F4DEB417999B04BE2EFF9FFE03FA373D86011CC0",
            "validator_index": "94",
            "height": "55584",
            "round": "1",
            "timestamp": "2018-08-03T03:58:13.588430719Z",
            "type": 2,
            "block_id": {
              "hash": "332827FE37D6ACE8E91066B7FFDF2B627E4936F7",
              "parts": {
                "total": "1",
                "hash": "7FAFE9D497E35EFA1659C863D9D8C2BDD9A4AB7E"
              }
            },
            "signature": {
              "type": "tendermint/SignatureEd25519",
              "value": "t94dIXpg7xA5zgrULke9zk7oBpKgvgNA9/78a5irondRwQlQC/jEPdwlniq4IlcPklsDkH3MH+okksZK0EcdCQ=="
            }
          },
          {
            "validator_address": "F6738260186D33D9C14FC6E7017AFE6BB952A63D",
            "validator_index": "95",
            "height": "55584",
            "round": "1",
            "timestamp": "2018-08-03T03:58:13.548033057Z",
            "type": 2,
            "block_id": {
              "hash": "332827FE37D6ACE8E91066B7FFDF2B627E4936F7",
              "parts": {
                "total": "1",
                "hash": "7FAFE9D497E35EFA1659C863D9D8C2BDD9A4AB7E"
              }
            },
            "signature": {
              "type": "tendermint/SignatureEd25519",
              "value": "grN8hfjfducysn+DGKYmGWqA/iX2G3VXfQrsdDWRFVoHK0AUraf/9sHtrtb1XJDiYB34p2uya+8+hnec8wMpDw=="
            }
          },
          {
            "validator_address": "FD8D304F0278229077114B05BED9DABD382D49D8",
            "validator_index": "96",
            "height": "55584",
            "round": "1",
            "timestamp": "2018-08-03T03:58:13.656682956Z",
            "type": 2,
            "block_id": {
              "hash": "332827FE37D6ACE8E91066B7FFDF2B627E4936F7",
              "parts": {
                "total": "1",
                "hash": "7FAFE9D497E35EFA1659C863D9D8C2BDD9A4AB7E"
              }
            },
            "signature": {
              "type": "tendermint/SignatureEd25519",
              "value": "ReiEs5/2aWaDabusbBOaRpm7U1iWnh951t3jMG5R0q8u20FSs5cyAYHIXW9QGkfAGGHWWZTyAkP2ibNpNyOhBQ=="
            }
          },
          {
            "validator_address": "FF3F3FCBCE7E62D7AD5506FF846EC4518D980515",
            "validator_index": "97",
            "height": "55584",
            "round": "1",
            "timestamp": "2018-08-03T03:58:13.504327508Z",
            "type": 2,
            "block_id": {
              "hash": "332827FE37D6ACE8E91066B7FFDF2B627E4936F7",
              "parts": {
                "total": "1",
                "hash": "7FAFE9D497E35EFA1659C863D9D8C2BDD9A4AB7E"
              }
            },
            "signature": {
              "type": "tendermint/SignatureEd25519",
              "value": "6/oVXNHgK/XPK6In1JxGhJpMn+M5mb7zwIRvjL4Vc/kL2dhaugglSXSiUYCFDttcRSS3fAD+TryN+M6KzMQODA=="
            }
          }
        ]
      }
    },
    "canonical": true
  }
}