{
  "jsonrpc": "2.0",
  "id": "",
  "result": {
    "SignedHeader": {
      "header": {
        "chain_id": "gaia-7004",
        "height": "55690",
        "time": "2018-08-03T04:08:59.601214605Z",
        "num_txs": "0",
        "last_block_id": {
          "hash": "AF42EA7F6EE5F31C79C2253DF36127F73E9F5BFB",
          "parts": {
            "total": "1",
            "hash": "4EB55070AE4E0CCB65403C1A1503CFEF08FA5475"
          }
        },
        "total_txs": "2408",
        "last_commit_hash": "0C3B320BF57ED954547482581B69D9E59D9FE8EB",
        "data_hash": "",
        "validators_hash": "47A519E3F3F52235135B01171458D409B61BEA3C",
        "consensus_hash": "D6B74BB35BDFFD8392340F2A379173548AE188FE",
        "app_hash": "7A1FD076939FAF96AB1B162DB1554639FBBE8826",
        "last_results_hash": "",
        "evidence_hash": ""
      },
      "commit": {
        "block_id": {
          "hash": "5EBDAF9E72ADFEB5A6BF17E06BB752527131020E",
          "parts": {
            "total": "1",
            "hash": "07261FCC26E8FBDEABE44F832DA4FC6B4A7BD67B"
          }
        },
        "precommits": [
          {
            "validator_address": "029359C0C768096273A68ABC902A6B17AC8D1D70",
            "validator_index": "0",
            "height": "55690",
            "round": "0",
            "timestamp": "2018-08-03T04:09:00.356846122Z",
            "type": 2,
            "block_id": {
              "hash": "5EBDAF9E72ADFEB5A6BF17E06BB752527131020E",
              "parts": {
                "total": "1",
                "hash": "07261FCC26E8FBDEABE44F832DA4FC6B4A7BD67B"
              }
            },
            "signature": {
              "type": "tendermint/SignatureEd25519",
              "value": "0CZLD9YTzymweIxPCyKNcnVDhoqwopjHOmIqwUmHvz/xoXVf6K0vKHo770MGkpiSCwJy4toeNOvVORHpkk1CBQ=="
            }
          },
          {
            "validator_address": "02FE4B97A8387F39D1AC19E0C1702B3CC614812F",
            "validator_index": "1",
            "height": "55690",
            "round": "0",
            "timestamp": "2018-08-03T04:09:00.418442352Z",
            "type": 2,
            "block_id": {
              "hash": "5EBDAF9E72ADFEB5A6BF17E06BB752527131020E",
              "parts": {
                "total": "1",
                "hash": "07261FCC26E8FBDEABE44F832DA4FC6B4A7BD67B"
              }
            },
            "signature": {
              "type": "tendermint/SignatureEd25519",
              "value": "RWJL+pZYl2sY0ZSgCSB+EonK/KeCZNB8i5UWe5QiLfE0QSJQET1NUkL398zIoynNtX9BrX2k7pi2eXGGfa8eCg=="
            }
          },
          {
            "validator_address": "0548261C50222FD710EB5EBDF03A0E6567B21D20",
            "validator_index": "2",
            "height": "55690",
            "round": "0",
            "timestamp": "2018-08-03T04:09:00.468265027Z",
            "type": 2,
            "block_id": {
              "hash": "5EBDAF9E72ADFEB5A6BF17E06BB752527131020E",
              "parts": {
                "total": "1",
                "hash": "07261FCC26E8FBDEABE44F832DA4FC6B4A7BD67B"
              }
            },
            "signature": {
              "type": "tendermint/SignatureEd25519",
              "value": "Km02p92gWg+FGJZ4H83Ym519s7GDW7wnyhOUo+g0AJXJC8IETfxyTw8Hpu19oRBP8wvHrvkfrUWkOoZC0n28Cw=="
            }
          },
          {
            "validator_address": "0665ADBF9B120B7617BF955AA5653A1992C82B11",
            "validator_index": "3",
            "height": "55690",
            "round": "0",
            "timestamp": "2018-08-03T04:09:00.389623256Z",
            "type": 2,
            "block_id": {
              "hash": "5EBDAF9E72ADFEB5A6BF17E06BB752527131020E",
              "parts": {
                "total": "1",
                "hash": "07261FCC26E8FBDEABE44F832DA4FC6B4A7BD67B"
              }
            },
            "signature": {
              "type": "tendermint/SignatureEd25519",
              "value": "PwrgSJKzAUB3M9dSdEBKynRiEwZXi8h2w4ch8+3hxCyjbyENLPCF1R5yLMoP+OnP1dGunWcAnXIP0pzUxJdsAQ=="
            }
          },
          {
            "validator_address": "09145E611CC27EEB944FC5A956DDF710F943B9EF",
            "validator_index": "4",
            "height": "55690",
            "round": "0",
            "timestamp": "2018-08-03T04:09:00.443458849Z",
            "type": 2,
            "block_id": {
              "hash": "5EBDAF9E72ADFEB5A6BF17E06BB752527131020E",
              "parts": {
                "total": "1",
                "hash": "07261FCC26E8FBDEABE44F832DA4FC6B4A7BD67B"
              }
            },
            "signature": {
              "type": "tendermint/SignatureEd25519",
              "value": "+ZCgbH8QxwqQloEgxrgCyjySn7SYxg9pWHjHs/1heedbrg//UL/bojDs3Qj/ujagzxYgCqlsU/YCmMDrpOBCBQ=="
            }
          },
          {
            "validator_address": "0989D0355A104B67AE0AE028C68FB610690E174B",
            "validator_index": "5",
            "height": "55690",
            "round": "0",
            "timestamp": "2018-08-03T04:09:00.422136461Z",
            "type": 2,
            "block_id": {
              "hash": "5EBDAF9E72ADFEB5A6BF17E06BB752527131020E",
              "parts": {
                "total": "1",
                "hash": "07261FCC26E8FBDEABE44F832DA4FC6B4A7BD67B"
              }
            },
            "signature": {
              "type": "tendermint/SignatureEd25519",
              "value": "bSTbqJ8WpzScUY/U/rgB1WCg06kVuhd5vizV22aSxPO/KGFHuS03kiGDceGuL7hGwwseqBbrXvNJQ+2IYOFODA=="
            }
          },
          {
            "validator_address": "0A692DBFFE9E5DD28E7DECC33CED1AEB4C0D014E",
            "validator_index": "6",
            "height": "55690",
            "round": "0",
            "timestamp": "2018-08-03T04:09:00.508847334Z",
            "type": 2,
            "block_id": {
              "hash": "5EBDAF9E72ADFEB5A6BF17E06BB752527131020E",
              "parts": {
                "total": "1",
                "hash": "07261FCC26E8FBDEABE44F832DA4FC6B4A7BD67B"
              }
            },
            "signature": {
              "type": "tendermint/SignatureEd25519",
              "value": "eu1e9ZeOgpFAZ7vYRfpfG49tAlWFqBLbJrhztW5xafSn83oAnIESyKkHKojwvKVmcovMjDK67GAZvb9xu/sMCw=="
            }
          },
          {
            "validator_address": "1751786EFC085D5331C61168FFFC8202EA151B4E",
            "validator_index": "7",
            "height": "55690",
            "round": "0",
            "timestamp": "2018-08-03T04:09:00.163875922Z",
            "type": 2,
            "block_id": {
              "hash": "5EBDAF9E72ADFEB5A6BF17E06BB752527131020E",
              "parts": {
                "total": "1",
                "hash": "07261FCC26E8FBDEABE44F832DA4FC6B4A7BD67B"
              }
            },
            "signature": {
              "type": "tendermint/SignatureEd25519",
              "value": "6NiU+Y6Rl/waNvIVLWI0VnSgubdDt6HPIS3oGJyc7L1Zajar9KF389IS5/mfSAEbWiZiTKf+2v3wZ3c64TfeDw=="
            }
          },
          {
            "validator_address": "17BB5CD01E8940FAFB948A04D5FA5A0645E5822E",
            "validator_index": "8",
            "height": "55690",
            "round": "0",
            "timestamp": "2018-08-03T04:09:00.35614639Z",
            "type": 2,
            "block_id": {
              "hash": "5EBDAF9E72ADFEB5A6BF17E06BB752527131020E",
              "parts": {
                "total": "1",
                "hash": "07261FCC26E8FBDEABE44F832DA4FC6B4A7BD67B"
              }
            },
            "signature": {
              "type": "tendermint/SignatureEd25519",
              "value": "bThBuvamC2qvNpBZGjQ0e0RmUCbu6ovfj6CA+7Ko6X7yJwc75O8HVMeGkLe+mbnkN96FCXux3LvuRvZJSt/bAg=="
            }
          },
          {
            "validator_address": "1C683A87904BC38F05004FE83301A3A3E35447EB",
            "validator_index": "9",
            "height": "55690",
            "round": "0",
            "timestamp": "2018-08-03T04:09:00.406073329Z",
            "type": 2,
            "block_id": {
              "hash": "5EBDAF9E72ADFEB5A6BF17E06BB752527131020E",
              "parts": {
                "total": "1",
                "hash": "07261FCC26E8FBDEABE44F832DA4FC6B4A7BD67B"
              }
            },
            "signature": {
              "type": "tendermint/SignatureEd25519",
              "value": "MTgRljCaWbRSSGE/t7niQilxn9q8ehiYKg+nnRvZCGeHX55hyJ1vVPeCT5eV/v9VbdhtYNhMTH/A7ugafwtyAA=="
            }
          },
          {
            "validator_address": "1E9CE94FD0BA5CFEB901F90BC658D64D85B134D2",
            "validator_index": "10",
            "height": "55690",
            "round": "0",
            "timestamp": "2018-08-03T04:09:00.452873717Z",
            "type": 2,
            "block_id": {
              "hash": "5EBDAF9E72ADFEB5A6BF17E06BB752527131020E",
              "parts": {
                "total": "1",
                "hash": "07261FCC26E8FBDEABE44F832DA4FC6B4A7BD67B"
              }
            },
            "signature": {
              "type": "tendermint/SignatureEd25519",
              "value": "IS8CVqrEAMMISMgwAeX93EeoFEnZw6yRKBFugeVtec1/hem2s3Ea83C7IHJSrY3mzCpjao6C28UOFDJ4wzzyDw=="
            }
          },
          {
            "validator_address": "1ECD8C5FE1341D74CDC633A245DD56858DE2F9A2",
            "validator_index": "11",
            "height": "55690",
            "round": "0",
            "timestamp": "2018-08-03T04:09:00.512339303Z",
            "type": 2,
            "block_id": {
              "hash": "5EBDAF9E72ADFEB5A6BF17E06BB752527131020E",
              "parts": {
                "total": "1",
                "hash": "07261FCC26E8FBDEABE44F832DA4FC6B4A7BD67B"
              }
            },
            "signature": {
              "type": "tendermint/SignatureEd25519",
              "value": "CXW69KGHniw7j9H7TahlfLLdJpipsBzMJPCCLAkLLCTpRl8E2bGle0iVvQYb8NNvJPGteStOH+/r87SpGPyIAg=="
            }
          },
          {
            "validator_address": "1F3A68CAAD483768AA2BF667DEF10F7104C89928",
            "validator_index": "12",
            "height": "55690",
            "round": "0",
            "timestamp": "2018-08-03T04:09:00.427965223Z",
            "type": 2,
            "block_id": {
              "hash": "5EBDAF9E72ADFEB5A6BF17E06BB752527131020E",
              "parts": {
                "total": "1",
                "hash": "07261FCC26E8FBDEABE44F832DA4FC6B4A7BD67B"
              }
            },
            "signature": {
              "type": "tendermint/SignatureEd25519",
              "value": "l7vvyVu3NB86Se585Ed9r+7n5SvdVgcsyxgxC+w2ZEfsGNR/77j9uUsG5dbehD416+FjlAbYB9bPhkdzc/T1Cw=="
            }
          },
          {
            "validator_address": "1F61153F26C2DF27E15874268D30326287323352",
            "validator_index": "13",
            "height": "55690",
            "round": "0",
            "timestamp": "2018-08-03T04:09:00.437034473Z",
            "type": 2,
            "block_id": {
              "hash": "5EBDAF9E72ADFEB5A6BF17E06BB752527131020E",
              "parts": {
                "total": "1",
                "hash": "07261FCC26E8FBDEABE44F832DA4FC6B4A7BD67B"
              }
            },
            "signature": {
              "type": "tendermint/SignatureEd25519",
              "value": "QpLzEk6uW9QVuYKIJ4uN+KKNA2uQFXuikkhv6jji7Mqa2lKWidp01h0nrkNkk9yyvCKBLffxcn0P3ottlGXOAA=="
            }
          },
          {
            "validator_address": "23897586D68E2AC1C78E0EF5BB5DF5C8EAB18F50",
            "validator_index": "14",
            "height": "55690",
            "round": "0",
            "timestamp": "2018-08-03T04:09:00.435286873Z",
            "type": 2,
            "block_id": {
              "hash": "5EBDAF9E72ADFEB5A6BF17E06BB752527131020E",
              "parts": {
                "total": "1",
                "hash": "07261FCC26E8FBDEABE44F832DA4FC6B4A7BD67B"
              }
            },
            "signature": {
              "type": "tendermint/SignatureEd25519",
              "value": "1DGvHrZpD9rSSyywlP02Xcx2ePfTCOwkzqd5aF+Fzj5XqTJs2oEGSstVj3zkeCc3kRcouWrh3t9qdcKC/NKQDQ=="
            }
          },
          {
            "validator_address": "28770D17E8530825E7310A0659308654B7EC9682",
            "validator_index": "15",
            "height": "55690",
            "round": "0",
            "timestamp": "2018-08-03T04:09:00.342626283Z",
            "type": 2,
            "block_id": {
              "hash": "5EBDAF9E72ADFEB5A6BF17E06BB752527131020E",
              "parts": {
                "total": "1",
                "hash": "07261FCC26E8FBDEABE44F832DA4FC6B4A7BD67B"
              }
            },
            "signature": {
              "type": "tendermint/SignatureEd25519",
              "value": "e9NyQrKnHazGj15CEEpfxCUYQ1+URvUV4a18C/W711vku9K1jc8ImK24gd7hK8QAIob/23thsHlhujJjQvH9Cw=="
            }
          },
          {
            "validator_address": "2A92EC3C642140202298D0E245095E0ECFC25228",
            "validator_index": "16",
            "height": "55690",
            "round": "0",
            "timestamp": "2018-08-03T04:09:00.430728206Z",
            "type": 2,
            "block_id": {
              "hash": "5EBDAF9E72ADFEB5A6BF17E06BB752527131020E",
              "parts": {
                "total": "1",
                "hash": "07261FCC26E8FBDEABE44F832DA4FC6B4A7BD67B"
              }
            },
            "signature": {
              "type": "tendermint/SignatureEd25519",
              "value": "bA2WopW4oZ9oPahbWI6YyKfWXjANvzCLYjVWYhvQO3FjJD6ho4ManysmjoJrkEZU6op5I9cLY7taZ3qEqBkhBw=="
            }
          },
          null,
          {
            "validator_address": "36E9B7FAEC964F97D84C028ED62493E373AD0B38",
            "validator_index": "18",
            "height": "55690",
            "round": "0",
            "timestamp": "2018-08-03T04:09:00.513018166Z",
            "type": 2,
            "block_id": {
              "hash": "5EBDAF9E72ADFEB5A6BF17E06BB752527131020E",
              "parts": {
                "total": "1",
                "hash": "07261FCC26E8FBDEABE44F832DA4FC6B4A7BD67B"
              }
            },
            "signature": {
              "type": "tendermint/SignatureEd25519",
              "value": "DNLpotVuMC3LOWWyMbAJa/T/X6l6bmAvvt4t0f80pKG+6SvzlYA8bxOlsc/IjUZxyFP/vXlNolkd4yVjn7S6Aw=="
            }
          },
          {
            "validator_address": "38A8D85D36BEA2E5FCF8A1E778F53628E450EF13",
            "validator_index": "19",
            "height": "55690",
            "round": "0",
            "timestamp": "2018-08-03T04:09:00.545561279Z",
            "type": 2,
            "block_id": {
              "hash": "5EBDAF9E72ADFEB5A6BF17E06BB752527131020E",
              "parts": {
                "total": "1",
                "hash": "07261FCC26E8FBDEABE44F832DA4FC6B4A7BD67B"
              }
            },
            "signature": {
              "type": "tendermint/SignatureEd25519",
              "value": "QVt+gZ4tGXOoFM6twB8BUVBNv+uejtNvqK4vRJbaBnf7gcOJoNa8/iCft6hjvO4jlQeDJxegNbOidItJiGIABg=="
            }
          },
          {
            "validator_address": "39DFDA0C5DB84B269642188B23253508537798E6",
            "validator_index": "20",
            "height": "55690",
            "round": "0",
            "timestamp": "2018-08-03T04:09:00.359079749Z",
            "type": 2,
            "block_id": {
              "hash": "5EBDAF9E72ADFEB5A6BF17E06BB752527131020E",
              "parts": {
                "total": "1",
                "hash": "07261FCC26E8FBDEABE44F832DA4FC6B4A7BD67B"
              }
            },
            "signature": {
              "type": "tendermint/SignatureEd25519",
              "value": "M2Hh8fsEtvHaXd+yCXbAXbJtEJKZlje3AP/GP+HwrYWadpboxk3BxOfm/COplHmRdSn/hkKQ0ygAajk/jgWCAA=="
            }
          },
          {
            "validator_address": "3AC99B708404452366E0953A4BE849226DC86CBC",
            "validator_index": "21",
            "height": "55690",
            "round": "0",
            "timestamp": "2018-08-03T04:09:00.432008341Z",
            "type": 2,
            "block_id": {
              "hash": "5EBDAF9E72ADFEB5A6BF17E06BB752527131020E",
              "parts": {
                "total": "1",
                "hash": "07261FCC26E8FBDEABE44F832DA4FC6B4A7BD67B"
              }
            },
            "signature": {
              "type": "tendermint/SignatureEd25519",
              "value": "Eg0K/xt24jT9eWcZiBE7zg4gT08dY1TtB4KtxzO8SkwhKx5zj5Cm2MnRYVDvNdNtMVqxbN2Nn2rUwp+x4xavCA=="
            }
          },
          {
            "validator_address": "3DCB822A10ED319EC7C4393D8E3FD4A41B15AAF2",
            "validator_index": "22",
            "height": "55690",
            "round": "0",
            "timestamp": "2018-08-03T04:09:00.386530941Z",
            "type": 2,
            "block_id": {
              "hash": "5EBDAF9E72ADFEB5A6BF17E06BB752527131020E",
              "parts": {
                "total": "1",
                "hash": "07261FCC26E8FBDEABE44F832DA4FC6B4A7BD67B"
              }
            },
            "signature": {
              "type": "tendermint/SignatureEd25519",
              "value": "WrpULl2WwHZ8cczf8jHThHWYNlOKBzMhlikUddBDwcXYpzF64YJzKORE0cLApChFs4XpX8YBbxLX9abM1UKdCA=="
            }
          },
          {
            "validator_address": "3E899BA36A93C7370347BD5FE85909F2ECD93F8C",
            "validator_index": "23",
            "height": "55690",
            "round": "0",
            "timestamp": "2018-08-03T04:09:00.432625528Z",
            "type": 2,
            "block_id": {
              "hash": "5EBDAF9E72ADFEB5A6BF17E06BB752527131020E",
              "parts": {
                "total": "1",
                "hash": "07261FCC26E8FBDEABE44F832DA4FC6B4A7BD67B"
              }
            },
            "signature": {
              "type": "tendermint/SignatureEd25519",
              "value": "c9cEWRofhxf/WmaK1zOwPQl2ak627unLPZTFUrSjQO3qoUClT5H/LDRRJ2qj6I5FCxdmS6+IxQ8/5EKWpOwIBg=="
            }
          },
          {
            "validator_address": "41CAB2E29E7D0F2282E3275938F188FF9386B84C",
            "validator_index": "24",
            "height": "55690",
            "round": "0",
            "timestamp": "2018-08-03T04:09:00.447648066Z",
            "type": 2,
            "block_id": {
              "hash": "5EBDAF9E72ADFEB5A6BF17E06BB752527131020E",
              "parts": {
                "total": "1",
                "hash": "07261FCC26E8FBDEABE44F832DA4FC6B4A7BD67B"
              }
            },
            "signature": {
              "type": "tendermint/SignatureEd25519",
              "value": "3byK58akfBSPGnwS7SSXCIantOk7gYTSKN7uou/8aUS3yHbDulFlA3lktfcJyutsjEsNFPSJce1Gsz5O/1mmBA=="
            }
          },
          {
            "validator_address": "462B656869DB02A8FD1077E255F8CC7401DC37C6",
            "validator_index": "25",
            "height": "55690",
            "round": "0",
            "timestamp": "2018-08-03T04:09:00.364426064Z",
            "type": 2,
            "block_id": {
              "hash": "5EBDAF9E72ADFEB5A6BF17E06BB752527131020E",
              "parts": {
                "total": "1",
                "hash": "07261FCC26E8FBDEABE44F832DA4FC6B4A7BD67B"
              }
            },
            "signature": {
              "type": "tendermint/SignatureEd25519",
              "value": "b/NWWbQTh5TMRGJXdYwpx1YUxnLoIJVdwW197bWyFEMO4MSlPZVe91nJT6nOD0TME/6Z1BZUTmUcHjSUxvAUCg=="
            }
          },
          {
            "validator_address": "48E5118163E5442068A1B5A42D2EEDBB75724935",
            "validator_index": "26",
            "height": "55690",
            "round": "0",
            "timestamp": "2018-08-03T04:09:00.532238657Z",
            "type": 2,
            "block_id": {
              "hash": "5EBDAF9E72ADFEB5A6BF17E06BB752527131020E",
              "parts": {
                "total": "1",
                "hash": "07261FCC26E8FBDEABE44F832DA4FC6B4A7BD67B"
              }
            },
            "signature": {
              "type": "tendermint/SignatureEd25519",
              "value": "ep7OtjdD+Qtro5osFgbTX9jNWJBTMSDP6AHQwa8UCTqMluAgmBkqOW6uIDp1bhDaItAAbBO5S435r7Cp7fj9BA=="
            }
          },
          {
            "validator_address": "49103C58AFD9C7C069F55EBA218F3DFD9AEA74F9",
            "validator_index": "27",
            "height": "55690",
            "round": "0",
            "timestamp": "2018-08-03T04:09:00.405143285Z",
            "type": 2,
            "block_id": {
              "hash": "5EBDAF9E72ADFEB5A6BF17E06BB752527131020E",
              "parts": {
                "total": "1",
                "hash": "07261FCC26E8FBDEABE44F832DA4FC6B4A7BD67B"
              }
            },
            "signature": {
              "type": "tendermint/SignatureEd25519",
              "value": "PTzPac1HcpkOMUl+eluHB4t/vhFTUlcrYKZ7ScKcnUNQcTDnyPeDk6bjiq0bjrVgYVqJ/4nYfDQVnrP4MOmHAQ=="
            }
          },
          {
            "validator_address": "4944F8BBBB5303E17BC0607DF332320EDBC750EA",
            "validator_index": "28",
            "height": "55690",
            "round": "0",
            "timestamp": "2018-08-03T04:09:00.416981398Z",
            "type": 2,
            "block_id": {
              "hash": "5EBDAF9E72ADFEB5A6BF17E06BB752527131020E",
              "parts": {
                "total": "1",
                "hash": "07261FCC26E8FBDEABE44F832DA4FC6B4A7BD67B"
              }
            },
            "signature": {
              "type": "tendermint/SignatureEd25519",
              "value": "c/qq6BTdo9OxIM/c6sVpSIoWrlfhigF2SoAzDzI9hnZMxL1Y0RyNxGbBaydL1GoLctnZwDkq6ED/0gdxBVFsAA=="
            }
          },
          {
            "validator_address": "49841599DE675157CBE1E7D6B35BF8FFC23BD5CB",
            "validator_index": "29",
            "height": "55690",
            "round": "0",
            "timestamp": "2018-08-03T04:09:00.38237744Z",
            "type": 2,
            "block_id": {
              "hash": "5EBDAF9E72ADFEB5A6BF17E06BB752527131020E",
              "parts": {
                "total": "1",
                "hash": "07261FCC26E8FBDEABE44F832DA4FC6B4A7BD67B"
              }
            },
            "signature": {
              "type": "tendermint/SignatureEd25519",
              "value": "YfKa5Nxz6iYec3qme486sM3IsZZirfKNLEQra0GYW7bOMSYUpr+hDRZuLlPy/VKb2Bn8aNlwYMgYrn2MmEfoCA=="
            }
          },
          {
            "validator_address": "51386C2CF9556821D114D7E4945806802BADB28D",
            "validator_index": "30",
            "height": "55690",
            "round": "0",
            "timestamp": "2018-08-03T04:09:00.476232104Z",
            "type": 2,
            "block_id": {
              "hash": "5EBDAF9E72ADFEB5A6BF17E06BB752527131020E",
              "parts": {
                "total": "1",
                "hash": "07261FCC26E8FBDEABE44F832DA4FC6B4A7BD67B"
              }
            },
            "signature": {
              "type": "tendermint/SignatureEd25519",
              "value": "XKlOqMCHZoekE615uUoIzqiN3ocCS6tfSXO/kTdS9Adat5PXKSr8FNIifT2pESmh7zn1t4t1yaTioEz/aZdEAQ=="
            }
          },
          {
            "validator_address": "543564ECA3AFEFADC73EE8591AAC3A96F079BC8A",
            "validator_index": "31",
            "height": "55690",
            "round": "0",
            "timestamp": "2018-08-03T04:09:00.380468975Z",
            "type": 2,
            "block_id": {
              "hash": "5EBDAF9E72ADFEB5A6BF17E06BB752527131020E",
              "parts": {
                "total": "1",
                "hash": "07261FCC26E8FBDEABE44F832DA4FC6B4A7BD67B"
              }
            },
            "signature": {
              "type": "tendermint/SignatureEd25519",
              "value": "ALcnAKa898V7BDbLeSZKBwUbXgVHsw0dhI3k2CCL47p93epSwhz+ENHS5a72UduZj6hIpbscGCVHNEjR1XorCQ=="
            }
          },
          {
            "validator_address": "55D67B1A6DC13E96F8754A5A42EABC20F7F86664",
            "validator_index": "32",
            "height": "55690",
            "round": "0",
            "timestamp": "2018-08-03T04:09:00.399373503Z",
            "type": 2,
            "block_id": {
              "hash": "5EBDAF9E72ADFEB5A6BF17E06BB752527131020E",
              "parts": {
                "total": "1",
                "hash": "07261FCC26E8FBDEABE44F832DA4FC6B4A7BD67B"
              }
            },
            "signature": {
              "type": "tendermint/SignatureEd25519",
              "value": "i7VF+0VkzZcldWcKfqYeQvbjr0kSLcjrrBlHzzwP8AlFpPrgbdwCKl5W3NPe7DrEsKVZD4/MIzDWhCjxHlx1Aw=="
            }
          },
          {
            "validator_address": "570B6A755ED339EAC56BB3390A48069F6AC9449B",
            "validator_index": "33",
            "height": "55690",
            "round": "0",
            "timestamp": "2018-08-03T04:09:11.996453263Z",
            "type": 2,
            "block_id": {
              "hash": "5EBDAF9E72ADFEB5A6BF17E06BB752527131020E",
              "parts": {
                "total": "1",
                "hash": "07261FCC26E8FBDEABE44F832DA4FC6B4A7BD67B"
              }
            },
            "signature": {
              "type": "tendermint/SignatureEd25519",
              "value": "GSq+awGsrcYMoTbkDp2PiN6JbrrVgy66v7WBnRRObj42lf/ukWrUebj8j9UL1Krq98BkglfPmYHB0wx/+PXqDA=="
            }
          },
          {
            "validator_address": "5BDF8EA41B1835FBAD865B181A2A4B23F511B5E4",
            "validator_index": "34",
            "height": "55690",
            "round": "0",
            "timestamp": "2018-08-03T04:09:00.340258758Z",
            "type": 2,
            "block_id": {
              "hash": "5EBDAF9E72ADFEB5A6BF17E06BB752527131020E",
              "parts": {
                "total": "1",
                "hash": "07261FCC26E8FBDEABE44F832DA4FC6B4A7BD67B"
              }
            },
            "signature": {
              "type": "tendermint/SignatureEd25519",
              "value": "mhrK1I/NAm2xGX1Ci/cg9DpVHwM75Twtlk4p32p5mR0rvYIPvl7JmB5I2G6+pY9/4S6RJ7rlpR2x3AfH2ntiDQ=="
            }
          },
          {
            "validator_address": "60229E2E273297FE00219E46DFFB8F76844CDEF9",
            "validator_index": "35",
            "height": "55690",
            "round": "0",
            "timestamp": "2018-08-03T04:08:57.305248757Z",
            "type": 2,
            "block_id": {
              "hash": "5EBDAF9E72ADFEB5A6BF17E06BB752527131020E",
              "parts": {
                "total": "1",
                "hash": "07261FCC26E8FBDEABE44F832DA4FC6B4A7BD67B"
              }
            },
            "signature": {
              "type": "tendermint/SignatureEd25519",
              "value": "giK4RbXfy2cA6F3lRYAdO5ZGI2x8Mjqss83MPFHL6Hm+ej0fiKJ9tqv7fHjV+8G4g2/rbB2mfDoXjbdgkymCDA=="
            }
          },
          {
            "validator_address": "62410D6D1CD98278136E4D0738AA0EA273CDFC54",
            "validator_index": "36",
            "height": "55690",
            "round": "0",
            "timestamp": "2018-08-03T04:09:00.376574666Z",
            "type": 2,
            "block_id": {
              "hash": "5EBDAF9E72ADFEB5A6BF17E06BB752527131020E",
              "parts": {
                "total": "1",
                "hash": "07261FCC26E8FBDEABE44F832DA4FC6B4A7BD67B"
              }
            },
            "signature": {
              "type": "tendermint/SignatureEd25519",
              "value": "9BU//YUuCTKf3CLODPjWN5LFCSeKAaU8F/m5Es4Ktj5Mk2TugatSKBJpB9a5lewIhsFOhOSpS7M/XZvppar+Bg=="
            }
          },
          {
            "validator_address": "632F5C139A5A9DFBFE5111DEE29FCFB6157207DC",
            "validator_index": "37",
            "height": "55690",
            "round": "0",
            "timestamp": "2018-08-03T04:09:00.410733016Z",
            "type": 2,
            "block_id": {
              "hash": "5EBDAF9E72ADFEB5A6BF17E06BB752527131020E",
              "parts": {
                "total": "1",
                "hash": "07261FCC26E8FBDEABE44F832DA4FC6B4A7BD67B"
              }
            },
            "signature": {
              "type": "tendermint/SignatureEd25519",
              "value": "hy1dQlG7shhsrdtN/ZT0gvidUvVKswpvsAjJOB3VLE/zqlWzsVxCOUTTdtPP4f2XMSuXlJJ1sDS07tyWbpamAw=="
            }
          },
          {
            "validator_address": "64F57F8E796A9B7B590C1EFA4123988C86631D39",
            "validator_index": "38",
            "height": "55690",
            "round": "0",
            "timestamp": "2018-08-03T04:09:00.340610191Z",
            "type": 2,
            "block_id": {
              "hash": "5EBDAF9E72ADFEB5A6BF17E06BB752527131020E",
              "parts": {
                "total": "1",
                "hash": "07261FCC26E8FBDEABE44F832DA4FC6B4A7BD67B"
              }
            },
            "signature": {
              "type": "tendermint/SignatureEd25519",
              "value": "TOoOm1iaM97tRFKH/vtmXGoWpx9JQOkqkbBevgAdzKJ1c36HQvnTb3wUuN2i8msyxTgGnZ9Ie+9HuLIooOA6AQ=="
            }
          },
          {
            "validator_address": "69D99B2C66043ACBEAA8447525C356AFC6408E0C",
            "validator_index": "39",
            "height": "55690",
            "round": "0",
            "timestamp": "2018-08-03T04:09:00.456135076Z",
            "type": 2,
            "block_id": {
              "hash": "5EBDAF9E72ADFEB5A6BF17E06BB752527131020E",
              "parts": {
                "total": "1",
                "hash": "07261FCC26E8FBDEABE44F832DA4FC6B4A7BD67B"
              }
            },
            "signature": {
              "type": "tendermint/SignatureEd25519",
              "value": "/9Zrf3qTEvegZvy4+/Z61scr232LqxfyULEF8UBo2Cz2oj6ggpfpN/QEqbYkyOiWB6IXW7yYQCfn3C27LbGMCw=="
            }
          },
          {
            "validator_address": "69EDADFA4A803E9DBF548C900D4A465E7D154262",
            "validator_index": "40",
            "height": "55690",
            "round": "0",
            "timestamp": "2018-08-03T04:09:00.512509239Z",
            "type": 2,
            "block_id": {
              "hash": "5EBDAF9E72ADFEB5A6BF17E06BB752527131020E",
              "parts": {
                "total": "1",
                "hash": "07261FCC26E8FBDEABE44F832DA4FC6B4A7BD67B"
              }
            },
            "signature": {
              "type": "tendermint/SignatureEd25519",
              "value": "XEPH99KKZJwI2Rg6E9L2VCw7xbxNmv/UkS1s58yZbv/Jm7zZ7AhlVOnAoaM09qHM2ZmJ8XH2MSeewFmzYEUtBQ=="
            }
          },
          {
            "validator_address": "6D3AD380E398D8592B03AA124BAFED5F125DF863",
            "validator_index": "41",
            "height": "55690",
            "round": "0",
            "timestamp": "2018-08-03T04:07:57.390860043Z",
            "type": 2,
            "block_id": {
              "hash": "5EBDAF9E72ADFEB5A6BF17E06BB752527131020E",
              "parts": {
                "total": "1",
                "hash": "07261FCC26E8FBDEABE44F832DA4FC6B4A7BD67B"
              }
            },
            "signature": {
              "type": "tendermint/SignatureEd25519",
              "value": "ox7mH/om9N82dHAiABQXDlqAm1ppfT+ihxtPR89T/dVNolUKIc5NGGyi43igACNLnqquTex2ggPngtqyGqq0Cg=="
            }
          },
          {
            "validator_address": "6F6C93B8BF3495063FEC9B5C771158607F4AE9D6",
            "validator_index": "42",
            "height": "55690",
            "round": "0",
            "timestamp": "2018-08-03T04:09:00.429163111Z",
            "type": 2,
            "block_id": {
              "hash": "5EBDAF9E72ADFEB5A6BF17E06BB752527131020E",
              "parts": {
                "total": "1",
                "hash": "07261FCC26E8FBDEABE44F832DA4FC6B4A7BD67B"
              }
            },
            "signature": {
              "type": "tendermint/SignatureEd25519",
              "value": "hLNDuzHaboM3oTORsYXvnWDq7NdfmjktjeFiKMrEXc0R9YtKL97+aAKkVwcl+/6za6JE2gW2No68Uy0zKnABCw=="
            }
          },
          {
            "validator_address": "732CEEF54C374DDC6ADECBFD707AEFD07FEDC143",
            "validator_index": "43",
            "height": "55690",
            "round": "0",
            "timestamp": "2018-08-03T04:09:00.560677968Z",
            "type": 2,
            "block_id": {
              "hash": "5EBDAF9E72ADFEB5A6BF17E06BB752527131020E",
              "parts": {
                "total": "1",
                "hash": "07261FCC26E8FBDEABE44F832DA4FC6B4A7BD67B"
              }
            },
            "signature": {
              "type": "tendermint/SignatureEd25519",
              "value": "zERcWb+koNwF8LqEL9CFbGOJNjPIpkapPn/ps/r//g+bNVIoYSKL6R7StAT3zTLB6pNcMWVPCznUFU84OoSiAA=="
            }
          },
          {
            "validator_address": "751E43437224E8BB6D1569B3E2B2616B6E7F4397",
            "validator_index": "44",
            "height": "55690",
            "round": "0",
            "timestamp": "2018-08-03T04:09:00.415336283Z",
            "type": 2,
            "block_id": {
              "hash": "5EBDAF9E72ADFEB5A6BF17E06BB752527131020E",
              "parts": {
                "total": "1",
                "hash": "07261FCC26E8FBDEABE44F832DA4FC6B4A7BD67B"
              }
            },
            "signature": {
              "type": "tendermint/SignatureEd25519",
              "value": "8oojIKrq9fEZLXCsHaUlEJns1TvcgO0Nn5vzWtJ0XMLEIZ5nf8Fsp3LpUbvx2xyfn7XbIsypvaFvVqi6WpXODQ=="
            }
          },
          {
            "validator_address": "7EB7593F519F1180C7E872D0494611464EDF03AE",
            "validator_index": "45",
            "height": "55690",
            "round": "0",
            "timestamp": "2018-08-03T04:09:00.487019103Z",
            "type": 2,
            "block_id": {
              "hash": "5EBDAF9E72ADFEB5A6BF17E06BB752527131020E",
              "parts": {
                "total": "1",
                "hash": "07261FCC26E8FBDEABE44F832DA4FC6B4A7BD67B"
              }
            },
            "signature": {
              "type": "tendermint/SignatureEd25519",
              "value": "OPIOdIVKtzth5GUs1pVxTt1OrMJ1Z3WN4mzL1NzDUxs1dUy8sKVwzp2XSboUy73pZTUt2VwIC4el3d4Z+pakCQ=="
            }
          },
          {
            "validator_address": "807CF675BA8479FC4FEC1047215DF07970040F1F",
            "validator_index": "46",
            "height": "55690",
            "round": "0",
            "timestamp": "2018-08-03T04:09:00.706759448Z",
            "type": 2,
            "block_id": {
              "hash": "5EBDAF9E72ADFEB5A6BF17E06BB752527131020E",
              "parts": {
                "total": "1",
                "hash": "07261FCC26E8FBDEABE44F832DA4FC6B4A7BD67B"
              }
            },
            "signature": {
              "type": "tendermint/SignatureEd25519",
              "value": "VvFYEq5RW1oiT1PANuPFHziunIfVIi4ZVIDRXn2Deymikhhhb9ffaAtvx/RbjXji3ftHOrD7S+M4uGeaLzABBw=="
            }
          },
          {
            "validator_address": "8356899C8853BC6640D76F76E59743FFEEA57B81",
            "validator_index": "47",
            "height": "55690",
            "round": "0",
            "timestamp": "2018-08-03T04:09:04.836727097Z",
            "type": 2,
            "block_id": {
              "hash": "",
              "parts": {
                "total": "0",
                "hash": ""
              }
            },
            "signature": {
              "type": "tendermint/SignatureEd25519",
              "value": "JNgm9le4X0PhRFHO+zu7iRpg+abY51YyEiJiuzAoZTopY/ExXTaexkdqS/ef14dgIpL20GoGEm30TCScGJT6BQ=="
            }
          },
          {
            "validator_address": "83AB321E012C57746689FED3A6064DF331F81007",
            "validator_index": "48",
            "height": "55690",
            "round": "0",
            "timestamp": "2018-08-03T04:09:00.401258248Z",
            "type": 2,
            "block_id": {
              "hash": "5EBDAF9E72ADFEB5A6BF17E06BB752527131020E",
              "parts": {
                "total": "1",
                "hash": "07261FCC26E8FBDEABE44F832DA4FC6B4A7BD67B"
              }
            },
            "signature": {
              "type": "tendermint/SignatureEd25519",
              "value": "IfjheyNGzCDFuNV+1AP37HBX3OKrSSb7s1zW9OCYsMozT/SY46mKwI1mduZNU40Cwdq76boGiEA4zkBQ8+pEDA=="
            }
          },
          {
            "validator_address": "83BB1B88D3DBB20AD845FECA07749EBD87D3754D",
            "validator_index": "49",
            "height": "55690",
            "round": "0",
            "timestamp": "2018-08-03T04:09:00.615864863Z",
            "type": 2,
            "block_id": {
              "hash": "5EBDAF9E72ADFEB5A6BF17E06BB752527131020E",
              "parts": {
                "total": "1",
                "hash": "07261FCC26E8FBDEABE44F832DA4FC6B4A7BD67B"
              }
            },
            "signature": {
              "type": "tendermint/SignatureEd25519",
              "value": "MhVFqczztyNXrdKZFEgMAHvLQ1mkKIbS1OvItzt864+4dzz+QkwQahv2EujfdPm/VfKljs3adVmxI4nheB2cBQ=="
            }
          },
          {
            "validator_address": "86DDBEEF35D35786A68834B34869174AC314BB74",
            "validator_index": "50",
            "height": "55690",
            "round": "0",
            "timestamp": "2018-08-03T04:09:00.395091619Z",
            "type": 2,
            "block_id": {
              "hash": "5EBDAF9E72ADFEB5A6BF17E06BB752527131020E",
              "parts": {
                "total": "1",
                "hash": "07261FCC26E8FBDEABE44F832DA4FC6B4A7BD67B"
              }
            },
            "signature": {
              "type": "tendermint/SignatureEd25519",
              "value": "0sWDPrNNpT2Cxejbevl6p9e1IGmHuCdi5h/7h1Wlg0GjYAJsgtleVmdbbZs/U6jDLeyxU5lB5YYO3YaHaJMrDQ=="
            }
          },
          {
            "validator_address": "8F06FE1FD042683C426137FBC4BBAA4288924217",
            "validator_index": "51",
            "height": "55690",
            "round": "0",
            "timestamp": "2018-08-03T04:09:00.428228827Z",
            "type": 2,
            "block_id": {
              "hash": "5EBDAF9E72ADFEB5A6BF17E06BB752527131020E",
              "parts": {
                "total": "1",
                "hash": "07261FCC26E8FBDEABE44F832DA4FC6B4A7BD67B"
              }
            },
            "signature": {
              "type": "tendermint/SignatureEd25519",
              "value": "5pn8jLNd/fDzT8XP/vAQj9k9nmucCF6cGAiH3jEN5EsQX5VYjIy+P8y8GBCbs1tPd7ZI3EWAb3PRXeqyJSp1Cg=="
            }
          },
          {
            "validator_address": "95980831E186F2540F6E9FB6C8E74DE2401405AC",
            "validator_index": "52",
            "height": "55690",
            "round": "0",
            "timestamp": "2018-08-03T04:09:00.429184626Z",
            "type": 2,
            "block_id": {
              "hash": "5EBDAF9E72ADFEB5A6BF17E06BB752527131020E",
              "parts": {
                "total": "1",
                "hash": "07261FCC26E8FBDEABE44F832DA4FC6B4A7BD67B"
              }
            },
            "signature": {
              "type": "tendermint/SignatureEd25519",
              "value": "wGx77suJKtpXS3zmpfR9l99sDW+VvqG06ElN6dMGIdWyKsHUlPeqWaD8/93YJxCM4mhIkGelSyBpQoWQeLarBQ=="
            }
          },
          {
            "validator_address": "95FAFBC1E0579C83D290A063020CE87C5334BD9B",
            "validator_index": "53",
            "height": "55690",
            "round": "0",
            "timestamp": "2018-08-03T04:09:00.435069833Z",
            "type": 2,
            "block_id": {
              "hash": "5EBDAF9E72ADFEB5A6BF17E06BB752527131020E",
              "parts": {
                "total": "1",
                "hash": "07261FCC26E8FBDEABE44F832DA4FC6B4A7BD67B"
              }
            },
            "signature": {
              "type": "tendermint/SignatureEd25519",
              "value": "zeb8mKkOxPtBNqZbYxZdW4oFKVHtDUEq2ZTbQlc+0cT0nk5Z6CwJQhQ1nTyuguR4D2WyqYX0v6S2ao8nmG/PDg=="
            }
          },
          {
            "validator_address": "96BDE45EC52606CF5CB59853097871AD60680549",
            "validator_index": "54",
            "height": "55690",
            "round": "0",
            "timestamp": "2018-08-03T04:09:00.433005801Z",
            "type": 2,
            "block_id": {
              "hash": "5EBDAF9E72ADFEB5A6BF17E06BB752527131020E",
              "parts": {
                "total": "1",
                "hash": "07261FCC26E8FBDEABE44F832DA4FC6B4A7BD67B"
              }
            },
            "signature": {
              "type": "tendermint/SignatureEd25519",
              "value": "1S7BvAaWfQ0OCzZymUMrCyRu4xvhffmxWHe6bfLInQQiO3shNLSbQtubEyUGrqPfN3PtKph6hH2IxNPKhoHHBg=="
            }
          },
          {
            "validator_address": "970CD321881185BF83DB2923C321B0E75FDBB2B8",
            "validator_index": "55",
            "height": "55690",
            "round": "0",
            "timestamp": "2018-08-03T04:09:00.519870117Z",
            "type": 2,
            "block_id": {
              "hash": "5EBDAF9E72ADFEB5A6BF17E06BB752527131020E",
              "parts": {
                "total": "1",
                "hash": "07261FCC26E8FBDEABE44F832DA4FC6B4A7BD67B"
              }
            },
            "signature": {
              "type": "tendermint/SignatureEd25519",
              "value": "E9QqjdmwAkHdlKeKnoSpb8xV0+pC2fXSIf/l0qOnZsCxzIwI9RlQsy5RKRmFOmyxuuOkPv2oq1swNDY9/jPCAg=="
            }
          },
          {
            "validator_address": "97DBB3D4B3D6C29287244864448F651DD5B07390",
            "validator_index": "56",
            "height": "55690",
            "round": "0",
            "timestamp": "2018-08-03T04:09:00.451045168Z",
            "type": 2,
            "block_id": {
              "hash": "5EBDAF9E72ADFEB5A6BF17E06BB752527131020E",
              "parts": {
                "total": "1",
                "hash": "07261FCC26E8FBDEABE44F832DA4FC6B4A7BD67B"
              }
            },
            "signature": {
              "type": "tendermint/SignatureEd25519",
              "value": "HuBt85/POq6p7zziiQOTmRPFO1kMBHPfX6I7d1zDG2/kWPJBgE4BRLpsxnirTef2bIdJ+lqcDQ5ZJXsMP+V2BQ=="
            }
          },
          {
            "validator_address": "9C29C9B76D27586E4D9AD2AED0E943162645E55C",
            "validator_index": "57",
            "height": "55690",
            "round": "0",
            "timestamp": "2018-08-03T04:09:00.36274244Z",
            "type": 2,
            "block_id": {
              "hash": "5EBDAF9E72ADFEB5A6BF17E06BB752527131020E",
              "parts": {
                "total": "1",
                "hash": "07261FCC26E8FBDEABE44F832DA4FC6B4A7BD67B"
              }
            },
            "signature": {
              "type": "tendermint/SignatureEd25519",
              "value": "Mmc9x4TiC05gvUMw8r8B2JuoVsrJKAokdQCtdmcizmNYQBNiyIk7cmgJzQcPDvjo/AcQIbchOPObMp39FG3ADw=="
            }
          },
          {
            "validator_address": "9D93AD02FE1BD7E76B9E58D7EB461088EAD011E5",
            "validator_index": "58",
            "height": "55690",
            "round": "0",
            "timestamp": "2018-08-03T04:09:00.352134537Z",
            "type": 2,
            "block_id": {
              "hash": "5EBDAF9E72ADFEB5A6BF17E06BB752527131020E",
              "parts": {
                "total": "1",
                "hash": "07261FCC26E8FBDEABE44F832DA4FC6B4A7BD67B"
              }
            },
            "signature": {
              "type": "tendermint/SignatureEd25519",
              "value": "/UuD7Nnld1xY6QFwN7XP3UExh+dhYY9NZStGA6Cz5AReDs2sUg5//HO4mvCbkD24j5wLra6lhPVqE3Irm3YxCA=="
            }
          },
          {
            "validator_address": "A0A6466F4ABEA09C3B55E3709AFDE217A103209F",
            "validator_index": "59",
            "height": "55690",
            "round": "0",
            "timestamp": "2018-08-03T04:09:00.379204605Z",
            "type": 2,
            "block_id": {
              "hash": "5EBDAF9E72ADFEB5A6BF17E06BB752527131020E",
              "parts": {
                "total": "1",
                "hash": "07261FCC26E8FBDEABE44F832DA4FC6B4A7BD67B"
              }
            },
            "signature": {
              "type": "tendermint/SignatureEd25519",
              "value": "03mDoAfz9DmAsjOBXFS7TrvYAfZEgOmH64LCKY+P1xa1lIySMJGbMi9gFU0EJd8bn3UF8faLnP0RzIzMxuOXDQ=="
            }
          },
          {
            "validator_address": "A5868971300F155020634D7BB49C7634F7AACCD3",
            "validator_index": "60",
            "height": "55690",
            "round": "0",
            "timestamp": "2018-08-03T04:09:00.399687993Z",
            "type": 2,
            "block_id": {
              "hash": "5EBDAF9E72ADFEB5A6BF17E06BB752527131020E",
              "parts": {
                "total": "1",
                "hash": "07261FCC26E8FBDEABE44F832DA4FC6B4A7BD67B"
              }
            },
            "signature": {
              "type": "tendermint/SignatureEd25519",
              "value": "gCc9NVShYJmkph1bzcYuPiTbNXBUvUgFMsuGAqkh8Vco5C+lnqdVbGB6VMo/ZMUQL0/lh6vcC2T9aRAfInooAg=="
            }
          },
          {
            "validator_address": "A6B3A5B5D982CFD7B5FDFA15CF5A720E7AE25E7F",
            "validator_index": "61",
            "height": "55690",
            "round": "0",
            "timestamp": "2018-08-03T04:09:00.89188689Z",
            "type": 2,
            "block_id": {
              "hash": "5EBDAF9E72ADFEB5A6BF17E06BB752527131020E",
              "parts": {
                "total": "1",
                "hash": "07261FCC26E8FBDEABE44F832DA4FC6B4A7BD67B"
              }
            },
            "signature": {
              "type": "tendermint/SignatureEd25519",
              "value": "ucqNkSceazoYDTY/cyO9RoRC2A6tn3hF1t6YicEWx2sLG4KY02CPLVW0G7MgM7eB9mOp6WdmJCcHdUf3v9lNCQ=="
            }
          },
          {
            "validator_address": "AC96444A9083890B7C7B430DB17BF1D3EA5EED04",
            "validator_index": "62",
            "height": "55690",
            "round": "0",
            "timestamp": "2018-08-03T04:09:00.438586738Z",
            "type": 2,
            "block_id": {
              "hash": "5EBDAF9E72ADFEB5A6BF17E06BB752527131020E",
              "parts": {
                "total": "1",
                "hash": "07261FCC26E8FBDEABE44F832DA4FC6B4A7BD67B"
              }
            },
            "signature": {
              "type": "tendermint/SignatureEd25519",
              "value": "CGLmHJ3ce1ZA8VZQtJe3zC0Cns/8tl2jjc2EfIx2OVKSvwRxQTz4SHZn181RyCXHm+hQZ5mNMkSYpJqovDjZBg=="
            }
          },
          {
            "validator_address": "B197425B3210375F211661DE02EF2AE36580EB0F",
            "validator_index": "63",
            "height": "55690",
            "round": "0",
            "timestamp": "2018-08-03T04:09:00.345441768Z",
            "type": 2,
            "block_id": {
              "hash": "5EBDAF9E72ADFEB5A6BF17E06BB752527131020E",
              "parts": {
                "total": "1",
                "hash": "07261FCC26E8FBDEABE44F832DA4FC6B4A7BD67B"
              }
            },
            "signature": {
              "type": "tendermint/SignatureEd25519",
              "value": "ei9K0IdO0Ne4zWxT0nfp/7ygEN+y7OPNG1nB5rA6rZtdEZvEXumTwRzGs0sastQWg5353C0lvoU1e+PStVqBCw=="
            }
          },
          {
            "validator_address": "B45E54D2D1CB5A4CCD1D49016608C18E7C56B270",
            "validator_index": "64",
            "height": "55690",
            "round": "0",
            "timestamp": "2018-08-03T04:09:00.507952131Z",
            "type": 2,
            "block_id": {
              "hash": "5EBDAF9E72ADFEB5A6BF17E06BB752527131020E",
              "parts": {
                "total": "1",
                "hash": "07261FCC26E8FBDEABE44F832DA4FC6B4A7BD67B"
              }
            },
            "signature": {
              "type": "tendermint/SignatureEd25519",
              "value": "X5JSGradq8pMCS7PjXILIyTVRoVzK4osATjmYE7qUpvN4ILpVMVYdl3FPUE9Z7mOjA1w9otzU+/WcyOkZFDXDQ=="
            }
          },
          {
            "validator_address": "BB1276BE89834835428664408917649FEEF5D90C",
            "validator_index": "65",
            "height": "55690",
            "round": "0",
            "timestamp": "2018-08-03T04:09:00.46559507Z",
            "type": 2,
            "block_id": {
              "hash": "5EBDAF9E72ADFEB5A6BF17E06BB752527131020E",
              "parts": {
                "total": "1",
                "hash": "07261FCC26E8FBDEABE44F832DA4FC6B4A7BD67B"
              }
            },
            "signature": {
              "type": "tendermint/SignatureEd25519",
              "value": "alqcaudukFVIzi6GBD/RHYqjGmYN+M4c6P/kLoNGy2UdWwoGF+7+JLzrQl3Az7Z5Skbtr9B0fdmEthZVySipBQ=="
            }
          },
          {
            "validator_address": "BC36FEDD6EF6071118A3E51859DF3831A2EC4782",
            "validator_index": "66",
            "height": "55690",
            "round": "0",
            "timestamp": "2018-08-03T04:09:00.398498831Z",
            "type": 2,
            "block_id": {
              "hash": "5EBDAF9E72ADFEB5A6BF17E06BB752527131020E",
              "parts": {
                "total": "1",
                "hash": "07261FCC26E8FBDEABE44F832DA4FC6B4A7BD67B"
              }
            },
            "signature": {
              "type": "tendermint/SignatureEd25519",
              "value": "SQAbPYc4/o7KFUMCWYTRTv/aTFZxCNo54mgswkaMC4c7xgwYFvKXeAro2jts/gJgTM7Qqft3e6sly+0rUySVCQ=="
            }
          },
          {
            "validator_address": "BD9D0DA513BF099DB4BB6E725A4E19832789882F",
            "validator_index": "67",
            "height": "55690",
            "round": "0",
            "timestamp": "2018-08-03T04:09:00.426552381Z",
            "type": 2,
            "block_id": {
              "hash": "5EBDAF9E72ADFEB5A6BF17E06BB752527131020E",
              "parts": {
                "total": "1",
                "hash": "07261FCC26E8FBDEABE44F832DA4FC6B4A7BD67B"
              }
            },
            "signature": {
              "type": "tendermint/SignatureEd25519",
              "value": "ppY+CD3FdAbvM/knBtNR2Gs3+raCLCAM9yhKKObgac2moFkG+ZNH1x4KIDE8uPh186wkr//YZchJkI1uYLVFBg=="
            }
          },
          {
            "validator_address": "C1134A2FF8F7338E7CDB3FE57DDD2A655DEB1E22",
            "validator_index": "68",
            "height": "55690",
            "round": "0",
            "timestamp": "2018-08-03T04:08:59.602495865Z",
            "type": 2,
            "block_id": {
              "hash": "5EBDAF9E72ADFEB5A6BF17E06BB752527131020E",
              "parts": {
                "total": "1",
                "hash": "07261FCC26E8FBDEABE44F832DA4FC6B4A7BD67B"
              }
            },
            "signature": {
              "type": "tendermint/SignatureEd25519",
              "value": "q8V9H50i6Fgwrfw/JcZMXRw5dQe6UN14G+XjY37JrIcprtApovzPb2t1VXOnLZIiihGnjg6CiCgunu82haE4AQ=="
            }
          },
          {
            "validator_address": "C39A8A2B85198DCB8F23AD1F6C198E2BA7AB5D60",
            "validator_index": "69",
            "height": "55690",
            "round": "0",
            "timestamp": "2018-08-03T04:09:00.397575487Z",
            "type": 2,
            "block_id": {
              "hash": "5EBDAF9E72ADFEB5A6BF17E06BB752527131020E",
              "parts": {
                "total": "1",
                "hash": "07261FCC26E8FBDEABE44F832DA4FC6B4A7BD67B"
              }
            },
            "signature": {
              "type": "tendermint/SignatureEd25519",
              "value": "zyGd1x+TTqtHjVI5ymrG/sKK0q4lS1XkBr3XYXRhmZNdMigz6tJi8WgpyYF+q0gVQhBi+v/NG9oTNSnPle/VDw=="
            }
          },
          {
            "validator_address": "C4335190C3B5BD4BA5568BC0F99C34162D940D08",
            "validator_index": "70",
            "height": "55690",
            "round": "0",
            "timestamp": "2018-08-03T04:09:00.501518453Z",
            "type": 2,
            "block_id": {
              "hash": "5EBDAF9E72ADFEB5A6BF17E06BB752527131020E",
              "parts": {
                "total": "1",
                "hash": "07261FCC26E8FBDEABE44F832DA4FC6B4A7BD67B"
              }
            },
            "signature": {
              "type": "tendermint/SignatureEd25519",
              "value": "VJBX8DXIqz0Xj7fRCBhiOweEd2yuFd9qaQqLNXupkGvGarV+DvjYawbHuf8ZtqeKKCWlwNW9u8QQirC7O7FVBw=="
            }
          },
          {
            "validator_address": "C561CFA081677046376396922E7576E5F7B316AD",
            "validator_index": "71",
            "height": "55690",
            "round": "0",
            "timestamp": "2018-08-03T04:09:00.389521469Z",
            "type": 2,
            "block_id": {
              "hash": "5EBDAF9E72ADFEB5A6BF17E06BB752527131020E",
              "parts": {
                "total": "1",
                "hash": "07261FCC26E8FBDEABE44F832DA4FC6B4A7BD67B"
              }
            },
            "signature": {
              "type": "tendermint/SignatureEd25519",
              "value": "/t4V4dgSXkNkiZwRFu8jtqEaB7jBo/Vdn9JOFhyV7xAKSxBjunHJEgx9MshVdv5GcOXMDqzOhalHUq/7vXxYCw=="
            }
          },
          {
            "validator_address": "CEB97DB5CB18270247ABDE6CF2F84F9AEE8A2904",
            "validator_index": "72",
            "height": "55690",
            "round": "0",
            "timestamp": "2018-08-03T04:09:01.845633479Z",
            "type": 2,
            "block_id": {
              "hash": "5EBDAF9E72ADFEB5A6BF17E06BB752527131020E",
              "parts": {
                "total": "1",
                "hash": "07261FCC26E8FBDEABE44F832DA4FC6B4A7BD67B"
              }
            },
            "signature": {
              "type": "tendermint/SignatureEd25519",
              "value": "+oaw+t6qc9ouohojMLt7XRyOlFh9tdU0fCAn1qb/lEr3/993wII/zldxJyEyiNyIEiPua12WpES247A8OBD9BA=="
            }
          },
          {
            "validator_address": "D2134B826A1E25A955905CB79A4D8731CAFA0CCE",
            "validator_index": "73",
            "height": "55690",
            "round": "0",
            "timestamp": "2018-08-03T04:09:00.499374051Z",
            "type": 2,
            "block_id": {
              "hash": "5EBDAF9E72ADFEB5A6BF17E06BB752527131020E",
              "parts": {
                "total": "1",
                "hash": "07261FCC26E8FBDEABE44F832DA4FC6B4A7BD67B"
              }
            },
            "signature": {
              "type": "tendermint/SignatureEd25519",
              "value": "nQsmh0WlOI6okvSEkxcsllcOW/k0A7iUGW9zmmg8g5cZpDrZ/Jy1AY0suA0KtC4Z1di4FcGuiJiEce+xfe19Bw=="
            }
          },
          {
            "validator_address": "D6285C3422C8886445D53757CBE12D2B91B5A9D0",
            "validator_index": "74",
            "height": "55690",
            "round": "0",
            "timestamp": "2018-08-03T04:08:44.058504641Z",
            "type": 2,
            "block_id": {
              "hash": "5EBDAF9E72ADFEB5A6BF17E06BB752527131020E",
              "parts": {
                "total": "1",
                "hash": "07261FCC26E8FBDEABE44F832DA4FC6B4A7BD67B"
              }
            },
            "signature": {
              "type": "tendermint/SignatureEd25519",
              "value": "1pc2U/Yl/tli0QgjeZMNMex7wu9DZn1Y5J+QjsvnBXXuBuVAyOqTZuvFWQ9LJLicNsJQm79G+OkkmQ54gwodAw=="
            }
          },
          {
            "validator_address": "D77FB84A729972CD3E757C9BEB61561855832B92",
            "validator_index": "75",
            "height": "55690",
            "round": "0",
            "timestamp": "2018-08-03T04:09:00.492937192Z",
            "type": 2,
            "block_id": {
              "hash": "5EBDAF9E72ADFEB5A6BF17E06BB752527131020E",
              "parts": {
                "total": "1",
                "hash": "07261FCC26E8FBDEABE44F832DA4FC6B4A7BD67B"
              }
            },
            "signature": {
              "type": "tendermint/SignatureEd25519",
              "value": "2wPV1Yy9Etu5SRliOO6SyEAff8VQ4wKru390J2fpG9W+3o/QBz6LtKpuUoAjhdlu2p6DOlUwXEQYCoP7KcLvAg=="
            }
          },
          {
            "validator_address": "DB7E6732471D3EA5C90C17A9974D9F88AB45F2FB",
            "validator_index": "76",
            "height": "55690",
            "round": "0",
            "timestamp": "2018-08-03T04:09:00.487210915Z",
            "type": 2,
            "block_id": {
              "hash": "5EBDAF9E72ADFEB5A6BF17E06BB752527131020E",
              "parts": {
                "total": "1",
                "hash": "07261FCC26E8FBDEABE44F832DA4FC6B4A7BD67B"
              }
            },
            "signature": {
              "type": "tendermint/SignatureEd25519",
              "value": "u8l3oOVZKKtFgTcRvtvmDKL6kaUd0jcCLU5oI7JPJtHYuiwZoPkApoLv22o3Q7B+jPNOCcWiQyjsXk5N+oRzCg=="
            }
          },
          {
            "validator_address": "DF54B862410BCD9B5C516FBB6C56BDC826ED6FA7",
            "validator_index": "77",
            "height": "55690",
            "round": "0",
            "timestamp": "2018-08-03T04:09:00.453914241Z",
            "type": 2,
            "block_id": {
              "hash": "5EBDAF9E72ADFEB5A6BF17E06BB752527131020E",
              "parts": {
                "total": "1",
                "hash": "07261FCC26E8FBDEABE44F832DA4FC6B4A7BD67B"
              }
            },
            "signature": {
              "type": "tendermint/SignatureEd25519",
              "value": "HPpXsh3SrzkfuZzo8ZPfU0vrBlDhH5+ZiUmDsei6Vvup9SpiSicYb2nhCUim3yBuKcScnJBmRAZOsS8H31bSCg=="
            }
          },
          {
            "validator_address": "DFAF0C8B1B78D6D552B0189DE3ACA351439A1319",
            "validator_index": "78",
            "height": "55690",
            "round": "0",
            "timestamp": "2018-08-03T04:09:00.4203199Z",
            "type": 2,
            "block_id": {
              "hash": "5EBDAF9E72ADFEB5A6BF17E06BB752527131020E",
              "parts": {
                "total": "1",
                "hash": "07261FCC26E8FBDEABE44F832DA4FC6B4A7BD67B"
              }
            },
            "signature": {
              "type": "tendermint/SignatureEd25519",
              "value": "fszKselg9BIzRQ4ge3F8TOewlremcYVWbTEqHJSH2JCFymMLQ5zF6IglIwj5LQ5adosoh6DowhQ5nnwuVx6bAA=="
            }
          },
          {
            "validator_address": "E1DBC77881161A5A3A8536A57536EAE546A75D69",
            "validator_index": "79",
            "height": "55690",
            "round": "0",
            "timestamp": "2018-08-03T04:09:00.364342339Z",
            "type": 2,
            "block_id": {
              "hash": "5EBDAF9E72ADFEB5A6BF17E06BB752527131020E",
              "parts": {
                "total": "1",
                "hash": "07261FCC26E8FBDEABE44F832DA4FC6B4A7BD67B"
              }
            },
            "signature": {
              "type": "tendermint/SignatureEd25519",
              "value": "f2AzLUgKOODaj/4suSdvAtwSsZ6sb5ePn/v9K+dVJ7yyKa+PztgEV8Ynr23K46boL1c2ES/mhIOVq+BsON6mAA=="
            }
          },
          {
            "validator_address": "E300E9D484374C1D3E97C1D93CAC3B160A056298",
            "validator_index": "80",
            "height": "55690",
            "round": "0",
            "timestamp": "2018-08-03T04:09:00.596047406Z",
            "type": 2,
            "block_id": {
              "hash": "5EBDAF9E72ADFEB5A6BF17E06BB752527131020E",
              "parts": {
                "total": "1",
                "hash": "07261FCC26E8FBDEABE44F832DA4FC6B4A7BD67B"
              }
            },
            "signature": {
              "type": "tendermint/SignatureEd25519",
              "value": "yiTPGRmCINyAHYeiPLND/pgTxbzIlkOlEihvyQVM6/5ihPnGMKzC0mkEQUJMLFwcjna5qDbJNlnkLFRU7kwTCg=="
            }
          },
          {
            "validator_address": "E39B5778E0D4297A46F45CF6940B0A163A430FF8",
            "validator_index": "81",
            "height": "55690",
            "round": "0",
            "timestamp": "2018-08-03T04:09:00.372437772Z",
            "type": 2,
            "block_id": {
              "hash": "5EBDAF9E72ADFEB5A6BF17E06BB752527131020E",
              "parts": {
                "total": "1",
                "hash": "07261FCC26E8FBDEABE44F832DA4FC6B4A7BD67B"
              }
            },
            "signature": {
              "type": "tendermint/SignatureEd25519",
              "value": "v71FXOJQdUDZYkwdPIczmgEIbsEVhXkKelxmE0TIjJ1gpFPSLTLOrw9OHusoQwKelPhTtypiat+CN+GglAYuDA=="
            }
          },
          {
            "validator_address": "E3B19738F7132F950668504D326C7660F159D170",
            "validator_index": "82",
            "height": "55690",
            "round": "0",
            "timestamp": "2018-08-03T04:09:00.359418188Z",
            "type": 2,
            "block_id": {
              "hash": "5EBDAF9E72ADFEB5A6BF17E06BB752527131020E",
              "parts": {
                "total": "1",
                "hash": "07261FCC26E8FBDEABE44F832DA4FC6B4A7BD67B"
              }
            },
            "signature": {
              "type": "tendermint/SignatureEd25519",
              "value": "7CZPKnesxjE6f05V49m9PB5xWHSNF4hwIbEsQ3a0T5a8NJne0fu+R5X6qEGj7c5vvBJDppcjeLN1Uh7HPEABAg=="
            }
          },
          {
            "validator_address": "E42F8AEABB685219F7027F54D2B0DBC7846F633A",
            "validator_index": "83",
            "height": "55690",
            "round": "0",
            "timestamp": "2018-08-03T04:08:59.353074175Z",
            "type": 2,
            "block_id": {
              "hash": "5EBDAF9E72ADFEB5A6BF17E06BB752527131020E",
              "parts": {
                "total": "1",
                "hash": "07261FCC26E8FBDEABE44F832DA4FC6B4A7BD67B"
              }
            },
            "signature": {
              "type": "tendermint/SignatureEd25519",
              "value": "+ECHSXwVyCtmNkYsQ/4t+RRWwDwXzmP8fpwupwjqOmciOPwcrwsLcgWns8+ccH9xrEYJz1Gqy4yZy6HT8XYNDw=="
            }
          },
          {
            "validator_address": "E4E6C2E81269DFFA196C17F98240E491479A6008",
            "validator_index": "84",
            "height": "55690",
            "round": "0",
            "timestamp": "2018-08-03T04:09:00.444234081Z",
            "type": 2,
            "block_id": {
              "hash": "5EBDAF9E72ADFEB5A6BF17E06BB752527131020E",
              "parts": {
                "total": "1",
                "hash": "07261FCC26E8FBDEABE44F832DA4FC6B4A7BD67B"
              }
            },
            "signature": {
              "type": "tendermint/SignatureEd25519",
              "value": "HbUUw7E6di/whjq4a01NfADJMvSQq+1wBSa/Dm0VfG7Fjce0MgpXmnMSwdEbAN6oN/1CcvcvJsoCrcl82dXiBQ=="
            }
          },
          {
            "validator_address": "E50ADECD5FD27FA2CD610C07F8AED36A2FC4A6A6",
            "validator_index": "85",
            "height": "55690",
            "round": "0",
            "timestamp": "2018-08-03T04:09:00.352892802Z",
            "type": 2,
            "block_id": {
              "hash": "5EBDAF9E72ADFEB5A6BF17E06BB752527131020E",
              "parts": {
                "total": "1",
                "hash": "07261FCC26E8FBDEABE44F832DA4FC6B4A7BD67B"
              }
            },
            "signature": {
              "type": "tendermint/SignatureEd25519",
              "value": "CrNWG+DAVXCVssXfgrakID6Sq9Fg0L1v23u0hRVTwAuyXfaJGGd756t2Q8ObJde0L5FcUOabInoMfb06Vmk6CA=="
            }
          },
          {
            "validator_address": "E6A7079D584B163750BE0831227F6B685DEAF3C1",
            "validator_index": "86",
            "height": "55690",
            "round": "0",
            "timestamp": "2018-08-03T04:09:00.527564084Z",
            "type": 2,
            "block_id": {
              "hash": "5EBDAF9E72ADFEB5A6BF17E06BB752527131020E",
              "parts": {
                "total": "1",
                "hash": "07261FCC26E8FBDEABE44F832DA4FC6B4A7BD67B"
              }
            },
            "signature": {
              "type": "tendermint/SignatureEd25519",
              "value": "+cQvEB4EEQ9bbKkRjqxpZQiHd9iRKMvXsNn3u1gfitA8ycL3UImnJ41wi+WHapdHucA+VtRtXxebgO1+mJk7Dw=="
            }
          },
          {
            "validator_address": "E7A30077D5D11867D3EAF99ED45BFDC1EB834509",
            "validator_index": "87",
            "height": "55690",
            "round": "0",
            "timestamp": "2018-08-03T04:09:00.374247048Z",
            "type": 2,
            "block_id": {
              "hash": "5EBDAF9E72ADFEB5A6BF17E06BB752527131020E",
              "parts": {
                "total": "1",
                "hash": "07261FCC26E8FBDEABE44F832DA4FC6B4A7BD67B"
              }
            },
            "signature": {
              "type": "tendermint/SignatureEd25519",
              "value": "3P4+ZBml8bf9+4ykOBxoiYR3ly57tO5f8ne8HFQX0XnnwyKsKwXVVHaKhoB7iP1MDsL1yooV5617XXlAG1M8DQ=="
            }
          },
          {
            "validator_address": "EBC613967F66F4EC306852CDF58B4F151CF16738",
            "validator_index": "88",
            "height": "55690",
            "round": "0",
            "timestamp": "2018-08-03T04:09:00.50475192Z",
            "type": 2,
            "block_id": {
              "hash": "5EBDAF9E72ADFEB5A6BF17E06BB752527131020E",
              "parts": {
                "total": "1",
                "hash": "07261FCC26E8FBDEABE44F832DA4FC6B4A7BD67B"
              }
            },
            "signature": {
              "type": "tendermint/SignatureEd25519",
              "value": "3wHZOnh77xwXFwV2Lz0uicS/KECCdzaUce4Taj0D8lG8omB5J1Lcj0+pDjfSoJEb0nURzqB4y4srDaDBK0hLAw=="
            }
          },
          {
            "validator_address": "EC3401441726C40ECC7E51F744483B05BC6DE9BD",
            "validator_index": "89",
            "height": "55690",
            "round": "0",
            "timestamp": "2018-08-03T04:09:00.359148486Z",
            "type": 2,
            "block_id": {
              "hash": "5EBDAF9E72ADFEB5A6BF17E06BB752527131020E",
              "parts": {
                "total": "1",
                "hash": "07261FCC26E8FBDEABE44F832DA4FC6B4A7BD67B"
              }
            },
            "signature": {
              "type": "tendermint/SignatureEd25519",
              "value": "fONV3v4iHufTq3czwp3RpJ0m7ZMEuch3OITrdQkRpsRMrRFAX9L0dArtTuzgJtzAV9qwia9+Tn1FB3PVGD1VBg=="
            }
          },
          {
            "validator_address": "EC95B111D032181E1EC3B5E8875C5BB8E4AE7140",
            "validator_index": "90",
            "height": "55690",
            "round": "0",
            "timestamp": "2018-08-03T04:09:00.377620307Z",
            "type": 2,
            "block_id": {
              "hash": "5EBDAF9E72ADFEB5A6BF17E06BB752527131020E",
              "parts": {
                "total": "1",
                "hash": "07261FCC26E8FBDEABE44F832DA4FC6B4A7BD67B"
              }
            },
            "signature": {
              "type": "tendermint/SignatureEd25519",
              "value": "1iLqWDV2LEg52eQ5FOpCJSAiy8bXQQL35ZfDhZuHZ8y4eYEtYofYOE1C4gd57GFRK6MINGNfmyu/eJQb834zAA=="
            }
          },
          {
            "validator_address": "F13C1805E8131C9B47E2A46818F57D8A2841E578",
            "validator_index": "91",
            "height": "55690",
            "round": "0",
            "timestamp": "2018-08-03T04:09:00.384392395Z",
            "type": 2,
            "block_id": {
              "hash": "5EBDAF9E72ADFEB5A6BF17E06BB752527131020E",
              "parts": {
                "total": "1",
                "hash": "07261FCC26E8FBDEABE44F832DA4FC6B4A7BD67B"
              }
            },
            "signature": {
              "type": "tendermint/SignatureEd25519",
              "value": "fk7XzPv+ltVqgyDhojHwxW3ewQ3lXOSFDceILEwM98ZUNqJYLGsAouVI9Gde4/MkjVr5ewzz8kjgYKisOfNxDQ=="
            }
          },
          {
            "validator_address": "F23FF36BD5B90C33CE3A03ED72DBDCF5EC07D6AF",
            "validator_index": "92",
            "height": "55690",
            "round": "0",
            "timestamp": "2018-08-03T04:09:00.43434276Z",
            "type": 2,
            "block_id": {
              "hash": "5EBDAF9E72ADFEB5A6BF17E06BB752527131020E",
              "parts": {
                "total": "1",
                "hash": "07261FCC26E8FBDEABE44F832DA4FC6B4A7BD67B"
              }
            },
            "signature": {
              "type": "tendermint/SignatureEd25519",
              "value": "E/eC8lMUmzKyr3+VZOFceVgfKjGEGQ09NJuPBdnjNMqUIsvIc2oZ42ii0dI4l7G1AVioiMhmblkLHExspACNBQ=="
            }
          },
          {
            "validator_address": "F4268597DE93E3E2CED38845010F8AA34E2A879E",
            "validator_index": "93",
            "height": "55690",
            "round": "0",
            "timestamp": "2018-08-03T04:09:00.418195753Z",
            "type": 2,
            "block_id": {
              "hash": "5EBDAF9E72ADFEB5A6BF17E06BB752527131020E",
              "parts": {
                "total": "1",
                "hash": "07261FCC26E8FBDEABE44F832DA4FC6B4A7BD67B"
              }
            },
            "signature": {
              "type": "tendermint/SignatureEd25519",
              "value": "rYymSyWQpJiJEqt0HRhZFWj6tWmhrnKgnUk5y8OY0VOw9M+HaetuwKAKIlxzBaIZ9oxtS7Vzsp2ewhqM3WkMCQ=="
            }
          },
          {
            "validator_address": "F4DEB417999B04BE2EFF9FFE03FA373D86011CC0",
            "validator_index": "94",
            "height": "55690",
            "round": "0",
            "timestamp": "2018-08-03T04:09:00.390423668Z",
            "type": 2,
            "block_id": {
              "hash": "5EBDAF9E72ADFEB5A6BF17E06BB752527131020E",
              "parts": {
                "total": "1",
                "hash": "07261FCC26E8FBDEABE44F832DA4FC6B4A7BD67B"
              }
            },
            "signature": {
              "type": "tendermint/SignatureEd25519",
              "value": "20ZMG241KftVqQUriQAkqaZwcYtnOjvQGjCNXKs2pz5Kclx/zUZoOOj6YCO1j/fwIRGlkcUx5K0Gz6hiMQ3JAA=="
            }
          },
          {
            "validator_address": "F6738260186D33D9C14FC6E7017AFE6BB952A63D",
            "validator_index": "95",
            "height": "55690",
            "round": "0",
            "timestamp": "2018-08-03T04:09:00.398739846Z",
            "type": 2,
            "block_id": {
              "hash": "5EBDAF9E72ADFEB5A6BF17E06BB752527131020E",
              "parts": {
                "total": "1",
                "hash": "07261FCC26E8FBDEABE44F832DA4FC6B4A7BD67B"
              }
            },
            "signature": {
              "type": "tendermint/SignatureEd25519",
              "value": "MXcKvn4km6sw+/icfGS5wHyse3FLjfsJzHdiEJt/n3YRL+E1rW6Yt2tEGm9PaPBFPIKbPI7KjEHNyJqTVoXzCw=="
            }
          },
          {
            "validator_address": "FD8D304F0278229077114B05BED9DABD382D49D8",
            "validator_index": "96",
            "height": "55690",
            "round": "0",
            "timestamp": "2018-08-03T04:09:00.485189818Z",
            "type": 2,
            "block_id": {
              "hash": "5EBDAF9E72ADFEB5A6BF17E06BB752527131020E",
              "parts": {
                "total": "1",
                "hash": "07261FCC26E8FBDEABE44F832DA4FC6B4A7BD67B"
              }
            },
            "signature": {
              "type": "tendermint/SignatureEd25519",
              "value": "RenSzt+BLtD6YkLAauiDKxh1RoQ1RB6VRARkexYAnzpdyq7EATHWaZl643ujuwaSGiv6Dfpb/dHBTU6uh3mxAQ=="
            }
          },
          {
            "validator_address": "FF3F3FCBCE7E62D7AD5506FF846EC4518D980515",
            "validator_index": "97",
            "height": "55690",
            "round": "0",
            "timestamp": "2018-08-03T04:09:00.334364208Z",
            "type": 2,
            "block_id": {
              "hash": "5EBDAF9E72ADFEB5A6BF17E06BB752527131020E",
              "parts": {
                "total": "1",
                "hash": "07261FCC26E8FBDEABE44F832DA4FC6B4A7BD67B"
              }
            },
            "signature": {
              "type": "tendermint/SignatureEd25519",
              "value": "d6qwjYx5aJFFkV6ARfUb3Lj00Lo/q8eny8deB1HmweQC1o2/hCyknGaC52gsVEmiz+nWj+D1u4XGReM7rWXECA=="
            }
          }
        ]
      }
    },
    "canonical": true
  }
}