{
  "jsonrpc": "2.0",
  "id": "",
  "result": {
    "SignedHeader": {
      "header": {
        "chain_id": "gaia-7004",
        "height": "6013",
        "time": "2018-07-30T15:36:28.027560687Z",
        "num_txs": "0",
        "last_block_id": {
          "hash": "6FC5BEB48F001A9350793F4B77C45142405521AA",
          "parts": {
            "total": "1",
            "hash": "508657815FE327A025F340274F1DA4610209F870"
          }
        },
        "total_txs": "156",
        "last_commit_hash": "D39833EF97A201488D4743CA1C7DB280E4840568",
        "data_hash": "",
        "validators_hash": "FCC5F0F1027DCDB8441B05743DD9F3175E378F17",
        "consensus_hash": "D6B74BB35BDFFD8392340F2A379173548AE188FE",
        "app_hash": "C0950A87DB23874C8097CA1A13F01B258A94F6AD",
        "last_results_hash": "",
        "evidence_hash": ""
      },
      "commit": {
        "block_id": {
          "hash": "0D2B754A54084A019F346A114148B964E451EDB2",
          "parts": {
            "total": "1",
            "hash": "441CB39FA2A2FE4FAF0A88E2B704F1D828C103A4"
          }
        },
        "precommits": [
          {
            "validator_address": "029359C0C768096273A68ABC902A6B17AC8D1D70",
            "validator_index": "0",
            "height": "6013",
            "round": "0",
            "timestamp": "2018-07-30T15:36:28.882131801Z",
            "type": 2,
            "block_id": {
              "hash": "0D2B754A54084A019F346A114148B964E451EDB2",
              "parts": {
                "total": "1",
                "hash": "441CB39FA2A2FE4FAF0A88E2B704F1D828C103A4"
              }
            },
            "signature": {
              "type": "tendermint/SignatureEd25519",
              "value": "0y1tvl9uPE/+xq2vOadiBBS3f3e0TXTE1GkNZbA6Si9aqxeEYlv8hgo+Rt33iVH3Woa54pj/u8wJROZjCyBeAQ=="
            }
          },
          {
            "validator_address": "02FE4B97A8387F39D1AC19E0C1702B3CC614812F",
            "validator_index": "1",
            "height": "6013",
            "round": "0",
            "timestamp": "2018-07-30T15:36:28.902838847Z",
            "type": 2,
            "block_id": {
              "hash": "0D2B754A54084A019F346A114148B964E451EDB2",
              "parts": {
                "total": "1",
                "hash": "441CB39FA2A2FE4FAF0A88E2B704F1D828C103A4"
              }
            },
            "signature": {
              "type": "tendermint/SignatureEd25519",
              "value": "Lu8l2xZvB746oFbXX57f4PVq+V5Jm2qhK945H5BJRbdjuKkAOaANgukiURbVZO74r5qMmyYay7/iVMYm1pU+AQ=="
            }
          },
          {
            "validator_address": "0548261C50222FD710EB5EBDF03A0E6567B21D20",
            "validator_index": "2",
            "height": "6013",
            "round": "0",
            "timestamp": "2018-07-30T15:36:28.980711498Z",
            "type": 2,
            "block_id": {
              "hash": "0D2B754A54084A019F346A114148B964E451EDB2",
              "parts": {
                "total": "1",
                "hash": "441CB39FA2A2FE4FAF0A88E2B704F1D828C103A4"
              }
            },
            "signature": {
              "type": "tendermint/SignatureEd25519",
              "value": "7HXwVAk1s3LJ9Hxz+e70T1C9WC1WEuL/hWUGQ5sLLf19JnrEB2EIbD0XrBioBqxkocFzZVDjmtb4sZXYLmllAQ=="
            }
          },
          null,
          {
            "validator_address": "09145E611CC27EEB944FC5A956DDF710F943B9EF",
            "validator_index": "4",
            "height": "6013",
            "round": "0",
            "timestamp": "2018-07-30T15:36:28.87580157Z",
            "type": 2,
            "block_id": {
              "hash": "0D2B754A54084A019F346A114148B964E451EDB2",
              "parts": {
                "total": "1",
                "hash": "441CB39FA2A2FE4FAF0A88E2B704F1D828C103A4"
              }
            },
            "signature": {
              "type": "tendermint/SignatureEd25519",
              "value": "c5eL4W2+DeGuuIf1+G8d7rV/iUWEHgI0l6rEYpG+Zr2dHo0kl4vz7VSx6Jwqlv4rZbdvIAEQO1TzS4/+0necDQ=="
            }
          },
          {
            "validator_address": "0989D0355A104B67AE0AE028C68FB610690E174B",
            "validator_index": "5",
            "height": "6013",
            "round": "0",
            "timestamp": "2018-07-30T15:36:28.86560639Z",
            "type": 2,
            "block_id": {
              "hash": "0D2B754A54084A019F346A114148B964E451EDB2",
              "parts": {
                "total": "1",
                "hash": "441CB39FA2A2FE4FAF0A88E2B704F1D828C103A4"
              }
            },
            "signature": {
              "type": "tendermint/SignatureEd25519",
              "value": "tnrNNHrSid8Pg9XujLzYh67nMNcaIwcQDJDdTjwq7FuI8XJce+QTPb4iaZUj0BCRwqTsd/2w7kp+i819hMA4DA=="
            }
          },
          {
            "validator_address": "0A692DBFFE9E5DD28E7DECC33CED1AEB4C0D014E",
            "validator_index": "6",
            "height": "6013",
            "round": "0",
            "timestamp": "2018-07-30T15:36:29.036963258Z",
            "type": 2,
            "block_id": {
              "hash": "0D2B754A54084A019F346A114148B964E451EDB2",
              "parts": {
                "total": "1",
                "hash": "441CB39FA2A2FE4FAF0A88E2B704F1D828C103A4"
              }
            },
            "signature": {
              "type": "tendermint/SignatureEd25519",
              "value": "KkNkPouHqi+g/H0V08E0e3BS+3DuKMj+l6QyUJd+HQ8BjYVnhI9QK2t+DQpZdjx3cKVkqVJJCyCcuEcFCp4XAA=="
            }
          },
          {
            "validator_address": "0DDF97111D73DB825138EC15EC27DE5FE8536901",
            "validator_index": "7",
            "height": "6013",
            "round": "0",
            "timestamp": "2018-07-30T15:36:28.958682885Z",
            "type": 2,
            "block_id": {
              "hash": "0D2B754A54084A019F346A114148B964E451EDB2",
              "parts": {
                "total": "1",
                "hash": "441CB39FA2A2FE4FAF0A88E2B704F1D828C103A4"
              }
            },
            "signature": {
              "type": "tendermint/SignatureEd25519",
              "value": "zRChsTrKbSFRRpE1utxw2M3HMyT3O4PPwd8DgM9XSxF4hUa5rIJrnZkKtRJ1NE0/ajL9fi6s86xRX1ENW+okAQ=="
            }
          },
          null,
          {
            "validator_address": "1751786EFC085D5331C61168FFFC8202EA151B4E",
            "validator_index": "9",
            "height": "6013",
            "round": "0",
            "timestamp": "2018-07-30T15:36:28.21155152Z",
            "type": 2,
            "block_id": {
              "hash": "0D2B754A54084A019F346A114148B964E451EDB2",
              "parts": {
                "total": "1",
                "hash": "441CB39FA2A2FE4FAF0A88E2B704F1D828C103A4"
              }
            },
            "signature": {
              "type": "tendermint/SignatureEd25519",
              "value": "RIjIhhLk0OjtyWz42lV1qzFX61HuO++3rLao8uoUn8aS2DEXoWrNfjIDZ+iJneWU+ohEWWi8fhGYcSYT2PGFCA=="
            }
          },
          {
            "validator_address": "17BB5CD01E8940FAFB948A04D5FA5A0645E5822E",
            "validator_index": "10",
            "height": "6013",
            "round": "0",
            "timestamp": "2018-07-30T15:36:28.931113581Z",
            "type": 2,
            "block_id": {
              "hash": "0D2B754A54084A019F346A114148B964E451EDB2",
              "parts": {
                "total": "1",
                "hash": "441CB39FA2A2FE4FAF0A88E2B704F1D828C103A4"
              }
            },
            "signature": {
              "type": "tendermint/SignatureEd25519",
              "value": "RZUId9SWvWZ7fwkadFuhRYqrdw8vqaNJRn5C+6HdrrJj3TNAmT5rI2mXm/ZkDWekCFEYS4ZkSRpInAzAZM6dBw=="
            }
          },
          {
            "validator_address": "1C683A87904BC38F05004FE83301A3A3E35447EB",
            "validator_index": "11",
            "height": "6013",
            "round": "0",
            "timestamp": "2018-07-30T15:36:28.889175971Z",
            "type": 2,
            "block_id": {
              "hash": "0D2B754A54084A019F346A114148B964E451EDB2",
              "parts": {
                "total": "1",
                "hash": "441CB39FA2A2FE4FAF0A88E2B704F1D828C103A4"
              }
            },
            "signature": {
              "type": "tendermint/SignatureEd25519",
              "value": "EiHPNwkHwvG/IJ3fzEkictgf8x3hLol7oNH50GjPCspZo10VNk0JHnxgrga5fr9zZPUDbCizdCfnlXI/d2KADQ=="
            }
          },
          {
            "validator_address": "1E9CE94FD0BA5CFEB901F90BC658D64D85B134D2",
            "validator_index": "12",
            "height": "6013",
            "round": "0",
            "timestamp": "2018-07-30T15:36:28.931862833Z",
            "type": 2,
            "block_id": {
              "hash": "0D2B754A54084A019F346A114148B964E451EDB2",
              "parts": {
                "total": "1",
                "hash": "441CB39FA2A2FE4FAF0A88E2B704F1D828C103A4"
              }
            },
            "signature": {
              "type": "tendermint/SignatureEd25519",
              "value": "uvz5cBwsDwVJ011jn0aO9TV1Xg9o4MPCgYKu9LtFetOSvHFQoLHT7ZuBIoawoTHXVHU+b2kx8ERm1f5vg5fmCA=="
            }
          },
          {
            "validator_address": "1ECD8C5FE1341D74CDC633A245DD56858DE2F9A2",
            "validator_index": "13",
            "height": "6013",
            "round": "0",
            "timestamp": "2018-07-30T15:36:28.979756112Z",
            "type": 2,
            "block_id": {
              "hash": "0D2B754A54084A019F346A114148B964E451EDB2",
              "parts": {
                "total": "1",
                "hash": "441CB39FA2A2FE4FAF0A88E2B704F1D828C103A4"
              }
            },
            "signature": {
              "type": "tendermint/SignatureEd25519",
              "value": "1KfwoyvP+ixcjtPYFv8LIcvfii5iDD/RxxYR8kfPzCUHVObDyxm9SO/6n6Ibx1TmXYvw8Fq8LeLpMUYUO4pFDg=="
            }
          },
          {
            "validator_address": "1F3A68CAAD483768AA2BF667DEF10F7104C89928",
            "validator_index": "14",
            "height": "6013",
            "round": "0",
            "timestamp": "2018-07-30T15:36:28.911267127Z",
            "type": 2,
            "block_id": {
              "hash": "0D2B754A54084A019F346A114148B964E451EDB2",
              "parts": {
                "total": "1",
                "hash": "441CB39FA2A2FE4FAF0A88E2B704F1D828C103A4"
              }
            },
            "signature": {
              "type": "tendermint/SignatureEd25519",
              "value": "1TcIpAp4QrEA1mNWtRsVViIFLndq2jDNpHFVWvK/axeDfN6GEg1dHyGoT4tTQUk7NYw2yYvQZN9mSA/KBf7UBg=="
            }
          },
          null,
          {
            "validator_address": "23897586D68E2AC1C78E0EF5BB5DF5C8EAB18F50",
            "validator_index": "16",
            "height": "6013",
            "round": "0",
            "timestamp": "2018-07-30T15:36:28.905126525Z",
            "type": 2,
            "block_id": {
              "hash": "0D2B754A54084A019F346A114148B964E451EDB2",
              "parts": {
                "total": "1",
                "hash": "441CB39FA2A2FE4FAF0A88E2B704F1D828C103A4"
              }
            },
            "signature": {
              "type": "tendermint/SignatureEd25519",
              "value": "XyL7D+Ck5l912lA7a5aozu36qMA97oC2pe/Sy2xEmK6DOg7btJlX9oLvXQKZxG1SXOSEz2yPLeAO6Ovsld7JAA=="
            }
          },
          {
            "validator_address": "28770D17E8530825E7310A0659308654B7EC9682",
            "validator_index": "17",
            "height": "6013",
            "round": "0",
            "timestamp": "2018-07-30T15:36:28.862497786Z",
            "type": 2,
            "block_id": {
              "hash": "0D2B754A54084A019F346A114148B964E451EDB2",
              "parts": {
                "total": "1",
                "hash": "441CB39FA2A2FE4FAF0A88E2B704F1D828C103A4"
              }
            },
            "signature": {
              "type": "tendermint/SignatureEd25519",
              "value": "PFLyOMeyjU/rCKTvH9c6Sz/gVtKHm2nwKxqEaXlIhB/NFO59Km/17GJl/VgoqfMtlOeekhSAJ79gIq9pwMtQBg=="
            }
          },
          null,
          {
            "validator_address": "2A92EC3C642140202298D0E245095E0ECFC25228",
            "validator_index": "19",
            "height": "6013",
            "round": "0",
            "timestamp": "2018-07-30T15:36:28.997948667Z",
            "type": 2,
            "block_id": {
              "hash": "0D2B754A54084A019F346A114148B964E451EDB2",
              "parts": {
                "total": "1",
                "hash": "441CB39FA2A2FE4FAF0A88E2B704F1D828C103A4"
              }
            },
            "signature": {
              "type": "tendermint/SignatureEd25519",
              "value": "kcR+yZcAlduOcP0HQJNWNUPEv+dGO/y2O23MqH42F5U7IdQXFdeVJu+BvYzufG510j0OC7eFToYTEg+SVcuHBA=="
            }
          },
          null,
          null,
          {
            "validator_address": "33412C9A69C60CB0FAA24A5C5B3A906DE24B47C2",
            "validator_index": "22",
            "height": "6013",
            "round": "0",
            "timestamp": "2018-07-30T15:36:28.849206509Z",
            "type": 2,
            "block_id": {
              "hash": "0D2B754A54084A019F346A114148B964E451EDB2",
              "parts": {
                "total": "1",
                "hash": "441CB39FA2A2FE4FAF0A88E2B704F1D828C103A4"
              }
            },
            "signature": {
              "type": "tendermint/SignatureEd25519",
              "value": "tnO0jRSX/WGyxxqCVFjmfIh3ymYM62VViL/8SJiA8WKw5X1vMBh6hVmB/DmKg2JXUjoAC9zQu4tW8zAjuqhADw=="
            }
          },
          null,
          {
            "validator_address": "3383EF2A13B160C41947AC30434B274B2FAF0617",
            "validator_index": "24",
            "height": "6013",
            "round": "0",
            "timestamp": "2018-07-30T15:36:28.897936921Z",
            "type": 2,
            "block_id": {
              "hash": "0D2B754A54084A019F346A114148B964E451EDB2",
              "parts": {
                "total": "1",
                "hash": "441CB39FA2A2FE4FAF0A88E2B704F1D828C103A4"
              }
            },
            "signature": {
              "type": "tendermint/SignatureEd25519",
              "value": "FdLSkq4WXPkdamcuDfKn6kpD4ekGaBZpLutv8isjpbrB1dGhX94TfHbpB9fO8nTxaSTHrj7FTbaI9HWX8O3VAA=="
            }
          },
          {
            "validator_address": "36E9B7FAEC964F97D84C028ED62493E373AD0B38",
            "validator_index": "25",
            "height": "6013",
            "round": "0",
            "timestamp": "2018-07-30T15:36:28.967257965Z",
            "type": 2,
            "block_id": {
              "hash": "0D2B754A54084A019F346A114148B964E451EDB2",
              "parts": {
                "total": "1",
                "hash": "441CB39FA2A2FE4FAF0A88E2B704F1D828C103A4"
              }
            },
            "signature": {
              "type": "tendermint/SignatureEd25519",
              "value": "seuuq4+Ui/MOtX6eHWzPls8UhDe40d747JxbXEckiAwcdnc6gpHhoERoQL2XABoHHXGVIPRbrwzRpXweef2zBQ=="
            }
          },
          {
            "validator_address": "38A8D85D36BEA2E5FCF8A1E778F53628E450EF13",
            "validator_index": "26",
            "height": "6013",
            "round": "0",
            "timestamp": "2018-07-30T15:36:29.063270935Z",
            "type": 2,
            "block_id": {
              "hash": "0D2B754A54084A019F346A114148B964E451EDB2",
              "parts": {
                "total": "1",
                "hash": "441CB39FA2A2FE4FAF0A88E2B704F1D828C103A4"
              }
            },
            "signature": {
              "type": "tendermint/SignatureEd25519",
              "value": "X0dx0IurCrF55m9Kf6TofRRGuGVb8C1aj0+3mMQ+WnSz5IhkmM2ZVOrooQD+o07vy+L1lb6b/vPCoP2cJ5yOCg=="
            }
          },
          {
            "validator_address": "39DFDA0C5DB84B269642188B23253508537798E6",
            "validator_index": "27",
            "height": "6013",
            "round": "0",
            "timestamp": "2018-07-30T15:36:28.889986238Z",
            "type": 2,
            "block_id": {
              "hash": "0D2B754A54084A019F346A114148B964E451EDB2",
              "parts": {
                "total": "1",
                "hash": "441CB39FA2A2FE4FAF0A88E2B704F1D828C103A4"
              }
            },
            "signature": {
              "type": "tendermint/SignatureEd25519",
              "value": "j0nH3roNDuklVCRKGfeg3dzzG79D5AgTYnJTEnX0R0KqjmRYzxMbNrFA/4rkuaeeHckCBhOlZUyU2DFYmGCvDg=="
            }
          },
          {
            "validator_address": "3AC99B708404452366E0953A4BE849226DC86CBC",
            "validator_index": "28",
            "height": "6013",
            "round": "0",
            "timestamp": "2018-07-30T15:36:28.983913208Z",
            "type": 2,
            "block_id": {
              "hash": "0D2B754A54084A019F346A114148B964E451EDB2",
              "parts": {
                "total": "1",
                "hash": "441CB39FA2A2FE4FAF0A88E2B704F1D828C103A4"
              }
            },
            "signature": {
              "type": "tendermint/SignatureEd25519",
              "value": "rO+pw29Ja/41iAAJeSRNq5QjSCibu89Zx5q94ZB8QvrhV/E5aYxCY/U2gbNOS8OSX1UPD5Te601jhPbJqm/6CA=="
            }
          },
          {
            "validator_address": "3DCB822A10ED319EC7C4393D8E3FD4A41B15AAF2",
            "validator_index": "29",
            "height": "6013",
            "round": "0",
            "timestamp": "2018-07-30T15:36:28.863526013Z",
            "type": 2,
            "block_id": {
              "hash": "0D2B754A54084A019F346A114148B964E451EDB2",
              "parts": {
                "total": "1",
                "hash": "441CB39FA2A2FE4FAF0A88E2B704F1D828C103A4"
              }
            },
            "signature": {
              "type": "tendermint/SignatureEd25519",
              "value": "PhzUUz3tS+cI9fRsWUKhr+oEPZz74sncE4Hm5Yi1u0dLla5qv06YsxUdrg+kAqERZwLIaXF8PgDr1i0dnHNNCw=="
            }
          },
          {
            "validator_address": "3E899BA36A93C7370347BD5FE85909F2ECD93F8C",
            "validator_index": "30",
            "height": "6013",
            "round": "0",
            "timestamp": "2018-07-30T15:36:28.888665407Z",
            "type": 2,
            "block_id": {
              "hash": "0D2B754A54084A019F346A114148B964E451EDB2",
              "parts": {
                "total": "1",
                "hash": "441CB39FA2A2FE4FAF0A88E2B704F1D828C103A4"
              }
            },
            "signature": {
              "type": "tendermint/SignatureEd25519",
              "value": "Obw6uUjd1A7rrefdsK+QpZEuacyDSS6X72sVmf3dTCp1fySGklmBF6BWrYog4AEJUj9nJZsgE0ml6VzSiAy5Aw=="
            }
          },
          {
            "validator_address": "41CAB2E29E7D0F2282E3275938F188FF9386B84C",
            "validator_index": "31",
            "height": "6013",
            "round": "0",
            "timestamp": "2018-07-30T15:36:28.945570241Z",
            "type": 2,
            "block_id": {
              "hash": "0D2B754A54084A019F346A114148B964E451EDB2",
              "parts": {
                "total": "1",
                "hash": "441CB39FA2A2FE4FAF0A88E2B704F1D828C103A4"
              }
            },
            "signature": {
              "type": "tendermint/SignatureEd25519",
              "value": "HRFzxKBDuFdLXY2sl+XNONNN+dvnWI5C5cy4sOKHzagJSRsUVdRdGYu505eyKZvZdvpm8G7/OoUtRPUb0p2bBw=="
            }
          },
          {
            "validator_address": "462B656869DB02A8FD1077E255F8CC7401DC37C6",
            "validator_index": "32",
            "height": "6013",
            "round": "0",
            "timestamp": "2018-07-30T15:36:28.879331951Z",
            "type": 2,
            "block_id": {
              "hash": "0D2B754A54084A019F346A114148B964E451EDB2",
              "parts": {
                "total": "1",
                "hash": "441CB39FA2A2FE4FAF0A88E2B704F1D828C103A4"
              }
            },
            "signature": {
              "type": "tendermint/SignatureEd25519",
              "value": "bmRIktP07kKbAbScudgpdnKYWaG3XASExdEBErIfE2fy1VUpGiRQXg4ZshosOibqtqWfj1Wi6OcECgnEqjysBg=="
            }
          },
          {
            "validator_address": "48E5118163E5442068A1B5A42D2EEDBB75724935",
            "validator_index": "33",
            "height": "6013",
            "round": "0",
            "timestamp": "2018-07-30T15:36:28.995747168Z",
            "type": 2,
            "block_id": {
              "hash": "0D2B754A54084A019F346A114148B964E451EDB2",
              "parts": {
                "total": "1",
                "hash": "441CB39FA2A2FE4FAF0A88E2B704F1D828C103A4"
              }
            },
            "signature": {
              "type": "tendermint/SignatureEd25519",
              "value": "NUK3C65et8j2gY9nBSoPoINfZhHXSBDhhwF73XVR4KSwck+o+4yg+AXrueZv5VUHqcqi6dAx64zidq2/VYidBw=="
            }
          },
          null,
          {
            "validator_address": "4944F8BBBB5303E17BC0607DF332320EDBC750EA",
            "validator_index": "35",
            "height": "6013",
            "round": "0",
            "timestamp": "2018-07-30T15:36:28.903572508Z",
            "type": 2,
            "block_id": {
              "hash": "0D2B754A54084A019F346A114148B964E451EDB2",
              "parts": {
                "total": "1",
                "hash": "441CB39FA2A2FE4FAF0A88E2B704F1D828C103A4"
              }
            },
            "signature": {
              "type": "tendermint/SignatureEd25519",
              "value": "09g0IUOBSDtku9q6GAQAFEO5kcw1fI2f+AzCvmi8gXEuEerdp7Qb97FQvxaVweFFS70RotQUhrArtl4g0/uvDA=="
            }
          },
          {
            "validator_address": "49841599DE675157CBE1E7D6B35BF8FFC23BD5CB",
            "validator_index": "36",
            "height": "6013",
            "round": "0",
            "timestamp": "2018-07-30T15:36:28.847375439Z",
            "type": 2,
            "block_id": {
              "hash": "0D2B754A54084A019F346A114148B964E451EDB2",
              "parts": {
                "total": "1",
                "hash": "441CB39FA2A2FE4FAF0A88E2B704F1D828C103A4"
              }
            },
            "signature": {
              "type": "tendermint/SignatureEd25519",
              "value": "ytV8p4lYQwUM0GegVIy22ja/RstYkCc+Cthuv5SZmAJYbzcoKtotnMFSnkpVRjWfEwIJODR4UdttuY6sBikRCw=="
            }
          },
          {
            "validator_address": "5104F488EA6B1E2C33CBDA3C18389C88104DBC72",
            "validator_index": "37",
            "height": "6013",
            "round": "0",
            "timestamp": "2018-07-30T15:36:28.900307728Z",
            "type": 2,
            "block_id": {
              "hash": "0D2B754A54084A019F346A114148B964E451EDB2",
              "parts": {
                "total": "1",
                "hash": "441CB39FA2A2FE4FAF0A88E2B704F1D828C103A4"
              }
            },
            "signature": {
              "type": "tendermint/SignatureEd25519",
              "value": "h+wjhN0IZ7OWZccjnaWnEK3H6IlNPFYTmyF7FlN4yLYw1JTL5yGIms9JDWB7aN0LQeSZh6Q9mbreOSZB/jR2AQ=="
            }
          },
          {
            "validator_address": "51386C2CF9556821D114D7E4945806802BADB28D",
            "validator_index": "38",
            "height": "6013",
            "round": "0",
            "timestamp": "2018-07-30T15:36:29.004726476Z",
            "type": 2,
            "block_id": {
              "hash": "0D2B754A54084A019F346A114148B964E451EDB2",
              "parts": {
                "total": "1",
                "hash": "441CB39FA2A2FE4FAF0A88E2B704F1D828C103A4"
              }
            },
            "signature": {
              "type": "tendermint/SignatureEd25519",
              "value": "2HQNsSTSTY4QSe9aNf/kYQIpHDk82SWGoHSiAOC7dZo4OjJZ1UIsa1SeP9DTbsamo0e02L92DOaqMByVomaDAw=="
            }
          },
          {
            "validator_address": "543564ECA3AFEFADC73EE8591AAC3A96F079BC8A",
            "validator_index": "39",
            "height": "6013",
            "round": "0",
            "timestamp": "2018-07-30T15:36:28.863067478Z",
            "type": 2,
            "block_id": {
              "hash": "0D2B754A54084A019F346A114148B964E451EDB2",
              "parts": {
                "total": "1",
                "hash": "441CB39FA2A2FE4FAF0A88E2B704F1D828C103A4"
              }
            },
            "signature": {
              "type": "tendermint/SignatureEd25519",
              "value": "BokLeazQlV6NzPPS0KhXlMHDvnZ6KhEJRGhd+ROtdcsrU/dFI5MCtn6Q3Z2yObkVqcM8UstjP9Gow0ZgLW6QCg=="
            }
          },
          {
            "validator_address": "55D67B1A6DC13E96F8754A5A42EABC20F7F86664",
            "validator_index": "40",
            "height": "6013",
            "round": "0",
            "timestamp": "2018-07-30T15:36:28.883846246Z",
            "type": 2,
            "block_id": {
              "hash": "0D2B754A54084A019F346A114148B964E451EDB2",
              "parts": {
                "total": "1",
                "hash": "441CB39FA2A2FE4FAF0A88E2B704F1D828C103A4"
              }
            },
            "signature": {
              "type": "tendermint/SignatureEd25519",
              "value": "rTZECPghXbOqqio5gFu97pzx9zY777+OQSS84jdop7ga2bHoBhNmamCGTimPnGzMfJ6nEigDbUv6/7hnvIDfBA=="
            }
          },
          {
            "validator_address": "570B6A755ED339EAC56BB3390A48069F6AC9449B",
            "validator_index": "41",
            "height": "6013",
            "round": "0",
            "timestamp": "2018-07-30T15:36:29.369231689Z",
            "type": 2,
            "block_id": {
              "hash": "0D2B754A54084A019F346A114148B964E451EDB2",
              "parts": {
                "total": "1",
                "hash": "441CB39FA2A2FE4FAF0A88E2B704F1D828C103A4"
              }
            },
            "signature": {
              "type": "tendermint/SignatureEd25519",
              "value": "QDHQ+OM19gQBecSZ0ITxWbMOfgHPQsLfvD5jG1PW5s0G1OsYkz7uk5Zmk+SRNPnYIwmZHfmQ3/UTPtQCIDG8AA=="
            }
          },
          {
            "validator_address": "5BDF8EA41B1835FBAD865B181A2A4B23F511B5E4",
            "validator_index": "42",
            "height": "6013",
            "round": "0",
            "timestamp": "2018-07-30T15:36:28.859705136Z",
            "type": 2,
            "block_id": {
              "hash": "0D2B754A54084A019F346A114148B964E451EDB2",
              "parts": {
                "total": "1",
                "hash": "441CB39FA2A2FE4FAF0A88E2B704F1D828C103A4"
              }
            },
            "signature": {
              "type": "tendermint/SignatureEd25519",
              "value": "Cx+12Et4W/BTELd88YVa7euNURAqNrwRYy2PLjb7lhz+amR3VJLuVESadwnqgQRcHwMmyY5YR28SF+2wCiA2BA=="
            }
          },
          null,
          {
            "validator_address": "5E8673673E37450F01B64138FBF4B172BDB52D68",
            "validator_index": "44",
            "height": "6013",
            "round": "0",
            "timestamp": "2018-07-30T15:36:29.034693Z",
            "type": 2,
            "block_id": {
              "hash": "0D2B754A54084A019F346A114148B964E451EDB2",
              "parts": {
                "total": "1",
                "hash": "441CB39FA2A2FE4FAF0A88E2B704F1D828C103A4"
              }
            },
            "signature": {
              "type": "tendermint/SignatureEd25519",
              "value": "8T7umFSCn+z80xSDXM/0xBkO76fpI9FRjdPvL2vG7YVsfqr7GGmo01W7h1UNUMkPbsaWtpzm/JUK5dwtuh8VAQ=="
            }
          },
          {
            "validator_address": "60229E2E273297FE00219E46DFFB8F76844CDEF9",
            "validator_index": "45",
            "height": "6013",
            "round": "0",
            "timestamp": "2018-07-30T15:36:28.300302013Z",
            "type": 2,
            "block_id": {
              "hash": "0D2B754A54084A019F346A114148B964E451EDB2",
              "parts": {
                "total": "1",
                "hash": "441CB39FA2A2FE4FAF0A88E2B704F1D828C103A4"
              }
            },
            "signature": {
              "type": "tendermint/SignatureEd25519",
              "value": "GjjWEk3rC7CZwcDsBYBIeoavZlbD4a16XEANYo+SKvojvHMSHoZlTlrLvzzKhC/g94OtVuJ3PqGHK+qYCLzqCw=="
            }
          },
          {
            "validator_address": "62410D6D1CD98278136E4D0738AA0EA273CDFC54",
            "validator_index": "46",
            "height": "6013",
            "round": "0",
            "timestamp": "2018-07-30T15:36:28.874306894Z",
            "type": 2,
            "block_id": {
              "hash": "0D2B754A54084A019F346A114148B964E451EDB2",
              "parts": {
                "total": "1",
                "hash": "441CB39FA2A2FE4FAF0A88E2B704F1D828C103A4"
              }
            },
            "signature": {
              "type": "tendermint/SignatureEd25519",
              "value": "5kDVVD08/6wUia3iSSm/F4GnM4fKWXuxy8hf2DDjM7IrA3ojqGnvNDJ+5D/Zxe1THi0EN/k+WKllQktUb4YqAA=="
            }
          },
          {
            "validator_address": "632F5C139A5A9DFBFE5111DEE29FCFB6157207DC",
            "validator_index": "47",
            "height": "6013",
            "round": "0",
            "timestamp": "2018-07-30T15:36:28.941007762Z",
            "type": 2,
            "block_id": {
              "hash": "0D2B754A54084A019F346A114148B964E451EDB2",
              "parts": {
                "total": "1",
                "hash": "441CB39FA2A2FE4FAF0A88E2B704F1D828C103A4"
              }
            },
            "signature": {
              "type": "tendermint/SignatureEd25519",
              "value": "0hFljOEVGfNTZKUl7z6s4GfMaS65DXKKg6BUi96IL4OUBzYHQxurJxvfOnERZBfCbbsIulxN3I+mrt+KN6NCBw=="
            }
          },
          {
            "validator_address": "64F57F8E796A9B7B590C1EFA4123988C86631D39",
            "validator_index": "48",
            "height": "6013",
            "round": "0",
            "timestamp": "2018-07-30T15:36:28.880019051Z",
            "type": 2,
            "block_id": {
              "hash": "0D2B754A54084A019F346A114148B964E451EDB2",
              "parts": {
                "total": "1",
                "hash": "441CB39FA2A2FE4FAF0A88E2B704F1D828C103A4"
              }
            },
            "signature": {
              "type": "tendermint/SignatureEd25519",
              "value": "8RadmBiL3pvvEFIKuw4I76hNKJDvwPALfHoghSZYMIlpa+t9nSWr2xVz1vdmOAQksWoYm9d7kPEgHeoDusMyDg=="
            }
          },
          {
            "validator_address": "69D99B2C66043ACBEAA8447525C356AFC6408E0C",
            "validator_index": "49",
            "height": "6013",
            "round": "0",
            "timestamp": "2018-07-30T15:36:29.003435008Z",
            "type": 2,
            "block_id": {
              "hash": "0D2B754A54084A019F346A114148B964E451EDB2",
              "parts": {
                "total": "1",
                "hash": "441CB39FA2A2FE4FAF0A88E2B704F1D828C103A4"
              }
            },
            "signature": {
              "type": "tendermint/SignatureEd25519",
              "value": "i5rWoC4kswRHULduDm2xcZ5TGxePWXO/r5aDCTrhqxJdPy5h3EZImYXZdesMNMasWbJOmlp561+4RXTwohBbDg=="
            }
          },
          {
            "validator_address": "69EDADFA4A803E9DBF548C900D4A465E7D154262",
            "validator_index": "50",
            "height": "6013",
            "round": "0",
            "timestamp": "2018-07-30T15:36:28.978010241Z",
            "type": 2,
            "block_id": {
              "hash": "0D2B754A54084A019F346A114148B964E451EDB2",
              "parts": {
                "total": "1",
                "hash": "441CB39FA2A2FE4FAF0A88E2B704F1D828C103A4"
              }
            },
            "signature": {
              "type": "tendermint/SignatureEd25519",
              "value": "M3v7CliSvwPO6XjtwBK1ga9vWdgprYXqMtibRGA/jlP5eooW5Fxx9e4/xgW/mZL441npuLxqYUQtGx7US8HmDA=="
            }
          },
          {
            "validator_address": "6D3AD380E398D8592B03AA124BAFED5F125DF863",
            "validator_index": "51",
            "height": "6013",
            "round": "0",
            "timestamp": "2018-07-30T15:35:27.408258554Z",
            "type": 2,
            "block_id": {
              "hash": "0D2B754A54084A019F346A114148B964E451EDB2",
              "parts": {
                "total": "1",
                "hash": "441CB39FA2A2FE4FAF0A88E2B704F1D828C103A4"
              }
            },
            "signature": {
              "type": "tendermint/SignatureEd25519",
              "value": "NyZW0gxOxiYKmSzi0W+auf4Wkgc8ApcLrJ0aFQw/Xymt9dbbAc+hj9lwC9yQrO9mNC4UgGIadbik/ic1cSFkCw=="
            }
          },
          {
            "validator_address": "6F6C93B8BF3495063FEC9B5C771158607F4AE9D6",
            "validator_index": "52",
            "height": "6013",
            "round": "0",
            "timestamp": "2018-07-30T15:36:29.003362391Z",
            "type": 2,
            "block_id": {
              "hash": "0D2B754A54084A019F346A114148B964E451EDB2",
              "parts": {
                "total": "1",
                "hash": "441CB39FA2A2FE4FAF0A88E2B704F1D828C103A4"
              }
            },
            "signature": {
              "type": "tendermint/SignatureEd25519",
              "value": "dgMrQwyV0hXrqM+bt9gNrmNGyjm5UOIVDZ1BIWlxlYUppqyWKGPGeTAA6TsFy08GK+tD88BTjLjoXXvw3JvKBQ=="
            }
          },
          {
            "validator_address": "732CEEF54C374DDC6ADECBFD707AEFD07FEDC143",
            "validator_index": "53",
            "height": "6013",
            "round": "0",
            "timestamp": "2018-07-30T15:36:28.942106311Z",
            "type": 2,
            "block_id": {
              "hash": "0D2B754A54084A019F346A114148B964E451EDB2",
              "parts": {
                "total": "1",
                "hash": "441CB39FA2A2FE4FAF0A88E2B704F1D828C103A4"
              }
            },
            "signature": {
              "type": "tendermint/SignatureEd25519",
              "value": "6JHjBIipks538YemLmmhsi6m3EdidSvmFUwa4xhE3lNXmARLA0DNmu0wOBYyhjgWSAY2PH+3eCBG3/2vtM6+Cw=="
            }
          },
          {
            "validator_address": "7393D691BFAE9661918C09932D4D9060AB40939B",
            "validator_index": "54",
            "height": "6013",
            "round": "0",
            "timestamp": "2018-07-30T15:36:29.048171738Z",
            "type": 2,
            "block_id": {
              "hash": "0D2B754A54084A019F346A114148B964E451EDB2",
              "parts": {
                "total": "1",
                "hash": "441CB39FA2A2FE4FAF0A88E2B704F1D828C103A4"
              }
            },
            "signature": {
              "type": "tendermint/SignatureEd25519",
              "value": "QJW4EZJsNNq7I/uQQfLUs/CeQwLNBdpMKZgVUT8ISJnFRuHtCxBxx3cs1GH0HberBwRjRu3fMZCoBHKzuvW5Cg=="
            }
          },
          {
            "validator_address": "751E43437224E8BB6D1569B3E2B2616B6E7F4397",
            "validator_index": "55",
            "height": "6013",
            "round": "0",
            "timestamp": "2018-07-30T15:36:28.962970665Z",
            "type": 2,
            "block_id": {
              "hash": "0D2B754A54084A019F346A114148B964E451EDB2",
              "parts": {
                "total": "1",
                "hash": "441CB39FA2A2FE4FAF0A88E2B704F1D828C103A4"
              }
            },
            "signature": {
              "type": "tendermint/SignatureEd25519",
              "value": "BQqL2PIcmwhy6tmo+y5tSQe9BGPpjZ2glVEa0e7pYwbPuqOfKEPVe23OyiiTBMCKiLpzXIQxlPs1tBdBn+mBBQ=="
            }
          },
          {
            "validator_address": "7EB7593F519F1180C7E872D0494611464EDF03AE",
            "validator_index": "56",
            "height": "6013",
            "round": "0",
            "timestamp": "2018-07-30T15:36:29.001050531Z",
            "type": 2,
            "block_id": {
              "hash": "0D2B754A54084A019F346A114148B964E451EDB2",
              "parts": {
                "total": "1",
                "hash": "441CB39FA2A2FE4FAF0A88E2B704F1D828C103A4"
              }
            },
            "signature": {
              "type": "tendermint/SignatureEd25519",
              "value": "FRJ6KQgYL1qTdzBePriSMEPnM+JQbQr+OomYaWkcHgvQiVYeXmCKiS8sZt90c1WOVBUMVzVK8jUtlyWQE6U9Ag=="
            }
          },
          {
            "validator_address": "807CF675BA8479FC4FEC1047215DF07970040F1F",
            "validator_index": "57",
            "height": "6013",
            "round": "0",
            "timestamp": "2018-07-30T15:36:29.156933483Z",
            "type": 2,
            "block_id": {
              "hash": "0D2B754A54084A019F346A114148B964E451EDB2",
              "parts": {
                "total": "1",
                "hash": "441CB39FA2A2FE4FAF0A88E2B704F1D828C103A4"
              }
            },
            "signature": {
              "type": "tendermint/SignatureEd25519",
              "value": "cwzyFlQbwlFCVU/U2vFOgE+qitPEvDpL2QIH72KqB8/KDamiq5Cft/xny+erDeZGz1dDcct9zsGs30K1SpHmDA=="
            }
          },
          {
            "validator_address": "8126192EA66E8ADE6B36924534721366B987A4C1",
            "validator_index": "58",
            "height": "6013",
            "round": "0",
            "timestamp": "2018-07-30T15:36:28.990164845Z",
            "type": 2,
            "block_id": {
              "hash": "0D2B754A54084A019F346A114148B964E451EDB2",
              "parts": {
                "total": "1",
                "hash": "441CB39FA2A2FE4FAF0A88E2B704F1D828C103A4"
              }
            },
            "signature": {
              "type": "tendermint/SignatureEd25519",
              "value": "Gi/oEqzWJmEoVRAHzTmR/lNPvJ+vwT616qubqGu71zdhuG9clbXO+w7pPoEHNPjxWivbXYVYl+q3dyDgkWI7AA=="
            }
          },
          null,
          {
            "validator_address": "83AB321E012C57746689FED3A6064DF331F81007",
            "validator_index": "60",
            "height": "6013",
            "round": "0",
            "timestamp": "2018-07-30T15:36:28.910553685Z",
            "type": 2,
            "block_id": {
              "hash": "0D2B754A54084A019F346A114148B964E451EDB2",
              "parts": {
                "total": "1",
                "hash": "441CB39FA2A2FE4FAF0A88E2B704F1D828C103A4"
              }
            },
            "signature": {
              "type": "tendermint/SignatureEd25519",
              "value": "U+SBIcLK4lhalAA4opFw4JFdk8DdI0hJhGtcD7NREPdNg+i4yG0YAX5QdCNIvwkBOGr/2Us/7f+KfMciJ0L0DQ=="
            }
          },
          {
            "validator_address": "83BB1B88D3DBB20AD845FECA07749EBD87D3754D",
            "validator_index": "61",
            "height": "6013",
            "round": "0",
            "timestamp": "2018-07-30T15:36:29.141303026Z",
            "type": 2,
            "block_id": {
              "hash": "0D2B754A54084A019F346A114148B964E451EDB2",
              "parts": {
                "total": "1",
                "hash": "441CB39FA2A2FE4FAF0A88E2B704F1D828C103A4"
              }
            },
            "signature": {
              "type": "tendermint/SignatureEd25519",
              "value": "ITjz43XnE6M0PMM3APrYEy+zabbhozmXFpy5q9+VL3oHN37i7HLYrpig9tUB6XW4g+sd1EpjI2W0i0sQRn6MAw=="
            }
          },
          null,
          {
            "validator_address": "8F06FE1FD042683C426137FBC4BBAA4288924217",
            "validator_index": "63",
            "height": "6013",
            "round": "0",
            "timestamp": "2018-07-30T15:36:28.931700431Z",
            "type": 2,
            "block_id": {
              "hash": "0D2B754A54084A019F346A114148B964E451EDB2",
              "parts": {
                "total": "1",
                "hash": "441CB39FA2A2FE4FAF0A88E2B704F1D828C103A4"
              }
            },
            "signature": {
              "type": "tendermint/SignatureEd25519",
              "value": "gOauW3uXKZpyt67iR1zQUiiwoKPH/l7po5iIf+7Xm+spi4UjgnOrC8gP0L7RcexPYocr9lzj/oZwhVs2SbZfDw=="
            }
          },
          {
            "validator_address": "8F45617BF45B10A3F8283DEBDB35E38C7CA43237",
            "validator_index": "64",
            "height": "6013",
            "round": "0",
            "timestamp": "2018-07-30T15:36:28.860076612Z",
            "type": 2,
            "block_id": {
              "hash": "0D2B754A54084A019F346A114148B964E451EDB2",
              "parts": {
                "total": "1",
                "hash": "441CB39FA2A2FE4FAF0A88E2B704F1D828C103A4"
              }
            },
            "signature": {
              "type": "tendermint/SignatureEd25519",
              "value": "+sTw04BCFLL8cCZJQyYONi5o+WPesywkLjUrQ/4QGWHVmdzTc1up8GSegeSve/DLhgoicuMa1yf+m7K49kjUAg=="
            }
          },
          null,
          {
            "validator_address": "95980831E186F2540F6E9FB6C8E74DE2401405AC",
            "validator_index": "66",
            "height": "6013",
            "round": "0",
            "timestamp": "2018-07-30T15:36:28.910203788Z",
            "type": 2,
            "block_id": {
              "hash": "0D2B754A54084A019F346A114148B964E451EDB2",
              "parts": {
                "total": "1",
                "hash": "441CB39FA2A2FE4FAF0A88E2B704F1D828C103A4"
              }
            },
            "signature": {
              "type": "tendermint/SignatureEd25519",
              "value": "3byk93aVFdj2ustByMzheTu1M08k6+CjTdKmsVo9S7v/NDkm1e7vwoVK1lZG3BUosAUiyphNidhoOyA4hckhBQ=="
            }
          },
          {
            "validator_address": "95FAFBC1E0579C83D290A063020CE87C5334BD9B",
            "validator_index": "67",
            "height": "6013",
            "round": "0",
            "timestamp": "2018-07-30T15:36:28.905318057Z",
            "type": 2,
            "block_id": {
              "hash": "0D2B754A54084A019F346A114148B964E451EDB2",
              "parts": {
                "total": "1",
                "hash": "441CB39FA2A2FE4FAF0A88E2B704F1D828C103A4"
              }
            },
            "signature": {
              "type": "tendermint/SignatureEd25519",
              "value": "UJ55NwFtAFhNpqAMItLWxHJWZYo/sZ+7ZdgSaX/w2zYvt2oDvuyCbsXI8xaqm8rOdegyyr05UGUdEOlBGto6AQ=="
            }
          },
          {
            "validator_address": "96BDE45EC52606CF5CB59853097871AD60680549",
            "validator_index": "68",
            "height": "6013",
            "round": "0",
            "timestamp": "2018-07-30T15:36:28.908294261Z",
            "type": 2,
            "block_id": {
              "hash": "0D2B754A54084A019F346A114148B964E451EDB2",
              "parts": {
                "total": "1",
                "hash": "441CB39FA2A2FE4FAF0A88E2B704F1D828C103A4"
              }
            },
            "signature": {
              "type": "tendermint/SignatureEd25519",
              "value": "Z6hyDSzo9aDfIIiSeOjkostXqqoiE3CH83kiNk+FHG9Q7V0aXRhBCyvzLyCcAYXLaA2a6huCmg+Y9l+iYCGeCg=="
            }
          },
          {
            "validator_address": "970CD321881185BF83DB2923C321B0E75FDBB2B8",
            "validator_index": "69",
            "height": "6013",
            "round": "0",
            "timestamp": "2018-07-30T15:36:28.988148338Z",
            "type": 2,
            "block_id": {
              "hash": "0D2B754A54084A019F346A114148B964E451EDB2",
              "parts": {
                "total": "1",
                "hash": "441CB39FA2A2FE4FAF0A88E2B704F1D828C103A4"
              }
            },
            "signature": {
              "type": "tendermint/SignatureEd25519",
              "value": "Eqzzr98bbxWpjCnH8JGFoe95kwryXhKpjCkNvA0MCvOhvXYJmi5lQnctkjXdD9yZ29zoV6OsoEdEPQ3wK02ADg=="
            }
          },
          null,
          {
            "validator_address": "9C29C9B76D27586E4D9AD2AED0E943162645E55C",
            "validator_index": "71",
            "height": "6013",
            "round": "0",
            "timestamp": "2018-07-30T15:36:28.864900546Z",
            "type": 2,
            "block_id": {
              "hash": "0D2B754A54084A019F346A114148B964E451EDB2",
              "parts": {
                "total": "1",
                "hash": "441CB39FA2A2FE4FAF0A88E2B704F1D828C103A4"
              }
            },
            "signature": {
              "type": "tendermint/SignatureEd25519",
              "value": "VNYZ4wlLCoxWSkrCFzTVgkAw3q9do9/6FWA9gQesiOMAFVrwksxS0HFEidxq3+dNK7BF5qX/NhxbIjNiJIB4Dg=="
            }
          },
          {
            "validator_address": "9D93AD02FE1BD7E76B9E58D7EB461088EAD011E5",
            "validator_index": "72",
            "height": "6013",
            "round": "0",
            "timestamp": "2018-07-30T15:36:28.884730927Z",
            "type": 2,
            "block_id": {
              "hash": "0D2B754A54084A019F346A114148B964E451EDB2",
              "parts": {
                "total": "1",
                "hash": "441CB39FA2A2FE4FAF0A88E2B704F1D828C103A4"
              }
            },
            "signature": {
              "type": "tendermint/SignatureEd25519",
              "value": "JzbVUuT5CYbx7KrsWaySzfzPwib2Q2gxl7DtNNPTBUKo2SR0t6jk2xZvPflXbC+REb2Ujni+TdF08BSJfX+LAA=="
            }
          },
          null,
          {
            "validator_address": "A0A6466F4ABEA09C3B55E3709AFDE217A103209F",
            "validator_index": "74",
            "height": "6013",
            "round": "0",
            "timestamp": "2018-07-30T15:36:28.8628848Z",
            "type": 2,
            "block_id": {
              "hash": "0D2B754A54084A019F346A114148B964E451EDB2",
              "parts": {
                "total": "1",
                "hash": "441CB39FA2A2FE4FAF0A88E2B704F1D828C103A4"
              }
            },
            "signature": {
              "type": "tendermint/SignatureEd25519",
              "value": "GTbXKVGXzp4o7LlgMfLQLdEevswN8M/Xmc8MCl056ZQ1zdb/65H+itrYKxWDqUJNSHXfjhNdV/0cUl7xb5rBCA=="
            }
          },
          {
            "validator_address": "A5868971300F155020634D7BB49C7634F7AACCD3",
            "validator_index": "75",
            "height": "6013",
            "round": "0",
            "timestamp": "2018-07-30T15:36:28.876047139Z",
            "type": 2,
            "block_id": {
              "hash": "0D2B754A54084A019F346A114148B964E451EDB2",
              "parts": {
                "total": "1",
                "hash": "441CB39FA2A2FE4FAF0A88E2B704F1D828C103A4"
              }
            },
            "signature": {
              "type": "tendermint/SignatureEd25519",
              "value": "Ob4qW2JdStBJOj9ISkrgSzodx9ex2gkdMXmdIk57U+bogRpHscNJojAmP2paWwMtUrAm8o8esU4B2Uxckh3OAw=="
            }
          },
          {
            "validator_address": "A6B3A5B5D982CFD7B5FDFA15CF5A720E7AE25E7F",
            "validator_index": "76",
            "height": "6013",
            "round": "0",
            "timestamp": "2018-07-30T15:36:28.832899092Z",
            "type": 2,
            "block_id": {
              "hash": "0D2B754A54084A019F346A114148B964E451EDB2",
              "parts": {
                "total": "1",
                "hash": "441CB39FA2A2FE4FAF0A88E2B704F1D828C103A4"
              }
            },
            "signature": {
              "type": "tendermint/SignatureEd25519",
              "value": "i5A2X3B2B638jA89J6ntsp4xhQMJlj/wcIGn2fd3p62g3IHXP8Gu/CvjIpln7W6ojTc14SKyVvYcrXiPFaV9Cw=="
            }
          },
          {
            "validator_address": "AC96444A9083890B7C7B430DB17BF1D3EA5EED04",
            "validator_index": "77",
            "height": "6013",
            "round": "0",
            "timestamp": "2018-07-30T15:36:28.981656873Z",
            "type": 2,
            "block_id": {
              "hash": "0D2B754A54084A019F346A114148B964E451EDB2",
              "parts": {
                "total": "1",
                "hash": "441CB39FA2A2FE4FAF0A88E2B704F1D828C103A4"
              }
            },
            "signature": {
              "type": "tendermint/SignatureEd25519",
              "value": "hlhmq7nm9AC3UleNQ5QamV5rU2DxYvpinzp9g+Oh84n2GuoIzAdQWNSptQlcGcnPwXvGKciQe+KUNQ4cQSHQCg=="
            }
          },
          {
            "validator_address": "ACB97FDA2D940AF0709B73537C458EB988AD2893",
            "validator_index": "78",
            "height": "6013",
            "round": "0",
            "timestamp": "2018-07-30T15:36:28.87523596Z",
            "type": 2,
            "block_id": {
              "hash": "0D2B754A54084A019F346A114148B964E451EDB2",
              "parts": {
                "total": "1",
                "hash": "441CB39FA2A2FE4FAF0A88E2B704F1D828C103A4"
              }
            },
            "signature": {
              "type": "tendermint/SignatureEd25519",
              "value": "2q2o7pkHcap4HkHq4noPFm+lFrWtA++neh/lwqlQakrtwV1NgS/qd87Lhl+wBguSfyQ+HxFqYUgSkrMQFdIsCA=="
            }
          },
          {
            "validator_address": "B197425B3210375F211661DE02EF2AE36580EB0F",
            "validator_index": "79",
            "height": "6013",
            "round": "0",
            "timestamp": "2018-07-30T15:36:28.884071386Z",
            "type": 2,
            "block_id": {
              "hash": "0D2B754A54084A019F346A114148B964E451EDB2",
              "parts": {
                "total": "1",
                "hash": "441CB39FA2A2FE4FAF0A88E2B704F1D828C103A4"
              }
            },
            "signature": {
              "type": "tendermint/SignatureEd25519",
              "value": "R3cSow5FcZRMd7sGod4WNP5NGk8r8HSVUdHXXc6wmjKZGP0eW5jEeAUICuvhfmjuj8QnSfNLCBIX2LneFBynDw=="
            }
          },
          {
            "validator_address": "B45E54D2D1CB5A4CCD1D49016608C18E7C56B270",
            "validator_index": "80",
            "height": "6013",
            "round": "0",
            "timestamp": "2018-07-30T15:36:29.052771261Z",
            "type": 2,
            "block_id": {
              "hash": "0D2B754A54084A019F346A114148B964E451EDB2",
              "parts": {
                "total": "1",
                "hash": "441CB39FA2A2FE4FAF0A88E2B704F1D828C103A4"
              }
            },
            "signature": {
              "type": "tendermint/SignatureEd25519",
              "value": "uJWPphDojqB7hrVoW/hTvfxEOmTfHW/AqF9gkYepWbyoMe3SR4ZLokI63VaiY1HoOr6/HcwQRZdr/EG3torfCQ=="
            }
          },
          {
            "validator_address": "B59A34C0BE4EC73AF6A67D274F1695C9259C237C",
            "validator_index": "81",
            "height": "6013",
            "round": "0",
            "timestamp": "2018-07-30T15:36:29.090019897Z",
            "type": 2,
            "block_id": {
              "hash": "0D2B754A54084A019F346A114148B964E451EDB2",
              "parts": {
                "total": "1",
                "hash": "441CB39FA2A2FE4FAF0A88E2B704F1D828C103A4"
              }
            },
            "signature": {
              "type": "tendermint/SignatureEd25519",
              "value": "/Xk2r2QhD2XeCXL4s4jF2aXGSRUDcB4LGKBmb0YRqXajt1qd13dwQrtEOBr11BGHB1a0vg+GA891IjPw3ITzDA=="
            }
          },
          {
            "validator_address": "BC36FEDD6EF6071118A3E51859DF3831A2EC4782",
            "validator_index": "82",
            "height": "6013",
            "round": "0",
            "timestamp": "2018-07-30T15:36:28.927571533Z",
            "type": 2,
            "block_id": {
              "hash": "0D2B754A54084A019F346A114148B964E451EDB2",
              "parts": {
                "total": "1",
                "hash": "441CB39FA2A2FE4FAF0A88E2B704F1D828C103A4"
              }
            },
            "signature": {
              "type": "tendermint/SignatureEd25519",
              "value": "GmopcNEBWRy/a2ZhWe6oMwGAuQI3rrUeYw2WXmqVDYcRmokKYr3uCON6FMQwmbwjVvfdjVR9FKECTnEd83W/DQ=="
            }
          },
          {
            "validator_address": "BD9D0DA513BF099DB4BB6E725A4E19832789882F",
            "validator_index": "83",
            "height": "6013",
            "round": "0",
            "timestamp": "2018-07-30T15:36:28.911672923Z",
            "type": 2,
            "block_id": {
              "hash": "0D2B754A54084A019F346A114148B964E451EDB2",
              "parts": {
                "total": "1",
                "hash": "441CB39FA2A2FE4FAF0A88E2B704F1D828C103A4"
              }
            },
            "signature": {
              "type": "tendermint/SignatureEd25519",
              "value": "QbLBSeKV06WSU1vUmZJsKGDb6PzjjQDFrR1PzS0tflEustoW57EEru+m1Ra2JEvM36GhsA1dlhkJaK+uN99JAg=="
            }
          },
          {
            "validator_address": "C1134A2FF8F7338E7CDB3FE57DDD2A655DEB1E22",
            "validator_index": "84",
            "height": "6013",
            "round": "0",
            "timestamp": "2018-07-30T15:36:28.094001754Z",
            "type": 2,
            "block_id": {
              "hash": "0D2B754A54084A019F346A114148B964E451EDB2",
              "parts": {
                "total": "1",
                "hash": "441CB39FA2A2FE4FAF0A88E2B704F1D828C103A4"
              }
            },
            "signature": {
              "type": "tendermint/SignatureEd25519",
              "value": "/iM32/MKWyATTZISdpM9exVEzmxfEmTCqKtVpgLoyiZ9oasTudr4WrBXe0UEhZJjg+FoNh0q5HQxkALXaTEvDA=="
            }
          },
          {
            "validator_address": "C39A8A2B85198DCB8F23AD1F6C198E2BA7AB5D60",
            "validator_index": "85",
            "height": "6013",
            "round": "0",
            "timestamp": "2018-07-30T15:36:28.884420671Z",
            "type": 2,
            "block_id": {
              "hash": "0D2B754A54084A019F346A114148B964E451EDB2",
              "parts": {
                "total": "1",
                "hash": "441CB39FA2A2FE4FAF0A88E2B704F1D828C103A4"
              }
            },
            "signature": {
              "type": "tendermint/SignatureEd25519",
              "value": "oheqEKy9SOaKr/q4WfUievzPjsNvk7tzceld+HZP9NM6FiKJRw9ogPp7316SoegVlZp+ggtJWrmfFPyV+0e/Ag=="
            }
          },
          {
            "validator_address": "C4335190C3B5BD4BA5568BC0F99C34162D940D08",
            "validator_index": "86",
            "height": "6013",
            "round": "0",
            "timestamp": "2018-07-30T15:36:29.00542864Z",
            "type": 2,
            "block_id": {
              "hash": "0D2B754A54084A019F346A114148B964E451EDB2",
              "parts": {
                "total": "1",
                "hash": "441CB39FA2A2FE4FAF0A88E2B704F1D828C103A4"
              }
            },
            "signature": {
              "type": "tendermint/SignatureEd25519",
              "value": "gTF0OouhFlmEoyarZUIPyBbif7yOqk5gN2bm/jAQLXstiHfKW0dq/cfcn1Dzwbj3P+onU1VqJ8T046RxiTpUDg=="
            }
          },
          {
            "validator_address": "C561CFA081677046376396922E7576E5F7B316AD",
            "validator_index": "87",
            "height": "6013",
            "round": "0",
            "timestamp": "2018-07-30T15:36:29.051473727Z",
            "type": 2,
            "block_id": {
              "hash": "0D2B754A54084A019F346A114148B964E451EDB2",
              "parts": {
                "total": "1",
                "hash": "441CB39FA2A2FE4FAF0A88E2B704F1D828C103A4"
              }
            },
            "signature": {
              "type": "tendermint/SignatureEd25519",
              "value": "Ua52wzxcYKs3zoszPVJr3p01WmI70gCpmkyHFYX30ZT58h0L4YI91QXX9aB1aoq6zYou8s/sYUoL4FhwX4AdBw=="
            }
          },
          {
            "validator_address": "CEB97DB5CB18270247ABDE6CF2F84F9AEE8A2904",
            "validator_index": "88",
            "height": "6013",
            "round": "0",
            "timestamp": "2018-07-30T15:36:28.653730417Z",
            "type": 2,
            "block_id": {
              "hash": "0D2B754A54084A019F346A114148B964E451EDB2",
              "parts": {
                "total": "1",
                "hash": "441CB39FA2A2FE4FAF0A88E2B704F1D828C103A4"
              }
            },
            "signature": {
              "type": "tendermint/SignatureEd25519",
              "value": "FVZRkX6x4I5QqjJJ4dcyhVRz7qqy3OPgYiQYnqPYpTIvh+Yw6Q7aCtgx+4fyDdr+MdmteKGosOPrfB+gI4qiCA=="
            }
          },
          {
            "validator_address": "CF205769734F5758CC39F907EFB73D6BAF915FB1",
            "validator_index": "89",
            "height": "6013",
            "round": "0",
            "timestamp": "2018-07-30T15:36:28.973620181Z",
            "type": 2,
            "block_id": {
              "hash": "0D2B754A54084A019F346A114148B964E451EDB2",
              "parts": {
                "total": "1",
                "hash": "441CB39FA2A2FE4FAF0A88E2B704F1D828C103A4"
              }
            },
            "signature": {
              "type": "tendermint/SignatureEd25519",
              "value": "HkgqsIr3xGvY+yEDGw7Fm401LPT7Rpmc8z6U45EpZxBMWvOkv75sF4zXW0KHZNh89F1MgrxM+0hvKMo9wx+hDw=="
            }
          },
          {
            "validator_address": "D2134B826A1E25A955905CB79A4D8731CAFA0CCE",
            "validator_index": "90",
            "height": "6013",
            "round": "0",
            "timestamp": "2018-07-30T15:36:29.051610729Z",
            "type": 2,
            "block_id": {
              "hash": "0D2B754A54084A019F346A114148B964E451EDB2",
              "parts": {
                "total": "1",
                "hash": "441CB39FA2A2FE4FAF0A88E2B704F1D828C103A4"
              }
            },
            "signature": {
              "type": "tendermint/SignatureEd25519",
              "value": "ktYPiQxe6/qQdohlJa1CcEsvWlJbB3ltxJJGisgCFBplInqfxbreKMnnqzc/tjkTB32Tvv30xuzOhvcnIHZvDQ=="
            }
          },
          null,
          {
            "validator_address": "D6285C3422C8886445D53757CBE12D2B91B5A9D0",
            "validator_index": "92",
            "height": "6013",
            "round": "0",
            "timestamp": "2018-07-30T15:36:11.116415683Z",
            "type": 2,
            "block_id": {
              "hash": "0D2B754A54084A019F346A114148B964E451EDB2",
              "parts": {
                "total": "1",
                "hash": "441CB39FA2A2FE4FAF0A88E2B704F1D828C103A4"
              }
            },
            "signature": {
              "type": "tendermint/SignatureEd25519",
              "value": "JeEGo7H44vjZ76ZqqAMcW8iQcp7EUH+80svWnbmxZ0LKBKqRpUxdqdisjWq3pwowSR4rLu7MiyUrXqlyVZVVDA=="
            }
          },
          null,
          null,
          {
            "validator_address": "DB7E6732471D3EA5C90C17A9974D9F88AB45F2FB",
            "validator_index": "95",
            "height": "6013",
            "round": "0",
            "timestamp": "2018-07-30T15:36:28.931862416Z",
            "type": 2,
            "block_id": {
              "hash": "0D2B754A54084A019F346A114148B964E451EDB2",
              "parts": {
                "total": "1",
                "hash": "441CB39FA2A2FE4FAF0A88E2B704F1D828C103A4"
              }
            },
            "signature": {
              "type": "tendermint/SignatureEd25519",
              "value": "Vc+RrsDJkrT2UUyBr136aHOwdTdgEtUHI8SxFBOC1Sr7efWBdYdJ2ivn67WB3knnYB+0FsO6BevHRjOdFA4nAw=="
            }
          },
          {
            "validator_address": "DF54B862410BCD9B5C516FBB6C56BDC826ED6FA7",
            "validator_index": "96",
            "height": "6013",
            "round": "0",
            "timestamp": "2018-07-30T15:36:29.062157354Z",
            "type": 2,
            "block_id": {
              "hash": "0D2B754A54084A019F346A114148B964E451EDB2",
              "parts": {
                "total": "1",
                "hash": "441CB39FA2A2FE4FAF0A88E2B704F1D828C103A4"
              }
            },
            "signature": {
              "type": "tendermint/SignatureEd25519",
              "value": "zC3Po6SVRPchA91oI3UwiOPo/XhzEmx00oePvg/g5HUuOcyoGtJ8G8hnBIRtUzakcIMTQK0+3sViwl8eTdvnBQ=="
            }
          },
          {
            "validator_address": "DFAF0C8B1B78D6D552B0189DE3ACA351439A1319",
            "validator_index": "97",
            "height": "6013",
            "round": "0",
            "timestamp": "2018-07-30T15:36:28.868843945Z",
            "type": 2,
            "block_id": {
              "hash": "0D2B754A54084A019F346A114148B964E451EDB2",
              "parts": {
                "total": "1",
                "hash": "441CB39FA2A2FE4FAF0A88E2B704F1D828C103A4"
              }
            },
            "signature": {
              "type": "tendermint/SignatureEd25519",
              "value": "SpjK5JJFJUC2QoRr6OD/M1AAi9S6LvY41Jw8qliL23rg7m118ugCP2aIfxqghwDWIZBClrXs51NMrkbh42QJCQ=="
            }
          },
          {
            "validator_address": "E1DBC77881161A5A3A8536A57536EAE546A75D69",
            "validator_index": "98",
            "height": "6013",
            "round": "0",
            "timestamp": "2018-07-30T15:36:28.845020033Z",
            "type": 2,
            "block_id": {
              "hash": "0D2B754A54084A019F346A114148B964E451EDB2",
              "parts": {
                "total": "1",
                "hash": "441CB39FA2A2FE4FAF0A88E2B704F1D828C103A4"
              }
            },
            "signature": {
              "type": "tendermint/SignatureEd25519",
              "value": "ZEYGU4EjcUhUX9YoWeOl3l32eENGu4dtofK3OOPTNrxRJVjGX7iWYnhuZJcfmtmu4ArWO3B+JxsXi+xYl+72Aw=="
            }
          },
          {
            "validator_address": "E300E9D484374C1D3E97C1D93CAC3B160A056298",
            "validator_index": "99",
            "height": "6013",
            "round": "0",
            "timestamp": "2018-07-30T15:36:29.135992933Z",
            "type": 2,
            "block_id": {
              "hash": "0D2B754A54084A019F346A114148B964E451EDB2",
              "parts": {
                "total": "1",
                "hash": "441CB39FA2A2FE4FAF0A88E2B704F1D828C103A4"
              }
            },
            "signature": {
              "type": "tendermint/SignatureEd25519",
              "value": "v9/G79v3oNSnSNhdvkJ8HWmphdnKT/nHPDC6VqVanHcp2GZCPvQWN4sR5usya0+JdF9ya2blquqt5Yzah7H1Bg=="
            }
          },
          {
            "validator_address": "E39B5778E0D4297A46F45CF6940B0A163A430FF8",
            "validator_index": "100",
            "height": "6013",
            "round": "0",
            "timestamp": "2018-07-30T15:36:28.924724221Z",
            "type": 2,
            "block_id": {
              "hash": "0D2B754A54084A019F346A114148B964E451EDB2",
              "parts": {
                "total": "1",
                "hash": "441CB39FA2A2FE4FAF0A88E2B704F1D828C103A4"
              }
            },
            "signature": {
              "type": "tendermint/SignatureEd25519",
              "value": "ijo83ohUwuDUDe4m/9QluKDnRSmqLdglsUoR4/aCVY9qO7i0fn3xW9ehi7Du51EtOdz/HEwbHIMk8fG66oE7Ag=="
            }
          },
          null,
          {
            "validator_address": "E42F8AEABB685219F7027F54D2B0DBC7846F633A",
            "validator_index": "102",
            "height": "6013",
            "round": "0",
            "timestamp": "2018-07-30T15:36:28.345814371Z",
            "type": 2,
            "block_id": {
              "hash": "0D2B754A54084A019F346A114148B964E451EDB2",
              "parts": {
                "total": "1",
                "hash": "441CB39FA2A2FE4FAF0A88E2B704F1D828C103A4"
              }
            },
            "signature": {
              "type": "tendermint/SignatureEd25519",
              "value": "GtLOIbhcKVeEkduf2Or88bEXAeuBrNia4YPPooGgxGvmXtfelczBO/+3LxR+ZsRcmdPuMPQ5zYCbO5RkjLZMCw=="
            }
          },
          {
            "validator_address": "E4E6C2E81269DFFA196C17F98240E491479A6008",
            "validator_index": "103",
            "height": "6013",
            "round": "0",
            "timestamp": "2018-07-30T15:36:29.043440598Z",
            "type": 2,
            "block_id": {
              "hash": "0D2B754A54084A019F346A114148B964E451EDB2",
              "parts": {
                "total": "1",
                "hash": "441CB39FA2A2FE4FAF0A88E2B704F1D828C103A4"
              }
            },
            "signature": {
              "type": "tendermint/SignatureEd25519",
              "value": "OxRfG2c+gQc8Oayqbd+53crF8kYoRSA6FF24jTCzdHkW7xYNqS+Gc8Vlr17H2lUhHhcN8ZDKny+jz57SXLKqBw=="
            }
          },
          null,
          {
            "validator_address": "E6A7079D584B163750BE0831227F6B685DEAF3C1",
            "validator_index": "105",
            "height": "6013",
            "round": "0",
            "timestamp": "2018-07-30T15:36:28.972843848Z",
            "type": 2,
            "block_id": {
              "hash": "0D2B754A54084A019F346A114148B964E451EDB2",
              "parts": {
                "total": "1",
                "hash": "441CB39FA2A2FE4FAF0A88E2B704F1D828C103A4"
              }
            },
            "signature": {
              "type": "tendermint/SignatureEd25519",
              "value": "wHUb6gyDNUnFoYAI/ZGiraQDgnfIMCT+9ixQn1G5g1R3nRUSMPuJYz1kad8pB7iUvPYYYEbWx8gfUzgimbtPDg=="
            }
          },
          {
            "validator_address": "E7A30077D5D11867D3EAF99ED45BFDC1EB834509",
            "validator_index": "106",
            "height": "6013",
            "round": "0",
            "timestamp": "2018-07-30T15:36:28.866903336Z",
            "type": 2,
            "block_id": {
              "hash": "0D2B754A54084A019F346A114148B964E451EDB2",
              "parts": {
                "total": "1",
                "hash": "441CB39FA2A2FE4FAF0A88E2B704F1D828C103A4"
              }
            },
            "signature": {
              "type": "tendermint/SignatureEd25519",
              "value": "a7SY5v3EJThI/IcpvLNqiVhLi2kIrqAfESY82YwMBy2pScIDUZZpnBIFQBAFfvUr/Ixm7+xY2LB/wfVZgYA8Bw=="
            }
          },
          {
            "validator_address": "EBC613967F66F4EC306852CDF58B4F151CF16738",
            "validator_index": "107",
            "height": "6013",
            "round": "0",
            "timestamp": "2018-07-30T15:36:28.98652442Z",
            "type": 2,
            "block_id": {
              "hash": "0D2B754A54084A019F346A114148B964E451EDB2",
              "parts": {
                "total": "1",
                "hash": "441CB39FA2A2FE4FAF0A88E2B704F1D828C103A4"
              }
            },
            "signature": {
              "type": "tendermint/SignatureEd25519",
              "value": "noUCtB/SmzW/6fYtPcA58ZrJ7h/AhwYt5WNYe7QezChqzVYXcKaLJ1vzkhNbEB3KUXO3VLSKJ1Y8QJWRy1FEBw=="
            }
          },
          {
            "validator_address": "EC3401441726C40ECC7E51F744483B05BC6DE9BD",
            "validator_index": "108",
            "height": "6013",
            "round": "0",
            "timestamp": "2018-07-30T15:36:28.895789721Z",
            "type": 2,
            "block_id": {
              "hash": "0D2B754A54084A019F346A114148B964E451EDB2",
              "parts": {
                "total": "1",
                "hash": "441CB39FA2A2FE4FAF0A88E2B704F1D828C103A4"
              }
            },
            "signature": {
              "type": "tendermint/SignatureEd25519",
              "value": "zUWQBy+L/kR+0P+MwUWXC6LAxcdKUQqwE1y+3m5mBucUokkT/ibElOz8WPNqXkAKpV9GoKX1wPNX/01rZh0XCA=="
            }
          },
          {
            "validator_address": "EC95B111D032181E1EC3B5E8875C5BB8E4AE7140",
            "validator_index": "109",
            "height": "6013",
            "round": "0",
            "timestamp": "2018-07-30T15:36:28.887578861Z",
            "type": 2,
            "block_id": {
              "hash": "0D2B754A54084A019F346A114148B964E451EDB2",
              "parts": {
                "total": "1",
                "hash": "441CB39FA2A2FE4FAF0A88E2B704F1D828C103A4"
              }
            },
            "signature": {
              "type": "tendermint/SignatureEd25519",
              "value": "3zcwFNXd2lc0EFbIxHvcLyV8FZaEbLwqchnQ1ySpt3PKLNuaFUtYH3TfjeqYOD+thPGztAcGy5p79+wJ8rhUCg=="
            }
          },
          {
            "validator_address": "F13C1805E8131C9B47E2A46818F57D8A2841E578",
            "validator_index": "110",
            "height": "6013",
            "round": "0",
            "timestamp": "2018-07-30T15:36:28.917160754Z",
            "type": 2,
            "block_id": {
              "hash": "0D2B754A54084A019F346A114148B964E451EDB2",
              "parts": {
                "total": "1",
                "hash": "441CB39FA2A2FE4FAF0A88E2B704F1D828C103A4"
              }
            },
            "signature": {
              "type": "tendermint/SignatureEd25519",
              "value": "IK2mlvOz5J857UssTX6zh/d2f+wU1WVvwV7FYZKgRymcBacZE3JaADsWkI+GPRbKPV3EhnJs87yO4nTmZRZABw=="
            }
          },
          {
            "validator_address": "F23FF36BD5B90C33CE3A03ED72DBDCF5EC07D6AF",
            "validator_index": "111",
            "height": "6013",
            "round": "0",
            "timestamp": "2018-07-30T15:36:28.951312491Z",
            "type": 2,
            "block_id": {
              "hash": "0D2B754A54084A019F346A114148B964E451EDB2",
              "parts": {
                "total": "1",
                "hash": "441CB39FA2A2FE4FAF0A88E2B704F1D828C103A4"
              }
            },
            "signature": {
              "type": "tendermint/SignatureEd25519",
              "value": "trB/Wbccgs13wtl2EatVILdn8f7aF3Goy1D3Roegg1K0TnaQhWiPZZXfQXBWdzbuqbUEO+V5OB8IKocR8rqGBg=="
            }
          },
          {
            "validator_address": "F4268597DE93E3E2CED38845010F8AA34E2A879E",
            "validator_index": "112",
            "height": "6013",
            "round": "0",
            "timestamp": "2018-07-30T15:36:28.909629243Z",
            "type": 2,
            "block_id": {
              "hash": "0D2B754A54084A019F346A114148B964E451EDB2",
              "parts": {
                "total": "1",
                "hash": "441CB39FA2A2FE4FAF0A88E2B704F1D828C103A4"
              }
            },
            "signature": {
              "type": "tendermint/SignatureEd25519",
              "value": "WCNf+/GTQq/k/TQ7I8AGgSax1synqrXSqB9FrH9G/+hbw4/9h6CzYalEfzRX9kfJGSeFXgkxKKSmTXrWT/mUBw=="
            }
          },
          {
            "validator_address": "F4DEB417999B04BE2EFF9FFE03FA373D86011CC0",
            "validator_index": "113",
            "height": "6013",
            "round": "0",
            "timestamp": "2018-07-30T15:36:28.909461963Z",
            "type": 2,
            "block_id": {
              "hash": "0D2B754A54084A019F346A114148B964E451EDB2",
              "parts": {
                "total": "1",
                "hash": "441CB39FA2A2FE4FAF0A88E2B704F1D828C103A4"
              }
            },
            "signature": {
              "type": "tendermint/SignatureEd25519",
              "value": "lIgbKdYMS0erN2ohXb5YV0QFlFxsAO19gxRpxMRzcIqmWbA2vtLB4wuRm8TQKslJ1ofYYm7XmPN0uhfYQ5ZWDA=="
            }
          },
          null,
          {
            "validator_address": "FB6AC8B89A1C585F26410FF259952A432A7A3FDB",
            "validator_index": "115",
            "height": "6013",
            "round": "0",
            "timestamp": "2018-07-30T15:36:28.966694438Z",
            "type": 2,
            "block_id": {
              "hash": "0D2B754A54084A019F346A114148B964E451EDB2",
              "parts": {
                "total": "1",
                "hash": "441CB39FA2A2FE4FAF0A88E2B704F1D828C103A4"
              }
            },
            "signature": {
              "type": "tendermint/SignatureEd25519",
              "value": "qquiPu6tlXkh1dAbd0MlR4QOxHu3AU5xx1uYItFErCoSAIyVszXnC0d96iVbG/nlYSrAqajIoDCGLZOBvRwvCg=="
            }
          },
          null,
          {
            "validator_address": "FF3F3FCBCE7E62D7AD5506FF846EC4518D980515",
            "validator_index": "117",
            "height": "6013",
            "round": "0",
            "timestamp": "2018-07-30T15:36:28.8984184Z",
            "type": 2,
            "block_id": {
              "hash": "0D2B754A54084A019F346A114148B964E451EDB2",
              "parts": {
                "total": "1",
                "hash": "441CB39FA2A2FE4FAF0A88E2B704F1D828C103A4"
              }
            },
            "signature": {
              "type": "tendermint/SignatureEd25519",
              "value": "/z1Xhc8XF+BRh1872eC0AjjaZZ2rd1L35Kc+Rgx6MTuX3IMuFRuTf3qr4P58zZWIh/UY6DJUMClwwxuwS31iBg=="
            }
          }
        ]
      }
    },
    "canonical": true
  }
}