{
  "jsonrpc": "2.0",
  "id": "",
  "result": {
    "SignedHeader": {
      "header": {
        "chain_id": "gaia-7004",
        "height": "6116",
        "time": "2018-07-30T15:47:29.591793076Z",
        "num_txs": "0",
        "last_block_id": {
          "hash": "B95072C045001CEE4994432C155D020934BA14B2",
          "parts": {
            "total": "1",
            "hash": "7F745879CD2C3ECDE0E016E99719AAFF987707F9"
          }
        },
        "total_txs": "157",
        "last_commit_hash": "0036604B12C938BD03C785DB624199387D18C9EB",
        "data_hash": "",
        "validators_hash": "6BCA242054C7459160200AC6FCC983313813ACF9",
        "consensus_hash": "D6B74BB35BDFFD8392340F2A379173548AE188FE",
        "app_hash": "0DBCE5B17F3FB14C85EDCC0A1526E313378EC26E",
        "last_results_hash": "",
        "evidence_hash": ""
      },
      "commit": {
        "block_id": {
          "hash": "3917D1A041EB0B0A5C0D94DBB04D165F0303F667",
          "parts": {
            "total": "1",
            "hash": "FA8A0A7A90E67C30042F2C412C311FB44CB4A7DC"
          }
        },
        "precommits": [
          {
            "validator_address": "029359C0C768096273A68ABC902A6B17AC8D1D70",
            "validator_index": "0",
            "height": "6116",
            "round": "0",
            "timestamp": "2018-07-30T15:47:30.470020004Z",
            "type": 2,
            "block_id": {
              "hash": "3917D1A041EB0B0A5C0D94DBB04D165F0303F667",
              "parts": {
                "total": "1",
                "hash": "FA8A0A7A90E67C30042F2C412C311FB44CB4A7DC"
              }
            },
            "signature": {
              "type": "tendermint/SignatureEd25519",
              "value": "e5iOIuRkOwxvxs76pahcpYYYrXmddlXN9vZ71o39kkW11BsUhKkn+fUH/OYDpIRpBNroxh3QvEMP+OKRvogYBA=="
            }
          },
          {
            "validator_address": "02FE4B97A8387F39D1AC19E0C1702B3CC614812F",
            "validator_index": "1",
            "height": "6116",
            "round": "0",
            "timestamp": "2018-07-30T15:47:30.521300315Z",
            "type": 2,
            "block_id": {
              "hash": "3917D1A041EB0B0A5C0D94DBB04D165F0303F667",
              "parts": {
                "total": "1",
                "hash": "FA8A0A7A90E67C30042F2C412C311FB44CB4A7DC"
              }
            },
            "signature": {
              "type": "tendermint/SignatureEd25519",
              "value": "n5jKmf+0ZeoHGjtN7ECz35Vhe2JSCENyF/Vs8vYy+HEikdk3YuZwd3R7YOXiSDPnAqGKaoctZ3WT7HbaHz1RCQ=="
            }
          },
          {
            "validator_address": "0548261C50222FD710EB5EBDF03A0E6567B21D20",
            "validator_index": "2",
            "height": "6116",
            "round": "0",
            "timestamp": "2018-07-30T15:47:30.554318155Z",
            "type": 2,
            "block_id": {
              "hash": "3917D1A041EB0B0A5C0D94DBB04D165F0303F667",
              "parts": {
                "total": "1",
                "hash": "FA8A0A7A90E67C30042F2C412C311FB44CB4A7DC"
              }
            },
            "signature": {
              "type": "tendermint/SignatureEd25519",
              "value": "RyAvsECoYPOu3SmaBbJXM1fQ4Lm4FVTy+QmaD9yDQgKHQ32VGGOAPe2f5I6xC04qpi41TWzyahOjid30wZ4nCw=="
            }
          },
          null,
          {
            "validator_address": "09145E611CC27EEB944FC5A956DDF710F943B9EF",
            "validator_index": "4",
            "height": "6116",
            "round": "0",
            "timestamp": "2018-07-30T15:47:30.458555947Z",
            "type": 2,
            "block_id": {
              "hash": "3917D1A041EB0B0A5C0D94DBB04D165F0303F667",
              "parts": {
                "total": "1",
                "hash": "FA8A0A7A90E67C30042F2C412C311FB44CB4A7DC"
              }
            },
            "signature": {
              "type": "tendermint/SignatureEd25519",
              "value": "ShqYvBvOKyZ37D50k0bOzxEew/gANMR8OQhW0nn7UmZmWzQZO21tAx58eLNZfJWaRc8b87uuYBrn3CcF5UztBQ=="
            }
          },
          {
            "validator_address": "0989D0355A104B67AE0AE028C68FB610690E174B",
            "validator_index": "5",
            "height": "6116",
            "round": "0",
            "timestamp": "2018-07-30T15:47:30.449543944Z",
            "type": 2,
            "block_id": {
              "hash": "3917D1A041EB0B0A5C0D94DBB04D165F0303F667",
              "parts": {
                "total": "1",
                "hash": "FA8A0A7A90E67C30042F2C412C311FB44CB4A7DC"
              }
            },
            "signature": {
              "type": "tendermint/SignatureEd25519",
              "value": "L0MXo6akCJGJe/jdyw9bw0Zi5gwn3mBSBJOXeD/6F3a4mjqw0bId1LcuZs0byiaUO6ANQczLykBQ7lWDzwZtAQ=="
            }
          },
          {
            "validator_address": "0A692DBFFE9E5DD28E7DECC33CED1AEB4C0D014E",
            "validator_index": "6",
            "height": "6116",
            "round": "0",
            "timestamp": "2018-07-30T15:47:30.654665878Z",
            "type": 2,
            "block_id": {
              "hash": "3917D1A041EB0B0A5C0D94DBB04D165F0303F667",
              "parts": {
                "total": "1",
                "hash": "FA8A0A7A90E67C30042F2C412C311FB44CB4A7DC"
              }
            },
            "signature": {
              "type": "tendermint/SignatureEd25519",
              "value": "F2lGsERh/ETnnEhnjd9wxmeAwHnIjvSqzyaO+qX0u0qj5LWtRvP8zcnJZahgAmJFyei+QZWcilPIZy7V6lk3AQ=="
            }
          },
          {
            "validator_address": "0DDF97111D73DB825138EC15EC27DE5FE8536901",
            "validator_index": "7",
            "height": "6116",
            "round": "0",
            "timestamp": "2018-07-30T15:47:30.545548933Z",
            "type": 2,
            "block_id": {
              "hash": "3917D1A041EB0B0A5C0D94DBB04D165F0303F667",
              "parts": {
                "total": "1",
                "hash": "FA8A0A7A90E67C30042F2C412C311FB44CB4A7DC"
              }
            },
            "signature": {
              "type": "tendermint/SignatureEd25519",
              "value": "lh+9EKYLq+HQJZ4QRkLpP0jmCZBaZnf5Fw+l+fQfV5PHQcg1brcqQCyylb0Av8D3N4hxRyT3W0KTEMEONE8TCA=="
            }
          },
          null,
          {
            "validator_address": "1751786EFC085D5331C61168FFFC8202EA151B4E",
            "validator_index": "9",
            "height": "6116",
            "round": "0",
            "timestamp": "2018-07-30T15:47:29.856393562Z",
            "type": 2,
            "block_id": {
              "hash": "3917D1A041EB0B0A5C0D94DBB04D165F0303F667",
              "parts": {
                "total": "1",
                "hash": "FA8A0A7A90E67C30042F2C412C311FB44CB4A7DC"
              }
            },
            "signature": {
              "type": "tendermint/SignatureEd25519",
              "value": "eSI5VS9AgXU4z3Hjagsw9mgVfo5gcaswX2e5NsVQaz/M41KiojsQt40AFvBD78aE2KeQmzbKM6r4IDF4WtOGCA=="
            }
          },
          {
            "validator_address": "17BB5CD01E8940FAFB948A04D5FA5A0645E5822E",
            "validator_index": "10",
            "height": "6116",
            "round": "0",
            "timestamp": "2018-07-30T15:47:30.446930649Z",
            "type": 2,
            "block_id": {
              "hash": "3917D1A041EB0B0A5C0D94DBB04D165F0303F667",
              "parts": {
                "total": "1",
                "hash": "FA8A0A7A90E67C30042F2C412C311FB44CB4A7DC"
              }
            },
            "signature": {
              "type": "tendermint/SignatureEd25519",
              "value": "1VstHNO6rDRDq8seSIOElww8pWjzv9s8Tegh/SZmpky0EMJz7SKKnHvEs7PM3qj5H6ipostC3jO0K/2ldXb1Aw=="
            }
          },
          {
            "validator_address": "1C683A87904BC38F05004FE83301A3A3E35447EB",
            "validator_index": "11",
            "height": "6116",
            "round": "0",
            "timestamp": "2018-07-30T15:47:30.451757263Z",
            "type": 2,
            "block_id": {
              "hash": "3917D1A041EB0B0A5C0D94DBB04D165F0303F667",
              "parts": {
                "total": "1",
                "hash": "FA8A0A7A90E67C30042F2C412C311FB44CB4A7DC"
              }
            },
            "signature": {
              "type": "tendermint/SignatureEd25519",
              "value": "ntsKJql/fgiWj4tr8a19HyqmpPIV79l9aA/7yX/9inT5HYHjzl/V1CudxQViaGAp8HRJ/V6SZOJCQ+lZT0ySCw=="
            }
          },
          {
            "validator_address": "1E9CE94FD0BA5CFEB901F90BC658D64D85B134D2",
            "validator_index": "12",
            "height": "6116",
            "round": "0",
            "timestamp": "2018-07-30T15:47:30.491343509Z",
            "type": 2,
            "block_id": {
              "hash": "3917D1A041EB0B0A5C0D94DBB04D165F0303F667",
              "parts": {
                "total": "1",
                "hash": "FA8A0A7A90E67C30042F2C412C311FB44CB4A7DC"
              }
            },
            "signature": {
              "type": "tendermint/SignatureEd25519",
              "value": "887GkSGP+IYOFO4dv5kZksJzZkbX7j44TaJ+qtbgtFCY/RmwqAcK2QFDobrz9+zi1dOGAIyuL2eZth3N7xiLBg=="
            }
          },
          {
            "validator_address": "1ECD8C5FE1341D74CDC633A245DD56858DE2F9A2",
            "validator_index": "13",
            "height": "6116",
            "round": "0",
            "timestamp": "2018-07-30T15:47:30.592655105Z",
            "type": 2,
            "block_id": {
              "hash": "3917D1A041EB0B0A5C0D94DBB04D165F0303F667",
              "parts": {
                "total": "1",
                "hash": "FA8A0A7A90E67C30042F2C412C311FB44CB4A7DC"
              }
            },
            "signature": {
              "type": "tendermint/SignatureEd25519",
              "value": "9x5W6BEbv9kvdvRWGLzURz0oZxV4yWboJj1EEd5QufyJG9Zlra0NrPAfuqYdAF434GGt6VY1Py4pD3DCguu7BQ=="
            }
          },
          {
            "validator_address": "1F3A68CAAD483768AA2BF667DEF10F7104C89928",
            "validator_index": "14",
            "height": "6116",
            "round": "0",
            "timestamp": "2018-07-30T15:47:30.481521741Z",
            "type": 2,
            "block_id": {
              "hash": "3917D1A041EB0B0A5C0D94DBB04D165F0303F667",
              "parts": {
                "total": "1",
                "hash": "FA8A0A7A90E67C30042F2C412C311FB44CB4A7DC"
              }
            },
            "signature": {
              "type": "tendermint/SignatureEd25519",
              "value": "wJKZAwrLl3DCA9WQTfyZyie3qTm6ZMM/04F0gK7H2mj5s+lUbErJbSnxUgO879azD0xzlOD9ThaFpMX7Oa+jDA=="
            }
          },
          null,
          {
            "validator_address": "23897586D68E2AC1C78E0EF5BB5DF5C8EAB18F50",
            "validator_index": "16",
            "height": "6116",
            "round": "0",
            "timestamp": "2018-07-30T15:47:30.569517071Z",
            "type": 2,
            "block_id": {
              "hash": "3917D1A041EB0B0A5C0D94DBB04D165F0303F667",
              "parts": {
                "total": "1",
                "hash": "FA8A0A7A90E67C30042F2C412C311FB44CB4A7DC"
              }
            },
            "signature": {
              "type": "tendermint/SignatureEd25519",
              "value": "G1djHDxtiMc/clHWsUuE5IHbo/5EvyMRpxDwj4jq8rMwYo9I2wqnxQyzl45etFzclK7S9nwnQ6hCBZxHeHedDw=="
            }
          },
          {
            "validator_address": "28770D17E8530825E7310A0659308654B7EC9682",
            "validator_index": "17",
            "height": "6116",
            "round": "0",
            "timestamp": "2018-07-30T15:47:30.422752298Z",
            "type": 2,
            "block_id": {
              "hash": "3917D1A041EB0B0A5C0D94DBB04D165F0303F667",
              "parts": {
                "total": "1",
                "hash": "FA8A0A7A90E67C30042F2C412C311FB44CB4A7DC"
              }
            },
            "signature": {
              "type": "tendermint/SignatureEd25519",
              "value": "oT46cv7ldwBD+vWEXMGWQtxKzwA0nROk+jaOzS4bSTqxnKjsNWgUlqwCSUlr4+xOzWW1ttMMPIGYv0hhH1VfAg=="
            }
          },
          null,
          {
            "validator_address": "2A92EC3C642140202298D0E245095E0ECFC25228",
            "validator_index": "19",
            "height": "6116",
            "round": "0",
            "timestamp": "2018-07-30T15:47:30.532943678Z",
            "type": 2,
            "block_id": {
              "hash": "3917D1A041EB0B0A5C0D94DBB04D165F0303F667",
              "parts": {
                "total": "1",
                "hash": "FA8A0A7A90E67C30042F2C412C311FB44CB4A7DC"
              }
            },
            "signature": {
              "type": "tendermint/SignatureEd25519",
              "value": "kmH6MwxtkCG33jAvTc1bdhJsOyea2TcVIYF2xM/UPrQVuuazUxcds2sJt3pRDP/tOdrnYcWqAnGP2TGbdK1eCw=="
            }
          },
          null,
          null,
          {
            "validator_address": "33412C9A69C60CB0FAA24A5C5B3A906DE24B47C2",
            "validator_index": "22",
            "height": "6116",
            "round": "0",
            "timestamp": "2018-07-30T15:47:30.428239428Z",
            "type": 2,
            "block_id": {
              "hash": "3917D1A041EB0B0A5C0D94DBB04D165F0303F667",
              "parts": {
                "total": "1",
                "hash": "FA8A0A7A90E67C30042F2C412C311FB44CB4A7DC"
              }
            },
            "signature": {
              "type": "tendermint/SignatureEd25519",
              "value": "lOmf79nRk9TkbMwpIAXKZTWfghZOgrs8aYxCnIgfHkNuens/L7V3a6ENPPn/25jX5EueysYS4t1c3a8kKXGuAg=="
            }
          },
          null,
          {
            "validator_address": "3383EF2A13B160C41947AC30434B274B2FAF0617",
            "validator_index": "24",
            "height": "6116",
            "round": "0",
            "timestamp": "2018-07-30T15:47:30.476889345Z",
            "type": 2,
            "block_id": {
              "hash": "3917D1A041EB0B0A5C0D94DBB04D165F0303F667",
              "parts": {
                "total": "1",
                "hash": "FA8A0A7A90E67C30042F2C412C311FB44CB4A7DC"
              }
            },
            "signature": {
              "type": "tendermint/SignatureEd25519",
              "value": "RA/9U4UF1I99/CPyl6kKtzZ9G0VkY7ANC6pz/wsw5iEzytlqN8aDU5ywoQjjndopXXwwgnBcQMmVc2ET8MzvCQ=="
            }
          },
          {
            "validator_address": "36E9B7FAEC964F97D84C028ED62493E373AD0B38",
            "validator_index": "25",
            "height": "6116",
            "round": "0",
            "timestamp": "2018-07-30T15:47:30.630140167Z",
            "type": 2,
            "block_id": {
              "hash": "3917D1A041EB0B0A5C0D94DBB04D165F0303F667",
              "parts": {
                "total": "1",
                "hash": "FA8A0A7A90E67C30042F2C412C311FB44CB4A7DC"
              }
            },
            "signature": {
              "type": "tendermint/SignatureEd25519",
              "value": "k7lFel489gZW95iTuuB7l3waDXoLxdkW7CktoKgegR/5nF4pAZM+Iq+GRKyxHOc42IkTJ7WvIFSJTxJihsswCQ=="
            }
          },
          {
            "validator_address": "38A8D85D36BEA2E5FCF8A1E778F53628E450EF13",
            "validator_index": "26",
            "height": "6116",
            "round": "0",
            "timestamp": "2018-07-30T15:47:30.633042227Z",
            "type": 2,
            "block_id": {
              "hash": "3917D1A041EB0B0A5C0D94DBB04D165F0303F667",
              "parts": {
                "total": "1",
                "hash": "FA8A0A7A90E67C30042F2C412C311FB44CB4A7DC"
              }
            },
            "signature": {
              "type": "tendermint/SignatureEd25519",
              "value": "WWCGx24EtYnXD1q8ZaZU+0Ok/HL4vP8Ol8PWYMZ2MWRIVCd/5zuH2ABNm6ksZnMItccWHHzBL9l3gPA86uBQCA=="
            }
          },
          {
            "validator_address": "39DFDA0C5DB84B269642188B23253508537798E6",
            "validator_index": "27",
            "height": "6116",
            "round": "0",
            "timestamp": "2018-07-30T15:47:30.507493208Z",
            "type": 2,
            "block_id": {
              "hash": "3917D1A041EB0B0A5C0D94DBB04D165F0303F667",
              "parts": {
                "total": "1",
                "hash": "FA8A0A7A90E67C30042F2C412C311FB44CB4A7DC"
              }
            },
            "signature": {
              "type": "tendermint/SignatureEd25519",
              "value": "ViVuQeKba/26uAhcQWFJxWUSOsofGfYEklpUw27TvkKqXxnNihFp5Aw3Xh8JG90op9eDBn5V2fGE65wMXFNVBQ=="
            }
          },
          {
            "validator_address": "3AC99B708404452366E0953A4BE849226DC86CBC",
            "validator_index": "28",
            "height": "6116",
            "round": "0",
            "timestamp": "2018-07-30T15:47:30.573243914Z",
            "type": 2,
            "block_id": {
              "hash": "3917D1A041EB0B0A5C0D94DBB04D165F0303F667",
              "parts": {
                "total": "1",
                "hash": "FA8A0A7A90E67C30042F2C412C311FB44CB4A7DC"
              }
            },
            "signature": {
              "type": "tendermint/SignatureEd25519",
              "value": "VlWWTQQPFZxJ4XetB2mnAtaxkDIPbKJ0vbK0O9pxX4jaf56woZQ9rf1hLvb9N3IDNVa+CGJ8+YA5A1cEXRpGBw=="
            }
          },
          {
            "validator_address": "3DCB822A10ED319EC7C4393D8E3FD4A41B15AAF2",
            "validator_index": "29",
            "height": "6116",
            "round": "0",
            "timestamp": "2018-07-30T15:47:30.447203757Z",
            "type": 2,
            "block_id": {
              "hash": "3917D1A041EB0B0A5C0D94DBB04D165F0303F667",
              "parts": {
                "total": "1",
                "hash": "FA8A0A7A90E67C30042F2C412C311FB44CB4A7DC"
              }
            },
            "signature": {
              "type": "tendermint/SignatureEd25519",
              "value": "l9MdKoC5xVq7rO7Z5yjIuKRymGLQSBQ80hFKRVWd+e1ztSoh9VediS6m+97BTjeiFEHrAg9xPLMbXVK3Hx7MDQ=="
            }
          },
          {
            "validator_address": "3E899BA36A93C7370347BD5FE85909F2ECD93F8C",
            "validator_index": "30",
            "height": "6116",
            "round": "0",
            "timestamp": "2018-07-30T15:47:30.490782536Z",
            "type": 2,
            "block_id": {
              "hash": "3917D1A041EB0B0A5C0D94DBB04D165F0303F667",
              "parts": {
                "total": "1",
                "hash": "FA8A0A7A90E67C30042F2C412C311FB44CB4A7DC"
              }
            },
            "signature": {
              "type": "tendermint/SignatureEd25519",
              "value": "g84otnxZqs7ofQv9p3VNc3xt+n63U5p8b4swJHd9DUqhb6qmrS2AyzEbYolnl3toOuLyp1E8Uo5BqYd6rad1Dw=="
            }
          },
          {
            "validator_address": "41CAB2E29E7D0F2282E3275938F188FF9386B84C",
            "validator_index": "31",
            "height": "6116",
            "round": "0",
            "timestamp": "2018-07-30T15:47:30.513860422Z",
            "type": 2,
            "block_id": {
              "hash": "3917D1A041EB0B0A5C0D94DBB04D165F0303F667",
              "parts": {
                "total": "1",
                "hash": "FA8A0A7A90E67C30042F2C412C311FB44CB4A7DC"
              }
            },
            "signature": {
              "type": "tendermint/SignatureEd25519",
              "value": "wQ0BAErD/yaoOnjXSSmVyPxxe3TgPzRin4DS2j2DjE/hh1WRBcVYX0Y8LIvhscONzKvi1+gEina6TL/wmyXbDQ=="
            }
          },
          {
            "validator_address": "462B656869DB02A8FD1077E255F8CC7401DC37C6",
            "validator_index": "32",
            "height": "6116",
            "round": "0",
            "timestamp": "2018-07-30T15:47:30.479902392Z",
            "type": 2,
            "block_id": {
              "hash": "3917D1A041EB0B0A5C0D94DBB04D165F0303F667",
              "parts": {
                "total": "1",
                "hash": "FA8A0A7A90E67C30042F2C412C311FB44CB4A7DC"
              }
            },
            "signature": {
              "type": "tendermint/SignatureEd25519",
              "value": "v7JymsmFO34Cjr/noIEblP/qSIhm8E+OYrw3F4KbdqIt/rw1ybzaxpwp+J8MEL0GZxw/t4QdNQqa0gR/6aZ6Cg=="
            }
          },
          {
            "validator_address": "48E5118163E5442068A1B5A42D2EEDBB75724935",
            "validator_index": "33",
            "height": "6116",
            "round": "0",
            "timestamp": "2018-07-30T15:47:30.637638946Z",
            "type": 2,
            "block_id": {
              "hash": "3917D1A041EB0B0A5C0D94DBB04D165F0303F667",
              "parts": {
                "total": "1",
                "hash": "FA8A0A7A90E67C30042F2C412C311FB44CB4A7DC"
              }
            },
            "signature": {
              "type": "tendermint/SignatureEd25519",
              "value": "PLDvWh2RgMdSSh1PYDN5nyC+Y1ZVIt6AlDG/UotxPx5SmUVVxFaHYuqrzIKUVpp5XbNe4m37S4eQQP9tONsFAg=="
            }
          },
          null,
          {
            "validator_address": "4944F8BBBB5303E17BC0607DF332320EDBC750EA",
            "validator_index": "35",
            "height": "6116",
            "round": "0",
            "timestamp": "2018-07-30T15:47:30.436354869Z",
            "type": 2,
            "block_id": {
              "hash": "3917D1A041EB0B0A5C0D94DBB04D165F0303F667",
              "parts": {
                "total": "1",
                "hash": "FA8A0A7A90E67C30042F2C412C311FB44CB4A7DC"
              }
            },
            "signature": {
              "type": "tendermint/SignatureEd25519",
              "value": "pFiTTBdEcW+cXDojUp1OmnVH2JhiROVvdihYAH9joPmoHflJ4UjdlVBvMs+isHV0OM2Kbyb0JETrDd4R/RbVBw=="
            }
          },
          {
            "validator_address": "49841599DE675157CBE1E7D6B35BF8FFC23BD5CB",
            "validator_index": "36",
            "height": "6116",
            "round": "0",
            "timestamp": "2018-07-30T15:47:30.477179162Z",
            "type": 2,
            "block_id": {
              "hash": "3917D1A041EB0B0A5C0D94DBB04D165F0303F667",
              "parts": {
                "total": "1",
                "hash": "FA8A0A7A90E67C30042F2C412C311FB44CB4A7DC"
              }
            },
            "signature": {
              "type": "tendermint/SignatureEd25519",
              "value": "9i2RVaPKapjvMwCDoThHprwS2qMnwS/vxOvuVtVx63pdi2CWH7zCeAijUnAXJ94fBxcNZCroXgym/KjCBV7gBw=="
            }
          },
          {
            "validator_address": "5104F488EA6B1E2C33CBDA3C18389C88104DBC72",
            "validator_index": "37",
            "height": "6116",
            "round": "0",
            "timestamp": "2018-07-30T15:47:30.54626742Z",
            "type": 2,
            "block_id": {
              "hash": "3917D1A041EB0B0A5C0D94DBB04D165F0303F667",
              "parts": {
                "total": "1",
                "hash": "FA8A0A7A90E67C30042F2C412C311FB44CB4A7DC"
              }
            },
            "signature": {
              "type": "tendermint/SignatureEd25519",
              "value": "D54fbCKirDXq9cDuWdW7mmKcDmJ3Kgde3aDCY0JP2ScIBtvm8DnebEYqmoiqLykgXXib1QEPNvhMFaKdrniDAA=="
            }
          },
          {
            "validator_address": "51386C2CF9556821D114D7E4945806802BADB28D",
            "validator_index": "38",
            "height": "6116",
            "round": "0",
            "timestamp": "2018-07-30T15:47:30.653417372Z",
            "type": 2,
            "block_id": {
              "hash": "3917D1A041EB0B0A5C0D94DBB04D165F0303F667",
              "parts": {
                "total": "1",
                "hash": "FA8A0A7A90E67C30042F2C412C311FB44CB4A7DC"
              }
            },
            "signature": {
              "type": "tendermint/SignatureEd25519",
              "value": "wJOqmPeDCspEZyfh52dcIaYa1oHRDo/u+Y3PB5qv82W8WF/6fjcTlaNi+7MjW+35ThNhF2+VZkD7wj37LDpnDw=="
            }
          },
          {
            "validator_address": "543564ECA3AFEFADC73EE8591AAC3A96F079BC8A",
            "validator_index": "39",
            "height": "6116",
            "round": "0",
            "timestamp": "2018-07-30T15:47:30.445141599Z",
            "type": 2,
            "block_id": {
              "hash": "3917D1A041EB0B0A5C0D94DBB04D165F0303F667",
              "parts": {
                "total": "1",
                "hash": "FA8A0A7A90E67C30042F2C412C311FB44CB4A7DC"
              }
            },
            "signature": {
              "type": "tendermint/SignatureEd25519",
              "value": "RmKV+NZuFPT01vwEPawXvXOmPyFpqYiS3RgRSMTYgMV7JE3C7+XHtMvdeV6T6q6vZ5kIXvqYLBftE31ESR1ODA=="
            }
          },
          {
            "validator_address": "55D67B1A6DC13E96F8754A5A42EABC20F7F86664",
            "validator_index": "40",
            "height": "6116",
            "round": "0",
            "timestamp": "2018-07-30T15:47:30.480225994Z",
            "type": 2,
            "block_id": {
              "hash": "3917D1A041EB0B0A5C0D94DBB04D165F0303F667",
              "parts": {
                "total": "1",
                "hash": "FA8A0A7A90E67C30042F2C412C311FB44CB4A7DC"
              }
            },
            "signature": {
              "type": "tendermint/SignatureEd25519",
              "value": "geelWgpFRVbLmVFRL7/V43OqjJhZhDXYWLqiUqvNZVlF0nT9ayBhabehw4TLOkwkgudxRhl9lYgsuqBeDURsDg=="
            }
          },
          {
            "validator_address": "570B6A755ED339EAC56BB3390A48069F6AC9449B",
            "validator_index": "41",
            "height": "6116",
            "round": "0",
            "timestamp": "2018-07-30T15:47:31.175690714Z",
            "type": 2,
            "block_id": {
              "hash": "3917D1A041EB0B0A5C0D94DBB04D165F0303F667",
              "parts": {
                "total": "1",
                "hash": "FA8A0A7A90E67C30042F2C412C311FB44CB4A7DC"
              }
            },
            "signature": {
              "type": "tendermint/SignatureEd25519",
              "value": "GkUZOkC2EzLwWzXpUY8nHnfEW8mpSyrPWEmnDozTWhPFx+jvP+2hckcDfHOaAMJO4Ka7NiA3BdWY1fhsg9ZGBQ=="
            }
          },
          {
            "validator_address": "5BDF8EA41B1835FBAD865B181A2A4B23F511B5E4",
            "validator_index": "42",
            "height": "6116",
            "round": "0",
            "timestamp": "2018-07-30T15:47:30.446276129Z",
            "type": 2,
            "block_id": {
              "hash": "3917D1A041EB0B0A5C0D94DBB04D165F0303F667",
              "parts": {
                "total": "1",
                "hash": "FA8A0A7A90E67C30042F2C412C311FB44CB4A7DC"
              }
            },
            "signature": {
              "type": "tendermint/SignatureEd25519",
              "value": "CZ0RRcDlYSCnorU8cCc+G9OqJGxCxKhN/qi9B9FuwuGnGRIQXfJL2tshl1g8fg0WWoQCiCwRl2McU5Kfz8Y4Cw=="
            }
          },
          null,
          {
            "validator_address": "5E8673673E37450F01B64138FBF4B172BDB52D68",
            "validator_index": "44",
            "height": "6116",
            "round": "0",
            "timestamp": "2018-07-30T15:47:30.7546422Z",
            "type": 2,
            "block_id": {
              "hash": "3917D1A041EB0B0A5C0D94DBB04D165F0303F667",
              "parts": {
                "total": "1",
                "hash": "FA8A0A7A90E67C30042F2C412C311FB44CB4A7DC"
              }
            },
            "signature": {
              "type": "tendermint/SignatureEd25519",
              "value": "npiRxdKSHnm7iAa8pOS/u6gnVhVUliJ9pbAUEVoycqUlBZBeQZvfle8LTDkK5bI3nfKEYF1Azcwpy9wLx5XCAg=="
            }
          },
          {
            "validator_address": "60229E2E273297FE00219E46DFFB8F76844CDEF9",
            "validator_index": "45",
            "height": "6116",
            "round": "0",
            "timestamp": "2018-07-30T15:47:29.853666474Z",
            "type": 2,
            "block_id": {
              "hash": "3917D1A041EB0B0A5C0D94DBB04D165F0303F667",
              "parts": {
                "total": "1",
                "hash": "FA8A0A7A90E67C30042F2C412C311FB44CB4A7DC"
              }
            },
            "signature": {
              "type": "tendermint/SignatureEd25519",
              "value": "VYumxc/R0vntGUlGUe+59gprQsCyglpKzu82QoyPLwJvjRZd1LJswhL2lU5meR6dwZFxy0DyP7agRLI93gWGBA=="
            }
          },
          {
            "validator_address": "62410D6D1CD98278136E4D0738AA0EA273CDFC54",
            "validator_index": "46",
            "height": "6116",
            "round": "0",
            "timestamp": "2018-07-30T15:47:30.397272348Z",
            "type": 2,
            "block_id": {
              "hash": "3917D1A041EB0B0A5C0D94DBB04D165F0303F667",
              "parts": {
                "total": "1",
                "hash": "FA8A0A7A90E67C30042F2C412C311FB44CB4A7DC"
              }
            },
            "signature": {
              "type": "tendermint/SignatureEd25519",
              "value": "UBsQGxgZLzqyv+7B9UDaECxbkKrpMWM9P1Sj0j1WLi7VqtP9+2OO10t0UgibpgaJujsL8PgAT3OfclkHFN6pBg=="
            }
          },
          {
            "validator_address": "632F5C139A5A9DFBFE5111DEE29FCFB6157207DC",
            "validator_index": "47",
            "height": "6116",
            "round": "0",
            "timestamp": "2018-07-30T15:47:30.500865863Z",
            "type": 2,
            "block_id": {
              "hash": "3917D1A041EB0B0A5C0D94DBB04D165F0303F667",
              "parts": {
                "total": "1",
                "hash": "FA8A0A7A90E67C30042F2C412C311FB44CB4A7DC"
              }
            },
            "signature": {
              "type": "tendermint/SignatureEd25519",
              "value": "CL28y1VjWRlWT4MmSDcFS1N2nUetpFuyRtBRiBocv1SRven1VyI+wWdMRjJiIOjiNzMZ9T4jEOyJFyLMn2TpCw=="
            }
          },
          {
            "validator_address": "64F57F8E796A9B7B590C1EFA4123988C86631D39",
            "validator_index": "48",
            "height": "6116",
            "round": "0",
            "timestamp": "2018-07-30T15:47:30.444780365Z",
            "type": 2,
            "block_id": {
              "hash": "3917D1A041EB0B0A5C0D94DBB04D165F0303F667",
              "parts": {
                "total": "1",
                "hash": "FA8A0A7A90E67C30042F2C412C311FB44CB4A7DC"
              }
            },
            "signature": {
              "type": "tendermint/SignatureEd25519",
              "value": "VcOhFwm/owfWjaqMLRUIqes8j8g1pTQ6Om+HtfwgN5Wl6LDnvZ7uASQ18kNEzP9Z2QGPrihtVvTxo7V0eudsCQ=="
            }
          },
          {
            "validator_address": "69D99B2C66043ACBEAA8447525C356AFC6408E0C",
            "validator_index": "49",
            "height": "6116",
            "round": "0",
            "timestamp": "2018-07-30T15:47:30.559289456Z",
            "type": 2,
            "block_id": {
              "hash": "3917D1A041EB0B0A5C0D94DBB04D165F0303F667",
              "parts": {
                "total": "1",
                "hash": "FA8A0A7A90E67C30042F2C412C311FB44CB4A7DC"
              }
            },
            "signature": {
              "type": "tendermint/SignatureEd25519",
              "value": "BJ9tqvYmU3ttArsZKdWneifdAKVYqjDZMgPKIrbB7Mr/SCZtoGx9kRS4Bw8e+gdiHoqj6RJ61MEpdKG2hLOpCw=="
            }
          },
          {
            "validator_address": "69EDADFA4A803E9DBF548C900D4A465E7D154262",
            "validator_index": "50",
            "height": "6116",
            "round": "0",
            "timestamp": "2018-07-30T15:47:30.579734094Z",
            "type": 2,
            "block_id": {
              "hash": "3917D1A041EB0B0A5C0D94DBB04D165F0303F667",
              "parts": {
                "total": "1",
                "hash": "FA8A0A7A90E67C30042F2C412C311FB44CB4A7DC"
              }
            },
            "signature": {
              "type": "tendermint/SignatureEd25519",
              "value": "24H0ynW4mQlSFSLqmqXr7Bbqr7WlOnKJr/f9kcHmdHyzgcghEfiEOfkYFegyYNMrrnXxP3/Up+GmNrRY/ZPwBQ=="
            }
          },
          {
            "validator_address": "6D3AD380E398D8592B03AA124BAFED5F125DF863",
            "validator_index": "51",
            "height": "6116",
            "round": "0",
            "timestamp": "2018-07-30T15:46:28.919154845Z",
            "type": 2,
            "block_id": {
              "hash": "3917D1A041EB0B0A5C0D94DBB04D165F0303F667",
              "parts": {
                "total": "1",
                "hash": "FA8A0A7A90E67C30042F2C412C311FB44CB4A7DC"
              }
            },
            "signature": {
              "type": "tendermint/SignatureEd25519",
              "value": "WAZ6n2MuUEuwXl/MwXM+DKuRwW+GeZ/T379Kxae2T1F+kAUMbqSQzxDUZGNtyhA71iqbzCLOfSjWwCTfblE9Cw=="
            }
          },
          {
            "validator_address": "6F6C93B8BF3495063FEC9B5C771158607F4AE9D6",
            "validator_index": "52",
            "height": "6116",
            "round": "0",
            "timestamp": "2018-07-30T15:47:30.545048747Z",
            "type": 2,
            "block_id": {
              "hash": "3917D1A041EB0B0A5C0D94DBB04D165F0303F667",
              "parts": {
                "total": "1",
                "hash": "FA8A0A7A90E67C30042F2C412C311FB44CB4A7DC"
              }
            },
            "signature": {
              "type": "tendermint/SignatureEd25519",
              "value": "gZjSFBnDlDJCW7sqP2MQ1LhRAsJkWDN5QNDSnoRkKQMMxSeOK7AY4NjJFPpRoEbQ4rPO5WvpDK5vS6PPeWg6Cw=="
            }
          },
          {
            "validator_address": "732CEEF54C374DDC6ADECBFD707AEFD07FEDC143",
            "validator_index": "53",
            "height": "6116",
            "round": "0",
            "timestamp": "2018-07-30T15:47:30.534600277Z",
            "type": 2,
            "block_id": {
              "hash": "3917D1A041EB0B0A5C0D94DBB04D165F0303F667",
              "parts": {
                "total": "1",
                "hash": "FA8A0A7A90E67C30042F2C412C311FB44CB4A7DC"
              }
            },
            "signature": {
              "type": "tendermint/SignatureEd25519",
              "value": "DzfFkBUuBFMwxEjeKWpG0J+QfqWL9upJVp4iAjD2jMKyyQW5V6BLOwn+tVO+0XxHngFkCzL93u7Cupg34/9OCQ=="
            }
          },
          {
            "validator_address": "7393D691BFAE9661918C09932D4D9060AB40939B",
            "validator_index": "54",
            "height": "6116",
            "round": "0",
            "timestamp": "2018-07-30T15:47:30.734885535Z",
            "type": 2,
            "block_id": {
              "hash": "3917D1A041EB0B0A5C0D94DBB04D165F0303F667",
              "parts": {
                "total": "1",
                "hash": "FA8A0A7A90E67C30042F2C412C311FB44CB4A7DC"
              }
            },
            "signature": {
              "type": "tendermint/SignatureEd25519",
              "value": "ly5UkOKRZJhr7Xy6AGPK0jYKh0G4cOjqFTwF30QF0Op4ErQa9hTNDNly3T1mO647wie6xUsTzyFod9QBy40aAw=="
            }
          },
          {
            "validator_address": "751E43437224E8BB6D1569B3E2B2616B6E7F4397",
            "validator_index": "55",
            "height": "6116",
            "round": "0",
            "timestamp": "2018-07-30T15:47:30.555094656Z",
            "type": 2,
            "block_id": {
              "hash": "3917D1A041EB0B0A5C0D94DBB04D165F0303F667",
              "parts": {
                "total": "1",
                "hash": "FA8A0A7A90E67C30042F2C412C311FB44CB4A7DC"
              }
            },
            "signature": {
              "type": "tendermint/SignatureEd25519",
              "value": "3gEo/hVGDeqNZQiRyu7RRGrJcJ9yU51m2Z1STiXz5eTcTPEO0qDcRHPA9IsK620hE8oT/m1Mf1xNT7cs20uTAA=="
            }
          },
          {
            "validator_address": "7EB7593F519F1180C7E872D0494611464EDF03AE",
            "validator_index": "56",
            "height": "6116",
            "round": "0",
            "timestamp": "2018-07-30T15:47:30.535383949Z",
            "type": 2,
            "block_id": {
              "hash": "3917D1A041EB0B0A5C0D94DBB04D165F0303F667",
              "parts": {
                "total": "1",
                "hash": "FA8A0A7A90E67C30042F2C412C311FB44CB4A7DC"
              }
            },
            "signature": {
              "type": "tendermint/SignatureEd25519",
              "value": "kJ8icReseuPNFxC5JDrf9P1gFh1VFavEevXf6VpM1HPOjfTy7iQoAtU+etr5mhC3HpYW3SEHODqpJDOyuVCTBQ=="
            }
          },
          {
            "validator_address": "807CF675BA8479FC4FEC1047215DF07970040F1F",
            "validator_index": "57",
            "height": "6116",
            "round": "0",
            "timestamp": "2018-07-30T15:47:30.836309515Z",
            "type": 2,
            "block_id": {
              "hash": "3917D1A041EB0B0A5C0D94DBB04D165F0303F667",
              "parts": {
                "total": "1",
                "hash": "FA8A0A7A90E67C30042F2C412C311FB44CB4A7DC"
              }
            },
            "signature": {
              "type": "tendermint/SignatureEd25519",
              "value": "oKctLt7IwzZnQchyWUQbzDncxbjtjKK7wYGC+JrYM33826XKxQCA4VsK80pjuzq4nCrWgI3mIMee7awFuBXqAg=="
            }
          },
          {
            "validator_address": "8126192EA66E8ADE6B36924534721366B987A4C1",
            "validator_index": "58",
            "height": "6116",
            "round": "0",
            "timestamp": "2018-07-30T15:47:30.515606339Z",
            "type": 2,
            "block_id": {
              "hash": "3917D1A041EB0B0A5C0D94DBB04D165F0303F667",
              "parts": {
                "total": "1",
                "hash": "FA8A0A7A90E67C30042F2C412C311FB44CB4A7DC"
              }
            },
            "signature": {
              "type": "tendermint/SignatureEd25519",
              "value": "l0VnQt3JWdfDDkZnsSb8LPnwqSmtu4tVVvp+kLjDIH+ZNNUryDcn8ZiDNQwQHqWPUvdgb0TeZ27btXe6Pl88DQ=="
            }
          },
          null,
          {
            "validator_address": "83AB321E012C57746689FED3A6064DF331F81007",
            "validator_index": "60",
            "height": "6116",
            "round": "0",
            "timestamp": "2018-07-30T15:47:30.472369231Z",
            "type": 2,
            "block_id": {
              "hash": "3917D1A041EB0B0A5C0D94DBB04D165F0303F667",
              "parts": {
                "total": "1",
                "hash": "FA8A0A7A90E67C30042F2C412C311FB44CB4A7DC"
              }
            },
            "signature": {
              "type": "tendermint/SignatureEd25519",
              "value": "yyoxo1xiXOdTS6rDIwIDa8IkU9oSYP8GC6euVLu5PKBcBkJv65upbQNzPvyw+onCxHDycEwY2RfTPDIPf4k/BA=="
            }
          },
          {
            "validator_address": "83BB1B88D3DBB20AD845FECA07749EBD87D3754D",
            "validator_index": "61",
            "height": "6116",
            "round": "0",
            "timestamp": "2018-07-30T15:47:30.697796977Z",
            "type": 2,
            "block_id": {
              "hash": "3917D1A041EB0B0A5C0D94DBB04D165F0303F667",
              "parts": {
                "total": "1",
                "hash": "FA8A0A7A90E67C30042F2C412C311FB44CB4A7DC"
              }
            },
            "signature": {
              "type": "tendermint/SignatureEd25519",
              "value": "IAL4Rx5ZF8j+Yip059brjSYY59eHFEye6vSb3cCF91plQgAiVEe7hakTsp5uu8+n5RKalrgIEAXXuujm67P9BA=="
            }
          },
          null,
          {
            "validator_address": "8F06FE1FD042683C426137FBC4BBAA4288924217",
            "validator_index": "63",
            "height": "6116",
            "round": "0",
            "timestamp": "2018-07-30T15:47:30.475754332Z",
            "type": 2,
            "block_id": {
              "hash": "3917D1A041EB0B0A5C0D94DBB04D165F0303F667",
              "parts": {
                "total": "1",
                "hash": "FA8A0A7A90E67C30042F2C412C311FB44CB4A7DC"
              }
            },
            "signature": {
              "type": "tendermint/SignatureEd25519",
              "value": "qpJMYGrtIz1uj8UkKuCxyBfjFPrFnO7o3nXeWDwaZQFJ5rbqIEUDsNHKGVMsNEg3Sf07RXZQgliVvwJwO4qXCQ=="
            }
          },
          {
            "validator_address": "8F45617BF45B10A3F8283DEBDB35E38C7CA43237",
            "validator_index": "64",
            "height": "6116",
            "round": "0",
            "timestamp": "2018-07-30T15:47:30.546536389Z",
            "type": 2,
            "block_id": {
              "hash": "3917D1A041EB0B0A5C0D94DBB04D165F0303F667",
              "parts": {
                "total": "1",
                "hash": "FA8A0A7A90E67C30042F2C412C311FB44CB4A7DC"
              }
            },
            "signature": {
              "type": "tendermint/SignatureEd25519",
              "value": "FMKEEydn7XJWGuV9eeBHxYHpgqJTomlzqKZdbssyJSOemJ/tI5U2gh99WNiyFUDS818pXI9nZoJDzO31r5oLAA=="
            }
          },
          null,
          {
            "validator_address": "95980831E186F2540F6E9FB6C8E74DE2401405AC",
            "validator_index": "66",
            "height": "6116",
            "round": "0",
            "timestamp": "2018-07-30T15:47:30.544155449Z",
            "type": 2,
            "block_id": {
              "hash": "3917D1A041EB0B0A5C0D94DBB04D165F0303F667",
              "parts": {
                "total": "1",
                "hash": "FA8A0A7A90E67C30042F2C412C311FB44CB4A7DC"
              }
            },
            "signature": {
              "type": "tendermint/SignatureEd25519",
              "value": "ft0nHN4OlF5vTr/cxVxGqkPzk+Cg7cRhZt08ywghpguPevr4FTvKFZeq9U+3IAYZoBbNfLXip8qc2vXeEkq5Dg=="
            }
          },
          {
            "validator_address": "95FAFBC1E0579C83D290A063020CE87C5334BD9B",
            "validator_index": "67",
            "height": "6116",
            "round": "0",
            "timestamp": "2018-07-30T15:47:30.512738605Z",
            "type": 2,
            "block_id": {
              "hash": "3917D1A041EB0B0A5C0D94DBB04D165F0303F667",
              "parts": {
                "total": "1",
                "hash": "FA8A0A7A90E67C30042F2C412C311FB44CB4A7DC"
              }
            },
            "signature": {
              "type": "tendermint/SignatureEd25519",
              "value": "4SVMpflzObq6OJzCAFXC3lv5ncv0++0K/Jt2XP5vuU9JDuoQIPIMPgfhVlMhHZPAdmW/dyJH1LWM9k8IHCH0Dg=="
            }
          },
          {
            "validator_address": "96BDE45EC52606CF5CB59853097871AD60680549",
            "validator_index": "68",
            "height": "6116",
            "round": "0",
            "timestamp": "2018-07-30T15:47:30.479418884Z",
            "type": 2,
            "block_id": {
              "hash": "3917D1A041EB0B0A5C0D94DBB04D165F0303F667",
              "parts": {
                "total": "1",
                "hash": "FA8A0A7A90E67C30042F2C412C311FB44CB4A7DC"
              }
            },
            "signature": {
              "type": "tendermint/SignatureEd25519",
              "value": "WQ0F2au67wyejAQSMf9bKyBfAL2bzdpo8QUTvHL4q0kuIY+9nvSaAp4p051DJ+rMERMgsnJrYcULEi4FvUjWDg=="
            }
          },
          {
            "validator_address": "970CD321881185BF83DB2923C321B0E75FDBB2B8",
            "validator_index": "69",
            "height": "6116",
            "round": "0",
            "timestamp": "2018-07-30T15:47:30.563091108Z",
            "type": 2,
            "block_id": {
              "hash": "3917D1A041EB0B0A5C0D94DBB04D165F0303F667",
              "parts": {
                "total": "1",
                "hash": "FA8A0A7A90E67C30042F2C412C311FB44CB4A7DC"
              }
            },
            "signature": {
              "type": "tendermint/SignatureEd25519",
              "value": "spg4n3r1WfuTMpyiANLwdnRFxnUf/9Tzo+5Q81yCnDW4jwfinvkAjp+PV3XECfdWPPNP8zhTrfZx/q1apq3lAg=="
            }
          },
          null,
          {
            "validator_address": "9C29C9B76D27586E4D9AD2AED0E943162645E55C",
            "validator_index": "71",
            "height": "6116",
            "round": "0",
            "timestamp": "2018-07-30T15:47:30.399372262Z",
            "type": 2,
            "block_id": {
              "hash": "3917D1A041EB0B0A5C0D94DBB04D165F0303F667",
              "parts": {
                "total": "1",
                "hash": "FA8A0A7A90E67C30042F2C412C311FB44CB4A7DC"
              }
            },
            "signature": {
              "type": "tendermint/SignatureEd25519",
              "value": "MOrJ1TveeplkbiWSTPEkhh1XXQqimJqwNWwVflOinl0gQXxt0Iq8ZAMypR5HpnHzc08xaIVzjp57MRT7JK4jCw=="
            }
          },
          {
            "validator_address": "9D93AD02FE1BD7E76B9E58D7EB461088EAD011E5",
            "validator_index": "72",
            "height": "6116",
            "round": "0",
            "timestamp": "2018-07-30T15:47:30.406062477Z",
            "type": 2,
            "block_id": {
              "hash": "3917D1A041EB0B0A5C0D94DBB04D165F0303F667",
              "parts": {
                "total": "1",
                "hash": "FA8A0A7A90E67C30042F2C412C311FB44CB4A7DC"
              }
            },
            "signature": {
              "type": "tendermint/SignatureEd25519",
              "value": "/Zcoka8m+KMputnOxDP22JDdLxNEr5CXiUaVfTerqfnqA/s5OrGdQec+Ry+jSCr6ZEreu9IBJNpIBMYpT4cHDA=="
            }
          },
          null,
          {
            "validator_address": "A0A6466F4ABEA09C3B55E3709AFDE217A103209F",
            "validator_index": "74",
            "height": "6116",
            "round": "0",
            "timestamp": "2018-07-30T15:47:30.471349581Z",
            "type": 2,
            "block_id": {
              "hash": "3917D1A041EB0B0A5C0D94DBB04D165F0303F667",
              "parts": {
                "total": "1",
                "hash": "FA8A0A7A90E67C30042F2C412C311FB44CB4A7DC"
              }
            },
            "signature": {
              "type": "tendermint/SignatureEd25519",
              "value": "5tiTyEsOsAOM3pcr2vXiZV8/BrGUVpU1JhsZKKBRfQM7WaK62PoOtyUdp/+UEzatRC3DNpcc0V/14prXpyVWAw=="
            }
          },
          {
            "validator_address": "A5868971300F155020634D7BB49C7634F7AACCD3",
            "validator_index": "75",
            "height": "6116",
            "round": "0",
            "timestamp": "2018-07-30T15:47:30.456601235Z",
            "type": 2,
            "block_id": {
              "hash": "3917D1A041EB0B0A5C0D94DBB04D165F0303F667",
              "parts": {
                "total": "1",
                "hash": "FA8A0A7A90E67C30042F2C412C311FB44CB4A7DC"
              }
            },
            "signature": {
              "type": "tendermint/SignatureEd25519",
              "value": "+YqwO+hVzhQPldTTTpmWIIBAyuNxV5I1ahf4pbD8Nq1Gz0sJoMET45/KH2mzexYoYzPW0abFtvx7RDStuBaLCw=="
            }
          },
          {
            "validator_address": "A6B3A5B5D982CFD7B5FDFA15CF5A720E7AE25E7F",
            "validator_index": "76",
            "height": "6116",
            "round": "0",
            "timestamp": "2018-07-30T15:47:30.449652104Z",
            "type": 2,
            "block_id": {
              "hash": "3917D1A041EB0B0A5C0D94DBB04D165F0303F667",
              "parts": {
                "total": "1",
                "hash": "FA8A0A7A90E67C30042F2C412C311FB44CB4A7DC"
              }
            },
            "signature": {
              "type": "tendermint/SignatureEd25519",
              "value": "BjMq4xFYJLzPZxFfMm4mvtnnROTC4zXwJc0ZH3yGxenO3hXLkB7DfeR4447wXXAwLGVo0nM9beNXaPGpAMBrCg=="
            }
          },
          {
            "validator_address": "AC96444A9083890B7C7B430DB17BF1D3EA5EED04",
            "validator_index": "77",
            "height": "6116",
            "round": "0",
            "timestamp": "2018-07-30T15:47:30.574757521Z",
            "type": 2,
            "block_id": {
              "hash": "3917D1A041EB0B0A5C0D94DBB04D165F0303F667",
              "parts": {
                "total": "1",
                "hash": "FA8A0A7A90E67C30042F2C412C311FB44CB4A7DC"
              }
            },
            "signature": {
              "type": "tendermint/SignatureEd25519",
              "value": "X7WRNV3Mcpcz4In9XwzSu37xO7K8ek1PzZ2rRnqSu9HK/Mo2qB0IKz0luwUqXmpPFjpme57QzzFr9O5YQfx6DQ=="
            }
          },
          {
            "validator_address": "ACB97FDA2D940AF0709B73537C458EB988AD2893",
            "validator_index": "78",
            "height": "6116",
            "round": "0",
            "timestamp": "2018-07-30T15:47:30.426493547Z",
            "type": 2,
            "block_id": {
              "hash": "3917D1A041EB0B0A5C0D94DBB04D165F0303F667",
              "parts": {
                "total": "1",
                "hash": "FA8A0A7A90E67C30042F2C412C311FB44CB4A7DC"
              }
            },
            "signature": {
              "type": "tendermint/SignatureEd25519",
              "value": "8nGkYcp1+73/7JVxWyyL+zN1URNtugXOKHhoFYHHxIhVbS3GzVpLkSfVvxx7zd5+byt3uI5xXpUJXJM0OWfLCg=="
            }
          },
          {
            "validator_address": "B197425B3210375F211661DE02EF2AE36580EB0F",
            "validator_index": "79",
            "height": "6116",
            "round": "0",
            "timestamp": "2018-07-30T15:47:30.47421762Z",
            "type": 2,
            "block_id": {
              "hash": "3917D1A041EB0B0A5C0D94DBB04D165F0303F667",
              "parts": {
                "total": "1",
                "hash": "FA8A0A7A90E67C30042F2C412C311FB44CB4A7DC"
              }
            },
            "signature": {
              "type": "tendermint/SignatureEd25519",
              "value": "ceC5Z1/9jeVVHU68btKv694+61mUytY5KO55LAe1HVQ7eXSrDdNqpx4V4nNuFIiFVpuHxmmctdTZN7pFRt7YBw=="
            }
          },
          {
            "validator_address": "B45E54D2D1CB5A4CCD1D49016608C18E7C56B270",
            "validator_index": "80",
            "height": "6116",
            "round": "0",
            "timestamp": "2018-07-30T15:47:30.5996385Z",
            "type": 2,
            "block_id": {
              "hash": "3917D1A041EB0B0A5C0D94DBB04D165F0303F667",
              "parts": {
                "total": "1",
                "hash": "FA8A0A7A90E67C30042F2C412C311FB44CB4A7DC"
              }
            },
            "signature": {
              "type": "tendermint/SignatureEd25519",
              "value": "UHfJZrdy4IuXKQRRNh7tq/CI189qpN6to4Z7wnXL+SUVeHFxNtMeMY3V2ZlKl+OlJdqCrNYebvVozXFwnR7cCw=="
            }
          },
          {
            "validator_address": "B59A34C0BE4EC73AF6A67D274F1695C9259C237C",
            "validator_index": "81",
            "height": "6116",
            "round": "0",
            "timestamp": "2018-07-30T15:47:30.650213515Z",
            "type": 2,
            "block_id": {
              "hash": "3917D1A041EB0B0A5C0D94DBB04D165F0303F667",
              "parts": {
                "total": "1",
                "hash": "FA8A0A7A90E67C30042F2C412C311FB44CB4A7DC"
              }
            },
            "signature": {
              "type": "tendermint/SignatureEd25519",
              "value": "GfwEtRCpkBC6HBMKenNbgtqRswGr8F9Fzd+pCYPyU0jXWIrzN3eviW0nVQrQdnB0DjuzJCEKmlJDq7VeAtjAAQ=="
            }
          },
          {
            "validator_address": "BC36FEDD6EF6071118A3E51859DF3831A2EC4782",
            "validator_index": "82",
            "height": "6116",
            "round": "0",
            "timestamp": "2018-07-30T15:47:30.56326684Z",
            "type": 2,
            "block_id": {
              "hash": "3917D1A041EB0B0A5C0D94DBB04D165F0303F667",
              "parts": {
                "total": "1",
                "hash": "FA8A0A7A90E67C30042F2C412C311FB44CB4A7DC"
              }
            },
            "signature": {
              "type": "tendermint/SignatureEd25519",
              "value": "ZC91JtJYmqsaewBM16ywg7y7ZRc+S+7g4nWXLEVDRGl/vGQQ8HgATUrtRzx55nAzrScHGEBSIn4M0J3EwHt2Ag=="
            }
          },
          {
            "validator_address": "BD9D0DA513BF099DB4BB6E725A4E19832789882F",
            "validator_index": "83",
            "height": "6116",
            "round": "0",
            "timestamp": "2018-07-30T15:47:30.521448126Z",
            "type": 2,
            "block_id": {
              "hash": "3917D1A041EB0B0A5C0D94DBB04D165F0303F667",
              "parts": {
                "total": "1",
                "hash": "FA8A0A7A90E67C30042F2C412C311FB44CB4A7DC"
              }
            },
            "signature": {
              "type": "tendermint/SignatureEd25519",
              "value": "hlyNJufJyrE3LnrUtLh4AZjgNUUgmO4/ciZaaaRMM47f53D3rG3SOxu/0fihg6oycHF2L4WDa+RTq7SJLA8kCg=="
            }
          },
          {
            "validator_address": "C1134A2FF8F7338E7CDB3FE57DDD2A655DEB1E22",
            "validator_index": "84",
            "height": "6116",
            "round": "0",
            "timestamp": "2018-07-30T15:47:29.732778263Z",
            "type": 2,
            "block_id": {
              "hash": "3917D1A041EB0B0A5C0D94DBB04D165F0303F667",
              "parts": {
                "total": "1",
                "hash": "FA8A0A7A90E67C30042F2C412C311FB44CB4A7DC"
              }
            },
            "signature": {
              "type": "tendermint/SignatureEd25519",
              "value": "4nfdfyNrEObL42crpj/BfR1MDdQRbP1b6It4F9vI7sPDKeNOsG7zrH7r7CjLx2vF7wffqTRH2maDpMUg02txAw=="
            }
          },
          {
            "validator_address": "C39A8A2B85198DCB8F23AD1F6C198E2BA7AB5D60",
            "validator_index": "85",
            "height": "6116",
            "round": "0",
            "timestamp": "2018-07-30T15:47:30.509126024Z",
            "type": 2,
            "block_id": {
              "hash": "3917D1A041EB0B0A5C0D94DBB04D165F0303F667",
              "parts": {
                "total": "1",
                "hash": "FA8A0A7A90E67C30042F2C412C311FB44CB4A7DC"
              }
            },
            "signature": {
              "type": "tendermint/SignatureEd25519",
              "value": "hNRdg7YCEmYWaFGUINNGtG9gG9bR+a7Bxi2OEea96B3H0mubRmlpUYxgtL+BjegscEh/oU+5ezYeSxUbBJYCDw=="
            }
          },
          {
            "validator_address": "C4335190C3B5BD4BA5568BC0F99C34162D940D08",
            "validator_index": "86",
            "height": "6116",
            "round": "0",
            "timestamp": "2018-07-30T15:47:30.600513556Z",
            "type": 2,
            "block_id": {
              "hash": "3917D1A041EB0B0A5C0D94DBB04D165F0303F667",
              "parts": {
                "total": "1",
                "hash": "FA8A0A7A90E67C30042F2C412C311FB44CB4A7DC"
              }
            },
            "signature": {
              "type": "tendermint/SignatureEd25519",
              "value": "7o+qCqf08QE8YvL2gtfZuAJCZ2C0+ikygUygjluDcV/0zjVIEu0j6FizvlkT6vXWr1Git7j61heg9rQEykA3Dg=="
            }
          },
          {
            "validator_address": "C561CFA081677046376396922E7576E5F7B316AD",
            "validator_index": "87",
            "height": "6116",
            "round": "0",
            "timestamp": "2018-07-30T15:47:30.576745168Z",
            "type": 2,
            "block_id": {
              "hash": "3917D1A041EB0B0A5C0D94DBB04D165F0303F667",
              "parts": {
                "total": "1",
                "hash": "FA8A0A7A90E67C30042F2C412C311FB44CB4A7DC"
              }
            },
            "signature": {
              "type": "tendermint/SignatureEd25519",
              "value": "AXVRe3j0uDrZjIbf3iDiBUhRat7gWTlvzhk2rB3h47sVHWk13qW+3HmQyrlT8ZTeaFfJEl1+LvGNmL3Io1INDA=="
            }
          },
          {
            "validator_address": "CEB97DB5CB18270247ABDE6CF2F84F9AEE8A2904",
            "validator_index": "88",
            "height": "6116",
            "round": "0",
            "timestamp": "2018-07-30T15:47:30.229621548Z",
            "type": 2,
            "block_id": {
              "hash": "3917D1A041EB0B0A5C0D94DBB04D165F0303F667",
              "parts": {
                "total": "1",
                "hash": "FA8A0A7A90E67C30042F2C412C311FB44CB4A7DC"
              }
            },
            "signature": {
              "type": "tendermint/SignatureEd25519",
              "value": "XxrAbBXnjgx9FLFNciu0U4c9T1N4VMKh0m14FQdhcel53KfqWtAj2Fxm0KUVWZe0VROgkBclLOnYyKyYxRL5AA=="
            }
          },
          {
            "validator_address": "CF205769734F5758CC39F907EFB73D6BAF915FB1",
            "validator_index": "89",
            "height": "6116",
            "round": "0",
            "timestamp": "2018-07-30T15:47:30.5897667Z",
            "type": 2,
            "block_id": {
              "hash": "3917D1A041EB0B0A5C0D94DBB04D165F0303F667",
              "parts": {
                "total": "1",
                "hash": "FA8A0A7A90E67C30042F2C412C311FB44CB4A7DC"
              }
            },
            "signature": {
              "type": "tendermint/SignatureEd25519",
              "value": "B8NpZa6zC7EZnYfjOy0e7j1CeguA10WeOEOxRm1QQLFq8AxMGaJ93XCgoPHnWXZPqpt4O+t/Nbz2J8OQYcinDA=="
            }
          },
          {
            "validator_address": "D2134B826A1E25A955905CB79A4D8731CAFA0CCE",
            "validator_index": "90",
            "height": "6116",
            "round": "0",
            "timestamp": "2018-07-30T15:47:30.632230501Z",
            "type": 2,
            "block_id": {
              "hash": "3917D1A041EB0B0A5C0D94DBB04D165F0303F667",
              "parts": {
                "total": "1",
                "hash": "FA8A0A7A90E67C30042F2C412C311FB44CB4A7DC"
              }
            },
            "signature": {
              "type": "tendermint/SignatureEd25519",
              "value": "EOnIKbi2UEjKxmt/2/6B/HZoybK27PcuJUIlfC/5DnePx8vVEochzB6LDtkizcgxIlx6p6QMt8oq1KvR2kBoAw=="
            }
          },
          null,
          {
            "validator_address": "D6285C3422C8886445D53757CBE12D2B91B5A9D0",
            "validator_index": "92",
            "height": "6116",
            "round": "0",
            "timestamp": "2018-07-30T15:47:12.760920734Z",
            "type": 2,
            "block_id": {
              "hash": "3917D1A041EB0B0A5C0D94DBB04D165F0303F667",
              "parts": {
                "total": "1",
                "hash": "FA8A0A7A90E67C30042F2C412C311FB44CB4A7DC"
              }
            },
            "signature": {
              "type": "tendermint/SignatureEd25519",
              "value": "1fj+n095DXnHkAbmJyflue22L/OkUrSMJBrt4QtWX/1WY72+n5/HrpUqA68HAB7gmq2mNwepVZZ4sVGG9TdVDA=="
            }
          },
          null,
          null,
          {
            "validator_address": "DB7E6732471D3EA5C90C17A9974D9F88AB45F2FB",
            "validator_index": "95",
            "height": "6116",
            "round": "0",
            "timestamp": "2018-07-30T15:47:30.52976597Z",
            "type": 2,
            "block_id": {
              "hash": "3917D1A041EB0B0A5C0D94DBB04D165F0303F667",
              "parts": {
                "total": "1",
                "hash": "FA8A0A7A90E67C30042F2C412C311FB44CB4A7DC"
              }
            },
            "signature": {
              "type": "tendermint/SignatureEd25519",
              "value": "6mIxwEndOHlMj1QTRB9NcL2pbWgIhcDP50gnIy8MAm1n42QGx5KxaNVTLbAVKJ85RjBcR9OqALMriXOiEyi8DA=="
            }
          },
          {
            "validator_address": "DF54B862410BCD9B5C516FBB6C56BDC826ED6FA7",
            "validator_index": "96",
            "height": "6116",
            "round": "0",
            "timestamp": "2018-07-30T15:47:30.615610985Z",
            "type": 2,
            "block_id": {
              "hash": "3917D1A041EB0B0A5C0D94DBB04D165F0303F667",
              "parts": {
                "total": "1",
                "hash": "FA8A0A7A90E67C30042F2C412C311FB44CB4A7DC"
              }
            },
            "signature": {
              "type": "tendermint/SignatureEd25519",
              "value": "e+wGCsnGJIxXVxnCAHBYTj+xhB2zv0a9+ByM95HAL8uVYk/4ALHUaTcjp1Br2lei2Ts1LUfBEK1xrLCiyrMaAw=="
            }
          },
          {
            "validator_address": "DFAF0C8B1B78D6D552B0189DE3ACA351439A1319",
            "validator_index": "97",
            "height": "6116",
            "round": "0",
            "timestamp": "2018-07-30T15:47:30.499504014Z",
            "type": 2,
            "block_id": {
              "hash": "3917D1A041EB0B0A5C0D94DBB04D165F0303F667",
              "parts": {
                "total": "1",
                "hash": "FA8A0A7A90E67C30042F2C412C311FB44CB4A7DC"
              }
            },
            "signature": {
              "type": "tendermint/SignatureEd25519",
              "value": "ZfcOA/ETQ5hMbdswuNGyuLRY57NrYp5ZqnEGkNCI6z7u7Pw2UpHuYbWfhKqAbDq+G3ceNiOrLm3JEUVNMNvpAg=="
            }
          },
          {
            "validator_address": "E1DBC77881161A5A3A8536A57536EAE546A75D69",
            "validator_index": "98",
            "height": "6116",
            "round": "0",
            "timestamp": "2018-07-30T15:47:30.461245713Z",
            "type": 2,
            "block_id": {
              "hash": "3917D1A041EB0B0A5C0D94DBB04D165F0303F667",
              "parts": {
                "total": "1",
                "hash": "FA8A0A7A90E67C30042F2C412C311FB44CB4A7DC"
              }
            },
            "signature": {
              "type": "tendermint/SignatureEd25519",
              "value": "uxIIKS+ETjYjR359XppknwfCPHDd9AdfpQf445yZjO8FqA1NdVMuSP7fbAt2ACEM3kZLinaLi/fNUvESajuPBQ=="
            }
          },
          {
            "validator_address": "E300E9D484374C1D3E97C1D93CAC3B160A056298",
            "validator_index": "99",
            "height": "6116",
            "round": "0",
            "timestamp": "2018-07-30T15:47:30.739632313Z",
            "type": 2,
            "block_id": {
              "hash": "3917D1A041EB0B0A5C0D94DBB04D165F0303F667",
              "parts": {
                "total": "1",
                "hash": "FA8A0A7A90E67C30042F2C412C311FB44CB4A7DC"
              }
            },
            "signature": {
              "type": "tendermint/SignatureEd25519",
              "value": "B/FnI9g7Woqz7EGAxewSE3LWSjzGlCUAduKbxzxoL1WJpBThrTWg3SsI2yo0q4blpdlEQbK3OIvd4XYU76LhAg=="
            }
          },
          {
            "validator_address": "E39B5778E0D4297A46F45CF6940B0A163A430FF8",
            "validator_index": "100",
            "height": "6116",
            "round": "0",
            "timestamp": "2018-07-30T15:47:30.517409802Z",
            "type": 2,
            "block_id": {
              "hash": "3917D1A041EB0B0A5C0D94DBB04D165F0303F667",
              "parts": {
                "total": "1",
                "hash": "FA8A0A7A90E67C30042F2C412C311FB44CB4A7DC"
              }
            },
            "signature": {
              "type": "tendermint/SignatureEd25519",
              "value": "kD18Pwbq4ZvbKsFhsTqTbrG0QrX3aTxS5dWhEdRBuMbIi4KnzUjrnAnXPOLJgHlht+y/XftCPinE+Sx9yyPOBQ=="
            }
          },
          null,
          {
            "validator_address": "E42F8AEABB685219F7027F54D2B0DBC7846F633A",
            "validator_index": "102",
            "height": "6116",
            "round": "0",
            "timestamp": "2018-07-30T15:47:29.848463622Z",
            "type": 2,
            "block_id": {
              "hash": "3917D1A041EB0B0A5C0D94DBB04D165F0303F667",
              "parts": {
                "total": "1",
                "hash": "FA8A0A7A90E67C30042F2C412C311FB44CB4A7DC"
              }
            },
            "signature": {
              "type": "tendermint/SignatureEd25519",
              "value": "xIT0RVDTWQ3qD0bakj/7MLSm5XPUMjOC3hzQ09uvf4EdS3r2JRJKqevtI3KOGncGeoStQZTlcoz9evGQC2RxAA=="
            }
          },
          {
            "validator_address": "E4E6C2E81269DFFA196C17F98240E491479A6008",
            "validator_index": "103",
            "height": "6116",
            "round": "0",
            "timestamp": "2018-07-30T15:47:30.679767911Z",
            "type": 2,
            "block_id": {
              "hash": "3917D1A041EB0B0A5C0D94DBB04D165F0303F667",
              "parts": {
                "total": "1",
                "hash": "FA8A0A7A90E67C30042F2C412C311FB44CB4A7DC"
              }
            },
            "signature": {
              "type": "tendermint/SignatureEd25519",
              "value": "4TSmN/4WF4izM+iGHSrzdfEaGHTOsvNbnEEunb5atMlBTYtt5qVIwgNz82T8MiTdpVIhtNv/3RQhmH5HwuSzBQ=="
            }
          },
          null,
          {
            "validator_address": "E6A7079D584B163750BE0831227F6B685DEAF3C1",
            "validator_index": "105",
            "height": "6116",
            "round": "0",
            "timestamp": "2018-07-30T15:47:30.676343847Z",
            "type": 2,
            "block_id": {
              "hash": "3917D1A041EB0B0A5C0D94DBB04D165F0303F667",
              "parts": {
                "total": "1",
                "hash": "FA8A0A7A90E67C30042F2C412C311FB44CB4A7DC"
              }
            },
            "signature": {
              "type": "tendermint/SignatureEd25519",
              "value": "YHJJ3MIVjqB3ND4mn2b9TtKfu6tynb7sOMdahIVsdo7oFZE1tm+jgZWDHH/DsPEz10VBrjZYptfBa4PJPgwsCw=="
            }
          },
          {
            "validator_address": "E7A30077D5D11867D3EAF99ED45BFDC1EB834509",
            "validator_index": "106",
            "height": "6116",
            "round": "0",
            "timestamp": "2018-07-30T15:47:30.508069838Z",
            "type": 2,
            "block_id": {
              "hash": "3917D1A041EB0B0A5C0D94DBB04D165F0303F667",
              "parts": {
                "total": "1",
                "hash": "FA8A0A7A90E67C30042F2C412C311FB44CB4A7DC"
              }
            },
            "signature": {
              "type": "tendermint/SignatureEd25519",
              "value": "7bZa9taxnW7t2kAkeaQaHugFRpIPh/i3X2ngrqneNGkuLjHHfJCdp9BKvn0wXfvu1B6u1qp/5HlDFm/5yS8xAg=="
            }
          },
          {
            "validator_address": "EBC613967F66F4EC306852CDF58B4F151CF16738",
            "validator_index": "107",
            "height": "6116",
            "round": "0",
            "timestamp": "2018-07-30T15:47:30.565663969Z",
            "type": 2,
            "block_id": {
              "hash": "3917D1A041EB0B0A5C0D94DBB04D165F0303F667",
              "parts": {
                "total": "1",
                "hash": "FA8A0A7A90E67C30042F2C412C311FB44CB4A7DC"
              }
            },
            "signature": {
              "type": "tendermint/SignatureEd25519",
              "value": "vHCYp0KtQE/KYTQGmmyDGAffDBYbEPMM2dyDbDEYaBOvuUf6ffeVPjkLo6y0s7KfM05n8tJX+GOJQdb1H90oBQ=="
            }
          },
          {
            "validator_address": "EC3401441726C40ECC7E51F744483B05BC6DE9BD",
            "validator_index": "108",
            "height": "6116",
            "round": "0",
            "timestamp": "2018-07-30T15:47:30.476035465Z",
            "type": 2,
            "block_id": {
              "hash": "3917D1A041EB0B0A5C0D94DBB04D165F0303F667",
              "parts": {
                "total": "1",
                "hash": "FA8A0A7A90E67C30042F2C412C311FB44CB4A7DC"
              }
            },
            "signature": {
              "type": "tendermint/SignatureEd25519",
              "value": "3xVXi1rN5aW5kBxerE5ZVjI2MO4lXyesnKO5004uP/obJSiP+KeggcH64au80/8WEhOqtV/x9DdBLa685aY2Bg=="
            }
          },
          {
            "validator_address": "EC95B111D032181E1EC3B5E8875C5BB8E4AE7140",
            "validator_index": "109",
            "height": "6116",
            "round": "0",
            "timestamp": "2018-07-30T15:47:30.390232776Z",
            "type": 2,
            "block_id": {
              "hash": "3917D1A041EB0B0A5C0D94DBB04D165F0303F667",
              "parts": {
                "total": "1",
                "hash": "FA8A0A7A90E67C30042F2C412C311FB44CB4A7DC"
              }
            },
            "signature": {
              "type": "tendermint/SignatureEd25519",
              "value": "k7Lwz1XsWv9NrGdNxMHFywMPiDguF2JHht+Msap0c3CfAACPibkRoo75CfD4PY3Nyb91pTldw/em7EXq0/BGCw=="
            }
          },
          {
            "validator_address": "F13C1805E8131C9B47E2A46818F57D8A2841E578",
            "validator_index": "110",
            "height": "6116",
            "round": "0",
            "timestamp": "2018-07-30T15:47:30.493639757Z",
            "type": 2,
            "block_id": {
              "hash": "3917D1A041EB0B0A5C0D94DBB04D165F0303F667",
              "parts": {
                "total": "1",
                "hash": "FA8A0A7A90E67C30042F2C412C311FB44CB4A7DC"
              }
            },
            "signature": {
              "type": "tendermint/SignatureEd25519",
              "value": "9aoM8J/6gAXPXEYyyoqHD4z+cw6lh/+o9e1SJpnVsoR1G6Qq9iBwc50oJbN8TjfK/lzoj4BX1hrVE7Gl1eHMDg=="
            }
          },
          {
            "validator_address": "F23FF36BD5B90C33CE3A03ED72DBDCF5EC07D6AF",
            "validator_index": "111",
            "height": "6116",
            "round": "0",
            "timestamp": "2018-07-30T15:47:30.59262775Z",
            "type": 2,
            "block_id": {
              "hash": "3917D1A041EB0B0A5C0D94DBB04D165F0303F667",
              "parts": {
                "total": "1",
                "hash": "FA8A0A7A90E67C30042F2C412C311FB44CB4A7DC"
              }
            },
            "signature": {
              "type": "tendermint/SignatureEd25519",
              "value": "H1fSzZOYaeyWr5kcirwRhvwb8Vunyw7trpwIqEEqNESpssrevTZ3d4VOEr63kowGn6jvctkUlAk1Lf3Bf8/lCw=="
            }
          },
          {
            "validator_address": "F4268597DE93E3E2CED38845010F8AA34E2A879E",
            "validator_index": "112",
            "height": "6116",
            "round": "0",
            "timestamp": "2018-07-30T15:47:30.556730989Z",
            "type": 2,
            "block_id": {
              "hash": "3917D1A041EB0B0A5C0D94DBB04D165F0303F667",
              "parts": {
                "total": "1",
                "hash": "FA8A0A7A90E67C30042F2C412C311FB44CB4A7DC"
              }
            },
            "signature": {
              "type": "tendermint/SignatureEd25519",
              "value": "1CdvRVKxF14ajW2Ulf2b5KML8RF882TUmbCY91zHny+28dd8vnFJ82whnyStp5x44EWBwwY+Oc37oEz7BMhuCQ=="
            }
          },
          {
            "validator_address": "F4DEB417999B04BE2EFF9FFE03FA373D86011CC0",
            "validator_index": "113",
            "height": "6116",
            "round": "0",
            "timestamp": "2018-07-30T15:47:30.536615339Z",
            "type": 2,
            "block_id": {
              "hash": "3917D1A041EB0B0A5C0D94DBB04D165F0303F667",
              "parts": {
                "total": "1",
                "hash": "FA8A0A7A90E67C30042F2C412C311FB44CB4A7DC"
              }
            },
            "signature": {
              "type": "tendermint/SignatureEd25519",
              "value": "Vo2BcD+YPcQGeIbtnP8FK7HOIcPebp09WFbGy9kjKZv5zi0n1sq1YnRTK7GJGvz+60eJ4EpSZeFiE77nvAPuBw=="
            }
          },
          null,
          null,
          null,
          {
            "validator_address": "FF3F3FCBCE7E62D7AD5506FF846EC4518D980515",
            "validator_index": "117",
            "height": "6116",
            "round": "0",
            "timestamp": "2018-07-30T15:47:30.495077718Z",
            "type": 2,
            "block_id": {
              "hash": "3917D1A041EB0B0A5C0D94DBB04D165F0303F667",
              "parts": {
                "total": "1",
                "hash": "FA8A0A7A90E67C30042F2C412C311FB44CB4A7DC"
              }
            },
            "signature": {
              "type": "tendermint/SignatureEd25519",
              "value": "8p9jINB7uR2kiX1HAovU3e3PwgtnJFFn/m7wtHiGjMV4HOGrhGkEgjAbc2rajde23DwWBct9IuhfNlFBMT3NAw=="
            }
          }
        ]
      }
    },
    "canonical": true
  }
}