{
  "jsonrpc": "2.0",
  "id": "",
  "result": {
    "SignedHeader": {
      "header": {
        "chain_id": "gaia-7004",
        "height": "6351",
        "time": "2018-07-30T16:12:37.163432276Z",
        "num_txs": "0",
        "last_block_id": {
          "hash": "F78B727ED63361BD07695ACB6A8E2E3EA319F2B1",
          "parts": {
            "total": "1",
            "hash": "4E7F0B9713F630795311097BB2BA6F6C3D6B04A7"
          }
        },
        "total_txs": "157",
        "last_commit_hash": "8FC58D1F50340FBDBE2339BA16C3CC32EFA081C1",
        "data_hash": "",
        "validators_hash": "6BCA242054C7459160200AC6FCC983313813ACF9",
        "consensus_hash": "D6B74BB35BDFFD8392340F2A379173548AE188FE",
        "app_hash": "A38A4FF9F4DD3F649EE718F7D4A172DA98B8A388",
        "last_results_hash": "",
        "evidence_hash": ""
      },
      "commit": {
        "block_id": {
          "hash": "83B1A40F1435FB9601DAF038B74CBEC14893355D",
          "parts": {
            "total": "1",
            "hash": "918ECA440F39E53894071F5E4D858C91DA926035"
          }
        },
        "precommits": [
          {
            "validator_address": "029359C0C768096273A68ABC902A6B17AC8D1D70",
            "validator_index": "0",
            "height": "6351",
            "round": "1",
            "timestamp": "2018-07-30T16:12:38.124110163Z",
            "type": 2,
            "block_id": {
              "hash": "83B1A40F1435FB9601DAF038B74CBEC14893355D",
              "parts": {
                "total": "1",
                "hash": "918ECA440F39E53894071F5E4D858C91DA926035"
              }
            },
            "signature": {
              "type": "tendermint/SignatureEd25519",
              "value": "pDx8wvsEeb+QENzHlqc4rbASdVFV9XAQQ0WoCdVGMqd0PzVfvK3Nu9eIskCHBAdvWS6lDECK+AAfyYLaUs9wAA=="
            }
          },
          {
            "validator_address": "02FE4B97A8387F39D1AC19E0C1702B3CC614812F",
            "validator_index": "1",
            "height": "6351",
            "round": "1",
            "timestamp": "2018-07-30T16:12:38.151274626Z",
            "type": 2,
            "block_id": {
              "hash": "83B1A40F1435FB9601DAF038B74CBEC14893355D",
              "parts": {
                "total": "1",
                "hash": "918ECA440F39E53894071F5E4D858C91DA926035"
              }
            },
            "signature": {
              "type": "tendermint/SignatureEd25519",
              "value": "Y9TWQQtuAjCsMH4/QCizyv1mw20yRzE5TJuLd8NocKyvesHJFx9h101IWnfIdXF8ZlKGQEfCXc54GiEAhChpBA=="
            }
          },
          {
            "validator_address": "0548261C50222FD710EB5EBDF03A0E6567B21D20",
            "validator_index": "2",
            "height": "6351",
            "round": "1",
            "timestamp": "2018-07-30T16:12:38.184062725Z",
            "type": 2,
            "block_id": {
              "hash": "83B1A40F1435FB9601DAF038B74CBEC14893355D",
              "parts": {
                "total": "1",
                "hash": "918ECA440F39E53894071F5E4D858C91DA926035"
              }
            },
            "signature": {
              "type": "tendermint/SignatureEd25519",
              "value": "PNNqwImOvXeie6JIccsOMTdqQBulaF+MTn6RtEOuS0+US1Nc9J8Z4KlBELZLPjac9/FAZnMBuzqJGmDcWOQrDg=="
            }
          },
          null,
          {
            "validator_address": "09145E611CC27EEB944FC5A956DDF710F943B9EF",
            "validator_index": "4",
            "height": "6351",
            "round": "1",
            "timestamp": "2018-07-30T16:12:38.152653512Z",
            "type": 2,
            "block_id": {
              "hash": "83B1A40F1435FB9601DAF038B74CBEC14893355D",
              "parts": {
                "total": "1",
                "hash": "918ECA440F39E53894071F5E4D858C91DA926035"
              }
            },
            "signature": {
              "type": "tendermint/SignatureEd25519",
              "value": "DCuqM39GLdsvIZyRZthv0BF99NNa/3r3gcl07V45j8gZKvaaBi2dcNYUtXWgi7A6FHKhUcsNVFdiqVFYmRidBQ=="
            }
          },
          {
            "validator_address": "0989D0355A104B67AE0AE028C68FB610690E174B",
            "validator_index": "5",
            "height": "6351",
            "round": "1",
            "timestamp": "2018-07-30T16:12:38.068946492Z",
            "type": 2,
            "block_id": {
              "hash": "83B1A40F1435FB9601DAF038B74CBEC14893355D",
              "parts": {
                "total": "1",
                "hash": "918ECA440F39E53894071F5E4D858C91DA926035"
              }
            },
            "signature": {
              "type": "tendermint/SignatureEd25519",
              "value": "2peVUCkLq1PCcjR4aIN1FglqprkBCAd9kPwQBV4wiNwkrlDpBIvhxNZZbCyf8L+fxzwIJAnCD27Ecmx8apo+DQ=="
            }
          },
          {
            "validator_address": "0A692DBFFE9E5DD28E7DECC33CED1AEB4C0D014E",
            "validator_index": "6",
            "height": "6351",
            "round": "1",
            "timestamp": "2018-07-30T16:12:38.243102823Z",
            "type": 2,
            "block_id": {
              "hash": "83B1A40F1435FB9601DAF038B74CBEC14893355D",
              "parts": {
                "total": "1",
                "hash": "918ECA440F39E53894071F5E4D858C91DA926035"
              }
            },
            "signature": {
              "type": "tendermint/SignatureEd25519",
              "value": "M8E4/2NSyq9vbls+C1j+O67WJ486f2nq0BKn4/nLjHvOXOSKLkOlhH9EqXpsz2fudwLt98LeWyE/oZLkpjyzDw=="
            }
          },
          null,
          null,
          {
            "validator_address": "1751786EFC085D5331C61168FFFC8202EA151B4E",
            "validator_index": "9",
            "height": "6351",
            "round": "1",
            "timestamp": "2018-07-30T16:12:37.549431683Z",
            "type": 2,
            "block_id": {
              "hash": "83B1A40F1435FB9601DAF038B74CBEC14893355D",
              "parts": {
                "total": "1",
                "hash": "918ECA440F39E53894071F5E4D858C91DA926035"
              }
            },
            "signature": {
              "type": "tendermint/SignatureEd25519",
              "value": "Fsqbt17K1SkBGFbLg6QeN1v6vzFFF4wsYTdDqrfxe2RTzIsFwp2ie5Jvyce5VnkNNtX7FXNBuOo0Bmg7b/lrCg=="
            }
          },
          {
            "validator_address": "17BB5CD01E8940FAFB948A04D5FA5A0645E5822E",
            "validator_index": "10",
            "height": "6351",
            "round": "1",
            "timestamp": "2018-07-30T16:12:38.065401353Z",
            "type": 2,
            "block_id": {
              "hash": "83B1A40F1435FB9601DAF038B74CBEC14893355D",
              "parts": {
                "total": "1",
                "hash": "918ECA440F39E53894071F5E4D858C91DA926035"
              }
            },
            "signature": {
              "type": "tendermint/SignatureEd25519",
              "value": "tIDHbMIhsU0ARXdveI+P9NzsK3Nl6RL49iv/xra0FGAHss1NZ2iZDnoeM/FBwMgITSjQM2KMf1ivA6AzzcBpAg=="
            }
          },
          {
            "validator_address": "1C683A87904BC38F05004FE83301A3A3E35447EB",
            "validator_index": "11",
            "height": "6351",
            "round": "1",
            "timestamp": "2018-07-30T16:12:38.122584732Z",
            "type": 2,
            "block_id": {
              "hash": "83B1A40F1435FB9601DAF038B74CBEC14893355D",
              "parts": {
                "total": "1",
                "hash": "918ECA440F39E53894071F5E4D858C91DA926035"
              }
            },
            "signature": {
              "type": "tendermint/SignatureEd25519",
              "value": "0WbbxdlASDphpMBR3pnntIyTSudzYE61zKbS7+kjh+SIbP+iUPmIE8Gu/RjQ6ko1+Mo+VkyTH1Buwpfw6Ai3Bg=="
            }
          },
          {
            "validator_address": "1E9CE94FD0BA5CFEB901F90BC658D64D85B134D2",
            "validator_index": "12",
            "height": "6351",
            "round": "1",
            "timestamp": "2018-07-30T16:12:38.19193396Z",
            "type": 2,
            "block_id": {
              "hash": "83B1A40F1435FB9601DAF038B74CBEC14893355D",
              "parts": {
                "total": "1",
                "hash": "918ECA440F39E53894071F5E4D858C91DA926035"
              }
            },
            "signature": {
              "type": "tendermint/SignatureEd25519",
              "value": "Zl3IK0tzPLMgYZtvXq9UJIEWjLGw9aS4ZzBjgeRXDWbv/N3ZISaS+UtkbRxFAsvm3snmn7y5bOOo27MMu/TkAQ=="
            }
          },
          {
            "validator_address": "1ECD8C5FE1341D74CDC633A245DD56858DE2F9A2",
            "validator_index": "13",
            "height": "6351",
            "round": "1",
            "timestamp": "2018-07-30T16:12:38.167733118Z",
            "type": 2,
            "block_id": {
              "hash": "83B1A40F1435FB9601DAF038B74CBEC14893355D",
              "parts": {
                "total": "1",
                "hash": "918ECA440F39E53894071F5E4D858C91DA926035"
              }
            },
            "signature": {
              "type": "tendermint/SignatureEd25519",
              "value": "G85BK5YNcsXxwJ0uPgmj1v4VATWyG5xoeHwp2JS6Y3FiPMXNKwCGMXfYwiOjc9XOnbgxMGG5uVtYXQep7n2OAg=="
            }
          },
          {
            "validator_address": "1F3A68CAAD483768AA2BF667DEF10F7104C89928",
            "validator_index": "14",
            "height": "6351",
            "round": "1",
            "timestamp": "2018-07-30T16:12:38.118199665Z",
            "type": 2,
            "block_id": {
              "hash": "83B1A40F1435FB9601DAF038B74CBEC14893355D",
              "parts": {
                "total": "1",
                "hash": "918ECA440F39E53894071F5E4D858C91DA926035"
              }
            },
            "signature": {
              "type": "tendermint/SignatureEd25519",
              "value": "/sKrE+BWPnfeD3mca61GHZiJpnjxuE5uxFG3RmBlywjfmPSEaO3lkaADVsUZ2pXT0MKOpoI1CLKSIiuhZKusBQ=="
            }
          },
          null,
          {
            "validator_address": "23897586D68E2AC1C78E0EF5BB5DF5C8EAB18F50",
            "validator_index": "16",
            "height": "6351",
            "round": "1",
            "timestamp": "2018-07-30T16:12:38.157094146Z",
            "type": 2,
            "block_id": {
              "hash": "83B1A40F1435FB9601DAF038B74CBEC14893355D",
              "parts": {
                "total": "1",
                "hash": "918ECA440F39E53894071F5E4D858C91DA926035"
              }
            },
            "signature": {
              "type": "tendermint/SignatureEd25519",
              "value": "p3mGOopmWLGFXyd1v8VJuf5S7dtVZ8cbBu4P/AOzHvftRe89+r9VmKa37CY7jenQDhxitkOp3eRVvl++rDGRAg=="
            }
          },
          {
            "validator_address": "28770D17E8530825E7310A0659308654B7EC9682",
            "validator_index": "17",
            "height": "6351",
            "round": "1",
            "timestamp": "2018-07-30T16:12:38.10209611Z",
            "type": 2,
            "block_id": {
              "hash": "83B1A40F1435FB9601DAF038B74CBEC14893355D",
              "parts": {
                "total": "1",
                "hash": "918ECA440F39E53894071F5E4D858C91DA926035"
              }
            },
            "signature": {
              "type": "tendermint/SignatureEd25519",
              "value": "PgexHna6diRHgHz/9B8hO4iQGwKbSLQrLywS//kDBQwJR1mBAnnD1gdfkGR6+qRE3N5QVGqEDpWmqDgVyos/AA=="
            }
          },
          null,
          {
            "validator_address": "2A92EC3C642140202298D0E245095E0ECFC25228",
            "validator_index": "19",
            "height": "6351",
            "round": "1",
            "timestamp": "2018-07-30T16:12:38.208786872Z",
            "type": 2,
            "block_id": {
              "hash": "83B1A40F1435FB9601DAF038B74CBEC14893355D",
              "parts": {
                "total": "1",
                "hash": "918ECA440F39E53894071F5E4D858C91DA926035"
              }
            },
            "signature": {
              "type": "tendermint/SignatureEd25519",
              "value": "c6Hk6UlQ2Hr2b+ikaRxz8wY4SiNYJkdn7mYUTtGNDYevrhrvxyJp1kBJe/Cdjtzt8Qn/wdo36lZowU72/uTGCA=="
            }
          },
          null,
          null,
          {
            "validator_address": "33412C9A69C60CB0FAA24A5C5B3A906DE24B47C2",
            "validator_index": "22",
            "height": "6351",
            "round": "1",
            "timestamp": "2018-07-30T16:12:38.074536023Z",
            "type": 2,
            "block_id": {
              "hash": "83B1A40F1435FB9601DAF038B74CBEC14893355D",
              "parts": {
                "total": "1",
                "hash": "918ECA440F39E53894071F5E4D858C91DA926035"
              }
            },
            "signature": {
              "type": "tendermint/SignatureEd25519",
              "value": "/DrW7Mq2Hqd5z7bOgH1D/2EzxDk6Diqz+KRW9ZN3M/HWkDloxwl4ZV06h2Hqjjv3DyM5MGIGM4RW/WKdQFsADA=="
            }
          },
          null,
          {
            "validator_address": "3383EF2A13B160C41947AC30434B274B2FAF0617",
            "validator_index": "24",
            "height": "6351",
            "round": "1",
            "timestamp": "2018-07-30T16:12:38.162126759Z",
            "type": 2,
            "block_id": {
              "hash": "83B1A40F1435FB9601DAF038B74CBEC14893355D",
              "parts": {
                "total": "1",
                "hash": "918ECA440F39E53894071F5E4D858C91DA926035"
              }
            },
            "signature": {
              "type": "tendermint/SignatureEd25519",
              "value": "PE9saNZ49PAM9UTxCX9MaBh6bVfYsAj8FUyy2xzGBTgQV/5hF8MAd83pllrLqRPi8H5OTu6JuWYq1G2ia5e/AQ=="
            }
          },
          {
            "validator_address": "36E9B7FAEC964F97D84C028ED62493E373AD0B38",
            "validator_index": "25",
            "height": "6351",
            "round": "1",
            "timestamp": "2018-07-30T16:12:38.329443229Z",
            "type": 2,
            "block_id": {
              "hash": "83B1A40F1435FB9601DAF038B74CBEC14893355D",
              "parts": {
                "total": "1",
                "hash": "918ECA440F39E53894071F5E4D858C91DA926035"
              }
            },
            "signature": {
              "type": "tendermint/SignatureEd25519",
              "value": "7iOxFBXdJbp9XZ7RwwYkZaQS1H5wuXo8Z42sD2YBRtKXhMgXIc3RL7UTgXXkue8MwpSfOmXg31GgxnG+nAEYCA=="
            }
          },
          {
            "validator_address": "38A8D85D36BEA2E5FCF8A1E778F53628E450EF13",
            "validator_index": "26",
            "height": "6351",
            "round": "1",
            "timestamp": "2018-07-30T16:12:38.21443788Z",
            "type": 2,
            "block_id": {
              "hash": "83B1A40F1435FB9601DAF038B74CBEC14893355D",
              "parts": {
                "total": "1",
                "hash": "918ECA440F39E53894071F5E4D858C91DA926035"
              }
            },
            "signature": {
              "type": "tendermint/SignatureEd25519",
              "value": "+fc/ieQZiBUAZ9wLDmMCkPnrEawYZGcx++PR8FtQs/2c4+UOlsvvR7VzkkoA4BLgO9q/us11jNobTOG7xYyJCA=="
            }
          },
          {
            "validator_address": "39DFDA0C5DB84B269642188B23253508537798E6",
            "validator_index": "27",
            "height": "6351",
            "round": "1",
            "timestamp": "2018-07-30T16:12:38.130377659Z",
            "type": 2,
            "block_id": {
              "hash": "83B1A40F1435FB9601DAF038B74CBEC14893355D",
              "parts": {
                "total": "1",
                "hash": "918ECA440F39E53894071F5E4D858C91DA926035"
              }
            },
            "signature": {
              "type": "tendermint/SignatureEd25519",
              "value": "l7uNN5UFE7ejxIQuIUls0ppjTuINsMLUU0GnfP0utFYeuImROZ0S94OMhGyB8R20uxJsb4rmv4pTpVQyHlmOAw=="
            }
          },
          {
            "validator_address": "3AC99B708404452366E0953A4BE849226DC86CBC",
            "validator_index": "28",
            "height": "6351",
            "round": "1",
            "timestamp": "2018-07-30T16:12:38.121819425Z",
            "type": 2,
            "block_id": {
              "hash": "83B1A40F1435FB9601DAF038B74CBEC14893355D",
              "parts": {
                "total": "1",
                "hash": "918ECA440F39E53894071F5E4D858C91DA926035"
              }
            },
            "signature": {
              "type": "tendermint/SignatureEd25519",
              "value": "6/lK9hOCoG60ggQTOArQKbakPDc1GnuvQMdCpsvbmfy4iKElDDtnJTNjqClCYPFLhv5oOHJnH0Ebky2774v/Cg=="
            }
          },
          {
            "validator_address": "3DCB822A10ED319EC7C4393D8E3FD4A41B15AAF2",
            "validator_index": "29",
            "height": "6351",
            "round": "1",
            "timestamp": "2018-07-30T16:12:38.069473485Z",
            "type": 2,
            "block_id": {
              "hash": "83B1A40F1435FB9601DAF038B74CBEC14893355D",
              "parts": {
                "total": "1",
                "hash": "918ECA440F39E53894071F5E4D858C91DA926035"
              }
            },
            "signature": {
              "type": "tendermint/SignatureEd25519",
              "value": "Okzt6oFz8NycPfiia9kniS4ZrY79BNaAeExV482fqthhmw46rt7m/HEweh1DbzNClPKbzPMRy+AuZTaaQWTdAg=="
            }
          },
          {
            "validator_address": "3E899BA36A93C7370347BD5FE85909F2ECD93F8C",
            "validator_index": "30",
            "height": "6351",
            "round": "1",
            "timestamp": "2018-07-30T16:12:38.094545376Z",
            "type": 2,
            "block_id": {
              "hash": "83B1A40F1435FB9601DAF038B74CBEC14893355D",
              "parts": {
                "total": "1",
                "hash": "918ECA440F39E53894071F5E4D858C91DA926035"
              }
            },
            "signature": {
              "type": "tendermint/SignatureEd25519",
              "value": "MjwP9zsrJQKtpQbwcZY8YOSw89mxRw6gB+WqUP7UGyJTeSzyJNrmu7hs/XXcrbaI+p5s9940mi6vfXzmH2qqDg=="
            }
          },
          {
            "validator_address": "41CAB2E29E7D0F2282E3275938F188FF9386B84C",
            "validator_index": "31",
            "height": "6351",
            "round": "1",
            "timestamp": "2018-07-30T16:12:38.129567614Z",
            "type": 2,
            "block_id": {
              "hash": "83B1A40F1435FB9601DAF038B74CBEC14893355D",
              "parts": {
                "total": "1",
                "hash": "918ECA440F39E53894071F5E4D858C91DA926035"
              }
            },
            "signature": {
              "type": "tendermint/SignatureEd25519",
              "value": "wZO97l7Fh8whVKZ+9ibQIMw2lp/fj486aFnN8kjGDFqT6g4OVSAFnLvrJIa7qHDafsa6kWosGD9/cw2zLnf7CQ=="
            }
          },
          {
            "validator_address": "462B656869DB02A8FD1077E255F8CC7401DC37C6",
            "validator_index": "32",
            "height": "6351",
            "round": "1",
            "timestamp": "2018-07-30T16:12:38.108932705Z",
            "type": 2,
            "block_id": {
              "hash": "83B1A40F1435FB9601DAF038B74CBEC14893355D",
              "parts": {
                "total": "1",
                "hash": "918ECA440F39E53894071F5E4D858C91DA926035"
              }
            },
            "signature": {
              "type": "tendermint/SignatureEd25519",
              "value": "2cyWm/4h+bX8QguRFfG1UV9ZTjxHdSEruCft4gD6w5bb9D/cuX/9ILG9TGEbrceaRSd4i+/WEFI7GfrMlGe3BA=="
            }
          },
          {
            "validator_address": "48E5118163E5442068A1B5A42D2EEDBB75724935",
            "validator_index": "33",
            "height": "6351",
            "round": "1",
            "timestamp": "2018-07-30T16:12:38.231838906Z",
            "type": 2,
            "block_id": {
              "hash": "83B1A40F1435FB9601DAF038B74CBEC14893355D",
              "parts": {
                "total": "1",
                "hash": "918ECA440F39E53894071F5E4D858C91DA926035"
              }
            },
            "signature": {
              "type": "tendermint/SignatureEd25519",
              "value": "7xnaUkgHu4qOs1c6n2fRAvkU7KNF0JIs+p7uTJRsUnPuzWPvgqpZSEv3Sha2mitohP5kMN7QB2SnzkPiQSvkDQ=="
            }
          },
          null,
          {
            "validator_address": "4944F8BBBB5303E17BC0607DF332320EDBC750EA",
            "validator_index": "35",
            "height": "6351",
            "round": "1",
            "timestamp": "2018-07-30T16:12:38.103339912Z",
            "type": 2,
            "block_id": {
              "hash": "83B1A40F1435FB9601DAF038B74CBEC14893355D",
              "parts": {
                "total": "1",
                "hash": "918ECA440F39E53894071F5E4D858C91DA926035"
              }
            },
            "signature": {
              "type": "tendermint/SignatureEd25519",
              "value": "Tj/mNz6znwijrsbmwl4tPRLHl0ghak1+EtNNr+1kUBV7wtXayrUa9QPnm1KOv3U26cOPrl+jUSB+pdOePAN0Dw=="
            }
          },
          {
            "validator_address": "49841599DE675157CBE1E7D6B35BF8FFC23BD5CB",
            "validator_index": "36",
            "height": "6351",
            "round": "1",
            "timestamp": "2018-07-30T16:12:38.056163847Z",
            "type": 2,
            "block_id": {
              "hash": "83B1A40F1435FB9601DAF038B74CBEC14893355D",
              "parts": {
                "total": "1",
                "hash": "918ECA440F39E53894071F5E4D858C91DA926035"
              }
            },
            "signature": {
              "type": "tendermint/SignatureEd25519",
              "value": "UcJiXDclV0G8avbZPrlvRw+ji5hy59Cl1wCPj5i78fcM6hetSG1IwLb72RgpjEeVNyx7GS2dbgX1EW+FC4c/BA=="
            }
          },
          {
            "validator_address": "5104F488EA6B1E2C33CBDA3C18389C88104DBC72",
            "validator_index": "37",
            "height": "6351",
            "round": "1",
            "timestamp": "2018-07-30T16:12:38.15148392Z",
            "type": 2,
            "block_id": {
              "hash": "83B1A40F1435FB9601DAF038B74CBEC14893355D",
              "parts": {
                "total": "1",
                "hash": "918ECA440F39E53894071F5E4D858C91DA926035"
              }
            },
            "signature": {
              "type": "tendermint/SignatureEd25519",
              "value": "O/UTWm0q8HOhU4wwHREetZ7VzRVIriTqBFllrfh6DnwqWjTE4q940J7ug0Tu1Szvkr28j9KiQ99Ed5MNNcg8AQ=="
            }
          },
          {
            "validator_address": "51386C2CF9556821D114D7E4945806802BADB28D",
            "validator_index": "38",
            "height": "6351",
            "round": "1",
            "timestamp": "2018-07-30T16:12:38.195981924Z",
            "type": 2,
            "block_id": {
              "hash": "83B1A40F1435FB9601DAF038B74CBEC14893355D",
              "parts": {
                "total": "1",
                "hash": "918ECA440F39E53894071F5E4D858C91DA926035"
              }
            },
            "signature": {
              "type": "tendermint/SignatureEd25519",
              "value": "ZHEo6gJdiS9+/saLJv/z+R5a4yNG/5oz3jneZNCYk4ze//EbjN8Com4zLr3yASqW6JSOdOeoKa21+/66jS5cCg=="
            }
          },
          {
            "validator_address": "543564ECA3AFEFADC73EE8591AAC3A96F079BC8A",
            "validator_index": "39",
            "height": "6351",
            "round": "1",
            "timestamp": "2018-07-30T16:12:38.09603081Z",
            "type": 2,
            "block_id": {
              "hash": "83B1A40F1435FB9601DAF038B74CBEC14893355D",
              "parts": {
                "total": "1",
                "hash": "918ECA440F39E53894071F5E4D858C91DA926035"
              }
            },
            "signature": {
              "type": "tendermint/SignatureEd25519",
              "value": "SRgLnPOvqkK86rO8JmutM7oDltga+7WNWcRP/tC1OEGZREOo85u4KQRgX9bGe+3Lzo/EGmENhxSD70NtjWTYDA=="
            }
          },
          {
            "validator_address": "55D67B1A6DC13E96F8754A5A42EABC20F7F86664",
            "validator_index": "40",
            "height": "6351",
            "round": "1",
            "timestamp": "2018-07-30T16:12:38.071822701Z",
            "type": 2,
            "block_id": {
              "hash": "83B1A40F1435FB9601DAF038B74CBEC14893355D",
              "parts": {
                "total": "1",
                "hash": "918ECA440F39E53894071F5E4D858C91DA926035"
              }
            },
            "signature": {
              "type": "tendermint/SignatureEd25519",
              "value": "hBQJLL6BHtEhG3JriUsRQ5ZDBZ0lmF8h0NMSNDgJE1IJVNyJLpLZCbV8WTh97d0XD7/RRJFfHsz6FEzT2VEyAg=="
            }
          },
          {
            "validator_address": "570B6A755ED339EAC56BB3390A48069F6AC9449B",
            "validator_index": "41",
            "height": "6351",
            "round": "1",
            "timestamp": "2018-07-30T16:12:38.788290184Z",
            "type": 2,
            "block_id": {
              "hash": "83B1A40F1435FB9601DAF038B74CBEC14893355D",
              "parts": {
                "total": "1",
                "hash": "918ECA440F39E53894071F5E4D858C91DA926035"
              }
            },
            "signature": {
              "type": "tendermint/SignatureEd25519",
              "value": "uUJ4pvCcVvjUJZWOs5ymCkDoOXT7bus1gh6RLfid26/b0n9Lel7Oi9IGBQ038vd7v2WNLdfMrrOAgpSIoOyzAw=="
            }
          },
          {
            "validator_address": "5BDF8EA41B1835FBAD865B181A2A4B23F511B5E4",
            "validator_index": "42",
            "height": "6351",
            "round": "1",
            "timestamp": "2018-07-30T16:12:38.058573364Z",
            "type": 2,
            "block_id": {
              "hash": "83B1A40F1435FB9601DAF038B74CBEC14893355D",
              "parts": {
                "total": "1",
                "hash": "918ECA440F39E53894071F5E4D858C91DA926035"
              }
            },
            "signature": {
              "type": "tendermint/SignatureEd25519",
              "value": "34sYl7V96009OGGRQ8eXzGu3yYmYG0e5lDyJpSffojitLGJnjwAYOzfCU7o0fOZ7+qtozMZzAUL6DtTPHU0rBg=="
            }
          },
          null,
          {
            "validator_address": "5E8673673E37450F01B64138FBF4B172BDB52D68",
            "validator_index": "44",
            "height": "6351",
            "round": "1",
            "timestamp": "2018-07-30T16:12:38.2198828Z",
            "type": 2,
            "block_id": {
              "hash": "83B1A40F1435FB9601DAF038B74CBEC14893355D",
              "parts": {
                "total": "1",
                "hash": "918ECA440F39E53894071F5E4D858C91DA926035"
              }
            },
            "signature": {
              "type": "tendermint/SignatureEd25519",
              "value": "3zj1XOAq5vWfVoXBPZBctsWARrI9nWjPilXffMsQ72aNHwlK/5SjK6fBne4p7pPCayUecttg+jFkeC0WFhgkDQ=="
            }
          },
          {
            "validator_address": "60229E2E273297FE00219E46DFFB8F76844CDEF9",
            "validator_index": "45",
            "height": "6351",
            "round": "1",
            "timestamp": "2018-07-30T16:12:37.495947756Z",
            "type": 2,
            "block_id": {
              "hash": "83B1A40F1435FB9601DAF038B74CBEC14893355D",
              "parts": {
                "total": "1",
                "hash": "918ECA440F39E53894071F5E4D858C91DA926035"
              }
            },
            "signature": {
              "type": "tendermint/SignatureEd25519",
              "value": "HqtRL0L1wpb/y0176r2GS2OiU8oNFvqRl0KydS47QNBwhLAH5p3kZlW9YopyVXFSpPY9zWt0ASFoHaWa+u8sBg=="
            }
          },
          {
            "validator_address": "62410D6D1CD98278136E4D0738AA0EA273CDFC54",
            "validator_index": "46",
            "height": "6351",
            "round": "1",
            "timestamp": "2018-07-30T16:12:38.059358552Z",
            "type": 2,
            "block_id": {
              "hash": "83B1A40F1435FB9601DAF038B74CBEC14893355D",
              "parts": {
                "total": "1",
                "hash": "918ECA440F39E53894071F5E4D858C91DA926035"
              }
            },
            "signature": {
              "type": "tendermint/SignatureEd25519",
              "value": "g47YGUejx7GtNj774CCNoXAIrJ1mPSceIDybJ+KrtkE51tTNhmQM5OSq225fPpbPl/FKn5+pHA4A/b1uhVA8CQ=="
            }
          },
          {
            "validator_address": "632F5C139A5A9DFBFE5111DEE29FCFB6157207DC",
            "validator_index": "47",
            "height": "6351",
            "round": "1",
            "timestamp": "2018-07-30T16:12:38.136799477Z",
            "type": 2,
            "block_id": {
              "hash": "83B1A40F1435FB9601DAF038B74CBEC14893355D",
              "parts": {
                "total": "1",
                "hash": "918ECA440F39E53894071F5E4D858C91DA926035"
              }
            },
            "signature": {
              "type": "tendermint/SignatureEd25519",
              "value": "xj4S/vTWGVwzypA+eY+dF+4/3bKOPqgQLfLKPstq5D0QS9I3tJAxinyBdeT4kQp0h61w3gR+EKOVkTcBQAqlDw=="
            }
          },
          {
            "validator_address": "64F57F8E796A9B7B590C1EFA4123988C86631D39",
            "validator_index": "48",
            "height": "6351",
            "round": "1",
            "timestamp": "2018-07-30T16:12:38.076924019Z",
            "type": 2,
            "block_id": {
              "hash": "83B1A40F1435FB9601DAF038B74CBEC14893355D",
              "parts": {
                "total": "1",
                "hash": "918ECA440F39E53894071F5E4D858C91DA926035"
              }
            },
            "signature": {
              "type": "tendermint/SignatureEd25519",
              "value": "o/bXFpNTpZJYAtyVpnX1HYC98qdUoA3cf5qprGLay9xglZ74WtS6q3C+14QK/ojhcTw2JXtXBr7Be2nKkSydDg=="
            }
          },
          {
            "validator_address": "69D99B2C66043ACBEAA8447525C356AFC6408E0C",
            "validator_index": "49",
            "height": "6351",
            "round": "1",
            "timestamp": "2018-07-30T16:12:38.26778003Z",
            "type": 2,
            "block_id": {
              "hash": "83B1A40F1435FB9601DAF038B74CBEC14893355D",
              "parts": {
                "total": "1",
                "hash": "918ECA440F39E53894071F5E4D858C91DA926035"
              }
            },
            "signature": {
              "type": "tendermint/SignatureEd25519",
              "value": "Xha3pkuDycnQN6EZA2YqZSKlv/M4ueMMYggluDlgmvH5HM14ZDQWAkH3XuZzZobQqhW1tBCUKgg9lNqJRxOFCQ=="
            }
          },
          {
            "validator_address": "69EDADFA4A803E9DBF548C900D4A465E7D154262",
            "validator_index": "50",
            "height": "6351",
            "round": "1",
            "timestamp": "2018-07-30T16:12:38.187582069Z",
            "type": 2,
            "block_id": {
              "hash": "83B1A40F1435FB9601DAF038B74CBEC14893355D",
              "parts": {
                "total": "1",
                "hash": "918ECA440F39E53894071F5E4D858C91DA926035"
              }
            },
            "signature": {
              "type": "tendermint/SignatureEd25519",
              "value": "WDhDJvCNjfGRRSdrRmt2fYA90X9GHh67/A+ClFCO/1/gKmqmKFzj9OUo2Po4laItTVjEqKf4+Uij8R14w5DxDA=="
            }
          },
          {
            "validator_address": "6D3AD380E398D8592B03AA124BAFED5F125DF863",
            "validator_index": "51",
            "height": "6351",
            "round": "1",
            "timestamp": "2018-07-30T16:11:36.547936911Z",
            "type": 2,
            "block_id": {
              "hash": "83B1A40F1435FB9601DAF038B74CBEC14893355D",
              "parts": {
                "total": "1",
                "hash": "918ECA440F39E53894071F5E4D858C91DA926035"
              }
            },
            "signature": {
              "type": "tendermint/SignatureEd25519",
              "value": "Iy5q5OaradO/CcrCG/y/eyHSx+NtdZptoDRLttxnnvw/DWhB85ECd/1eT1Pb1Wej6shNzjASMcfTIOFVPm+rDg=="
            }
          },
          {
            "validator_address": "6F6C93B8BF3495063FEC9B5C771158607F4AE9D6",
            "validator_index": "52",
            "height": "6351",
            "round": "1",
            "timestamp": "2018-07-30T16:12:38.254232832Z",
            "type": 2,
            "block_id": {
              "hash": "83B1A40F1435FB9601DAF038B74CBEC14893355D",
              "parts": {
                "total": "1",
                "hash": "918ECA440F39E53894071F5E4D858C91DA926035"
              }
            },
            "signature": {
              "type": "tendermint/SignatureEd25519",
              "value": "hUjmBuvHNz1yVAo0rqNwhX5VrNFPeYZFO6dBn9CO7kS4mf6nVsa0TMkZs1GntgnJHJGrYRCZIcwvbveMZU/SAQ=="
            }
          },
          {
            "validator_address": "732CEEF54C374DDC6ADECBFD707AEFD07FEDC143",
            "validator_index": "53",
            "height": "6351",
            "round": "1",
            "timestamp": "2018-07-30T16:12:38.246518631Z",
            "type": 2,
            "block_id": {
              "hash": "83B1A40F1435FB9601DAF038B74CBEC14893355D",
              "parts": {
                "total": "1",
                "hash": "918ECA440F39E53894071F5E4D858C91DA926035"
              }
            },
            "signature": {
              "type": "tendermint/SignatureEd25519",
              "value": "Ik65LtarWMkfpYZ4AB879jMkkxkjCaK5HPr+RwVRg9gnVHRqTBp+rftLIcxjZBVXA/MUXW/4jtqnWR8oO4PrDQ=="
            }
          },
          {
            "validator_address": "7393D691BFAE9661918C09932D4D9060AB40939B",
            "validator_index": "54",
            "height": "6351",
            "round": "1",
            "timestamp": "2018-07-30T16:12:38.260005799Z",
            "type": 2,
            "block_id": {
              "hash": "83B1A40F1435FB9601DAF038B74CBEC14893355D",
              "parts": {
                "total": "1",
                "hash": "918ECA440F39E53894071F5E4D858C91DA926035"
              }
            },
            "signature": {
              "type": "tendermint/SignatureEd25519",
              "value": "9f2IkjqXPWKx5aL0XjftsBGihf6KCDuVqzXpypaVwPhq8OqO5Bf9nKMjXShOKKEqxW+LVd5Gxmte9uQfgKUPAg=="
            }
          },
          {
            "validator_address": "751E43437224E8BB6D1569B3E2B2616B6E7F4397",
            "validator_index": "55",
            "height": "6351",
            "round": "1",
            "timestamp": "2018-07-30T16:12:38.175938327Z",
            "type": 2,
            "block_id": {
              "hash": "83B1A40F1435FB9601DAF038B74CBEC14893355D",
              "parts": {
                "total": "1",
                "hash": "918ECA440F39E53894071F5E4D858C91DA926035"
              }
            },
            "signature": {
              "type": "tendermint/SignatureEd25519",
              "value": "Ms14EmSX0urUTBznl2VmjzR3nmelmfD2WkMS3UUE+Jk7n8sMD+gv5ghqSNtNkDVBMlkOetk7PngIegmCslbbBw=="
            }
          },
          {
            "validator_address": "7EB7593F519F1180C7E872D0494611464EDF03AE",
            "validator_index": "56",
            "height": "6351",
            "round": "1",
            "timestamp": "2018-07-30T16:12:38.233804588Z",
            "type": 2,
            "block_id": {
              "hash": "83B1A40F1435FB9601DAF038B74CBEC14893355D",
              "parts": {
                "total": "1",
                "hash": "918ECA440F39E53894071F5E4D858C91DA926035"
              }
            },
            "signature": {
              "type": "tendermint/SignatureEd25519",
              "value": "rK3bO6JcqtZiDNp3qSFspm++P+PhWIxE07CqHpRbL7Oellz44DBFAtDULLa+vF8hIBCFJkYJ4pM/k+Xw8Gr4CA=="
            }
          },
          {
            "validator_address": "807CF675BA8479FC4FEC1047215DF07970040F1F",
            "validator_index": "57",
            "height": "6351",
            "round": "1",
            "timestamp": "2018-07-30T16:12:38.453800483Z",
            "type": 2,
            "block_id": {
              "hash": "83B1A40F1435FB9601DAF038B74CBEC14893355D",
              "parts": {
                "total": "1",
                "hash": "918ECA440F39E53894071F5E4D858C91DA926035"
              }
            },
            "signature": {
              "type": "tendermint/SignatureEd25519",
              "value": "Z3xfrsrDgcVShPdsiCqFxTLY4Ato7ej1AQZoS1enG6qHJ5Z2q2fh65xayjQ/wqgvnIQoWYuEWLsosEHlIX5YCg=="
            }
          },
          {
            "validator_address": "8126192EA66E8ADE6B36924534721366B987A4C1",
            "validator_index": "58",
            "height": "6351",
            "round": "1",
            "timestamp": "2018-07-30T16:12:38.153726282Z",
            "type": 2,
            "block_id": {
              "hash": "83B1A40F1435FB9601DAF038B74CBEC14893355D",
              "parts": {
                "total": "1",
                "hash": "918ECA440F39E53894071F5E4D858C91DA926035"
              }
            },
            "signature": {
              "type": "tendermint/SignatureEd25519",
              "value": "KAcQPNa3/Zd+n0HBUWiy5tCeET7oN7cp0/dT8tsyCxC/NZb22zBLiYiRgMs3baJ74EGvTAootZWYXOkwTDZaAw=="
            }
          },
          null,
          {
            "validator_address": "83AB321E012C57746689FED3A6064DF331F81007",
            "validator_index": "60",
            "height": "6351",
            "round": "1",
            "timestamp": "2018-07-30T16:12:38.120618646Z",
            "type": 2,
            "block_id": {
              "hash": "83B1A40F1435FB9601DAF038B74CBEC14893355D",
              "parts": {
                "total": "1",
                "hash": "918ECA440F39E53894071F5E4D858C91DA926035"
              }
            },
            "signature": {
              "type": "tendermint/SignatureEd25519",
              "value": "f63StsEVr36IUR5pYchEJAX75gekafbw9ynvveRxyNVSlfTrnOTCj55vaOFwRgsTR50V1u0xoKB1+UphUfPxBA=="
            }
          },
          {
            "validator_address": "83BB1B88D3DBB20AD845FECA07749EBD87D3754D",
            "validator_index": "61",
            "height": "6351",
            "round": "1",
            "timestamp": "2018-07-30T16:12:38.399473626Z",
            "type": 2,
            "block_id": {
              "hash": "83B1A40F1435FB9601DAF038B74CBEC14893355D",
              "parts": {
                "total": "1",
                "hash": "918ECA440F39E53894071F5E4D858C91DA926035"
              }
            },
            "signature": {
              "type": "tendermint/SignatureEd25519",
              "value": "EFCOGYV8DiDRFCX3k+KJLFM1ANbcEBhlInOWittJGClwrz4C0h82Q7eEh69g6aekzR+jQOQolItEJHSNmixUBA=="
            }
          },
          null,
          {
            "validator_address": "8F06FE1FD042683C426137FBC4BBAA4288924217",
            "validator_index": "63",
            "height": "6351",
            "round": "1",
            "timestamp": "2018-07-30T16:12:38.124236443Z",
            "type": 2,
            "block_id": {
              "hash": "83B1A40F1435FB9601DAF038B74CBEC14893355D",
              "parts": {
                "total": "1",
                "hash": "918ECA440F39E53894071F5E4D858C91DA926035"
              }
            },
            "signature": {
              "type": "tendermint/SignatureEd25519",
              "value": "XI6lOR6P8hQxUj6Sc50dswdgayN2+YjJGMyoNngex/FqGgyQYpQTHt145Yo3WwK4glj3SM+rWUQU1XrF7zlvAQ=="
            }
          },
          {
            "validator_address": "8F45617BF45B10A3F8283DEBDB35E38C7CA43237",
            "validator_index": "64",
            "height": "6351",
            "round": "1",
            "timestamp": "2018-07-30T16:12:38.110685353Z",
            "type": 2,
            "block_id": {
              "hash": "83B1A40F1435FB9601DAF038B74CBEC14893355D",
              "parts": {
                "total": "1",
                "hash": "918ECA440F39E53894071F5E4D858C91DA926035"
              }
            },
            "signature": {
              "type": "tendermint/SignatureEd25519",
              "value": "0JC9irlee7w9mP7KSxIIIIphIur3LMgYea4NskI+xhkFIL4vbWWqHWMqKwD5rR15rBW2vBKUxgBwQuJgohgyBw=="
            }
          },
          null,
          {
            "validator_address": "95980831E186F2540F6E9FB6C8E74DE2401405AC",
            "validator_index": "66",
            "height": "6351",
            "round": "1",
            "timestamp": "2018-07-30T16:12:38.147724989Z",
            "type": 2,
            "block_id": {
              "hash": "83B1A40F1435FB9601DAF038B74CBEC14893355D",
              "parts": {
                "total": "1",
                "hash": "918ECA440F39E53894071F5E4D858C91DA926035"
              }
            },
            "signature": {
              "type": "tendermint/SignatureEd25519",
              "value": "OxDl26jWyMN0WZvpN3g6mu8BvGLwhyYB9agHBoIe5SYXxnSmwk2fopMqtbQ+RRV3YbedMdQmGy3IpHPOCjwVCw=="
            }
          },
          {
            "validator_address": "95FAFBC1E0579C83D290A063020CE87C5334BD9B",
            "validator_index": "67",
            "height": "6351",
            "round": "1",
            "timestamp": "2018-07-30T16:12:38.138989227Z",
            "type": 2,
            "block_id": {
              "hash": "83B1A40F1435FB9601DAF038B74CBEC14893355D",
              "parts": {
                "total": "1",
                "hash": "918ECA440F39E53894071F5E4D858C91DA926035"
              }
            },
            "signature": {
              "type": "tendermint/SignatureEd25519",
              "value": "YVDYpnMKBqDWJztrzG757uQsnXvbjm2WiDUgRUNZYfI6E/rnev/OHjKZvkrb5vaLm5W9Kj7MLpTXbH8sIxk0AA=="
            }
          },
          {
            "validator_address": "96BDE45EC52606CF5CB59853097871AD60680549",
            "validator_index": "68",
            "height": "6351",
            "round": "1",
            "timestamp": "2018-07-30T16:12:38.165472345Z",
            "type": 2,
            "block_id": {
              "hash": "83B1A40F1435FB9601DAF038B74CBEC14893355D",
              "parts": {
                "total": "1",
                "hash": "918ECA440F39E53894071F5E4D858C91DA926035"
              }
            },
            "signature": {
              "type": "tendermint/SignatureEd25519",
              "value": "PY2Js+KTXdVcRaMI+necv1vX2kF4LTTJaQhx6Ul/hl7iFyqUyknuPpD8S/U8xEsJsIYxhL+qobskeGK/lTO1BQ=="
            }
          },
          {
            "validator_address": "970CD321881185BF83DB2923C321B0E75FDBB2B8",
            "validator_index": "69",
            "height": "6351",
            "round": "1",
            "timestamp": "2018-07-30T16:12:38.161650308Z",
            "type": 2,
            "block_id": {
              "hash": "83B1A40F1435FB9601DAF038B74CBEC14893355D",
              "parts": {
                "total": "1",
                "hash": "918ECA440F39E53894071F5E4D858C91DA926035"
              }
            },
            "signature": {
              "type": "tendermint/SignatureEd25519",
              "value": "w0JGHPy5ovKeRf6dbG8LLY5UvzkK8wDVmlFxGnIqZFdYM1SLNtcJhQXxix7dPBGAgc4Mf7V5t5Omi81RWNyJAg=="
            }
          },
          null,
          {
            "validator_address": "9C29C9B76D27586E4D9AD2AED0E943162645E55C",
            "validator_index": "71",
            "height": "6351",
            "round": "1",
            "timestamp": "2018-07-30T16:12:38.08558306Z",
            "type": 2,
            "block_id": {
              "hash": "83B1A40F1435FB9601DAF038B74CBEC14893355D",
              "parts": {
                "total": "1",
                "hash": "918ECA440F39E53894071F5E4D858C91DA926035"
              }
            },
            "signature": {
              "type": "tendermint/SignatureEd25519",
              "value": "S9wwriNDTaxLbOYC/LCdPRAK5UZKpRxywKmHLwpr1wDGFsNTjLST6ucGB8Is8JPNSPyLmV96mY//qI0C7aRNAA=="
            }
          },
          {
            "validator_address": "9D93AD02FE1BD7E76B9E58D7EB461088EAD011E5",
            "validator_index": "72",
            "height": "6351",
            "round": "1",
            "timestamp": "2018-07-30T16:12:38.095723517Z",
            "type": 2,
            "block_id": {
              "hash": "83B1A40F1435FB9601DAF038B74CBEC14893355D",
              "parts": {
                "total": "1",
                "hash": "918ECA440F39E53894071F5E4D858C91DA926035"
              }
            },
            "signature": {
              "type": "tendermint/SignatureEd25519",
              "value": "k/WpqCmD5qsRs8SQVhpWIzAbAZCxs7Qi+Jyah1RTyoYpDnV7t3J9fI4oXYTSUymEdMCBF8EwoPA6SzYczjTYBA=="
            }
          },
          null,
          {
            "validator_address": "A0A6466F4ABEA09C3B55E3709AFDE217A103209F",
            "validator_index": "74",
            "height": "6351",
            "round": "1",
            "timestamp": "2018-07-30T16:12:38.046456186Z",
            "type": 2,
            "block_id": {
              "hash": "83B1A40F1435FB9601DAF038B74CBEC14893355D",
              "parts": {
                "total": "1",
                "hash": "918ECA440F39E53894071F5E4D858C91DA926035"
              }
            },
            "signature": {
              "type": "tendermint/SignatureEd25519",
              "value": "e2temx4YEEtK2mkxuIlq2WGQfe8C0eofFdlSurVLjWmVp72p0yOeUv/4sPg3NZirrzZboqeEMMyfwnJPK52JAQ=="
            }
          },
          {
            "validator_address": "A5868971300F155020634D7BB49C7634F7AACCD3",
            "validator_index": "75",
            "height": "6351",
            "round": "1",
            "timestamp": "2018-07-30T16:12:38.14026256Z",
            "type": 2,
            "block_id": {
              "hash": "83B1A40F1435FB9601DAF038B74CBEC14893355D",
              "parts": {
                "total": "1",
                "hash": "918ECA440F39E53894071F5E4D858C91DA926035"
              }
            },
            "signature": {
              "type": "tendermint/SignatureEd25519",
              "value": "zd3qQ9qZIgYlkobtYkxGac8YT2uxa9HW4S+vq8KhVazM9B6Pp/40xMr8DcJJdG/+PZ1cGgNp5XxX/qfXfa1BCA=="
            }
          },
          {
            "validator_address": "A6B3A5B5D982CFD7B5FDFA15CF5A720E7AE25E7F",
            "validator_index": "76",
            "height": "6351",
            "round": "1",
            "timestamp": "2018-07-30T16:12:38.118176352Z",
            "type": 2,
            "block_id": {
              "hash": "83B1A40F1435FB9601DAF038B74CBEC14893355D",
              "parts": {
                "total": "1",
                "hash": "918ECA440F39E53894071F5E4D858C91DA926035"
              }
            },
            "signature": {
              "type": "tendermint/SignatureEd25519",
              "value": "QOzbFlfZ8cwNfBmApEeRDdfxQrb1TzNm88ubYqd1u011bsLUrTEtVu2/V/2Ox0kq2Lk2K/ZBMy1I45IZ+zkdDg=="
            }
          },
          {
            "validator_address": "AC96444A9083890B7C7B430DB17BF1D3EA5EED04",
            "validator_index": "77",
            "height": "6351",
            "round": "1",
            "timestamp": "2018-07-30T16:12:38.18302397Z",
            "type": 2,
            "block_id": {
              "hash": "83B1A40F1435FB9601DAF038B74CBEC14893355D",
              "parts": {
                "total": "1",
                "hash": "918ECA440F39E53894071F5E4D858C91DA926035"
              }
            },
            "signature": {
              "type": "tendermint/SignatureEd25519",
              "value": "njBpDRR+rhwysDaRxx4I3lN9NXdmIWKU5sXyfll0b6K2cas+4fmm/Jvw4vlh7gAQ5Yr+oPFdujNwQZCp2XlWDw=="
            }
          },
          {
            "validator_address": "ACB97FDA2D940AF0709B73537C458EB988AD2893",
            "validator_index": "78",
            "height": "6351",
            "round": "1",
            "timestamp": "2018-07-30T16:12:38.029550946Z",
            "type": 2,
            "block_id": {
              "hash": "83B1A40F1435FB9601DAF038B74CBEC14893355D",
              "parts": {
                "total": "1",
                "hash": "918ECA440F39E53894071F5E4D858C91DA926035"
              }
            },
            "signature": {
              "type": "tendermint/SignatureEd25519",
              "value": "wMDEf8XjiGe0D8tZYnlxdmI6JiS8z/StHpu0w+by0Ma7VNqh6IEusdJOGRfOeuT63t8un37cnmuydzL6C2ElAg=="
            }
          },
          {
            "validator_address": "B197425B3210375F211661DE02EF2AE36580EB0F",
            "validator_index": "79",
            "height": "6351",
            "round": "1",
            "timestamp": "2018-07-30T16:12:38.107478212Z",
            "type": 2,
            "block_id": {
              "hash": "83B1A40F1435FB9601DAF038B74CBEC14893355D",
              "parts": {
                "total": "1",
                "hash": "918ECA440F39E53894071F5E4D858C91DA926035"
              }
            },
            "signature": {
              "type": "tendermint/SignatureEd25519",
              "value": "QoBBC9dzsVf4NHTNyXKTUTGyyN4IZJVYXTjOc/kDptQpXMgvNddzbKPNwJIC9wbl9t5C2IIXEieivbu7RTn7DA=="
            }
          },
          {
            "validator_address": "B45E54D2D1CB5A4CCD1D49016608C18E7C56B270",
            "validator_index": "80",
            "height": "6351",
            "round": "1",
            "timestamp": "2018-07-30T16:12:38.2139901Z",
            "type": 2,
            "block_id": {
              "hash": "83B1A40F1435FB9601DAF038B74CBEC14893355D",
              "parts": {
                "total": "1",
                "hash": "918ECA440F39E53894071F5E4D858C91DA926035"
              }
            },
            "signature": {
              "type": "tendermint/SignatureEd25519",
              "value": "ep6JHdpHYKtmO+w/QgbCH5UYHQuSJ2IB9z/aEaXtXkXYT1NE656ghPJfI4eSkZyfZioCRl20L52K5HwYPJfsCA=="
            }
          },
          {
            "validator_address": "B59A34C0BE4EC73AF6A67D274F1695C9259C237C",
            "validator_index": "81",
            "height": "6351",
            "round": "1",
            "timestamp": "2018-07-30T16:12:38.364328359Z",
            "type": 2,
            "block_id": {
              "hash": "83B1A40F1435FB9601DAF038B74CBEC14893355D",
              "parts": {
                "total": "1",
                "hash": "918ECA440F39E53894071F5E4D858C91DA926035"
              }
            },
            "signature": {
              "type": "tendermint/SignatureEd25519",
              "value": "qdaPRaDoX0hY/IRPfgbZ2t1080NagKnv5SM6rPwfwTix7MYe8x/dP4m5gc4fkBWEudC76Tu+tgpDGmxUpy3NAg=="
            }
          },
          {
            "validator_address": "BC36FEDD6EF6071118A3E51859DF3831A2EC4782",
            "validator_index": "82",
            "height": "6351",
            "round": "1",
            "timestamp": "2018-07-30T16:12:38.152097949Z",
            "type": 2,
            "block_id": {
              "hash": "83B1A40F1435FB9601DAF038B74CBEC14893355D",
              "parts": {
                "total": "1",
                "hash": "918ECA440F39E53894071F5E4D858C91DA926035"
              }
            },
            "signature": {
              "type": "tendermint/SignatureEd25519",
              "value": "SPtwdjc5HOyEZgY4bMkkV1Ykg6eLZDCoH+OfAp7yggObChb+V22Ldk12AN7NZ739lwH60Em2Bv+apXjNB8TMBA=="
            }
          },
          {
            "validator_address": "BD9D0DA513BF099DB4BB6E725A4E19832789882F",
            "validator_index": "83",
            "height": "6351",
            "round": "1",
            "timestamp": "2018-07-30T16:12:38.123554504Z",
            "type": 2,
            "block_id": {
              "hash": "83B1A40F1435FB9601DAF038B74CBEC14893355D",
              "parts": {
                "total": "1",
                "hash": "918ECA440F39E53894071F5E4D858C91DA926035"
              }
            },
            "signature": {
              "type": "tendermint/SignatureEd25519",
              "value": "GOE2hzZCbkhNCV2br5KjWAQZmz0z/kgULdQiVQdzDhVQkr07LWeYc+XRJDXXddBYRQmA0Pd1QkgLccwWxuS/AA=="
            }
          },
          {
            "validator_address": "C1134A2FF8F7338E7CDB3FE57DDD2A655DEB1E22",
            "validator_index": "84",
            "height": "6351",
            "round": "1",
            "timestamp": "2018-07-30T16:12:38.071280183Z",
            "type": 2,
            "block_id": {
              "hash": "83B1A40F1435FB9601DAF038B74CBEC14893355D",
              "parts": {
                "total": "1",
                "hash": "918ECA440F39E53894071F5E4D858C91DA926035"
              }
            },
            "signature": {
              "type": "tendermint/SignatureEd25519",
              "value": "YeHuCPP/bcEg+ItbTelkRBRsJ0ZecbfhTiYYik+PgBecIcOrcZ66tDcb0/3SUBi8BIu7a4h5iaXNrOZYGAWlCw=="
            }
          },
          {
            "validator_address": "C39A8A2B85198DCB8F23AD1F6C198E2BA7AB5D60",
            "validator_index": "85",
            "height": "6351",
            "round": "1",
            "timestamp": "2018-07-30T16:12:38.184945358Z",
            "type": 2,
            "block_id": {
              "hash": "83B1A40F1435FB9601DAF038B74CBEC14893355D",
              "parts": {
                "total": "1",
                "hash": "918ECA440F39E53894071F5E4D858C91DA926035"
              }
            },
            "signature": {
              "type": "tendermint/SignatureEd25519",
              "value": "kLIBj6pHcE47Jvffi4s0a5OwO+xa54YcQVRHKU5/mFiHr1LXJknHZelpgDoFZo/zWmvTPoXFni+MMUvTq6oOCw=="
            }
          },
          {
            "validator_address": "C4335190C3B5BD4BA5568BC0F99C34162D940D08",
            "validator_index": "86",
            "height": "6351",
            "round": "1",
            "timestamp": "2018-07-30T16:12:38.218030386Z",
            "type": 2,
            "block_id": {
              "hash": "83B1A40F1435FB9601DAF038B74CBEC14893355D",
              "parts": {
                "total": "1",
                "hash": "918ECA440F39E53894071F5E4D858C91DA926035"
              }
            },
            "signature": {
              "type": "tendermint/SignatureEd25519",
              "value": "VW1NZdapcO5JVcDNQoFEg9kTGhipo9daleFVO6uA7EA6wHUWCRO/i2gSUm3CO2j5t9UFbWKvs/WZh3B5zzYlAw=="
            }
          },
          {
            "validator_address": "C561CFA081677046376396922E7576E5F7B316AD",
            "validator_index": "87",
            "height": "6351",
            "round": "1",
            "timestamp": "2018-07-30T16:12:38.272730165Z",
            "type": 2,
            "block_id": {
              "hash": "83B1A40F1435FB9601DAF038B74CBEC14893355D",
              "parts": {
                "total": "1",
                "hash": "918ECA440F39E53894071F5E4D858C91DA926035"
              }
            },
            "signature": {
              "type": "tendermint/SignatureEd25519",
              "value": "4tQATth7mzjHo5/UaOaLTv2HoxN4dwiDvDmJ4zDyIYI/WrVl0OA8AdHf5BzNPFo9p7LKTRAHuXI26Sjvx6W+CA=="
            }
          },
          {
            "validator_address": "CEB97DB5CB18270247ABDE6CF2F84F9AEE8A2904",
            "validator_index": "88",
            "height": "6351",
            "round": "1",
            "timestamp": "2018-07-30T16:12:37.834031373Z",
            "type": 2,
            "block_id": {
              "hash": "83B1A40F1435FB9601DAF038B74CBEC14893355D",
              "parts": {
                "total": "1",
                "hash": "918ECA440F39E53894071F5E4D858C91DA926035"
              }
            },
            "signature": {
              "type": "tendermint/SignatureEd25519",
              "value": "KtxuQMd4IFCl48lYHN9MvbGcEJN10c9aTf9722uaBvYYwBVv8s9ii+wVRKgKH/7xFhnfLrjdAfPv/cr3mcqGDQ=="
            }
          },
          {
            "validator_address": "CF205769734F5758CC39F907EFB73D6BAF915FB1",
            "validator_index": "89",
            "height": "6351",
            "round": "1",
            "timestamp": "2018-07-30T16:12:38.24236854Z",
            "type": 2,
            "block_id": {
              "hash": "83B1A40F1435FB9601DAF038B74CBEC14893355D",
              "parts": {
                "total": "1",
                "hash": "918ECA440F39E53894071F5E4D858C91DA926035"
              }
            },
            "signature": {
              "type": "tendermint/SignatureEd25519",
              "value": "qtR6WBlu4zQK3CkNC3ubAm44EJ53UtURAwDkG2ski6+Qw7YdJqcslpCRAX4QKloUbTaikL/CTGu+JAedeLnRDA=="
            }
          },
          {
            "validator_address": "D2134B826A1E25A955905CB79A4D8731CAFA0CCE",
            "validator_index": "90",
            "height": "6351",
            "round": "1",
            "timestamp": "2018-07-30T16:12:38.229107306Z",
            "type": 2,
            "block_id": {
              "hash": "83B1A40F1435FB9601DAF038B74CBEC14893355D",
              "parts": {
                "total": "1",
                "hash": "918ECA440F39E53894071F5E4D858C91DA926035"
              }
            },
            "signature": {
              "type": "tendermint/SignatureEd25519",
              "value": "Fv7Tm54MNinaG+cI7iyt+L3Qk1mDaNas1/7TPRNvofSrB7CNAo19DyBjHsXvrcmiipK6RNo4un6K2owOK3vSBg=="
            }
          },
          null,
          {
            "validator_address": "D6285C3422C8886445D53757CBE12D2B91B5A9D0",
            "validator_index": "92",
            "height": "6351",
            "round": "1",
            "timestamp": "2018-07-30T16:12:20.413965831Z",
            "type": 2,
            "block_id": {
              "hash": "83B1A40F1435FB9601DAF038B74CBEC14893355D",
              "parts": {
                "total": "1",
                "hash": "918ECA440F39E53894071F5E4D858C91DA926035"
              }
            },
            "signature": {
              "type": "tendermint/SignatureEd25519",
              "value": "ZGoxV2V9lv1mUTrijM0uUcl58I1FmdsV5v9/1+NByvK6R5JXzYjl/gahd3jJ2qbD7P4VTvsgkoZfy8W3lXQcBg=="
            }
          },
          null,
          null,
          {
            "validator_address": "DB7E6732471D3EA5C90C17A9974D9F88AB45F2FB",
            "validator_index": "95",
            "height": "6351",
            "round": "1",
            "timestamp": "2018-07-30T16:12:38.168476395Z",
            "type": 2,
            "block_id": {
              "hash": "83B1A40F1435FB9601DAF038B74CBEC14893355D",
              "parts": {
                "total": "1",
                "hash": "918ECA440F39E53894071F5E4D858C91DA926035"
              }
            },
            "signature": {
              "type": "tendermint/SignatureEd25519",
              "value": "7lmvofijzIpPF1BhPZ5C25lZGo8DkTl61teV+PIbHnWO4krR/XEvw5vgN9IWpLmI3SYn3Pvr3zMldJtEprSaDQ=="
            }
          },
          {
            "validator_address": "DF54B862410BCD9B5C516FBB6C56BDC826ED6FA7",
            "validator_index": "96",
            "height": "6351",
            "round": "1",
            "timestamp": "2018-07-30T16:12:38.260118189Z",
            "type": 2,
            "block_id": {
              "hash": "83B1A40F1435FB9601DAF038B74CBEC14893355D",
              "parts": {
                "total": "1",
                "hash": "918ECA440F39E53894071F5E4D858C91DA926035"
              }
            },
            "signature": {
              "type": "tendermint/SignatureEd25519",
              "value": "Vm6R+hqVKxTzRp9XHyrkKRfynOZeWGTqq1pXO8xRxcIQxplBlmHbD9j4sj0equcVz4z8KjG0vRm1dQaYtKdeDg=="
            }
          },
          {
            "validator_address": "DFAF0C8B1B78D6D552B0189DE3ACA351439A1319",
            "validator_index": "97",
            "height": "6351",
            "round": "1",
            "timestamp": "2018-07-30T16:12:38.099398736Z",
            "type": 2,
            "block_id": {
              "hash": "83B1A40F1435FB9601DAF038B74CBEC14893355D",
              "parts": {
                "total": "1",
                "hash": "918ECA440F39E53894071F5E4D858C91DA926035"
              }
            },
            "signature": {
              "type": "tendermint/SignatureEd25519",
              "value": "KfYtJ+QgFnEKd6aOzkGpc2tMzBukxVM2ZwHpJlKqB6PErlI7qIZTmmyxg0ZkWbVpG5D0jZr4/AJkWtoWbJN0CQ=="
            }
          },
          {
            "validator_address": "E1DBC77881161A5A3A8536A57536EAE546A75D69",
            "validator_index": "98",
            "height": "6351",
            "round": "1",
            "timestamp": "2018-07-30T16:12:38.100220288Z",
            "type": 2,
            "block_id": {
              "hash": "83B1A40F1435FB9601DAF038B74CBEC14893355D",
              "parts": {
                "total": "1",
                "hash": "918ECA440F39E53894071F5E4D858C91DA926035"
              }
            },
            "signature": {
              "type": "tendermint/SignatureEd25519",
              "value": "s3zVYwZoDHAcDfU9NibSr1lmq2DQgfZwfV1eS7vZtF3TYPAVbnzgO1oaAR9zeANHxEZsiOjWI55UWQBYuorJCQ=="
            }
          },
          {
            "validator_address": "E300E9D484374C1D3E97C1D93CAC3B160A056298",
            "validator_index": "99",
            "height": "6351",
            "round": "1",
            "timestamp": "2018-07-30T16:12:38.312064008Z",
            "type": 2,
            "block_id": {
              "hash": "83B1A40F1435FB9601DAF038B74CBEC14893355D",
              "parts": {
                "total": "1",
                "hash": "918ECA440F39E53894071F5E4D858C91DA926035"
              }
            },
            "signature": {
              "type": "tendermint/SignatureEd25519",
              "value": "JbREV7iXbYTQkak8dTbXuRMLOxU1AUMeV7RZ1Fm/v3u7cW2H2Na5Nwo2XNrCI4lG5CjA1e7ER6FFRF4IuzcxDw=="
            }
          },
          {
            "validator_address": "E39B5778E0D4297A46F45CF6940B0A163A430FF8",
            "validator_index": "100",
            "height": "6351",
            "round": "1",
            "timestamp": "2018-07-30T16:12:38.101927526Z",
            "type": 2,
            "block_id": {
              "hash": "83B1A40F1435FB9601DAF038B74CBEC14893355D",
              "parts": {
                "total": "1",
                "hash": "918ECA440F39E53894071F5E4D858C91DA926035"
              }
            },
            "signature": {
              "type": "tendermint/SignatureEd25519",
              "value": "S+wdgtACPkI8P/IFWomqO/qTuziuan/DnWVrNit3PnI4ZLP3KffpuSAPar3Yw3cxL8YwRFiO2pn50KS9uuoZDQ=="
            }
          },
          null,
          {
            "validator_address": "E42F8AEABB685219F7027F54D2B0DBC7846F633A",
            "validator_index": "102",
            "height": "6351",
            "round": "1",
            "timestamp": "2018-07-30T16:12:37.490887087Z",
            "type": 2,
            "block_id": {
              "hash": "83B1A40F1435FB9601DAF038B74CBEC14893355D",
              "parts": {
                "total": "1",
                "hash": "918ECA440F39E53894071F5E4D858C91DA926035"
              }
            },
            "signature": {
              "type": "tendermint/SignatureEd25519",
              "value": "WL4j/s9y6JVB2GjXbq2USd3A49w9gV7J7FEgYpCL6ZxDOmtPmClH3vLady8VmtU3sTzWS7ij+8Bne4hPJm5yBw=="
            }
          },
          {
            "validator_address": "E4E6C2E81269DFFA196C17F98240E491479A6008",
            "validator_index": "103",
            "height": "6351",
            "round": "1",
            "timestamp": "2018-07-30T16:12:38.181522261Z",
            "type": 2,
            "block_id": {
              "hash": "83B1A40F1435FB9601DAF038B74CBEC14893355D",
              "parts": {
                "total": "1",
                "hash": "918ECA440F39E53894071F5E4D858C91DA926035"
              }
            },
            "signature": {
              "type": "tendermint/SignatureEd25519",
              "value": "fn9h6oRGRjE+lw0+diGqIna89GXtIGELx69yaB5iv9O1Bs6YfeS1emB9QlV/MNTa9863Uiq0mlbM42PJh9qsAg=="
            }
          },
          null,
          null,
          {
            "validator_address": "E7A30077D5D11867D3EAF99ED45BFDC1EB834509",
            "validator_index": "106",
            "height": "6351",
            "round": "1",
            "timestamp": "2018-07-30T16:12:38.175641175Z",
            "type": 2,
            "block_id": {
              "hash": "83B1A40F1435FB9601DAF038B74CBEC14893355D",
              "parts": {
                "total": "1",
                "hash": "918ECA440F39E53894071F5E4D858C91DA926035"
              }
            },
            "signature": {
              "type": "tendermint/SignatureEd25519",
              "value": "mQCBw3DV59nMjq3FSh/8ZWkmGdb1iaVT9OojPH63ih4+tkVYX6F8VSExrSZx/SqtDOnDIhouZ/9COHhO06YTDQ=="
            }
          },
          {
            "validator_address": "EBC613967F66F4EC306852CDF58B4F151CF16738",
            "validator_index": "107",
            "height": "6351",
            "round": "1",
            "timestamp": "2018-07-30T16:12:38.253172184Z",
            "type": 2,
            "block_id": {
              "hash": "83B1A40F1435FB9601DAF038B74CBEC14893355D",
              "parts": {
                "total": "1",
                "hash": "918ECA440F39E53894071F5E4D858C91DA926035"
              }
            },
            "signature": {
              "type": "tendermint/SignatureEd25519",
              "value": "Lcb4PeDKxt41Krlu/ifUE+zQGD5aJOCV/IVbvQmgH6dm46+mdFWlU6Z1LUNvNmJmvdZuW/+AyD9a7F7q2eeRDQ=="
            }
          },
          {
            "validator_address": "EC3401441726C40ECC7E51F744483B05BC6DE9BD",
            "validator_index": "108",
            "height": "6351",
            "round": "1",
            "timestamp": "2018-07-30T16:12:38.112262037Z",
            "type": 2,
            "block_id": {
              "hash": "83B1A40F1435FB9601DAF038B74CBEC14893355D",
              "parts": {
                "total": "1",
                "hash": "918ECA440F39E53894071F5E4D858C91DA926035"
              }
            },
            "signature": {
              "type": "tendermint/SignatureEd25519",
              "value": "1Qw/ATj17QHUI46QjePX9F7WRPqo1IynqhrUTzE1ZC+0jtTmjNCIou66x1qAekGlubKylesmO+lcfFu8g9p2Bg=="
            }
          },
          {
            "validator_address": "EC95B111D032181E1EC3B5E8875C5BB8E4AE7140",
            "validator_index": "109",
            "height": "6351",
            "round": "1",
            "timestamp": "2018-07-30T16:12:38.072726282Z",
            "type": 2,
            "block_id": {
              "hash": "83B1A40F1435FB9601DAF038B74CBEC14893355D",
              "parts": {
                "total": "1",
                "hash": "918ECA440F39E53894071F5E4D858C91DA926035"
              }
            },
            "signature": {
              "type": "tendermint/SignatureEd25519",
              "value": "dtL9P5A+PzNbgkCZxBYnBvhozLau9gO5RExVvrB28BLhTyhB/LXyiRzYlRNYZJvARXhKpowCm7JZTLK0gJ2zCA=="
            }
          },
          {
            "validator_address": "F13C1805E8131C9B47E2A46818F57D8A2841E578",
            "validator_index": "110",
            "height": "6351",
            "round": "1",
            "timestamp": "2018-07-30T16:12:38.224687424Z",
            "type": 2,
            "block_id": {
              "hash": "83B1A40F1435FB9601DAF038B74CBEC14893355D",
              "parts": {
                "total": "1",
                "hash": "918ECA440F39E53894071F5E4D858C91DA926035"
              }
            },
            "signature": {
              "type": "tendermint/SignatureEd25519",
              "value": "id41CWq8zLrMpUSFh4dB8CjsnHzRgPxwjEYjHZVQpFr5aY7HP2CJc5nlQedx2mRI45XEKD6rvjIiZ0QX6F58Aw=="
            }
          },
          {
            "validator_address": "F23FF36BD5B90C33CE3A03ED72DBDCF5EC07D6AF",
            "validator_index": "111",
            "height": "6351",
            "round": "1",
            "timestamp": "2018-07-30T16:12:38.248735475Z",
            "type": 2,
            "block_id": {
              "hash": "83B1A40F1435FB9601DAF038B74CBEC14893355D",
              "parts": {
                "total": "1",
                "hash": "918ECA440F39E53894071F5E4D858C91DA926035"
              }
            },
            "signature": {
              "type": "tendermint/SignatureEd25519",
              "value": "7rvfRENEmtcP+PTOBQoifBtP4wZSRAI5NXHr1/oZ9eucIqmzaBQJJKdyJEOQuGbnSl1PytiIyNQOFmizj5BBBg=="
            }
          },
          {
            "validator_address": "F4268597DE93E3E2CED38845010F8AA34E2A879E",
            "validator_index": "112",
            "height": "6351",
            "round": "1",
            "timestamp": "2018-07-30T16:12:38.116778645Z",
            "type": 2,
            "block_id": {
              "hash": "83B1A40F1435FB9601DAF038B74CBEC14893355D",
              "parts": {
                "total": "1",
                "hash": "918ECA440F39E53894071F5E4D858C91DA926035"
              }
            },
            "signature": {
              "type": "tendermint/SignatureEd25519",
              "value": "JOfhAqek5DPMvbh2E3LTfzrAZ1Nkv7A8S6FSMIZbR6f/dRZP4+XswPDIqjaLeG1LapANWtHVQvbkCUTzG53tCg=="
            }
          },
          {
            "validator_address": "F4DEB417999B04BE2EFF9FFE03FA373D86011CC0",
            "validator_index": "113",
            "height": "6351",
            "round": "1",
            "timestamp": "2018-07-30T16:12:38.180258461Z",
            "type": 2,
            "block_id": {
              "hash": "83B1A40F1435FB9601DAF038B74CBEC14893355D",
              "parts": {
                "total": "1",
                "hash": "918ECA440F39E53894071F5E4D858C91DA926035"
              }
            },
            "signature": {
              "type": "tendermint/SignatureEd25519",
              "value": "rE/cRkrjaLYoTyvOFOYt/xSaJIPqjL+9D58cenag5Aria58DfQWpjfyFs2++U1OVsfYNMpPsbJ5cZQKgDe2nBA=="
            }
          },
          null,
          null,
          null,
          {
            "validator_address": "FF3F3FCBCE7E62D7AD5506FF846EC4518D980515",
            "validator_index": "117",
            "height": "6351",
            "round": "1",
            "timestamp": "2018-07-30T16:12:38.135432323Z",
            "type": 2,
            "block_id": {
              "hash": "83B1A40F1435FB9601DAF038B74CBEC14893355D",
              "parts": {
                "total": "1",
                "hash": "918ECA440F39E53894071F5E4D858C91DA926035"
              }
            },
            "signature": {
              "type": "tendermint/SignatureEd25519",
              "value": "oh6R6s3RdaWz2dyLe6mE7YvsJXGHwONg6AramiEpItMi1nh8PgC9s4UP2P/rhaDmwqa56fKs7ToQQxMYd/GRDA=="
            }
          }
        ]
      }
    },
    "canonical": true
  }
}