{
  "jsonrpc": "2.0",
  "id": "",
  "result": {
    "SignedHeader": {
      "header": {
        "chain_id": "gaia-7004",
        "height": "6757",
        "time": "2018-07-30T16:55:54.579191943Z",
        "num_txs": "0",
        "last_block_id": {
          "hash": "2310983C911C274E97B3714700A20364FA52EE2E",
          "parts": {
            "total": "1",
            "hash": "629A92F9F1206FCD26E2A623AF23188EACA85C8A"
          }
        },
        "total_txs": "157",
        "last_commit_hash": "5456F5C819AF5E92212167CEE59727E4A1D701F4",
        "data_hash": "",
        "validators_hash": "6BCA242054C7459160200AC6FCC983313813ACF9",
        "consensus_hash": "D6B74BB35BDFFD8392340F2A379173548AE188FE",
        "app_hash": "2AF919FD73BC00130531E21A67B463A00CA63427",
        "last_results_hash": "",
        "evidence_hash": ""
      },
      "commit": {
        "block_id": {
          "hash": "EE020925CD04161924601D777A6244AF6A0E05B3",
          "parts": {
            "total": "1",
            "hash": "85355D6FF2DE3D01E976A5D5016FC81F697393A4"
          }
        },
        "precommits": [
          {
            "validator_address": "029359C0C768096273A68ABC902A6B17AC8D1D70",
            "validator_index": "0",
            "height": "6757",
            "round": "1",
            "timestamp": "2018-07-30T16:55:55.811309329Z",
            "type": 2,
            "block_id": {
              "hash": "EE020925CD04161924601D777A6244AF6A0E05B3",
              "parts": {
                "total": "1",
                "hash": "85355D6FF2DE3D01E976A5D5016FC81F697393A4"
              }
            },
            "signature": {
              "type": "tendermint/SignatureEd25519",
              "value": "DlA6rH/wjv7i6bu2Sx9GhQa53nAsASVq/Jj4uP7Ohq47pv4DfzorNiBOU1ByAZ9vEXhG9uWcr0/1XHSgdBBwCw=="
            }
          },
          {
            "validator_address": "02FE4B97A8387F39D1AC19E0C1702B3CC614812F",
            "validator_index": "1",
            "height": "6757",
            "round": "1",
            "timestamp": "2018-07-30T16:55:55.880746195Z",
            "type": 2,
            "block_id": {
              "hash": "EE020925CD04161924601D777A6244AF6A0E05B3",
              "parts": {
                "total": "1",
                "hash": "85355D6FF2DE3D01E976A5D5016FC81F697393A4"
              }
            },
            "signature": {
              "type": "tendermint/SignatureEd25519",
              "value": "CwWNI6YYwUcxeIgB7OyOqaD9NTraJvhv9cDVqnsdIC+DQ/VJnHr0vZf51STqcNF5++DfaxAwIEW8PWCOqp0qBA=="
            }
          },
          {
            "validator_address": "0548261C50222FD710EB5EBDF03A0E6567B21D20",
            "validator_index": "2",
            "height": "6757",
            "round": "1",
            "timestamp": "2018-07-30T16:55:55.911455736Z",
            "type": 2,
            "block_id": {
              "hash": "EE020925CD04161924601D777A6244AF6A0E05B3",
              "parts": {
                "total": "1",
                "hash": "85355D6FF2DE3D01E976A5D5016FC81F697393A4"
              }
            },
            "signature": {
              "type": "tendermint/SignatureEd25519",
              "value": "N/mqlsoPEsnLYckDemSW+79ej7V1SAXnCyO3MyVy5vYW72NnuCojIP1K4Ax9r8xAXC3Ymzf/ieeFof85xrSFDQ=="
            }
          },
          null,
          {
            "validator_address": "09145E611CC27EEB944FC5A956DDF710F943B9EF",
            "validator_index": "4",
            "height": "6757",
            "round": "1",
            "timestamp": "2018-07-30T16:55:55.820400856Z",
            "type": 2,
            "block_id": {
              "hash": "EE020925CD04161924601D777A6244AF6A0E05B3",
              "parts": {
                "total": "1",
                "hash": "85355D6FF2DE3D01E976A5D5016FC81F697393A4"
              }
            },
            "signature": {
              "type": "tendermint/SignatureEd25519",
              "value": "YOHiTzjdITlkuE9zEZ97DWxjMo7XsVY9kGPj7ae+tTittujleCgDyR2ZbuIgnyJ28wCBQ82iHqzCG9AUaiKZDQ=="
            }
          },
          {
            "validator_address": "0989D0355A104B67AE0AE028C68FB610690E174B",
            "validator_index": "5",
            "height": "6757",
            "round": "1",
            "timestamp": "2018-07-30T16:55:55.819266335Z",
            "type": 2,
            "block_id": {
              "hash": "EE020925CD04161924601D777A6244AF6A0E05B3",
              "parts": {
                "total": "1",
                "hash": "85355D6FF2DE3D01E976A5D5016FC81F697393A4"
              }
            },
            "signature": {
              "type": "tendermint/SignatureEd25519",
              "value": "JObw0acWBoQVZ9PpNwzSf/cfE3QQNx0eAWjdTqmKzZdjvUIYAeaYFXF3HCTsENZXYK4+Qxh+mw9avRAxG83yDA=="
            }
          },
          {
            "validator_address": "0A692DBFFE9E5DD28E7DECC33CED1AEB4C0D014E",
            "validator_index": "6",
            "height": "6757",
            "round": "1",
            "timestamp": "2018-07-30T16:55:55.931285831Z",
            "type": 2,
            "block_id": {
              "hash": "EE020925CD04161924601D777A6244AF6A0E05B3",
              "parts": {
                "total": "1",
                "hash": "85355D6FF2DE3D01E976A5D5016FC81F697393A4"
              }
            },
            "signature": {
              "type": "tendermint/SignatureEd25519",
              "value": "V70WM1KmWhZ3eayIpGvBSH+cQzIpAc0EwzTi6yx6HRKLYcIAM00o5cF442aTLLxWF+m6fWxzwtRqfUqM1QoYDg=="
            }
          },
          {
            "validator_address": "0DDF97111D73DB825138EC15EC27DE5FE8536901",
            "validator_index": "7",
            "height": "6757",
            "round": "1",
            "timestamp": "2018-07-30T16:55:55.895692944Z",
            "type": 2,
            "block_id": {
              "hash": "EE020925CD04161924601D777A6244AF6A0E05B3",
              "parts": {
                "total": "1",
                "hash": "85355D6FF2DE3D01E976A5D5016FC81F697393A4"
              }
            },
            "signature": {
              "type": "tendermint/SignatureEd25519",
              "value": "sAz25zXhLXW3UzCieiZlQCTl8ySzHoTkspRYW8klQL/6UpEWuNRVqZMVjjx43AKt3oXtIrCESaNInaG4IU/sDA=="
            }
          },
          null,
          {
            "validator_address": "1751786EFC085D5331C61168FFFC8202EA151B4E",
            "validator_index": "9",
            "height": "6757",
            "round": "1",
            "timestamp": "2018-07-30T16:55:55.289547432Z",
            "type": 2,
            "block_id": {
              "hash": "EE020925CD04161924601D777A6244AF6A0E05B3",
              "parts": {
                "total": "1",
                "hash": "85355D6FF2DE3D01E976A5D5016FC81F697393A4"
              }
            },
            "signature": {
              "type": "tendermint/SignatureEd25519",
              "value": "NjDWtj1+Msihjszy6UzzbhD1DeVXNX6rkTdT5unYgxwnh0XI/6pw/igLP2YyGXNjR1oMUErd4o2sORQU/KUtAQ=="
            }
          },
          {
            "validator_address": "17BB5CD01E8940FAFB948A04D5FA5A0645E5822E",
            "validator_index": "10",
            "height": "6757",
            "round": "1",
            "timestamp": "2018-07-30T16:55:55.850983947Z",
            "type": 2,
            "block_id": {
              "hash": "EE020925CD04161924601D777A6244AF6A0E05B3",
              "parts": {
                "total": "1",
                "hash": "85355D6FF2DE3D01E976A5D5016FC81F697393A4"
              }
            },
            "signature": {
              "type": "tendermint/SignatureEd25519",
              "value": "kFiSQLco5PymHKgC9JBp8hGL10YdI+RsLfLWTl8va9KVB3zu8lTFR3Zs/BMfyH7nrCgKUI8uHvA4SgZrfibwAQ=="
            }
          },
          {
            "validator_address": "1C683A87904BC38F05004FE83301A3A3E35447EB",
            "validator_index": "11",
            "height": "6757",
            "round": "1",
            "timestamp": "2018-07-30T16:55:55.878342319Z",
            "type": 2,
            "block_id": {
              "hash": "EE020925CD04161924601D777A6244AF6A0E05B3",
              "parts": {
                "total": "1",
                "hash": "85355D6FF2DE3D01E976A5D5016FC81F697393A4"
              }
            },
            "signature": {
              "type": "tendermint/SignatureEd25519",
              "value": "zuu8fttnjxL6qsd7hlHiNTG4Zqn1g9ITnp9WtsI4fdks4rNPxPdCCSDq/zpgKNID88+Wzoy4EDW3Wr6lGrROCQ=="
            }
          },
          {
            "validator_address": "1E9CE94FD0BA5CFEB901F90BC658D64D85B134D2",
            "validator_index": "12",
            "height": "6757",
            "round": "1",
            "timestamp": "2018-07-30T16:55:55.859228197Z",
            "type": 2,
            "block_id": {
              "hash": "EE020925CD04161924601D777A6244AF6A0E05B3",
              "parts": {
                "total": "1",
                "hash": "85355D6FF2DE3D01E976A5D5016FC81F697393A4"
              }
            },
            "signature": {
              "type": "tendermint/SignatureEd25519",
              "value": "zGvDwJjdId/dEgpCsXjJqdu04dc7y5NBWXG03ONQWCLLfYAkcZNlYwW8jU6CiInGNqJh4iUVBk7LL+tvvfiDCg=="
            }
          },
          {
            "validator_address": "1ECD8C5FE1341D74CDC633A245DD56858DE2F9A2",
            "validator_index": "13",
            "height": "6757",
            "round": "1",
            "timestamp": "2018-07-30T16:55:55.944328721Z",
            "type": 2,
            "block_id": {
              "hash": "EE020925CD04161924601D777A6244AF6A0E05B3",
              "parts": {
                "total": "1",
                "hash": "85355D6FF2DE3D01E976A5D5016FC81F697393A4"
              }
            },
            "signature": {
              "type": "tendermint/SignatureEd25519",
              "value": "N18pRqWEPXXcYTj1aCxs73yonxrRdM7veEHtpTMtVv00Lh2SdWPkuLtAeIl756SV1jy8AwDjRTIF/mTD7EpPBA=="
            }
          },
          {
            "validator_address": "1F3A68CAAD483768AA2BF667DEF10F7104C89928",
            "validator_index": "14",
            "height": "6757",
            "round": "1",
            "timestamp": "2018-07-30T16:55:55.890144821Z",
            "type": 2,
            "block_id": {
              "hash": "EE020925CD04161924601D777A6244AF6A0E05B3",
              "parts": {
                "total": "1",
                "hash": "85355D6FF2DE3D01E976A5D5016FC81F697393A4"
              }
            },
            "signature": {
              "type": "tendermint/SignatureEd25519",
              "value": "yMO7Op7zQ6o7dMo4Zu4wSaRe33xBUXN3O28DIM9a/U2VFlsDlwFYPQ7XetKtfiWwZJeRao765B7xAKnXDHR3Ag=="
            }
          },
          null,
          {
            "validator_address": "23897586D68E2AC1C78E0EF5BB5DF5C8EAB18F50",
            "validator_index": "16",
            "height": "6757",
            "round": "1",
            "timestamp": "2018-07-30T16:55:55.849943529Z",
            "type": 2,
            "block_id": {
              "hash": "EE020925CD04161924601D777A6244AF6A0E05B3",
              "parts": {
                "total": "1",
                "hash": "85355D6FF2DE3D01E976A5D5016FC81F697393A4"
              }
            },
            "signature": {
              "type": "tendermint/SignatureEd25519",
              "value": "vTb2DscCpulXggeNE3sPUMr55DuZOoMpBlE6PepixzNeu2J/byJb1aQLUdV9yy0Z4TDd8SpQuPmyc15WrdYQAA=="
            }
          },
          {
            "validator_address": "28770D17E8530825E7310A0659308654B7EC9682",
            "validator_index": "17",
            "height": "6757",
            "round": "1",
            "timestamp": "2018-07-30T16:55:55.815725326Z",
            "type": 2,
            "block_id": {
              "hash": "EE020925CD04161924601D777A6244AF6A0E05B3",
              "parts": {
                "total": "1",
                "hash": "85355D6FF2DE3D01E976A5D5016FC81F697393A4"
              }
            },
            "signature": {
              "type": "tendermint/SignatureEd25519",
              "value": "hW61uTCuU/XW51Wjjn/bS8vg5xipqFzMvxAq9nIsw40XkOn6a3kpPan4KK81aDtsFS5GmVZXa1BUW2FE/56jDA=="
            }
          },
          null,
          {
            "validator_address": "2A92EC3C642140202298D0E245095E0ECFC25228",
            "validator_index": "19",
            "height": "6757",
            "round": "1",
            "timestamp": "2018-07-30T16:55:55.890334141Z",
            "type": 2,
            "block_id": {
              "hash": "EE020925CD04161924601D777A6244AF6A0E05B3",
              "parts": {
                "total": "1",
                "hash": "85355D6FF2DE3D01E976A5D5016FC81F697393A4"
              }
            },
            "signature": {
              "type": "tendermint/SignatureEd25519",
              "value": "nLppFm/j86tIp5K6yk7fBc8nbvDvo3vryz6TC73XilADQKJpYCh3xSJh89c42X5SYzxl/oGvV7zcrZ0pkhb4DA=="
            }
          },
          null,
          null,
          {
            "validator_address": "33412C9A69C60CB0FAA24A5C5B3A906DE24B47C2",
            "validator_index": "22",
            "height": "6757",
            "round": "1",
            "timestamp": "2018-07-30T16:55:55.799804456Z",
            "type": 2,
            "block_id": {
              "hash": "EE020925CD04161924601D777A6244AF6A0E05B3",
              "parts": {
                "total": "1",
                "hash": "85355D6FF2DE3D01E976A5D5016FC81F697393A4"
              }
            },
            "signature": {
              "type": "tendermint/SignatureEd25519",
              "value": "UAms+k7LaO5nJrt4KMSLdnS3E3uL9XPMc75L3lCB8YJap1QTXBPNMi2jOpQmIrVrmpSo9ByjlnfJPewiXSWnBA=="
            }
          },
          null,
          {
            "validator_address": "3383EF2A13B160C41947AC30434B274B2FAF0617",
            "validator_index": "24",
            "height": "6757",
            "round": "1",
            "timestamp": "2018-07-30T16:55:55.8617857Z",
            "type": 2,
            "block_id": {
              "hash": "EE020925CD04161924601D777A6244AF6A0E05B3",
              "parts": {
                "total": "1",
                "hash": "85355D6FF2DE3D01E976A5D5016FC81F697393A4"
              }
            },
            "signature": {
              "type": "tendermint/SignatureEd25519",
              "value": "1gDwGM+ETafdJGR8XIeqRnP+WfVI4StDvuAEE2rf113fpSyaHfFrNeFXAUeA4YYs3AAhXw/Cz0gESDUgF6knDw=="
            }
          },
          {
            "validator_address": "36E9B7FAEC964F97D84C028ED62493E373AD0B38",
            "validator_index": "25",
            "height": "6757",
            "round": "1",
            "timestamp": "2018-07-30T16:55:55.956184941Z",
            "type": 2,
            "block_id": {
              "hash": "EE020925CD04161924601D777A6244AF6A0E05B3",
              "parts": {
                "total": "1",
                "hash": "85355D6FF2DE3D01E976A5D5016FC81F697393A4"
              }
            },
            "signature": {
              "type": "tendermint/SignatureEd25519",
              "value": "keDs2+7CkNEWsMDsHrYPXEw+zJxFNpcrG1bFs/t6jE/jicoOXxBBgS/8RsPoCFyrVAtKSQxz2gjJinu3gHrdDA=="
            }
          },
          {
            "validator_address": "38A8D85D36BEA2E5FCF8A1E778F53628E450EF13",
            "validator_index": "26",
            "height": "6757",
            "round": "1",
            "timestamp": "2018-07-30T16:55:55.964947322Z",
            "type": 2,
            "block_id": {
              "hash": "EE020925CD04161924601D777A6244AF6A0E05B3",
              "parts": {
                "total": "1",
                "hash": "85355D6FF2DE3D01E976A5D5016FC81F697393A4"
              }
            },
            "signature": {
              "type": "tendermint/SignatureEd25519",
              "value": "bI+4ZQhb7hz1J3bfArjhJs6fiMuQWA+hnzddZeq363cHFdK1wM6d4jKR8mEr8/LiDkEs3LW6HiuKM4clAuKRDg=="
            }
          },
          {
            "validator_address": "39DFDA0C5DB84B269642188B23253508537798E6",
            "validator_index": "27",
            "height": "6757",
            "round": "1",
            "timestamp": "2018-07-30T16:55:55.806563826Z",
            "type": 2,
            "block_id": {
              "hash": "EE020925CD04161924601D777A6244AF6A0E05B3",
              "parts": {
                "total": "1",
                "hash": "85355D6FF2DE3D01E976A5D5016FC81F697393A4"
              }
            },
            "signature": {
              "type": "tendermint/SignatureEd25519",
              "value": "NO/xUa7cyrmyaHojz++yjYbopfuWGNapl8RvIbnppFSRXMyiqRqvTz8GZW0NnTD05pIHGyinVYseNDEmtAWxAA=="
            }
          },
          {
            "validator_address": "3AC99B708404452366E0953A4BE849226DC86CBC",
            "validator_index": "28",
            "height": "6757",
            "round": "1",
            "timestamp": "2018-07-30T16:55:55.930075702Z",
            "type": 2,
            "block_id": {
              "hash": "EE020925CD04161924601D777A6244AF6A0E05B3",
              "parts": {
                "total": "1",
                "hash": "85355D6FF2DE3D01E976A5D5016FC81F697393A4"
              }
            },
            "signature": {
              "type": "tendermint/SignatureEd25519",
              "value": "mXjkOAaknDQDr3KDnDuYysOBk5ACmA/nygvJ/jKfpReaSg5KCR6WJW6QkQ7x95j/DcGmJZDoa3Ocr1KHPt32DA=="
            }
          },
          {
            "validator_address": "3DCB822A10ED319EC7C4393D8E3FD4A41B15AAF2",
            "validator_index": "29",
            "height": "6757",
            "round": "1",
            "timestamp": "2018-07-30T16:55:55.799366592Z",
            "type": 2,
            "block_id": {
              "hash": "EE020925CD04161924601D777A6244AF6A0E05B3",
              "parts": {
                "total": "1",
                "hash": "85355D6FF2DE3D01E976A5D5016FC81F697393A4"
              }
            },
            "signature": {
              "type": "tendermint/SignatureEd25519",
              "value": "IjJsypSWOPN3N4i2elO4y+kue3n4UealB34fw6auQoLWcDxETLXXL/U8hqqhVrITa1MElu/kHF3bUooZj65MDg=="
            }
          },
          {
            "validator_address": "3E899BA36A93C7370347BD5FE85909F2ECD93F8C",
            "validator_index": "30",
            "height": "6757",
            "round": "1",
            "timestamp": "2018-07-30T16:55:55.84894749Z",
            "type": 2,
            "block_id": {
              "hash": "EE020925CD04161924601D777A6244AF6A0E05B3",
              "parts": {
                "total": "1",
                "hash": "85355D6FF2DE3D01E976A5D5016FC81F697393A4"
              }
            },
            "signature": {
              "type": "tendermint/SignatureEd25519",
              "value": "oJc2Kre2uB8r5YpWaKD+EnXiwCank9u7G9B77UPQ8WdC/bsHY+3ZONEJiO4d0txVNCDFHJIO2cbobAVIWuFIAg=="
            }
          },
          {
            "validator_address": "41CAB2E29E7D0F2282E3275938F188FF9386B84C",
            "validator_index": "31",
            "height": "6757",
            "round": "1",
            "timestamp": "2018-07-30T16:55:55.823026915Z",
            "type": 2,
            "block_id": {
              "hash": "EE020925CD04161924601D777A6244AF6A0E05B3",
              "parts": {
                "total": "1",
                "hash": "85355D6FF2DE3D01E976A5D5016FC81F697393A4"
              }
            },
            "signature": {
              "type": "tendermint/SignatureEd25519",
              "value": "L2W5gWHyiWWxeyRDSbUJFNGLIP0QXUSaRE2BDVte3/tZI4Y4aUq/ZiT5oMDF4cBjRwLzxeT80LaaS25WtyvdDQ=="
            }
          },
          {
            "validator_address": "462B656869DB02A8FD1077E255F8CC7401DC37C6",
            "validator_index": "32",
            "height": "6757",
            "round": "1",
            "timestamp": "2018-07-30T16:55:55.870173056Z",
            "type": 2,
            "block_id": {
              "hash": "EE020925CD04161924601D777A6244AF6A0E05B3",
              "parts": {
                "total": "1",
                "hash": "85355D6FF2DE3D01E976A5D5016FC81F697393A4"
              }
            },
            "signature": {
              "type": "tendermint/SignatureEd25519",
              "value": "Lhc6cxsXw2O/uogKBb3Wd9MHqeaz6qQqPAFAifB1kRJAwcQSihLPAsbkvZGzCV2AKdqV7WEPb0V7xZ/v8E5oCQ=="
            }
          },
          {
            "validator_address": "48E5118163E5442068A1B5A42D2EEDBB75724935",
            "validator_index": "33",
            "height": "6757",
            "round": "1",
            "timestamp": "2018-07-30T16:55:55.9864203Z",
            "type": 2,
            "block_id": {
              "hash": "EE020925CD04161924601D777A6244AF6A0E05B3",
              "parts": {
                "total": "1",
                "hash": "85355D6FF2DE3D01E976A5D5016FC81F697393A4"
              }
            },
            "signature": {
              "type": "tendermint/SignatureEd25519",
              "value": "4RDMGEHDg+DswKX/iXg9fdeigJxDkf84yqdbkaooU8quoEKaUZ+KCDfyMhMPeLwWJLTPsRLHWEVPVDEFcabGCg=="
            }
          },
          null,
          {
            "validator_address": "4944F8BBBB5303E17BC0607DF332320EDBC750EA",
            "validator_index": "35",
            "height": "6757",
            "round": "1",
            "timestamp": "2018-07-30T16:55:55.830693373Z",
            "type": 2,
            "block_id": {
              "hash": "EE020925CD04161924601D777A6244AF6A0E05B3",
              "parts": {
                "total": "1",
                "hash": "85355D6FF2DE3D01E976A5D5016FC81F697393A4"
              }
            },
            "signature": {
              "type": "tendermint/SignatureEd25519",
              "value": "8XOZH92h3BztZRo2xeqRWWXsQYqNJuWD04kDYEl+nrJ18IGPZKgw7UYNdmS8i/xMByPL+E4fAhW335ipXV5TBg=="
            }
          },
          {
            "validator_address": "49841599DE675157CBE1E7D6B35BF8FFC23BD5CB",
            "validator_index": "36",
            "height": "6757",
            "round": "1",
            "timestamp": "2018-07-30T16:55:55.808849523Z",
            "type": 2,
            "block_id": {
              "hash": "EE020925CD04161924601D777A6244AF6A0E05B3",
              "parts": {
                "total": "1",
                "hash": "85355D6FF2DE3D01E976A5D5016FC81F697393A4"
              }
            },
            "signature": {
              "type": "tendermint/SignatureEd25519",
              "value": "9CKP6363r4pB6/ciS8ajODe57xN5nOLpdu4WfdNFgawfYKja3wLnxzGLKBKgdP4AVdjI60tGgbe1AKnhM2RbCg=="
            }
          },
          {
            "validator_address": "5104F488EA6B1E2C33CBDA3C18389C88104DBC72",
            "validator_index": "37",
            "height": "6757",
            "round": "1",
            "timestamp": "2018-07-30T16:55:55.839299393Z",
            "type": 2,
            "block_id": {
              "hash": "EE020925CD04161924601D777A6244AF6A0E05B3",
              "parts": {
                "total": "1",
                "hash": "85355D6FF2DE3D01E976A5D5016FC81F697393A4"
              }
            },
            "signature": {
              "type": "tendermint/SignatureEd25519",
              "value": "ld0sAKZR5WwdlBam+TX2UNmxMNJ+/fqXkrNThph7uSWionttX4O/2iV8JgIJQXS71nDuBZOIOVYnpdHqoFcRAA=="
            }
          },
          {
            "validator_address": "51386C2CF9556821D114D7E4945806802BADB28D",
            "validator_index": "38",
            "height": "6757",
            "round": "1",
            "timestamp": "2018-07-30T16:55:55.8870097Z",
            "type": 2,
            "block_id": {
              "hash": "EE020925CD04161924601D777A6244AF6A0E05B3",
              "parts": {
                "total": "1",
                "hash": "85355D6FF2DE3D01E976A5D5016FC81F697393A4"
              }
            },
            "signature": {
              "type": "tendermint/SignatureEd25519",
              "value": "MwBkDiRV0TmaQKApRUhNboVmFpYrkPiN+gu74SOr0IXd32aqXffZaYf0QqbeK8excxWfrZ75WF4NX3m3SH/bBw=="
            }
          },
          {
            "validator_address": "543564ECA3AFEFADC73EE8591AAC3A96F079BC8A",
            "validator_index": "39",
            "height": "6757",
            "round": "1",
            "timestamp": "2018-07-30T16:55:55.847075077Z",
            "type": 2,
            "block_id": {
              "hash": "EE020925CD04161924601D777A6244AF6A0E05B3",
              "parts": {
                "total": "1",
                "hash": "85355D6FF2DE3D01E976A5D5016FC81F697393A4"
              }
            },
            "signature": {
              "type": "tendermint/SignatureEd25519",
              "value": "rOGWQGP6F4l2elPmGstvud32McqnpSZxylaZCYEUR2L0DexsS6Uq1/NPCTkjgD1vU0PuqoZLAfzQ8M581MFwDQ=="
            }
          },
          {
            "validator_address": "55D67B1A6DC13E96F8754A5A42EABC20F7F86664",
            "validator_index": "40",
            "height": "6757",
            "round": "1",
            "timestamp": "2018-07-30T16:55:55.800954533Z",
            "type": 2,
            "block_id": {
              "hash": "EE020925CD04161924601D777A6244AF6A0E05B3",
              "parts": {
                "total": "1",
                "hash": "85355D6FF2DE3D01E976A5D5016FC81F697393A4"
              }
            },
            "signature": {
              "type": "tendermint/SignatureEd25519",
              "value": "W8F8mdNjSKFh/fSiDI2ktWxNNGWCt9O3aatHAKav7o2UmSZZlm5wfDXpOh0rYcSQ1lxDC0DMUueZGR82PdNFDA=="
            }
          },
          {
            "validator_address": "570B6A755ED339EAC56BB3390A48069F6AC9449B",
            "validator_index": "41",
            "height": "6757",
            "round": "1",
            "timestamp": "2018-07-30T16:55:56.596261976Z",
            "type": 2,
            "block_id": {
              "hash": "EE020925CD04161924601D777A6244AF6A0E05B3",
              "parts": {
                "total": "1",
                "hash": "85355D6FF2DE3D01E976A5D5016FC81F697393A4"
              }
            },
            "signature": {
              "type": "tendermint/SignatureEd25519",
              "value": "SHHx7ACuuLzMU0pq9R5M0HGopYpabP2iSxzwFqDky0hXjm4LcNgtrIPbIkst+HqFTV9/Z05/Hg7hOg5avgx0Dg=="
            }
          },
          {
            "validator_address": "5BDF8EA41B1835FBAD865B181A2A4B23F511B5E4",
            "validator_index": "42",
            "height": "6757",
            "round": "1",
            "timestamp": "2018-07-30T16:55:55.832851937Z",
            "type": 2,
            "block_id": {
              "hash": "EE020925CD04161924601D777A6244AF6A0E05B3",
              "parts": {
                "total": "1",
                "hash": "85355D6FF2DE3D01E976A5D5016FC81F697393A4"
              }
            },
            "signature": {
              "type": "tendermint/SignatureEd25519",
              "value": "EtVd55qiN08h9BRuP8KAUWN35dmCJfA2HCj2Mb4zv2vF9C2GxVlhp4ykTnWMBSFacjMXe3BEO26VLwQf9FFPDg=="
            }
          },
          null,
          {
            "validator_address": "5E8673673E37450F01B64138FBF4B172BDB52D68",
            "validator_index": "44",
            "height": "6757",
            "round": "1",
            "timestamp": "2018-07-30T16:55:55.9485533Z",
            "type": 2,
            "block_id": {
              "hash": "EE020925CD04161924601D777A6244AF6A0E05B3",
              "parts": {
                "total": "1",
                "hash": "85355D6FF2DE3D01E976A5D5016FC81F697393A4"
              }
            },
            "signature": {
              "type": "tendermint/SignatureEd25519",
              "value": "wRgmIuEhg0APgHn0XCtoHk+BQ4xaaHmoUNDJonCwh5P4yQPcM1rIHQFcvhx24lciADe73TaU50CVa9OGFWzFAw=="
            }
          },
          {
            "validator_address": "60229E2E273297FE00219E46DFFB8F76844CDEF9",
            "validator_index": "45",
            "height": "6757",
            "round": "1",
            "timestamp": "2018-07-30T16:55:55.138931102Z",
            "type": 2,
            "block_id": {
              "hash": "EE020925CD04161924601D777A6244AF6A0E05B3",
              "parts": {
                "total": "1",
                "hash": "85355D6FF2DE3D01E976A5D5016FC81F697393A4"
              }
            },
            "signature": {
              "type": "tendermint/SignatureEd25519",
              "value": "a36Rjd/Ak08mGlGRGPYh5KAb6JOIhbRSNUI675tDz2GATrMOlkVkduye0xkHsuY19WvjG9+oz2gwtBOX+DagCw=="
            }
          },
          {
            "validator_address": "62410D6D1CD98278136E4D0738AA0EA273CDFC54",
            "validator_index": "46",
            "height": "6757",
            "round": "1",
            "timestamp": "2018-07-30T16:55:55.791792937Z",
            "type": 2,
            "block_id": {
              "hash": "EE020925CD04161924601D777A6244AF6A0E05B3",
              "parts": {
                "total": "1",
                "hash": "85355D6FF2DE3D01E976A5D5016FC81F697393A4"
              }
            },
            "signature": {
              "type": "tendermint/SignatureEd25519",
              "value": "b0aDvsjVGmGL/CxFj+AYHC4uaj3Kl7vHbCm1Gr/kTp3g9vLnTMoUMan6sCjOrU9UhYBH7kdNCtPzN8jB4wPODg=="
            }
          },
          {
            "validator_address": "632F5C139A5A9DFBFE5111DEE29FCFB6157207DC",
            "validator_index": "47",
            "height": "6757",
            "round": "1",
            "timestamp": "2018-07-30T16:55:55.844504781Z",
            "type": 2,
            "block_id": {
              "hash": "EE020925CD04161924601D777A6244AF6A0E05B3",
              "parts": {
                "total": "1",
                "hash": "85355D6FF2DE3D01E976A5D5016FC81F697393A4"
              }
            },
            "signature": {
              "type": "tendermint/SignatureEd25519",
              "value": "c6cKOdtAZ9f0/jNd4zUs8jSRSS3CLC6N4aKvBsStRDbWvoAwQ03OtIsWx98hUUAF54PO7CzkZSa/UI1M4iD2AQ=="
            }
          },
          {
            "validator_address": "64F57F8E796A9B7B590C1EFA4123988C86631D39",
            "validator_index": "48",
            "height": "6757",
            "round": "1",
            "timestamp": "2018-07-30T16:55:55.789245896Z",
            "type": 2,
            "block_id": {
              "hash": "EE020925CD04161924601D777A6244AF6A0E05B3",
              "parts": {
                "total": "1",
                "hash": "85355D6FF2DE3D01E976A5D5016FC81F697393A4"
              }
            },
            "signature": {
              "type": "tendermint/SignatureEd25519",
              "value": "C6icuvn+akuqxtzLIorAXubwDmK9p8nMmb6G7nxYmhymbKBLRe9UeFmos+nx+frN9sczn766dC4FkfxYrGrmCQ=="
            }
          },
          {
            "validator_address": "69D99B2C66043ACBEAA8447525C356AFC6408E0C",
            "validator_index": "49",
            "height": "6757",
            "round": "1",
            "timestamp": "2018-07-30T16:55:55.968340734Z",
            "type": 2,
            "block_id": {
              "hash": "EE020925CD04161924601D777A6244AF6A0E05B3",
              "parts": {
                "total": "1",
                "hash": "85355D6FF2DE3D01E976A5D5016FC81F697393A4"
              }
            },
            "signature": {
              "type": "tendermint/SignatureEd25519",
              "value": "NpJKp85+4SXclC1/pKegQoVJp+88y3aub13E1VIvZMPQd6YT200hGe7xAGrsDoLwDiKwq/bC0mpjPm4JWCGaAA=="
            }
          },
          {
            "validator_address": "69EDADFA4A803E9DBF548C900D4A465E7D154262",
            "validator_index": "50",
            "height": "6757",
            "round": "1",
            "timestamp": "2018-07-30T16:55:55.95041222Z",
            "type": 2,
            "block_id": {
              "hash": "EE020925CD04161924601D777A6244AF6A0E05B3",
              "parts": {
                "total": "1",
                "hash": "85355D6FF2DE3D01E976A5D5016FC81F697393A4"
              }
            },
            "signature": {
              "type": "tendermint/SignatureEd25519",
              "value": "htG6ud00go371CkZgmO0HpoAl9OFCyXJV7ABSsV3rNPVsl6QXx8iU05Lm+wE7FsR1B84vaPzpO5oUYjumQ6EBw=="
            }
          },
          {
            "validator_address": "6D3AD380E398D8592B03AA124BAFED5F125DF863",
            "validator_index": "51",
            "height": "6757",
            "round": "1",
            "timestamp": "2018-07-30T16:54:54.356066692Z",
            "type": 2,
            "block_id": {
              "hash": "EE020925CD04161924601D777A6244AF6A0E05B3",
              "parts": {
                "total": "1",
                "hash": "85355D6FF2DE3D01E976A5D5016FC81F697393A4"
              }
            },
            "signature": {
              "type": "tendermint/SignatureEd25519",
              "value": "/3msQL5/kasI4mK/awQDXHPsgejcZrNrCtHNpvyOZzu+eJBwn81vYxZ5z128PTUpi1/+xc6YICN/P9t4wbzhCQ=="
            }
          },
          {
            "validator_address": "6F6C93B8BF3495063FEC9B5C771158607F4AE9D6",
            "validator_index": "52",
            "height": "6757",
            "round": "1",
            "timestamp": "2018-07-30T16:55:55.880055494Z",
            "type": 2,
            "block_id": {
              "hash": "EE020925CD04161924601D777A6244AF6A0E05B3",
              "parts": {
                "total": "1",
                "hash": "85355D6FF2DE3D01E976A5D5016FC81F697393A4"
              }
            },
            "signature": {
              "type": "tendermint/SignatureEd25519",
              "value": "IoZawjW0MDxQtxlkP8zcJVW5wOW5kRhdxxeffcIocxP+dcjs2NSrc62jdY/cv+ex/L3AHHHyNLwWX2jKLGbfBA=="
            }
          },
          {
            "validator_address": "732CEEF54C374DDC6ADECBFD707AEFD07FEDC143",
            "validator_index": "53",
            "height": "6757",
            "round": "1",
            "timestamp": "2018-07-30T16:55:55.975764027Z",
            "type": 2,
            "block_id": {
              "hash": "EE020925CD04161924601D777A6244AF6A0E05B3",
              "parts": {
                "total": "1",
                "hash": "85355D6FF2DE3D01E976A5D5016FC81F697393A4"
              }
            },
            "signature": {
              "type": "tendermint/SignatureEd25519",
              "value": "zUS4Q3LCCQhbOErdmS1mCU1Bp4zeM4dLQKrO7ie+Cn+R7lj9RXGVH8C7BCrjiCfGHjPff4Ee2QNJYiUVTCuaDQ=="
            }
          },
          {
            "validator_address": "7393D691BFAE9661918C09932D4D9060AB40939B",
            "validator_index": "54",
            "height": "6757",
            "round": "1",
            "timestamp": "2018-07-30T16:55:56.031090085Z",
            "type": 2,
            "block_id": {
              "hash": "EE020925CD04161924601D777A6244AF6A0E05B3",
              "parts": {
                "total": "1",
                "hash": "85355D6FF2DE3D01E976A5D5016FC81F697393A4"
              }
            },
            "signature": {
              "type": "tendermint/SignatureEd25519",
              "value": "uBeTQoQpxZWZuLF6xm3fq62eiH6zVylme4oFyexAdMMl+ZItShAq1tWdDFoekbiCPfHoP+HYpS518w3Cu9biCA=="
            }
          },
          {
            "validator_address": "751E43437224E8BB6D1569B3E2B2616B6E7F4397",
            "validator_index": "55",
            "height": "6757",
            "round": "1",
            "timestamp": "2018-07-30T16:55:55.870581495Z",
            "type": 2,
            "block_id": {
              "hash": "EE020925CD04161924601D777A6244AF6A0E05B3",
              "parts": {
                "total": "1",
                "hash": "85355D6FF2DE3D01E976A5D5016FC81F697393A4"
              }
            },
            "signature": {
              "type": "tendermint/SignatureEd25519",
              "value": "M/GJ5mgA968rW9VzJQjtbnplf5vMY5wqWPSW0oIfFSsE93G4Kj5M9G/9E3z73thNFr8OJXVcxPEgcIWcS2SPCw=="
            }
          },
          {
            "validator_address": "7EB7593F519F1180C7E872D0494611464EDF03AE",
            "validator_index": "56",
            "height": "6757",
            "round": "1",
            "timestamp": "2018-07-30T16:55:55.911365776Z",
            "type": 2,
            "block_id": {
              "hash": "EE020925CD04161924601D777A6244AF6A0E05B3",
              "parts": {
                "total": "1",
                "hash": "85355D6FF2DE3D01E976A5D5016FC81F697393A4"
              }
            },
            "signature": {
              "type": "tendermint/SignatureEd25519",
              "value": "v4r+bvlnKGerJgddgc5of8KTLc0D7Oyy3GcDg709GGh8RDdGaUKuImPiAsirvTFIWpf0Xi+jpL3iu51VxZCyBw=="
            }
          },
          {
            "validator_address": "807CF675BA8479FC4FEC1047215DF07970040F1F",
            "validator_index": "57",
            "height": "6757",
            "round": "1",
            "timestamp": "2018-07-30T16:55:56.012189918Z",
            "type": 2,
            "block_id": {
              "hash": "EE020925CD04161924601D777A6244AF6A0E05B3",
              "parts": {
                "total": "1",
                "hash": "85355D6FF2DE3D01E976A5D5016FC81F697393A4"
              }
            },
            "signature": {
              "type": "tendermint/SignatureEd25519",
              "value": "7Sno0cKLWAewMffPjNxid96NoLhdAFEcHbi2LrOWFO0lZXw1yX9T+GjMxf21ka5oXRnXncuP1xsUZBZUAFaQCw=="
            }
          },
          {
            "validator_address": "8126192EA66E8ADE6B36924534721366B987A4C1",
            "validator_index": "58",
            "height": "6757",
            "round": "1",
            "timestamp": "2018-07-30T16:55:55.839959853Z",
            "type": 2,
            "block_id": {
              "hash": "EE020925CD04161924601D777A6244AF6A0E05B3",
              "parts": {
                "total": "1",
                "hash": "85355D6FF2DE3D01E976A5D5016FC81F697393A4"
              }
            },
            "signature": {
              "type": "tendermint/SignatureEd25519",
              "value": "6p4SD9vd7NGfgjHx7xM98REhhEoIpwBCSFLleDoro58fwx13a0nBGlMbqy5tcw3GXBZt9bw03aiH9RMthnHsAA=="
            }
          },
          null,
          {
            "validator_address": "83AB321E012C57746689FED3A6064DF331F81007",
            "validator_index": "60",
            "height": "6757",
            "round": "1",
            "timestamp": "2018-07-30T16:55:55.818694981Z",
            "type": 2,
            "block_id": {
              "hash": "EE020925CD04161924601D777A6244AF6A0E05B3",
              "parts": {
                "total": "1",
                "hash": "85355D6FF2DE3D01E976A5D5016FC81F697393A4"
              }
            },
            "signature": {
              "type": "tendermint/SignatureEd25519",
              "value": "d3W92bTXElUaBcjM0uxuB+Plo1vUQeYNFRCrBQiocc0jiAS56Z7lDMMEKME7UbUSotfSc5OpE3PDX6rw5g1VCA=="
            }
          },
          {
            "validator_address": "83BB1B88D3DBB20AD845FECA07749EBD87D3754D",
            "validator_index": "61",
            "height": "6757",
            "round": "1",
            "timestamp": "2018-07-30T16:55:56.098577099Z",
            "type": 2,
            "block_id": {
              "hash": "EE020925CD04161924601D777A6244AF6A0E05B3",
              "parts": {
                "total": "1",
                "hash": "85355D6FF2DE3D01E976A5D5016FC81F697393A4"
              }
            },
            "signature": {
              "type": "tendermint/SignatureEd25519",
              "value": "O6M9qcSrm2Svgl2fCCyewci/KBoaR96f1Th8pFMcqGClTTqJNRwf7UU8e90PV2c60PbePfiOpE531kKjfD7yCw=="
            }
          },
          null,
          null,
          {
            "validator_address": "8F45617BF45B10A3F8283DEBDB35E38C7CA43237",
            "validator_index": "64",
            "height": "6757",
            "round": "1",
            "timestamp": "2018-07-30T16:55:55.909313887Z",
            "type": 2,
            "block_id": {
              "hash": "EE020925CD04161924601D777A6244AF6A0E05B3",
              "parts": {
                "total": "1",
                "hash": "85355D6FF2DE3D01E976A5D5016FC81F697393A4"
              }
            },
            "signature": {
              "type": "tendermint/SignatureEd25519",
              "value": "O/yvCszY+ST8p/hjTWhMYhZ9HX+sxdqVcNUo/UZCAuflNs7Q+lp62mPGxfhh66G9RvZbbgZF5UVO5qZ2Ifx6AA=="
            }
          },
          null,
          {
            "validator_address": "95980831E186F2540F6E9FB6C8E74DE2401405AC",
            "validator_index": "66",
            "height": "6757",
            "round": "1",
            "timestamp": "2018-07-30T16:55:55.920380483Z",
            "type": 2,
            "block_id": {
              "hash": "EE020925CD04161924601D777A6244AF6A0E05B3",
              "parts": {
                "total": "1",
                "hash": "85355D6FF2DE3D01E976A5D5016FC81F697393A4"
              }
            },
            "signature": {
              "type": "tendermint/SignatureEd25519",
              "value": "UwE/QJAZNMLpmTVhmHvMwzydbFThf2SUbwibp8hQLZSa30zv+fcbvPnhqS2B8kHnxdpuWpSPqNUmEovp4O6cBQ=="
            }
          },
          {
            "validator_address": "95FAFBC1E0579C83D290A063020CE87C5334BD9B",
            "validator_index": "67",
            "height": "6757",
            "round": "1",
            "timestamp": "2018-07-30T16:55:55.886447173Z",
            "type": 2,
            "block_id": {
              "hash": "EE020925CD04161924601D777A6244AF6A0E05B3",
              "parts": {
                "total": "1",
                "hash": "85355D6FF2DE3D01E976A5D5016FC81F697393A4"
              }
            },
            "signature": {
              "type": "tendermint/SignatureEd25519",
              "value": "0IGuoOhGDDp6mySVkbvLDK5aAfEgMs38bKUIuPIBuLXClW6pUJy57DO83JBDHNL5TNXPPHs/vwmqf5Lmap1FAg=="
            }
          },
          {
            "validator_address": "96BDE45EC52606CF5CB59853097871AD60680549",
            "validator_index": "68",
            "height": "6757",
            "round": "1",
            "timestamp": "2018-07-30T16:55:55.854020625Z",
            "type": 2,
            "block_id": {
              "hash": "EE020925CD04161924601D777A6244AF6A0E05B3",
              "parts": {
                "total": "1",
                "hash": "85355D6FF2DE3D01E976A5D5016FC81F697393A4"
              }
            },
            "signature": {
              "type": "tendermint/SignatureEd25519",
              "value": "vKwyPp2OruA0ueMrdDVo+AMuzESvoTrNmpC9xjHe3DtE7veZK00c97qtiuaYgMdX2S11AESLjkhDXo2UFl6DCg=="
            }
          },
          {
            "validator_address": "970CD321881185BF83DB2923C321B0E75FDBB2B8",
            "validator_index": "69",
            "height": "6757",
            "round": "1",
            "timestamp": "2018-07-30T16:55:55.915085427Z",
            "type": 2,
            "block_id": {
              "hash": "EE020925CD04161924601D777A6244AF6A0E05B3",
              "parts": {
                "total": "1",
                "hash": "85355D6FF2DE3D01E976A5D5016FC81F697393A4"
              }
            },
            "signature": {
              "type": "tendermint/SignatureEd25519",
              "value": "3papcO/pq/P3wX0/CVHQSHwGxTu3ZN5ICVktJKVzyqFYm03zXcLontao/rtf1v7dPWyISKguUdaJ3FxZUrS0Bw=="
            }
          },
          null,
          {
            "validator_address": "9C29C9B76D27586E4D9AD2AED0E943162645E55C",
            "validator_index": "71",
            "height": "6757",
            "round": "1",
            "timestamp": "2018-07-30T16:55:55.763967221Z",
            "type": 2,
            "block_id": {
              "hash": "EE020925CD04161924601D777A6244AF6A0E05B3",
              "parts": {
                "total": "1",
                "hash": "85355D6FF2DE3D01E976A5D5016FC81F697393A4"
              }
            },
            "signature": {
              "type": "tendermint/SignatureEd25519",
              "value": "rzjRnvHIY2jJuEDHn3M7mVx0GbvVD56A2u+KXjcW2CZsSMiMc+0DNpJJ8jHa5EBJv5ClDOVG3Kold5ehIIv6BQ=="
            }
          },
          {
            "validator_address": "9D93AD02FE1BD7E76B9E58D7EB461088EAD011E5",
            "validator_index": "72",
            "height": "6757",
            "round": "1",
            "timestamp": "2018-07-30T16:55:55.826790488Z",
            "type": 2,
            "block_id": {
              "hash": "EE020925CD04161924601D777A6244AF6A0E05B3",
              "parts": {
                "total": "1",
                "hash": "85355D6FF2DE3D01E976A5D5016FC81F697393A4"
              }
            },
            "signature": {
              "type": "tendermint/SignatureEd25519",
              "value": "xRhKeJJ+JQrhmybtvdljfn6QhUdtWu6zVIt8CwtcLwkR+7RZ7vhxUXUH+tdk5qdRwC/0VqTl0sQyMvFEKTxLAw=="
            }
          },
          null,
          {
            "validator_address": "A0A6466F4ABEA09C3B55E3709AFDE217A103209F",
            "validator_index": "74",
            "height": "6757",
            "round": "1",
            "timestamp": "2018-07-30T16:55:55.781649749Z",
            "type": 2,
            "block_id": {
              "hash": "EE020925CD04161924601D777A6244AF6A0E05B3",
              "parts": {
                "total": "1",
                "hash": "85355D6FF2DE3D01E976A5D5016FC81F697393A4"
              }
            },
            "signature": {
              "type": "tendermint/SignatureEd25519",
              "value": "Bo5IaneNuVxFx5gShAoogXTc/lzK81E+dsR/t7yV3SHSvSIWdE2FQ9ETiVA2EMqgjQvIVLmU7nHHafSVc3X/Cw=="
            }
          },
          {
            "validator_address": "A5868971300F155020634D7BB49C7634F7AACCD3",
            "validator_index": "75",
            "height": "6757",
            "round": "1",
            "timestamp": "2018-07-30T16:55:55.84829581Z",
            "type": 2,
            "block_id": {
              "hash": "EE020925CD04161924601D777A6244AF6A0E05B3",
              "parts": {
                "total": "1",
                "hash": "85355D6FF2DE3D01E976A5D5016FC81F697393A4"
              }
            },
            "signature": {
              "type": "tendermint/SignatureEd25519",
              "value": "HatFUxbbLYs1OQWMJ7JOHRLi5dfu8queacQRD45fPhiSJvYP4HEhGzpALT8DAUojmPRQ7G1BwU78k/X56bs9BA=="
            }
          },
          {
            "validator_address": "A6B3A5B5D982CFD7B5FDFA15CF5A720E7AE25E7F",
            "validator_index": "76",
            "height": "6757",
            "round": "1",
            "timestamp": "2018-07-30T16:55:55.802571285Z",
            "type": 2,
            "block_id": {
              "hash": "EE020925CD04161924601D777A6244AF6A0E05B3",
              "parts": {
                "total": "1",
                "hash": "85355D6FF2DE3D01E976A5D5016FC81F697393A4"
              }
            },
            "signature": {
              "type": "tendermint/SignatureEd25519",
              "value": "cj/lBB4/TRGtBWZiETYaoSky+zXem6DkIaI01CJHqwbvSjGSCv20OOxdfLZ5cqctM4iTaDm1WsqEKQ9J77hsBw=="
            }
          },
          {
            "validator_address": "AC96444A9083890B7C7B430DB17BF1D3EA5EED04",
            "validator_index": "77",
            "height": "6757",
            "round": "1",
            "timestamp": "2018-07-30T16:55:55.925465313Z",
            "type": 2,
            "block_id": {
              "hash": "EE020925CD04161924601D777A6244AF6A0E05B3",
              "parts": {
                "total": "1",
                "hash": "85355D6FF2DE3D01E976A5D5016FC81F697393A4"
              }
            },
            "signature": {
              "type": "tendermint/SignatureEd25519",
              "value": "9TMglB+8ePAt2gmq04dyDyGQtuIpN61wHoSCJPtkL0IR+EeRVR99xVPnxNWK+5FgMyMC7MfZR1VtTwD2wZGZAg=="
            }
          },
          {
            "validator_address": "ACB97FDA2D940AF0709B73537C458EB988AD2893",
            "validator_index": "78",
            "height": "6757",
            "round": "1",
            "timestamp": "2018-07-30T16:55:55.824164985Z",
            "type": 2,
            "block_id": {
              "hash": "EE020925CD04161924601D777A6244AF6A0E05B3",
              "parts": {
                "total": "1",
                "hash": "85355D6FF2DE3D01E976A5D5016FC81F697393A4"
              }
            },
            "signature": {
              "type": "tendermint/SignatureEd25519",
              "value": "ySOreS56exDR2h9EeClmVw4ok4laU/sCd4JBtWwN8IU+xvEIvvEKUBC8tuJ1k7ua6m2jjAaJh7F4lHoeym6bBw=="
            }
          },
          {
            "validator_address": "B197425B3210375F211661DE02EF2AE36580EB0F",
            "validator_index": "79",
            "height": "6757",
            "round": "1",
            "timestamp": "2018-07-30T16:55:55.87228864Z",
            "type": 2,
            "block_id": {
              "hash": "EE020925CD04161924601D777A6244AF6A0E05B3",
              "parts": {
                "total": "1",
                "hash": "85355D6FF2DE3D01E976A5D5016FC81F697393A4"
              }
            },
            "signature": {
              "type": "tendermint/SignatureEd25519",
              "value": "8bFR4RNhc+UQjJuP9o3zAmNtnfSNPFkBRK3L4cmKYKGbmfii5j4h0+UY1HOQmfApCdAPOI8HgFYkK+I6Uw4DCg=="
            }
          },
          {
            "validator_address": "B45E54D2D1CB5A4CCD1D49016608C18E7C56B270",
            "validator_index": "80",
            "height": "6757",
            "round": "1",
            "timestamp": "2018-07-30T16:55:55.962770148Z",
            "type": 2,
            "block_id": {
              "hash": "EE020925CD04161924601D777A6244AF6A0E05B3",
              "parts": {
                "total": "1",
                "hash": "85355D6FF2DE3D01E976A5D5016FC81F697393A4"
              }
            },
            "signature": {
              "type": "tendermint/SignatureEd25519",
              "value": "SDCckb6CcAVQMi2ULwqFCv3ghF7trOTNRlXFQdk2lZwWrgcioGPcmPLVNrTvPKyCO2kgkOtNES/LsPNuvCYiAw=="
            }
          },
          {
            "validator_address": "B59A34C0BE4EC73AF6A67D274F1695C9259C237C",
            "validator_index": "81",
            "height": "6757",
            "round": "1",
            "timestamp": "2018-07-30T16:55:56.001690504Z",
            "type": 2,
            "block_id": {
              "hash": "EE020925CD04161924601D777A6244AF6A0E05B3",
              "parts": {
                "total": "1",
                "hash": "85355D6FF2DE3D01E976A5D5016FC81F697393A4"
              }
            },
            "signature": {
              "type": "tendermint/SignatureEd25519",
              "value": "kbz/+NBy89uA+hZqWS1fncmeLES/t0b6sVW2XV88sllDuDN8dFDg+Gk9n62fd2lyYREQ119rU7cW2O1aa7oYAA=="
            }
          },
          {
            "validator_address": "BC36FEDD6EF6071118A3E51859DF3831A2EC4782",
            "validator_index": "82",
            "height": "6757",
            "round": "1",
            "timestamp": "2018-07-30T16:55:55.841035266Z",
            "type": 2,
            "block_id": {
              "hash": "EE020925CD04161924601D777A6244AF6A0E05B3",
              "parts": {
                "total": "1",
                "hash": "85355D6FF2DE3D01E976A5D5016FC81F697393A4"
              }
            },
            "signature": {
              "type": "tendermint/SignatureEd25519",
              "value": "g820CiMT8yKIfjx/z51zkQCJT8XUP39GmCgr87MijQbquOCwLcETHqxKW3eDVlu2kJBY1qkU+x6kHnw8CcG8Dw=="
            }
          },
          {
            "validator_address": "BD9D0DA513BF099DB4BB6E725A4E19832789882F",
            "validator_index": "83",
            "height": "6757",
            "round": "1",
            "timestamp": "2018-07-30T16:55:55.864599824Z",
            "type": 2,
            "block_id": {
              "hash": "EE020925CD04161924601D777A6244AF6A0E05B3",
              "parts": {
                "total": "1",
                "hash": "85355D6FF2DE3D01E976A5D5016FC81F697393A4"
              }
            },
            "signature": {
              "type": "tendermint/SignatureEd25519",
              "value": "Brj9UxsG1pUKVJ+hbw0x5Km92/ZIlsSafxPvCMEO0AgSntnbp+Bzc4SIrNmEDnBev4sAv3Sx3klb6rP5vqL6Aw=="
            }
          },
          {
            "validator_address": "C1134A2FF8F7338E7CDB3FE57DDD2A655DEB1E22",
            "validator_index": "84",
            "height": "6757",
            "round": "1",
            "timestamp": "2018-07-30T16:55:55.825384119Z",
            "type": 2,
            "block_id": {
              "hash": "EE020925CD04161924601D777A6244AF6A0E05B3",
              "parts": {
                "total": "1",
                "hash": "85355D6FF2DE3D01E976A5D5016FC81F697393A4"
              }
            },
            "signature": {
              "type": "tendermint/SignatureEd25519",
              "value": "RENJIEO1Lx/u/AQd5lEMhuMvMJXF8mAvP7KRpmAXbXLPfX6Z4RTa79EESnDdGVh2BROcy5xSsVpd9XI5rtIdCg=="
            }
          },
          {
            "validator_address": "C39A8A2B85198DCB8F23AD1F6C198E2BA7AB5D60",
            "validator_index": "85",
            "height": "6757",
            "round": "1",
            "timestamp": "2018-07-30T16:55:55.770125525Z",
            "type": 2,
            "block_id": {
              "hash": "EE020925CD04161924601D777A6244AF6A0E05B3",
              "parts": {
                "total": "1",
                "hash": "85355D6FF2DE3D01E976A5D5016FC81F697393A4"
              }
            },
            "signature": {
              "type": "tendermint/SignatureEd25519",
              "value": "m/32co/B1LrWger9+EhA41vCXkrCdgHiy3j17/W/rGUnwmRYABV1+rECe7z0iVHoH9yQyPnx7OEJLVhrES8XAQ=="
            }
          },
          {
            "validator_address": "C4335190C3B5BD4BA5568BC0F99C34162D940D08",
            "validator_index": "86",
            "height": "6757",
            "round": "1",
            "timestamp": "2018-07-30T16:55:55.879831979Z",
            "type": 2,
            "block_id": {
              "hash": "EE020925CD04161924601D777A6244AF6A0E05B3",
              "parts": {
                "total": "1",
                "hash": "85355D6FF2DE3D01E976A5D5016FC81F697393A4"
              }
            },
            "signature": {
              "type": "tendermint/SignatureEd25519",
              "value": "Iy70w9V/PQDlhbqRb99KJ0wqKXWahdVhYdI+23RTNaNKgyOseODgET9CfV9BWJv/0ji45ocL8sMVaaKZom4HAQ=="
            }
          },
          {
            "validator_address": "C561CFA081677046376396922E7576E5F7B316AD",
            "validator_index": "87",
            "height": "6757",
            "round": "1",
            "timestamp": "2018-07-30T16:55:55.923631199Z",
            "type": 2,
            "block_id": {
              "hash": "EE020925CD04161924601D777A6244AF6A0E05B3",
              "parts": {
                "total": "1",
                "hash": "85355D6FF2DE3D01E976A5D5016FC81F697393A4"
              }
            },
            "signature": {
              "type": "tendermint/SignatureEd25519",
              "value": "qelZ7BWdqCoJVHR/4ZAZR0bq7MeexJ+aTHpWS5v+gG0vbD6035uuupqlJvTRQEkOmBxKLax4CAjzVF9l85LQDg=="
            }
          },
          {
            "validator_address": "CEB97DB5CB18270247ABDE6CF2F84F9AEE8A2904",
            "validator_index": "88",
            "height": "6757",
            "round": "1",
            "timestamp": "2018-07-30T16:55:55.601387495Z",
            "type": 2,
            "block_id": {
              "hash": "EE020925CD04161924601D777A6244AF6A0E05B3",
              "parts": {
                "total": "1",
                "hash": "85355D6FF2DE3D01E976A5D5016FC81F697393A4"
              }
            },
            "signature": {
              "type": "tendermint/SignatureEd25519",
              "value": "Xy2Y3YXQt254WrZlfkiOIJmkc3Q+cXZ3GAaxGYUavzSzHc085Hqe1k5NmICzJz3xyNh0EndX2j71JvHWChFiDQ=="
            }
          },
          {
            "validator_address": "CF205769734F5758CC39F907EFB73D6BAF915FB1",
            "validator_index": "89",
            "height": "6757",
            "round": "1",
            "timestamp": "2018-07-30T16:55:55.925071393Z",
            "type": 2,
            "block_id": {
              "hash": "EE020925CD04161924601D777A6244AF6A0E05B3",
              "parts": {
                "total": "1",
                "hash": "85355D6FF2DE3D01E976A5D5016FC81F697393A4"
              }
            },
            "signature": {
              "type": "tendermint/SignatureEd25519",
              "value": "VujKUBG7c5Op5UkiKlhT5+6ftFXOC7/lc7oAThAt2qfmSJSy13bN1bOiaWf03P3anKmpAyxSUYgf9LBUQF3fCA=="
            }
          },
          {
            "validator_address": "D2134B826A1E25A955905CB79A4D8731CAFA0CCE",
            "validator_index": "90",
            "height": "6757",
            "round": "1",
            "timestamp": "2018-07-30T16:55:56.035775911Z",
            "type": 2,
            "block_id": {
              "hash": "EE020925CD04161924601D777A6244AF6A0E05B3",
              "parts": {
                "total": "1",
                "hash": "85355D6FF2DE3D01E976A5D5016FC81F697393A4"
              }
            },
            "signature": {
              "type": "tendermint/SignatureEd25519",
              "value": "jmfVPrdOX7nI9dlmlQev/R/iw8shr0q7eJbViHVkyHaGk7AxBxWywMN+QutFqPjDxCNUD2qiCO7/3C9bpExFDw=="
            }
          },
          null,
          {
            "validator_address": "D6285C3422C8886445D53757CBE12D2B91B5A9D0",
            "validator_index": "92",
            "height": "6757",
            "round": "1",
            "timestamp": "2018-07-30T16:55:38.134521456Z",
            "type": 2,
            "block_id": {
              "hash": "EE020925CD04161924601D777A6244AF6A0E05B3",
              "parts": {
                "total": "1",
                "hash": "85355D6FF2DE3D01E976A5D5016FC81F697393A4"
              }
            },
            "signature": {
              "type": "tendermint/SignatureEd25519",
              "value": "3cWVZPds6/5XuEdKiQr9Tp4FOqFsojB6BUBQvDfEwZmZnarqAoPbadkOiAd8HWjR+DEuxyW9NbbY8/VvBojhAA=="
            }
          },
          null,
          null,
          {
            "validator_address": "DB7E6732471D3EA5C90C17A9974D9F88AB45F2FB",
            "validator_index": "95",
            "height": "6757",
            "round": "1",
            "timestamp": "2018-07-30T16:55:55.842708919Z",
            "type": 2,
            "block_id": {
              "hash": "EE020925CD04161924601D777A6244AF6A0E05B3",
              "parts": {
                "total": "1",
                "hash": "85355D6FF2DE3D01E976A5D5016FC81F697393A4"
              }
            },
            "signature": {
              "type": "tendermint/SignatureEd25519",
              "value": "2pTottMcrxKXY5N4pbs/lsrVBoBd3+q/IoWw5cfhwdNkL+lHq/M+wI+c3IlIz9lLZ9Onq5nmm5tdos8GUFMqBw=="
            }
          },
          {
            "validator_address": "DF54B862410BCD9B5C516FBB6C56BDC826ED6FA7",
            "validator_index": "96",
            "height": "6757",
            "round": "1",
            "timestamp": "2018-07-30T16:55:55.986119712Z",
            "type": 2,
            "block_id": {
              "hash": "EE020925CD04161924601D777A6244AF6A0E05B3",
              "parts": {
                "total": "1",
                "hash": "85355D6FF2DE3D01E976A5D5016FC81F697393A4"
              }
            },
            "signature": {
              "type": "tendermint/SignatureEd25519",
              "value": "fcWS5CEQNHW9MFpz/WMRe6RPLkUnnvPXBuiyAiP32xF62kuM0jcGKS6ok93A0xQNrCz1peEnX0qSYMemrXEIDw=="
            }
          },
          {
            "validator_address": "DFAF0C8B1B78D6D552B0189DE3ACA351439A1319",
            "validator_index": "97",
            "height": "6757",
            "round": "1",
            "timestamp": "2018-07-30T16:55:55.846632722Z",
            "type": 2,
            "block_id": {
              "hash": "EE020925CD04161924601D777A6244AF6A0E05B3",
              "parts": {
                "total": "1",
                "hash": "85355D6FF2DE3D01E976A5D5016FC81F697393A4"
              }
            },
            "signature": {
              "type": "tendermint/SignatureEd25519",
              "value": "tTvn6qlC38y0DzIv6r6uokGNYaxFxSwwJaOXlouV/1uqtOgcRuMp59D/JRUWsx9fXjfn1fzxXIG9yAG2gFBdDw=="
            }
          },
          {
            "validator_address": "E1DBC77881161A5A3A8536A57536EAE546A75D69",
            "validator_index": "98",
            "height": "6757",
            "round": "1",
            "timestamp": "2018-07-30T16:55:55.845101196Z",
            "type": 2,
            "block_id": {
              "hash": "EE020925CD04161924601D777A6244AF6A0E05B3",
              "parts": {
                "total": "1",
                "hash": "85355D6FF2DE3D01E976A5D5016FC81F697393A4"
              }
            },
            "signature": {
              "type": "tendermint/SignatureEd25519",
              "value": "tiC5k42ehaT/kSaAiOnY0ptW58B27QRW+OWxW7SRCXkBe2VkO3j0v3//4hIgwOOaJWI/T1N1cpdCbwwIO1a/BQ=="
            }
          },
          {
            "validator_address": "E300E9D484374C1D3E97C1D93CAC3B160A056298",
            "validator_index": "99",
            "height": "6757",
            "round": "1",
            "timestamp": "2018-07-30T16:55:56.042638249Z",
            "type": 2,
            "block_id": {
              "hash": "EE020925CD04161924601D777A6244AF6A0E05B3",
              "parts": {
                "total": "1",
                "hash": "85355D6FF2DE3D01E976A5D5016FC81F697393A4"
              }
            },
            "signature": {
              "type": "tendermint/SignatureEd25519",
              "value": "i0VNdIkNTYOVQ31FcrHsUW0sE8+Bi7qAw6W4xo7J090fi0Z3Y7e+1Ha2/T6PAJTEdFICrSghpcXwrEVjtW19DQ=="
            }
          },
          {
            "validator_address": "E39B5778E0D4297A46F45CF6940B0A163A430FF8",
            "validator_index": "100",
            "height": "6757",
            "round": "1",
            "timestamp": "2018-07-30T16:55:55.862839246Z",
            "type": 2,
            "block_id": {
              "hash": "EE020925CD04161924601D777A6244AF6A0E05B3",
              "parts": {
                "total": "1",
                "hash": "85355D6FF2DE3D01E976A5D5016FC81F697393A4"
              }
            },
            "signature": {
              "type": "tendermint/SignatureEd25519",
              "value": "rXdo9w++TAvaSuVVNXCPx23V9ZLutDSxkoLdZvLj1E/f5U0hSqQeeS5YLCxpLYZlMj0As2doLslI155P08M1Aw=="
            }
          },
          {
            "validator_address": "E3B19738F7132F950668504D326C7660F159D170",
            "validator_index": "101",
            "height": "6757",
            "round": "1",
            "timestamp": "2018-07-30T16:55:55.882900708Z",
            "type": 2,
            "block_id": {
              "hash": "EE020925CD04161924601D777A6244AF6A0E05B3",
              "parts": {
                "total": "1",
                "hash": "85355D6FF2DE3D01E976A5D5016FC81F697393A4"
              }
            },
            "signature": {
              "type": "tendermint/SignatureEd25519",
              "value": "s69R6z841TiQG1Vm0rouy9g519VZ6Vd6/vwBY2YTpCcLwbf+M0lYAG0+ZEr0O4Ctduj+ZnxEf74tp0wbKfJsBw=="
            }
          },
          {
            "validator_address": "E42F8AEABB685219F7027F54D2B0DBC7846F633A",
            "validator_index": "102",
            "height": "6757",
            "round": "1",
            "timestamp": "2018-07-30T16:55:55.20155353Z",
            "type": 2,
            "block_id": {
              "hash": "EE020925CD04161924601D777A6244AF6A0E05B3",
              "parts": {
                "total": "1",
                "hash": "85355D6FF2DE3D01E976A5D5016FC81F697393A4"
              }
            },
            "signature": {
              "type": "tendermint/SignatureEd25519",
              "value": "gl8xNKfjLb+IeBaT1890e4cCpdXBX80GqXUMJfmLyy2oc0PATdxCyiqraN3KdXOnjxkiOX7GKBPn9+RLAzXEAw=="
            }
          },
          {
            "validator_address": "E4E6C2E81269DFFA196C17F98240E491479A6008",
            "validator_index": "103",
            "height": "6757",
            "round": "1",
            "timestamp": "2018-07-30T16:55:55.923792703Z",
            "type": 2,
            "block_id": {
              "hash": "EE020925CD04161924601D777A6244AF6A0E05B3",
              "parts": {
                "total": "1",
                "hash": "85355D6FF2DE3D01E976A5D5016FC81F697393A4"
              }
            },
            "signature": {
              "type": "tendermint/SignatureEd25519",
              "value": "G2G5DU0/sX482o4j3eAm9NZg+h7R4A1sqO92qXQaEqChXEWWVKYCZXXLvN3ph3X6pOKhiCfYl2pRRfZ7x4PkAw=="
            }
          },
          null,
          null,
          {
            "validator_address": "E7A30077D5D11867D3EAF99ED45BFDC1EB834509",
            "validator_index": "106",
            "height": "6757",
            "round": "1",
            "timestamp": "2018-07-30T16:55:55.869258302Z",
            "type": 2,
            "block_id": {
              "hash": "EE020925CD04161924601D777A6244AF6A0E05B3",
              "parts": {
                "total": "1",
                "hash": "85355D6FF2DE3D01E976A5D5016FC81F697393A4"
              }
            },
            "signature": {
              "type": "tendermint/SignatureEd25519",
              "value": "I4EYqjkgrCBMqcmxomRlw0m/qUoIuZd6LKwwRBSJuIR8BDQgOzgeXeHMywBgMeUPmKpqYgSwgo5msXV4QhawCQ=="
            }
          },
          {
            "validator_address": "EBC613967F66F4EC306852CDF58B4F151CF16738",
            "validator_index": "107",
            "height": "6757",
            "round": "1",
            "timestamp": "2018-07-30T16:55:55.994912481Z",
            "type": 2,
            "block_id": {
              "hash": "EE020925CD04161924601D777A6244AF6A0E05B3",
              "parts": {
                "total": "1",
                "hash": "85355D6FF2DE3D01E976A5D5016FC81F697393A4"
              }
            },
            "signature": {
              "type": "tendermint/SignatureEd25519",
              "value": "xqp+8/g3Nf2kWN3Irqr9S003JeFx0wiRWoDibbAQc6HLXCkMd4svHQBQykWbbtxDeQ7VGPmky+ykT24Pdk50BQ=="
            }
          },
          {
            "validator_address": "EC3401441726C40ECC7E51F744483B05BC6DE9BD",
            "validator_index": "108",
            "height": "6757",
            "round": "1",
            "timestamp": "2018-07-30T16:55:55.874102545Z",
            "type": 2,
            "block_id": {
              "hash": "EE020925CD04161924601D777A6244AF6A0E05B3",
              "parts": {
                "total": "1",
                "hash": "85355D6FF2DE3D01E976A5D5016FC81F697393A4"
              }
            },
            "signature": {
              "type": "tendermint/SignatureEd25519",
              "value": "EFEOS+nAr9rcJcW5l/1jtoRCdc+jEKY+34HQ/sGP+gurSwDE2pILpANrDlYXUyouN59GTCQGFkwhVrPbpdwPDA=="
            }
          },
          {
            "validator_address": "EC95B111D032181E1EC3B5E8875C5BB8E4AE7140",
            "validator_index": "109",
            "height": "6757",
            "round": "1",
            "timestamp": "2018-07-30T16:55:55.782185309Z",
            "type": 2,
            "block_id": {
              "hash": "EE020925CD04161924601D777A6244AF6A0E05B3",
              "parts": {
                "total": "1",
                "hash": "85355D6FF2DE3D01E976A5D5016FC81F697393A4"
              }
            },
            "signature": {
              "type": "tendermint/SignatureEd25519",
              "value": "y/DrisTiaBsgSTOuVZmlBdG8efQryMGr6r0LOkVbTu890FZUVLeR8F6NS6TrM/NskSVUB3CpF57ssVXA42G2Dg=="
            }
          },
          {
            "validator_address": "F13C1805E8131C9B47E2A46818F57D8A2841E578",
            "validator_index": "110",
            "height": "6757",
            "round": "1",
            "timestamp": "2018-07-30T16:55:55.851303783Z",
            "type": 2,
            "block_id": {
              "hash": "EE020925CD04161924601D777A6244AF6A0E05B3",
              "parts": {
                "total": "1",
                "hash": "85355D6FF2DE3D01E976A5D5016FC81F697393A4"
              }
            },
            "signature": {
              "type": "tendermint/SignatureEd25519",
              "value": "5PC1/pXV6RrcmRXUj5V40ZJTH/9dyYNmnYD4oa6Ye7jhQwv+ZrLV0lgVMdH3sE/gbeIe+4Q2+daLyZletTyuCw=="
            }
          },
          {
            "validator_address": "F23FF36BD5B90C33CE3A03ED72DBDCF5EC07D6AF",
            "validator_index": "111",
            "height": "6757",
            "round": "1",
            "timestamp": "2018-07-30T16:55:55.944962416Z",
            "type": 2,
            "block_id": {
              "hash": "EE020925CD04161924601D777A6244AF6A0E05B3",
              "parts": {
                "total": "1",
                "hash": "85355D6FF2DE3D01E976A5D5016FC81F697393A4"
              }
            },
            "signature": {
              "type": "tendermint/SignatureEd25519",
              "value": "/yWPTsqq6pkRhF4J4hPPb6zlxEU2oSW2QU9z/gjKFtU4c8ojXqumVxf7Iw64D/dOYQcM/N1F6KOGMfbTyRlZAg=="
            }
          },
          {
            "validator_address": "F4268597DE93E3E2CED38845010F8AA34E2A879E",
            "validator_index": "112",
            "height": "6757",
            "round": "1",
            "timestamp": "2018-07-30T16:55:55.856698091Z",
            "type": 2,
            "block_id": {
              "hash": "EE020925CD04161924601D777A6244AF6A0E05B3",
              "parts": {
                "total": "1",
                "hash": "85355D6FF2DE3D01E976A5D5016FC81F697393A4"
              }
            },
            "signature": {
              "type": "tendermint/SignatureEd25519",
              "value": "itIWxod7B3ZRv7m2assVIIyulwvQfmhUGVbPJB60rz2Lxw1p3rzWgG13Nv4iUdNXTD99/aOX6LIuDIEsMr0uDw=="
            }
          },
          {
            "validator_address": "F4DEB417999B04BE2EFF9FFE03FA373D86011CC0",
            "validator_index": "113",
            "height": "6757",
            "round": "1",
            "timestamp": "2018-07-30T16:55:55.921949904Z",
            "type": 2,
            "block_id": {
              "hash": "EE020925CD04161924601D777A6244AF6A0E05B3",
              "parts": {
                "total": "1",
                "hash": "85355D6FF2DE3D01E976A5D5016FC81F697393A4"
              }
            },
            "signature": {
              "type": "tendermint/SignatureEd25519",
              "value": "2uPubtgqQ5wiuFkprurzhm7ZIXiTXi8zuBHAQrHg0azh7hZz/STiL9HKHJElvstDrg3fNZEAAcnt5ZH8e/phAw=="
            }
          },
          null,
          null,
          null,
          {
            "validator_address": "FF3F3FCBCE7E62D7AD5506FF846EC4518D980515",
            "validator_index": "117",
            "height": "6757",
            "round": "1",
            "timestamp": "2018-07-30T16:55:55.793707642Z",
            "type": 2,
            "block_id": {
              "hash": "EE020925CD04161924601D777A6244AF6A0E05B3",
              "parts": {
                "total": "1",
                "hash": "85355D6FF2DE3D01E976A5D5016FC81F697393A4"
              }
            },
            "signature": {
              "type": "tendermint/SignatureEd25519",
              "value": "twfoMgRW8z5r2jzA42VozTlyj7wxtc6Y40BHFVEXUnLTkU48NiW4llrnxpVyhCzQg0HYd6yq4rQMmpJ8tsLYCA=="
            }
          }
        ]
      }
    },
    "canonical": true
  }
}