{
  "jsonrpc": "2.0",
  "id": "",
  "result": {
    "SignedHeader": {
      "header": {
        "chain_id": "gaia-7004",
        "height": "7015",
        "time": "2018-07-30T17:23:11.123116902Z",
        "num_txs": "0",
        "last_block_id": {
          "hash": "F8CB5CD527185FDBE8F77D20BF15DE4067B838ED",
          "parts": {
            "total": "1",
            "hash": "04C558E036F1C05C05C4BE1D994437642A8E3ECF"
          }
        },
        "total_txs": "161",
        "last_commit_hash": "76D9D421F903541A694119A998BA2E920246E644",
        "data_hash": "",
        "validators_hash": "230D6D9DAAC314ACF571C39F79BDD07CDFF75292",
        "consensus_hash": "D6B74BB35BDFFD8392340F2A379173548AE188FE",
        "app_hash": "B64C27B9138A34905CA2CF2CADCE016599F596A3",
        "last_results_hash": "",
        "evidence_hash": ""
      },
      "commit": {
        "block_id": {
          "hash": "8E40DF34D7CA2D43F6C2047A9F4060005378068B",
          "parts": {
            "total": "1",
            "hash": "0947A5C73E8667601C89354262E74A7C5704A2A3"
          }
        },
        "precommits": [
          {
            "validator_address": "029359C0C768096273A68ABC902A6B17AC8D1D70",
            "validator_index": "0",
            "height": "7015",
            "round": "1",
            "timestamp": "2018-07-30T17:23:12.600559084Z",
            "type": 2,
            "block_id": {
              "hash": "8E40DF34D7CA2D43F6C2047A9F4060005378068B",
              "parts": {
                "total": "1",
                "hash": "0947A5C73E8667601C89354262E74A7C5704A2A3"
              }
            },
            "signature": {
              "type": "tendermint/SignatureEd25519",
              "value": "YuUuR+3X0m6FL3y+jnRupRgEfPXo7V2V/IaXskE30ZP1Ws9/piisuCxcJ/cgyX9G9z8lZxudk44kRuod2DsxCw=="
            }
          },
          {
            "validator_address": "02FE4B97A8387F39D1AC19E0C1702B3CC614812F",
            "validator_index": "1",
            "height": "7015",
            "round": "1",
            "timestamp": "2018-07-30T17:23:12.674745796Z",
            "type": 2,
            "block_id": {
              "hash": "8E40DF34D7CA2D43F6C2047A9F4060005378068B",
              "parts": {
                "total": "1",
                "hash": "0947A5C73E8667601C89354262E74A7C5704A2A3"
              }
            },
            "signature": {
              "type": "tendermint/SignatureEd25519",
              "value": "3aaiw9gKd7mW1HlEmoXuU4XcPTrzVSgYhgBJ4tNDWNYWYnCumDLR6t/h1L0Xse9gpkdy2zb4tXyGbvKk74ThDw=="
            }
          },
          {
            "validator_address": "0548261C50222FD710EB5EBDF03A0E6567B21D20",
            "validator_index": "2",
            "height": "7015",
            "round": "1",
            "timestamp": "2018-07-30T17:23:12.715080896Z",
            "type": 2,
            "block_id": {
              "hash": "8E40DF34D7CA2D43F6C2047A9F4060005378068B",
              "parts": {
                "total": "1",
                "hash": "0947A5C73E8667601C89354262E74A7C5704A2A3"
              }
            },
            "signature": {
              "type": "tendermint/SignatureEd25519",
              "value": "vyZskrtFcLfURfNpgkYtf5dYo2avZ4oVzqy+4pr4i4skzQyay4eNAPDVEusOIuRPLAkKQ2b08fZEWxtZyMCUCw=="
            }
          },
          {
            "validator_address": "0665ADBF9B120B7617BF955AA5653A1992C82B11",
            "validator_index": "3",
            "height": "7015",
            "round": "1",
            "timestamp": "2018-07-30T17:23:12.618854821Z",
            "type": 2,
            "block_id": {
              "hash": "8E40DF34D7CA2D43F6C2047A9F4060005378068B",
              "parts": {
                "total": "1",
                "hash": "0947A5C73E8667601C89354262E74A7C5704A2A3"
              }
            },
            "signature": {
              "type": "tendermint/SignatureEd25519",
              "value": "SzzHx2d7PaM1jMktyYAQxOspnDJCMVUPv4DHTo73ECRAd9ST1AOcBqcubiiGbhCaTEENUXz2nGTCliFkIuXMBA=="
            }
          },
          {
            "validator_address": "09145E611CC27EEB944FC5A956DDF710F943B9EF",
            "validator_index": "4",
            "height": "7015",
            "round": "1",
            "timestamp": "2018-07-30T17:23:12.620572036Z",
            "type": 2,
            "block_id": {
              "hash": "8E40DF34D7CA2D43F6C2047A9F4060005378068B",
              "parts": {
                "total": "1",
                "hash": "0947A5C73E8667601C89354262E74A7C5704A2A3"
              }
            },
            "signature": {
              "type": "tendermint/SignatureEd25519",
              "value": "GgYlSyp9wf93rKWoTOOZAwEFZCuPPp8elaWbhJT6F+knOs93p5334X3qz25shmoJXJPBRZrTuLAvtISEm97sBA=="
            }
          },
          {
            "validator_address": "0989D0355A104B67AE0AE028C68FB610690E174B",
            "validator_index": "5",
            "height": "7015",
            "round": "1",
            "timestamp": "2018-07-30T17:23:12.653937716Z",
            "type": 2,
            "block_id": {
              "hash": "8E40DF34D7CA2D43F6C2047A9F4060005378068B",
              "parts": {
                "total": "1",
                "hash": "0947A5C73E8667601C89354262E74A7C5704A2A3"
              }
            },
            "signature": {
              "type": "tendermint/SignatureEd25519",
              "value": "C4USNkFQeaeFKkx2bznWAUU8MZwbdMZlnI8+GLGuhGKjcM9C4smOsirdMYvYbacCOhD/+G/JRhcYwwyG2f5XDQ=="
            }
          },
          {
            "validator_address": "0A692DBFFE9E5DD28E7DECC33CED1AEB4C0D014E",
            "validator_index": "6",
            "height": "7015",
            "round": "1",
            "timestamp": "2018-07-30T17:23:12.76316347Z",
            "type": 2,
            "block_id": {
              "hash": "8E40DF34D7CA2D43F6C2047A9F4060005378068B",
              "parts": {
                "total": "1",
                "hash": "0947A5C73E8667601C89354262E74A7C5704A2A3"
              }
            },
            "signature": {
              "type": "tendermint/SignatureEd25519",
              "value": "PAd94uZATHlsS1Ea/cAi+9W18xQyLO4k4BaT8tumsoXOy4j2Dz25Xp5zIP8XaepGj2H9uTC9Hf3V4XSq4vejAw=="
            }
          },
          {
            "validator_address": "0DDF97111D73DB825138EC15EC27DE5FE8536901",
            "validator_index": "7",
            "height": "7015",
            "round": "1",
            "timestamp": "2018-07-30T17:23:12.683901273Z",
            "type": 2,
            "block_id": {
              "hash": "8E40DF34D7CA2D43F6C2047A9F4060005378068B",
              "parts": {
                "total": "1",
                "hash": "0947A5C73E8667601C89354262E74A7C5704A2A3"
              }
            },
            "signature": {
              "type": "tendermint/SignatureEd25519",
              "value": "abv73Xiu8akaYXgODMmtHDcCZZDFJtFi2DNTuxiNpmkuh4qeJxO46W7RAto92MniaoWoxj24geNHf/byRHT1AQ=="
            }
          },
          null,
          {
            "validator_address": "1751786EFC085D5331C61168FFFC8202EA151B4E",
            "validator_index": "9",
            "height": "7015",
            "round": "1",
            "timestamp": "2018-07-30T17:23:11.970621299Z",
            "type": 2,
            "block_id": {
              "hash": "8E40DF34D7CA2D43F6C2047A9F4060005378068B",
              "parts": {
                "total": "1",
                "hash": "0947A5C73E8667601C89354262E74A7C5704A2A3"
              }
            },
            "signature": {
              "type": "tendermint/SignatureEd25519",
              "value": "8EYmcrtHId6cGIEej983s4faTRLOHMO1DG/cXIzmQcJhbF0YLQenmGoslE/mijoq4vWDmKgqRgdrWujSCA7qDA=="
            }
          },
          {
            "validator_address": "17BB5CD01E8940FAFB948A04D5FA5A0645E5822E",
            "validator_index": "10",
            "height": "7015",
            "round": "1",
            "timestamp": "2018-07-30T17:23:12.641493122Z",
            "type": 2,
            "block_id": {
              "hash": "8E40DF34D7CA2D43F6C2047A9F4060005378068B",
              "parts": {
                "total": "1",
                "hash": "0947A5C73E8667601C89354262E74A7C5704A2A3"
              }
            },
            "signature": {
              "type": "tendermint/SignatureEd25519",
              "value": "OdJ15tiwukmqaonQkXTLxjE+4UVMoJEP79qABrbTWD/okfzNczF3qM+0Cgy+MUFGQuVWdRjCtK+0kJ6tv72KBg=="
            }
          },
          {
            "validator_address": "1C683A87904BC38F05004FE83301A3A3E35447EB",
            "validator_index": "11",
            "height": "7015",
            "round": "1",
            "timestamp": "2018-07-30T17:23:12.671792413Z",
            "type": 2,
            "block_id": {
              "hash": "8E40DF34D7CA2D43F6C2047A9F4060005378068B",
              "parts": {
                "total": "1",
                "hash": "0947A5C73E8667601C89354262E74A7C5704A2A3"
              }
            },
            "signature": {
              "type": "tendermint/SignatureEd25519",
              "value": "hB+Veu4v8DsZw1Itps33JL2AtE6w8HoVLMJFNaMkdhFFAXq+CuuGuU0JQnqebWhb6nFe3XN8dA+1tg3c12kDAQ=="
            }
          },
          {
            "validator_address": "1E9CE94FD0BA5CFEB901F90BC658D64D85B134D2",
            "validator_index": "12",
            "height": "7015",
            "round": "1",
            "timestamp": "2018-07-30T17:23:12.667625118Z",
            "type": 2,
            "block_id": {
              "hash": "8E40DF34D7CA2D43F6C2047A9F4060005378068B",
              "parts": {
                "total": "1",
                "hash": "0947A5C73E8667601C89354262E74A7C5704A2A3"
              }
            },
            "signature": {
              "type": "tendermint/SignatureEd25519",
              "value": "GzIF8Fhj7EQkt/T8S0X0GtWOSPEDmJPbMNYCfiwNGGEnv7jWWOiY/gx7ezD/tK349N5UYKBVLf1xzOX6q5nVCg=="
            }
          },
          {
            "validator_address": "1ECD8C5FE1341D74CDC633A245DD56858DE2F9A2",
            "validator_index": "13",
            "height": "7015",
            "round": "1",
            "timestamp": "2018-07-30T17:23:12.743590736Z",
            "type": 2,
            "block_id": {
              "hash": "8E40DF34D7CA2D43F6C2047A9F4060005378068B",
              "parts": {
                "total": "1",
                "hash": "0947A5C73E8667601C89354262E74A7C5704A2A3"
              }
            },
            "signature": {
              "type": "tendermint/SignatureEd25519",
              "value": "BLIHED7u3G8C79NKO+UO++Eg2pjOZ+PEYPVU6lcW8tQ5z+TT45ivFOEJr2Eo+RVtT96fXfFjEeHrDX99ykG3AQ=="
            }
          },
          {
            "validator_address": "1F3A68CAAD483768AA2BF667DEF10F7104C89928",
            "validator_index": "14",
            "height": "7015",
            "round": "1",
            "timestamp": "2018-07-30T17:23:12.691389686Z",
            "type": 2,
            "block_id": {
              "hash": "8E40DF34D7CA2D43F6C2047A9F4060005378068B",
              "parts": {
                "total": "1",
                "hash": "0947A5C73E8667601C89354262E74A7C5704A2A3"
              }
            },
            "signature": {
              "type": "tendermint/SignatureEd25519",
              "value": "PjkQqCDNp2ldQNCurWxs9XylQOjWrpENvCeM9NdHAlL5vTu301dzjRpSNYoKRby+xq/VqqXdtbDAPsBwEDKLAw=="
            }
          },
          null,
          {
            "validator_address": "23897586D68E2AC1C78E0EF5BB5DF5C8EAB18F50",
            "validator_index": "16",
            "height": "7015",
            "round": "1",
            "timestamp": "2018-07-30T17:23:12.667076925Z",
            "type": 2,
            "block_id": {
              "hash": "8E40DF34D7CA2D43F6C2047A9F4060005378068B",
              "parts": {
                "total": "1",
                "hash": "0947A5C73E8667601C89354262E74A7C5704A2A3"
              }
            },
            "signature": {
              "type": "tendermint/SignatureEd25519",
              "value": "o5ve7zA5MGt7Z14C2MGgMT5MiJc6eS/7z9yVr//ltbGQSyNaIzKkj/nyzzPON+Ik6IRcPKiWjjwVw83rf+tSDw=="
            }
          },
          {
            "validator_address": "28770D17E8530825E7310A0659308654B7EC9682",
            "validator_index": "17",
            "height": "7015",
            "round": "1",
            "timestamp": "2018-07-30T17:23:12.613827013Z",
            "type": 2,
            "block_id": {
              "hash": "8E40DF34D7CA2D43F6C2047A9F4060005378068B",
              "parts": {
                "total": "1",
                "hash": "0947A5C73E8667601C89354262E74A7C5704A2A3"
              }
            },
            "signature": {
              "type": "tendermint/SignatureEd25519",
              "value": "EsaBO2gFwaoRp0AD/PphQDLKlV0dv3TUEDHcvyN5+SbnuGmhCuHzgUsBqcm/lsiNdbq2GjbFDLk1xHXsx+rCCw=="
            }
          },
          null,
          {
            "validator_address": "2A92EC3C642140202298D0E245095E0ECFC25228",
            "validator_index": "19",
            "height": "7015",
            "round": "1",
            "timestamp": "2018-07-30T17:23:12.702225462Z",
            "type": 2,
            "block_id": {
              "hash": "8E40DF34D7CA2D43F6C2047A9F4060005378068B",
              "parts": {
                "total": "1",
                "hash": "0947A5C73E8667601C89354262E74A7C5704A2A3"
              }
            },
            "signature": {
              "type": "tendermint/SignatureEd25519",
              "value": "ut96sF4RuHTHRVPQh10Sx6aoCbwihRyNmvp86DuBqnt7Je8JE4SXEvv2Ak5opXoZBMGMHLOdaxNiihwVVTMeCQ=="
            }
          },
          null,
          null,
          {
            "validator_address": "33412C9A69C60CB0FAA24A5C5B3A906DE24B47C2",
            "validator_index": "22",
            "height": "7015",
            "round": "1",
            "timestamp": "2018-07-30T17:23:12.591307122Z",
            "type": 2,
            "block_id": {
              "hash": "8E40DF34D7CA2D43F6C2047A9F4060005378068B",
              "parts": {
                "total": "1",
                "hash": "0947A5C73E8667601C89354262E74A7C5704A2A3"
              }
            },
            "signature": {
              "type": "tendermint/SignatureEd25519",
              "value": "TzQ4ZL2oWWgxYdRn0A7tcs22vJZUD0ODSBxC/LaZSdStSm2vMQxowZjLSWCoQAPdEE62hrmtB8gi7u5lv4zbDg=="
            }
          },
          null,
          {
            "validator_address": "3383EF2A13B160C41947AC30434B274B2FAF0617",
            "validator_index": "24",
            "height": "7015",
            "round": "1",
            "timestamp": "2018-07-30T17:23:12.590842654Z",
            "type": 2,
            "block_id": {
              "hash": "8E40DF34D7CA2D43F6C2047A9F4060005378068B",
              "parts": {
                "total": "1",
                "hash": "0947A5C73E8667601C89354262E74A7C5704A2A3"
              }
            },
            "signature": {
              "type": "tendermint/SignatureEd25519",
              "value": "a6N8pWw9i9bSku0FCpfl2EasFkK29MJIl+F+19Jg9ogKoBvJBnY603JlhWjzGaOkVTCR1tc0HRzUUBRgT0ALBQ=="
            }
          },
          {
            "validator_address": "36E9B7FAEC964F97D84C028ED62493E373AD0B38",
            "validator_index": "25",
            "height": "7015",
            "round": "1",
            "timestamp": "2018-07-30T17:23:12.83521832Z",
            "type": 2,
            "block_id": {
              "hash": "8E40DF34D7CA2D43F6C2047A9F4060005378068B",
              "parts": {
                "total": "1",
                "hash": "0947A5C73E8667601C89354262E74A7C5704A2A3"
              }
            },
            "signature": {
              "type": "tendermint/SignatureEd25519",
              "value": "+CXgVWdv1cnI9O5HC9CtMgM0JDHMIPoas26Boker2YUjSldrR+rvaslh8hKRNh1LBYGiCS9N10wrbfxmVPJaBw=="
            }
          },
          {
            "validator_address": "38A8D85D36BEA2E5FCF8A1E778F53628E450EF13",
            "validator_index": "26",
            "height": "7015",
            "round": "1",
            "timestamp": "2018-07-30T17:23:12.680697602Z",
            "type": 2,
            "block_id": {
              "hash": "8E40DF34D7CA2D43F6C2047A9F4060005378068B",
              "parts": {
                "total": "1",
                "hash": "0947A5C73E8667601C89354262E74A7C5704A2A3"
              }
            },
            "signature": {
              "type": "tendermint/SignatureEd25519",
              "value": "WM8SGtMWIVfV5zSK1d8PqG8J9mGl2xGxhWHiSGlL79+itk0dOQ9bnCOsXrTVt3LzTfSi3TuRgkjew0ydUh44AA=="
            }
          },
          {
            "validator_address": "39DFDA0C5DB84B269642188B23253508537798E6",
            "validator_index": "27",
            "height": "7015",
            "round": "1",
            "timestamp": "2018-07-30T17:23:12.618655313Z",
            "type": 2,
            "block_id": {
              "hash": "8E40DF34D7CA2D43F6C2047A9F4060005378068B",
              "parts": {
                "total": "1",
                "hash": "0947A5C73E8667601C89354262E74A7C5704A2A3"
              }
            },
            "signature": {
              "type": "tendermint/SignatureEd25519",
              "value": "WNoAVEWKik+uhUFtIOa7jkdiCXh9r2dKepvpY37+HzCY+kS9yrhZNJmH6uagix/dxtHuuDzeePLzj3O/gRnCCQ=="
            }
          },
          {
            "validator_address": "3AC99B708404452366E0953A4BE849226DC86CBC",
            "validator_index": "28",
            "height": "7015",
            "round": "1",
            "timestamp": "2018-07-30T17:23:12.713028993Z",
            "type": 2,
            "block_id": {
              "hash": "8E40DF34D7CA2D43F6C2047A9F4060005378068B",
              "parts": {
                "total": "1",
                "hash": "0947A5C73E8667601C89354262E74A7C5704A2A3"
              }
            },
            "signature": {
              "type": "tendermint/SignatureEd25519",
              "value": "m6VMKevFfu1SX8ku5eJT+EXwujgrKGH7f8ES36mziMBZB2WjdaT6tNMLYQzajeXEyH0tVpsvgVSZTFCBecVCAQ=="
            }
          },
          {
            "validator_address": "3DCB822A10ED319EC7C4393D8E3FD4A41B15AAF2",
            "validator_index": "29",
            "height": "7015",
            "round": "1",
            "timestamp": "2018-07-30T17:23:12.620670811Z",
            "type": 2,
            "block_id": {
              "hash": "8E40DF34D7CA2D43F6C2047A9F4060005378068B",
              "parts": {
                "total": "1",
                "hash": "0947A5C73E8667601C89354262E74A7C5704A2A3"
              }
            },
            "signature": {
              "type": "tendermint/SignatureEd25519",
              "value": "rXsII7hPE/0eCZ0NxQ0SvriW2hlQmgEpQBzdQ1f2AV2SA62CeO/nepl0gn7/ga4MrMFcjnYbgecE9sDy0124BQ=="
            }
          },
          {
            "validator_address": "3E899BA36A93C7370347BD5FE85909F2ECD93F8C",
            "validator_index": "30",
            "height": "7015",
            "round": "1",
            "timestamp": "2018-07-30T17:23:12.625758596Z",
            "type": 2,
            "block_id": {
              "hash": "8E40DF34D7CA2D43F6C2047A9F4060005378068B",
              "parts": {
                "total": "1",
                "hash": "0947A5C73E8667601C89354262E74A7C5704A2A3"
              }
            },
            "signature": {
              "type": "tendermint/SignatureEd25519",
              "value": "1ZPrn/0C+3JhK5SKoWL20i4ugdRkHwgAR2tF0D1I5tQDe9UhGCZOFVayJrVYykfzauCx8t4a0KycVqF/A8pIDw=="
            }
          },
          {
            "validator_address": "41CAB2E29E7D0F2282E3275938F188FF9386B84C",
            "validator_index": "31",
            "height": "7015",
            "round": "1",
            "timestamp": "2018-07-30T17:23:12.596341871Z",
            "type": 2,
            "block_id": {
              "hash": "8E40DF34D7CA2D43F6C2047A9F4060005378068B",
              "parts": {
                "total": "1",
                "hash": "0947A5C73E8667601C89354262E74A7C5704A2A3"
              }
            },
            "signature": {
              "type": "tendermint/SignatureEd25519",
              "value": "bUPkxdVmiMAQYTW7wBCxQFW4Nn6eEUStg4JbPDO3iFr5HFxaaouKkeBasafSW2Aud9lCK0++nLlM+rP9KdPiCg=="
            }
          },
          {
            "validator_address": "462B656869DB02A8FD1077E255F8CC7401DC37C6",
            "validator_index": "32",
            "height": "7015",
            "round": "1",
            "timestamp": "2018-07-30T17:23:12.616990135Z",
            "type": 2,
            "block_id": {
              "hash": "8E40DF34D7CA2D43F6C2047A9F4060005378068B",
              "parts": {
                "total": "1",
                "hash": "0947A5C73E8667601C89354262E74A7C5704A2A3"
              }
            },
            "signature": {
              "type": "tendermint/SignatureEd25519",
              "value": "DrPDStGB+PtbSvoy4uhlE+9inwOKQVn8Jh5IY8YXqaKflmTBl1DuGrU9LzDbjyybJClK0iWRg/e8IBa+IFBZCw=="
            }
          },
          {
            "validator_address": "48E5118163E5442068A1B5A42D2EEDBB75724935",
            "validator_index": "33",
            "height": "7015",
            "round": "1",
            "timestamp": "2018-07-30T17:23:12.770966914Z",
            "type": 2,
            "block_id": {
              "hash": "8E40DF34D7CA2D43F6C2047A9F4060005378068B",
              "parts": {
                "total": "1",
                "hash": "0947A5C73E8667601C89354262E74A7C5704A2A3"
              }
            },
            "signature": {
              "type": "tendermint/SignatureEd25519",
              "value": "w3ktWHzM//H8zBHQ+MxM3RpvVTtbpJaKx7Gy4FeJNeeBHmezoxn6ajdIGSf7FoOZVJAoxP+d3cN2hat56t+VBw=="
            }
          },
          null,
          {
            "validator_address": "4944F8BBBB5303E17BC0607DF332320EDBC750EA",
            "validator_index": "35",
            "height": "7015",
            "round": "1",
            "timestamp": "2018-07-30T17:23:12.571967007Z",
            "type": 2,
            "block_id": {
              "hash": "8E40DF34D7CA2D43F6C2047A9F4060005378068B",
              "parts": {
                "total": "1",
                "hash": "0947A5C73E8667601C89354262E74A7C5704A2A3"
              }
            },
            "signature": {
              "type": "tendermint/SignatureEd25519",
              "value": "RMz0etwiW6UWq3Oh1/a6FfIIi0GnmRpJ7i1aFDDKhw227fbwIw69PZ/BwKAkvEdYewluhMJGvRT3YnOdlekeDw=="
            }
          },
          {
            "validator_address": "49841599DE675157CBE1E7D6B35BF8FFC23BD5CB",
            "validator_index": "36",
            "height": "7015",
            "round": "1",
            "timestamp": "2018-07-30T17:23:12.615231794Z",
            "type": 2,
            "block_id": {
              "hash": "8E40DF34D7CA2D43F6C2047A9F4060005378068B",
              "parts": {
                "total": "1",
                "hash": "0947A5C73E8667601C89354262E74A7C5704A2A3"
              }
            },
            "signature": {
              "type": "tendermint/SignatureEd25519",
              "value": "x+nuA+geJtV4u1DRWdcmVyUJaGBrL7L5e5MzR/no1JemyIepeCwK1Ag6VPQQpgADeQHeau38IVkPak4c0GoxDQ=="
            }
          },
          {
            "validator_address": "5104F488EA6B1E2C33CBDA3C18389C88104DBC72",
            "validator_index": "37",
            "height": "7015",
            "round": "1",
            "timestamp": "2018-07-30T17:23:12.627817128Z",
            "type": 2,
            "block_id": {
              "hash": "8E40DF34D7CA2D43F6C2047A9F4060005378068B",
              "parts": {
                "total": "1",
                "hash": "0947A5C73E8667601C89354262E74A7C5704A2A3"
              }
            },
            "signature": {
              "type": "tendermint/SignatureEd25519",
              "value": "KQ+Po8kZVjfAn3qu4lnVSs+h9kTdtwo77PqQpsWbUeBPThx6CxxvBNuEiIhL/wA/4Tf9tCL3Lq6nyNk0DG0CDQ=="
            }
          },
          {
            "validator_address": "51386C2CF9556821D114D7E4945806802BADB28D",
            "validator_index": "38",
            "height": "7015",
            "round": "1",
            "timestamp": "2018-07-30T17:23:12.722131908Z",
            "type": 2,
            "block_id": {
              "hash": "8E40DF34D7CA2D43F6C2047A9F4060005378068B",
              "parts": {
                "total": "1",
                "hash": "0947A5C73E8667601C89354262E74A7C5704A2A3"
              }
            },
            "signature": {
              "type": "tendermint/SignatureEd25519",
              "value": "1dLB3c2KyVu0un4eXGEcrTXbSYmNSdCK/KFTuv2UJEWWXAsgnZ8wb6IiVEEbYlkvPkpRvgFYwEuxPCHvcMaiAg=="
            }
          },
          {
            "validator_address": "543564ECA3AFEFADC73EE8591AAC3A96F079BC8A",
            "validator_index": "39",
            "height": "7015",
            "round": "1",
            "timestamp": "2018-07-30T17:23:12.632128882Z",
            "type": 2,
            "block_id": {
              "hash": "8E40DF34D7CA2D43F6C2047A9F4060005378068B",
              "parts": {
                "total": "1",
                "hash": "0947A5C73E8667601C89354262E74A7C5704A2A3"
              }
            },
            "signature": {
              "type": "tendermint/SignatureEd25519",
              "value": "mQe1o4UuRxoMJeINhJcdFVJ29Ft1XEAG6qdzVTj+eudKuPj1FCSfv5DJ+utUOCUFceLMCjPtS2BHE23smEDgDg=="
            }
          },
          {
            "validator_address": "55D67B1A6DC13E96F8754A5A42EABC20F7F86664",
            "validator_index": "40",
            "height": "7015",
            "round": "1",
            "timestamp": "2018-07-30T17:23:12.624625876Z",
            "type": 2,
            "block_id": {
              "hash": "8E40DF34D7CA2D43F6C2047A9F4060005378068B",
              "parts": {
                "total": "1",
                "hash": "0947A5C73E8667601C89354262E74A7C5704A2A3"
              }
            },
            "signature": {
              "type": "tendermint/SignatureEd25519",
              "value": "9/06FFo1SCdc7W7VHZuQRDXDUiNXOWV7YjMZ1b++hh+5pWC3PQAyihY8V/wRqDXDMDC0ge9ikdlctu8iTma7DQ=="
            }
          },
          {
            "validator_address": "570B6A755ED339EAC56BB3390A48069F6AC9449B",
            "validator_index": "41",
            "height": "7015",
            "round": "1",
            "timestamp": "2018-07-30T17:23:13.461719093Z",
            "type": 2,
            "block_id": {
              "hash": "8E40DF34D7CA2D43F6C2047A9F4060005378068B",
              "parts": {
                "total": "1",
                "hash": "0947A5C73E8667601C89354262E74A7C5704A2A3"
              }
            },
            "signature": {
              "type": "tendermint/SignatureEd25519",
              "value": "KpqIWikK2lEMv2iknPaeIcVBRNn9ZA/xuDoXzlZGIhsuCjDpE7+cKDpna696Ztm495caD9YCopRGcl+zzajxAA=="
            }
          },
          {
            "validator_address": "5BDF8EA41B1835FBAD865B181A2A4B23F511B5E4",
            "validator_index": "42",
            "height": "7015",
            "round": "1",
            "timestamp": "2018-07-30T17:23:12.597087701Z",
            "type": 2,
            "block_id": {
              "hash": "8E40DF34D7CA2D43F6C2047A9F4060005378068B",
              "parts": {
                "total": "1",
                "hash": "0947A5C73E8667601C89354262E74A7C5704A2A3"
              }
            },
            "signature": {
              "type": "tendermint/SignatureEd25519",
              "value": "yTHkIk+lfCABmt545K4fXQnpAT1qdF35xu/ZOTe5lPrfZpdAVZRybWCfS77g1VJ/4nev0RXbCL/aUcynRGrcBw=="
            }
          },
          null,
          {
            "validator_address": "5E8673673E37450F01B64138FBF4B172BDB52D68",
            "validator_index": "44",
            "height": "7015",
            "round": "1",
            "timestamp": "2018-07-30T17:23:12.7580974Z",
            "type": 2,
            "block_id": {
              "hash": "8E40DF34D7CA2D43F6C2047A9F4060005378068B",
              "parts": {
                "total": "1",
                "hash": "0947A5C73E8667601C89354262E74A7C5704A2A3"
              }
            },
            "signature": {
              "type": "tendermint/SignatureEd25519",
              "value": "FeCphD3nxMcLbVMBx5MNeFqpGkJ5vLVNcg/XJvAwkezxEs9JtXFBk3nS5w+JvXf6O6kvVLvbKvQK9GQPUdJ8AQ=="
            }
          },
          {
            "validator_address": "60229E2E273297FE00219E46DFFB8F76844CDEF9",
            "validator_index": "45",
            "height": "7015",
            "round": "1",
            "timestamp": "2018-07-30T17:23:11.972620314Z",
            "type": 2,
            "block_id": {
              "hash": "8E40DF34D7CA2D43F6C2047A9F4060005378068B",
              "parts": {
                "total": "1",
                "hash": "0947A5C73E8667601C89354262E74A7C5704A2A3"
              }
            },
            "signature": {
              "type": "tendermint/SignatureEd25519",
              "value": "mvDIIm/CqBXCqURA02zI+RmidSqwUaS6UqqDuxf7Eg3BV4IF6wnc9J9sLOOBsMMbDkD1hMH1OhSHJVYxikRdDQ=="
            }
          },
          {
            "validator_address": "62410D6D1CD98278136E4D0738AA0EA273CDFC54",
            "validator_index": "46",
            "height": "7015",
            "round": "1",
            "timestamp": "2018-07-30T17:23:12.600756342Z",
            "type": 2,
            "block_id": {
              "hash": "8E40DF34D7CA2D43F6C2047A9F4060005378068B",
              "parts": {
                "total": "1",
                "hash": "0947A5C73E8667601C89354262E74A7C5704A2A3"
              }
            },
            "signature": {
              "type": "tendermint/SignatureEd25519",
              "value": "H0dGPNN/uwxHjhhc9QOz9ZMbPlGvXip7waDoYbL5YN4WBr+nPxv8texMSzNyzHb7O5kf13B+HWfB1sI9mfTpAw=="
            }
          },
          {
            "validator_address": "632F5C139A5A9DFBFE5111DEE29FCFB6157207DC",
            "validator_index": "47",
            "height": "7015",
            "round": "1",
            "timestamp": "2018-07-30T17:23:12.686161415Z",
            "type": 2,
            "block_id": {
              "hash": "8E40DF34D7CA2D43F6C2047A9F4060005378068B",
              "parts": {
                "total": "1",
                "hash": "0947A5C73E8667601C89354262E74A7C5704A2A3"
              }
            },
            "signature": {
              "type": "tendermint/SignatureEd25519",
              "value": "wFp9EmjLjVwl0dAAeTiYZES0cLwTwkJrFs+rDz6x/YYWrqfSAlbQrPlDBcL1R8w4mFD+g5TQkK+j3foO5kvDDA=="
            }
          },
          {
            "validator_address": "64F57F8E796A9B7B590C1EFA4123988C86631D39",
            "validator_index": "48",
            "height": "7015",
            "round": "1",
            "timestamp": "2018-07-30T17:23:12.616721797Z",
            "type": 2,
            "block_id": {
              "hash": "8E40DF34D7CA2D43F6C2047A9F4060005378068B",
              "parts": {
                "total": "1",
                "hash": "0947A5C73E8667601C89354262E74A7C5704A2A3"
              }
            },
            "signature": {
              "type": "tendermint/SignatureEd25519",
              "value": "19m0z/z9Oft6Jx4MXHolQxBEXtOCntvuYRSEpmyAU1iCfEGfaa42FoUm4XjYPXiKZpHzQB1bFqDjdrR7tHKcCQ=="
            }
          },
          {
            "validator_address": "69D99B2C66043ACBEAA8447525C356AFC6408E0C",
            "validator_index": "49",
            "height": "7015",
            "round": "1",
            "timestamp": "2018-07-30T17:23:12.701621068Z",
            "type": 2,
            "block_id": {
              "hash": "8E40DF34D7CA2D43F6C2047A9F4060005378068B",
              "parts": {
                "total": "1",
                "hash": "0947A5C73E8667601C89354262E74A7C5704A2A3"
              }
            },
            "signature": {
              "type": "tendermint/SignatureEd25519",
              "value": "V6evXFbcLScfNUmbA3isNe2kKcZmCKZyiFIXIFD3XTtDn0ueVZtmSaAg6oka0T3Ktp3q3cs5EdkTUV704JtVBg=="
            }
          },
          {
            "validator_address": "69EDADFA4A803E9DBF548C900D4A465E7D154262",
            "validator_index": "50",
            "height": "7015",
            "round": "1",
            "timestamp": "2018-07-30T17:23:12.783845764Z",
            "type": 2,
            "block_id": {
              "hash": "8E40DF34D7CA2D43F6C2047A9F4060005378068B",
              "parts": {
                "total": "1",
                "hash": "0947A5C73E8667601C89354262E74A7C5704A2A3"
              }
            },
            "signature": {
              "type": "tendermint/SignatureEd25519",
              "value": "xvZUNO2eqVTEJI3+i1O11QKKbvqbUGnZwbQeUmfTtflcKzcyRbbF11RosuCb/VlbvHjnm4gETHTpprUT9sbjAw=="
            }
          },
          {
            "validator_address": "6D3AD380E398D8592B03AA124BAFED5F125DF863",
            "validator_index": "51",
            "height": "7015",
            "round": "1",
            "timestamp": "2018-07-30T17:22:11.115135601Z",
            "type": 2,
            "block_id": {
              "hash": "8E40DF34D7CA2D43F6C2047A9F4060005378068B",
              "parts": {
                "total": "1",
                "hash": "0947A5C73E8667601C89354262E74A7C5704A2A3"
              }
            },
            "signature": {
              "type": "tendermint/SignatureEd25519",
              "value": "L1OuJ9ARf8pIkrS4Gblom8YLiP75AUM3TJlDj5cNzLKDH3Lo4enjRIipOPTBFqhTi4CXQpPRRf1tU91/zJniAw=="
            }
          },
          {
            "validator_address": "6F6C93B8BF3495063FEC9B5C771158607F4AE9D6",
            "validator_index": "52",
            "height": "7015",
            "round": "1",
            "timestamp": "2018-07-30T17:23:12.718937978Z",
            "type": 2,
            "block_id": {
              "hash": "8E40DF34D7CA2D43F6C2047A9F4060005378068B",
              "parts": {
                "total": "1",
                "hash": "0947A5C73E8667601C89354262E74A7C5704A2A3"
              }
            },
            "signature": {
              "type": "tendermint/SignatureEd25519",
              "value": "JzjCqwDIoZsZLNyBWgaThmDNOXD33GH7gBfipQqm2c4PSlG5xA+gx8GB6XBYuFr1ufZBuUZzwRO2bVaaS4lBDg=="
            }
          },
          {
            "validator_address": "732CEEF54C374DDC6ADECBFD707AEFD07FEDC143",
            "validator_index": "53",
            "height": "7015",
            "round": "1",
            "timestamp": "2018-07-30T17:23:12.84169314Z",
            "type": 2,
            "block_id": {
              "hash": "8E40DF34D7CA2D43F6C2047A9F4060005378068B",
              "parts": {
                "total": "1",
                "hash": "0947A5C73E8667601C89354262E74A7C5704A2A3"
              }
            },
            "signature": {
              "type": "tendermint/SignatureEd25519",
              "value": "DFoypHu9dz4NCqwwxMCDq1U44tEs+uo1IFoc03jmYO2UGebAYPbFUqbXU3qsx5DZM1CT4DwSASIzBHUlPK2tDg=="
            }
          },
          {
            "validator_address": "7393D691BFAE9661918C09932D4D9060AB40939B",
            "validator_index": "54",
            "height": "7015",
            "round": "1",
            "timestamp": "2018-07-30T17:23:12.916412542Z",
            "type": 2,
            "block_id": {
              "hash": "8E40DF34D7CA2D43F6C2047A9F4060005378068B",
              "parts": {
                "total": "1",
                "hash": "0947A5C73E8667601C89354262E74A7C5704A2A3"
              }
            },
            "signature": {
              "type": "tendermint/SignatureEd25519",
              "value": "zs711DCphsbnKWi9X/W6ajOuFfQDLJnvNt8ofvmZuPU7IGkxGLAYBbLht7zhKvKBdwzJnW84MgfYHGH7oOWHCQ=="
            }
          },
          {
            "validator_address": "751E43437224E8BB6D1569B3E2B2616B6E7F4397",
            "validator_index": "55",
            "height": "7015",
            "round": "1",
            "timestamp": "2018-07-30T17:23:12.639269633Z",
            "type": 2,
            "block_id": {
              "hash": "8E40DF34D7CA2D43F6C2047A9F4060005378068B",
              "parts": {
                "total": "1",
                "hash": "0947A5C73E8667601C89354262E74A7C5704A2A3"
              }
            },
            "signature": {
              "type": "tendermint/SignatureEd25519",
              "value": "qBhpFtif0S+UUWml3NGfdcFnqmgw3Pc2ht3Yiu4Cbi6ge8gV/app9d4uWxpFiBQ13Tq/wvaT2/oMFojjLs4UAw=="
            }
          },
          {
            "validator_address": "7EB7593F519F1180C7E872D0494611464EDF03AE",
            "validator_index": "56",
            "height": "7015",
            "round": "1",
            "timestamp": "2018-07-30T17:23:12.725379726Z",
            "type": 2,
            "block_id": {
              "hash": "8E40DF34D7CA2D43F6C2047A9F4060005378068B",
              "parts": {
                "total": "1",
                "hash": "0947A5C73E8667601C89354262E74A7C5704A2A3"
              }
            },
            "signature": {
              "type": "tendermint/SignatureEd25519",
              "value": "sQYm7Iz2VeZypWfb4jRIKT8+PJECsQ8LcZG10HAaI7sE2nMfK1aBgtXeY3tlTMdPs6cxSHuxR8z0/F6vkurcAA=="
            }
          },
          {
            "validator_address": "807CF675BA8479FC4FEC1047215DF07970040F1F",
            "validator_index": "57",
            "height": "7015",
            "round": "1",
            "timestamp": "2018-07-30T17:23:13.032874301Z",
            "type": 2,
            "block_id": {
              "hash": "8E40DF34D7CA2D43F6C2047A9F4060005378068B",
              "parts": {
                "total": "1",
                "hash": "0947A5C73E8667601C89354262E74A7C5704A2A3"
              }
            },
            "signature": {
              "type": "tendermint/SignatureEd25519",
              "value": "sy/lZpep2OslsVgHWqvPhmffK5NRQVwgX8yBXb7tTjqe+A34bPHqoup02Adgd7sjIAKAWLTWjmcHtTeko6EbBQ=="
            }
          },
          {
            "validator_address": "8126192EA66E8ADE6B36924534721366B987A4C1",
            "validator_index": "58",
            "height": "7015",
            "round": "1",
            "timestamp": "2018-07-30T17:23:12.59874673Z",
            "type": 2,
            "block_id": {
              "hash": "8E40DF34D7CA2D43F6C2047A9F4060005378068B",
              "parts": {
                "total": "1",
                "hash": "0947A5C73E8667601C89354262E74A7C5704A2A3"
              }
            },
            "signature": {
              "type": "tendermint/SignatureEd25519",
              "value": "N4/FExzSHVtnc9PWe5nom+Fn4kyov3kvRmqbKdprcOavARohLs70AE0ceSuACoZBlQyc53ewVgN2RMNb7x41Bw=="
            }
          },
          null,
          {
            "validator_address": "83AB321E012C57746689FED3A6064DF331F81007",
            "validator_index": "60",
            "height": "7015",
            "round": "1",
            "timestamp": "2018-07-30T17:23:12.650242434Z",
            "type": 2,
            "block_id": {
              "hash": "8E40DF34D7CA2D43F6C2047A9F4060005378068B",
              "parts": {
                "total": "1",
                "hash": "0947A5C73E8667601C89354262E74A7C5704A2A3"
              }
            },
            "signature": {
              "type": "tendermint/SignatureEd25519",
              "value": "U60ihHD+HmzQApG7tM+5P/zX/MA8UefBQHZYKgUSLukvkT8qhmXsrMbO9RdpI8Xs75xMr84gKD30UI8J/ABbDA=="
            }
          },
          {
            "validator_address": "83BB1B88D3DBB20AD845FECA07749EBD87D3754D",
            "validator_index": "61",
            "height": "7015",
            "round": "1",
            "timestamp": "2018-07-30T17:23:12.814545585Z",
            "type": 2,
            "block_id": {
              "hash": "8E40DF34D7CA2D43F6C2047A9F4060005378068B",
              "parts": {
                "total": "1",
                "hash": "0947A5C73E8667601C89354262E74A7C5704A2A3"
              }
            },
            "signature": {
              "type": "tendermint/SignatureEd25519",
              "value": "wQ/1Q+eYxLa+xHY6VIaA0owTJLJYvTbcObGBFwqEt5Y+HY5D3OGk3UA9Ql4rvz2S/Ijs3TfTXVumpYcBxVsfAw=="
            }
          },
          null,
          {
            "validator_address": "8F06FE1FD042683C426137FBC4BBAA4288924217",
            "validator_index": "63",
            "height": "7015",
            "round": "1",
            "timestamp": "2018-07-30T17:23:12.674414307Z",
            "type": 2,
            "block_id": {
              "hash": "8E40DF34D7CA2D43F6C2047A9F4060005378068B",
              "parts": {
                "total": "1",
                "hash": "0947A5C73E8667601C89354262E74A7C5704A2A3"
              }
            },
            "signature": {
              "type": "tendermint/SignatureEd25519",
              "value": "jCMRPQtEjgsu0YVSNmGhQsnWL7ZGl50Esh2Zi9xf1qp/l6d8jTdMDTdh99qA9r3H3VeqQ/28VhqYkDZi8l8oCQ=="
            }
          },
          {
            "validator_address": "8F45617BF45B10A3F8283DEBDB35E38C7CA43237",
            "validator_index": "64",
            "height": "7015",
            "round": "1",
            "timestamp": "2018-07-30T17:23:12.630456995Z",
            "type": 2,
            "block_id": {
              "hash": "8E40DF34D7CA2D43F6C2047A9F4060005378068B",
              "parts": {
                "total": "1",
                "hash": "0947A5C73E8667601C89354262E74A7C5704A2A3"
              }
            },
            "signature": {
              "type": "tendermint/SignatureEd25519",
              "value": "e++pptTg+c1yDjIzyXcL8VKiL/MNB7+BNR7nIWhXuDYnAserykg3xWwhwl2tDsCaMZR7DA9KBNSOGrvdKAXaCA=="
            }
          },
          null,
          {
            "validator_address": "95980831E186F2540F6E9FB6C8E74DE2401405AC",
            "validator_index": "66",
            "height": "7015",
            "round": "1",
            "timestamp": "2018-07-30T17:23:12.687025512Z",
            "type": 2,
            "block_id": {
              "hash": "8E40DF34D7CA2D43F6C2047A9F4060005378068B",
              "parts": {
                "total": "1",
                "hash": "0947A5C73E8667601C89354262E74A7C5704A2A3"
              }
            },
            "signature": {
              "type": "tendermint/SignatureEd25519",
              "value": "l9xRsw7FT5ircDyroIIQYvDEe4pisS1ypr4zgeyh270rTKcTbaDl7fvI22W7LRqclARCjHMzcPg3W1wBxw8sDw=="
            }
          },
          {
            "validator_address": "95FAFBC1E0579C83D290A063020CE87C5334BD9B",
            "validator_index": "67",
            "height": "7015",
            "round": "1",
            "timestamp": "2018-07-30T17:23:12.697346385Z",
            "type": 2,
            "block_id": {
              "hash": "8E40DF34D7CA2D43F6C2047A9F4060005378068B",
              "parts": {
                "total": "1",
                "hash": "0947A5C73E8667601C89354262E74A7C5704A2A3"
              }
            },
            "signature": {
              "type": "tendermint/SignatureEd25519",
              "value": "e6A33VsNWWe61hKtYu7OASDZRUdgEpGok7iR4duJiTzGqPL4ZLG56VN+TORMrkTrvvR3Sfk0KYKkR/3a4MvZBw=="
            }
          },
          {
            "validator_address": "96BDE45EC52606CF5CB59853097871AD60680549",
            "validator_index": "68",
            "height": "7015",
            "round": "1",
            "timestamp": "2018-07-30T17:23:12.677565411Z",
            "type": 2,
            "block_id": {
              "hash": "8E40DF34D7CA2D43F6C2047A9F4060005378068B",
              "parts": {
                "total": "1",
                "hash": "0947A5C73E8667601C89354262E74A7C5704A2A3"
              }
            },
            "signature": {
              "type": "tendermint/SignatureEd25519",
              "value": "DndbvTF45/9FnB3kLxG6pMrFzlHXpxTX6g2D5Diq3g1BA6B6Yvzyb6sT6Y3i0PuFeeehMVbbkFpglt5ESVPSBw=="
            }
          },
          {
            "validator_address": "970CD321881185BF83DB2923C321B0E75FDBB2B8",
            "validator_index": "69",
            "height": "7015",
            "round": "1",
            "timestamp": "2018-07-30T17:23:12.71908559Z",
            "type": 2,
            "block_id": {
              "hash": "8E40DF34D7CA2D43F6C2047A9F4060005378068B",
              "parts": {
                "total": "1",
                "hash": "0947A5C73E8667601C89354262E74A7C5704A2A3"
              }
            },
            "signature": {
              "type": "tendermint/SignatureEd25519",
              "value": "GnO0pCdmIh54633gX6L6/bhOgR0cOAAlmu6d8Rwqol0AUpPGJ6JYXGY6gQOsq+1CvnQCa88i2qbDUaXZgJ8lBw=="
            }
          },
          null,
          {
            "validator_address": "9C29C9B76D27586E4D9AD2AED0E943162645E55C",
            "validator_index": "71",
            "height": "7015",
            "round": "1",
            "timestamp": "2018-07-30T17:23:12.609955061Z",
            "type": 2,
            "block_id": {
              "hash": "8E40DF34D7CA2D43F6C2047A9F4060005378068B",
              "parts": {
                "total": "1",
                "hash": "0947A5C73E8667601C89354262E74A7C5704A2A3"
              }
            },
            "signature": {
              "type": "tendermint/SignatureEd25519",
              "value": "gZ2MKtnfXghcVkbSPj68l/fiFm3KSYcKNH8tyFkX8/lsoB4ug5Wz55GYpn+zD939avfa0cdJXmV9ZARxF38MBA=="
            }
          },
          {
            "validator_address": "9D93AD02FE1BD7E76B9E58D7EB461088EAD011E5",
            "validator_index": "72",
            "height": "7015",
            "round": "1",
            "timestamp": "2018-07-30T17:23:12.622762859Z",
            "type": 2,
            "block_id": {
              "hash": "8E40DF34D7CA2D43F6C2047A9F4060005378068B",
              "parts": {
                "total": "1",
                "hash": "0947A5C73E8667601C89354262E74A7C5704A2A3"
              }
            },
            "signature": {
              "type": "tendermint/SignatureEd25519",
              "value": "uAEbX7HH8i0BAfJlLgiJ75pzMS9cnGHruZ56VQRwcJYITokTbWajkRLifYkTnUvOpUiqMPva9jEgxUgJBQ4hDA=="
            }
          },
          null,
          {
            "validator_address": "A0A6466F4ABEA09C3B55E3709AFDE217A103209F",
            "validator_index": "74",
            "height": "7015",
            "round": "1",
            "timestamp": "2018-07-30T17:23:12.593827146Z",
            "type": 2,
            "block_id": {
              "hash": "8E40DF34D7CA2D43F6C2047A9F4060005378068B",
              "parts": {
                "total": "1",
                "hash": "0947A5C73E8667601C89354262E74A7C5704A2A3"
              }
            },
            "signature": {
              "type": "tendermint/SignatureEd25519",
              "value": "KJPw0FL7bzHUllG9tfcls2XkGwuvOwGM64cbAfrcifD9R0hve6hJ2LET/AhHn1NY3KxM943S7q9S/lgX9HusAQ=="
            }
          },
          {
            "validator_address": "A5868971300F155020634D7BB49C7634F7AACCD3",
            "validator_index": "75",
            "height": "7015",
            "round": "1",
            "timestamp": "2018-07-30T17:23:12.65670683Z",
            "type": 2,
            "block_id": {
              "hash": "8E40DF34D7CA2D43F6C2047A9F4060005378068B",
              "parts": {
                "total": "1",
                "hash": "0947A5C73E8667601C89354262E74A7C5704A2A3"
              }
            },
            "signature": {
              "type": "tendermint/SignatureEd25519",
              "value": "eiFhDQZbEUMBDkgCHoGWY6UQPdt6It8XE/BdYLE6+0FIj6LjEzxJX+DiUhDlMcZH3GNjt0ERSxfbNYnczG3eAg=="
            }
          },
          {
            "validator_address": "A6B3A5B5D982CFD7B5FDFA15CF5A720E7AE25E7F",
            "validator_index": "76",
            "height": "7015",
            "round": "1",
            "timestamp": "2018-07-30T17:23:12.585678576Z",
            "type": 2,
            "block_id": {
              "hash": "8E40DF34D7CA2D43F6C2047A9F4060005378068B",
              "parts": {
                "total": "1",
                "hash": "0947A5C73E8667601C89354262E74A7C5704A2A3"
              }
            },
            "signature": {
              "type": "tendermint/SignatureEd25519",
              "value": "8Xu9thBH1myzW737d+5YoEUYeFyC5mI6VmyV60ST6fRoEBLOqYy4fOOQH3iNciCW/GnNm74ixLGmnYpbBnNCBg=="
            }
          },
          {
            "validator_address": "AC96444A9083890B7C7B430DB17BF1D3EA5EED04",
            "validator_index": "77",
            "height": "7015",
            "round": "1",
            "timestamp": "2018-07-30T17:23:12.689929256Z",
            "type": 2,
            "block_id": {
              "hash": "8E40DF34D7CA2D43F6C2047A9F4060005378068B",
              "parts": {
                "total": "1",
                "hash": "0947A5C73E8667601C89354262E74A7C5704A2A3"
              }
            },
            "signature": {
              "type": "tendermint/SignatureEd25519",
              "value": "Rs2mS5SEw92jXDLvzzE+GVCilsPJJHwKqI3MsBkKXdKfYT5xIlwq+Tq+i4v22+71SMr840RjR12+BgTsyBrdCw=="
            }
          },
          {
            "validator_address": "ACB97FDA2D940AF0709B73537C458EB988AD2893",
            "validator_index": "78",
            "height": "7015",
            "round": "1",
            "timestamp": "2018-07-30T17:23:12.616046396Z",
            "type": 2,
            "block_id": {
              "hash": "8E40DF34D7CA2D43F6C2047A9F4060005378068B",
              "parts": {
                "total": "1",
                "hash": "0947A5C73E8667601C89354262E74A7C5704A2A3"
              }
            },
            "signature": {
              "type": "tendermint/SignatureEd25519",
              "value": "o7Fkp4jgUmvUkCfa4unKqegeN4ciO80lRdRLpfTLJa7vKN+960RVQrf/OqxGX+Q9JinTa0jzau9R374D5B4KCg=="
            }
          },
          {
            "validator_address": "B197425B3210375F211661DE02EF2AE36580EB0F",
            "validator_index": "79",
            "height": "7015",
            "round": "1",
            "timestamp": "2018-07-30T17:23:12.673073136Z",
            "type": 2,
            "block_id": {
              "hash": "8E40DF34D7CA2D43F6C2047A9F4060005378068B",
              "parts": {
                "total": "1",
                "hash": "0947A5C73E8667601C89354262E74A7C5704A2A3"
              }
            },
            "signature": {
              "type": "tendermint/SignatureEd25519",
              "value": "AJzY5ixNg50hja5J5jTl9tlMpmr+YO0O9mNaV+MBfiw5ybaCbNHPJAGCy+jgrKmXCKMFJJs4BAc+kZmKqgZvBg=="
            }
          },
          {
            "validator_address": "B45E54D2D1CB5A4CCD1D49016608C18E7C56B270",
            "validator_index": "80",
            "height": "7015",
            "round": "1",
            "timestamp": "2018-07-30T17:23:12.720091889Z",
            "type": 2,
            "block_id": {
              "hash": "8E40DF34D7CA2D43F6C2047A9F4060005378068B",
              "parts": {
                "total": "1",
                "hash": "0947A5C73E8667601C89354262E74A7C5704A2A3"
              }
            },
            "signature": {
              "type": "tendermint/SignatureEd25519",
              "value": "0Y0dBEiyjjiOmcZeVbPZkEcmMYqGk18Yh+oBBqaLeuyInyzg7y1batbcjYmYd8T+usIqXoAjmcIdriXUt+cuCQ=="
            }
          },
          {
            "validator_address": "B59A34C0BE4EC73AF6A67D274F1695C9259C237C",
            "validator_index": "81",
            "height": "7015",
            "round": "1",
            "timestamp": "2018-07-30T17:23:12.801125355Z",
            "type": 2,
            "block_id": {
              "hash": "8E40DF34D7CA2D43F6C2047A9F4060005378068B",
              "parts": {
                "total": "1",
                "hash": "0947A5C73E8667601C89354262E74A7C5704A2A3"
              }
            },
            "signature": {
              "type": "tendermint/SignatureEd25519",
              "value": "mWCISzEb7YLLdzRZJepMYgI+DwORVsuB/mWj+iTOI68K9DqcQralQHWrRGYj7H5CBr1XCuZ9GUDXXEXd+ZqZBA=="
            }
          },
          {
            "validator_address": "BC36FEDD6EF6071118A3E51859DF3831A2EC4782",
            "validator_index": "82",
            "height": "7015",
            "round": "1",
            "timestamp": "2018-07-30T17:23:12.678508551Z",
            "type": 2,
            "block_id": {
              "hash": "8E40DF34D7CA2D43F6C2047A9F4060005378068B",
              "parts": {
                "total": "1",
                "hash": "0947A5C73E8667601C89354262E74A7C5704A2A3"
              }
            },
            "signature": {
              "type": "tendermint/SignatureEd25519",
              "value": "4ywYiMIe/NgN+ptZHHbt1PaW4lEVfP88Rg/Q97Dq1tDfGnVwF8vDE/ljaLL9HDsg5NENox7lpUXBh78URzKQBw=="
            }
          },
          {
            "validator_address": "BD9D0DA513BF099DB4BB6E725A4E19832789882F",
            "validator_index": "83",
            "height": "7015",
            "round": "1",
            "timestamp": "2018-07-30T17:23:12.650164042Z",
            "type": 2,
            "block_id": {
              "hash": "8E40DF34D7CA2D43F6C2047A9F4060005378068B",
              "parts": {
                "total": "1",
                "hash": "0947A5C73E8667601C89354262E74A7C5704A2A3"
              }
            },
            "signature": {
              "type": "tendermint/SignatureEd25519",
              "value": "QktLV5Ik+w++V0noeY5YL1ZQD35fPBQUVtGthm60Y6o3LpH7kNovagAg7bQa6fOaLNq71UqhA1jTYyOjV1UjBg=="
            }
          },
          {
            "validator_address": "C1134A2FF8F7338E7CDB3FE57DDD2A655DEB1E22",
            "validator_index": "84",
            "height": "7015",
            "round": "1",
            "timestamp": "2018-07-30T17:23:12.463387584Z",
            "type": 2,
            "block_id": {
              "hash": "8E40DF34D7CA2D43F6C2047A9F4060005378068B",
              "parts": {
                "total": "1",
                "hash": "0947A5C73E8667601C89354262E74A7C5704A2A3"
              }
            },
            "signature": {
              "type": "tendermint/SignatureEd25519",
              "value": "kvaDDPDmXcODwUp24+h5NrQgnyrZZLexeUtKhFcrWRS9SzInNVfcNUPoslBm+k/PuUyEdTHQBxQvOKR9YTT+BA=="
            }
          },
          {
            "validator_address": "C39A8A2B85198DCB8F23AD1F6C198E2BA7AB5D60",
            "validator_index": "85",
            "height": "7015",
            "round": "1",
            "timestamp": "2018-07-30T17:23:12.604523179Z",
            "type": 2,
            "block_id": {
              "hash": "8E40DF34D7CA2D43F6C2047A9F4060005378068B",
              "parts": {
                "total": "1",
                "hash": "0947A5C73E8667601C89354262E74A7C5704A2A3"
              }
            },
            "signature": {
              "type": "tendermint/SignatureEd25519",
              "value": "y/til1SKtxvIgkbEn1W8gUIrMutgrs0O2MYGCSUZTMwZ64TdzaS+UHQzNqU2+jQdG2jidK3y4MbyVaupdHCNAw=="
            }
          },
          {
            "validator_address": "C4335190C3B5BD4BA5568BC0F99C34162D940D08",
            "validator_index": "86",
            "height": "7015",
            "round": "1",
            "timestamp": "2018-07-30T17:23:12.715593461Z",
            "type": 2,
            "block_id": {
              "hash": "8E40DF34D7CA2D43F6C2047A9F4060005378068B",
              "parts": {
                "total": "1",
                "hash": "0947A5C73E8667601C89354262E74A7C5704A2A3"
              }
            },
            "signature": {
              "type": "tendermint/SignatureEd25519",
              "value": "JoKTjsWV2/KDoTHCjZMslqSQS9ebZaruau9x7nEbyXy5N/9vIqJGBy7jpKIYe/rUR0u5N9QcFJx6rW/eBvBrAQ=="
            }
          },
          {
            "validator_address": "C561CFA081677046376396922E7576E5F7B316AD",
            "validator_index": "87",
            "height": "7015",
            "round": "1",
            "timestamp": "2018-07-30T17:23:12.696566377Z",
            "type": 2,
            "block_id": {
              "hash": "8E40DF34D7CA2D43F6C2047A9F4060005378068B",
              "parts": {
                "total": "1",
                "hash": "0947A5C73E8667601C89354262E74A7C5704A2A3"
              }
            },
            "signature": {
              "type": "tendermint/SignatureEd25519",
              "value": "cI3lpQqItuNPrIWzJRniZeRCIHQpQVRPpanaJSWYQx8+dUGrv/PvOAGvwU32Zmiu9jvtemApV+LYmkvXG+EnBQ=="
            }
          },
          {
            "validator_address": "CEB97DB5CB18270247ABDE6CF2F84F9AEE8A2904",
            "validator_index": "88",
            "height": "7015",
            "round": "1",
            "timestamp": "2018-07-30T17:23:12.470551895Z",
            "type": 2,
            "block_id": {
              "hash": "8E40DF34D7CA2D43F6C2047A9F4060005378068B",
              "parts": {
                "total": "1",
                "hash": "0947A5C73E8667601C89354262E74A7C5704A2A3"
              }
            },
            "signature": {
              "type": "tendermint/SignatureEd25519",
              "value": "FEtgTI0kTllA8G2UoRQ6lSZJ5S/9DnLhtNy07ZbTgWE+3Bja9zceUY4BVqNChbk+8H5yaJlUPxGUjx+L99XpDA=="
            }
          },
          {
            "validator_address": "CF205769734F5758CC39F907EFB73D6BAF915FB1",
            "validator_index": "89",
            "height": "7015",
            "round": "1",
            "timestamp": "2018-07-30T17:23:12.719519621Z",
            "type": 2,
            "block_id": {
              "hash": "8E40DF34D7CA2D43F6C2047A9F4060005378068B",
              "parts": {
                "total": "1",
                "hash": "0947A5C73E8667601C89354262E74A7C5704A2A3"
              }
            },
            "signature": {
              "type": "tendermint/SignatureEd25519",
              "value": "CVfYGld3F0pjW7FR3hvcK4bM9aleu/zJhnHH45X1+dboDlj2jevbEpRe9fjA4d19Qs32jWExSrnijEXrKhqfCQ=="
            }
          },
          {
            "validator_address": "D2134B826A1E25A955905CB79A4D8731CAFA0CCE",
            "validator_index": "90",
            "height": "7015",
            "round": "1",
            "timestamp": "2018-07-30T17:23:12.778801284Z",
            "type": 2,
            "block_id": {
              "hash": "8E40DF34D7CA2D43F6C2047A9F4060005378068B",
              "parts": {
                "total": "1",
                "hash": "0947A5C73E8667601C89354262E74A7C5704A2A3"
              }
            },
            "signature": {
              "type": "tendermint/SignatureEd25519",
              "value": "XOfdMTerKXMR04nfIZNg8ddiksTSkTAMULfO16qUX9HJEOTXL5RI8oQjv96YY3nR4uFVx0u/Ag/pEOY9lMc1Dg=="
            }
          },
          null,
          {
            "validator_address": "D6285C3422C8886445D53757CBE12D2B91B5A9D0",
            "validator_index": "92",
            "height": "7015",
            "round": "1",
            "timestamp": "2018-07-30T17:22:54.909072031Z",
            "type": 2,
            "block_id": {
              "hash": "8E40DF34D7CA2D43F6C2047A9F4060005378068B",
              "parts": {
                "total": "1",
                "hash": "0947A5C73E8667601C89354262E74A7C5704A2A3"
              }
            },
            "signature": {
              "type": "tendermint/SignatureEd25519",
              "value": "BAg7caKdPNGqBuK6PgIAlzc8hqWTlhqHdlnCRVbPJmK8LWzNs4MZYGKP2cKOpMQT/2rUdrbyaRSjY2QW64AcDA=="
            }
          },
          null,
          null,
          {
            "validator_address": "DB7E6732471D3EA5C90C17A9974D9F88AB45F2FB",
            "validator_index": "95",
            "height": "7015",
            "round": "1",
            "timestamp": "2018-07-30T17:23:12.683382992Z",
            "type": 2,
            "block_id": {
              "hash": "8E40DF34D7CA2D43F6C2047A9F4060005378068B",
              "parts": {
                "total": "1",
                "hash": "0947A5C73E8667601C89354262E74A7C5704A2A3"
              }
            },
            "signature": {
              "type": "tendermint/SignatureEd25519",
              "value": "fozjM7f1WHtvoO07vXrYBqz5sX27RQJivFAIH+o/apGAyK1qBvyXrogIBKlocRUprEWcKmVzJ1LuL8r0ljM9Bw=="
            }
          },
          {
            "validator_address": "DF54B862410BCD9B5C516FBB6C56BDC826ED6FA7",
            "validator_index": "96",
            "height": "7015",
            "round": "1",
            "timestamp": "2018-07-30T17:23:12.763827402Z",
            "type": 2,
            "block_id": {
              "hash": "8E40DF34D7CA2D43F6C2047A9F4060005378068B",
              "parts": {
                "total": "1",
                "hash": "0947A5C73E8667601C89354262E74A7C5704A2A3"
              }
            },
            "signature": {
              "type": "tendermint/SignatureEd25519",
              "value": "+zieN5+ZfOw7jjEvD22qBRdFbCXF6mhN0TZNNdKfOpyfxjDgcoA8QIMAamAgGpLY9xqPmLlS7UGywv079iclBQ=="
            }
          },
          {
            "validator_address": "DFAF0C8B1B78D6D552B0189DE3ACA351439A1319",
            "validator_index": "97",
            "height": "7015",
            "round": "1",
            "timestamp": "2018-07-30T17:23:12.593638833Z",
            "type": 2,
            "block_id": {
              "hash": "8E40DF34D7CA2D43F6C2047A9F4060005378068B",
              "parts": {
                "total": "1",
                "hash": "0947A5C73E8667601C89354262E74A7C5704A2A3"
              }
            },
            "signature": {
              "type": "tendermint/SignatureEd25519",
              "value": "UuYGmTOh+xgdnCwBv7gCsqEMpkB8sgMbezMNG2u2Lj/YaruN5825rvTR5lYXcAERaGMAQeHEmFqUoeco03sEAQ=="
            }
          },
          {
            "validator_address": "E1DBC77881161A5A3A8536A57536EAE546A75D69",
            "validator_index": "98",
            "height": "7015",
            "round": "1",
            "timestamp": "2018-07-30T17:23:12.57787568Z",
            "type": 2,
            "block_id": {
              "hash": "8E40DF34D7CA2D43F6C2047A9F4060005378068B",
              "parts": {
                "total": "1",
                "hash": "0947A5C73E8667601C89354262E74A7C5704A2A3"
              }
            },
            "signature": {
              "type": "tendermint/SignatureEd25519",
              "value": "JeD3ebRK2EbQvRoUkOMCaeBB5TeZqFI+hygFSmkfW0HAvzspi3o+SxmqwEmILN/ldPm+hFFG+bPvgI/Uaj9tDQ=="
            }
          },
          {
            "validator_address": "E300E9D484374C1D3E97C1D93CAC3B160A056298",
            "validator_index": "99",
            "height": "7015",
            "round": "1",
            "timestamp": "2018-07-30T17:23:12.783944972Z",
            "type": 2,
            "block_id": {
              "hash": "8E40DF34D7CA2D43F6C2047A9F4060005378068B",
              "parts": {
                "total": "1",
                "hash": "0947A5C73E8667601C89354262E74A7C5704A2A3"
              }
            },
            "signature": {
              "type": "tendermint/SignatureEd25519",
              "value": "sR/XdG3FamFYut/pfavhke+ziUP+ViCUWgFH0t19EVIAkgmscW5dGX/uEqTzdUFg3FBXr/17vM2ZTjV+RjOGDg=="
            }
          },
          {
            "validator_address": "E39B5778E0D4297A46F45CF6940B0A163A430FF8",
            "validator_index": "100",
            "height": "7015",
            "round": "1",
            "timestamp": "2018-07-30T17:23:12.666677399Z",
            "type": 2,
            "block_id": {
              "hash": "8E40DF34D7CA2D43F6C2047A9F4060005378068B",
              "parts": {
                "total": "1",
                "hash": "0947A5C73E8667601C89354262E74A7C5704A2A3"
              }
            },
            "signature": {
              "type": "tendermint/SignatureEd25519",
              "value": "HSrFh+lWAuqSQQPIVL9JaVoLiLo3nJJ4TOeR3lw0iY7Bq7mB2jbUujjJJh1kzSr/i87gLI7aufGReN3pKHKNDA=="
            }
          },
          {
            "validator_address": "E3B19738F7132F950668504D326C7660F159D170",
            "validator_index": "101",
            "height": "7015",
            "round": "1",
            "timestamp": "2018-07-30T17:23:12.643286831Z",
            "type": 2,
            "block_id": {
              "hash": "8E40DF34D7CA2D43F6C2047A9F4060005378068B",
              "parts": {
                "total": "1",
                "hash": "0947A5C73E8667601C89354262E74A7C5704A2A3"
              }
            },
            "signature": {
              "type": "tendermint/SignatureEd25519",
              "value": "Uty+NPGEHIEprjOJab9MkS+U8Wdq4Nbx3ys2SMN23lkkFhv6AA54hzTEbGODAHa53W81qJR0/Bg9QmmxGyOCBw=="
            }
          },
          {
            "validator_address": "E42F8AEABB685219F7027F54D2B0DBC7846F633A",
            "validator_index": "102",
            "height": "7015",
            "round": "1",
            "timestamp": "2018-07-30T17:23:12.003141114Z",
            "type": 2,
            "block_id": {
              "hash": "8E40DF34D7CA2D43F6C2047A9F4060005378068B",
              "parts": {
                "total": "1",
                "hash": "0947A5C73E8667601C89354262E74A7C5704A2A3"
              }
            },
            "signature": {
              "type": "tendermint/SignatureEd25519",
              "value": "vQbcr5Cu16JhD52Avb47nH31ICKqF7+9EyclmF0mNOTVa8KanrPexwKRA9J3m4Ol4bpbN4wtnishreBwxe6fCQ=="
            }
          },
          {
            "validator_address": "E4E6C2E81269DFFA196C17F98240E491479A6008",
            "validator_index": "103",
            "height": "7015",
            "round": "1",
            "timestamp": "2018-07-30T17:23:12.694666241Z",
            "type": 2,
            "block_id": {
              "hash": "8E40DF34D7CA2D43F6C2047A9F4060005378068B",
              "parts": {
                "total": "1",
                "hash": "0947A5C73E8667601C89354262E74A7C5704A2A3"
              }
            },
            "signature": {
              "type": "tendermint/SignatureEd25519",
              "value": "FuQ6MzMK2oxS4A8ecREJe5f8Xk+4+mCfMNKKR6kbseU+EpcQVhdZH2WrjF1zRQeRUILAwF/dMOpb3g0JSEIzBg=="
            }
          },
          null,
          null,
          {
            "validator_address": "E7A30077D5D11867D3EAF99ED45BFDC1EB834509",
            "validator_index": "106",
            "height": "7015",
            "round": "1",
            "timestamp": "2018-07-30T17:23:12.608929308Z",
            "type": 2,
            "block_id": {
              "hash": "8E40DF34D7CA2D43F6C2047A9F4060005378068B",
              "parts": {
                "total": "1",
                "hash": "0947A5C73E8667601C89354262E74A7C5704A2A3"
              }
            },
            "signature": {
              "type": "tendermint/SignatureEd25519",
              "value": "RkgjJKrxl+5sTtl0fZASwJvpqO73ulrkB1sFRylOUhNY5Vt6K6ZxiJ3C+YAFQ0WYo6/kdaz2uzqyQtsvZNmbAQ=="
            }
          },
          {
            "validator_address": "EBC613967F66F4EC306852CDF58B4F151CF16738",
            "validator_index": "107",
            "height": "7015",
            "round": "1",
            "timestamp": "2018-07-30T17:23:12.730181367Z",
            "type": 2,
            "block_id": {
              "hash": "8E40DF34D7CA2D43F6C2047A9F4060005378068B",
              "parts": {
                "total": "1",
                "hash": "0947A5C73E8667601C89354262E74A7C5704A2A3"
              }
            },
            "signature": {
              "type": "tendermint/SignatureEd25519",
              "value": "a+2jSCLHl1ypNdF/0ku6e0WLG4CtNLqZ6KhWN+gYKv6WRtzv7eUCN+9Fz7A2b1DcyPB8EoCCVPhiX7n2Z3Q0Aw=="
            }
          },
          {
            "validator_address": "EC3401441726C40ECC7E51F744483B05BC6DE9BD",
            "validator_index": "108",
            "height": "7015",
            "round": "1",
            "timestamp": "2018-07-30T17:23:12.645548939Z",
            "type": 2,
            "block_id": {
              "hash": "8E40DF34D7CA2D43F6C2047A9F4060005378068B",
              "parts": {
                "total": "1",
                "hash": "0947A5C73E8667601C89354262E74A7C5704A2A3"
              }
            },
            "signature": {
              "type": "tendermint/SignatureEd25519",
              "value": "KCI954Pxv9fnJBKAfwsQKf6w5SgWf0p02qEReav+tDPHzUuvqMTAc5637D1358wK7ppd8mDAw2rZDZegpzS/Cg=="
            }
          },
          {
            "validator_address": "EC95B111D032181E1EC3B5E8875C5BB8E4AE7140",
            "validator_index": "109",
            "height": "7015",
            "round": "1",
            "timestamp": "2018-07-30T17:23:12.576819402Z",
            "type": 2,
            "block_id": {
              "hash": "8E40DF34D7CA2D43F6C2047A9F4060005378068B",
              "parts": {
                "total": "1",
                "hash": "0947A5C73E8667601C89354262E74A7C5704A2A3"
              }
            },
            "signature": {
              "type": "tendermint/SignatureEd25519",
              "value": "rTpdK8Bc4XeajntVeMjlM61V1W4GUgKXcefMz0VeWE5rPP4xtCbj0XnQ0+hW7L+ukG+//MHTBNvcx3S49cpECA=="
            }
          },
          {
            "validator_address": "F13C1805E8131C9B47E2A46818F57D8A2841E578",
            "validator_index": "110",
            "height": "7015",
            "round": "1",
            "timestamp": "2018-07-30T17:23:12.683846222Z",
            "type": 2,
            "block_id": {
              "hash": "8E40DF34D7CA2D43F6C2047A9F4060005378068B",
              "parts": {
                "total": "1",
                "hash": "0947A5C73E8667601C89354262E74A7C5704A2A3"
              }
            },
            "signature": {
              "type": "tendermint/SignatureEd25519",
              "value": "u3cqa2DrVbq9J2mSks97opawDEem2k6PggxpHxz/2W9f8wMR3pUwfraSndQ6NDdAB2OFTnEL4P+dkUNgXz3LDg=="
            }
          },
          {
            "validator_address": "F23FF36BD5B90C33CE3A03ED72DBDCF5EC07D6AF",
            "validator_index": "111",
            "height": "7015",
            "round": "1",
            "timestamp": "2018-07-30T17:23:12.676853867Z",
            "type": 2,
            "block_id": {
              "hash": "8E40DF34D7CA2D43F6C2047A9F4060005378068B",
              "parts": {
                "total": "1",
                "hash": "0947A5C73E8667601C89354262E74A7C5704A2A3"
              }
            },
            "signature": {
              "type": "tendermint/SignatureEd25519",
              "value": "gx6H9drF5XKtRv8kiJwVZRq6Z4a5HJm+iOOspTb7PkxsvOiKKL0xtCAXPwGfsQ8DgvppS4m249s9JiFkqkh4BA=="
            }
          },
          {
            "validator_address": "F4268597DE93E3E2CED38845010F8AA34E2A879E",
            "validator_index": "112",
            "height": "7015",
            "round": "1",
            "timestamp": "2018-07-30T17:23:12.673518165Z",
            "type": 2,
            "block_id": {
              "hash": "8E40DF34D7CA2D43F6C2047A9F4060005378068B",
              "parts": {
                "total": "1",
                "hash": "0947A5C73E8667601C89354262E74A7C5704A2A3"
              }
            },
            "signature": {
              "type": "tendermint/SignatureEd25519",
              "value": "L6ftipZxD1D2Q4qMzqH7jbji0UinocvsUn3VKOFCCS8/jjWq6118he00ARnjsHFs5fzeADbGrTJGgDKHS78TBg=="
            }
          },
          {
            "validator_address": "F4DEB417999B04BE2EFF9FFE03FA373D86011CC0",
            "validator_index": "113",
            "height": "7015",
            "round": "1",
            "timestamp": "2018-07-30T17:23:12.621588086Z",
            "type": 2,
            "block_id": {
              "hash": "8E40DF34D7CA2D43F6C2047A9F4060005378068B",
              "parts": {
                "total": "1",
                "hash": "0947A5C73E8667601C89354262E74A7C5704A2A3"
              }
            },
            "signature": {
              "type": "tendermint/SignatureEd25519",
              "value": "S6Vds4gxagIZ/ctzXD5UH0vrGgkx5Iz713jo7OIV/1WTUKfM4hH6a3MGacpwWsb+S3l43dqIAZ+x4Mr0dupNBg=="
            }
          },
          null,
          null,
          null,
          {
            "validator_address": "FF3F3FCBCE7E62D7AD5506FF846EC4518D980515",
            "validator_index": "117",
            "height": "7015",
            "round": "1",
            "timestamp": "2018-07-30T17:23:12.576816969Z",
            "type": 2,
            "block_id": {
              "hash": "8E40DF34D7CA2D43F6C2047A9F4060005378068B",
              "parts": {
                "total": "1",
                "hash": "0947A5C73E8667601C89354262E74A7C5704A2A3"
              }
            },
            "signature": {
              "type": "tendermint/SignatureEd25519",
              "value": "zLEZhoq7y05ky5XrgmKto7SRbW6EG1Agd0ZD4A0DpyfomeBq+IuxyerzbmF51o7KhWTtvUXHjfGyzIzMREUCAg=="
            }
          }
        ]
      }
    },
    "canonical": true
  }
}