{
  "jsonrpc": "2.0",
  "id": "",
  "result": {
    "SignedHeader": {
      "header": {
        "chain_id": "gaia-7004",
        "height": "7714",
        "time": "2018-07-30T18:36:45.850749458Z",
        "num_txs": "0",
        "last_block_id": {
          "hash": "656188D99CA021D1F584DAD0DB241B131C9387CA",
          "parts": {
            "total": "1",
            "hash": "431B25A7A2CFDB98B49D3217BC3DA50338355AB3"
          }
        },
        "total_txs": "177",
        "last_commit_hash": "A894BF1DB89175AA18233CE6F9D49FDEA80309EF",
        "data_hash": "",
        "validators_hash": "993DEEC672E8EF42C427A5036E3A81E419ED05D3",
        "consensus_hash": "D6B74BB35BDFFD8392340F2A379173548AE188FE",
        "app_hash": "7CDFB12E5067AFAAE0EE081DBD7397A6B62C09F3",
        "last_results_hash": "",
        "evidence_hash": ""
      },
      "commit": {
        "block_id": {
          "hash": "BCE6E1A6828E64288A5F3D41278211DE33C6176D",
          "parts": {
            "total": "1",
            "hash": "533465996A53A45B166E9C30250BDAFB7226482E"
          }
        },
        "precommits": [
          {
            "validator_address": "029359C0C768096273A68ABC902A6B17AC8D1D70",
            "validator_index": "0",
            "height": "7714",
            "round": "1",
            "timestamp": "2018-07-30T18:36:46.669753836Z",
            "type": 2,
            "block_id": {
              "hash": "BCE6E1A6828E64288A5F3D41278211DE33C6176D",
              "parts": {
                "total": "1",
                "hash": "533465996A53A45B166E9C30250BDAFB7226482E"
              }
            },
            "signature": {
              "type": "tendermint/SignatureEd25519",
              "value": "e0J+iBFkj7obx1AGlLkbhhtcLqiS4Fjrrw7cMlg4K43SeYxtc0pJZXI82fca0t98/IdjqpqTLCZXV56VcpB2Dw=="
            }
          },
          {
            "validator_address": "02FE4B97A8387F39D1AC19E0C1702B3CC614812F",
            "validator_index": "1",
            "height": "7714",
            "round": "1",
            "timestamp": "2018-07-30T18:36:46.631166402Z",
            "type": 2,
            "block_id": {
              "hash": "BCE6E1A6828E64288A5F3D41278211DE33C6176D",
              "parts": {
                "total": "1",
                "hash": "533465996A53A45B166E9C30250BDAFB7226482E"
              }
            },
            "signature": {
              "type": "tendermint/SignatureEd25519",
              "value": "pSfLC0JDupFwz/tK+h3WzzPIBLtU/4slXPjUHhhRdSLplvAIHKcX3D+y1HkqBtMvTmp4AHRjae//tbCB1+zkDw=="
            }
          },
          {
            "validator_address": "0548261C50222FD710EB5EBDF03A0E6567B21D20",
            "validator_index": "2",
            "height": "7714",
            "round": "1",
            "timestamp": "2018-07-30T18:36:46.752527727Z",
            "type": 2,
            "block_id": {
              "hash": "BCE6E1A6828E64288A5F3D41278211DE33C6176D",
              "parts": {
                "total": "1",
                "hash": "533465996A53A45B166E9C30250BDAFB7226482E"
              }
            },
            "signature": {
              "type": "tendermint/SignatureEd25519",
              "value": "8DMbAOrojibCH8lksxXU/Hn5CRQ621nm8HA3YcTbS7BqK+EwN2vMNAhlnSRbM8sEnOT3jOBwU0UcWpPTs+TdDw=="
            }
          },
          {
            "validator_address": "0665ADBF9B120B7617BF955AA5653A1992C82B11",
            "validator_index": "3",
            "height": "7714",
            "round": "1",
            "timestamp": "2018-07-30T18:36:46.664978408Z",
            "type": 2,
            "block_id": {
              "hash": "BCE6E1A6828E64288A5F3D41278211DE33C6176D",
              "parts": {
                "total": "1",
                "hash": "533465996A53A45B166E9C30250BDAFB7226482E"
              }
            },
            "signature": {
              "type": "tendermint/SignatureEd25519",
              "value": "LwfOelgDZlZPGOYX5eLA/II9ZD4XYpcsGyBVtUVKLyaoZ6y8Qz9XKqa703z0NNi2kVA040roZxP76FDwF67nCA=="
            }
          },
          {
            "validator_address": "09145E611CC27EEB944FC5A956DDF710F943B9EF",
            "validator_index": "4",
            "height": "7714",
            "round": "1",
            "timestamp": "2018-07-30T18:36:46.664906404Z",
            "type": 2,
            "block_id": {
              "hash": "BCE6E1A6828E64288A5F3D41278211DE33C6176D",
              "parts": {
                "total": "1",
                "hash": "533465996A53A45B166E9C30250BDAFB7226482E"
              }
            },
            "signature": {
              "type": "tendermint/SignatureEd25519",
              "value": "s15zQnEu/y9aC7T05KMT+yKvj6PCfI8dbWnJ3INwAQDGhnEO730/43lDbuTkDbTpi+rKIeh5+h4kBNlP2RgKCg=="
            }
          },
          {
            "validator_address": "0989D0355A104B67AE0AE028C68FB610690E174B",
            "validator_index": "5",
            "height": "7714",
            "round": "1",
            "timestamp": "2018-07-30T18:36:46.665957164Z",
            "type": 2,
            "block_id": {
              "hash": "BCE6E1A6828E64288A5F3D41278211DE33C6176D",
              "parts": {
                "total": "1",
                "hash": "533465996A53A45B166E9C30250BDAFB7226482E"
              }
            },
            "signature": {
              "type": "tendermint/SignatureEd25519",
              "value": "BXxIo8S4elOJy2I4Zz7a+llMae8z0psZliA2bZc3F0tlmtwQx74swhYpPguQ31HKYwzsf8GsdfDfELKL57QjBg=="
            }
          },
          {
            "validator_address": "0A692DBFFE9E5DD28E7DECC33CED1AEB4C0D014E",
            "validator_index": "6",
            "height": "7714",
            "round": "1",
            "timestamp": "2018-07-30T18:36:46.802158074Z",
            "type": 2,
            "block_id": {
              "hash": "BCE6E1A6828E64288A5F3D41278211DE33C6176D",
              "parts": {
                "total": "1",
                "hash": "533465996A53A45B166E9C30250BDAFB7226482E"
              }
            },
            "signature": {
              "type": "tendermint/SignatureEd25519",
              "value": "JvXpQ6GKajgMebFTHsIiorPO5jFEXUOu3GQZo5vE3wbaoUfILo6cDxMiyTc8xueQZ3Ryj5QSm6dfaI+4GsJuBA=="
            }
          },
          {
            "validator_address": "0DDF97111D73DB825138EC15EC27DE5FE8536901",
            "validator_index": "7",
            "height": "7714",
            "round": "1",
            "timestamp": "2018-07-30T18:36:46.700330836Z",
            "type": 2,
            "block_id": {
              "hash": "BCE6E1A6828E64288A5F3D41278211DE33C6176D",
              "parts": {
                "total": "1",
                "hash": "533465996A53A45B166E9C30250BDAFB7226482E"
              }
            },
            "signature": {
              "type": "tendermint/SignatureEd25519",
              "value": "qDuuZm9IXSJNRIdP+5GaORTioQPufk9cEfCzP7tUjwuIEl9XhgB1uv9Yvpxg2rvEa8V/uDtgmUwG0ifN71hGCg=="
            }
          },
          null,
          {
            "validator_address": "1751786EFC085D5331C61168FFFC8202EA151B4E",
            "validator_index": "9",
            "height": "7714",
            "round": "1",
            "timestamp": "2018-07-30T18:36:46.078466633Z",
            "type": 2,
            "block_id": {
              "hash": "BCE6E1A6828E64288A5F3D41278211DE33C6176D",
              "parts": {
                "total": "1",
                "hash": "533465996A53A45B166E9C30250BDAFB7226482E"
              }
            },
            "signature": {
              "type": "tendermint/SignatureEd25519",
              "value": "oInvMEApUuni8wDJM6dc/H71175TgKSNER8U7vR/uGqMDT1szvjw1EYKTW/RVJfAUa6epnGicty0FfrmHyw3Cg=="
            }
          },
          {
            "validator_address": "17BB5CD01E8940FAFB948A04D5FA5A0645E5822E",
            "validator_index": "10",
            "height": "7714",
            "round": "1",
            "timestamp": "2018-07-30T18:36:46.688476082Z",
            "type": 2,
            "block_id": {
              "hash": "BCE6E1A6828E64288A5F3D41278211DE33C6176D",
              "parts": {
                "total": "1",
                "hash": "533465996A53A45B166E9C30250BDAFB7226482E"
              }
            },
            "signature": {
              "type": "tendermint/SignatureEd25519",
              "value": "CiJH33be9shJF/WVKFLkB0/N4aVi5bSf0ccbxNm2ZzvDT0vwgDv3IZ9lodqVFRZ9ZlpXVrzcNxqR+Bth44nCAg=="
            }
          },
          {
            "validator_address": "1C683A87904BC38F05004FE83301A3A3E35447EB",
            "validator_index": "11",
            "height": "7714",
            "round": "1",
            "timestamp": "2018-07-30T18:36:46.667461731Z",
            "type": 2,
            "block_id": {
              "hash": "BCE6E1A6828E64288A5F3D41278211DE33C6176D",
              "parts": {
                "total": "1",
                "hash": "533465996A53A45B166E9C30250BDAFB7226482E"
              }
            },
            "signature": {
              "type": "tendermint/SignatureEd25519",
              "value": "O/3ELbBCoheeVayKTlMxlnWiHxZNFWaeDISBVdnHXvmDEPtNJYeAMjglDZv2hAbeB4aedu2nPqoXS40SMa/qBQ=="
            }
          },
          {
            "validator_address": "1E9CE94FD0BA5CFEB901F90BC658D64D85B134D2",
            "validator_index": "12",
            "height": "7714",
            "round": "1",
            "timestamp": "2018-07-30T18:36:46.66391247Z",
            "type": 2,
            "block_id": {
              "hash": "BCE6E1A6828E64288A5F3D41278211DE33C6176D",
              "parts": {
                "total": "1",
                "hash": "533465996A53A45B166E9C30250BDAFB7226482E"
              }
            },
            "signature": {
              "type": "tendermint/SignatureEd25519",
              "value": "BlmxKVMB7Yp2Hhxpx9LPzK/RwOnT4IJ6sC8wtT6qgVcCiB2SHSWYGe8R5yCsyQ4l4b4H6LrdguvojEct/NQsAQ=="
            }
          },
          {
            "validator_address": "1ECD8C5FE1341D74CDC633A245DD56858DE2F9A2",
            "validator_index": "13",
            "height": "7714",
            "round": "1",
            "timestamp": "2018-07-30T18:36:46.770904729Z",
            "type": 2,
            "block_id": {
              "hash": "BCE6E1A6828E64288A5F3D41278211DE33C6176D",
              "parts": {
                "total": "1",
                "hash": "533465996A53A45B166E9C30250BDAFB7226482E"
              }
            },
            "signature": {
              "type": "tendermint/SignatureEd25519",
              "value": "3RUMYqZMqne9eXO/KKlSI/1vJZ6iQV5ghnf/MPJ3NDvAylHZXHkEAE+H9p9RBXaUrJnPBgn7CBld7VxS3zWMAw=="
            }
          },
          {
            "validator_address": "1F3A68CAAD483768AA2BF667DEF10F7104C89928",
            "validator_index": "14",
            "height": "7714",
            "round": "1",
            "timestamp": "2018-07-30T18:36:46.650431435Z",
            "type": 2,
            "block_id": {
              "hash": "BCE6E1A6828E64288A5F3D41278211DE33C6176D",
              "parts": {
                "total": "1",
                "hash": "533465996A53A45B166E9C30250BDAFB7226482E"
              }
            },
            "signature": {
              "type": "tendermint/SignatureEd25519",
              "value": "VHxx8Ox9xSd5OaY684L5WqK5Ii8ZB+OC3H1PeJhdIigrTeOPZYCdRF27LPgc+IiL0RwKcarXjAIBdxTTlAqhCg=="
            }
          },
          null,
          {
            "validator_address": "23897586D68E2AC1C78E0EF5BB5DF5C8EAB18F50",
            "validator_index": "16",
            "height": "7714",
            "round": "1",
            "timestamp": "2018-07-30T18:36:46.673376191Z",
            "type": 2,
            "block_id": {
              "hash": "BCE6E1A6828E64288A5F3D41278211DE33C6176D",
              "parts": {
                "total": "1",
                "hash": "533465996A53A45B166E9C30250BDAFB7226482E"
              }
            },
            "signature": {
              "type": "tendermint/SignatureEd25519",
              "value": "5lRuVY9Xwvu/1EllaDAA0iHXHkwMf05d/ya445KFrDGBdMp8DZieLUWl9eiNgfu0+Qpc9QyD7UKDQetxfP1VAQ=="
            }
          },
          {
            "validator_address": "28770D17E8530825E7310A0659308654B7EC9682",
            "validator_index": "17",
            "height": "7714",
            "round": "1",
            "timestamp": "2018-07-30T18:36:46.688750365Z",
            "type": 2,
            "block_id": {
              "hash": "BCE6E1A6828E64288A5F3D41278211DE33C6176D",
              "parts": {
                "total": "1",
                "hash": "533465996A53A45B166E9C30250BDAFB7226482E"
              }
            },
            "signature": {
              "type": "tendermint/SignatureEd25519",
              "value": "GtD62Ee/KMq0UOl0EBllNSUJNYwIY5kfxFldXP6pcEok6Xy6C2oz0OSKPkXPRKjtl4FIUPj5JOfxpSNIxOBRBA=="
            }
          },
          null,
          {
            "validator_address": "2A92EC3C642140202298D0E245095E0ECFC25228",
            "validator_index": "19",
            "height": "7714",
            "round": "1",
            "timestamp": "2018-07-30T18:36:46.676687788Z",
            "type": 2,
            "block_id": {
              "hash": "BCE6E1A6828E64288A5F3D41278211DE33C6176D",
              "parts": {
                "total": "1",
                "hash": "533465996A53A45B166E9C30250BDAFB7226482E"
              }
            },
            "signature": {
              "type": "tendermint/SignatureEd25519",
              "value": "E1dxuXUeDv21u8vfox59hCGQ/djYRSggmYIDCHi5TNfkSHyh1/z8y3rbVEgeO6llVDIZhFwedxOIGTEMK07UBQ=="
            }
          },
          null,
          null,
          {
            "validator_address": "33412C9A69C60CB0FAA24A5C5B3A906DE24B47C2",
            "validator_index": "22",
            "height": "7714",
            "round": "1",
            "timestamp": "2018-07-30T18:36:46.64883501Z",
            "type": 2,
            "block_id": {
              "hash": "BCE6E1A6828E64288A5F3D41278211DE33C6176D",
              "parts": {
                "total": "1",
                "hash": "533465996A53A45B166E9C30250BDAFB7226482E"
              }
            },
            "signature": {
              "type": "tendermint/SignatureEd25519",
              "value": "yT2Y1kQcuML+QTDxVLc4YsabTXS6YOv0PvXHCeSwAfiuVS8nA6F7a7TTG9mhdQJCc0Igex/ZDVNkJPEA/pp1DQ=="
            }
          },
          null,
          {
            "validator_address": "36E9B7FAEC964F97D84C028ED62493E373AD0B38",
            "validator_index": "24",
            "height": "7714",
            "round": "1",
            "timestamp": "2018-07-30T18:36:46.943744339Z",
            "type": 2,
            "block_id": {
              "hash": "BCE6E1A6828E64288A5F3D41278211DE33C6176D",
              "parts": {
                "total": "1",
                "hash": "533465996A53A45B166E9C30250BDAFB7226482E"
              }
            },
            "signature": {
              "type": "tendermint/SignatureEd25519",
              "value": "ZXwH6taefOHZVwF3KV+cCYUJ3mwwBbJkm9PdcQ9/q2KbVTY6A+FZNT8WRSg8lw26EwU2jqY/2l3cc5YgOumJBg=="
            }
          },
          {
            "validator_address": "38A8D85D36BEA2E5FCF8A1E778F53628E450EF13",
            "validator_index": "25",
            "height": "7714",
            "round": "1",
            "timestamp": "2018-07-30T18:36:46.824488108Z",
            "type": 2,
            "block_id": {
              "hash": "BCE6E1A6828E64288A5F3D41278211DE33C6176D",
              "parts": {
                "total": "1",
                "hash": "533465996A53A45B166E9C30250BDAFB7226482E"
              }
            },
            "signature": {
              "type": "tendermint/SignatureEd25519",
              "value": "Z5wcdL2gvaME37sfbI200HNskaAzMapKAlmBe9wr1zsT/4jO2qdPTnEZ6djpmsvGkTz7DNMitsX/7wBUgvkOAg=="
            }
          },
          {
            "validator_address": "39DFDA0C5DB84B269642188B23253508537798E6",
            "validator_index": "26",
            "height": "7714",
            "round": "1",
            "timestamp": "2018-07-30T18:36:46.654447776Z",
            "type": 2,
            "block_id": {
              "hash": "BCE6E1A6828E64288A5F3D41278211DE33C6176D",
              "parts": {
                "total": "1",
                "hash": "533465996A53A45B166E9C30250BDAFB7226482E"
              }
            },
            "signature": {
              "type": "tendermint/SignatureEd25519",
              "value": "LeMTgk/cmflku80Tlb03Cz5juwVY+HoYnt6GkCmPIQti+GEHFkJqnyDWVkw/c/D9WwkZKRsjXqAXertlGcEHBw=="
            }
          },
          {
            "validator_address": "3AC99B708404452366E0953A4BE849226DC86CBC",
            "validator_index": "27",
            "height": "7714",
            "round": "1",
            "timestamp": "2018-07-30T18:36:46.816222513Z",
            "type": 2,
            "block_id": {
              "hash": "BCE6E1A6828E64288A5F3D41278211DE33C6176D",
              "parts": {
                "total": "1",
                "hash": "533465996A53A45B166E9C30250BDAFB7226482E"
              }
            },
            "signature": {
              "type": "tendermint/SignatureEd25519",
              "value": "6F7YjaZPIul5kf6+h3QLrSRyfhZRiNOJUt6FJYO7O6colNodq9sl6QZu5ti8lcT1g1I+fdnjAgNjB6vI3/6WDA=="
            }
          },
          {
            "validator_address": "3DCB822A10ED319EC7C4393D8E3FD4A41B15AAF2",
            "validator_index": "28",
            "height": "7714",
            "round": "1",
            "timestamp": "2018-07-30T18:36:46.613755049Z",
            "type": 2,
            "block_id": {
              "hash": "BCE6E1A6828E64288A5F3D41278211DE33C6176D",
              "parts": {
                "total": "1",
                "hash": "533465996A53A45B166E9C30250BDAFB7226482E"
              }
            },
            "signature": {
              "type": "tendermint/SignatureEd25519",
              "value": "rsgI1I5WgNmJVofGlczurSkXvf3XBDYA8P+xADAFeT5bTMHL80nY57FQ2vZIv7UoyJJqT28t+QGABY2+TB2SCw=="
            }
          },
          {
            "validator_address": "3E899BA36A93C7370347BD5FE85909F2ECD93F8C",
            "validator_index": "29",
            "height": "7714",
            "round": "1",
            "timestamp": "2018-07-30T18:36:46.701283522Z",
            "type": 2,
            "block_id": {
              "hash": "BCE6E1A6828E64288A5F3D41278211DE33C6176D",
              "parts": {
                "total": "1",
                "hash": "533465996A53A45B166E9C30250BDAFB7226482E"
              }
            },
            "signature": {
              "type": "tendermint/SignatureEd25519",
              "value": "udRxQ5NwHQ7DT8p10kfsFulfD/PZpI8urWpyBmokX+azHbXKmGqaFKsrcAMpzTKbYcEkPNB+/DA2G1pU/RVkDw=="
            }
          },
          {
            "validator_address": "41CAB2E29E7D0F2282E3275938F188FF9386B84C",
            "validator_index": "30",
            "height": "7714",
            "round": "1",
            "timestamp": "2018-07-30T18:36:46.643841517Z",
            "type": 2,
            "block_id": {
              "hash": "BCE6E1A6828E64288A5F3D41278211DE33C6176D",
              "parts": {
                "total": "1",
                "hash": "533465996A53A45B166E9C30250BDAFB7226482E"
              }
            },
            "signature": {
              "type": "tendermint/SignatureEd25519",
              "value": "U/WvRym85sARn3UrTaxYeHarZsqy4NwkE+o5P7XguNUbLGg66DpEbLZNXjipzRVnUHX3Shn8Vb0RZS+unw77Bg=="
            }
          },
          {
            "validator_address": "462B656869DB02A8FD1077E255F8CC7401DC37C6",
            "validator_index": "31",
            "height": "7714",
            "round": "1",
            "timestamp": "2018-07-30T18:36:46.720783273Z",
            "type": 2,
            "block_id": {
              "hash": "BCE6E1A6828E64288A5F3D41278211DE33C6176D",
              "parts": {
                "total": "1",
                "hash": "533465996A53A45B166E9C30250BDAFB7226482E"
              }
            },
            "signature": {
              "type": "tendermint/SignatureEd25519",
              "value": "EQikBGR29JC8pNLhmV7Zh7QO2xN4K9xfvMgHp+kNzLuDOonge1UfnWINWnGLc8dwx5LJ+1/2Bn46TVSt9YjIDQ=="
            }
          },
          {
            "validator_address": "48E5118163E5442068A1B5A42D2EEDBB75724935",
            "validator_index": "32",
            "height": "7714",
            "round": "1",
            "timestamp": "2018-07-30T18:36:46.81791743Z",
            "type": 2,
            "block_id": {
              "hash": "BCE6E1A6828E64288A5F3D41278211DE33C6176D",
              "parts": {
                "total": "1",
                "hash": "533465996A53A45B166E9C30250BDAFB7226482E"
              }
            },
            "signature": {
              "type": "tendermint/SignatureEd25519",
              "value": "i7jFm9m73OD4xBcwr6xIxWT+UWiDGKmjCr2LJJR1RgYANUJ3w7lJzfvMVUjhniQkD6AWFgHSB0dHpXky0AXGCQ=="
            }
          },
          null,
          {
            "validator_address": "4944F8BBBB5303E17BC0607DF332320EDBC750EA",
            "validator_index": "34",
            "height": "7714",
            "round": "1",
            "timestamp": "2018-07-30T18:36:46.651335474Z",
            "type": 2,
            "block_id": {
              "hash": "BCE6E1A6828E64288A5F3D41278211DE33C6176D",
              "parts": {
                "total": "1",
                "hash": "533465996A53A45B166E9C30250BDAFB7226482E"
              }
            },
            "signature": {
              "type": "tendermint/SignatureEd25519",
              "value": "ZnhR7xfZyKGxy4Bj1SB2mRSZNheJZqiEmGNj7ayOoNwtw1BwYSBSqZ+yFTpD00XIab3Had2YB3hKrhr49VU6Bg=="
            }
          },
          {
            "validator_address": "49841599DE675157CBE1E7D6B35BF8FFC23BD5CB",
            "validator_index": "35",
            "height": "7714",
            "round": "1",
            "timestamp": "2018-07-30T18:36:46.636735376Z",
            "type": 2,
            "block_id": {
              "hash": "BCE6E1A6828E64288A5F3D41278211DE33C6176D",
              "parts": {
                "total": "1",
                "hash": "533465996A53A45B166E9C30250BDAFB7226482E"
              }
            },
            "signature": {
              "type": "tendermint/SignatureEd25519",
              "value": "VqPTjcYXOUiaE9SNDw8vUyZChjMro7j5iTPFS9Yz7X5aqSWSvtsxIpu3xD8MTYetUgiEABZi1QCUSp9/E7EcDg=="
            }
          },
          {
            "validator_address": "5104F488EA6B1E2C33CBDA3C18389C88104DBC72",
            "validator_index": "36",
            "height": "7714",
            "round": "1",
            "timestamp": "2018-07-30T18:36:46.681583879Z",
            "type": 2,
            "block_id": {
              "hash": "BCE6E1A6828E64288A5F3D41278211DE33C6176D",
              "parts": {
                "total": "1",
                "hash": "533465996A53A45B166E9C30250BDAFB7226482E"
              }
            },
            "signature": {
              "type": "tendermint/SignatureEd25519",
              "value": "EXgdNgLLUC4fOc5XMdTV6jYq71dB8K4jSAn+c7iE0oPZ6O4GwL3aI+EXOkl0AGvTa2dmxBtNTSEszXrcM1/bAw=="
            }
          },
          {
            "validator_address": "51386C2CF9556821D114D7E4945806802BADB28D",
            "validator_index": "37",
            "height": "7714",
            "round": "1",
            "timestamp": "2018-07-30T18:36:46.709973134Z",
            "type": 2,
            "block_id": {
              "hash": "BCE6E1A6828E64288A5F3D41278211DE33C6176D",
              "parts": {
                "total": "1",
                "hash": "533465996A53A45B166E9C30250BDAFB7226482E"
              }
            },
            "signature": {
              "type": "tendermint/SignatureEd25519",
              "value": "CmFbnLoknIByFK+A7Tr+NfX2X6XdSxVLjoKH7si+LGg+syVZWMS6LtWP3R/SrBpZ2GboHih800mkuEkGfPBoDQ=="
            }
          },
          {
            "validator_address": "543564ECA3AFEFADC73EE8591AAC3A96F079BC8A",
            "validator_index": "38",
            "height": "7714",
            "round": "1",
            "timestamp": "2018-07-30T18:36:46.633625701Z",
            "type": 2,
            "block_id": {
              "hash": "BCE6E1A6828E64288A5F3D41278211DE33C6176D",
              "parts": {
                "total": "1",
                "hash": "533465996A53A45B166E9C30250BDAFB7226482E"
              }
            },
            "signature": {
              "type": "tendermint/SignatureEd25519",
              "value": "2V8WCNM2LNswHVfBxo81NWYlm+h8dgZi4kXbnvnLhUExAJMekbwh0shqzCTOZnHvb0H/KGCtz8pKNL60zXFTDw=="
            }
          },
          {
            "validator_address": "55D67B1A6DC13E96F8754A5A42EABC20F7F86664",
            "validator_index": "39",
            "height": "7714",
            "round": "1",
            "timestamp": "2018-07-30T18:36:46.72060236Z",
            "type": 2,
            "block_id": {
              "hash": "BCE6E1A6828E64288A5F3D41278211DE33C6176D",
              "parts": {
                "total": "1",
                "hash": "533465996A53A45B166E9C30250BDAFB7226482E"
              }
            },
            "signature": {
              "type": "tendermint/SignatureEd25519",
              "value": "g+hTC6poa9datF0w7J4+SU0HIwd0+A054oGtni9I7raPhXHyrLVRGu1NKqSzC2ES/40SfBFSSbfFaVcIzHqACg=="
            }
          },
          {
            "validator_address": "570B6A755ED339EAC56BB3390A48069F6AC9449B",
            "validator_index": "40",
            "height": "7714",
            "round": "1",
            "timestamp": "2018-07-30T18:36:47.676855239Z",
            "type": 2,
            "block_id": {
              "hash": "BCE6E1A6828E64288A5F3D41278211DE33C6176D",
              "parts": {
                "total": "1",
                "hash": "533465996A53A45B166E9C30250BDAFB7226482E"
              }
            },
            "signature": {
              "type": "tendermint/SignatureEd25519",
              "value": "fXZTVZ4gNc7defGbHxjlOV8Dcs86DzljHzWemME1OXzT6svp9iEtR0ORPv54Y0duGHE5XgijMaJW0RZlkdEsBw=="
            }
          },
          {
            "validator_address": "5BDF8EA41B1835FBAD865B181A2A4B23F511B5E4",
            "validator_index": "41",
            "height": "7714",
            "round": "1",
            "timestamp": "2018-07-30T18:36:46.617674122Z",
            "type": 2,
            "block_id": {
              "hash": "BCE6E1A6828E64288A5F3D41278211DE33C6176D",
              "parts": {
                "total": "1",
                "hash": "533465996A53A45B166E9C30250BDAFB7226482E"
              }
            },
            "signature": {
              "type": "tendermint/SignatureEd25519",
              "value": "9eeltgRv9TsPe9ZQn1QSKQiKbgfw5VeuHx4hoPpWjKofj0gFC0aCzOtYmZPPQhossq3hwr+Ck9sCl7pZ4fF2Bg=="
            }
          },
          null,
          {
            "validator_address": "5E8673673E37450F01B64138FBF4B172BDB52D68",
            "validator_index": "43",
            "height": "7714",
            "round": "1",
            "timestamp": "2018-07-30T18:36:46.6317295Z",
            "type": 2,
            "block_id": {
              "hash": "BCE6E1A6828E64288A5F3D41278211DE33C6176D",
              "parts": {
                "total": "1",
                "hash": "533465996A53A45B166E9C30250BDAFB7226482E"
              }
            },
            "signature": {
              "type": "tendermint/SignatureEd25519",
              "value": "xH7hKGPQM0C1JWLCIv76gwm18tpAtOBc9uTiS5N1kp0y9jLrCybNF+R5YQ4KEHamJWQRHtGIQTSWmqMgiVdnDQ=="
            }
          },
          {
            "validator_address": "60229E2E273297FE00219E46DFFB8F76844CDEF9",
            "validator_index": "44",
            "height": "7714",
            "round": "1",
            "timestamp": "2018-07-30T18:36:45.997089872Z",
            "type": 2,
            "block_id": {
              "hash": "BCE6E1A6828E64288A5F3D41278211DE33C6176D",
              "parts": {
                "total": "1",
                "hash": "533465996A53A45B166E9C30250BDAFB7226482E"
              }
            },
            "signature": {
              "type": "tendermint/SignatureEd25519",
              "value": "QwSQFpnn57DN8G3aVW5VIulhN+/ddVK16ByQJnW0DvswCRWdz1AdzWL6AiCUly3UvBVA6YlWy++GcxLE7AyNBg=="
            }
          },
          {
            "validator_address": "62410D6D1CD98278136E4D0738AA0EA273CDFC54",
            "validator_index": "45",
            "height": "7714",
            "round": "1",
            "timestamp": "2018-07-30T18:36:46.627835321Z",
            "type": 2,
            "block_id": {
              "hash": "BCE6E1A6828E64288A5F3D41278211DE33C6176D",
              "parts": {
                "total": "1",
                "hash": "533465996A53A45B166E9C30250BDAFB7226482E"
              }
            },
            "signature": {
              "type": "tendermint/SignatureEd25519",
              "value": "MmsV4XUuU/VRBX5twGykis0AL6+WJKnK4E2HFto3sgyXcuPQNDK+xOH7RXpJa9ZZQkWKT3NFkaEXikaRkRbqAA=="
            }
          },
          {
            "validator_address": "632F5C139A5A9DFBFE5111DEE29FCFB6157207DC",
            "validator_index": "46",
            "height": "7714",
            "round": "1",
            "timestamp": "2018-07-30T18:36:46.758141268Z",
            "type": 2,
            "block_id": {
              "hash": "BCE6E1A6828E64288A5F3D41278211DE33C6176D",
              "parts": {
                "total": "1",
                "hash": "533465996A53A45B166E9C30250BDAFB7226482E"
              }
            },
            "signature": {
              "type": "tendermint/SignatureEd25519",
              "value": "kZ5f1ZKlktFc2LFCZ9gD+efJ3FJjJdcm5Fvh8TVY0zeeMEZDCbZjZEdRVukhhA4ZH0rRxQ/N2IqSYx/HWjolCQ=="
            }
          },
          {
            "validator_address": "64F57F8E796A9B7B590C1EFA4123988C86631D39",
            "validator_index": "47",
            "height": "7714",
            "round": "1",
            "timestamp": "2018-07-30T18:36:46.625989248Z",
            "type": 2,
            "block_id": {
              "hash": "BCE6E1A6828E64288A5F3D41278211DE33C6176D",
              "parts": {
                "total": "1",
                "hash": "533465996A53A45B166E9C30250BDAFB7226482E"
              }
            },
            "signature": {
              "type": "tendermint/SignatureEd25519",
              "value": "R8utZLY400QdaoiPWb2F523valc97pL0TIGNXTOn0ntfBfTTaqhmOSTmHEI40hbIUM3Goi6cHkiP1+kAArBiBg=="
            }
          },
          {
            "validator_address": "69D99B2C66043ACBEAA8447525C356AFC6408E0C",
            "validator_index": "48",
            "height": "7714",
            "round": "1",
            "timestamp": "2018-07-30T18:36:46.759208664Z",
            "type": 2,
            "block_id": {
              "hash": "BCE6E1A6828E64288A5F3D41278211DE33C6176D",
              "parts": {
                "total": "1",
                "hash": "533465996A53A45B166E9C30250BDAFB7226482E"
              }
            },
            "signature": {
              "type": "tendermint/SignatureEd25519",
              "value": "FhW6JFV6d40OlDnpWEzeo2DV0yay0t02/TlOVjU88MneKuPghbho/iZIMildfuXB/oZSy/MiJzNYrCpGxRs9AQ=="
            }
          },
          {
            "validator_address": "69EDADFA4A803E9DBF548C900D4A465E7D154262",
            "validator_index": "49",
            "height": "7714",
            "round": "1",
            "timestamp": "2018-07-30T18:36:46.773421833Z",
            "type": 2,
            "block_id": {
              "hash": "BCE6E1A6828E64288A5F3D41278211DE33C6176D",
              "parts": {
                "total": "1",
                "hash": "533465996A53A45B166E9C30250BDAFB7226482E"
              }
            },
            "signature": {
              "type": "tendermint/SignatureEd25519",
              "value": "ewge/LxH1KV5eLxfD10mF0eJbk3LXkG9igb6HaQCKuW8amZ7p9jTGeG4nF7cwGqmZwOpdnO4qRakyQfddLhgAQ=="
            }
          },
          {
            "validator_address": "6D3AD380E398D8592B03AA124BAFED5F125DF863",
            "validator_index": "50",
            "height": "7714",
            "round": "1",
            "timestamp": "2018-07-30T18:35:45.028343971Z",
            "type": 2,
            "block_id": {
              "hash": "BCE6E1A6828E64288A5F3D41278211DE33C6176D",
              "parts": {
                "total": "1",
                "hash": "533465996A53A45B166E9C30250BDAFB7226482E"
              }
            },
            "signature": {
              "type": "tendermint/SignatureEd25519",
              "value": "rM8vrIsLZdFt5UC+sOnvoR6GDQ9YZZLIaKdoEKBjdyzMs9omlsg1L8eedZiuLXcHbfmHhusCKptUdyFbSm+NAg=="
            }
          },
          {
            "validator_address": "6F6C93B8BF3495063FEC9B5C771158607F4AE9D6",
            "validator_index": "51",
            "height": "7714",
            "round": "1",
            "timestamp": "2018-07-30T18:36:46.77543393Z",
            "type": 2,
            "block_id": {
              "hash": "BCE6E1A6828E64288A5F3D41278211DE33C6176D",
              "parts": {
                "total": "1",
                "hash": "533465996A53A45B166E9C30250BDAFB7226482E"
              }
            },
            "signature": {
              "type": "tendermint/SignatureEd25519",
              "value": "/WHLqwu7rrdRXAAjCNVGOz+Y3HXU7TmF/SVFYDhPdUCB6QNxq3GtGmaGrTS8PYL44aysfC8Mywjhp7TfLX+HBA=="
            }
          },
          {
            "validator_address": "732CEEF54C374DDC6ADECBFD707AEFD07FEDC143",
            "validator_index": "52",
            "height": "7714",
            "round": "1",
            "timestamp": "2018-07-30T18:36:46.747423094Z",
            "type": 2,
            "block_id": {
              "hash": "BCE6E1A6828E64288A5F3D41278211DE33C6176D",
              "parts": {
                "total": "1",
                "hash": "533465996A53A45B166E9C30250BDAFB7226482E"
              }
            },
            "signature": {
              "type": "tendermint/SignatureEd25519",
              "value": "RP5sOjvz5PHTZrQWTkSsVRfxzgKQgVpkSskGc+JK7uLuePgQsHYlWdS+6EH/1rhmbbHVujJ9PZX+Sa2FvRrpBw=="
            }
          },
          {
            "validator_address": "7393D691BFAE9661918C09932D4D9060AB40939B",
            "validator_index": "53",
            "height": "7714",
            "round": "1",
            "timestamp": "2018-07-30T18:36:46.835347246Z",
            "type": 2,
            "block_id": {
              "hash": "BCE6E1A6828E64288A5F3D41278211DE33C6176D",
              "parts": {
                "total": "1",
                "hash": "533465996A53A45B166E9C30250BDAFB7226482E"
              }
            },
            "signature": {
              "type": "tendermint/SignatureEd25519",
              "value": "Z+DEubOF3OmjP+/7/82XB/9fcR5eEskhWJOV7NxdXH8GAiXiG2B3owxMMvnX0X1cmTXnqY8vwEE0BlC41oa5Dw=="
            }
          },
          {
            "validator_address": "751E43437224E8BB6D1569B3E2B2616B6E7F4397",
            "validator_index": "54",
            "height": "7714",
            "round": "1",
            "timestamp": "2018-07-30T18:36:46.672090102Z",
            "type": 2,
            "block_id": {
              "hash": "BCE6E1A6828E64288A5F3D41278211DE33C6176D",
              "parts": {
                "total": "1",
                "hash": "533465996A53A45B166E9C30250BDAFB7226482E"
              }
            },
            "signature": {
              "type": "tendermint/SignatureEd25519",
              "value": "xUWNAbYfTnunhyLh5s4s0rN1HpW5s6aTejdYfMI5v51pNP2mtEtJCitiNUGAdGFMxN/UEDuVPwvp4zn6X65iCQ=="
            }
          },
          {
            "validator_address": "7EB7593F519F1180C7E872D0494611464EDF03AE",
            "validator_index": "55",
            "height": "7714",
            "round": "1",
            "timestamp": "2018-07-30T18:36:46.781383461Z",
            "type": 2,
            "block_id": {
              "hash": "BCE6E1A6828E64288A5F3D41278211DE33C6176D",
              "parts": {
                "total": "1",
                "hash": "533465996A53A45B166E9C30250BDAFB7226482E"
              }
            },
            "signature": {
              "type": "tendermint/SignatureEd25519",
              "value": "QBXw+Lti5w9z+e8JGx4KrhwM0cWUxkAOMpVXUh21Ss4DDtsBt2CENf08wOhAUIL/5X+z6owtSxuDyniTMYIaAg=="
            }
          },
          {
            "validator_address": "807CF675BA8479FC4FEC1047215DF07970040F1F",
            "validator_index": "56",
            "height": "7714",
            "round": "1",
            "timestamp": "2018-07-30T18:36:46.998999568Z",
            "type": 2,
            "block_id": {
              "hash": "BCE6E1A6828E64288A5F3D41278211DE33C6176D",
              "parts": {
                "total": "1",
                "hash": "533465996A53A45B166E9C30250BDAFB7226482E"
              }
            },
            "signature": {
              "type": "tendermint/SignatureEd25519",
              "value": "mVusuOsSUCydtPythmsO+a4GYArS3NdR6qH2Vooe0FbXysTX+GLqgyMUxjgkklu7LIo99cgmvaf9RdjGWGq3CQ=="
            }
          },
          {
            "validator_address": "8126192EA66E8ADE6B36924534721366B987A4C1",
            "validator_index": "57",
            "height": "7714",
            "round": "1",
            "timestamp": "2018-07-30T18:36:46.644564376Z",
            "type": 2,
            "block_id": {
              "hash": "BCE6E1A6828E64288A5F3D41278211DE33C6176D",
              "parts": {
                "total": "1",
                "hash": "533465996A53A45B166E9C30250BDAFB7226482E"
              }
            },
            "signature": {
              "type": "tendermint/SignatureEd25519",
              "value": "tpjT2fLo2ImU2xkKjCfAyUJa5tXs6pnC1mhUjSJzuiyGvjYMALI1C5Qad60gkllIzTdzo6KLaPeoKm4GN4r4CQ=="
            }
          },
          null,
          {
            "validator_address": "83AB321E012C57746689FED3A6064DF331F81007",
            "validator_index": "59",
            "height": "7714",
            "round": "1",
            "timestamp": "2018-07-30T18:36:46.750199965Z",
            "type": 2,
            "block_id": {
              "hash": "BCE6E1A6828E64288A5F3D41278211DE33C6176D",
              "parts": {
                "total": "1",
                "hash": "533465996A53A45B166E9C30250BDAFB7226482E"
              }
            },
            "signature": {
              "type": "tendermint/SignatureEd25519",
              "value": "RON9jAXJJSw6Nxn/cdCzCL1yhmjy8QWdasQxNeiYOqgSAw44VRdb6iIbbAfhNdbeCv8Kd5qcYtfAaVwnSyVzAA=="
            }
          },
          {
            "validator_address": "83BB1B88D3DBB20AD845FECA07749EBD87D3754D",
            "validator_index": "60",
            "height": "7714",
            "round": "1",
            "timestamp": "2018-07-30T18:36:46.931393285Z",
            "type": 2,
            "block_id": {
              "hash": "BCE6E1A6828E64288A5F3D41278211DE33C6176D",
              "parts": {
                "total": "1",
                "hash": "533465996A53A45B166E9C30250BDAFB7226482E"
              }
            },
            "signature": {
              "type": "tendermint/SignatureEd25519",
              "value": "LpnfDwQLHBSYECAS1TswIS8R2zo2KsgndQ61msRyuHdBYsDkPIw0InGDQIHG2iADfTgsskSvtXop4lkGKLdsBQ=="
            }
          },
          null,
          {
            "validator_address": "8F06FE1FD042683C426137FBC4BBAA4288924217",
            "validator_index": "62",
            "height": "7714",
            "round": "1",
            "timestamp": "2018-07-30T18:36:46.728312911Z",
            "type": 2,
            "block_id": {
              "hash": "BCE6E1A6828E64288A5F3D41278211DE33C6176D",
              "parts": {
                "total": "1",
                "hash": "533465996A53A45B166E9C30250BDAFB7226482E"
              }
            },
            "signature": {
              "type": "tendermint/SignatureEd25519",
              "value": "lDrfcG6vtbGm3WnqaRNHiWw9KiIC8fnu9ZhZPEezjemiw6KiLjfognTxnIbQZQL6TZtBu0Nqvx74fWudciBRCg=="
            }
          },
          {
            "validator_address": "8F45617BF45B10A3F8283DEBDB35E38C7CA43237",
            "validator_index": "63",
            "height": "7714",
            "round": "1",
            "timestamp": "2018-07-30T18:36:46.721215885Z",
            "type": 2,
            "block_id": {
              "hash": "BCE6E1A6828E64288A5F3D41278211DE33C6176D",
              "parts": {
                "total": "1",
                "hash": "533465996A53A45B166E9C30250BDAFB7226482E"
              }
            },
            "signature": {
              "type": "tendermint/SignatureEd25519",
              "value": "YAMiLqpu6q9MVZFvAzBZtpOZm5c3mLZ1E3hDtCmBqSujsmTMG6Twe0O18d1DTMT9Y9F4nQvIrUS+gynC0PbAAg=="
            }
          },
          null,
          {
            "validator_address": "95980831E186F2540F6E9FB6C8E74DE2401405AC",
            "validator_index": "65",
            "height": "7714",
            "round": "1",
            "timestamp": "2018-07-30T18:36:46.705044712Z",
            "type": 2,
            "block_id": {
              "hash": "BCE6E1A6828E64288A5F3D41278211DE33C6176D",
              "parts": {
                "total": "1",
                "hash": "533465996A53A45B166E9C30250BDAFB7226482E"
              }
            },
            "signature": {
              "type": "tendermint/SignatureEd25519",
              "value": "4a4jLCaNQc7KCZVBf/8veimzmyDXIf6uaAyF5On6lVqf/dKGFIXLz7riwqvppuLBJkzWrpX5XG2ll/K7qgOADQ=="
            }
          },
          {
            "validator_address": "95FAFBC1E0579C83D290A063020CE87C5334BD9B",
            "validator_index": "66",
            "height": "7714",
            "round": "1",
            "timestamp": "2018-07-30T18:36:46.700422966Z",
            "type": 2,
            "block_id": {
              "hash": "BCE6E1A6828E64288A5F3D41278211DE33C6176D",
              "parts": {
                "total": "1",
                "hash": "533465996A53A45B166E9C30250BDAFB7226482E"
              }
            },
            "signature": {
              "type": "tendermint/SignatureEd25519",
              "value": "FPSkI/5wIeeTUUr/raVmhAnyFI7dQmrV9bw4kaxO4dv4m+9IsB1sqMgpVQrROH87mJ3KPffQcFVN/ush7g+iDw=="
            }
          },
          {
            "validator_address": "96BDE45EC52606CF5CB59853097871AD60680549",
            "validator_index": "67",
            "height": "7714",
            "round": "1",
            "timestamp": "2018-07-30T18:36:46.742575931Z",
            "type": 2,
            "block_id": {
              "hash": "BCE6E1A6828E64288A5F3D41278211DE33C6176D",
              "parts": {
                "total": "1",
                "hash": "533465996A53A45B166E9C30250BDAFB7226482E"
              }
            },
            "signature": {
              "type": "tendermint/SignatureEd25519",
              "value": "RTeXiJGKJRUNtRLAc3RFb6ot3A6vMR+m7Z53pddDyozQaYJwYNfksoF92NJmwnRx1+Edcu+JJaxplVM+34MuBQ=="
            }
          },
          {
            "validator_address": "970CD321881185BF83DB2923C321B0E75FDBB2B8",
            "validator_index": "68",
            "height": "7714",
            "round": "1",
            "timestamp": "2018-07-30T18:36:46.664717768Z",
            "type": 2,
            "block_id": {
              "hash": "BCE6E1A6828E64288A5F3D41278211DE33C6176D",
              "parts": {
                "total": "1",
                "hash": "533465996A53A45B166E9C30250BDAFB7226482E"
              }
            },
            "signature": {
              "type": "tendermint/SignatureEd25519",
              "value": "m9rDi32TI/v1UchBlITe/VuIiJXVmsKe0vOmKXp9x3cJdmyQRGSo35E3rHFRAT/Gusn6BXbg3dwLxd5ummu+BQ=="
            }
          },
          null,
          {
            "validator_address": "9C29C9B76D27586E4D9AD2AED0E943162645E55C",
            "validator_index": "70",
            "height": "7714",
            "round": "1",
            "timestamp": "2018-07-30T18:36:46.599206761Z",
            "type": 2,
            "block_id": {
              "hash": "BCE6E1A6828E64288A5F3D41278211DE33C6176D",
              "parts": {
                "total": "1",
                "hash": "533465996A53A45B166E9C30250BDAFB7226482E"
              }
            },
            "signature": {
              "type": "tendermint/SignatureEd25519",
              "value": "acWhlUMYzOU1cCejfxfPszY4gSkpy+ZBeggYDmNEYT54kIQS9YD7+rU4ZKZwkO8vZI+Uvdp5DfaoyCYj41L9Cg=="
            }
          },
          {
            "validator_address": "9D93AD02FE1BD7E76B9E58D7EB461088EAD011E5",
            "validator_index": "71",
            "height": "7714",
            "round": "1",
            "timestamp": "2018-07-30T18:36:46.66452064Z",
            "type": 2,
            "block_id": {
              "hash": "BCE6E1A6828E64288A5F3D41278211DE33C6176D",
              "parts": {
                "total": "1",
                "hash": "533465996A53A45B166E9C30250BDAFB7226482E"
              }
            },
            "signature": {
              "type": "tendermint/SignatureEd25519",
              "value": "FaHYt8rOW/fnGDwShNilYSgiQiVpn0kiqHwftVQ8vZyO92SozzreZG433TOdLRiiNKFAuSy4T24FQ7YOROBGCA=="
            }
          },
          null,
          {
            "validator_address": "A0A6466F4ABEA09C3B55E3709AFDE217A103209F",
            "validator_index": "73",
            "height": "7714",
            "round": "1",
            "timestamp": "2018-07-30T18:36:46.657240567Z",
            "type": 2,
            "block_id": {
              "hash": "BCE6E1A6828E64288A5F3D41278211DE33C6176D",
              "parts": {
                "total": "1",
                "hash": "533465996A53A45B166E9C30250BDAFB7226482E"
              }
            },
            "signature": {
              "type": "tendermint/SignatureEd25519",
              "value": "fHB3zsfMw+IrcoAqY3awMnje3EzvxU/dSqUylkpmCyn6jJdt1vlylAKUmiOUIcaB8PRdOiyhAL2QEvJd0cmpDA=="
            }
          },
          {
            "validator_address": "A5868971300F155020634D7BB49C7634F7AACCD3",
            "validator_index": "74",
            "height": "7714",
            "round": "1",
            "timestamp": "2018-07-30T18:36:46.739232756Z",
            "type": 2,
            "block_id": {
              "hash": "BCE6E1A6828E64288A5F3D41278211DE33C6176D",
              "parts": {
                "total": "1",
                "hash": "533465996A53A45B166E9C30250BDAFB7226482E"
              }
            },
            "signature": {
              "type": "tendermint/SignatureEd25519",
              "value": "gWqGGEfHWKKPbbswzSLwJW3tIkAWrDBh6HMIXVvHkI5FcgmRR37zb4aJqRGQJRA6Lf6orRp69RixnzRBBstZDQ=="
            }
          },
          {
            "validator_address": "A6B3A5B5D982CFD7B5FDFA15CF5A720E7AE25E7F",
            "validator_index": "75",
            "height": "7714",
            "round": "1",
            "timestamp": "2018-07-30T18:36:46.664236813Z",
            "type": 2,
            "block_id": {
              "hash": "BCE6E1A6828E64288A5F3D41278211DE33C6176D",
              "parts": {
                "total": "1",
                "hash": "533465996A53A45B166E9C30250BDAFB7226482E"
              }
            },
            "signature": {
              "type": "tendermint/SignatureEd25519",
              "value": "pYEBV/TMxR9j2kAOa3jWsRgDW+pVkp5mpgXaQpjLrmwL/joeZndbeZAGgJMsTRU2RhogjKg3DVGyEPW1Q31iDg=="
            }
          },
          {
            "validator_address": "AC96444A9083890B7C7B430DB17BF1D3EA5EED04",
            "validator_index": "76",
            "height": "7714",
            "round": "1",
            "timestamp": "2018-07-30T18:36:46.785314529Z",
            "type": 2,
            "block_id": {
              "hash": "BCE6E1A6828E64288A5F3D41278211DE33C6176D",
              "parts": {
                "total": "1",
                "hash": "533465996A53A45B166E9C30250BDAFB7226482E"
              }
            },
            "signature": {
              "type": "tendermint/SignatureEd25519",
              "value": "UiVr8Mc8XSJK4AEK+O6h16Rm4VVPwGmYwxqwAB4BKtL7B+iCTf3YHi4MHkhBoZE3GgPuiudNfRIhdE0f5q+iBg=="
            }
          },
          {
            "validator_address": "ACB97FDA2D940AF0709B73537C458EB988AD2893",
            "validator_index": "77",
            "height": "7714",
            "round": "1",
            "timestamp": "2018-07-30T18:36:46.619019669Z",
            "type": 2,
            "block_id": {
              "hash": "BCE6E1A6828E64288A5F3D41278211DE33C6176D",
              "parts": {
                "total": "1",
                "hash": "533465996A53A45B166E9C30250BDAFB7226482E"
              }
            },
            "signature": {
              "type": "tendermint/SignatureEd25519",
              "value": "sEU/AfC22vjEqsviZ0DeZuCv0c2aW1w4v3CVzF7Dxcsb4Z6bU2YtYKyFN4jrLQWDn/r0QQsRH/sEprUPl0nADw=="
            }
          },
          {
            "validator_address": "B197425B3210375F211661DE02EF2AE36580EB0F",
            "validator_index": "78",
            "height": "7714",
            "round": "1",
            "timestamp": "2018-07-30T18:36:46.705130527Z",
            "type": 2,
            "block_id": {
              "hash": "BCE6E1A6828E64288A5F3D41278211DE33C6176D",
              "parts": {
                "total": "1",
                "hash": "533465996A53A45B166E9C30250BDAFB7226482E"
              }
            },
            "signature": {
              "type": "tendermint/SignatureEd25519",
              "value": "NI5ZMm5pteJ2fCci016/OOOY51kW6IZdulAuOyb2XyE9f2LD7N9KEYNlQY7TdV/nVEWI68kq5zFgPf9yMsU4BQ=="
            }
          },
          {
            "validator_address": "B45E54D2D1CB5A4CCD1D49016608C18E7C56B270",
            "validator_index": "79",
            "height": "7714",
            "round": "1",
            "timestamp": "2018-07-30T18:36:46.751627454Z",
            "type": 2,
            "block_id": {
              "hash": "BCE6E1A6828E64288A5F3D41278211DE33C6176D",
              "parts": {
                "total": "1",
                "hash": "533465996A53A45B166E9C30250BDAFB7226482E"
              }
            },
            "signature": {
              "type": "tendermint/SignatureEd25519",
              "value": "utl0AKOerUcAZmv+8PXb8rDjKjaVCP0/BGLr41UHs6gFw1/XGJU8uSnH9KamyJVu86IBb81+2LcmG9Cypd+LCQ=="
            }
          },
          {
            "validator_address": "B59A34C0BE4EC73AF6A67D274F1695C9259C237C",
            "validator_index": "80",
            "height": "7714",
            "round": "1",
            "timestamp": "2018-07-30T18:36:46.851612686Z",
            "type": 2,
            "block_id": {
              "hash": "BCE6E1A6828E64288A5F3D41278211DE33C6176D",
              "parts": {
                "total": "1",
                "hash": "533465996A53A45B166E9C30250BDAFB7226482E"
              }
            },
            "signature": {
              "type": "tendermint/SignatureEd25519",
              "value": "5e+Ak14gb/rMdVSTsUTXZjGzXFpqh0reczRo7dhAXZ3nheqakeFlEjwiWtI3/4GsaxSqMpXnQztNiFhUNDhfDA=="
            }
          },
          {
            "validator_address": "BC36FEDD6EF6071118A3E51859DF3831A2EC4782",
            "validator_index": "81",
            "height": "7714",
            "round": "1",
            "timestamp": "2018-07-30T18:36:46.660440939Z",
            "type": 2,
            "block_id": {
              "hash": "BCE6E1A6828E64288A5F3D41278211DE33C6176D",
              "parts": {
                "total": "1",
                "hash": "533465996A53A45B166E9C30250BDAFB7226482E"
              }
            },
            "signature": {
              "type": "tendermint/SignatureEd25519",
              "value": "chouzsSAUdWKMtYxQBRvMDlbkXDgb75lEU0Zw4h0DL8CzqoQ3MndlwkSwSbF8v4/EIwHDXbDdSjhLNXQRAbSDA=="
            }
          },
          {
            "validator_address": "BD9D0DA513BF099DB4BB6E725A4E19832789882F",
            "validator_index": "82",
            "height": "7714",
            "round": "1",
            "timestamp": "2018-07-30T18:36:46.691539614Z",
            "type": 2,
            "block_id": {
              "hash": "BCE6E1A6828E64288A5F3D41278211DE33C6176D",
              "parts": {
                "total": "1",
                "hash": "533465996A53A45B166E9C30250BDAFB7226482E"
              }
            },
            "signature": {
              "type": "tendermint/SignatureEd25519",
              "value": "bJsA4N/wF5V2RbE5jEuzI4S/+rZksmIl8ywj9/+8cySjrLZiGZx6e49lQz8qZ6DaBkNayQjqEw07sXU7tyFGDA=="
            }
          },
          {
            "validator_address": "C1134A2FF8F7338E7CDB3FE57DDD2A655DEB1E22",
            "validator_index": "83",
            "height": "7714",
            "round": "1",
            "timestamp": "2018-07-30T18:36:46.611628818Z",
            "type": 2,
            "block_id": {
              "hash": "BCE6E1A6828E64288A5F3D41278211DE33C6176D",
              "parts": {
                "total": "1",
                "hash": "533465996A53A45B166E9C30250BDAFB7226482E"
              }
            },
            "signature": {
              "type": "tendermint/SignatureEd25519",
              "value": "Wjx3a9x8m/AgGwzFk6NMIxU5A3A48DQxWU1+wQJnkIxlAB8dfcAlL3UIK+DcunnWGkjh4eXGN66XBRSrBaZKAw=="
            }
          },
          {
            "validator_address": "C39A8A2B85198DCB8F23AD1F6C198E2BA7AB5D60",
            "validator_index": "84",
            "height": "7714",
            "round": "1",
            "timestamp": "2018-07-30T18:36:46.633533777Z",
            "type": 2,
            "block_id": {
              "hash": "BCE6E1A6828E64288A5F3D41278211DE33C6176D",
              "parts": {
                "total": "1",
                "hash": "533465996A53A45B166E9C30250BDAFB7226482E"
              }
            },
            "signature": {
              "type": "tendermint/SignatureEd25519",
              "value": "tHN+GRv+jDo/+YOrkHKURREjZZ5oEtvpgTJi7d6aOy2V0ndnCFNjnHpdZssG86vnGTcN7+FYPB0O1rH59hyKAA=="
            }
          },
          {
            "validator_address": "C4335190C3B5BD4BA5568BC0F99C34162D940D08",
            "validator_index": "85",
            "height": "7714",
            "round": "1",
            "timestamp": "2018-07-30T18:36:46.758021551Z",
            "type": 2,
            "block_id": {
              "hash": "BCE6E1A6828E64288A5F3D41278211DE33C6176D",
              "parts": {
                "total": "1",
                "hash": "533465996A53A45B166E9C30250BDAFB7226482E"
              }
            },
            "signature": {
              "type": "tendermint/SignatureEd25519",
              "value": "3kkc2gFJ0AjHQ1BQap0TmchauCnusetTqWJv1utTju86oBXmIiYAyn/womj+C0ke92Z1gUx2qoK/fgHE0+55BQ=="
            }
          },
          {
            "validator_address": "C561CFA081677046376396922E7576E5F7B316AD",
            "validator_index": "86",
            "height": "7714",
            "round": "1",
            "timestamp": "2018-07-30T18:36:46.733669907Z",
            "type": 2,
            "block_id": {
              "hash": "BCE6E1A6828E64288A5F3D41278211DE33C6176D",
              "parts": {
                "total": "1",
                "hash": "533465996A53A45B166E9C30250BDAFB7226482E"
              }
            },
            "signature": {
              "type": "tendermint/SignatureEd25519",
              "value": "JkMZUR931zzKtjJtb3aqT/MfohGx44exJRTxWCpctAv8rsfN+pRR6Yki7SFa8wFGccFCSBXnzf22GodRxFvSAA=="
            }
          },
          {
            "validator_address": "CE589EA77B056D268D30D1DC1D68A70E0F885E95",
            "validator_index": "87",
            "height": "7714",
            "round": "1",
            "timestamp": "2018-07-30T18:36:46.720377104Z",
            "type": 2,
            "block_id": {
              "hash": "BCE6E1A6828E64288A5F3D41278211DE33C6176D",
              "parts": {
                "total": "1",
                "hash": "533465996A53A45B166E9C30250BDAFB7226482E"
              }
            },
            "signature": {
              "type": "tendermint/SignatureEd25519",
              "value": "EZmcLrNUUrRIgtAaqfJk7Q9uBkqD+oOa7touwFhAG71g7BoM7IB2iSBRooRjvx/vP7chyYGYIt8HgT3UwIByBQ=="
            }
          },
          {
            "validator_address": "CEB97DB5CB18270247ABDE6CF2F84F9AEE8A2904",
            "validator_index": "88",
            "height": "7714",
            "round": "1",
            "timestamp": "2018-07-30T18:36:46.426985192Z",
            "type": 2,
            "block_id": {
              "hash": "BCE6E1A6828E64288A5F3D41278211DE33C6176D",
              "parts": {
                "total": "1",
                "hash": "533465996A53A45B166E9C30250BDAFB7226482E"
              }
            },
            "signature": {
              "type": "tendermint/SignatureEd25519",
              "value": "Ysw4YdkRKaN4lvPsqzkyKS1Xtauq5xE7eNZshcjJGL5F6k4o1A0d4dK2lauaClI6THrYUu6HGFScn132VQhQCA=="
            }
          },
          {
            "validator_address": "CF205769734F5758CC39F907EFB73D6BAF915FB1",
            "validator_index": "89",
            "height": "7714",
            "round": "1",
            "timestamp": "2018-07-30T18:36:46.774987587Z",
            "type": 2,
            "block_id": {
              "hash": "BCE6E1A6828E64288A5F3D41278211DE33C6176D",
              "parts": {
                "total": "1",
                "hash": "533465996A53A45B166E9C30250BDAFB7226482E"
              }
            },
            "signature": {
              "type": "tendermint/SignatureEd25519",
              "value": "vckXda2Vj4zIen00JrOPrQFrFXnIUhAw2/1rn5neV9Evf9J9SWXpwk5eB64TnfNnxxpsv1dK1MxxyW6dp4WKCA=="
            }
          },
          {
            "validator_address": "D2134B826A1E25A955905CB79A4D8731CAFA0CCE",
            "validator_index": "90",
            "height": "7714",
            "round": "1",
            "timestamp": "2018-07-30T18:36:46.814641154Z",
            "type": 2,
            "block_id": {
              "hash": "BCE6E1A6828E64288A5F3D41278211DE33C6176D",
              "parts": {
                "total": "1",
                "hash": "533465996A53A45B166E9C30250BDAFB7226482E"
              }
            },
            "signature": {
              "type": "tendermint/SignatureEd25519",
              "value": "HjQHDQpRqX4Fejsd6T0fBcnsWERvYkc2PGlV8rsFjAcEOMcAYuUc7T2SbAIV7dE804s0AguwgXPjChGGbqT5Cw=="
            }
          },
          null,
          {
            "validator_address": "D6285C3422C8886445D53757CBE12D2B91B5A9D0",
            "validator_index": "92",
            "height": "7714",
            "round": "1",
            "timestamp": "2018-07-30T18:36:29.026074953Z",
            "type": 2,
            "block_id": {
              "hash": "BCE6E1A6828E64288A5F3D41278211DE33C6176D",
              "parts": {
                "total": "1",
                "hash": "533465996A53A45B166E9C30250BDAFB7226482E"
              }
            },
            "signature": {
              "type": "tendermint/SignatureEd25519",
              "value": "Ca84gSkcn2lOmkjbWllDm87XUMYg6MKcO421EVEeHIknz0esIFUX2MxoeAfFlZ5VlAhYEeeCuM+43x1QdiODBw=="
            }
          },
          null,
          null,
          {
            "validator_address": "DB7E6732471D3EA5C90C17A9974D9F88AB45F2FB",
            "validator_index": "95",
            "height": "7714",
            "round": "1",
            "timestamp": "2018-07-30T18:36:46.706079386Z",
            "type": 2,
            "block_id": {
              "hash": "BCE6E1A6828E64288A5F3D41278211DE33C6176D",
              "parts": {
                "total": "1",
                "hash": "533465996A53A45B166E9C30250BDAFB7226482E"
              }
            },
            "signature": {
              "type": "tendermint/SignatureEd25519",
              "value": "225IQE7vrflUFIuAX0RmrDmgi+joReOxmVA+wiwAqBN1A+VgYNSzeuf0EutEv5PMr420q7hgJeDICtmnnstgDg=="
            }
          },
          {
            "validator_address": "DF54B862410BCD9B5C516FBB6C56BDC826ED6FA7",
            "validator_index": "96",
            "height": "7714",
            "round": "1",
            "timestamp": "2018-07-30T18:36:46.788836076Z",
            "type": 2,
            "block_id": {
              "hash": "BCE6E1A6828E64288A5F3D41278211DE33C6176D",
              "parts": {
                "total": "1",
                "hash": "533465996A53A45B166E9C30250BDAFB7226482E"
              }
            },
            "signature": {
              "type": "tendermint/SignatureEd25519",
              "value": "3yvWTQvkWtMwFpYGFBdYDN5oC+QgrBXf+J483PzVSb5SImxVKbRPxMckkHyzbrY0PmNwhb1O1oqWKgwtmeRCAA=="
            }
          },
          {
            "validator_address": "DFAF0C8B1B78D6D552B0189DE3ACA351439A1319",
            "validator_index": "97",
            "height": "7714",
            "round": "1",
            "timestamp": "2018-07-30T18:36:46.630189916Z",
            "type": 2,
            "block_id": {
              "hash": "BCE6E1A6828E64288A5F3D41278211DE33C6176D",
              "parts": {
                "total": "1",
                "hash": "533465996A53A45B166E9C30250BDAFB7226482E"
              }
            },
            "signature": {
              "type": "tendermint/SignatureEd25519",
              "value": "3ah1Ml/5qCa+Mo7zXdWSu8Aqx36fdAF8jMWEsAlNF6hsj+Dx94f89RP6fhVpSygBqsmIR58ap6xoXC5XmY0oAA=="
            }
          },
          {
            "validator_address": "E1DBC77881161A5A3A8536A57536EAE546A75D69",
            "validator_index": "98",
            "height": "7714",
            "round": "1",
            "timestamp": "2018-07-30T18:36:46.616945548Z",
            "type": 2,
            "block_id": {
              "hash": "BCE6E1A6828E64288A5F3D41278211DE33C6176D",
              "parts": {
                "total": "1",
                "hash": "533465996A53A45B166E9C30250BDAFB7226482E"
              }
            },
            "signature": {
              "type": "tendermint/SignatureEd25519",
              "value": "jo3HrjZQkZaDkfM845J+aD+xXBM4jbnk5A/LL6CaKWbciFrUdDRjEPW8W6ZzFwqldFweEK+kci6ViAO40OF1Cw=="
            }
          },
          {
            "validator_address": "E300E9D484374C1D3E97C1D93CAC3B160A056298",
            "validator_index": "99",
            "height": "7714",
            "round": "1",
            "timestamp": "2018-07-30T18:36:46.881197911Z",
            "type": 2,
            "block_id": {
              "hash": "BCE6E1A6828E64288A5F3D41278211DE33C6176D",
              "parts": {
                "total": "1",
                "hash": "533465996A53A45B166E9C30250BDAFB7226482E"
              }
            },
            "signature": {
              "type": "tendermint/SignatureEd25519",
              "value": "SvZSVmC6GzvjRSodLm29d+0bMB+v2DWAKwOWpTzIghea7F/00RitenhLsJHkGV8aglsw8qBV3EQ4bnNHFx6IAQ=="
            }
          },
          {
            "validator_address": "E39B5778E0D4297A46F45CF6940B0A163A430FF8",
            "validator_index": "100",
            "height": "7714",
            "round": "1",
            "timestamp": "2018-07-30T18:36:46.662092462Z",
            "type": 2,
            "block_id": {
              "hash": "BCE6E1A6828E64288A5F3D41278211DE33C6176D",
              "parts": {
                "total": "1",
                "hash": "533465996A53A45B166E9C30250BDAFB7226482E"
              }
            },
            "signature": {
              "type": "tendermint/SignatureEd25519",
              "value": "zaId8E9IXeGSTFaHepH5wD31Q6CL8Mm4OSZ+Cg585JGVKUrxVd/wXLOHViFDnMS/QaXvjbPxNOCfSYUq5P52CQ=="
            }
          },
          {
            "validator_address": "E3B19738F7132F950668504D326C7660F159D170",
            "validator_index": "101",
            "height": "7714",
            "round": "1",
            "timestamp": "2018-07-30T18:36:46.710662047Z",
            "type": 2,
            "block_id": {
              "hash": "BCE6E1A6828E64288A5F3D41278211DE33C6176D",
              "parts": {
                "total": "1",
                "hash": "533465996A53A45B166E9C30250BDAFB7226482E"
              }
            },
            "signature": {
              "type": "tendermint/SignatureEd25519",
              "value": "MvK/Ejwh9W2irAMhvqU1D2XMcDlv7pTTAGohZrnkfyZA/fjiKk+7xEQhMFWMJmI9gkFaLNaSEbN+qVZyUm6BDw=="
            }
          },
          {
            "validator_address": "E42F8AEABB685219F7027F54D2B0DBC7846F633A",
            "validator_index": "102",
            "height": "7714",
            "round": "1",
            "timestamp": "2018-07-30T18:36:46.068008799Z",
            "type": 2,
            "block_id": {
              "hash": "BCE6E1A6828E64288A5F3D41278211DE33C6176D",
              "parts": {
                "total": "1",
                "hash": "533465996A53A45B166E9C30250BDAFB7226482E"
              }
            },
            "signature": {
              "type": "tendermint/SignatureEd25519",
              "value": "U2KG4ZMlwJuZ+nCzvgeJpnxlOofxrGOjE0RLnwJ+0ewqMzLUDcn19C7ZmBC+XbMkoJaFWG4GkjqJUkLSuDORCg=="
            }
          },
          {
            "validator_address": "E4E6C2E81269DFFA196C17F98240E491479A6008",
            "validator_index": "103",
            "height": "7714",
            "round": "1",
            "timestamp": "2018-07-30T18:36:46.748732788Z",
            "type": 2,
            "block_id": {
              "hash": "BCE6E1A6828E64288A5F3D41278211DE33C6176D",
              "parts": {
                "total": "1",
                "hash": "533465996A53A45B166E9C30250BDAFB7226482E"
              }
            },
            "signature": {
              "type": "tendermint/SignatureEd25519",
              "value": "FSFzg7PRtD1kFyqVDZ1M/qQkMn+MoSS8uo9A7kDAvpBjW1gLxI2JGfb6YTmgjSCs7dweKgy1nX3qTXF0jp+RDA=="
            }
          },
          {
            "validator_address": "E4FEB2846F4F3B0ECDCBE9C9DCB2248248A5AF0F",
            "validator_index": "104",
            "height": "7714",
            "round": "1",
            "timestamp": "2018-07-30T18:36:46.950178532Z",
            "type": 2,
            "block_id": {
              "hash": "BCE6E1A6828E64288A5F3D41278211DE33C6176D",
              "parts": {
                "total": "1",
                "hash": "533465996A53A45B166E9C30250BDAFB7226482E"
              }
            },
            "signature": {
              "type": "tendermint/SignatureEd25519",
              "value": "DX1Os3oxLzYMpxf2vDFOkdSWavHLLWLQl4yYVqWHh9OdbQ8BhWmsTahC24QYd3BunH9Qbig8ukK79hVvgPm6Aw=="
            }
          },
          null,
          {
            "validator_address": "E7A30077D5D11867D3EAF99ED45BFDC1EB834509",
            "validator_index": "106",
            "height": "7714",
            "round": "1",
            "timestamp": "2018-07-30T18:36:46.670424409Z",
            "type": 2,
            "block_id": {
              "hash": "BCE6E1A6828E64288A5F3D41278211DE33C6176D",
              "parts": {
                "total": "1",
                "hash": "533465996A53A45B166E9C30250BDAFB7226482E"
              }
            },
            "signature": {
              "type": "tendermint/SignatureEd25519",
              "value": "iyLJpTNqpgsCp++uMBjqsmvy0jAyNKCc7+PWq1+8VpqVZGNW0vO03a8tCRNl0QR2Ca0CR7tP1PcjnvCkIMC/CA=="
            }
          },
          {
            "validator_address": "EBC613967F66F4EC306852CDF58B4F151CF16738",
            "validator_index": "107",
            "height": "7714",
            "round": "1",
            "timestamp": "2018-07-30T18:36:46.7594837Z",
            "type": 2,
            "block_id": {
              "hash": "BCE6E1A6828E64288A5F3D41278211DE33C6176D",
              "parts": {
                "total": "1",
                "hash": "533465996A53A45B166E9C30250BDAFB7226482E"
              }
            },
            "signature": {
              "type": "tendermint/SignatureEd25519",
              "value": "ve56Bg54+NvAf5s59L9vLPAPf+4wUairc34oTw1JSx9Aw/WwcOFWggOkCqCVaJSSpp9io9OiokFZqcUIMbPTCg=="
            }
          },
          {
            "validator_address": "EC3401441726C40ECC7E51F744483B05BC6DE9BD",
            "validator_index": "108",
            "height": "7714",
            "round": "1",
            "timestamp": "2018-07-30T18:36:46.621507103Z",
            "type": 2,
            "block_id": {
              "hash": "BCE6E1A6828E64288A5F3D41278211DE33C6176D",
              "parts": {
                "total": "1",
                "hash": "533465996A53A45B166E9C30250BDAFB7226482E"
              }
            },
            "signature": {
              "type": "tendermint/SignatureEd25519",
              "value": "CAmf9BD9bozlQkDHN63L5ZHdI0EwA0AuypP6Bww2dl3N2BE8LnHi1M8coPXz17HG/UrkqwTtKqQfkNVkNv7kAg=="
            }
          },
          {
            "validator_address": "EC95B111D032181E1EC3B5E8875C5BB8E4AE7140",
            "validator_index": "109",
            "height": "7714",
            "round": "1",
            "timestamp": "2018-07-30T18:36:46.657096298Z",
            "type": 2,
            "block_id": {
              "hash": "BCE6E1A6828E64288A5F3D41278211DE33C6176D",
              "parts": {
                "total": "1",
                "hash": "533465996A53A45B166E9C30250BDAFB7226482E"
              }
            },
            "signature": {
              "type": "tendermint/SignatureEd25519",
              "value": "yr1noozm8cprKVk8MqQ2jurdbohngvL3AKDVo+7fLrSgCt9I9mNtoqhWxEqN2z0wbgsZE3Be6wZsAjCx/xLwBg=="
            }
          },
          {
            "validator_address": "F13C1805E8131C9B47E2A46818F57D8A2841E578",
            "validator_index": "110",
            "height": "7714",
            "round": "1",
            "timestamp": "2018-07-30T18:36:46.686522268Z",
            "type": 2,
            "block_id": {
              "hash": "BCE6E1A6828E64288A5F3D41278211DE33C6176D",
              "parts": {
                "total": "1",
                "hash": "533465996A53A45B166E9C30250BDAFB7226482E"
              }
            },
            "signature": {
              "type": "tendermint/SignatureEd25519",
              "value": "nEfD3FjloUgnrYgTpqzDY/zZwdGFjJ4VRwx+4ZxAvjx653wbmV6jbK1K8hv1mNc/bY69gWBfqmdw1EY9X8M6DA=="
            }
          },
          {
            "validator_address": "F23FF36BD5B90C33CE3A03ED72DBDCF5EC07D6AF",
            "validator_index": "111",
            "height": "7714",
            "round": "1",
            "timestamp": "2018-07-30T18:36:46.742455027Z",
            "type": 2,
            "block_id": {
              "hash": "BCE6E1A6828E64288A5F3D41278211DE33C6176D",
              "parts": {
                "total": "1",
                "hash": "533465996A53A45B166E9C30250BDAFB7226482E"
              }
            },
            "signature": {
              "type": "tendermint/SignatureEd25519",
              "value": "ldX354mfl541EN5SIX4JcIQsfnjFes+ALSxVfDiBhX6IKniNuuOV54i1crI7jAhmMn2a2yXCfgKDodPXJjmuCw=="
            }
          },
          {
            "validator_address": "F4268597DE93E3E2CED38845010F8AA34E2A879E",
            "validator_index": "112",
            "height": "7714",
            "round": "1",
            "timestamp": "2018-07-30T18:36:46.753583893Z",
            "type": 2,
            "block_id": {
              "hash": "BCE6E1A6828E64288A5F3D41278211DE33C6176D",
              "parts": {
                "total": "1",
                "hash": "533465996A53A45B166E9C30250BDAFB7226482E"
              }
            },
            "signature": {
              "type": "tendermint/SignatureEd25519",
              "value": "HmVpJt5qZD3PCDFBW/k4BjwTvD0bl2lWH3bocz1yHALgF829XhQ29Mw/uySbBM71pshyGGAP1kF2+yTXo09FBA=="
            }
          },
          {
            "validator_address": "F4DEB417999B04BE2EFF9FFE03FA373D86011CC0",
            "validator_index": "113",
            "height": "7714",
            "round": "1",
            "timestamp": "2018-07-30T18:36:46.700418306Z",
            "type": 2,
            "block_id": {
              "hash": "BCE6E1A6828E64288A5F3D41278211DE33C6176D",
              "parts": {
                "total": "1",
                "hash": "533465996A53A45B166E9C30250BDAFB7226482E"
              }
            },
            "signature": {
              "type": "tendermint/SignatureEd25519",
              "value": "xOtiUu5OxdJ+avXFD2W2PjdA4CnJpkgFs6ife6TFH1mWYYbcuBOBpvfyBw4c5Xr/+JtcOYTZfgEfemgWrG7wAg=="
            }
          },
          null,
          null,
          null,
          {
            "validator_address": "FF3F3FCBCE7E62D7AD5506FF846EC4518D980515",
            "validator_index": "117",
            "height": "7714",
            "round": "1",
            "timestamp": "2018-07-30T18:36:46.673195835Z",
            "type": 2,
            "block_id": {
              "hash": "BCE6E1A6828E64288A5F3D41278211DE33C6176D",
              "parts": {
                "total": "1",
                "hash": "533465996A53A45B166E9C30250BDAFB7226482E"
              }
            },
            "signature": {
              "type": "tendermint/SignatureEd25519",
              "value": "OnHYbArdXq9Ryyp7IjyIzmCPD59bfxP5UNkwPqYMjilARR1lDfgIgGBrn7bnj4AYcCRGhm8UDGv4073HCeMWDA=="
            }
          }
        ]
      }
    },
    "canonical": true
  }
}