{
  "jsonrpc": "2.0",
  "id": "",
  "result": {
    "SignedHeader": {
      "header": {
        "chain_id": "gaia-7004",
        "height": "8211",
        "time": "2018-07-30T19:29:14.431257499Z",
        "num_txs": "0",
        "last_block_id": {
          "hash": "31487C79EE81C24650B02CC1C2E3AC49817B14A6",
          "parts": {
            "total": "1",
            "hash": "CD9280F7A44F44549A4807A8C6748756656B0480"
          }
        },
        "total_txs": "184",
        "last_commit_hash": "FB6679424045346573E0C602F1B8ABD72258FEE0",
        "data_hash": "",
        "validators_hash": "79D0A329EC5AA5F78E5EC5FBF30E13C14C4FA467",
        "consensus_hash": "D6B74BB35BDFFD8392340F2A379173548AE188FE",
        "app_hash": "1C46758E7762E62CB749E6D262DC829FE82088FA",
        "last_results_hash": "",
        "evidence_hash": ""
      },
      "commit": {
        "block_id": {
          "hash": "6CDEE5944B5B1B55445F7C293BDFB18404DAA92B",
          "parts": {
            "total": "1",
            "hash": "158A1F1A9E7C3647E432E4667057F06E2FC8B3DA"
          }
        },
        "precommits": [
          {
            "validator_address": "029359C0C768096273A68ABC902A6B17AC8D1D70",
            "validator_index": "0",
            "height": "8211",
            "round": "1",
            "timestamp": "2018-07-30T19:29:15.260852699Z",
            "type": 2,
            "block_id": {
              "hash": "6CDEE5944B5B1B55445F7C293BDFB18404DAA92B",
              "parts": {
                "total": "1",
                "hash": "158A1F1A9E7C3647E432E4667057F06E2FC8B3DA"
              }
            },
            "signature": {
              "type": "tendermint/SignatureEd25519",
              "value": "kkkaQuVi0nKHhuZ5r03wusj3VqvwYXoOYpROxuIAclKnDMYUHjhPsoBr5d+Nn3JfGN2ehDckKbmN9OKK3LjDDw=="
            }
          },
          {
            "validator_address": "02FE4B97A8387F39D1AC19E0C1702B3CC614812F",
            "validator_index": "1",
            "height": "8211",
            "round": "1",
            "timestamp": "2018-07-30T19:29:15.263808305Z",
            "type": 2,
            "block_id": {
              "hash": "6CDEE5944B5B1B55445F7C293BDFB18404DAA92B",
              "parts": {
                "total": "1",
                "hash": "158A1F1A9E7C3647E432E4667057F06E2FC8B3DA"
              }
            },
            "signature": {
              "type": "tendermint/SignatureEd25519",
              "value": "I2fQhnnopkVFN+Gmgn2mt8fNVXG3RZnfc1UBOlcoItsg9FDv4gWDsmShJHRRkqTp8LcgTGulK4eIt2gbt0GqCg=="
            }
          },
          {
            "validator_address": "0548261C50222FD710EB5EBDF03A0E6567B21D20",
            "validator_index": "2",
            "height": "8211",
            "round": "1",
            "timestamp": "2018-07-30T19:29:15.353411371Z",
            "type": 2,
            "block_id": {
              "hash": "6CDEE5944B5B1B55445F7C293BDFB18404DAA92B",
              "parts": {
                "total": "1",
                "hash": "158A1F1A9E7C3647E432E4667057F06E2FC8B3DA"
              }
            },
            "signature": {
              "type": "tendermint/SignatureEd25519",
              "value": "pHguDaAOmDWuIw5207kzEnprnaVAq74QRhqkBANfEaw2HSMoYRY5vIQiyB+QFKYg8Qkw9xKOm2lq2diISB2QCA=="
            }
          },
          {
            "validator_address": "0665ADBF9B120B7617BF955AA5653A1992C82B11",
            "validator_index": "3",
            "height": "8211",
            "round": "1",
            "timestamp": "2018-07-30T19:29:15.263528173Z",
            "type": 2,
            "block_id": {
              "hash": "6CDEE5944B5B1B55445F7C293BDFB18404DAA92B",
              "parts": {
                "total": "1",
                "hash": "158A1F1A9E7C3647E432E4667057F06E2FC8B3DA"
              }
            },
            "signature": {
              "type": "tendermint/SignatureEd25519",
              "value": "ZjliJ9a8PXG+RsmAhcPRtvjyCGY8l8vc+dR4LnYS0DXU9hlzzR21w1EKoagh+EYy5hXtgXH6zYpj44TjCYNUAA=="
            }
          },
          {
            "validator_address": "09145E611CC27EEB944FC5A956DDF710F943B9EF",
            "validator_index": "4",
            "height": "8211",
            "round": "1",
            "timestamp": "2018-07-30T19:29:15.328700309Z",
            "type": 2,
            "block_id": {
              "hash": "6CDEE5944B5B1B55445F7C293BDFB18404DAA92B",
              "parts": {
                "total": "1",
                "hash": "158A1F1A9E7C3647E432E4667057F06E2FC8B3DA"
              }
            },
            "signature": {
              "type": "tendermint/SignatureEd25519",
              "value": "VVznxwANLMoabCfcYW+tf149UiMjMaIuewRsUHhi7Jt4IF8toCpJDF0nMqCTjj4IP5iwnzKroBjTo4SfTa4zAw=="
            }
          },
          {
            "validator_address": "0989D0355A104B67AE0AE028C68FB610690E174B",
            "validator_index": "5",
            "height": "8211",
            "round": "1",
            "timestamp": "2018-07-30T19:29:15.264892144Z",
            "type": 2,
            "block_id": {
              "hash": "6CDEE5944B5B1B55445F7C293BDFB18404DAA92B",
              "parts": {
                "total": "1",
                "hash": "158A1F1A9E7C3647E432E4667057F06E2FC8B3DA"
              }
            },
            "signature": {
              "type": "tendermint/SignatureEd25519",
              "value": "qy75kS/bJNtiiLTKatH0WNRSMFEIh+VyD1Pogk4faycPtqusWauabVpdeQCdOXKo6gbc8MU8KnfokeEgfJpyCg=="
            }
          },
          {
            "validator_address": "0A692DBFFE9E5DD28E7DECC33CED1AEB4C0D014E",
            "validator_index": "6",
            "height": "8211",
            "round": "1",
            "timestamp": "2018-07-30T19:29:15.446011235Z",
            "type": 2,
            "block_id": {
              "hash": "6CDEE5944B5B1B55445F7C293BDFB18404DAA92B",
              "parts": {
                "total": "1",
                "hash": "158A1F1A9E7C3647E432E4667057F06E2FC8B3DA"
              }
            },
            "signature": {
              "type": "tendermint/SignatureEd25519",
              "value": "Q0wKFcV220RXndmdYANosBkPA7W655f1udJ2r6G4sNVCnjn4iXYzEyOEuDzQR2Kh10Oeq5WN1/rFznywZe0mAg=="
            }
          },
          {
            "validator_address": "0DDF97111D73DB825138EC15EC27DE5FE8536901",
            "validator_index": "7",
            "height": "8211",
            "round": "1",
            "timestamp": "2018-07-30T19:29:15.363338303Z",
            "type": 2,
            "block_id": {
              "hash": "6CDEE5944B5B1B55445F7C293BDFB18404DAA92B",
              "parts": {
                "total": "1",
                "hash": "158A1F1A9E7C3647E432E4667057F06E2FC8B3DA"
              }
            },
            "signature": {
              "type": "tendermint/SignatureEd25519",
              "value": "vuB4pWYpajf2SReYRJ4T7StdV/mknYGWVffH0xaXvftBECGU4bgD890Y8ZX4G118CtvWJi0QXTy4TY9CF949Dg=="
            }
          },
          null,
          {
            "validator_address": "1751786EFC085D5331C61168FFFC8202EA151B4E",
            "validator_index": "9",
            "height": "8211",
            "round": "1",
            "timestamp": "2018-07-30T19:29:14.595942064Z",
            "type": 2,
            "block_id": {
              "hash": "6CDEE5944B5B1B55445F7C293BDFB18404DAA92B",
              "parts": {
                "total": "1",
                "hash": "158A1F1A9E7C3647E432E4667057F06E2FC8B3DA"
              }
            },
            "signature": {
              "type": "tendermint/SignatureEd25519",
              "value": "VKdaG5yvr8HAJjrnYwZy/MDtbzAl4MNlbwhu6JwvTEFSz/omHBrFg024JL5LRJguTHeE33b4VpVxW6DRgHb4Cg=="
            }
          },
          {
            "validator_address": "17BB5CD01E8940FAFB948A04D5FA5A0645E5822E",
            "validator_index": "10",
            "height": "8211",
            "round": "1",
            "timestamp": "2018-07-30T19:29:15.332764828Z",
            "type": 2,
            "block_id": {
              "hash": "6CDEE5944B5B1B55445F7C293BDFB18404DAA92B",
              "parts": {
                "total": "1",
                "hash": "158A1F1A9E7C3647E432E4667057F06E2FC8B3DA"
              }
            },
            "signature": {
              "type": "tendermint/SignatureEd25519",
              "value": "2nUnV3jSfSTdVWQcuZOfX9qjcMmIKuEEyC3WVqZdx2G5U4N+3lDaKkXVugnOXJQu+9nHW0CYHzaP+RI2lrVPDg=="
            }
          },
          {
            "validator_address": "1C683A87904BC38F05004FE83301A3A3E35447EB",
            "validator_index": "11",
            "height": "8211",
            "round": "1",
            "timestamp": "2018-07-30T19:29:15.216066239Z",
            "type": 2,
            "block_id": {
              "hash": "6CDEE5944B5B1B55445F7C293BDFB18404DAA92B",
              "parts": {
                "total": "1",
                "hash": "158A1F1A9E7C3647E432E4667057F06E2FC8B3DA"
              }
            },
            "signature": {
              "type": "tendermint/SignatureEd25519",
              "value": "OM8QeYs6thEkfpj/DPfaovwUssqrLy1yQavECvhX7wgZtfuQkEe6j6TBqNFSDWbtkdY1GInnkn4xY7ooUyjaDw=="
            }
          },
          {
            "validator_address": "1E9CE94FD0BA5CFEB901F90BC658D64D85B134D2",
            "validator_index": "12",
            "height": "8211",
            "round": "1",
            "timestamp": "2018-07-30T19:29:15.265675441Z",
            "type": 2,
            "block_id": {
              "hash": "6CDEE5944B5B1B55445F7C293BDFB18404DAA92B",
              "parts": {
                "total": "1",
                "hash": "158A1F1A9E7C3647E432E4667057F06E2FC8B3DA"
              }
            },
            "signature": {
              "type": "tendermint/SignatureEd25519",
              "value": "pLCBmPKrTknRkk8fSwcWnYYVBt+yo75NVLJawlER7o9oJx7CL/SwRotao/76L5k9J4SyYk4W3fyBKRHbPHu3Aw=="
            }
          },
          {
            "validator_address": "1ECD8C5FE1341D74CDC633A245DD56858DE2F9A2",
            "validator_index": "13",
            "height": "8211",
            "round": "1",
            "timestamp": "2018-07-30T19:29:15.443286842Z",
            "type": 2,
            "block_id": {
              "hash": "6CDEE5944B5B1B55445F7C293BDFB18404DAA92B",
              "parts": {
                "total": "1",
                "hash": "158A1F1A9E7C3647E432E4667057F06E2FC8B3DA"
              }
            },
            "signature": {
              "type": "tendermint/SignatureEd25519",
              "value": "BhHvDvyQ8Cq5Ti0k4s090aAKbEVtjNAzjA1Ji4W/3lTdwjcfCSDLltsOvhIzeJSs3Ub2EHvW0GfnPCRJp25aBw=="
            }
          },
          {
            "validator_address": "1F3A68CAAD483768AA2BF667DEF10F7104C89928",
            "validator_index": "14",
            "height": "8211",
            "round": "1",
            "timestamp": "2018-07-30T19:29:15.239165339Z",
            "type": 2,
            "block_id": {
              "hash": "6CDEE5944B5B1B55445F7C293BDFB18404DAA92B",
              "parts": {
                "total": "1",
                "hash": "158A1F1A9E7C3647E432E4667057F06E2FC8B3DA"
              }
            },
            "signature": {
              "type": "tendermint/SignatureEd25519",
              "value": "hG8SaKclWKqQ/xcXOUjP/KwtsRS73+cv8+eQ8/4uNJKEtOiThfMCSIBbBDgNyeW/CjuJR05zZWKmiYIpfCZEAQ=="
            }
          },
          null,
          {
            "validator_address": "23897586D68E2AC1C78E0EF5BB5DF5C8EAB18F50",
            "validator_index": "16",
            "height": "8211",
            "round": "1",
            "timestamp": "2018-07-30T19:29:15.291114002Z",
            "type": 2,
            "block_id": {
              "hash": "6CDEE5944B5B1B55445F7C293BDFB18404DAA92B",
              "parts": {
                "total": "1",
                "hash": "158A1F1A9E7C3647E432E4667057F06E2FC8B3DA"
              }
            },
            "signature": {
              "type": "tendermint/SignatureEd25519",
              "value": "lgp9ZGa96Fykdae/CEVcsFjt+xY1yJ46USdjSfS8cFEDe3yaDH65TLUIXEwkmKdJasOi82H09hP17lsVzFNFCg=="
            }
          },
          {
            "validator_address": "28770D17E8530825E7310A0659308654B7EC9682",
            "validator_index": "17",
            "height": "8211",
            "round": "1",
            "timestamp": "2018-07-30T19:29:15.23837339Z",
            "type": 2,
            "block_id": {
              "hash": "6CDEE5944B5B1B55445F7C293BDFB18404DAA92B",
              "parts": {
                "total": "1",
                "hash": "158A1F1A9E7C3647E432E4667057F06E2FC8B3DA"
              }
            },
            "signature": {
              "type": "tendermint/SignatureEd25519",
              "value": "LsYtL30YukL9Dcj2aYpnyFGvdiQJEWhUEZwMibabDiULXTL0/e+x94GhhoS7EYg3Duew4oSePBYaVzHeiyM1Cw=="
            }
          },
          null,
          {
            "validator_address": "2A92EC3C642140202298D0E245095E0ECFC25228",
            "validator_index": "19",
            "height": "8211",
            "round": "1",
            "timestamp": "2018-07-30T19:29:15.348551213Z",
            "type": 2,
            "block_id": {
              "hash": "6CDEE5944B5B1B55445F7C293BDFB18404DAA92B",
              "parts": {
                "total": "1",
                "hash": "158A1F1A9E7C3647E432E4667057F06E2FC8B3DA"
              }
            },
            "signature": {
              "type": "tendermint/SignatureEd25519",
              "value": "7/vTHTL7wlfi3vztnNYqmdk2QFhItyIV1HB7E1H0P/YpszJXkfn5OV1ys9xEMxhDHOkyapMLCl2sjUYrtnUMAQ=="
            }
          },
          null,
          null,
          {
            "validator_address": "33412C9A69C60CB0FAA24A5C5B3A906DE24B47C2",
            "validator_index": "22",
            "height": "8211",
            "round": "1",
            "timestamp": "2018-07-30T19:29:15.202262102Z",
            "type": 2,
            "block_id": {
              "hash": "6CDEE5944B5B1B55445F7C293BDFB18404DAA92B",
              "parts": {
                "total": "1",
                "hash": "158A1F1A9E7C3647E432E4667057F06E2FC8B3DA"
              }
            },
            "signature": {
              "type": "tendermint/SignatureEd25519",
              "value": "W2b09OavNPoDNpiviiS9yZMcqAJpdymGnvpyL+I5HfI9SvlC3ev43jl6H/K9IyhkwUd+M/61ogoJQckwxet0BQ=="
            }
          },
          null,
          {
            "validator_address": "36E9B7FAEC964F97D84C028ED62493E373AD0B38",
            "validator_index": "24",
            "height": "8211",
            "round": "1",
            "timestamp": "2018-07-30T19:29:15.361497251Z",
            "type": 2,
            "block_id": {
              "hash": "6CDEE5944B5B1B55445F7C293BDFB18404DAA92B",
              "parts": {
                "total": "1",
                "hash": "158A1F1A9E7C3647E432E4667057F06E2FC8B3DA"
              }
            },
            "signature": {
              "type": "tendermint/SignatureEd25519",
              "value": "5FCOycBeZEOXLKTr1qcqBGOVCZKzCgxG+nbOiCDCRWUJW04+saJR4UgHSvFpL8vVpikVJcwkSBL1/6j7M+0OCg=="
            }
          },
          {
            "validator_address": "38A8D85D36BEA2E5FCF8A1E778F53628E450EF13",
            "validator_index": "25",
            "height": "8211",
            "round": "1",
            "timestamp": "2018-07-30T19:29:15.398605055Z",
            "type": 2,
            "block_id": {
              "hash": "6CDEE5944B5B1B55445F7C293BDFB18404DAA92B",
              "parts": {
                "total": "1",
                "hash": "158A1F1A9E7C3647E432E4667057F06E2FC8B3DA"
              }
            },
            "signature": {
              "type": "tendermint/SignatureEd25519",
              "value": "fMQVhGtCV+WGobVaRc0WSQrf/YDDgeh8IYJHzTn0Y9hRxyYzEvT4YpybugndfQoiXoYC650AjtPPsGt5v2kVCA=="
            }
          },
          {
            "validator_address": "39DFDA0C5DB84B269642188B23253508537798E6",
            "validator_index": "26",
            "height": "8211",
            "round": "1",
            "timestamp": "2018-07-30T19:29:15.277145969Z",
            "type": 2,
            "block_id": {
              "hash": "6CDEE5944B5B1B55445F7C293BDFB18404DAA92B",
              "parts": {
                "total": "1",
                "hash": "158A1F1A9E7C3647E432E4667057F06E2FC8B3DA"
              }
            },
            "signature": {
              "type": "tendermint/SignatureEd25519",
              "value": "mNzjzqd/mHXcPdeOuPs7pc2bpqmTJg21Fnsymjw7PCToU2iBQ7YBSGzhM/awbRkV/PRnPhsOVoEsNqF2CCwTDA=="
            }
          },
          {
            "validator_address": "3AC99B708404452366E0953A4BE849226DC86CBC",
            "validator_index": "27",
            "height": "8211",
            "round": "1",
            "timestamp": "2018-07-30T19:29:15.353376012Z",
            "type": 2,
            "block_id": {
              "hash": "6CDEE5944B5B1B55445F7C293BDFB18404DAA92B",
              "parts": {
                "total": "1",
                "hash": "158A1F1A9E7C3647E432E4667057F06E2FC8B3DA"
              }
            },
            "signature": {
              "type": "tendermint/SignatureEd25519",
              "value": "ItEjNtnNzFr9OiWQU9ucV2DHppQds1hvu3Ptq4RtQ0ufyITJvwoC9SaZWgGQ8UNbtlPNaOLvwa80mWLnT4P2Bw=="
            }
          },
          {
            "validator_address": "3DCB822A10ED319EC7C4393D8E3FD4A41B15AAF2",
            "validator_index": "28",
            "height": "8211",
            "round": "1",
            "timestamp": "2018-07-30T19:29:15.290738803Z",
            "type": 2,
            "block_id": {
              "hash": "6CDEE5944B5B1B55445F7C293BDFB18404DAA92B",
              "parts": {
                "total": "1",
                "hash": "158A1F1A9E7C3647E432E4667057F06E2FC8B3DA"
              }
            },
            "signature": {
              "type": "tendermint/SignatureEd25519",
              "value": "iQENU1PZayT+y8m1J5drHoeIx71H+Y/LVZQ1DWrpuxnTOt5N9m+ciraZaURIRabohoM4lutI+VbZc3JKnsuBAA=="
            }
          },
          {
            "validator_address": "3E899BA36A93C7370347BD5FE85909F2ECD93F8C",
            "validator_index": "29",
            "height": "8211",
            "round": "1",
            "timestamp": "2018-07-30T19:29:15.3420462Z",
            "type": 2,
            "block_id": {
              "hash": "6CDEE5944B5B1B55445F7C293BDFB18404DAA92B",
              "parts": {
                "total": "1",
                "hash": "158A1F1A9E7C3647E432E4667057F06E2FC8B3DA"
              }
            },
            "signature": {
              "type": "tendermint/SignatureEd25519",
              "value": "8kd2lsHr7mtMwAWbwgN+Ha45dAz8jKg2Da7yuXwy2Y8k3I8s97NbuqQk4cck7pFJrJQ0ELnBus9Gmwv30X09Bw=="
            }
          },
          {
            "validator_address": "41CAB2E29E7D0F2282E3275938F188FF9386B84C",
            "validator_index": "30",
            "height": "8211",
            "round": "1",
            "timestamp": "2018-07-30T19:29:15.300476148Z",
            "type": 2,
            "block_id": {
              "hash": "6CDEE5944B5B1B55445F7C293BDFB18404DAA92B",
              "parts": {
                "total": "1",
                "hash": "158A1F1A9E7C3647E432E4667057F06E2FC8B3DA"
              }
            },
            "signature": {
              "type": "tendermint/SignatureEd25519",
              "value": "onoAXwIdSXxR+fnfl0rfoLQmCY4fPjA3paZfBoIjGgqwruWNW6a3KDP2rzWcpRKRw01O++4k5sVtcvsnWXXIBw=="
            }
          },
          {
            "validator_address": "462B656869DB02A8FD1077E255F8CC7401DC37C6",
            "validator_index": "31",
            "height": "8211",
            "round": "1",
            "timestamp": "2018-07-30T19:29:15.247287404Z",
            "type": 2,
            "block_id": {
              "hash": "6CDEE5944B5B1B55445F7C293BDFB18404DAA92B",
              "parts": {
                "total": "1",
                "hash": "158A1F1A9E7C3647E432E4667057F06E2FC8B3DA"
              }
            },
            "signature": {
              "type": "tendermint/SignatureEd25519",
              "value": "BjdrRTENBoxVPZPR2/sahN/nMMxUa7liFZiQ3P8TjSMBcr07A755rUiIYUTPKvToFwjW7reEPmlU3S4gUyHbCw=="
            }
          },
          {
            "validator_address": "48E5118163E5442068A1B5A42D2EEDBB75724935",
            "validator_index": "32",
            "height": "8211",
            "round": "1",
            "timestamp": "2018-07-30T19:29:15.448025083Z",
            "type": 2,
            "block_id": {
              "hash": "6CDEE5944B5B1B55445F7C293BDFB18404DAA92B",
              "parts": {
                "total": "1",
                "hash": "158A1F1A9E7C3647E432E4667057F06E2FC8B3DA"
              }
            },
            "signature": {
              "type": "tendermint/SignatureEd25519",
              "value": "k659p8sqUkM1xmRSqTDvg8+iV94edcBKyg7R+TjjWVAWUFpE1FujU2I6dG5M8eMtagfzZKWGVZdbS5RF3xsZDg=="
            }
          },
          null,
          {
            "validator_address": "4944F8BBBB5303E17BC0607DF332320EDBC750EA",
            "validator_index": "34",
            "height": "8211",
            "round": "1",
            "timestamp": "2018-07-30T19:29:15.244398265Z",
            "type": 2,
            "block_id": {
              "hash": "6CDEE5944B5B1B55445F7C293BDFB18404DAA92B",
              "parts": {
                "total": "1",
                "hash": "158A1F1A9E7C3647E432E4667057F06E2FC8B3DA"
              }
            },
            "signature": {
              "type": "tendermint/SignatureEd25519",
              "value": "iLtlUrV6UzCBIGMzCJiqDABUJo73i1q4+a3o74L52bReocouhKresAUGPsGzXYeUALKf8z+SSIukFt0wM754DQ=="
            }
          },
          {
            "validator_address": "49841599DE675157CBE1E7D6B35BF8FFC23BD5CB",
            "validator_index": "35",
            "height": "8211",
            "round": "1",
            "timestamp": "2018-07-30T19:29:15.24282404Z",
            "type": 2,
            "block_id": {
              "hash": "6CDEE5944B5B1B55445F7C293BDFB18404DAA92B",
              "parts": {
                "total": "1",
                "hash": "158A1F1A9E7C3647E432E4667057F06E2FC8B3DA"
              }
            },
            "signature": {
              "type": "tendermint/SignatureEd25519",
              "value": "39UHDaq1PabSzGgMy0SjZ6uDGg0vrtfrFK8Gw+bbW1l9V/M66HtQGM4WFVeyTS1n0AzQfjx6pyzzoj4hYcv8BA=="
            }
          },
          {
            "validator_address": "5104F488EA6B1E2C33CBDA3C18389C88104DBC72",
            "validator_index": "36",
            "height": "8211",
            "round": "1",
            "timestamp": "2018-07-30T19:29:15.247539994Z",
            "type": 2,
            "block_id": {
              "hash": "6CDEE5944B5B1B55445F7C293BDFB18404DAA92B",
              "parts": {
                "total": "1",
                "hash": "158A1F1A9E7C3647E432E4667057F06E2FC8B3DA"
              }
            },
            "signature": {
              "type": "tendermint/SignatureEd25519",
              "value": "/yGqM+PDDLUj2WrRu0iUFqXfvv6sUUiq2X27iHVhTQP3qn84o9K4PbGEvaz3hGNxb2B0wYNptvI3J/7mC0g+BA=="
            }
          },
          {
            "validator_address": "51386C2CF9556821D114D7E4945806802BADB28D",
            "validator_index": "37",
            "height": "8211",
            "round": "1",
            "timestamp": "2018-07-30T19:29:15.335124405Z",
            "type": 2,
            "block_id": {
              "hash": "6CDEE5944B5B1B55445F7C293BDFB18404DAA92B",
              "parts": {
                "total": "1",
                "hash": "158A1F1A9E7C3647E432E4667057F06E2FC8B3DA"
              }
            },
            "signature": {
              "type": "tendermint/SignatureEd25519",
              "value": "PE9rdcbis5IMRyYp8G1d88Q16izE2/gI03pijL4RNXjgYwsV2J8Fc1HqixslbNimT/Y6GLqa5OVgyrew+jhGCA=="
            }
          },
          {
            "validator_address": "543564ECA3AFEFADC73EE8591AAC3A96F079BC8A",
            "validator_index": "38",
            "height": "8211",
            "round": "1",
            "timestamp": "2018-07-30T19:29:15.244614691Z",
            "type": 2,
            "block_id": {
              "hash": "6CDEE5944B5B1B55445F7C293BDFB18404DAA92B",
              "parts": {
                "total": "1",
                "hash": "158A1F1A9E7C3647E432E4667057F06E2FC8B3DA"
              }
            },
            "signature": {
              "type": "tendermint/SignatureEd25519",
              "value": "WY2ZUqTuSp2j8izqAOqQ8T+GEAvwGdC6AH6KV8ESsyD22HtGSSlsMNQd1b1SPbuWnhCuJaA6z1LPDyPz2fS/BA=="
            }
          },
          {
            "validator_address": "55D67B1A6DC13E96F8754A5A42EABC20F7F86664",
            "validator_index": "39",
            "height": "8211",
            "round": "1",
            "timestamp": "2018-07-30T19:29:15.270597122Z",
            "type": 2,
            "block_id": {
              "hash": "6CDEE5944B5B1B55445F7C293BDFB18404DAA92B",
              "parts": {
                "total": "1",
                "hash": "158A1F1A9E7C3647E432E4667057F06E2FC8B3DA"
              }
            },
            "signature": {
              "type": "tendermint/SignatureEd25519",
              "value": "w0hc6lsCBQGVYya3gZrf2Xoiok3WmwgRk79arnHaJs9wQYh6FRPt2RRmHJkEtPVVpH4NgXIRpg4geTyWM3lRBw=="
            }
          },
          {
            "validator_address": "570B6A755ED339EAC56BB3390A48069F6AC9449B",
            "validator_index": "40",
            "height": "8211",
            "round": "1",
            "timestamp": "2018-07-30T19:29:16.417943147Z",
            "type": 2,
            "block_id": {
              "hash": "6CDEE5944B5B1B55445F7C293BDFB18404DAA92B",
              "parts": {
                "total": "1",
                "hash": "158A1F1A9E7C3647E432E4667057F06E2FC8B3DA"
              }
            },
            "signature": {
              "type": "tendermint/SignatureEd25519",
              "value": "IWPUlQdzGwjJ6OTKurw4xLTmM8s5Msz2OjtD+vAqAF5AT7gV+tzn4FGbcQqNk4rxvHnOcoSGijOBM22oAVLYDw=="
            }
          },
          {
            "validator_address": "5BDF8EA41B1835FBAD865B181A2A4B23F511B5E4",
            "validator_index": "41",
            "height": "8211",
            "round": "1",
            "timestamp": "2018-07-30T19:29:15.241742588Z",
            "type": 2,
            "block_id": {
              "hash": "6CDEE5944B5B1B55445F7C293BDFB18404DAA92B",
              "parts": {
                "total": "1",
                "hash": "158A1F1A9E7C3647E432E4667057F06E2FC8B3DA"
              }
            },
            "signature": {
              "type": "tendermint/SignatureEd25519",
              "value": "Jua9TcFtfmdT6lOrU6IaGIViyyQBVgjB2NrxCv91NX4VCpCD6s5zbRWjNsJvtuQBRGkBy6camPkhOyKGNFepDg=="
            }
          },
          null,
          null,
          {
            "validator_address": "60229E2E273297FE00219E46DFFB8F76844CDEF9",
            "validator_index": "44",
            "height": "8211",
            "round": "1",
            "timestamp": "2018-07-30T19:29:14.574838912Z",
            "type": 2,
            "block_id": {
              "hash": "6CDEE5944B5B1B55445F7C293BDFB18404DAA92B",
              "parts": {
                "total": "1",
                "hash": "158A1F1A9E7C3647E432E4667057F06E2FC8B3DA"
              }
            },
            "signature": {
              "type": "tendermint/SignatureEd25519",
              "value": "1ZspQLbFpzS+hcWXf90FTvaT2IRAeG8SdVjEkvW/sh9ul+GvfCj8Mw+zlnb0FrIJgS4JXTeJlus/K/OJIOTjAg=="
            }
          },
          {
            "validator_address": "62410D6D1CD98278136E4D0738AA0EA273CDFC54",
            "validator_index": "45",
            "height": "8211",
            "round": "1",
            "timestamp": "2018-07-30T19:29:15.269648971Z",
            "type": 2,
            "block_id": {
              "hash": "6CDEE5944B5B1B55445F7C293BDFB18404DAA92B",
              "parts": {
                "total": "1",
                "hash": "158A1F1A9E7C3647E432E4667057F06E2FC8B3DA"
              }
            },
            "signature": {
              "type": "tendermint/SignatureEd25519",
              "value": "ngciwB6LLGySSoPdYndeCZbViDo0U+/RwFFG1x2I+jQADzWwe55lYRTSNl1Kt9Ar81ajOUZLRCbSeapXjB5xBQ=="
            }
          },
          {
            "validator_address": "632F5C139A5A9DFBFE5111DEE29FCFB6157207DC",
            "validator_index": "46",
            "height": "8211",
            "round": "1",
            "timestamp": "2018-07-30T19:29:15.32494439Z",
            "type": 2,
            "block_id": {
              "hash": "6CDEE5944B5B1B55445F7C293BDFB18404DAA92B",
              "parts": {
                "total": "1",
                "hash": "158A1F1A9E7C3647E432E4667057F06E2FC8B3DA"
              }
            },
            "signature": {
              "type": "tendermint/SignatureEd25519",
              "value": "1HWAc1hBQe1HOhNQfCuyJ1QyK8qN9bLmX97KH5vGKyZeycwVg1bdjtHZjJ3TgHqVRhfbBkoxUuOODnU6GP0gBA=="
            }
          },
          {
            "validator_address": "64F57F8E796A9B7B590C1EFA4123988C86631D39",
            "validator_index": "47",
            "height": "8211",
            "round": "1",
            "timestamp": "2018-07-30T19:29:15.248967889Z",
            "type": 2,
            "block_id": {
              "hash": "6CDEE5944B5B1B55445F7C293BDFB18404DAA92B",
              "parts": {
                "total": "1",
                "hash": "158A1F1A9E7C3647E432E4667057F06E2FC8B3DA"
              }
            },
            "signature": {
              "type": "tendermint/SignatureEd25519",
              "value": "/pmtA4K+LhDJe2FeyVB/e61sZ3sHeKB6ANX0CYcmOuVObCYr3KfVmZXArzWLSKvA/h6RbQ3pkN6Vle3/Ctf5Dw=="
            }
          },
          {
            "validator_address": "69D99B2C66043ACBEAA8447525C356AFC6408E0C",
            "validator_index": "48",
            "height": "8211",
            "round": "1",
            "timestamp": "2018-07-30T19:29:15.284112598Z",
            "type": 2,
            "block_id": {
              "hash": "6CDEE5944B5B1B55445F7C293BDFB18404DAA92B",
              "parts": {
                "total": "1",
                "hash": "158A1F1A9E7C3647E432E4667057F06E2FC8B3DA"
              }
            },
            "signature": {
              "type": "tendermint/SignatureEd25519",
              "value": "Xdw+C51Xnw4ZoL3YjnieqTpAP7FizkB5M2kHOpj0mlSl7WpBHVDJ3r0S38HuFXR5ucbJA9ukiLgA4m/xjQviDg=="
            }
          },
          {
            "validator_address": "69EDADFA4A803E9DBF548C900D4A465E7D154262",
            "validator_index": "49",
            "height": "8211",
            "round": "1",
            "timestamp": "2018-07-30T19:29:15.306394121Z",
            "type": 2,
            "block_id": {
              "hash": "6CDEE5944B5B1B55445F7C293BDFB18404DAA92B",
              "parts": {
                "total": "1",
                "hash": "158A1F1A9E7C3647E432E4667057F06E2FC8B3DA"
              }
            },
            "signature": {
              "type": "tendermint/SignatureEd25519",
              "value": "C8zoyUrWWXI8NZRb/IQIvIKUAlwVjcIDgagh/dkGOfeusYJaoptCDhJ/TVEmHxmVVRjX0DWDH28tD0ci5QsDBg=="
            }
          },
          {
            "validator_address": "6D3AD380E398D8592B03AA124BAFED5F125DF863",
            "validator_index": "50",
            "height": "8211",
            "round": "1",
            "timestamp": "2018-07-30T19:28:13.685299436Z",
            "type": 2,
            "block_id": {
              "hash": "6CDEE5944B5B1B55445F7C293BDFB18404DAA92B",
              "parts": {
                "total": "1",
                "hash": "158A1F1A9E7C3647E432E4667057F06E2FC8B3DA"
              }
            },
            "signature": {
              "type": "tendermint/SignatureEd25519",
              "value": "nwjg/0VOKVdS5j9Be7FeFBycKpWa8DyEC/gyRr58Hl1qXRZiRFMy4FL7HyDsr3djvsEK35zq0tEBlOo1jMPTAw=="
            }
          },
          {
            "validator_address": "6F6C93B8BF3495063FEC9B5C771158607F4AE9D6",
            "validator_index": "51",
            "height": "8211",
            "round": "1",
            "timestamp": "2018-07-30T19:29:15.312955382Z",
            "type": 2,
            "block_id": {
              "hash": "6CDEE5944B5B1B55445F7C293BDFB18404DAA92B",
              "parts": {
                "total": "1",
                "hash": "158A1F1A9E7C3647E432E4667057F06E2FC8B3DA"
              }
            },
            "signature": {
              "type": "tendermint/SignatureEd25519",
              "value": "GnPAYuKibFZcO5P45fkFl7dbQ1J7GesV0ZP026vUUo0jt7Iqn58Sk+0mJEj/plZ720QXHAWHTWQyRsklzK89BQ=="
            }
          },
          {
            "validator_address": "732CEEF54C374DDC6ADECBFD707AEFD07FEDC143",
            "validator_index": "52",
            "height": "8211",
            "round": "1",
            "timestamp": "2018-07-30T19:29:15.412930157Z",
            "type": 2,
            "block_id": {
              "hash": "6CDEE5944B5B1B55445F7C293BDFB18404DAA92B",
              "parts": {
                "total": "1",
                "hash": "158A1F1A9E7C3647E432E4667057F06E2FC8B3DA"
              }
            },
            "signature": {
              "type": "tendermint/SignatureEd25519",
              "value": "6viyX3PFR6/pYbdLlHChT/xtbLXmMOP2XLq+9Y6dfRiqjrTqVpPhHeZW8IEXu7rnSSTxocMJ98bjtyeu3hrYDQ=="
            }
          },
          {
            "validator_address": "7393D691BFAE9661918C09932D4D9060AB40939B",
            "validator_index": "53",
            "height": "8211",
            "round": "1",
            "timestamp": "2018-07-30T19:29:15.459438969Z",
            "type": 2,
            "block_id": {
              "hash": "6CDEE5944B5B1B55445F7C293BDFB18404DAA92B",
              "parts": {
                "total": "1",
                "hash": "158A1F1A9E7C3647E432E4667057F06E2FC8B3DA"
              }
            },
            "signature": {
              "type": "tendermint/SignatureEd25519",
              "value": "Ur2cma8QiP39CPta0kCS2CvLLbO286pqsmaFvjamsKz3Bpmk6gz8wC9DfuVilD0ewQ/jMIFpO/yieoOkT2X1Cw=="
            }
          },
          {
            "validator_address": "751E43437224E8BB6D1569B3E2B2616B6E7F4397",
            "validator_index": "54",
            "height": "8211",
            "round": "1",
            "timestamp": "2018-07-30T19:29:15.284053582Z",
            "type": 2,
            "block_id": {
              "hash": "6CDEE5944B5B1B55445F7C293BDFB18404DAA92B",
              "parts": {
                "total": "1",
                "hash": "158A1F1A9E7C3647E432E4667057F06E2FC8B3DA"
              }
            },
            "signature": {
              "type": "tendermint/SignatureEd25519",
              "value": "F4j/WrtzmrYeILhfmaUf9i0jywdmbTKh/e6OOA8ybbkhPzlKY9E9xht8W5+v9/kqWYaYmgaAiid1ulV6vpNiDA=="
            }
          },
          {
            "validator_address": "7EB7593F519F1180C7E872D0494611464EDF03AE",
            "validator_index": "55",
            "height": "8211",
            "round": "1",
            "timestamp": "2018-07-30T19:29:15.335717579Z",
            "type": 2,
            "block_id": {
              "hash": "6CDEE5944B5B1B55445F7C293BDFB18404DAA92B",
              "parts": {
                "total": "1",
                "hash": "158A1F1A9E7C3647E432E4667057F06E2FC8B3DA"
              }
            },
            "signature": {
              "type": "tendermint/SignatureEd25519",
              "value": "cHXthw/IvC/OfI072MS1QncnJngUFmYykORzouBTWyK+WDVnExnwz5X+RtfTDzOYus0BMRPhMr9mNjUIkP8pBg=="
            }
          },
          {
            "validator_address": "807CF675BA8479FC4FEC1047215DF07970040F1F",
            "validator_index": "56",
            "height": "8211",
            "round": "1",
            "timestamp": "2018-07-30T19:29:15.61640837Z",
            "type": 2,
            "block_id": {
              "hash": "6CDEE5944B5B1B55445F7C293BDFB18404DAA92B",
              "parts": {
                "total": "1",
                "hash": "158A1F1A9E7C3647E432E4667057F06E2FC8B3DA"
              }
            },
            "signature": {
              "type": "tendermint/SignatureEd25519",
              "value": "my9YCTTrZRUEHE3bB7qvt1+yF+P13pzI9tX6uxbOu1Gf+Lv7MK3t9/5yIVygMfiriwUMAlzieJ8sY6uyLfcTBQ=="
            }
          },
          {
            "validator_address": "8126192EA66E8ADE6B36924534721366B987A4C1",
            "validator_index": "57",
            "height": "8211",
            "round": "1",
            "timestamp": "2018-07-30T19:29:15.309000673Z",
            "type": 2,
            "block_id": {
              "hash": "6CDEE5944B5B1B55445F7C293BDFB18404DAA92B",
              "parts": {
                "total": "1",
                "hash": "158A1F1A9E7C3647E432E4667057F06E2FC8B3DA"
              }
            },
            "signature": {
              "type": "tendermint/SignatureEd25519",
              "value": "r7Xi7tX0d+yGtYFOSlRJn95Q4wa5zmmnbz4pqah2nUHMVuBpKzWPWNQ6UMovV0Zjs+7bbCH8a1L77SwJrBbCDw=="
            }
          },
          null,
          {
            "validator_address": "83AB321E012C57746689FED3A6064DF331F81007",
            "validator_index": "59",
            "height": "8211",
            "round": "1",
            "timestamp": "2018-07-30T19:29:15.299296547Z",
            "type": 2,
            "block_id": {
              "hash": "6CDEE5944B5B1B55445F7C293BDFB18404DAA92B",
              "parts": {
                "total": "1",
                "hash": "158A1F1A9E7C3647E432E4667057F06E2FC8B3DA"
              }
            },
            "signature": {
              "type": "tendermint/SignatureEd25519",
              "value": "3/j3IFJEMO2fwV9GvKC7UkCTBwVSObHF62TM9IplWWKPhuOMpsO/ONxuomqixlLGjSItzgLc+zXrGboW4gaxBA=="
            }
          },
          {
            "validator_address": "83BB1B88D3DBB20AD845FECA07749EBD87D3754D",
            "validator_index": "60",
            "height": "8211",
            "round": "1",
            "timestamp": "2018-07-30T19:29:15.386363569Z",
            "type": 2,
            "block_id": {
              "hash": "6CDEE5944B5B1B55445F7C293BDFB18404DAA92B",
              "parts": {
                "total": "1",
                "hash": "158A1F1A9E7C3647E432E4667057F06E2FC8B3DA"
              }
            },
            "signature": {
              "type": "tendermint/SignatureEd25519",
              "value": "IaM23si8gvwv8RWMecWdurhAHwc2/f5talIKXmZLDtj3Hd5Ll0ux80/o3U+LATJnaffrN4Ywyr36eh/Pb1WvBg=="
            }
          },
          null,
          {
            "validator_address": "8F06FE1FD042683C426137FBC4BBAA4288924217",
            "validator_index": "62",
            "height": "8211",
            "round": "1",
            "timestamp": "2018-07-30T19:29:15.295480434Z",
            "type": 2,
            "block_id": {
              "hash": "6CDEE5944B5B1B55445F7C293BDFB18404DAA92B",
              "parts": {
                "total": "1",
                "hash": "158A1F1A9E7C3647E432E4667057F06E2FC8B3DA"
              }
            },
            "signature": {
              "type": "tendermint/SignatureEd25519",
              "value": "zU6d9juklk6jiEHfSHSYx6svnVjodE70VMbqTKSs5/aFF5uEQss9omdh9ns5NUjIOWORjh79aMJsy2LhS/H3Ag=="
            }
          },
          {
            "validator_address": "8F45617BF45B10A3F8283DEBDB35E38C7CA43237",
            "validator_index": "63",
            "height": "8211",
            "round": "1",
            "timestamp": "2018-07-30T19:29:15.34766833Z",
            "type": 2,
            "block_id": {
              "hash": "6CDEE5944B5B1B55445F7C293BDFB18404DAA92B",
              "parts": {
                "total": "1",
                "hash": "158A1F1A9E7C3647E432E4667057F06E2FC8B3DA"
              }
            },
            "signature": {
              "type": "tendermint/SignatureEd25519",
              "value": "ww0HLtAm5v+L+BEIyQDTvV3Cuks1QWYQF7uJsepvcfHHtMV9D+HG+vWM6sst6X4q/Kh8TF9YalOSm3+0Q2y+Dw=="
            }
          },
          null,
          {
            "validator_address": "95980831E186F2540F6E9FB6C8E74DE2401405AC",
            "validator_index": "65",
            "height": "8211",
            "round": "1",
            "timestamp": "2018-07-30T19:29:15.368781063Z",
            "type": 2,
            "block_id": {
              "hash": "6CDEE5944B5B1B55445F7C293BDFB18404DAA92B",
              "parts": {
                "total": "1",
                "hash": "158A1F1A9E7C3647E432E4667057F06E2FC8B3DA"
              }
            },
            "signature": {
              "type": "tendermint/SignatureEd25519",
              "value": "5y0I2Ya6MA2NE73otHWuqHDbhGezcgvwpMNtuF8dlNsA0AE0k2NEnxTXe42JDptpbFztY+Y0Cq7peko43BmrBA=="
            }
          },
          {
            "validator_address": "95FAFBC1E0579C83D290A063020CE87C5334BD9B",
            "validator_index": "66",
            "height": "8211",
            "round": "1",
            "timestamp": "2018-07-30T19:29:15.316908756Z",
            "type": 2,
            "block_id": {
              "hash": "6CDEE5944B5B1B55445F7C293BDFB18404DAA92B",
              "parts": {
                "total": "1",
                "hash": "158A1F1A9E7C3647E432E4667057F06E2FC8B3DA"
              }
            },
            "signature": {
              "type": "tendermint/SignatureEd25519",
              "value": "2nVjDMt5zjytHkTX4GbtSB9+Uhwdc7H5moEXLYd1EHMMl/6vwCSNCbIeSKkoJT232wpCSMpsy/HVpdYqiLEqBw=="
            }
          },
          {
            "validator_address": "96BDE45EC52606CF5CB59853097871AD60680549",
            "validator_index": "67",
            "height": "8211",
            "round": "1",
            "timestamp": "2018-07-30T19:29:15.313928117Z",
            "type": 2,
            "block_id": {
              "hash": "6CDEE5944B5B1B55445F7C293BDFB18404DAA92B",
              "parts": {
                "total": "1",
                "hash": "158A1F1A9E7C3647E432E4667057F06E2FC8B3DA"
              }
            },
            "signature": {
              "type": "tendermint/SignatureEd25519",
              "value": "rtaTIxcs6DTveSvSdbKdJGslHr6i2t3cbd70NYEWQx+zLJBpdN72u8v5s7Qc81WEGOx60fIxRZ8EqwuDn9J5Ag=="
            }
          },
          {
            "validator_address": "970CD321881185BF83DB2923C321B0E75FDBB2B8",
            "validator_index": "68",
            "height": "8211",
            "round": "1",
            "timestamp": "2018-07-30T19:29:15.322513988Z",
            "type": 2,
            "block_id": {
              "hash": "6CDEE5944B5B1B55445F7C293BDFB18404DAA92B",
              "parts": {
                "total": "1",
                "hash": "158A1F1A9E7C3647E432E4667057F06E2FC8B3DA"
              }
            },
            "signature": {
              "type": "tendermint/SignatureEd25519",
              "value": "IUM926A9zElarc2QdagbTByyi1b1Dle4iwCGTs+HKE1gpprhOkShu6cjKCKDgQFSHMDeHzD5/IT77yuCdy1CDA=="
            }
          },
          null,
          {
            "validator_address": "9C29C9B76D27586E4D9AD2AED0E943162645E55C",
            "validator_index": "70",
            "height": "8211",
            "round": "1",
            "timestamp": "2018-07-30T19:29:15.244452285Z",
            "type": 2,
            "block_id": {
              "hash": "6CDEE5944B5B1B55445F7C293BDFB18404DAA92B",
              "parts": {
                "total": "1",
                "hash": "158A1F1A9E7C3647E432E4667057F06E2FC8B3DA"
              }
            },
            "signature": {
              "type": "tendermint/SignatureEd25519",
              "value": "Am4zOCclEe5sl3YoJst393lzhA1N9mfo5PZw3IUql1GZvz4K509bVaWFeXDjotLEP4r+w9xi6JP/rrr4y7TMCA=="
            }
          },
          {
            "validator_address": "9D93AD02FE1BD7E76B9E58D7EB461088EAD011E5",
            "validator_index": "71",
            "height": "8211",
            "round": "1",
            "timestamp": "2018-07-30T19:29:15.263672732Z",
            "type": 2,
            "block_id": {
              "hash": "6CDEE5944B5B1B55445F7C293BDFB18404DAA92B",
              "parts": {
                "total": "1",
                "hash": "158A1F1A9E7C3647E432E4667057F06E2FC8B3DA"
              }
            },
            "signature": {
              "type": "tendermint/SignatureEd25519",
              "value": "t/U5SDf6mZNIvdz1aNFzASOPrWP4DdZsyeJ0WJhaOTCzJJ4KjpItz3gKncSKY6IJJPpDPm+zcrzOPe/z/V+FAA=="
            }
          },
          null,
          {
            "validator_address": "A0A6466F4ABEA09C3B55E3709AFDE217A103209F",
            "validator_index": "73",
            "height": "8211",
            "round": "1",
            "timestamp": "2018-07-30T19:29:15.268207464Z",
            "type": 2,
            "block_id": {
              "hash": "6CDEE5944B5B1B55445F7C293BDFB18404DAA92B",
              "parts": {
                "total": "1",
                "hash": "158A1F1A9E7C3647E432E4667057F06E2FC8B3DA"
              }
            },
            "signature": {
              "type": "tendermint/SignatureEd25519",
              "value": "i1c/2ri84QB9ssD5wCSbwUCIDBTA6CklgbhmO6g5DO+KyHMbEzuyxqL2T8eNlCM1iHTeoJB/Oe0TBM23LldZCw=="
            }
          },
          {
            "validator_address": "A5868971300F155020634D7BB49C7634F7AACCD3",
            "validator_index": "74",
            "height": "8211",
            "round": "1",
            "timestamp": "2018-07-30T19:29:15.278555946Z",
            "type": 2,
            "block_id": {
              "hash": "6CDEE5944B5B1B55445F7C293BDFB18404DAA92B",
              "parts": {
                "total": "1",
                "hash": "158A1F1A9E7C3647E432E4667057F06E2FC8B3DA"
              }
            },
            "signature": {
              "type": "tendermint/SignatureEd25519",
              "value": "8S2ggvEv6mnYtGRkTxgl5uQF7HYhKpIYDN073U+jVErxNtn/hGCjoU7cB3jFWwZbGIN/FA59tfMOwsjAPoj3DQ=="
            }
          },
          {
            "validator_address": "A6B3A5B5D982CFD7B5FDFA15CF5A720E7AE25E7F",
            "validator_index": "75",
            "height": "8211",
            "round": "1",
            "timestamp": "2018-07-30T19:29:15.250872262Z",
            "type": 2,
            "block_id": {
              "hash": "6CDEE5944B5B1B55445F7C293BDFB18404DAA92B",
              "parts": {
                "total": "1",
                "hash": "158A1F1A9E7C3647E432E4667057F06E2FC8B3DA"
              }
            },
            "signature": {
              "type": "tendermint/SignatureEd25519",
              "value": "ocxvztWOPs6Adz5cY7LBAZbQBrzP+AYIUDgju7nKZ5cIk+e8SYqY/KVv49z3b9Sg1HQhg04e4GmAmZiqECfoDw=="
            }
          },
          {
            "validator_address": "AC96444A9083890B7C7B430DB17BF1D3EA5EED04",
            "validator_index": "76",
            "height": "8211",
            "round": "1",
            "timestamp": "2018-07-30T19:29:15.318616042Z",
            "type": 2,
            "block_id": {
              "hash": "6CDEE5944B5B1B55445F7C293BDFB18404DAA92B",
              "parts": {
                "total": "1",
                "hash": "158A1F1A9E7C3647E432E4667057F06E2FC8B3DA"
              }
            },
            "signature": {
              "type": "tendermint/SignatureEd25519",
              "value": "ysjQIglMuGwvjjt0k3FB2lJdx93U6Hhmi+SemgvZEIA0CBGITiZOrEAMePRJXTMN1JU+qqzvyw3EgHE+Y5dHBw=="
            }
          },
          {
            "validator_address": "ACB97FDA2D940AF0709B73537C458EB988AD2893",
            "validator_index": "77",
            "height": "8211",
            "round": "1",
            "timestamp": "2018-07-30T19:29:15.217558807Z",
            "type": 2,
            "block_id": {
              "hash": "6CDEE5944B5B1B55445F7C293BDFB18404DAA92B",
              "parts": {
                "total": "1",
                "hash": "158A1F1A9E7C3647E432E4667057F06E2FC8B3DA"
              }
            },
            "signature": {
              "type": "tendermint/SignatureEd25519",
              "value": "xeSdRhx1K2nhs8QQDYwAOH0xfEMCwtmK5Xw8D/yMAfP5in5cuuazUq6q5crTIyleMOc6PzDvezgPamHYeYYsAQ=="
            }
          },
          {
            "validator_address": "B197425B3210375F211661DE02EF2AE36580EB0F",
            "validator_index": "78",
            "height": "8211",
            "round": "1",
            "timestamp": "2018-07-30T19:29:15.289764401Z",
            "type": 2,
            "block_id": {
              "hash": "6CDEE5944B5B1B55445F7C293BDFB18404DAA92B",
              "parts": {
                "total": "1",
                "hash": "158A1F1A9E7C3647E432E4667057F06E2FC8B3DA"
              }
            },
            "signature": {
              "type": "tendermint/SignatureEd25519",
              "value": "f90SJqlEq3dtFysln4vEcyPbflrQaWNuquNEB/uq2JHXlhB+0BKsFLZGYJWNx0zZy2rFxGgBnGghx2L4W0yACg=="
            }
          },
          {
            "validator_address": "B45E54D2D1CB5A4CCD1D49016608C18E7C56B270",
            "validator_index": "79",
            "height": "8211",
            "round": "1",
            "timestamp": "2018-07-30T19:29:15.410989658Z",
            "type": 2,
            "block_id": {
              "hash": "6CDEE5944B5B1B55445F7C293BDFB18404DAA92B",
              "parts": {
                "total": "1",
                "hash": "158A1F1A9E7C3647E432E4667057F06E2FC8B3DA"
              }
            },
            "signature": {
              "type": "tendermint/SignatureEd25519",
              "value": "Pjls3I4wIgrajEh/vvcC7IYhsVQrW+S20zH2XEqXh6LeC56CUgsgD+FrbssAr1StPBqwH3bpxqkApZRRkbLUDg=="
            }
          },
          {
            "validator_address": "B59A34C0BE4EC73AF6A67D274F1695C9259C237C",
            "validator_index": "80",
            "height": "8211",
            "round": "1",
            "timestamp": "2018-07-30T19:29:15.397763311Z",
            "type": 2,
            "block_id": {
              "hash": "6CDEE5944B5B1B55445F7C293BDFB18404DAA92B",
              "parts": {
                "total": "1",
                "hash": "158A1F1A9E7C3647E432E4667057F06E2FC8B3DA"
              }
            },
            "signature": {
              "type": "tendermint/SignatureEd25519",
              "value": "GJkon2YY31urM062CBezMYQMTIJ68ddb31LAUtK7bVTGCuPj0aYC0U6WeEhwjIepBWIpzxROv8p4YPGGlM7oAA=="
            }
          },
          {
            "validator_address": "BC36FEDD6EF6071118A3E51859DF3831A2EC4782",
            "validator_index": "81",
            "height": "8211",
            "round": "1",
            "timestamp": "2018-07-30T19:29:15.340521041Z",
            "type": 2,
            "block_id": {
              "hash": "6CDEE5944B5B1B55445F7C293BDFB18404DAA92B",
              "parts": {
                "total": "1",
                "hash": "158A1F1A9E7C3647E432E4667057F06E2FC8B3DA"
              }
            },
            "signature": {
              "type": "tendermint/SignatureEd25519",
              "value": "/D42sI/yP5X/NHR5hoHZNfu/y6BddtYN001Xh8BwZWazi19koHd7XtJk8q0yNPZFtd/pgHIotaWRZkRh+gxPBg=="
            }
          },
          {
            "validator_address": "BD9D0DA513BF099DB4BB6E725A4E19832789882F",
            "validator_index": "82",
            "height": "8211",
            "round": "1",
            "timestamp": "2018-07-30T19:29:15.265041964Z",
            "type": 2,
            "block_id": {
              "hash": "6CDEE5944B5B1B55445F7C293BDFB18404DAA92B",
              "parts": {
                "total": "1",
                "hash": "158A1F1A9E7C3647E432E4667057F06E2FC8B3DA"
              }
            },
            "signature": {
              "type": "tendermint/SignatureEd25519",
              "value": "C4KFfNVEX7sutkFBnkEFm52G08aW9ULWo5RY+WTI4W8QD8hBMyIr+9MW41QKYqaOko+vpLiIZFMR98XlNd7vCQ=="
            }
          },
          {
            "validator_address": "C1134A2FF8F7338E7CDB3FE57DDD2A655DEB1E22",
            "validator_index": "83",
            "height": "8211",
            "round": "1",
            "timestamp": "2018-07-30T19:29:15.064826778Z",
            "type": 2,
            "block_id": {
              "hash": "6CDEE5944B5B1B55445F7C293BDFB18404DAA92B",
              "parts": {
                "total": "1",
                "hash": "158A1F1A9E7C3647E432E4667057F06E2FC8B3DA"
              }
            },
            "signature": {
              "type": "tendermint/SignatureEd25519",
              "value": "Xg0tyHWhbpn7ANyJEvDf+/+lKDl2IDHlAO5/VLXhZFdPM4r46dCj9nPow7Wg9wrPiAIOpyRCAMB4DSYXld7eAg=="
            }
          },
          {
            "validator_address": "C39A8A2B85198DCB8F23AD1F6C198E2BA7AB5D60",
            "validator_index": "84",
            "height": "8211",
            "round": "1",
            "timestamp": "2018-07-30T19:29:15.233312975Z",
            "type": 2,
            "block_id": {
              "hash": "6CDEE5944B5B1B55445F7C293BDFB18404DAA92B",
              "parts": {
                "total": "1",
                "hash": "158A1F1A9E7C3647E432E4667057F06E2FC8B3DA"
              }
            },
            "signature": {
              "type": "tendermint/SignatureEd25519",
              "value": "9scDe8SPbe3/rWbbNnUz133MO98x94fGbyQpbxBHGiD+oI9SqdKa/z0JHSvlKbnVvr4N1LHjbhMpzIqjdaEyDA=="
            }
          },
          {
            "validator_address": "C4335190C3B5BD4BA5568BC0F99C34162D940D08",
            "validator_index": "85",
            "height": "8211",
            "round": "1",
            "timestamp": "2018-07-30T19:29:15.339124692Z",
            "type": 2,
            "block_id": {
              "hash": "6CDEE5944B5B1B55445F7C293BDFB18404DAA92B",
              "parts": {
                "total": "1",
                "hash": "158A1F1A9E7C3647E432E4667057F06E2FC8B3DA"
              }
            },
            "signature": {
              "type": "tendermint/SignatureEd25519",
              "value": "+gPNgtOIPxl9cTB1yKNuq2krrH3gEJUWS5nHOs+zoFbpxtjYHCuGg1ITLtsGGUiyc8SRLOQM2RvgAOd5cqgQCg=="
            }
          },
          {
            "validator_address": "C561CFA081677046376396922E7576E5F7B316AD",
            "validator_index": "86",
            "height": "8211",
            "round": "1",
            "timestamp": "2018-07-30T19:29:15.35545714Z",
            "type": 2,
            "block_id": {
              "hash": "6CDEE5944B5B1B55445F7C293BDFB18404DAA92B",
              "parts": {
                "total": "1",
                "hash": "158A1F1A9E7C3647E432E4667057F06E2FC8B3DA"
              }
            },
            "signature": {
              "type": "tendermint/SignatureEd25519",
              "value": "EdyTVooKU0nwNaj2umtdyZEsKYrSVjFffOjYNvuFNcv+ZsHWsOUiSVLrijUfeLiwIGnFa2GHIie6dFMEFz81BA=="
            }
          },
          {
            "validator_address": "CE589EA77B056D268D30D1DC1D68A70E0F885E95",
            "validator_index": "87",
            "height": "8211",
            "round": "1",
            "timestamp": "2018-07-30T19:29:15.290878302Z",
            "type": 2,
            "block_id": {
              "hash": "6CDEE5944B5B1B55445F7C293BDFB18404DAA92B",
              "parts": {
                "total": "1",
                "hash": "158A1F1A9E7C3647E432E4667057F06E2FC8B3DA"
              }
            },
            "signature": {
              "type": "tendermint/SignatureEd25519",
              "value": "7nut3DbMOKJjljjreLvTnQ5696ThpoO9CwwabHKTQqGkhVzdUt0IJaSJlqx/Bx172AX0OqJE2/mhoSUQVuInBQ=="
            }
          },
          {
            "validator_address": "CEB97DB5CB18270247ABDE6CF2F84F9AEE8A2904",
            "validator_index": "88",
            "height": "8211",
            "round": "1",
            "timestamp": "2018-07-30T19:29:15.118700571Z",
            "type": 2,
            "block_id": {
              "hash": "6CDEE5944B5B1B55445F7C293BDFB18404DAA92B",
              "parts": {
                "total": "1",
                "hash": "158A1F1A9E7C3647E432E4667057F06E2FC8B3DA"
              }
            },
            "signature": {
              "type": "tendermint/SignatureEd25519",
              "value": "5iAx83u/OxOgZ3JuBBm1XDiT2X9hAGaBLU+/cD2lWHR+qpAA3x3ADK+ph2qm+N91Fjtbdqo8XG0bAxM8SbnwBg=="
            }
          },
          {
            "validator_address": "CF205769734F5758CC39F907EFB73D6BAF915FB1",
            "validator_index": "89",
            "height": "8211",
            "round": "1",
            "timestamp": "2018-07-30T19:29:15.335456114Z",
            "type": 2,
            "block_id": {
              "hash": "6CDEE5944B5B1B55445F7C293BDFB18404DAA92B",
              "parts": {
                "total": "1",
                "hash": "158A1F1A9E7C3647E432E4667057F06E2FC8B3DA"
              }
            },
            "signature": {
              "type": "tendermint/SignatureEd25519",
              "value": "sypCwOAStDufYLYUtu27buSib8bgJ4LlwFMOevQHR/obdAhul/raeN82pFDEv+zDdj4iS5yN9OJKGSeBYiZWDA=="
            }
          },
          {
            "validator_address": "D2134B826A1E25A955905CB79A4D8731CAFA0CCE",
            "validator_index": "90",
            "height": "8211",
            "round": "1",
            "timestamp": "2018-07-30T19:29:15.417277876Z",
            "type": 2,
            "block_id": {
              "hash": "6CDEE5944B5B1B55445F7C293BDFB18404DAA92B",
              "parts": {
                "total": "1",
                "hash": "158A1F1A9E7C3647E432E4667057F06E2FC8B3DA"
              }
            },
            "signature": {
              "type": "tendermint/SignatureEd25519",
              "value": "OdFWNTa7vHDpF0p8WjUtvbxbfXUDKMWETzxxhePjuoQuermo6aX8/W3FmZeIHCw+YUPny5D+MoXo2NYSCDisDQ=="
            }
          },
          null,
          {
            "validator_address": "D6285C3422C8886445D53757CBE12D2B91B5A9D0",
            "validator_index": "92",
            "height": "8211",
            "round": "1",
            "timestamp": "2018-07-30T19:28:57.515107555Z",
            "type": 2,
            "block_id": {
              "hash": "6CDEE5944B5B1B55445F7C293BDFB18404DAA92B",
              "parts": {
                "total": "1",
                "hash": "158A1F1A9E7C3647E432E4667057F06E2FC8B3DA"
              }
            },
            "signature": {
              "type": "tendermint/SignatureEd25519",
              "value": "cOsLOuHsBdriKbzVsgDbK2bLzzi7NwXaTT/q9az9XXMf/LLQ4eG91zy3VIPD+xUWIo2660p5FQglxd1mBqOHBw=="
            }
          },
          null,
          null,
          {
            "validator_address": "DB7E6732471D3EA5C90C17A9974D9F88AB45F2FB",
            "validator_index": "95",
            "height": "8211",
            "round": "1",
            "timestamp": "2018-07-30T19:29:15.317817706Z",
            "type": 2,
            "block_id": {
              "hash": "6CDEE5944B5B1B55445F7C293BDFB18404DAA92B",
              "parts": {
                "total": "1",
                "hash": "158A1F1A9E7C3647E432E4667057F06E2FC8B3DA"
              }
            },
            "signature": {
              "type": "tendermint/SignatureEd25519",
              "value": "Zo67wRElZ7gKB0dLf6PQs9MQTljWgCkZIn/97lAiq8llCQpSMWPnijdet4XqohzWH0wsO0S3zm3zIHdby/7FCw=="
            }
          },
          {
            "validator_address": "DF54B862410BCD9B5C516FBB6C56BDC826ED6FA7",
            "validator_index": "96",
            "height": "8211",
            "round": "1",
            "timestamp": "2018-07-30T19:29:15.375634746Z",
            "type": 2,
            "block_id": {
              "hash": "6CDEE5944B5B1B55445F7C293BDFB18404DAA92B",
              "parts": {
                "total": "1",
                "hash": "158A1F1A9E7C3647E432E4667057F06E2FC8B3DA"
              }
            },
            "signature": {
              "type": "tendermint/SignatureEd25519",
              "value": "amrH0xTXGG+BY9GF5SF8N+BnJWNYzwy93tB/1s3V3gCrtREuufIsvg74UpBnUiXyCy0NFdKLkNtINt5ynnyUAA=="
            }
          },
          {
            "validator_address": "DFAF0C8B1B78D6D552B0189DE3ACA351439A1319",
            "validator_index": "97",
            "height": "8211",
            "round": "1",
            "timestamp": "2018-07-30T19:29:15.241776407Z",
            "type": 2,
            "block_id": {
              "hash": "6CDEE5944B5B1B55445F7C293BDFB18404DAA92B",
              "parts": {
                "total": "1",
                "hash": "158A1F1A9E7C3647E432E4667057F06E2FC8B3DA"
              }
            },
            "signature": {
              "type": "tendermint/SignatureEd25519",
              "value": "o/NI/ZyOvpBkIpxy9p2qt/YlfzhGeTgRWcjoixpX5TsQH92k1iFpSzKXlsdSiXidcGAelWfgXATTYC1kl9ptDQ=="
            }
          },
          {
            "validator_address": "E1DBC77881161A5A3A8536A57536EAE546A75D69",
            "validator_index": "98",
            "height": "8211",
            "round": "1",
            "timestamp": "2018-07-30T19:29:15.226710131Z",
            "type": 2,
            "block_id": {
              "hash": "6CDEE5944B5B1B55445F7C293BDFB18404DAA92B",
              "parts": {
                "total": "1",
                "hash": "158A1F1A9E7C3647E432E4667057F06E2FC8B3DA"
              }
            },
            "signature": {
              "type": "tendermint/SignatureEd25519",
              "value": "3KUrW31oVG3pnVFi+VrOQxO6yyCuG6nWJ2l5SF7KiiupIgfBVeFV08ZyxroPX7yljAr3SPuSmoPZ4A4CoNeHBg=="
            }
          },
          {
            "validator_address": "E300E9D484374C1D3E97C1D93CAC3B160A056298",
            "validator_index": "99",
            "height": "8211",
            "round": "1",
            "timestamp": "2018-07-30T19:29:15.632642282Z",
            "type": 2,
            "block_id": {
              "hash": "6CDEE5944B5B1B55445F7C293BDFB18404DAA92B",
              "parts": {
                "total": "1",
                "hash": "158A1F1A9E7C3647E432E4667057F06E2FC8B3DA"
              }
            },
            "signature": {
              "type": "tendermint/SignatureEd25519",
              "value": "RJpiExTvZTLSaGbATezzlsYFbafyK154GZGxEf7qYNTo6v7EjI1awZr2tFz/qwGeQnH6/EzKJAr1u4Yf5YTaBg=="
            }
          },
          {
            "validator_address": "E39B5778E0D4297A46F45CF6940B0A163A430FF8",
            "validator_index": "100",
            "height": "8211",
            "round": "1",
            "timestamp": "2018-07-30T19:29:15.313270764Z",
            "type": 2,
            "block_id": {
              "hash": "6CDEE5944B5B1B55445F7C293BDFB18404DAA92B",
              "parts": {
                "total": "1",
                "hash": "158A1F1A9E7C3647E432E4667057F06E2FC8B3DA"
              }
            },
            "signature": {
              "type": "tendermint/SignatureEd25519",
              "value": "gBCybB2WZCoXLUPombjwKypu+w0wcPmRuGJ12is5Ugm9z1eaHnESZep3tjY7vFFjUUR3v9o0UrKZ9oihtfcVDg=="
            }
          },
          {
            "validator_address": "E3B19738F7132F950668504D326C7660F159D170",
            "validator_index": "101",
            "height": "8211",
            "round": "1",
            "timestamp": "2018-07-30T19:29:15.249488157Z",
            "type": 2,
            "block_id": {
              "hash": "6CDEE5944B5B1B55445F7C293BDFB18404DAA92B",
              "parts": {
                "total": "1",
                "hash": "158A1F1A9E7C3647E432E4667057F06E2FC8B3DA"
              }
            },
            "signature": {
              "type": "tendermint/SignatureEd25519",
              "value": "fL9GwkZbNdWpml24kp6RpYylqZwnyc3VkGHs/xB4jYRyT8XF1ynsXgHBEE+zrgsYfwlXSwmRoKqpL8BHDyd/DA=="
            }
          },
          {
            "validator_address": "E42F8AEABB685219F7027F54D2B0DBC7846F633A",
            "validator_index": "102",
            "height": "8211",
            "round": "1",
            "timestamp": "2018-07-30T19:29:14.615399434Z",
            "type": 2,
            "block_id": {
              "hash": "6CDEE5944B5B1B55445F7C293BDFB18404DAA92B",
              "parts": {
                "total": "1",
                "hash": "158A1F1A9E7C3647E432E4667057F06E2FC8B3DA"
              }
            },
            "signature": {
              "type": "tendermint/SignatureEd25519",
              "value": "O6jxLDbBUZC6Mb9iHPh/IqbcExsuDb8vLxMqyZAXwl7WIQxYG8Bq1FaW+uPsnhqcoxDgAOZVIR1yeGTa9s3cDg=="
            }
          },
          {
            "validator_address": "E4E6C2E81269DFFA196C17F98240E491479A6008",
            "validator_index": "103",
            "height": "8211",
            "round": "1",
            "timestamp": "2018-07-30T19:29:15.375589198Z",
            "type": 2,
            "block_id": {
              "hash": "6CDEE5944B5B1B55445F7C293BDFB18404DAA92B",
              "parts": {
                "total": "1",
                "hash": "158A1F1A9E7C3647E432E4667057F06E2FC8B3DA"
              }
            },
            "signature": {
              "type": "tendermint/SignatureEd25519",
              "value": "l8Ish/OrS95LkdNjSeKESESG+lJDjJ3QXn2Rinp49ECf3+buH5FQ3eB0ZgdU5uEYo3rWtVQ5aAxTkdZF0/6cBw=="
            }
          },
          {
            "validator_address": "E4FEB2846F4F3B0ECDCBE9C9DCB2248248A5AF0F",
            "validator_index": "104",
            "height": "8211",
            "round": "1",
            "timestamp": "2018-07-30T19:29:15.59423869Z",
            "type": 2,
            "block_id": {
              "hash": "6CDEE5944B5B1B55445F7C293BDFB18404DAA92B",
              "parts": {
                "total": "1",
                "hash": "158A1F1A9E7C3647E432E4667057F06E2FC8B3DA"
              }
            },
            "signature": {
              "type": "tendermint/SignatureEd25519",
              "value": "hmQGYhtGpkW3GHH53biFRrHKTFq4MHZGEZdiOz8aFltF1LLEsYIr0jIlUT74awszFIYjbjwcJJa4X00g31YKCQ=="
            }
          },
          null,
          {
            "validator_address": "E7A30077D5D11867D3EAF99ED45BFDC1EB834509",
            "validator_index": "106",
            "height": "8211",
            "round": "1",
            "timestamp": "2018-07-30T19:29:15.280493794Z",
            "type": 2,
            "block_id": {
              "hash": "6CDEE5944B5B1B55445F7C293BDFB18404DAA92B",
              "parts": {
                "total": "1",
                "hash": "158A1F1A9E7C3647E432E4667057F06E2FC8B3DA"
              }
            },
            "signature": {
              "type": "tendermint/SignatureEd25519",
              "value": "5+PxWa/OLI2BcbfAnUYM2VEPop5KFNszSRt8QPKJok8FkZS8uPpTLIg8iDyPzFqEghyIQRYctNii6EyAKAYOCA=="
            }
          },
          {
            "validator_address": "EBC613967F66F4EC306852CDF58B4F151CF16738",
            "validator_index": "107",
            "height": "8211",
            "round": "1",
            "timestamp": "2018-07-30T19:29:15.36986263Z",
            "type": 2,
            "block_id": {
              "hash": "6CDEE5944B5B1B55445F7C293BDFB18404DAA92B",
              "parts": {
                "total": "1",
                "hash": "158A1F1A9E7C3647E432E4667057F06E2FC8B3DA"
              }
            },
            "signature": {
              "type": "tendermint/SignatureEd25519",
              "value": "8gi3sjne4AUWTtlceodOD+SYszMzqNQSC8ii3A8dwGekIgR932upPh3D0gRr14cZDB2KvFVaeG+cbuMGQLYuBQ=="
            }
          },
          {
            "validator_address": "EC3401441726C40ECC7E51F744483B05BC6DE9BD",
            "validator_index": "108",
            "height": "8211",
            "round": "1",
            "timestamp": "2018-07-30T19:29:15.323189877Z",
            "type": 2,
            "block_id": {
              "hash": "6CDEE5944B5B1B55445F7C293BDFB18404DAA92B",
              "parts": {
                "total": "1",
                "hash": "158A1F1A9E7C3647E432E4667057F06E2FC8B3DA"
              }
            },
            "signature": {
              "type": "tendermint/SignatureEd25519",
              "value": "xz514d5WW27ToeSxQKHVJn0PKEr/Nk1G2bavLnUuvZP+mVgcblXENlOQ6ei6Z4YBuDPKvSYmrBd8/mDUGnvwAQ=="
            }
          },
          {
            "validator_address": "EC95B111D032181E1EC3B5E8875C5BB8E4AE7140",
            "validator_index": "109",
            "height": "8211",
            "round": "1",
            "timestamp": "2018-07-30T19:29:15.221650743Z",
            "type": 2,
            "block_id": {
              "hash": "6CDEE5944B5B1B55445F7C293BDFB18404DAA92B",
              "parts": {
                "total": "1",
                "hash": "158A1F1A9E7C3647E432E4667057F06E2FC8B3DA"
              }
            },
            "signature": {
              "type": "tendermint/SignatureEd25519",
              "value": "1xX3zw6IFfGh4tDveQaDltu6gxICvXtQzwYAy+kgP4lqb7rWA3SLt73XDUPoRKz/Cpzkz77K1fjmyIC8GgtOAg=="
            }
          },
          {
            "validator_address": "F13C1805E8131C9B47E2A46818F57D8A2841E578",
            "validator_index": "110",
            "height": "8211",
            "round": "1",
            "timestamp": "2018-07-30T19:29:15.250449722Z",
            "type": 2,
            "block_id": {
              "hash": "6CDEE5944B5B1B55445F7C293BDFB18404DAA92B",
              "parts": {
                "total": "1",
                "hash": "158A1F1A9E7C3647E432E4667057F06E2FC8B3DA"
              }
            },
            "signature": {
              "type": "tendermint/SignatureEd25519",
              "value": "2oO1lubD01zIAGgeppkyg57fiSCl9zaeIg8/ZAxlM9lJp1XkHiHdVQF9wCd9CKofH68rB7ZWCDDsC//tHs2OAg=="
            }
          },
          {
            "validator_address": "F23FF36BD5B90C33CE3A03ED72DBDCF5EC07D6AF",
            "validator_index": "111",
            "height": "8211",
            "round": "1",
            "timestamp": "2018-07-30T19:29:15.307896653Z",
            "type": 2,
            "block_id": {
              "hash": "6CDEE5944B5B1B55445F7C293BDFB18404DAA92B",
              "parts": {
                "total": "1",
                "hash": "158A1F1A9E7C3647E432E4667057F06E2FC8B3DA"
              }
            },
            "signature": {
              "type": "tendermint/SignatureEd25519",
              "value": "ECRBhSKh0x6NpN8BmjAo78Yuj21PZgV3MQLDMOzSMHz62Igniv0dbMwWGcw1pHktgg+3qXWFZUhYo0l9owKuDA=="
            }
          },
          {
            "validator_address": "F4268597DE93E3E2CED38845010F8AA34E2A879E",
            "validator_index": "112",
            "height": "8211",
            "round": "1",
            "timestamp": "2018-07-30T19:29:15.326370061Z",
            "type": 2,
            "block_id": {
              "hash": "6CDEE5944B5B1B55445F7C293BDFB18404DAA92B",
              "parts": {
                "total": "1",
                "hash": "158A1F1A9E7C3647E432E4667057F06E2FC8B3DA"
              }
            },
            "signature": {
              "type": "tendermint/SignatureEd25519",
              "value": "XNbLQG09OFb+FbuTuWCMe1V8AEKUirBp+yjyNrsGiDMYfMiNC0yj/lJH1pnjpTe4ydGZJq81HxRBPJNf4w7QAg=="
            }
          },
          {
            "validator_address": "F4DEB417999B04BE2EFF9FFE03FA373D86011CC0",
            "validator_index": "113",
            "height": "8211",
            "round": "1",
            "timestamp": "2018-07-30T19:29:15.323356066Z",
            "type": 2,
            "block_id": {
              "hash": "6CDEE5944B5B1B55445F7C293BDFB18404DAA92B",
              "parts": {
                "total": "1",
                "hash": "158A1F1A9E7C3647E432E4667057F06E2FC8B3DA"
              }
            },
            "signature": {
              "type": "tendermint/SignatureEd25519",
              "value": "C9S9e67yzCQn5GjNaXDbG3sqPKX2C+lcwCuXH7BATRNfoSF4FBnMzqeVXf4uMZpnunG2ADAfe92T9akQt/CGBg=="
            }
          },
          null,
          null,
          null,
          {
            "validator_address": "FF3F3FCBCE7E62D7AD5506FF846EC4518D980515",
            "validator_index": "117",
            "height": "8211",
            "round": "1",
            "timestamp": "2018-07-30T19:29:15.221570181Z",
            "type": 2,
            "block_id": {
              "hash": "6CDEE5944B5B1B55445F7C293BDFB18404DAA92B",
              "parts": {
                "total": "1",
                "hash": "158A1F1A9E7C3647E432E4667057F06E2FC8B3DA"
              }
            },
            "signature": {
              "type": "tendermint/SignatureEd25519",
              "value": "j8H9NJjlPYQol06IX3nyvVAbXVY+GNmrXrTYt4+UX9dN4M8BiaXToaSXahv6IjWJcNSZo0sw+npQcEHtQkuZCQ=="
            }
          }
        ]
      }
    },
    "canonical": true
  }
}