{
  "jsonrpc": "2.0",
  "id": "",
  "result": {
    "SignedHeader": {
      "header": {
        "chain_id": "gaia-7004",
        "height": "9270",
        "time": "2018-07-30T21:20:32.019633583Z",
        "num_txs": "0",
        "last_block_id": {
          "hash": "7BA370606C293B1656BE6357BA5B7DD7963E0059",
          "parts": {
            "total": "1",
            "hash": "C5810E447F9AB2BD121715EBE926C376EA7C7272"
          }
        },
        "total_txs": "412",
        "last_commit_hash": "3714291B8FEF92AB8CEBD846A137734535E7A6A5",
        "data_hash": "",
        "validators_hash": "937B3DFA7CB6AE2751AC92241FB3560AE2FA16F1",
        "consensus_hash": "D6B74BB35BDFFD8392340F2A379173548AE188FE",
        "app_hash": "04FB05181DE8D253D7090C539963A752D3366607",
        "last_results_hash": "",
        "evidence_hash": ""
      },
      "commit": {
        "block_id": {
          "hash": "B4309856EDE602A6959A86667FCFA036E4C1C577",
          "parts": {
            "total": "1",
            "hash": "3CB27F8AF957514581D29599BADFD5A2A4C6F0C1"
          }
        },
        "precommits": [
          {
            "validator_address": "029359C0C768096273A68ABC902A6B17AC8D1D70",
            "validator_index": "0",
            "height": "9270",
            "round": "0",
            "timestamp": "2018-07-30T21:20:32.875470011Z",
            "type": 2,
            "block_id": {
              "hash": "B4309856EDE602A6959A86667FCFA036E4C1C577",
              "parts": {
                "total": "1",
                "hash": "3CB27F8AF957514581D29599BADFD5A2A4C6F0C1"
              }
            },
            "signature": {
              "type": "tendermint/SignatureEd25519",
              "value": "lZHEvNIdVQpG2CtfcNrr6krbKOCUa67FqKvI3L7ist4RjL2djhKWJc1KiRB9FE2JuOW9FT8WMTDSGaidxte2CA=="
            }
          },
          {
            "validator_address": "02FE4B97A8387F39D1AC19E0C1702B3CC614812F",
            "validator_index": "1",
            "height": "9270",
            "round": "0",
            "timestamp": "2018-07-30T21:20:32.847536539Z",
            "type": 2,
            "block_id": {
              "hash": "B4309856EDE602A6959A86667FCFA036E4C1C577",
              "parts": {
                "total": "1",
                "hash": "3CB27F8AF957514581D29599BADFD5A2A4C6F0C1"
              }
            },
            "signature": {
              "type": "tendermint/SignatureEd25519",
              "value": "P88bYqbs5LwMD+RDZE8rUU6yNAr2R3jjxILDVNNzFkE43Kgqn+Y4ZJxXrj/X26GmIpL4QAd41QbdKKKlXJQoCQ=="
            }
          },
          {
            "validator_address": "0548261C50222FD710EB5EBDF03A0E6567B21D20",
            "validator_index": "2",
            "height": "9270",
            "round": "0",
            "timestamp": "2018-07-30T21:20:32.862465013Z",
            "type": 2,
            "block_id": {
              "hash": "B4309856EDE602A6959A86667FCFA036E4C1C577",
              "parts": {
                "total": "1",
                "hash": "3CB27F8AF957514581D29599BADFD5A2A4C6F0C1"
              }
            },
            "signature": {
              "type": "tendermint/SignatureEd25519",
              "value": "t0p0HnCHYgv50YNHJwAMsmeDHDLyX10gcrzX/noyd0PrzLdlIGg6k2rBijLU1BMAr+8BGYqU78dvP+JVHa1JBA=="
            }
          },
          {
            "validator_address": "0665ADBF9B120B7617BF955AA5653A1992C82B11",
            "validator_index": "3",
            "height": "9270",
            "round": "0",
            "timestamp": "2018-07-30T21:20:32.895090586Z",
            "type": 2,
            "block_id": {
              "hash": "B4309856EDE602A6959A86667FCFA036E4C1C577",
              "parts": {
                "total": "1",
                "hash": "3CB27F8AF957514581D29599BADFD5A2A4C6F0C1"
              }
            },
            "signature": {
              "type": "tendermint/SignatureEd25519",
              "value": "ADX2aHWgn2icR/zn0RNAb9XRq9d5aisi3VpvugrPkPiKoENEShSt2kK/7PiKG9nTboidtLxG8SCnw2s1h4PLBQ=="
            }
          },
          {
            "validator_address": "09145E611CC27EEB944FC5A956DDF710F943B9EF",
            "validator_index": "4",
            "height": "9270",
            "round": "0",
            "timestamp": "2018-07-30T21:20:32.953431481Z",
            "type": 2,
            "block_id": {
              "hash": "B4309856EDE602A6959A86667FCFA036E4C1C577",
              "parts": {
                "total": "1",
                "hash": "3CB27F8AF957514581D29599BADFD5A2A4C6F0C1"
              }
            },
            "signature": {
              "type": "tendermint/SignatureEd25519",
              "value": "X18XBZQKg5SrK01wdGdsYhhywFge+htddfPm6zyEGzeIqIAIB03X/VlaH3ID8NhcQGoaFkTlMgHB668roX+LBg=="
            }
          },
          {
            "validator_address": "0989D0355A104B67AE0AE028C68FB610690E174B",
            "validator_index": "5",
            "height": "9270",
            "round": "0",
            "timestamp": "2018-07-30T21:20:32.888772715Z",
            "type": 2,
            "block_id": {
              "hash": "B4309856EDE602A6959A86667FCFA036E4C1C577",
              "parts": {
                "total": "1",
                "hash": "3CB27F8AF957514581D29599BADFD5A2A4C6F0C1"
              }
            },
            "signature": {
              "type": "tendermint/SignatureEd25519",
              "value": "m3pqUcUjEFPVvdsPZSfQ6vJKgDNc+DfTl4alVSpyahyVwzaEWZuTZBJ9HEWMRKV+vStVFj1DhZu33LLKF4uTDg=="
            }
          },
          {
            "validator_address": "0A692DBFFE9E5DD28E7DECC33CED1AEB4C0D014E",
            "validator_index": "6",
            "height": "9270",
            "round": "0",
            "timestamp": "2018-07-30T21:20:32.958960782Z",
            "type": 2,
            "block_id": {
              "hash": "B4309856EDE602A6959A86667FCFA036E4C1C577",
              "parts": {
                "total": "1",
                "hash": "3CB27F8AF957514581D29599BADFD5A2A4C6F0C1"
              }
            },
            "signature": {
              "type": "tendermint/SignatureEd25519",
              "value": "AX4JAPfSLRJccowsNyHxWvF/WD6B/9Nkv2FWexuW0nLn7v28oX9QTTINl+xAKuLyn5wVDTB8IdXLb2lUWjpXDA=="
            }
          },
          {
            "validator_address": "0DDF97111D73DB825138EC15EC27DE5FE8536901",
            "validator_index": "7",
            "height": "9270",
            "round": "0",
            "timestamp": "2018-07-30T21:20:32.951917373Z",
            "type": 2,
            "block_id": {
              "hash": "B4309856EDE602A6959A86667FCFA036E4C1C577",
              "parts": {
                "total": "1",
                "hash": "3CB27F8AF957514581D29599BADFD5A2A4C6F0C1"
              }
            },
            "signature": {
              "type": "tendermint/SignatureEd25519",
              "value": "HnGpbqtvzwa3I32FAtrDgyafd5eqxR9ARQ+qTDQldhhWm6aVQJd94NdvJA0OYH5P67OH9xf/mpUehun/fH8nDQ=="
            }
          },
          null,
          {
            "validator_address": "1751786EFC085D5331C61168FFFC8202EA151B4E",
            "validator_index": "9",
            "height": "9270",
            "round": "0",
            "timestamp": "2018-07-30T21:20:32.273053269Z",
            "type": 2,
            "block_id": {
              "hash": "B4309856EDE602A6959A86667FCFA036E4C1C577",
              "parts": {
                "total": "1",
                "hash": "3CB27F8AF957514581D29599BADFD5A2A4C6F0C1"
              }
            },
            "signature": {
              "type": "tendermint/SignatureEd25519",
              "value": "K47lu6y/XvvMHmD4YWvutyCWyBPDbUIaR/pJL+MwNpg0tGMobNkwX7zctLEIUOK5STKNnVQEhUAvkeHOCHKZAw=="
            }
          },
          {
            "validator_address": "17BB5CD01E8940FAFB948A04D5FA5A0645E5822E",
            "validator_index": "10",
            "height": "9270",
            "round": "0",
            "timestamp": "2018-07-30T21:20:32.864706766Z",
            "type": 2,
            "block_id": {
              "hash": "B4309856EDE602A6959A86667FCFA036E4C1C577",
              "parts": {
                "total": "1",
                "hash": "3CB27F8AF957514581D29599BADFD5A2A4C6F0C1"
              }
            },
            "signature": {
              "type": "tendermint/SignatureEd25519",
              "value": "MDAEFAKPAHkf4A5oZA7YeOGlLK0BJPNQqYTugwIzUORKD8S3Ll/wleoHl+QEzw2fQzKeMpZ7JHQXEE9ShcwpDg=="
            }
          },
          {
            "validator_address": "1C683A87904BC38F05004FE83301A3A3E35447EB",
            "validator_index": "11",
            "height": "9270",
            "round": "0",
            "timestamp": "2018-07-30T21:20:32.910654429Z",
            "type": 2,
            "block_id": {
              "hash": "B4309856EDE602A6959A86667FCFA036E4C1C577",
              "parts": {
                "total": "1",
                "hash": "3CB27F8AF957514581D29599BADFD5A2A4C6F0C1"
              }
            },
            "signature": {
              "type": "tendermint/SignatureEd25519",
              "value": "yYQuG2LxZFiNVlJjmmnZlcEJea8YQ39DqDKBMUcwIKUda31TPg6P6iJVq1Up+p3p4UYqw/gl8Wng9o/OWA1nBg=="
            }
          },
          {
            "validator_address": "1E9CE94FD0BA5CFEB901F90BC658D64D85B134D2",
            "validator_index": "12",
            "height": "9270",
            "round": "0",
            "timestamp": "2018-07-30T21:20:32.913363968Z",
            "type": 2,
            "block_id": {
              "hash": "B4309856EDE602A6959A86667FCFA036E4C1C577",
              "parts": {
                "total": "1",
                "hash": "3CB27F8AF957514581D29599BADFD5A2A4C6F0C1"
              }
            },
            "signature": {
              "type": "tendermint/SignatureEd25519",
              "value": "EBIKAPB2mmsE6motqQimD7JGJkyBkGaAfKR4947Eux7XkYbNyC6L5FjcshKY4vY+uY1xnsqOwnhpqqMswz1SAQ=="
            }
          },
          {
            "validator_address": "1ECD8C5FE1341D74CDC633A245DD56858DE2F9A2",
            "validator_index": "13",
            "height": "9270",
            "round": "0",
            "timestamp": "2018-07-30T21:20:33.006160356Z",
            "type": 2,
            "block_id": {
              "hash": "B4309856EDE602A6959A86667FCFA036E4C1C577",
              "parts": {
                "total": "1",
                "hash": "3CB27F8AF957514581D29599BADFD5A2A4C6F0C1"
              }
            },
            "signature": {
              "type": "tendermint/SignatureEd25519",
              "value": "sxNI2lRC0b3ZHLswqGZ6FPIWJRP1l5lTOrR73yMPq4kHJExkb/X7bAuJ0f/+Ac9io92WDbkot5HX3iHmDKSwBg=="
            }
          },
          {
            "validator_address": "1F3A68CAAD483768AA2BF667DEF10F7104C89928",
            "validator_index": "14",
            "height": "9270",
            "round": "0",
            "timestamp": "2018-07-30T21:20:32.865619335Z",
            "type": 2,
            "block_id": {
              "hash": "B4309856EDE602A6959A86667FCFA036E4C1C577",
              "parts": {
                "total": "1",
                "hash": "3CB27F8AF957514581D29599BADFD5A2A4C6F0C1"
              }
            },
            "signature": {
              "type": "tendermint/SignatureEd25519",
              "value": "QOGrs5fjzDiBXmQo9sM6E+SmzOyLoGF6jv10pGKZ21QDQtdL76v0wn31MduOctYT+H8Adsp65fdDcdkQ6YqRDQ=="
            }
          },
          null,
          {
            "validator_address": "23897586D68E2AC1C78E0EF5BB5DF5C8EAB18F50",
            "validator_index": "16",
            "height": "9270",
            "round": "0",
            "timestamp": "2018-07-30T21:20:32.955769414Z",
            "type": 2,
            "block_id": {
              "hash": "B4309856EDE602A6959A86667FCFA036E4C1C577",
              "parts": {
                "total": "1",
                "hash": "3CB27F8AF957514581D29599BADFD5A2A4C6F0C1"
              }
            },
            "signature": {
              "type": "tendermint/SignatureEd25519",
              "value": "9XmiaAeaxV9W9zmacShxlrkjulLXDThTVTq+bpz7pwVSawB0qii+uMq43Uucmoex94xAUnJBL1u7q+pHroCXBA=="
            }
          },
          {
            "validator_address": "28770D17E8530825E7310A0659308654B7EC9682",
            "validator_index": "17",
            "height": "9270",
            "round": "0",
            "timestamp": "2018-07-30T21:20:32.868807176Z",
            "type": 2,
            "block_id": {
              "hash": "B4309856EDE602A6959A86667FCFA036E4C1C577",
              "parts": {
                "total": "1",
                "hash": "3CB27F8AF957514581D29599BADFD5A2A4C6F0C1"
              }
            },
            "signature": {
              "type": "tendermint/SignatureEd25519",
              "value": "Rj6O5t99VjNUM+O7ckb8/FB84FnfKp4H6G8mcJkr7/F6UALSmuK1NPyep5LdxHZJ1ggZy9rt0zAC2/p5wBBhAA=="
            }
          },
          null,
          {
            "validator_address": "2A92EC3C642140202298D0E245095E0ECFC25228",
            "validator_index": "19",
            "height": "9270",
            "round": "0",
            "timestamp": "2018-07-30T21:20:32.914703051Z",
            "type": 2,
            "block_id": {
              "hash": "B4309856EDE602A6959A86667FCFA036E4C1C577",
              "parts": {
                "total": "1",
                "hash": "3CB27F8AF957514581D29599BADFD5A2A4C6F0C1"
              }
            },
            "signature": {
              "type": "tendermint/SignatureEd25519",
              "value": "Z8UkUYk9MFUX9LC7u/BO1o6mL7BiwvEI94m0vE+Sb05UVVuyC3dehnCxiej8mfhRoT7qar7shtWwXNLoNn1OAQ=="
            }
          },
          null,
          null,
          {
            "validator_address": "33412C9A69C60CB0FAA24A5C5B3A906DE24B47C2",
            "validator_index": "22",
            "height": "9270",
            "round": "0",
            "timestamp": "2018-07-30T21:20:32.873688258Z",
            "type": 2,
            "block_id": {
              "hash": "B4309856EDE602A6959A86667FCFA036E4C1C577",
              "parts": {
                "total": "1",
                "hash": "3CB27F8AF957514581D29599BADFD5A2A4C6F0C1"
              }
            },
            "signature": {
              "type": "tendermint/SignatureEd25519",
              "value": "kNgf+3VCgpqMMLDdhFCJ56xsrID+EgXORvyU/HYMJRBbOr9khlnCpu79cvTlfKpUgMsLcRz+eXOprIVH2IXtAA=="
            }
          },
          null,
          {
            "validator_address": "36E9B7FAEC964F97D84C028ED62493E373AD0B38",
            "validator_index": "24",
            "height": "9270",
            "round": "0",
            "timestamp": "2018-07-30T21:20:32.941693728Z",
            "type": 2,
            "block_id": {
              "hash": "B4309856EDE602A6959A86667FCFA036E4C1C577",
              "parts": {
                "total": "1",
                "hash": "3CB27F8AF957514581D29599BADFD5A2A4C6F0C1"
              }
            },
            "signature": {
              "type": "tendermint/SignatureEd25519",
              "value": "IdlCkllomDC6P9BTrNwhPhk72cY8ycMD/lD+HX7VvhYCt62GW+1WeFUy7xIi5Swqp5nMDpZH5xdu1M3hg0MLBQ=="
            }
          },
          {
            "validator_address": "38A8D85D36BEA2E5FCF8A1E778F53628E450EF13",
            "validator_index": "25",
            "height": "9270",
            "round": "0",
            "timestamp": "2018-07-30T21:20:33.001964939Z",
            "type": 2,
            "block_id": {
              "hash": "B4309856EDE602A6959A86667FCFA036E4C1C577",
              "parts": {
                "total": "1",
                "hash": "3CB27F8AF957514581D29599BADFD5A2A4C6F0C1"
              }
            },
            "signature": {
              "type": "tendermint/SignatureEd25519",
              "value": "DCzTTpeNLSdVualSBP/FigKIqD49ABBBx2x02nMJzioN3fiKaXniKtR5ZfBr4omty5IjWto+RmvuvGChSbzcBg=="
            }
          },
          {
            "validator_address": "39DFDA0C5DB84B269642188B23253508537798E6",
            "validator_index": "26",
            "height": "9270",
            "round": "0",
            "timestamp": "2018-07-30T21:20:32.869984336Z",
            "type": 2,
            "block_id": {
              "hash": "B4309856EDE602A6959A86667FCFA036E4C1C577",
              "parts": {
                "total": "1",
                "hash": "3CB27F8AF957514581D29599BADFD5A2A4C6F0C1"
              }
            },
            "signature": {
              "type": "tendermint/SignatureEd25519",
              "value": "5q4R6JV7tjgNxftqiVJJ9ot6+gOB0hMh4vbUbHH2Fu05oMyFthK0EZ3H8rl4vUGk3vKbb7OXv1jfFy1riVHxCg=="
            }
          },
          {
            "validator_address": "3AC99B708404452366E0953A4BE849226DC86CBC",
            "validator_index": "27",
            "height": "9270",
            "round": "0",
            "timestamp": "2018-07-30T21:20:32.95993806Z",
            "type": 2,
            "block_id": {
              "hash": "B4309856EDE602A6959A86667FCFA036E4C1C577",
              "parts": {
                "total": "1",
                "hash": "3CB27F8AF957514581D29599BADFD5A2A4C6F0C1"
              }
            },
            "signature": {
              "type": "tendermint/SignatureEd25519",
              "value": "IS0vfpmnOBi8z1vOeidUffEDiw0hf0WGYDmWcNSYU1cxub+pTK29EsqRTF5xXHe6KQZdef0pbNQ+/ZGMlvaSAg=="
            }
          },
          {
            "validator_address": "3DCB822A10ED319EC7C4393D8E3FD4A41B15AAF2",
            "validator_index": "28",
            "height": "9270",
            "round": "0",
            "timestamp": "2018-07-30T21:20:32.87574342Z",
            "type": 2,
            "block_id": {
              "hash": "B4309856EDE602A6959A86667FCFA036E4C1C577",
              "parts": {
                "total": "1",
                "hash": "3CB27F8AF957514581D29599BADFD5A2A4C6F0C1"
              }
            },
            "signature": {
              "type": "tendermint/SignatureEd25519",
              "value": "i1jkqXLn31OY5yBij74LcWEwjCivA+bFRNbS+jXzNXrIRJYe7tpscAHGo83D6W2gVZW51vgzaHMSi1kmwtxUDw=="
            }
          },
          {
            "validator_address": "3E899BA36A93C7370347BD5FE85909F2ECD93F8C",
            "validator_index": "29",
            "height": "9270",
            "round": "0",
            "timestamp": "2018-07-30T21:20:32.908927794Z",
            "type": 2,
            "block_id": {
              "hash": "B4309856EDE602A6959A86667FCFA036E4C1C577",
              "parts": {
                "total": "1",
                "hash": "3CB27F8AF957514581D29599BADFD5A2A4C6F0C1"
              }
            },
            "signature": {
              "type": "tendermint/SignatureEd25519",
              "value": "EwL3TL+Dorz5zJRR8nxuBOfTE+2n6gqzywqujrmpLVHGZ3kYr6F0O5N5aD3xh+bI6Nf+2lI+c9eAdOkH0BJiBw=="
            }
          },
          {
            "validator_address": "41CAB2E29E7D0F2282E3275938F188FF9386B84C",
            "validator_index": "30",
            "height": "9270",
            "round": "0",
            "timestamp": "2018-07-30T21:20:32.948087833Z",
            "type": 2,
            "block_id": {
              "hash": "B4309856EDE602A6959A86667FCFA036E4C1C577",
              "parts": {
                "total": "1",
                "hash": "3CB27F8AF957514581D29599BADFD5A2A4C6F0C1"
              }
            },
            "signature": {
              "type": "tendermint/SignatureEd25519",
              "value": "nWezJiXku6n/ORA49yvDrwk2QQFkPGSdIUDPqvrZ/kHDo/tn0uwpU59aKFWrkONbJC1LJpLKLVuFR62noTCeBQ=="
            }
          },
          {
            "validator_address": "462B656869DB02A8FD1077E255F8CC7401DC37C6",
            "validator_index": "31",
            "height": "9270",
            "round": "0",
            "timestamp": "2018-07-30T21:20:32.899834569Z",
            "type": 2,
            "block_id": {
              "hash": "B4309856EDE602A6959A86667FCFA036E4C1C577",
              "parts": {
                "total": "1",
                "hash": "3CB27F8AF957514581D29599BADFD5A2A4C6F0C1"
              }
            },
            "signature": {
              "type": "tendermint/SignatureEd25519",
              "value": "9bpmButRpn1miqJ7QQW9wiBLy99mp7HnlXEJeRTU0joYVnSXQ2UNPf1s9TqkOSdO+4po0rZlbEIkspjwZ4WADQ=="
            }
          },
          {
            "validator_address": "48E5118163E5442068A1B5A42D2EEDBB75724935",
            "validator_index": "32",
            "height": "9270",
            "round": "0",
            "timestamp": "2018-07-30T21:20:33.061679844Z",
            "type": 2,
            "block_id": {
              "hash": "B4309856EDE602A6959A86667FCFA036E4C1C577",
              "parts": {
                "total": "1",
                "hash": "3CB27F8AF957514581D29599BADFD5A2A4C6F0C1"
              }
            },
            "signature": {
              "type": "tendermint/SignatureEd25519",
              "value": "ZHG4n6GTRN/PjKIwOwwYvN+nhDGDUtp4r/GeweT95eF7xzeW+86d6qhSTraiZzqK8yGw5w8sOe1Pt2aetPnGBA=="
            }
          },
          null,
          {
            "validator_address": "4944F8BBBB5303E17BC0607DF332320EDBC750EA",
            "validator_index": "34",
            "height": "9270",
            "round": "0",
            "timestamp": "2018-07-30T21:20:32.888959196Z",
            "type": 2,
            "block_id": {
              "hash": "B4309856EDE602A6959A86667FCFA036E4C1C577",
              "parts": {
                "total": "1",
                "hash": "3CB27F8AF957514581D29599BADFD5A2A4C6F0C1"
              }
            },
            "signature": {
              "type": "tendermint/SignatureEd25519",
              "value": "otGf6E22CpvVtLh0KcVXYTOpjwY9xVG58HDCAvftMVZN1B9X88iUGQUjG+9rc6QFpcG+/Jh+RzRw96u1ZzGvBQ=="
            }
          },
          {
            "validator_address": "49841599DE675157CBE1E7D6B35BF8FFC23BD5CB",
            "validator_index": "35",
            "height": "9270",
            "round": "0",
            "timestamp": "2018-07-30T21:20:32.844345221Z",
            "type": 2,
            "block_id": {
              "hash": "B4309856EDE602A6959A86667FCFA036E4C1C577",
              "parts": {
                "total": "1",
                "hash": "3CB27F8AF957514581D29599BADFD5A2A4C6F0C1"
              }
            },
            "signature": {
              "type": "tendermint/SignatureEd25519",
              "value": "a1hFDvtxwPmNBcqgj4l02cQW+yfNarSKGWm9iOYhOn7ARcEXM9ZPQuFWLaMW3kyZWvhFzJUWlFWmxvJiMwqQCA=="
            }
          },
          {
            "validator_address": "5104F488EA6B1E2C33CBDA3C18389C88104DBC72",
            "validator_index": "36",
            "height": "9270",
            "round": "0",
            "timestamp": "2018-07-30T21:20:32.8759077Z",
            "type": 2,
            "block_id": {
              "hash": "B4309856EDE602A6959A86667FCFA036E4C1C577",
              "parts": {
                "total": "1",
                "hash": "3CB27F8AF957514581D29599BADFD5A2A4C6F0C1"
              }
            },
            "signature": {
              "type": "tendermint/SignatureEd25519",
              "value": "A/4ljRsPUxpuCe/rGwRLN0ueWj1wIbT05f3UVGK4HYTjdtZCv3kS1o7s+tXzjh5La7I6Mv1UwFejZ8vf//vYBA=="
            }
          },
          {
            "validator_address": "51386C2CF9556821D114D7E4945806802BADB28D",
            "validator_index": "37",
            "height": "9270",
            "round": "0",
            "timestamp": "2018-07-30T21:20:32.91062079Z",
            "type": 2,
            "block_id": {
              "hash": "B4309856EDE602A6959A86667FCFA036E4C1C577",
              "parts": {
                "total": "1",
                "hash": "3CB27F8AF957514581D29599BADFD5A2A4C6F0C1"
              }
            },
            "signature": {
              "type": "tendermint/SignatureEd25519",
              "value": "HU1DCb/CSzLeP7N4UK/FJz68dl3mXpptw9GSSPbnQ+tw3Yf7ql5uhPOKVYE/4pfZN6Y/Q2Un7ikLvDo6l0jwBg=="
            }
          },
          {
            "validator_address": "543564ECA3AFEFADC73EE8591AAC3A96F079BC8A",
            "validator_index": "38",
            "height": "9270",
            "round": "0",
            "timestamp": "2018-07-30T21:20:32.859521834Z",
            "type": 2,
            "block_id": {
              "hash": "B4309856EDE602A6959A86667FCFA036E4C1C577",
              "parts": {
                "total": "1",
                "hash": "3CB27F8AF957514581D29599BADFD5A2A4C6F0C1"
              }
            },
            "signature": {
              "type": "tendermint/SignatureEd25519",
              "value": "fBMUJB9i6Jesf3Fel6LpiSyS8645AY2tprAnVSn8MJSDqAmNN/OhWv/S+52y0y7HTXy7L9EtQyoU0aMHZo3ADA=="
            }
          },
          {
            "validator_address": "55D67B1A6DC13E96F8754A5A42EABC20F7F86664",
            "validator_index": "39",
            "height": "9270",
            "round": "0",
            "timestamp": "2018-07-30T21:20:32.850698419Z",
            "type": 2,
            "block_id": {
              "hash": "B4309856EDE602A6959A86667FCFA036E4C1C577",
              "parts": {
                "total": "1",
                "hash": "3CB27F8AF957514581D29599BADFD5A2A4C6F0C1"
              }
            },
            "signature": {
              "type": "tendermint/SignatureEd25519",
              "value": "8e+rDO+qY5NM36DgOgkW1+qM+kgOKEPq/UX75bI6MN9H31XN4nNO3aBARI12t4+bK/vr+Ihif1jriS5d9G20AQ=="
            }
          },
          {
            "validator_address": "570B6A755ED339EAC56BB3390A48069F6AC9449B",
            "validator_index": "40",
            "height": "9270",
            "round": "0",
            "timestamp": "2018-07-30T21:20:34.133468559Z",
            "type": 2,
            "block_id": {
              "hash": "B4309856EDE602A6959A86667FCFA036E4C1C577",
              "parts": {
                "total": "1",
                "hash": "3CB27F8AF957514581D29599BADFD5A2A4C6F0C1"
              }
            },
            "signature": {
              "type": "tendermint/SignatureEd25519",
              "value": "G1zDtn/4Znxzn41TeZee9VBAz7Q26mtlCVUpWYfFgOsbXV2/sX65HEn+mPRtkG7YKk8hU/5FuqRmawLmDAe+BA=="
            }
          },
          {
            "validator_address": "5BDF8EA41B1835FBAD865B181A2A4B23F511B5E4",
            "validator_index": "41",
            "height": "9270",
            "round": "0",
            "timestamp": "2018-07-30T21:20:32.863281691Z",
            "type": 2,
            "block_id": {
              "hash": "B4309856EDE602A6959A86667FCFA036E4C1C577",
              "parts": {
                "total": "1",
                "hash": "3CB27F8AF957514581D29599BADFD5A2A4C6F0C1"
              }
            },
            "signature": {
              "type": "tendermint/SignatureEd25519",
              "value": "1XeOXkGBCNti3VckvXvU1ulEZZBEdWVljuPPzzqeSUSBL9iTl3C9GhavgMGCKp0+a20u/e32LhrCtXTjOd11DQ=="
            }
          },
          null,
          null,
          {
            "validator_address": "60229E2E273297FE00219E46DFFB8F76844CDEF9",
            "validator_index": "44",
            "height": "9270",
            "round": "0",
            "timestamp": "2018-07-30T21:20:32.07262666Z",
            "type": 2,
            "block_id": {
              "hash": "B4309856EDE602A6959A86667FCFA036E4C1C577",
              "parts": {
                "total": "1",
                "hash": "3CB27F8AF957514581D29599BADFD5A2A4C6F0C1"
              }
            },
            "signature": {
              "type": "tendermint/SignatureEd25519",
              "value": "ONlfe1iCNPbVChjRBAp4HqqWG47K6HOGkmRczbb8nP3ftPOj1mwujJCERSox6OdorrIbRQV8eXrp/Eigpjb8AQ=="
            }
          },
          {
            "validator_address": "62410D6D1CD98278136E4D0738AA0EA273CDFC54",
            "validator_index": "45",
            "height": "9270",
            "round": "0",
            "timestamp": "2018-07-30T21:20:32.889355622Z",
            "type": 2,
            "block_id": {
              "hash": "B4309856EDE602A6959A86667FCFA036E4C1C577",
              "parts": {
                "total": "1",
                "hash": "3CB27F8AF957514581D29599BADFD5A2A4C6F0C1"
              }
            },
            "signature": {
              "type": "tendermint/SignatureEd25519",
              "value": "8aqY6EWfE7+TkDNnODs1WJGlnT7iJkrf7LmX9amNCr12uzsuXleuQOfvjcu0+ZdMDDuxY+Kn9QVPS+i0SBiHBw=="
            }
          },
          {
            "validator_address": "632F5C139A5A9DFBFE5111DEE29FCFB6157207DC",
            "validator_index": "46",
            "height": "9270",
            "round": "0",
            "timestamp": "2018-07-30T21:20:32.948915158Z",
            "type": 2,
            "block_id": {
              "hash": "B4309856EDE602A6959A86667FCFA036E4C1C577",
              "parts": {
                "total": "1",
                "hash": "3CB27F8AF957514581D29599BADFD5A2A4C6F0C1"
              }
            },
            "signature": {
              "type": "tendermint/SignatureEd25519",
              "value": "4v68p6tZLy6deTYFau4nEOytBfOdFVXB48wW/YFHgM3dfz16WywcIA4G18q0ZIg94mhaAbIKZDR568ekqFCbCA=="
            }
          },
          {
            "validator_address": "64F57F8E796A9B7B590C1EFA4123988C86631D39",
            "validator_index": "47",
            "height": "9270",
            "round": "0",
            "timestamp": "2018-07-30T21:20:32.812073946Z",
            "type": 2,
            "block_id": {
              "hash": "B4309856EDE602A6959A86667FCFA036E4C1C577",
              "parts": {
                "total": "1",
                "hash": "3CB27F8AF957514581D29599BADFD5A2A4C6F0C1"
              }
            },
            "signature": {
              "type": "tendermint/SignatureEd25519",
              "value": "eh7Il3GNBr9MdpHC1KkQEBf9BYH96dJVQfOb69J5NKazxyZV4wD4wZ43szEHerP+We/wBuOhPpGb0dPLPecjDQ=="
            }
          },
          {
            "validator_address": "69D99B2C66043ACBEAA8447525C356AFC6408E0C",
            "validator_index": "48",
            "height": "9270",
            "round": "0",
            "timestamp": "2018-07-30T21:20:32.994418461Z",
            "type": 2,
            "block_id": {
              "hash": "B4309856EDE602A6959A86667FCFA036E4C1C577",
              "parts": {
                "total": "1",
                "hash": "3CB27F8AF957514581D29599BADFD5A2A4C6F0C1"
              }
            },
            "signature": {
              "type": "tendermint/SignatureEd25519",
              "value": "pTKACQtoMZkeDj/RRybJRlLnjf0DXhTqe/vmm7OG2Ii1HnSkLiTHsg+rk+AH8S1kee/ueU/gJVa5/D85w5p9Dg=="
            }
          },
          {
            "validator_address": "69EDADFA4A803E9DBF548C900D4A465E7D154262",
            "validator_index": "49",
            "height": "9270",
            "round": "0",
            "timestamp": "2018-07-30T21:20:33.078154753Z",
            "type": 2,
            "block_id": {
              "hash": "B4309856EDE602A6959A86667FCFA036E4C1C577",
              "parts": {
                "total": "1",
                "hash": "3CB27F8AF957514581D29599BADFD5A2A4C6F0C1"
              }
            },
            "signature": {
              "type": "tendermint/SignatureEd25519",
              "value": "9MvYyqVGpXPQcMfk7rcAzfAaxFjNMBN/GZeI6o6VzixBZSJciBA+RcMrui8Y2Ohp+997Apyh4t0nzIhntOr1BQ=="
            }
          },
          {
            "validator_address": "6D3AD380E398D8592B03AA124BAFED5F125DF863",
            "validator_index": "50",
            "height": "9270",
            "round": "0",
            "timestamp": "2018-07-30T21:19:31.293384788Z",
            "type": 2,
            "block_id": {
              "hash": "B4309856EDE602A6959A86667FCFA036E4C1C577",
              "parts": {
                "total": "1",
                "hash": "3CB27F8AF957514581D29599BADFD5A2A4C6F0C1"
              }
            },
            "signature": {
              "type": "tendermint/SignatureEd25519",
              "value": "JNZwUTC6U6S0NOkkPy+N4u5aY6jieJksivbmbCRoVmJtag2CGsHSblomkKU1jTe3Gi2lwWjpRxlPbjDNPI0CDA=="
            }
          },
          {
            "validator_address": "6F6C93B8BF3495063FEC9B5C771158607F4AE9D6",
            "validator_index": "51",
            "height": "9270",
            "round": "0",
            "timestamp": "2018-07-30T21:20:32.957790225Z",
            "type": 2,
            "block_id": {
              "hash": "B4309856EDE602A6959A86667FCFA036E4C1C577",
              "parts": {
                "total": "1",
                "hash": "3CB27F8AF957514581D29599BADFD5A2A4C6F0C1"
              }
            },
            "signature": {
              "type": "tendermint/SignatureEd25519",
              "value": "AHFk8SKTK/CWzD+eio2CfK1R7fEzQjylcfINYXvHxsHqH05J+/fxwrck9WNkmfQ3IQubTfyS7w2zOq7yNU5yAw=="
            }
          },
          {
            "validator_address": "732CEEF54C374DDC6ADECBFD707AEFD07FEDC143",
            "validator_index": "52",
            "height": "9270",
            "round": "0",
            "timestamp": "2018-07-30T21:20:33.080953422Z",
            "type": 2,
            "block_id": {
              "hash": "B4309856EDE602A6959A86667FCFA036E4C1C577",
              "parts": {
                "total": "1",
                "hash": "3CB27F8AF957514581D29599BADFD5A2A4C6F0C1"
              }
            },
            "signature": {
              "type": "tendermint/SignatureEd25519",
              "value": "+AjU9tvRKKKMBKmyB5BLuxRn0ixPy+ydVJ2g8a//Be3IfR+XFjfSTn8VU+hWcIE91RpN5oKg9ooq81Ttpxu5Bw=="
            }
          },
          {
            "validator_address": "7393D691BFAE9661918C09932D4D9060AB40939B",
            "validator_index": "53",
            "height": "9270",
            "round": "0",
            "timestamp": "2018-07-30T21:20:33.016838603Z",
            "type": 2,
            "block_id": {
              "hash": "B4309856EDE602A6959A86667FCFA036E4C1C577",
              "parts": {
                "total": "1",
                "hash": "3CB27F8AF957514581D29599BADFD5A2A4C6F0C1"
              }
            },
            "signature": {
              "type": "tendermint/SignatureEd25519",
              "value": "PMdMiUd5TMySl7MUdhEdgOw98B9LLmZmH2FYMEvQXu64xj1dWvfciOvyDIAJPdaSKv4u0732urDizEMMjVPRBw=="
            }
          },
          {
            "validator_address": "751E43437224E8BB6D1569B3E2B2616B6E7F4397",
            "validator_index": "54",
            "height": "9270",
            "round": "0",
            "timestamp": "2018-07-30T21:20:32.932635965Z",
            "type": 2,
            "block_id": {
              "hash": "B4309856EDE602A6959A86667FCFA036E4C1C577",
              "parts": {
                "total": "1",
                "hash": "3CB27F8AF957514581D29599BADFD5A2A4C6F0C1"
              }
            },
            "signature": {
              "type": "tendermint/SignatureEd25519",
              "value": "erKf446Yq2ECcuLSspzV457eaYqEAUBcAsPWNo8PlhCkEfjr0b1TbBCDkwEsvjTckjjJHWWVhJYm91e952ZqDQ=="
            }
          },
          {
            "validator_address": "7EB7593F519F1180C7E872D0494611464EDF03AE",
            "validator_index": "55",
            "height": "9270",
            "round": "0",
            "timestamp": "2018-07-30T21:20:32.966774377Z",
            "type": 2,
            "block_id": {
              "hash": "B4309856EDE602A6959A86667FCFA036E4C1C577",
              "parts": {
                "total": "1",
                "hash": "3CB27F8AF957514581D29599BADFD5A2A4C6F0C1"
              }
            },
            "signature": {
              "type": "tendermint/SignatureEd25519",
              "value": "UybGusYtzDcMlFxTOji69rwWVJHVUCC9e05fjOiggdH0cdIagwGNTQioKOgNKeQQlC4PWR3isEAr8gwWaLRMAQ=="
            }
          },
          {
            "validator_address": "807CF675BA8479FC4FEC1047215DF07970040F1F",
            "validator_index": "56",
            "height": "9270",
            "round": "0",
            "timestamp": "2018-07-30T21:20:33.246200624Z",
            "type": 2,
            "block_id": {
              "hash": "B4309856EDE602A6959A86667FCFA036E4C1C577",
              "parts": {
                "total": "1",
                "hash": "3CB27F8AF957514581D29599BADFD5A2A4C6F0C1"
              }
            },
            "signature": {
              "type": "tendermint/SignatureEd25519",
              "value": "kPKX7ugZLSmqoSwa6UdEwq4UoBaULkS/h4X3yylj1/b0qavGNs+yH0+Z6UX+Os5QFrMnAfLvOxKUwZZ+5SzyAw=="
            }
          },
          null,
          null,
          {
            "validator_address": "83AB321E012C57746689FED3A6064DF331F81007",
            "validator_index": "59",
            "height": "9270",
            "round": "0",
            "timestamp": "2018-07-30T21:20:32.914736617Z",
            "type": 2,
            "block_id": {
              "hash": "B4309856EDE602A6959A86667FCFA036E4C1C577",
              "parts": {
                "total": "1",
                "hash": "3CB27F8AF957514581D29599BADFD5A2A4C6F0C1"
              }
            },
            "signature": {
              "type": "tendermint/SignatureEd25519",
              "value": "sKarQ+XlojId2BzOv11B26eYgvIXFT2sv87jLhB7hl2zJ+Pp1nctuc+WvFK6khgaPcIErQipP3R7kLJ3g1HLDA=="
            }
          },
          {
            "validator_address": "83BB1B88D3DBB20AD845FECA07749EBD87D3754D",
            "validator_index": "60",
            "height": "9270",
            "round": "0",
            "timestamp": "2018-07-30T21:20:33.102145347Z",
            "type": 2,
            "block_id": {
              "hash": "B4309856EDE602A6959A86667FCFA036E4C1C577",
              "parts": {
                "total": "1",
                "hash": "3CB27F8AF957514581D29599BADFD5A2A4C6F0C1"
              }
            },
            "signature": {
              "type": "tendermint/SignatureEd25519",
              "value": "IBiMXcx1uLoO4r7OEDEWcU7wzqFXtPw3+a1v7bvZXgEefe5JuChkLGqgWBZgSlbPhIcBSFz/DO5ZOfE47XvBDA=="
            }
          },
          null,
          {
            "validator_address": "8F06FE1FD042683C426137FBC4BBAA4288924217",
            "validator_index": "62",
            "height": "9270",
            "round": "0",
            "timestamp": "2018-07-30T21:20:32.978653581Z",
            "type": 2,
            "block_id": {
              "hash": "B4309856EDE602A6959A86667FCFA036E4C1C577",
              "parts": {
                "total": "1",
                "hash": "3CB27F8AF957514581D29599BADFD5A2A4C6F0C1"
              }
            },
            "signature": {
              "type": "tendermint/SignatureEd25519",
              "value": "XojY+ZWOc0RvhcP7w0TA66ZUUWZHMuA+JhnTAdsUHZXLrlFebX7vrVTU+vGvYZTYqcp8f2Q+FmJG17a558b+AQ=="
            }
          },
          {
            "validator_address": "8F45617BF45B10A3F8283DEBDB35E38C7CA43237",
            "validator_index": "63",
            "height": "9270",
            "round": "0",
            "timestamp": "2018-07-30T21:20:32.873287171Z",
            "type": 2,
            "block_id": {
              "hash": "B4309856EDE602A6959A86667FCFA036E4C1C577",
              "parts": {
                "total": "1",
                "hash": "3CB27F8AF957514581D29599BADFD5A2A4C6F0C1"
              }
            },
            "signature": {
              "type": "tendermint/SignatureEd25519",
              "value": "pO1OKtLpA7tLtbNIHc+KxH+d7f4M07R4O4FYxSXFaQMyxGfu6JRWQvWfCPWB/LqIY6sE7VIQ/qiG/Ngb0oOyAA=="
            }
          },
          null,
          {
            "validator_address": "95980831E186F2540F6E9FB6C8E74DE2401405AC",
            "validator_index": "65",
            "height": "9270",
            "round": "0",
            "timestamp": "2018-07-30T21:20:32.884676717Z",
            "type": 2,
            "block_id": {
              "hash": "B4309856EDE602A6959A86667FCFA036E4C1C577",
              "parts": {
                "total": "1",
                "hash": "3CB27F8AF957514581D29599BADFD5A2A4C6F0C1"
              }
            },
            "signature": {
              "type": "tendermint/SignatureEd25519",
              "value": "EiEQBXgV3M+7ssym+Ox0XoiGKpCmLfrnIlbsvxHT/DfKZP14YLrJZjooYv3aDtCWb6wGa2T6yHPNq2TCQwN1BQ=="
            }
          },
          {
            "validator_address": "95FAFBC1E0579C83D290A063020CE87C5334BD9B",
            "validator_index": "66",
            "height": "9270",
            "round": "0",
            "timestamp": "2018-07-30T21:20:32.908987547Z",
            "type": 2,
            "block_id": {
              "hash": "B4309856EDE602A6959A86667FCFA036E4C1C577",
              "parts": {
                "total": "1",
                "hash": "3CB27F8AF957514581D29599BADFD5A2A4C6F0C1"
              }
            },
            "signature": {
              "type": "tendermint/SignatureEd25519",
              "value": "7t8ro/Ec320cnAi+3vuUXQv6ImXznGP9FFz+InqHPUemCWQeXymVd9z4CKJijbA6SV6+7DYhxuB0bge/tXSxCg=="
            }
          },
          {
            "validator_address": "96BDE45EC52606CF5CB59853097871AD60680549",
            "validator_index": "67",
            "height": "9270",
            "round": "0",
            "timestamp": "2018-07-30T21:20:32.909074352Z",
            "type": 2,
            "block_id": {
              "hash": "B4309856EDE602A6959A86667FCFA036E4C1C577",
              "parts": {
                "total": "1",
                "hash": "3CB27F8AF957514581D29599BADFD5A2A4C6F0C1"
              }
            },
            "signature": {
              "type": "tendermint/SignatureEd25519",
              "value": "fmFtUK1H9W+LDRNUF/PKXxZk8N1wEzCDtkAT//LPixAZ5YmuWtAx8i5syqbZ8SWNOI56EtAD7kJXRO0ocNhkDQ=="
            }
          },
          {
            "validator_address": "970CD321881185BF83DB2923C321B0E75FDBB2B8",
            "validator_index": "68",
            "height": "9270",
            "round": "0",
            "timestamp": "2018-07-30T21:20:33.033547481Z",
            "type": 2,
            "block_id": {
              "hash": "B4309856EDE602A6959A86667FCFA036E4C1C577",
              "parts": {
                "total": "1",
                "hash": "3CB27F8AF957514581D29599BADFD5A2A4C6F0C1"
              }
            },
            "signature": {
              "type": "tendermint/SignatureEd25519",
              "value": "I/AvZQw1JH6xoVho33SAByeJ6RXr8Zy6rmBd9IWOVdC9NoRDw3ju3IHk74eXWi9qLAy0hN3XciItJD+xSrmkDg=="
            }
          },
          null,
          {
            "validator_address": "9C29C9B76D27586E4D9AD2AED0E943162645E55C",
            "validator_index": "70",
            "height": "9270",
            "round": "0",
            "timestamp": "2018-07-30T21:20:32.815263032Z",
            "type": 2,
            "block_id": {
              "hash": "B4309856EDE602A6959A86667FCFA036E4C1C577",
              "parts": {
                "total": "1",
                "hash": "3CB27F8AF957514581D29599BADFD5A2A4C6F0C1"
              }
            },
            "signature": {
              "type": "tendermint/SignatureEd25519",
              "value": "cYdug0jP2q/wGFBno5HGCs7pZCZgXQwXU/JgWb3Hj397euWDpTlYwnGIhHDHCEVUEF7aFf0lrOk+CFtNo3PxBg=="
            }
          },
          {
            "validator_address": "9D93AD02FE1BD7E76B9E58D7EB461088EAD011E5",
            "validator_index": "71",
            "height": "9270",
            "round": "0",
            "timestamp": "2018-07-30T21:20:32.856943234Z",
            "type": 2,
            "block_id": {
              "hash": "B4309856EDE602A6959A86667FCFA036E4C1C577",
              "parts": {
                "total": "1",
                "hash": "3CB27F8AF957514581D29599BADFD5A2A4C6F0C1"
              }
            },
            "signature": {
              "type": "tendermint/SignatureEd25519",
              "value": "JO7lawSzjoZGQAcBelTgdFPOVnk5oherE6Po6bTizWhypreLbd7aki7+EDNfULlM3KXVLshYiTgRb7bejKqJAQ=="
            }
          },
          null,
          {
            "validator_address": "A0A6466F4ABEA09C3B55E3709AFDE217A103209F",
            "validator_index": "73",
            "height": "9270",
            "round": "0",
            "timestamp": "2018-07-30T21:20:32.861508083Z",
            "type": 2,
            "block_id": {
              "hash": "B4309856EDE602A6959A86667FCFA036E4C1C577",
              "parts": {
                "total": "1",
                "hash": "3CB27F8AF957514581D29599BADFD5A2A4C6F0C1"
              }
            },
            "signature": {
              "type": "tendermint/SignatureEd25519",
              "value": "CHoAQYxJaVyo8oTaofVDVv9RqX+jafW2lviZDK5wf3UUp97z1KywgwMmx4/uFtWUtw7auGweTbYG2reH6pL/Cg=="
            }
          },
          {
            "validator_address": "A5868971300F155020634D7BB49C7634F7AACCD3",
            "validator_index": "74",
            "height": "9270",
            "round": "0",
            "timestamp": "2018-07-30T21:20:32.887730236Z",
            "type": 2,
            "block_id": {
              "hash": "B4309856EDE602A6959A86667FCFA036E4C1C577",
              "parts": {
                "total": "1",
                "hash": "3CB27F8AF957514581D29599BADFD5A2A4C6F0C1"
              }
            },
            "signature": {
              "type": "tendermint/SignatureEd25519",
              "value": "xcLxxZ1u6NrgKj3SHWX5lSbfohspxBVfjgPB5uI702rw9EYBPCfxO+Bvw9m7T3SjKdRcy9qtengncs8nTiSPAg=="
            }
          },
          {
            "validator_address": "A6B3A5B5D982CFD7B5FDFA15CF5A720E7AE25E7F",
            "validator_index": "75",
            "height": "9270",
            "round": "0",
            "timestamp": "2018-07-30T21:20:32.913537105Z",
            "type": 2,
            "block_id": {
              "hash": "B4309856EDE602A6959A86667FCFA036E4C1C577",
              "parts": {
                "total": "1",
                "hash": "3CB27F8AF957514581D29599BADFD5A2A4C6F0C1"
              }
            },
            "signature": {
              "type": "tendermint/SignatureEd25519",
              "value": "AMBookb4AWc2t48Z+vhh3hFQqqHlU26f5NhGIncMJ1gcIEL4qrMn+TmI6jFVzemX8K15FrDZ3TUStk+k9/O5AA=="
            }
          },
          {
            "validator_address": "AC96444A9083890B7C7B430DB17BF1D3EA5EED04",
            "validator_index": "76",
            "height": "9270",
            "round": "0",
            "timestamp": "2018-07-30T21:20:32.969714026Z",
            "type": 2,
            "block_id": {
              "hash": "B4309856EDE602A6959A86667FCFA036E4C1C577",
              "parts": {
                "total": "1",
                "hash": "3CB27F8AF957514581D29599BADFD5A2A4C6F0C1"
              }
            },
            "signature": {
              "type": "tendermint/SignatureEd25519",
              "value": "Z99w6mDFREkTwyygOzC3dvY8nzGho0x95DMYWPb6RWZqtAaYn0IbZJ0x472qpn2tM44KxKeywjLlPCX9ttakBg=="
            }
          },
          {
            "validator_address": "ACB97FDA2D940AF0709B73537C458EB988AD2893",
            "validator_index": "77",
            "height": "9270",
            "round": "0",
            "timestamp": "2018-07-30T21:20:32.855836155Z",
            "type": 2,
            "block_id": {
              "hash": "B4309856EDE602A6959A86667FCFA036E4C1C577",
              "parts": {
                "total": "1",
                "hash": "3CB27F8AF957514581D29599BADFD5A2A4C6F0C1"
              }
            },
            "signature": {
              "type": "tendermint/SignatureEd25519",
              "value": "3Bdt3gqJmp9xo4NCChURlFrMDoQWmf3omluz2DYaR0aiORY81/or0n3i0ZFf/qxQC54L1dpVk7QkLJXJ5yrwCw=="
            }
          },
          {
            "validator_address": "B197425B3210375F211661DE02EF2AE36580EB0F",
            "validator_index": "78",
            "height": "9270",
            "round": "0",
            "timestamp": "2018-07-30T21:20:32.938766677Z",
            "type": 2,
            "block_id": {
              "hash": "B4309856EDE602A6959A86667FCFA036E4C1C577",
              "parts": {
                "total": "1",
                "hash": "3CB27F8AF957514581D29599BADFD5A2A4C6F0C1"
              }
            },
            "signature": {
              "type": "tendermint/SignatureEd25519",
              "value": "O3G7z3eVswgeW0ND2eGtAMJRljM57rkv1IVCXUS/D9rL1Cu/IIiIgXXqz0qZG6/cze54dkno4XSWmVe/D+WaAA=="
            }
          },
          {
            "validator_address": "B45E54D2D1CB5A4CCD1D49016608C18E7C56B270",
            "validator_index": "79",
            "height": "9270",
            "round": "0",
            "timestamp": "2018-07-30T21:20:33.01212215Z",
            "type": 2,
            "block_id": {
              "hash": "B4309856EDE602A6959A86667FCFA036E4C1C577",
              "parts": {
                "total": "1",
                "hash": "3CB27F8AF957514581D29599BADFD5A2A4C6F0C1"
              }
            },
            "signature": {
              "type": "tendermint/SignatureEd25519",
              "value": "5yJEib/T8+WLCKvbee5CR6hQFOzA1/KP9ezeK/y3y3YXzNe48p6G6IQbyjcd2k3gBbr/TCs2dsLsjfNCHpO+BA=="
            }
          },
          {
            "validator_address": "B59A34C0BE4EC73AF6A67D274F1695C9259C237C",
            "validator_index": "80",
            "height": "9270",
            "round": "0",
            "timestamp": "2018-07-30T21:20:33.094514798Z",
            "type": 2,
            "block_id": {
              "hash": "B4309856EDE602A6959A86667FCFA036E4C1C577",
              "parts": {
                "total": "1",
                "hash": "3CB27F8AF957514581D29599BADFD5A2A4C6F0C1"
              }
            },
            "signature": {
              "type": "tendermint/SignatureEd25519",
              "value": "CL0OzMSUg7S+XV2wCd9pCqruXhNG43mhcPIOgIx4joSqaQ6XBFXl0invTC1ArLYCVg0tj5cv44qhjiRlYccEBA=="
            }
          },
          {
            "validator_address": "BC36FEDD6EF6071118A3E51859DF3831A2EC4782",
            "validator_index": "81",
            "height": "9270",
            "round": "0",
            "timestamp": "2018-07-30T21:20:32.944230555Z",
            "type": 2,
            "block_id": {
              "hash": "B4309856EDE602A6959A86667FCFA036E4C1C577",
              "parts": {
                "total": "1",
                "hash": "3CB27F8AF957514581D29599BADFD5A2A4C6F0C1"
              }
            },
            "signature": {
              "type": "tendermint/SignatureEd25519",
              "value": "sHwfmKT3FxI1Q1VNb4wcMIEweGmQFmk4c/ASF+8QytdomEDixtDhOP1bdYIjLl3aaym6JE3ek3cPew5r2kd+BA=="
            }
          },
          {
            "validator_address": "BD9D0DA513BF099DB4BB6E725A4E19832789882F",
            "validator_index": "82",
            "height": "9270",
            "round": "0",
            "timestamp": "2018-07-30T21:20:32.863908433Z",
            "type": 2,
            "block_id": {
              "hash": "B4309856EDE602A6959A86667FCFA036E4C1C577",
              "parts": {
                "total": "1",
                "hash": "3CB27F8AF957514581D29599BADFD5A2A4C6F0C1"
              }
            },
            "signature": {
              "type": "tendermint/SignatureEd25519",
              "value": "nhz4zP7OF5enqeFHJpd3TTd2RvC9XavpTgVGB/HvADdj4hM+BjJPFGqV7uT699MI2L/gl25oA+wjGjUi2+XbAQ=="
            }
          },
          {
            "validator_address": "C1134A2FF8F7338E7CDB3FE57DDD2A655DEB1E22",
            "validator_index": "83",
            "height": "9270",
            "round": "0",
            "timestamp": "2018-07-30T21:20:32.801235781Z",
            "type": 2,
            "block_id": {
              "hash": "B4309856EDE602A6959A86667FCFA036E4C1C577",
              "parts": {
                "total": "1",
                "hash": "3CB27F8AF957514581D29599BADFD5A2A4C6F0C1"
              }
            },
            "signature": {
              "type": "tendermint/SignatureEd25519",
              "value": "wddnAzcUDBYSXkUg8EpwLR7KR3wPgOYenAChrpz8fK3QZMsVmJFC5WlDOnXlFPl32pAJlYTcWeGj+hRiXKgfCA=="
            }
          },
          {
            "validator_address": "C39A8A2B85198DCB8F23AD1F6C198E2BA7AB5D60",
            "validator_index": "84",
            "height": "9270",
            "round": "0",
            "timestamp": "2018-07-30T21:20:33.086167345Z",
            "type": 2,
            "block_id": {
              "hash": "B4309856EDE602A6959A86667FCFA036E4C1C577",
              "parts": {
                "total": "1",
                "hash": "3CB27F8AF957514581D29599BADFD5A2A4C6F0C1"
              }
            },
            "signature": {
              "type": "tendermint/SignatureEd25519",
              "value": "ftVtCekj4Y7MJQRizzg7NSpEdjjSzmLhniMVvPH26Eh5TsvTTOiOPV4/hz1bGhMsE1yYqx5oXj4sD7qGb/mwBw=="
            }
          },
          {
            "validator_address": "C4335190C3B5BD4BA5568BC0F99C34162D940D08",
            "validator_index": "85",
            "height": "9270",
            "round": "0",
            "timestamp": "2018-07-30T21:20:32.934125014Z",
            "type": 2,
            "block_id": {
              "hash": "B4309856EDE602A6959A86667FCFA036E4C1C577",
              "parts": {
                "total": "1",
                "hash": "3CB27F8AF957514581D29599BADFD5A2A4C6F0C1"
              }
            },
            "signature": {
              "type": "tendermint/SignatureEd25519",
              "value": "veRG0tDoUX/NKHacDbQ0l1ppuL590hvMzj6+X9x8XXG5eKlDEyb6m0pc/tZFU5zCG1UyHnV3BVgntCtEa3IBCw=="
            }
          },
          {
            "validator_address": "C561CFA081677046376396922E7576E5F7B316AD",
            "validator_index": "86",
            "height": "9270",
            "round": "0",
            "timestamp": "2018-07-30T21:20:32.988670297Z",
            "type": 2,
            "block_id": {
              "hash": "B4309856EDE602A6959A86667FCFA036E4C1C577",
              "parts": {
                "total": "1",
                "hash": "3CB27F8AF957514581D29599BADFD5A2A4C6F0C1"
              }
            },
            "signature": {
              "type": "tendermint/SignatureEd25519",
              "value": "JkrCsDnmVvw6e7xiuU5pZI9uhJXkMfpDYT1eyFbJpSr5LjPeV1TtELsVzjCW4F66Ey40wTcWFyoxhNH6rSlWAw=="
            }
          },
          {
            "validator_address": "CE589EA77B056D268D30D1DC1D68A70E0F885E95",
            "validator_index": "87",
            "height": "9270",
            "round": "0",
            "timestamp": "2018-07-30T21:20:32.877119017Z",
            "type": 2,
            "block_id": {
              "hash": "B4309856EDE602A6959A86667FCFA036E4C1C577",
              "parts": {
                "total": "1",
                "hash": "3CB27F8AF957514581D29599BADFD5A2A4C6F0C1"
              }
            },
            "signature": {
              "type": "tendermint/SignatureEd25519",
              "value": "tz2EqFPUAhd/b01AJK+NRi/pzulqmS5Np8xBGlt312nz3x+qBEnVcU9iL1rIdfG+2LgiSnTtztZHBslbPdo5Aw=="
            }
          },
          {
            "validator_address": "CEB97DB5CB18270247ABDE6CF2F84F9AEE8A2904",
            "validator_index": "88",
            "height": "9270",
            "round": "0",
            "timestamp": "2018-07-30T21:20:32.70213359Z",
            "type": 2,
            "block_id": {
              "hash": "B4309856EDE602A6959A86667FCFA036E4C1C577",
              "parts": {
                "total": "1",
                "hash": "3CB27F8AF957514581D29599BADFD5A2A4C6F0C1"
              }
            },
            "signature": {
              "type": "tendermint/SignatureEd25519",
              "value": "7W0TaW2YNxzmTcM/AAr9iMBHRYHEerFyAVZSR2Ve/Duq9S7AvQ14VJU5jBNN4ypezUxdE6MBA1WtQNpN9ky1DA=="
            }
          },
          {
            "validator_address": "CF205769734F5758CC39F907EFB73D6BAF915FB1",
            "validator_index": "89",
            "height": "9270",
            "round": "0",
            "timestamp": "2018-07-30T21:20:33.027034332Z",
            "type": 2,
            "block_id": {
              "hash": "B4309856EDE602A6959A86667FCFA036E4C1C577",
              "parts": {
                "total": "1",
                "hash": "3CB27F8AF957514581D29599BADFD5A2A4C6F0C1"
              }
            },
            "signature": {
              "type": "tendermint/SignatureEd25519",
              "value": "GTBDO+u5rc9MNT+yLPYT+y3hcEcwTaH9gWey8AtCr7BMUQxIj5yh3icN4/gdsqSdIjAK47ksMZny73Z5ajskCA=="
            }
          },
          {
            "validator_address": "D2134B826A1E25A955905CB79A4D8731CAFA0CCE",
            "validator_index": "90",
            "height": "9270",
            "round": "0",
            "timestamp": "2018-07-30T21:20:32.980705262Z",
            "type": 2,
            "block_id": {
              "hash": "B4309856EDE602A6959A86667FCFA036E4C1C577",
              "parts": {
                "total": "1",
                "hash": "3CB27F8AF957514581D29599BADFD5A2A4C6F0C1"
              }
            },
            "signature": {
              "type": "tendermint/SignatureEd25519",
              "value": "apVsdIz1zNZNgYL2M7rKAdqehpfLv1ukV2RwgJYgyJpvJMQmhSi7iwLcDC9oXtKa3/NaS7pEHt3jNz9zxDQhBg=="
            }
          },
          null,
          {
            "validator_address": "D6285C3422C8886445D53757CBE12D2B91B5A9D0",
            "validator_index": "92",
            "height": "9270",
            "round": "0",
            "timestamp": "2018-07-30T21:20:15.325535289Z",
            "type": 2,
            "block_id": {
              "hash": "B4309856EDE602A6959A86667FCFA036E4C1C577",
              "parts": {
                "total": "1",
                "hash": "3CB27F8AF957514581D29599BADFD5A2A4C6F0C1"
              }
            },
            "signature": {
              "type": "tendermint/SignatureEd25519",
              "value": "D5UXVOurhMIq3m6zcxY2wMJgjUUmx4+G5F2u/BqF0XsmljtvIe7fdQVbhGueSsx5rD/xF3R9CnJcEG5YWBBlAA=="
            }
          },
          {
            "validator_address": "D77FB84A729972CD3E757C9BEB61561855832B92",
            "validator_index": "93",
            "height": "9270",
            "round": "0",
            "timestamp": "2018-07-30T21:20:33.005284651Z",
            "type": 2,
            "block_id": {
              "hash": "B4309856EDE602A6959A86667FCFA036E4C1C577",
              "parts": {
                "total": "1",
                "hash": "3CB27F8AF957514581D29599BADFD5A2A4C6F0C1"
              }
            },
            "signature": {
              "type": "tendermint/SignatureEd25519",
              "value": "9LxghcWvi8apaszvAsahJ/4JUA9yUnDQnMetDt4GkNKmN1hm4WIKec/IRdkahXUH+XbM7jXUJctuIjFrROlICQ=="
            }
          },
          null,
          {
            "validator_address": "DB7E6732471D3EA5C90C17A9974D9F88AB45F2FB",
            "validator_index": "95",
            "height": "9270",
            "round": "0",
            "timestamp": "2018-07-30T21:20:32.890653769Z",
            "type": 2,
            "block_id": {
              "hash": "B4309856EDE602A6959A86667FCFA036E4C1C577",
              "parts": {
                "total": "1",
                "hash": "3CB27F8AF957514581D29599BADFD5A2A4C6F0C1"
              }
            },
            "signature": {
              "type": "tendermint/SignatureEd25519",
              "value": "fYAo2DxPOS17q73IwPSMWPlq/kmE3/PvFY0TLCjVcAIZoFhFs9eJcKeu+KpvHExXXAdBlKJ+tLrU06XezgsNBQ=="
            }
          },
          {
            "validator_address": "DF54B862410BCD9B5C516FBB6C56BDC826ED6FA7",
            "validator_index": "96",
            "height": "9270",
            "round": "0",
            "timestamp": "2018-07-30T21:20:32.928188705Z",
            "type": 2,
            "block_id": {
              "hash": "B4309856EDE602A6959A86667FCFA036E4C1C577",
              "parts": {
                "total": "1",
                "hash": "3CB27F8AF957514581D29599BADFD5A2A4C6F0C1"
              }
            },
            "signature": {
              "type": "tendermint/SignatureEd25519",
              "value": "maNy0ZMtyGZhSdmJFSffcCZF9yTfe0fYo7bE66LCGhc9+1xonLGVoKTcs2W9i8WMKV1beUFNckx0n8u/TmruCw=="
            }
          },
          {
            "validator_address": "DFAF0C8B1B78D6D552B0189DE3ACA351439A1319",
            "validator_index": "97",
            "height": "9270",
            "round": "0",
            "timestamp": "2018-07-30T21:20:32.902599207Z",
            "type": 2,
            "block_id": {
              "hash": "B4309856EDE602A6959A86667FCFA036E4C1C577",
              "parts": {
                "total": "1",
                "hash": "3CB27F8AF957514581D29599BADFD5A2A4C6F0C1"
              }
            },
            "signature": {
              "type": "tendermint/SignatureEd25519",
              "value": "a+NedFJNXjp6zJBBNkAGcAEPrC1YlMLlPAJ+ciyqh1HC+bT5UBGXMLwB7Xy6SPC2WggI9ON7vPW+CV1Ki/GrDQ=="
            }
          },
          {
            "validator_address": "E1DBC77881161A5A3A8536A57536EAE546A75D69",
            "validator_index": "98",
            "height": "9270",
            "round": "0",
            "timestamp": "2018-07-30T21:20:32.83634991Z",
            "type": 2,
            "block_id": {
              "hash": "B4309856EDE602A6959A86667FCFA036E4C1C577",
              "parts": {
                "total": "1",
                "hash": "3CB27F8AF957514581D29599BADFD5A2A4C6F0C1"
              }
            },
            "signature": {
              "type": "tendermint/SignatureEd25519",
              "value": "0DIdG1kduCrnvQ7aRWh63NkxZm49fx0RV8uiwjzTV2PqnXmpjFMuAQSTvIK2RUKy353ciHc1eitGD/1Tm5xkCw=="
            }
          },
          {
            "validator_address": "E300E9D484374C1D3E97C1D93CAC3B160A056298",
            "validator_index": "99",
            "height": "9270",
            "round": "0",
            "timestamp": "2018-07-30T21:20:33.127459473Z",
            "type": 2,
            "block_id": {
              "hash": "B4309856EDE602A6959A86667FCFA036E4C1C577",
              "parts": {
                "total": "1",
                "hash": "3CB27F8AF957514581D29599BADFD5A2A4C6F0C1"
              }
            },
            "signature": {
              "type": "tendermint/SignatureEd25519",
              "value": "ivoxHebaDQrSdaJUFFCbJnSE/UdKMeXkU5TU94UHj/VP9D4oEsiFcFCaKi3ATQe4o2UTp7YFyHgGYSMSJG6lDQ=="
            }
          },
          {
            "validator_address": "E39B5778E0D4297A46F45CF6940B0A163A430FF8",
            "validator_index": "100",
            "height": "9270",
            "round": "0",
            "timestamp": "2018-07-30T21:20:32.879950102Z",
            "type": 2,
            "block_id": {
              "hash": "B4309856EDE602A6959A86667FCFA036E4C1C577",
              "parts": {
                "total": "1",
                "hash": "3CB27F8AF957514581D29599BADFD5A2A4C6F0C1"
              }
            },
            "signature": {
              "type": "tendermint/SignatureEd25519",
              "value": "Mw7hHqzUxTo77esFofTUOeTo2u7o3C72XILdXJ+hiwV4AERxlJ8dgxY4yXeaa1NWFYdzL1ymc0rzCSLQmfOoAA=="
            }
          },
          {
            "validator_address": "E3B19738F7132F950668504D326C7660F159D170",
            "validator_index": "101",
            "height": "9270",
            "round": "0",
            "timestamp": "2018-07-30T21:20:32.927589139Z",
            "type": 2,
            "block_id": {
              "hash": "B4309856EDE602A6959A86667FCFA036E4C1C577",
              "parts": {
                "total": "1",
                "hash": "3CB27F8AF957514581D29599BADFD5A2A4C6F0C1"
              }
            },
            "signature": {
              "type": "tendermint/SignatureEd25519",
              "value": "5Sro37LMdh3pZBufzDTuX0gT94EtuNmt+D1j+tnX+7YePR5oj8X30F6omkwfD2emUf91cW6yLdrvtjoa1hxKAA=="
            }
          },
          {
            "validator_address": "E42F8AEABB685219F7027F54D2B0DBC7846F633A",
            "validator_index": "102",
            "height": "9270",
            "round": "0",
            "timestamp": "2018-07-30T21:20:32.205204585Z",
            "type": 2,
            "block_id": {
              "hash": "B4309856EDE602A6959A86667FCFA036E4C1C577",
              "parts": {
                "total": "1",
                "hash": "3CB27F8AF957514581D29599BADFD5A2A4C6F0C1"
              }
            },
            "signature": {
              "type": "tendermint/SignatureEd25519",
              "value": "3dHQ9I+5J2EUZzeACzuG1ypEagH62DZqddK66XHDCRgTEt+41t2mxyBaSLPK/Xr/YswsC0Dyr0FlURoAypPABw=="
            }
          },
          {
            "validator_address": "E4E6C2E81269DFFA196C17F98240E491479A6008",
            "validator_index": "103",
            "height": "9270",
            "round": "0",
            "timestamp": "2018-07-30T21:20:32.93479398Z",
            "type": 2,
            "block_id": {
              "hash": "B4309856EDE602A6959A86667FCFA036E4C1C577",
              "parts": {
                "total": "1",
                "hash": "3CB27F8AF957514581D29599BADFD5A2A4C6F0C1"
              }
            },
            "signature": {
              "type": "tendermint/SignatureEd25519",
              "value": "KwZHRjsxL6NyEpjBzc5leejXPqLZEapQT/Bz1b1MoqrJZRh16MLIMFLpKqVADI4WgWfX0lk7uTC4Yb/6dRTUCg=="
            }
          },
          {
            "validator_address": "E4FEB2846F4F3B0ECDCBE9C9DCB2248248A5AF0F",
            "validator_index": "104",
            "height": "9270",
            "round": "0",
            "timestamp": "2018-07-30T21:20:33.149477219Z",
            "type": 2,
            "block_id": {
              "hash": "B4309856EDE602A6959A86667FCFA036E4C1C577",
              "parts": {
                "total": "1",
                "hash": "3CB27F8AF957514581D29599BADFD5A2A4C6F0C1"
              }
            },
            "signature": {
              "type": "tendermint/SignatureEd25519",
              "value": "WQ4cYQcveweZt15uMvVTm1QXQXCE4rU0QdUzjJosguI3djO6VaHQvMuagLzvkm+IHDcmdFPBMkJdYTkrO3AoDQ=="
            }
          },
          null,
          {
            "validator_address": "EBC613967F66F4EC306852CDF58B4F151CF16738",
            "validator_index": "106",
            "height": "9270",
            "round": "0",
            "timestamp": "2018-07-30T21:20:32.96431545Z",
            "type": 2,
            "block_id": {
              "hash": "B4309856EDE602A6959A86667FCFA036E4C1C577",
              "parts": {
                "total": "1",
                "hash": "3CB27F8AF957514581D29599BADFD5A2A4C6F0C1"
              }
            },
            "signature": {
              "type": "tendermint/SignatureEd25519",
              "value": "7zGsBu1f6EVSPEzoOKeTi8Z+medbSxB143pxHms8LSULGwwBYngsCFhMDMeRt3BE+prWf9ymmkf4rdZLMbNnCA=="
            }
          },
          {
            "validator_address": "EC3401441726C40ECC7E51F744483B05BC6DE9BD",
            "validator_index": "107",
            "height": "9270",
            "round": "0",
            "timestamp": "2018-07-30T21:20:32.908785099Z",
            "type": 2,
            "block_id": {
              "hash": "B4309856EDE602A6959A86667FCFA036E4C1C577",
              "parts": {
                "total": "1",
                "hash": "3CB27F8AF957514581D29599BADFD5A2A4C6F0C1"
              }
            },
            "signature": {
              "type": "tendermint/SignatureEd25519",
              "value": "Ara6eOj8OwlAjyXl1+4e7mWFHDBAk69rWs09AeBGAa+0s6s3FB2u18ABmvpGLtgo6IbCKi6H/MB1hMqkh/B3DQ=="
            }
          },
          {
            "validator_address": "EC95B111D032181E1EC3B5E8875C5BB8E4AE7140",
            "validator_index": "108",
            "height": "9270",
            "round": "0",
            "timestamp": "2018-07-30T21:20:32.852266806Z",
            "type": 2,
            "block_id": {
              "hash": "B4309856EDE602A6959A86667FCFA036E4C1C577",
              "parts": {
                "total": "1",
                "hash": "3CB27F8AF957514581D29599BADFD5A2A4C6F0C1"
              }
            },
            "signature": {
              "type": "tendermint/SignatureEd25519",
              "value": "GnrWnhakfX8Ofco55REIGp7S9+sZEvSaqa1IPYkJFI9UjoRQXeRzcicymnLqqoqVhWMbwMZJyqpW2n6k8owQBw=="
            }
          },
          {
            "validator_address": "F13C1805E8131C9B47E2A46818F57D8A2841E578",
            "validator_index": "109",
            "height": "9270",
            "round": "0",
            "timestamp": "2018-07-30T21:20:32.899452495Z",
            "type": 2,
            "block_id": {
              "hash": "B4309856EDE602A6959A86667FCFA036E4C1C577",
              "parts": {
                "total": "1",
                "hash": "3CB27F8AF957514581D29599BADFD5A2A4C6F0C1"
              }
            },
            "signature": {
              "type": "tendermint/SignatureEd25519",
              "value": "04weheWs2cuRwCqg4+xRbX0jORup9dv+1ixi7OYPnnoq5SBSnPsE9eJjBgqQ0QKVBY1D/93tAQtZkcGKYLKZAw=="
            }
          },
          {
            "validator_address": "F23FF36BD5B90C33CE3A03ED72DBDCF5EC07D6AF",
            "validator_index": "110",
            "height": "9270",
            "round": "0",
            "timestamp": "2018-07-30T21:20:32.969111444Z",
            "type": 2,
            "block_id": {
              "hash": "B4309856EDE602A6959A86667FCFA036E4C1C577",
              "parts": {
                "total": "1",
                "hash": "3CB27F8AF957514581D29599BADFD5A2A4C6F0C1"
              }
            },
            "signature": {
              "type": "tendermint/SignatureEd25519",
              "value": "UVyqB2YfKuMOn63bZJvMceC8f+/BwII7gW8vfFhULJYnrClglPjGe81qW4MWpBTsOKy0yjpefc0U77x9rsElBw=="
            }
          },
          {
            "validator_address": "F4268597DE93E3E2CED38845010F8AA34E2A879E",
            "validator_index": "111",
            "height": "9270",
            "round": "0",
            "timestamp": "2018-07-30T21:20:32.986956709Z",
            "type": 2,
            "block_id": {
              "hash": "B4309856EDE602A6959A86667FCFA036E4C1C577",
              "parts": {
                "total": "1",
                "hash": "3CB27F8AF957514581D29599BADFD5A2A4C6F0C1"
              }
            },
            "signature": {
              "type": "tendermint/SignatureEd25519",
              "value": "KPOpqwrxPiBdrpi0j9rKrAqASWZPC0EOAFu7nfVCrQ4Svtoy99TEy9XL6kvzc3279hUedy3apcfZ8iMV5Z+oAA=="
            }
          },
          {
            "validator_address": "F4DEB417999B04BE2EFF9FFE03FA373D86011CC0",
            "validator_index": "112",
            "height": "9270",
            "round": "0",
            "timestamp": "2018-07-30T21:20:32.883440066Z",
            "type": 2,
            "block_id": {
              "hash": "B4309856EDE602A6959A86667FCFA036E4C1C577",
              "parts": {
                "total": "1",
                "hash": "3CB27F8AF957514581D29599BADFD5A2A4C6F0C1"
              }
            },
            "signature": {
              "type": "tendermint/SignatureEd25519",
              "value": "44aAeMQF1AxHmNC9M0CsGun7O09Xkmbn9yq50aEc7ycAunDRYCryDu15xJvxx9N914ov3g1mvuaGKR2a1T8VCQ=="
            }
          },
          null,
          {
            "validator_address": "FB6AC8B89A1C585F26410FF259952A432A7A3FDB",
            "validator_index": "114",
            "height": "9270",
            "round": "0",
            "timestamp": "2018-07-30T21:20:32.978385691Z",
            "type": 2,
            "block_id": {
              "hash": "B4309856EDE602A6959A86667FCFA036E4C1C577",
              "parts": {
                "total": "1",
                "hash": "3CB27F8AF957514581D29599BADFD5A2A4C6F0C1"
              }
            },
            "signature": {
              "type": "tendermint/SignatureEd25519",
              "value": "ZB7Lq9kmcg9MnLGIKkO3dMQOp81YQPrDL3BXRk0KgW3F/osteqgrVKzdGMiKmIUV/X33/wWm4Xdb0X5sqCAVAw=="
            }
          },
          null,
          {
            "validator_address": "FF3F3FCBCE7E62D7AD5506FF846EC4518D980515",
            "validator_index": "116",
            "height": "9270",
            "round": "0",
            "timestamp": "2018-07-30T21:20:32.83593027Z",
            "type": 2,
            "block_id": {
              "hash": "B4309856EDE602A6959A86667FCFA036E4C1C577",
              "parts": {
                "total": "1",
                "hash": "3CB27F8AF957514581D29599BADFD5A2A4C6F0C1"
              }
            },
            "signature": {
              "type": "tendermint/SignatureEd25519",
              "value": "HI33QCsQuixuqk7wSVXMGA67Se+U0mOg6Mtmob8aXcac20Gn8hTeksHKQliTgOrk1XXZlVn3EILc8xQW8Y/lAA=="
            }
          }
        ]
      }
    },
    "canonical": true
  }
}