{
  "jsonrpc": "2.0",
  "id": "",
  "result": {
    "SignedHeader": {
      "header": {
        "chain_id": "gaia-7004",
        "height": "9316",
        "time": "2018-07-30T21:25:09.940932056Z",
        "num_txs": "0",
        "last_block_id": {
          "hash": "B457DC7A07646F625AFF7AEBA2E87F422AD59282",
          "parts": {
            "total": "1",
            "hash": "D0E2C3AD3910B56C9B6DF2A8911A41FB288BCAC9"
          }
        },
        "total_txs": "415",
        "last_commit_hash": "C807B4972959B4A99D302133D0676F351F4C13E8",
        "data_hash": "",
        "validators_hash": "937B3DFA7CB6AE2751AC92241FB3560AE2FA16F1",
        "consensus_hash": "D6B74BB35BDFFD8392340F2A379173548AE188FE",
        "app_hash": "7B7576020DAFBD2B8BFD927E63E7F100423B3A04",
        "last_results_hash": "",
        "evidence_hash": ""
      },
      "commit": {
        "block_id": {
          "hash": "4953A13ACD5B1004EA8929DF6F182407CFCD9B7A",
          "parts": {
            "total": "1",
            "hash": "976C2E3FEC6BEB3ED6C726F5B931B21D6814E088"
          }
        },
        "precommits": [
          {
            "validator_address": "029359C0C768096273A68ABC902A6B17AC8D1D70",
            "validator_index": "0",
            "height": "9316",
            "round": "1",
            "timestamp": "2018-07-30T21:25:10.797374081Z",
            "type": 2,
            "block_id": {
              "hash": "4953A13ACD5B1004EA8929DF6F182407CFCD9B7A",
              "parts": {
                "total": "1",
                "hash": "976C2E3FEC6BEB3ED6C726F5B931B21D6814E088"
              }
            },
            "signature": {
              "type": "tendermint/SignatureEd25519",
              "value": "4XuEOuPduyk17zTGgNEXVuGdrFAFE06qHK7Z4jWk6jE5jQHjRivDADsl4x5il31xCUK07Yj1mYxUEay97RcPBg=="
            }
          },
          {
            "validator_address": "02FE4B97A8387F39D1AC19E0C1702B3CC614812F",
            "validator_index": "1",
            "height": "9316",
            "round": "1",
            "timestamp": "2018-07-30T21:25:10.767104463Z",
            "type": 2,
            "block_id": {
              "hash": "4953A13ACD5B1004EA8929DF6F182407CFCD9B7A",
              "parts": {
                "total": "1",
                "hash": "976C2E3FEC6BEB3ED6C726F5B931B21D6814E088"
              }
            },
            "signature": {
              "type": "tendermint/SignatureEd25519",
              "value": "GQZPpF1gB9PHeb3HJSMFO18tzcCQ5BO/EwKBG/JBxbQHXVxIzv6IbQzi5b6FgarjLr7IetEip+Ee85CgJ7iiBQ=="
            }
          },
          {
            "validator_address": "0548261C50222FD710EB5EBDF03A0E6567B21D20",
            "validator_index": "2",
            "height": "9316",
            "round": "1",
            "timestamp": "2018-07-30T21:25:10.829695562Z",
            "type": 2,
            "block_id": {
              "hash": "4953A13ACD5B1004EA8929DF6F182407CFCD9B7A",
              "parts": {
                "total": "1",
                "hash": "976C2E3FEC6BEB3ED6C726F5B931B21D6814E088"
              }
            },
            "signature": {
              "type": "tendermint/SignatureEd25519",
              "value": "EnksgQ55pZIefQAq/GWUZxq3LL2Qv+WBU6uD5RTrYrriHw3uLHp+v4kn4okxfKbvFbBwJLfsRgDtrfOWLci9AA=="
            }
          },
          {
            "validator_address": "0665ADBF9B120B7617BF955AA5653A1992C82B11",
            "validator_index": "3",
            "height": "9316",
            "round": "1",
            "timestamp": "2018-07-30T21:25:10.784258445Z",
            "type": 2,
            "block_id": {
              "hash": "4953A13ACD5B1004EA8929DF6F182407CFCD9B7A",
              "parts": {
                "total": "1",
                "hash": "976C2E3FEC6BEB3ED6C726F5B931B21D6814E088"
              }
            },
            "signature": {
              "type": "tendermint/SignatureEd25519",
              "value": "GFzzQN/6QLblNd/Dv+QxRVW18ci9z7appjB4+uN1Q6iiyX8iJNnTw+2GrUurhJED0f7ahkHWLE9LeppajHcHCQ=="
            }
          },
          {
            "validator_address": "09145E611CC27EEB944FC5A956DDF710F943B9EF",
            "validator_index": "4",
            "height": "9316",
            "round": "1",
            "timestamp": "2018-07-30T21:25:10.808814813Z",
            "type": 2,
            "block_id": {
              "hash": "4953A13ACD5B1004EA8929DF6F182407CFCD9B7A",
              "parts": {
                "total": "1",
                "hash": "976C2E3FEC6BEB3ED6C726F5B931B21D6814E088"
              }
            },
            "signature": {
              "type": "tendermint/SignatureEd25519",
              "value": "Xgd2CM3FdpwPfwV2g9G4TfETnKv2aoUNFHZCrqK+kMx1vRDt1OH9esF2oxJrUMN32AVv9Cms2tTR11xOwEwIDg=="
            }
          },
          {
            "validator_address": "0989D0355A104B67AE0AE028C68FB610690E174B",
            "validator_index": "5",
            "height": "9316",
            "round": "1",
            "timestamp": "2018-07-30T21:25:10.830178312Z",
            "type": 2,
            "block_id": {
              "hash": "4953A13ACD5B1004EA8929DF6F182407CFCD9B7A",
              "parts": {
                "total": "1",
                "hash": "976C2E3FEC6BEB3ED6C726F5B931B21D6814E088"
              }
            },
            "signature": {
              "type": "tendermint/SignatureEd25519",
              "value": "QMbMVwcTcJcc8JEsQSJtCpfDUmAgSnvjsFA0FxG6WqOMygy/NNxRLWETsrLvSnuCCk0IG597vd4o3vtdDe6cDw=="
            }
          },
          {
            "validator_address": "0A692DBFFE9E5DD28E7DECC33CED1AEB4C0D014E",
            "validator_index": "6",
            "height": "9316",
            "round": "1",
            "timestamp": "2018-07-30T21:25:10.879244213Z",
            "type": 2,
            "block_id": {
              "hash": "4953A13ACD5B1004EA8929DF6F182407CFCD9B7A",
              "parts": {
                "total": "1",
                "hash": "976C2E3FEC6BEB3ED6C726F5B931B21D6814E088"
              }
            },
            "signature": {
              "type": "tendermint/SignatureEd25519",
              "value": "JAh2OJfGr9ZWYpIcMdqhPej1zgXuP8sbAtyDUV5WFBZ3OmAytt8lICqBgwEa5//8r0iTH3msM29jLSHx96C4BA=="
            }
          },
          {
            "validator_address": "0DDF97111D73DB825138EC15EC27DE5FE8536901",
            "validator_index": "7",
            "height": "9316",
            "round": "1",
            "timestamp": "2018-07-30T21:25:10.868639115Z",
            "type": 2,
            "block_id": {
              "hash": "4953A13ACD5B1004EA8929DF6F182407CFCD9B7A",
              "parts": {
                "total": "1",
                "hash": "976C2E3FEC6BEB3ED6C726F5B931B21D6814E088"
              }
            },
            "signature": {
              "type": "tendermint/SignatureEd25519",
              "value": "XCOLhGtt0KF4xGzkzTJQGhqagX6uj4QnU/X/RLo28h5vYs+eqvs50ThtRLhas5SkLHhzrZf8EPquekNq4ZoWBQ=="
            }
          },
          null,
          {
            "validator_address": "1751786EFC085D5331C61168FFFC8202EA151B4E",
            "validator_index": "9",
            "height": "9316",
            "round": "1",
            "timestamp": "2018-07-30T21:25:10.155055714Z",
            "type": 2,
            "block_id": {
              "hash": "4953A13ACD5B1004EA8929DF6F182407CFCD9B7A",
              "parts": {
                "total": "1",
                "hash": "976C2E3FEC6BEB3ED6C726F5B931B21D6814E088"
              }
            },
            "signature": {
              "type": "tendermint/SignatureEd25519",
              "value": "Q3ViSq7Ljs5o4BhaDTMo942H6oz5ImZhSPR2FtcmqzDnXpacVfeM8PvjpaAcLEFNmGt66ta1r+UgZNzdLmGkDg=="
            }
          },
          {
            "validator_address": "17BB5CD01E8940FAFB948A04D5FA5A0645E5822E",
            "validator_index": "10",
            "height": "9316",
            "round": "1",
            "timestamp": "2018-07-30T21:25:10.805074516Z",
            "type": 2,
            "block_id": {
              "hash": "4953A13ACD5B1004EA8929DF6F182407CFCD9B7A",
              "parts": {
                "total": "1",
                "hash": "976C2E3FEC6BEB3ED6C726F5B931B21D6814E088"
              }
            },
            "signature": {
              "type": "tendermint/SignatureEd25519",
              "value": "S3b7chOfMOmMKxcPD5TEO3MBGKU3WZPEsVrsaW+6OyKCJx5d7lFrgPI8SJznjExFtWuUbM5Mb1edZQ2FOMj7BQ=="
            }
          },
          {
            "validator_address": "1C683A87904BC38F05004FE83301A3A3E35447EB",
            "validator_index": "11",
            "height": "9316",
            "round": "1",
            "timestamp": "2018-07-30T21:25:10.795439005Z",
            "type": 2,
            "block_id": {
              "hash": "4953A13ACD5B1004EA8929DF6F182407CFCD9B7A",
              "parts": {
                "total": "1",
                "hash": "976C2E3FEC6BEB3ED6C726F5B931B21D6814E088"
              }
            },
            "signature": {
              "type": "tendermint/SignatureEd25519",
              "value": "VT7tu1ABNckw4lGNi3NixRrj4ciNWMRkOLDGCjJLFa6Yu1C76ON+tEzfZjq8WoD2bYm876hyTMN+yoP4cSO5CQ=="
            }
          },
          {
            "validator_address": "1E9CE94FD0BA5CFEB901F90BC658D64D85B134D2",
            "validator_index": "12",
            "height": "9316",
            "round": "1",
            "timestamp": "2018-07-30T21:25:10.826550607Z",
            "type": 2,
            "block_id": {
              "hash": "4953A13ACD5B1004EA8929DF6F182407CFCD9B7A",
              "parts": {
                "total": "1",
                "hash": "976C2E3FEC6BEB3ED6C726F5B931B21D6814E088"
              }
            },
            "signature": {
              "type": "tendermint/SignatureEd25519",
              "value": "hXDg9Cgr+jXrAvqAyrAddeU3z8OQM/H2T9aJBH90xoes+uCYHQaBIzNhGA2HoJ5Yxxgy9Iu6rzqPHAlpDcfrBQ=="
            }
          },
          {
            "validator_address": "1ECD8C5FE1341D74CDC633A245DD56858DE2F9A2",
            "validator_index": "13",
            "height": "9316",
            "round": "1",
            "timestamp": "2018-07-30T21:25:10.883805091Z",
            "type": 2,
            "block_id": {
              "hash": "4953A13ACD5B1004EA8929DF6F182407CFCD9B7A",
              "parts": {
                "total": "1",
                "hash": "976C2E3FEC6BEB3ED6C726F5B931B21D6814E088"
              }
            },
            "signature": {
              "type": "tendermint/SignatureEd25519",
              "value": "DMsL7UGo1zNx0a9RSLv7CASvjc7ECFEEP+3T1u6/VEv3GhqWV70VvgZWHhwvzgRsNT7hr5Bt7bbG24d3gsEEAQ=="
            }
          },
          {
            "validator_address": "1F3A68CAAD483768AA2BF667DEF10F7104C89928",
            "validator_index": "14",
            "height": "9316",
            "round": "1",
            "timestamp": "2018-07-30T21:25:10.83923902Z",
            "type": 2,
            "block_id": {
              "hash": "4953A13ACD5B1004EA8929DF6F182407CFCD9B7A",
              "parts": {
                "total": "1",
                "hash": "976C2E3FEC6BEB3ED6C726F5B931B21D6814E088"
              }
            },
            "signature": {
              "type": "tendermint/SignatureEd25519",
              "value": "UoAwIPnQkYL2J042QbdFNnm3t4YP0hvS0ThSGWiXGOuV/1WOhlqL26mW1jNAvjfm0JugvVdJQdZ7Yf+QumMKDw=="
            }
          },
          null,
          {
            "validator_address": "23897586D68E2AC1C78E0EF5BB5DF5C8EAB18F50",
            "validator_index": "16",
            "height": "9316",
            "round": "1",
            "timestamp": "2018-07-30T21:25:10.850827249Z",
            "type": 2,
            "block_id": {
              "hash": "4953A13ACD5B1004EA8929DF6F182407CFCD9B7A",
              "parts": {
                "total": "1",
                "hash": "976C2E3FEC6BEB3ED6C726F5B931B21D6814E088"
              }
            },
            "signature": {
              "type": "tendermint/SignatureEd25519",
              "value": "A/jzvAUSsWNqgmSxGZ5sHXE4Vbmb3TydC1y118hmrxou0GV+cQ+PG/TgGy65Vy/9khAHYNDgM465wNuq/vRrAw=="
            }
          },
          {
            "validator_address": "28770D17E8530825E7310A0659308654B7EC9682",
            "validator_index": "17",
            "height": "9316",
            "round": "1",
            "timestamp": "2018-07-30T21:25:10.823806028Z",
            "type": 2,
            "block_id": {
              "hash": "4953A13ACD5B1004EA8929DF6F182407CFCD9B7A",
              "parts": {
                "total": "1",
                "hash": "976C2E3FEC6BEB3ED6C726F5B931B21D6814E088"
              }
            },
            "signature": {
              "type": "tendermint/SignatureEd25519",
              "value": "3pBNgfooY+eqtpsuFNIvopHD6Es06kxnQwDlbE+/TgAaS01XZQyzmVKNjd4J30mXYwV6RyJFi2VbaKNXd8KIBg=="
            }
          },
          null,
          {
            "validator_address": "2A92EC3C642140202298D0E245095E0ECFC25228",
            "validator_index": "19",
            "height": "9316",
            "round": "1",
            "timestamp": "2018-07-30T21:25:10.849240047Z",
            "type": 2,
            "block_id": {
              "hash": "4953A13ACD5B1004EA8929DF6F182407CFCD9B7A",
              "parts": {
                "total": "1",
                "hash": "976C2E3FEC6BEB3ED6C726F5B931B21D6814E088"
              }
            },
            "signature": {
              "type": "tendermint/SignatureEd25519",
              "value": "9PrDKiQhytazGxInsRjR+UmWIxUobx6WrR6iL63Z1II/P2L4pS+VrXH41pNA6J0qo06Uzh6f3Jm7bbH4UdIuCA=="
            }
          },
          null,
          null,
          {
            "validator_address": "33412C9A69C60CB0FAA24A5C5B3A906DE24B47C2",
            "validator_index": "22",
            "height": "9316",
            "round": "1",
            "timestamp": "2018-07-30T21:25:10.741880845Z",
            "type": 2,
            "block_id": {
              "hash": "4953A13ACD5B1004EA8929DF6F182407CFCD9B7A",
              "parts": {
                "total": "1",
                "hash": "976C2E3FEC6BEB3ED6C726F5B931B21D6814E088"
              }
            },
            "signature": {
              "type": "tendermint/SignatureEd25519",
              "value": "cwux+0R34Ju+tvHAhodR8ABTco9n3bUFpF4lFWf0KR46sz5hifjL8mCTaWHFL4N+YZ4ZLqvwIkHSSYUxTYBOCw=="
            }
          },
          null,
          {
            "validator_address": "36E9B7FAEC964F97D84C028ED62493E373AD0B38",
            "validator_index": "24",
            "height": "9316",
            "round": "1",
            "timestamp": "2018-07-30T21:25:10.883583111Z",
            "type": 2,
            "block_id": {
              "hash": "4953A13ACD5B1004EA8929DF6F182407CFCD9B7A",
              "parts": {
                "total": "1",
                "hash": "976C2E3FEC6BEB3ED6C726F5B931B21D6814E088"
              }
            },
            "signature": {
              "type": "tendermint/SignatureEd25519",
              "value": "TxQS5s1hjjidpa6jYqZROhITEqThQnRjPkROk6urMRmBT29tfM0I7iWExmoyxcXvtiN9CtEhZCtZxNgenystBA=="
            }
          },
          {
            "validator_address": "38A8D85D36BEA2E5FCF8A1E778F53628E450EF13",
            "validator_index": "25",
            "height": "9316",
            "round": "1",
            "timestamp": "2018-07-30T21:25:11.011350906Z",
            "type": 2,
            "block_id": {
              "hash": "4953A13ACD5B1004EA8929DF6F182407CFCD9B7A",
              "parts": {
                "total": "1",
                "hash": "976C2E3FEC6BEB3ED6C726F5B931B21D6814E088"
              }
            },
            "signature": {
              "type": "tendermint/SignatureEd25519",
              "value": "wGVjWhgojwBjyM+qrEGHUk0vM+AlIECV6hUmB6/VLOiDLdo8meNH/VqRMd7oqj07F2WsyHJxZoLlkyTfaagdCg=="
            }
          },
          {
            "validator_address": "39DFDA0C5DB84B269642188B23253508537798E6",
            "validator_index": "26",
            "height": "9316",
            "round": "1",
            "timestamp": "2018-07-30T21:25:10.768775901Z",
            "type": 2,
            "block_id": {
              "hash": "4953A13ACD5B1004EA8929DF6F182407CFCD9B7A",
              "parts": {
                "total": "1",
                "hash": "976C2E3FEC6BEB3ED6C726F5B931B21D6814E088"
              }
            },
            "signature": {
              "type": "tendermint/SignatureEd25519",
              "value": "uDeF575u6EZ9T8fnzzJwiIjdoM73uTYJdV1NJ5YfYREJxlsQXAOWtOGQPkURoQmJszjP0+l9zV9QAR8IzbvwAA=="
            }
          },
          {
            "validator_address": "3AC99B708404452366E0953A4BE849226DC86CBC",
            "validator_index": "27",
            "height": "9316",
            "round": "1",
            "timestamp": "2018-07-30T21:25:10.948916064Z",
            "type": 2,
            "block_id": {
              "hash": "4953A13ACD5B1004EA8929DF6F182407CFCD9B7A",
              "parts": {
                "total": "1",
                "hash": "976C2E3FEC6BEB3ED6C726F5B931B21D6814E088"
              }
            },
            "signature": {
              "type": "tendermint/SignatureEd25519",
              "value": "dPx/IzYt2jTPgpEejds+k/Q5U2lUCC/5rRR/wt5xRhIBjolLE7MXObu0Bb2G+6FXlpci7uQSCCoJoz0mBx8tCw=="
            }
          },
          {
            "validator_address": "3DCB822A10ED319EC7C4393D8E3FD4A41B15AAF2",
            "validator_index": "28",
            "height": "9316",
            "round": "1",
            "timestamp": "2018-07-30T21:25:10.802471145Z",
            "type": 2,
            "block_id": {
              "hash": "4953A13ACD5B1004EA8929DF6F182407CFCD9B7A",
              "parts": {
                "total": "1",
                "hash": "976C2E3FEC6BEB3ED6C726F5B931B21D6814E088"
              }
            },
            "signature": {
              "type": "tendermint/SignatureEd25519",
              "value": "WSiX51zO40AMxrNCLKh23WWZqhVbZBJW6CCjyZXYHPrJXNLp1XIbzRaSDGhhnUAKvR5pJYqEiVMdOLpuGnrCCw=="
            }
          },
          {
            "validator_address": "3E899BA36A93C7370347BD5FE85909F2ECD93F8C",
            "validator_index": "29",
            "height": "9316",
            "round": "1",
            "timestamp": "2018-07-30T21:25:10.817336033Z",
            "type": 2,
            "block_id": {
              "hash": "4953A13ACD5B1004EA8929DF6F182407CFCD9B7A",
              "parts": {
                "total": "1",
                "hash": "976C2E3FEC6BEB3ED6C726F5B931B21D6814E088"
              }
            },
            "signature": {
              "type": "tendermint/SignatureEd25519",
              "value": "eLKN0xTsq+OsNEvv88WZzTa+p4JL02Ui6SaoaJxhdKM3UQdgx3Ig/g/+dvInOPo+FVbpn8O9kY78lUCLpMzRDA=="
            }
          },
          {
            "validator_address": "41CAB2E29E7D0F2282E3275938F188FF9386B84C",
            "validator_index": "30",
            "height": "9316",
            "round": "1",
            "timestamp": "2018-07-30T21:25:10.85086043Z",
            "type": 2,
            "block_id": {
              "hash": "4953A13ACD5B1004EA8929DF6F182407CFCD9B7A",
              "parts": {
                "total": "1",
                "hash": "976C2E3FEC6BEB3ED6C726F5B931B21D6814E088"
              }
            },
            "signature": {
              "type": "tendermint/SignatureEd25519",
              "value": "6Rmf9yZLCIhFA79L8bZ3fFsceUq/PNG34y/dMxWkdl1rgjrgS6oTyqF0LI9wBMXA6FdycPlfaJfhuiYWYDqtBQ=="
            }
          },
          {
            "validator_address": "462B656869DB02A8FD1077E255F8CC7401DC37C6",
            "validator_index": "31",
            "height": "9316",
            "round": "1",
            "timestamp": "2018-07-30T21:25:10.808774354Z",
            "type": 2,
            "block_id": {
              "hash": "4953A13ACD5B1004EA8929DF6F182407CFCD9B7A",
              "parts": {
                "total": "1",
                "hash": "976C2E3FEC6BEB3ED6C726F5B931B21D6814E088"
              }
            },
            "signature": {
              "type": "tendermint/SignatureEd25519",
              "value": "1qX2H2bxBS5XRm98qxl4Xp/yJH0s5glpv+4u/5OXxbOub5xCY2h1AxxS7o3HiMZlj2UgSq45Tywmbo1WJv5eBg=="
            }
          },
          {
            "validator_address": "48E5118163E5442068A1B5A42D2EEDBB75724935",
            "validator_index": "32",
            "height": "9316",
            "round": "1",
            "timestamp": "2018-07-30T21:25:10.954426489Z",
            "type": 2,
            "block_id": {
              "hash": "4953A13ACD5B1004EA8929DF6F182407CFCD9B7A",
              "parts": {
                "total": "1",
                "hash": "976C2E3FEC6BEB3ED6C726F5B931B21D6814E088"
              }
            },
            "signature": {
              "type": "tendermint/SignatureEd25519",
              "value": "UOr/GqqK6a29saCin/q1XFUMMbCBpRaxT8e1Jai2DWGhha8jLySG6hu1PCnKrzfgfjBOrF8VsLgeGKc1dNszCQ=="
            }
          },
          null,
          {
            "validator_address": "4944F8BBBB5303E17BC0607DF332320EDBC750EA",
            "validator_index": "34",
            "height": "9316",
            "round": "1",
            "timestamp": "2018-07-30T21:25:10.765440759Z",
            "type": 2,
            "block_id": {
              "hash": "4953A13ACD5B1004EA8929DF6F182407CFCD9B7A",
              "parts": {
                "total": "1",
                "hash": "976C2E3FEC6BEB3ED6C726F5B931B21D6814E088"
              }
            },
            "signature": {
              "type": "tendermint/SignatureEd25519",
              "value": "x/oh4dvg+crVfiKKSS9ZXtuFlg7DUNzHEFm5g3B7quhzD7pFNbltPewQMqCRUUC8KBLelBgDMu7p8jwLC1uPDg=="
            }
          },
          {
            "validator_address": "49841599DE675157CBE1E7D6B35BF8FFC23BD5CB",
            "validator_index": "35",
            "height": "9316",
            "round": "1",
            "timestamp": "2018-07-30T21:25:10.774023504Z",
            "type": 2,
            "block_id": {
              "hash": "4953A13ACD5B1004EA8929DF6F182407CFCD9B7A",
              "parts": {
                "total": "1",
                "hash": "976C2E3FEC6BEB3ED6C726F5B931B21D6814E088"
              }
            },
            "signature": {
              "type": "tendermint/SignatureEd25519",
              "value": "74aFTKcF9IhqtnGMSkPCxi9ufI0Zk0jdD/tpi1OOquL9D4xGRKjrePPm/uIzUgm0RKJjXVNJaTS3XMN3N3EGDA=="
            }
          },
          {
            "validator_address": "5104F488EA6B1E2C33CBDA3C18389C88104DBC72",
            "validator_index": "36",
            "height": "9316",
            "round": "1",
            "timestamp": "2018-07-30T21:25:10.808477629Z",
            "type": 2,
            "block_id": {
              "hash": "4953A13ACD5B1004EA8929DF6F182407CFCD9B7A",
              "parts": {
                "total": "1",
                "hash": "976C2E3FEC6BEB3ED6C726F5B931B21D6814E088"
              }
            },
            "signature": {
              "type": "tendermint/SignatureEd25519",
              "value": "+j2/T+7HVawJb3gpQurPcuw8MpVbajfLtsLqFSStlkEx6CGB2cFpEEke3w1JgW9KSkQFBwuJMybHGWkMibILAg=="
            }
          },
          {
            "validator_address": "51386C2CF9556821D114D7E4945806802BADB28D",
            "validator_index": "37",
            "height": "9316",
            "round": "1",
            "timestamp": "2018-07-30T21:25:10.823989798Z",
            "type": 2,
            "block_id": {
              "hash": "4953A13ACD5B1004EA8929DF6F182407CFCD9B7A",
              "parts": {
                "total": "1",
                "hash": "976C2E3FEC6BEB3ED6C726F5B931B21D6814E088"
              }
            },
            "signature": {
              "type": "tendermint/SignatureEd25519",
              "value": "gpuXxcLSeAo7LPp+fb16tHQNoSRhZUo7X8ODZDPm5wzggpTWK6ySeBi/jTQHl0DBhMoAdw7jtB9WAMBudTK/BA=="
            }
          },
          {
            "validator_address": "543564ECA3AFEFADC73EE8591AAC3A96F079BC8A",
            "validator_index": "38",
            "height": "9316",
            "round": "1",
            "timestamp": "2018-07-30T21:25:10.814152504Z",
            "type": 2,
            "block_id": {
              "hash": "4953A13ACD5B1004EA8929DF6F182407CFCD9B7A",
              "parts": {
                "total": "1",
                "hash": "976C2E3FEC6BEB3ED6C726F5B931B21D6814E088"
              }
            },
            "signature": {
              "type": "tendermint/SignatureEd25519",
              "value": "ASIkSwBSFRBoj1Llm7kPazwjuiCFFYOWquF7DxREfpke9GsaiFzhZgTij+wiTJk8Z/7vEbSOs/DzIwq+FYEsCQ=="
            }
          },
          {
            "validator_address": "55D67B1A6DC13E96F8754A5A42EABC20F7F86664",
            "validator_index": "39",
            "height": "9316",
            "round": "1",
            "timestamp": "2018-07-30T21:25:10.810378781Z",
            "type": 2,
            "block_id": {
              "hash": "4953A13ACD5B1004EA8929DF6F182407CFCD9B7A",
              "parts": {
                "total": "1",
                "hash": "976C2E3FEC6BEB3ED6C726F5B931B21D6814E088"
              }
            },
            "signature": {
              "type": "tendermint/SignatureEd25519",
              "value": "oMcsV8gP5XmOEIlwcBT+iJlyrNMQR9jYXTMtCVgfphXn+kmzkmy7cWoPKCXu7p0xe78AoSvccXBeGsvTw912Cw=="
            }
          },
          {
            "validator_address": "570B6A755ED339EAC56BB3390A48069F6AC9449B",
            "validator_index": "40",
            "height": "9316",
            "round": "1",
            "timestamp": "2018-07-30T21:25:12.182737954Z",
            "type": 2,
            "block_id": {
              "hash": "4953A13ACD5B1004EA8929DF6F182407CFCD9B7A",
              "parts": {
                "total": "1",
                "hash": "976C2E3FEC6BEB3ED6C726F5B931B21D6814E088"
              }
            },
            "signature": {
              "type": "tendermint/SignatureEd25519",
              "value": "sCfZkje18KwY5X3gxXmWbKrqczcEFDV3dC1Yx6RXtyXJs55IneMsbVkCMTKugc9+Vv1kzvYAHST3+nMVPxLXAA=="
            }
          },
          {
            "validator_address": "5BDF8EA41B1835FBAD865B181A2A4B23F511B5E4",
            "validator_index": "41",
            "height": "9316",
            "round": "1",
            "timestamp": "2018-07-30T21:25:10.778218741Z",
            "type": 2,
            "block_id": {
              "hash": "4953A13ACD5B1004EA8929DF6F182407CFCD9B7A",
              "parts": {
                "total": "1",
                "hash": "976C2E3FEC6BEB3ED6C726F5B931B21D6814E088"
              }
            },
            "signature": {
              "type": "tendermint/SignatureEd25519",
              "value": "JJ/kRqQl+m6/RT7yG97wZJadI3c5BG9sn7kxJrh30BWS9lKan6Cvo/RRn3B74DSuW1vzAn9aznLwTSiMBSn6DQ=="
            }
          },
          null,
          null,
          {
            "validator_address": "60229E2E273297FE00219E46DFFB8F76844CDEF9",
            "validator_index": "44",
            "height": "9316",
            "round": "1",
            "timestamp": "2018-07-30T21:25:10.03506353Z",
            "type": 2,
            "block_id": {
              "hash": "4953A13ACD5B1004EA8929DF6F182407CFCD9B7A",
              "parts": {
                "total": "1",
                "hash": "976C2E3FEC6BEB3ED6C726F5B931B21D6814E088"
              }
            },
            "signature": {
              "type": "tendermint/SignatureEd25519",
              "value": "C6LdSbOWu7vP7VKAtmyYp22AicFDG8cgqecCXTuko9uqY3QXfDNHLxvFPNkFcOhBC6s+Gpq8l7DHkKzkB5vKDg=="
            }
          },
          {
            "validator_address": "62410D6D1CD98278136E4D0738AA0EA273CDFC54",
            "validator_index": "45",
            "height": "9316",
            "round": "1",
            "timestamp": "2018-07-30T21:25:10.752230083Z",
            "type": 2,
            "block_id": {
              "hash": "4953A13ACD5B1004EA8929DF6F182407CFCD9B7A",
              "parts": {
                "total": "1",
                "hash": "976C2E3FEC6BEB3ED6C726F5B931B21D6814E088"
              }
            },
            "signature": {
              "type": "tendermint/SignatureEd25519",
              "value": "JJZzcsGmU+PfDtxLgb2g5F70wlKh2k2zYieh55jmUp3mGbhayNVxHoffVcHWKcpf83ajHn5vamLCu/49Yoz3Dg=="
            }
          },
          {
            "validator_address": "632F5C139A5A9DFBFE5111DEE29FCFB6157207DC",
            "validator_index": "46",
            "height": "9316",
            "round": "1",
            "timestamp": "2018-07-30T21:25:10.830767545Z",
            "type": 2,
            "block_id": {
              "hash": "4953A13ACD5B1004EA8929DF6F182407CFCD9B7A",
              "parts": {
                "total": "1",
                "hash": "976C2E3FEC6BEB3ED6C726F5B931B21D6814E088"
              }
            },
            "signature": {
              "type": "tendermint/SignatureEd25519",
              "value": "4EGsGDE/Vx3kIoGbBNKRH93aD/vvgpk3jTx7vMkJgLI62ZRIBJVPAi4m2+CMv1ju0ypKZv9moE3rf7fNAbL3Bw=="
            }
          },
          {
            "validator_address": "64F57F8E796A9B7B590C1EFA4123988C86631D39",
            "validator_index": "47",
            "height": "9316",
            "round": "1",
            "timestamp": "2018-07-30T21:25:10.801422864Z",
            "type": 2,
            "block_id": {
              "hash": "4953A13ACD5B1004EA8929DF6F182407CFCD9B7A",
              "parts": {
                "total": "1",
                "hash": "976C2E3FEC6BEB3ED6C726F5B931B21D6814E088"
              }
            },
            "signature": {
              "type": "tendermint/SignatureEd25519",
              "value": "T0UJQseZsGoDy5Ce4PIxveLSZU16MXipOXCjiofw61EjOsCYoCmMqGC6ivcLFWmHC24RvVnwuCQW9tlkMNQeDg=="
            }
          },
          {
            "validator_address": "69D99B2C66043ACBEAA8447525C356AFC6408E0C",
            "validator_index": "48",
            "height": "9316",
            "round": "1",
            "timestamp": "2018-07-30T21:25:10.789710724Z",
            "type": 2,
            "block_id": {
              "hash": "4953A13ACD5B1004EA8929DF6F182407CFCD9B7A",
              "parts": {
                "total": "1",
                "hash": "976C2E3FEC6BEB3ED6C726F5B931B21D6814E088"
              }
            },
            "signature": {
              "type": "tendermint/SignatureEd25519",
              "value": "6sMPwgKwalErBYrsIhbWHT5WPV30ib9mF8T/PTOUrAi11lPSQxaRqUW008Jd2x1i/Dy+PN7UvshliJ7aZa0PBw=="
            }
          },
          {
            "validator_address": "69EDADFA4A803E9DBF548C900D4A465E7D154262",
            "validator_index": "49",
            "height": "9316",
            "round": "1",
            "timestamp": "2018-07-30T21:25:10.898207768Z",
            "type": 2,
            "block_id": {
              "hash": "4953A13ACD5B1004EA8929DF6F182407CFCD9B7A",
              "parts": {
                "total": "1",
                "hash": "976C2E3FEC6BEB3ED6C726F5B931B21D6814E088"
              }
            },
            "signature": {
              "type": "tendermint/SignatureEd25519",
              "value": "DyxCv8c9qq1SJUeoidIRSYmzyFRb7fpC1JO5U5juw2P51nALqE+3I/BCH+YNSdY/K6ZZOxA9/Uot/U4M6Sd/Dg=="
            }
          },
          {
            "validator_address": "6D3AD380E398D8592B03AA124BAFED5F125DF863",
            "validator_index": "50",
            "height": "9316",
            "round": "1",
            "timestamp": "2018-07-30T21:24:09.167229199Z",
            "type": 2,
            "block_id": {
              "hash": "4953A13ACD5B1004EA8929DF6F182407CFCD9B7A",
              "parts": {
                "total": "1",
                "hash": "976C2E3FEC6BEB3ED6C726F5B931B21D6814E088"
              }
            },
            "signature": {
              "type": "tendermint/SignatureEd25519",
              "value": "z/GcALmIIMLSHwggziExPGELWWDOEHNPLIziSgUsXjf4xc3sSJJ3RQVp4VmM3A1SwUwyGMZjqsE+HgU9w9jxAg=="
            }
          },
          {
            "validator_address": "6F6C93B8BF3495063FEC9B5C771158607F4AE9D6",
            "validator_index": "51",
            "height": "9316",
            "round": "1",
            "timestamp": "2018-07-30T21:25:10.803329067Z",
            "type": 2,
            "block_id": {
              "hash": "4953A13ACD5B1004EA8929DF6F182407CFCD9B7A",
              "parts": {
                "total": "1",
                "hash": "976C2E3FEC6BEB3ED6C726F5B931B21D6814E088"
              }
            },
            "signature": {
              "type": "tendermint/SignatureEd25519",
              "value": "G2ux3qsMuUERTsdC1nTzPzTxxut30FYmBlDNQ4S3pFyooL7xOSdlTf8iKML7PpzEZbzP57AXsueoX5T8VMkOBg=="
            }
          },
          {
            "validator_address": "732CEEF54C374DDC6ADECBFD707AEFD07FEDC143",
            "validator_index": "52",
            "height": "9316",
            "round": "1",
            "timestamp": "2018-07-30T21:25:10.959738864Z",
            "type": 2,
            "block_id": {
              "hash": "4953A13ACD5B1004EA8929DF6F182407CFCD9B7A",
              "parts": {
                "total": "1",
                "hash": "976C2E3FEC6BEB3ED6C726F5B931B21D6814E088"
              }
            },
            "signature": {
              "type": "tendermint/SignatureEd25519",
              "value": "9NUl+YMqO5rxNDBpOhRBk56k7qQXH47aQVouAgXQmKHZQPucC6pCcGVVNI977Jj1rWFWVMXWohYyZPh3Z+T+Ag=="
            }
          },
          {
            "validator_address": "7393D691BFAE9661918C09932D4D9060AB40939B",
            "validator_index": "53",
            "height": "9316",
            "round": "1",
            "timestamp": "2018-07-30T21:25:11.03563956Z",
            "type": 2,
            "block_id": {
              "hash": "4953A13ACD5B1004EA8929DF6F182407CFCD9B7A",
              "parts": {
                "total": "1",
                "hash": "976C2E3FEC6BEB3ED6C726F5B931B21D6814E088"
              }
            },
            "signature": {
              "type": "tendermint/SignatureEd25519",
              "value": "GZk9LJTcdD08nmE9SgOie3avI+5MDXwSJGtCRMeSTcXEMqr1qWOHKeMU9x6z8fpFmg0i/MYHvVqBdGfwJZ9vBw=="
            }
          },
          {
            "validator_address": "751E43437224E8BB6D1569B3E2B2616B6E7F4397",
            "validator_index": "54",
            "height": "9316",
            "round": "1",
            "timestamp": "2018-07-30T21:25:10.847507304Z",
            "type": 2,
            "block_id": {
              "hash": "4953A13ACD5B1004EA8929DF6F182407CFCD9B7A",
              "parts": {
                "total": "1",
                "hash": "976C2E3FEC6BEB3ED6C726F5B931B21D6814E088"
              }
            },
            "signature": {
              "type": "tendermint/SignatureEd25519",
              "value": "TnbkAxQucTCJWAkbgrEoB+MQgjkjRulYNO9C0SWLpDm0ZJOP64UNHDMRumSZibflbxfgMahDY1bnsh61U48QAw=="
            }
          },
          {
            "validator_address": "7EB7593F519F1180C7E872D0494611464EDF03AE",
            "validator_index": "55",
            "height": "9316",
            "round": "1",
            "timestamp": "2018-07-30T21:25:10.811424639Z",
            "type": 2,
            "block_id": {
              "hash": "4953A13ACD5B1004EA8929DF6F182407CFCD9B7A",
              "parts": {
                "total": "1",
                "hash": "976C2E3FEC6BEB3ED6C726F5B931B21D6814E088"
              }
            },
            "signature": {
              "type": "tendermint/SignatureEd25519",
              "value": "RwYu01Tm6UUxQQlWdrTcz2h11Se5e3rXV30/Treeu/KR8q59w1jMJYTeItjFw/VFAXOLl3XE9NjJR1PNlYH9CA=="
            }
          },
          {
            "validator_address": "807CF675BA8479FC4FEC1047215DF07970040F1F",
            "validator_index": "56",
            "height": "9316",
            "round": "1",
            "timestamp": "2018-07-30T21:25:11.209111471Z",
            "type": 2,
            "block_id": {
              "hash": "4953A13ACD5B1004EA8929DF6F182407CFCD9B7A",
              "parts": {
                "total": "1",
                "hash": "976C2E3FEC6BEB3ED6C726F5B931B21D6814E088"
              }
            },
            "signature": {
              "type": "tendermint/SignatureEd25519",
              "value": "4Eu/XuoXW17es0VRGp2qUk4bn7IsBimKJDzygWpk4VtleZbdNaDJ5KHb1g1VnSYVHrmTinjbXhIsiD8OqvNFAg=="
            }
          },
          {
            "validator_address": "8126192EA66E8ADE6B36924534721366B987A4C1",
            "validator_index": "57",
            "height": "9316",
            "round": "1",
            "timestamp": "2018-07-30T21:25:10.78633265Z",
            "type": 2,
            "block_id": {
              "hash": "4953A13ACD5B1004EA8929DF6F182407CFCD9B7A",
              "parts": {
                "total": "1",
                "hash": "976C2E3FEC6BEB3ED6C726F5B931B21D6814E088"
              }
            },
            "signature": {
              "type": "tendermint/SignatureEd25519",
              "value": "4t52ktKuc4Fo8s+1pVqJBQ2nI9X1x0O1DZLeHS5HEs+QUexmb4MkDznXOONO5AhEY4Yqtm0teyggzNyCmGgZDg=="
            }
          },
          null,
          {
            "validator_address": "83AB321E012C57746689FED3A6064DF331F81007",
            "validator_index": "59",
            "height": "9316",
            "round": "1",
            "timestamp": "2018-07-30T21:25:10.843520392Z",
            "type": 2,
            "block_id": {
              "hash": "4953A13ACD5B1004EA8929DF6F182407CFCD9B7A",
              "parts": {
                "total": "1",
                "hash": "976C2E3FEC6BEB3ED6C726F5B931B21D6814E088"
              }
            },
            "signature": {
              "type": "tendermint/SignatureEd25519",
              "value": "5LsGBIhMLf7tvGzO1mnkrBUiBfkLgea8tIiW2cdlL1pnh0EiTQkeMfVm6va1BsnwB/SlhNbmnWewRzIBv0ljBw=="
            }
          },
          {
            "validator_address": "83BB1B88D3DBB20AD845FECA07749EBD87D3754D",
            "validator_index": "60",
            "height": "9316",
            "round": "1",
            "timestamp": "2018-07-30T21:25:11.020959871Z",
            "type": 2,
            "block_id": {
              "hash": "4953A13ACD5B1004EA8929DF6F182407CFCD9B7A",
              "parts": {
                "total": "1",
                "hash": "976C2E3FEC6BEB3ED6C726F5B931B21D6814E088"
              }
            },
            "signature": {
              "type": "tendermint/SignatureEd25519",
              "value": "Lyn4ZRHIkCUw2Tg7eYhkanlNlCC5BBKW3Q1agsLwd29yBlRNitPRYHge2GH5imBgs0hfbC2uNnLoHQWpyKz5Aw=="
            }
          },
          null,
          {
            "validator_address": "8F06FE1FD042683C426137FBC4BBAA4288924217",
            "validator_index": "62",
            "height": "9316",
            "round": "1",
            "timestamp": "2018-07-30T21:25:10.870495967Z",
            "type": 2,
            "block_id": {
              "hash": "4953A13ACD5B1004EA8929DF6F182407CFCD9B7A",
              "parts": {
                "total": "1",
                "hash": "976C2E3FEC6BEB3ED6C726F5B931B21D6814E088"
              }
            },
            "signature": {
              "type": "tendermint/SignatureEd25519",
              "value": "esKWlyuYL97uxoqSmO8TL4avCAYy/VWRSQNjd2jpnewDPmt/SGL9Lyz+818DNxcOpf9Pn1rQNQFqI8byh/uWBw=="
            }
          },
          {
            "validator_address": "8F45617BF45B10A3F8283DEBDB35E38C7CA43237",
            "validator_index": "63",
            "height": "9316",
            "round": "1",
            "timestamp": "2018-07-30T21:25:10.813596778Z",
            "type": 2,
            "block_id": {
              "hash": "4953A13ACD5B1004EA8929DF6F182407CFCD9B7A",
              "parts": {
                "total": "1",
                "hash": "976C2E3FEC6BEB3ED6C726F5B931B21D6814E088"
              }
            },
            "signature": {
              "type": "tendermint/SignatureEd25519",
              "value": "7dPx/7f9uASDVNcxBOIdll+GolEaXMR4bu8Gljl1YE9nj0IkuXISPWVCENu1PBfVMch/6wjK58zphiYq8FwVAA=="
            }
          },
          null,
          {
            "validator_address": "95980831E186F2540F6E9FB6C8E74DE2401405AC",
            "validator_index": "65",
            "height": "9316",
            "round": "1",
            "timestamp": "2018-07-30T21:25:10.850005756Z",
            "type": 2,
            "block_id": {
              "hash": "4953A13ACD5B1004EA8929DF6F182407CFCD9B7A",
              "parts": {
                "total": "1",
                "hash": "976C2E3FEC6BEB3ED6C726F5B931B21D6814E088"
              }
            },
            "signature": {
              "type": "tendermint/SignatureEd25519",
              "value": "YMoSrJPW9STWNUfYsMcZtHpEiGHpB9ujn7ch4OkoojoNnP7bgwnK0jsVJLLPbGLr7ykpG0gVyfQ3mWv0rfFaCQ=="
            }
          },
          {
            "validator_address": "95FAFBC1E0579C83D290A063020CE87C5334BD9B",
            "validator_index": "66",
            "height": "9316",
            "round": "1",
            "timestamp": "2018-07-30T21:25:10.866967239Z",
            "type": 2,
            "block_id": {
              "hash": "4953A13ACD5B1004EA8929DF6F182407CFCD9B7A",
              "parts": {
                "total": "1",
                "hash": "976C2E3FEC6BEB3ED6C726F5B931B21D6814E088"
              }
            },
            "signature": {
              "type": "tendermint/SignatureEd25519",
              "value": "LL4hFYKCXiDY6BD+3Y5UaNn9pDgIZ7707mzHOc7IUW7iuaeARHx4o5UUTNSGblKuIWwymg6kZoGq7E4I5TPdAA=="
            }
          },
          {
            "validator_address": "96BDE45EC52606CF5CB59853097871AD60680549",
            "validator_index": "67",
            "height": "9316",
            "round": "1",
            "timestamp": "2018-07-30T21:25:10.830051794Z",
            "type": 2,
            "block_id": {
              "hash": "4953A13ACD5B1004EA8929DF6F182407CFCD9B7A",
              "parts": {
                "total": "1",
                "hash": "976C2E3FEC6BEB3ED6C726F5B931B21D6814E088"
              }
            },
            "signature": {
              "type": "tendermint/SignatureEd25519",
              "value": "tegDEtw51BR7I5JjrHd7sLZSC93XEaSnK7LZLm+fPHjfcqo6X4rb6cvk1ycdqENSxsvJfMBKZYNKIeoLekXeDQ=="
            }
          },
          {
            "validator_address": "970CD321881185BF83DB2923C321B0E75FDBB2B8",
            "validator_index": "68",
            "height": "9316",
            "round": "1",
            "timestamp": "2018-07-30T21:25:10.85984851Z",
            "type": 2,
            "block_id": {
              "hash": "4953A13ACD5B1004EA8929DF6F182407CFCD9B7A",
              "parts": {
                "total": "1",
                "hash": "976C2E3FEC6BEB3ED6C726F5B931B21D6814E088"
              }
            },
            "signature": {
              "type": "tendermint/SignatureEd25519",
              "value": "AOu1zNDhCuvArmO9yAn2VzYLmQFCVR4TBLGM0HWCRv1y9bxZBtNL/sYwvG3sNW1U6g9K1RuvZCfFSR7alsyhDw=="
            }
          },
          null,
          {
            "validator_address": "9C29C9B76D27586E4D9AD2AED0E943162645E55C",
            "validator_index": "70",
            "height": "9316",
            "round": "1",
            "timestamp": "2018-07-30T21:25:10.74366556Z",
            "type": 2,
            "block_id": {
              "hash": "4953A13ACD5B1004EA8929DF6F182407CFCD9B7A",
              "parts": {
                "total": "1",
                "hash": "976C2E3FEC6BEB3ED6C726F5B931B21D6814E088"
              }
            },
            "signature": {
              "type": "tendermint/SignatureEd25519",
              "value": "VeyeU72JCtIAngvYOfyo3E1CLAwwvxrX9LvRaEyqtAweJnaRqepUJS7zd0NKlXSUumxIUouWhjnI+JeudpkwDw=="
            }
          },
          {
            "validator_address": "9D93AD02FE1BD7E76B9E58D7EB461088EAD011E5",
            "validator_index": "71",
            "height": "9316",
            "round": "1",
            "timestamp": "2018-07-30T21:25:10.781922008Z",
            "type": 2,
            "block_id": {
              "hash": "4953A13ACD5B1004EA8929DF6F182407CFCD9B7A",
              "parts": {
                "total": "1",
                "hash": "976C2E3FEC6BEB3ED6C726F5B931B21D6814E088"
              }
            },
            "signature": {
              "type": "tendermint/SignatureEd25519",
              "value": "C6uCGaeEd7Hp68AslZjSjVvv+PBnGK9XNvvWcbQyjmfAGI0yMaC8ylxGsdBAbetp4Im4JzaFm4vC6jYTZjRQDw=="
            }
          },
          null,
          {
            "validator_address": "A0A6466F4ABEA09C3B55E3709AFDE217A103209F",
            "validator_index": "73",
            "height": "9316",
            "round": "1",
            "timestamp": "2018-07-30T21:25:10.81180431Z",
            "type": 2,
            "block_id": {
              "hash": "4953A13ACD5B1004EA8929DF6F182407CFCD9B7A",
              "parts": {
                "total": "1",
                "hash": "976C2E3FEC6BEB3ED6C726F5B931B21D6814E088"
              }
            },
            "signature": {
              "type": "tendermint/SignatureEd25519",
              "value": "TYykTnu1mgHTITlgEx0Ou2VLy12AWF3gfzVVSRL7c86Dsp03oiKUtPY0EAwx6uy4GuLmmXk/UP83PUC45lKpAA=="
            }
          },
          {
            "validator_address": "A5868971300F155020634D7BB49C7634F7AACCD3",
            "validator_index": "74",
            "height": "9316",
            "round": "1",
            "timestamp": "2018-07-30T21:25:10.858372749Z",
            "type": 2,
            "block_id": {
              "hash": "4953A13ACD5B1004EA8929DF6F182407CFCD9B7A",
              "parts": {
                "total": "1",
                "hash": "976C2E3FEC6BEB3ED6C726F5B931B21D6814E088"
              }
            },
            "signature": {
              "type": "tendermint/SignatureEd25519",
              "value": "qAeWqlEzFiNxUxS9hjKpeGXhqBg++4jQ3TldDYbgXSAW1OgUOZ8OZb5XiC0je7AGkBvfKFCNK/EjYCaD4b5qAQ=="
            }
          },
          {
            "validator_address": "A6B3A5B5D982CFD7B5FDFA15CF5A720E7AE25E7F",
            "validator_index": "75",
            "height": "9316",
            "round": "1",
            "timestamp": "2018-07-30T21:25:10.766433584Z",
            "type": 2,
            "block_id": {
              "hash": "4953A13ACD5B1004EA8929DF6F182407CFCD9B7A",
              "parts": {
                "total": "1",
                "hash": "976C2E3FEC6BEB3ED6C726F5B931B21D6814E088"
              }
            },
            "signature": {
              "type": "tendermint/SignatureEd25519",
              "value": "DCSAYWzHDTxi7CMVZd8S8buFryeE753p/qkABtIK6wCpzT5/4/+FqnllzJlwyvFDzNRMXseUcNLfhglL/3mZDQ=="
            }
          },
          {
            "validator_address": "AC96444A9083890B7C7B430DB17BF1D3EA5EED04",
            "validator_index": "76",
            "height": "9316",
            "round": "1",
            "timestamp": "2018-07-30T21:25:10.916990474Z",
            "type": 2,
            "block_id": {
              "hash": "4953A13ACD5B1004EA8929DF6F182407CFCD9B7A",
              "parts": {
                "total": "1",
                "hash": "976C2E3FEC6BEB3ED6C726F5B931B21D6814E088"
              }
            },
            "signature": {
              "type": "tendermint/SignatureEd25519",
              "value": "R6YdicRK9/GK1xr8SPKfSzvO2be7wp4bqeq5F52GrPI7aLQ3mfrfTmXjibKaMee7BvhZURuGTcIHd1Av8cXVAQ=="
            }
          },
          {
            "validator_address": "ACB97FDA2D940AF0709B73537C458EB988AD2893",
            "validator_index": "77",
            "height": "9316",
            "round": "1",
            "timestamp": "2018-07-30T21:25:10.792601943Z",
            "type": 2,
            "block_id": {
              "hash": "4953A13ACD5B1004EA8929DF6F182407CFCD9B7A",
              "parts": {
                "total": "1",
                "hash": "976C2E3FEC6BEB3ED6C726F5B931B21D6814E088"
              }
            },
            "signature": {
              "type": "tendermint/SignatureEd25519",
              "value": "6RC3G015eDnA6EvvlDcsKlIQtBvYA9Uv6SOGWaSm3Odm/WuVH+NngkLr9D3sBU4PCNmWW8fzxFFHXb6UJrKOAQ=="
            }
          },
          {
            "validator_address": "B197425B3210375F211661DE02EF2AE36580EB0F",
            "validator_index": "78",
            "height": "9316",
            "round": "1",
            "timestamp": "2018-07-30T21:25:10.808007106Z",
            "type": 2,
            "block_id": {
              "hash": "4953A13ACD5B1004EA8929DF6F182407CFCD9B7A",
              "parts": {
                "total": "1",
                "hash": "976C2E3FEC6BEB3ED6C726F5B931B21D6814E088"
              }
            },
            "signature": {
              "type": "tendermint/SignatureEd25519",
              "value": "quCTkL+IqGCXOOq19ANB3xL+AkoShJfw6ALOS6WhBvoWiJUXBwFCnjBJPdGs600bGXf+6OZcD9wEGS7luT9cCQ=="
            }
          },
          {
            "validator_address": "B45E54D2D1CB5A4CCD1D49016608C18E7C56B270",
            "validator_index": "79",
            "height": "9316",
            "round": "1",
            "timestamp": "2018-07-30T21:25:10.971225541Z",
            "type": 2,
            "block_id": {
              "hash": "4953A13ACD5B1004EA8929DF6F182407CFCD9B7A",
              "parts": {
                "total": "1",
                "hash": "976C2E3FEC6BEB3ED6C726F5B931B21D6814E088"
              }
            },
            "signature": {
              "type": "tendermint/SignatureEd25519",
              "value": "lqXcZol6zTIGh6e7I+xLy1dKSA65OH5NYn1NRaJhiPjlCjz4mQv3yy6VGXffJWP3/TiCF4w/B2aAyKkgMgbwCg=="
            }
          },
          {
            "validator_address": "B59A34C0BE4EC73AF6A67D274F1695C9259C237C",
            "validator_index": "80",
            "height": "9316",
            "round": "1",
            "timestamp": "2018-07-30T21:25:10.925709801Z",
            "type": 2,
            "block_id": {
              "hash": "4953A13ACD5B1004EA8929DF6F182407CFCD9B7A",
              "parts": {
                "total": "1",
                "hash": "976C2E3FEC6BEB3ED6C726F5B931B21D6814E088"
              }
            },
            "signature": {
              "type": "tendermint/SignatureEd25519",
              "value": "iHSlotRMwzKliNojeXayePgrXLcXVkRkX0KsegCIW8lsFgABHm/mjExQQBUEwthVBaq3zDpbfSfXxyVpaqvsDg=="
            }
          },
          {
            "validator_address": "BC36FEDD6EF6071118A3E51859DF3831A2EC4782",
            "validator_index": "81",
            "height": "9316",
            "round": "1",
            "timestamp": "2018-07-30T21:25:10.831435717Z",
            "type": 2,
            "block_id": {
              "hash": "4953A13ACD5B1004EA8929DF6F182407CFCD9B7A",
              "parts": {
                "total": "1",
                "hash": "976C2E3FEC6BEB3ED6C726F5B931B21D6814E088"
              }
            },
            "signature": {
              "type": "tendermint/SignatureEd25519",
              "value": "dGq7oFZ05ADSdc20I21tz0FO3Gh2UP1tQUCD71mN8vr9yCbzv7lrOjsCMvoDxf2CJIsZJTdep6YLxcVfqD0nDw=="
            }
          },
          {
            "validator_address": "BD9D0DA513BF099DB4BB6E725A4E19832789882F",
            "validator_index": "82",
            "height": "9316",
            "round": "1",
            "timestamp": "2018-07-30T21:25:10.784907757Z",
            "type": 2,
            "block_id": {
              "hash": "4953A13ACD5B1004EA8929DF6F182407CFCD9B7A",
              "parts": {
                "total": "1",
                "hash": "976C2E3FEC6BEB3ED6C726F5B931B21D6814E088"
              }
            },
            "signature": {
              "type": "tendermint/SignatureEd25519",
              "value": "/2T+DF/ct0vN76VQnB8D1vTK91Au8VTqmPwl9/RT96yjKvi1u5oKG1VVZz8FZUb4ahf4uz2TAb21KI5thiY+Dg=="
            }
          },
          {
            "validator_address": "C1134A2FF8F7338E7CDB3FE57DDD2A655DEB1E22",
            "validator_index": "83",
            "height": "9316",
            "round": "1",
            "timestamp": "2018-07-30T21:25:10.686179601Z",
            "type": 2,
            "block_id": {
              "hash": "4953A13ACD5B1004EA8929DF6F182407CFCD9B7A",
              "parts": {
                "total": "1",
                "hash": "976C2E3FEC6BEB3ED6C726F5B931B21D6814E088"
              }
            },
            "signature": {
              "type": "tendermint/SignatureEd25519",
              "value": "bYtPpEVic81CqGmeGQZU7BIaVJ0fttJ/U7mga7vs3pSBCy5L/YJrXx96/zwFkjVKfclaQXWp9U4nRKAB6hRJDw=="
            }
          },
          {
            "validator_address": "C39A8A2B85198DCB8F23AD1F6C198E2BA7AB5D60",
            "validator_index": "84",
            "height": "9316",
            "round": "1",
            "timestamp": "2018-07-30T21:25:10.798597076Z",
            "type": 2,
            "block_id": {
              "hash": "4953A13ACD5B1004EA8929DF6F182407CFCD9B7A",
              "parts": {
                "total": "1",
                "hash": "976C2E3FEC6BEB3ED6C726F5B931B21D6814E088"
              }
            },
            "signature": {
              "type": "tendermint/SignatureEd25519",
              "value": "zFnH1uriUxSaO3c5eFuxsYTR88CFGoj1rOqJnyhOc+2zZ5/rO3S8xI5jGXoxNdHarxIRGqydVEdPEGUo/smqCg=="
            }
          },
          {
            "validator_address": "C4335190C3B5BD4BA5568BC0F99C34162D940D08",
            "validator_index": "85",
            "height": "9316",
            "round": "1",
            "timestamp": "2018-07-30T21:25:10.832943135Z",
            "type": 2,
            "block_id": {
              "hash": "4953A13ACD5B1004EA8929DF6F182407CFCD9B7A",
              "parts": {
                "total": "1",
                "hash": "976C2E3FEC6BEB3ED6C726F5B931B21D6814E088"
              }
            },
            "signature": {
              "type": "tendermint/SignatureEd25519",
              "value": "6v6soUZeoJmnB2doWHyB2MITqXlMwtNR1dgQctzZAuC5CC5Blt2ncRvuQtTm0PI94N/nM5jg3NopIMvmwktnAA=="
            }
          },
          {
            "validator_address": "C561CFA081677046376396922E7576E5F7B316AD",
            "validator_index": "86",
            "height": "9316",
            "round": "1",
            "timestamp": "2018-07-30T21:25:10.918381922Z",
            "type": 2,
            "block_id": {
              "hash": "4953A13ACD5B1004EA8929DF6F182407CFCD9B7A",
              "parts": {
                "total": "1",
                "hash": "976C2E3FEC6BEB3ED6C726F5B931B21D6814E088"
              }
            },
            "signature": {
              "type": "tendermint/SignatureEd25519",
              "value": "Y7iLe1omtttJ3GOa/4f+QqTn5DU0Sb8cdKOu91EwPrH3n3oQhFrb8tL5GBUNwggcNeC/Su23A2IAD4AXrIuyBw=="
            }
          },
          {
            "validator_address": "CE589EA77B056D268D30D1DC1D68A70E0F885E95",
            "validator_index": "87",
            "height": "9316",
            "round": "1",
            "timestamp": "2018-07-30T21:25:10.839408418Z",
            "type": 2,
            "block_id": {
              "hash": "4953A13ACD5B1004EA8929DF6F182407CFCD9B7A",
              "parts": {
                "total": "1",
                "hash": "976C2E3FEC6BEB3ED6C726F5B931B21D6814E088"
              }
            },
            "signature": {
              "type": "tendermint/SignatureEd25519",
              "value": "SYIf0GYheKYyynkvacXckw3cfT9yvDDcyXjABgF8b+WjLSlOyGoU7iRFvS2/6q7lu574sTmTTER+uR6qf+V7Ag=="
            }
          },
          {
            "validator_address": "CEB97DB5CB18270247ABDE6CF2F84F9AEE8A2904",
            "validator_index": "88",
            "height": "9316",
            "round": "1",
            "timestamp": "2018-07-30T21:25:10.723475469Z",
            "type": 2,
            "block_id": {
              "hash": "4953A13ACD5B1004EA8929DF6F182407CFCD9B7A",
              "parts": {
                "total": "1",
                "hash": "976C2E3FEC6BEB3ED6C726F5B931B21D6814E088"
              }
            },
            "signature": {
              "type": "tendermint/SignatureEd25519",
              "value": "v9WvvVL3rJlcPzkzq+aTYET05skioNssq/fYzrrAPdJ2Qz7rGKvEH36Tul7AKfAT0Au4WruPXBw8R09mApn8CQ=="
            }
          },
          {
            "validator_address": "CF205769734F5758CC39F907EFB73D6BAF915FB1",
            "validator_index": "89",
            "height": "9316",
            "round": "1",
            "timestamp": "2018-07-30T21:25:10.885485792Z",
            "type": 2,
            "block_id": {
              "hash": "4953A13ACD5B1004EA8929DF6F182407CFCD9B7A",
              "parts": {
                "total": "1",
                "hash": "976C2E3FEC6BEB3ED6C726F5B931B21D6814E088"
              }
            },
            "signature": {
              "type": "tendermint/SignatureEd25519",
              "value": "WBqxFXH/TRK5IRvB/jibpaeCFliluLChFpkmRWHK7cX/fjh9gNiTIh1KoY+oizatzri9JZPPw2owlzIKQgv8Bg=="
            }
          },
          {
            "validator_address": "D2134B826A1E25A955905CB79A4D8731CAFA0CCE",
            "validator_index": "90",
            "height": "9316",
            "round": "1",
            "timestamp": "2018-07-30T21:25:10.917052479Z",
            "type": 2,
            "block_id": {
              "hash": "4953A13ACD5B1004EA8929DF6F182407CFCD9B7A",
              "parts": {
                "total": "1",
                "hash": "976C2E3FEC6BEB3ED6C726F5B931B21D6814E088"
              }
            },
            "signature": {
              "type": "tendermint/SignatureEd25519",
              "value": "7n0l2wmhs4HQzIV6WDWBDW4wuG92+tXRVp29iRzgMridiJ5FkZcTcuuIcSM1ySom+Hj1BuOzKjfL5G9CyN52DQ=="
            }
          },
          null,
          {
            "validator_address": "D6285C3422C8886445D53757CBE12D2B91B5A9D0",
            "validator_index": "92",
            "height": "9316",
            "round": "1",
            "timestamp": "2018-07-30T21:24:53.155296026Z",
            "type": 2,
            "block_id": {
              "hash": "4953A13ACD5B1004EA8929DF6F182407CFCD9B7A",
              "parts": {
                "total": "1",
                "hash": "976C2E3FEC6BEB3ED6C726F5B931B21D6814E088"
              }
            },
            "signature": {
              "type": "tendermint/SignatureEd25519",
              "value": "RRdPQaJnsfiOSZH6iTIsesdpeIYawyBz3K8s09v9/+AbUDPweJicI6vlvSlpAMwvKzPRym+4HpAQuTQUez9XAQ=="
            }
          },
          {
            "validator_address": "D77FB84A729972CD3E757C9BEB61561855832B92",
            "validator_index": "93",
            "height": "9316",
            "round": "1",
            "timestamp": "2018-07-30T21:25:10.984356933Z",
            "type": 2,
            "block_id": {
              "hash": "4953A13ACD5B1004EA8929DF6F182407CFCD9B7A",
              "parts": {
                "total": "1",
                "hash": "976C2E3FEC6BEB3ED6C726F5B931B21D6814E088"
              }
            },
            "signature": {
              "type": "tendermint/SignatureEd25519",
              "value": "CcCARerXvHMmRKNM/Kh8QdzQugoGQIXtxgFAikAEwFQ2bUwVZ2R4L2yPhCbFiU1W1PHT5n/bJulP/XK+/aPNBA=="
            }
          },
          null,
          {
            "validator_address": "DB7E6732471D3EA5C90C17A9974D9F88AB45F2FB",
            "validator_index": "95",
            "height": "9316",
            "round": "1",
            "timestamp": "2018-07-30T21:25:10.829675016Z",
            "type": 2,
            "block_id": {
              "hash": "4953A13ACD5B1004EA8929DF6F182407CFCD9B7A",
              "parts": {
                "total": "1",
                "hash": "976C2E3FEC6BEB3ED6C726F5B931B21D6814E088"
              }
            },
            "signature": {
              "type": "tendermint/SignatureEd25519",
              "value": "jDM6IHGnpHG0jPo7XAk5scnEePh+rgmVUlBhdo1uLnHMKQfHYCHmHnvtGqpljvY0XlhRMMWgNGdF4dUg6cm6Cg=="
            }
          },
          {
            "validator_address": "DF54B862410BCD9B5C516FBB6C56BDC826ED6FA7",
            "validator_index": "96",
            "height": "9316",
            "round": "1",
            "timestamp": "2018-07-30T21:25:10.84407391Z",
            "type": 2,
            "block_id": {
              "hash": "4953A13ACD5B1004EA8929DF6F182407CFCD9B7A",
              "parts": {
                "total": "1",
                "hash": "976C2E3FEC6BEB3ED6C726F5B931B21D6814E088"
              }
            },
            "signature": {
              "type": "tendermint/SignatureEd25519",
              "value": "i9p+nOu2dbxrSdxIRjbeI4TcUhbc8LoRT9yVNujQNXQAi2FVwcNBKn3jzBETKt9SUjrInS2hR666AaM/Qj/oAg=="
            }
          },
          {
            "validator_address": "DFAF0C8B1B78D6D552B0189DE3ACA351439A1319",
            "validator_index": "97",
            "height": "9316",
            "round": "1",
            "timestamp": "2018-07-30T21:25:10.752785852Z",
            "type": 2,
            "block_id": {
              "hash": "4953A13ACD5B1004EA8929DF6F182407CFCD9B7A",
              "parts": {
                "total": "1",
                "hash": "976C2E3FEC6BEB3ED6C726F5B931B21D6814E088"
              }
            },
            "signature": {
              "type": "tendermint/SignatureEd25519",
              "value": "TmPmsFY4cTsxFqTi51sIHJirzWr5G9rhrgUSJabVQjtHTyLP8YRVa2QArzRUmxeWdagMAH0Up7OL4x+UWdi8CA=="
            }
          },
          {
            "validator_address": "E1DBC77881161A5A3A8536A57536EAE546A75D69",
            "validator_index": "98",
            "height": "9316",
            "round": "1",
            "timestamp": "2018-07-30T21:25:10.75085764Z",
            "type": 2,
            "block_id": {
              "hash": "4953A13ACD5B1004EA8929DF6F182407CFCD9B7A",
              "parts": {
                "total": "1",
                "hash": "976C2E3FEC6BEB3ED6C726F5B931B21D6814E088"
              }
            },
            "signature": {
              "type": "tendermint/SignatureEd25519",
              "value": "NyVHedN3x/efNYfTN0Eu5/4ctfbhat7LNKBgoHniUcCck4xv6bVwIPCDk+xf5f/9t0TpQgeQ1XhIeg5EuL/JCA=="
            }
          },
          {
            "validator_address": "E300E9D484374C1D3E97C1D93CAC3B160A056298",
            "validator_index": "99",
            "height": "9316",
            "round": "1",
            "timestamp": "2018-07-30T21:25:11.079212449Z",
            "type": 2,
            "block_id": {
              "hash": "4953A13ACD5B1004EA8929DF6F182407CFCD9B7A",
              "parts": {
                "total": "1",
                "hash": "976C2E3FEC6BEB3ED6C726F5B931B21D6814E088"
              }
            },
            "signature": {
              "type": "tendermint/SignatureEd25519",
              "value": "7iE7ZN6KW1vzN2+EO0kwF0eWK3aoiqk+LkzZwHRx13sOjpmjsjP3pU4IpRFW0diRtZcRkp0RSBMwpn1ZNa2xAQ=="
            }
          },
          {
            "validator_address": "E39B5778E0D4297A46F45CF6940B0A163A430FF8",
            "validator_index": "100",
            "height": "9316",
            "round": "1",
            "timestamp": "2018-07-30T21:25:10.806018039Z",
            "type": 2,
            "block_id": {
              "hash": "4953A13ACD5B1004EA8929DF6F182407CFCD9B7A",
              "parts": {
                "total": "1",
                "hash": "976C2E3FEC6BEB3ED6C726F5B931B21D6814E088"
              }
            },
            "signature": {
              "type": "tendermint/SignatureEd25519",
              "value": "vK67wwD3rNnRnb+VdKD4F0c7stybkmi/bs4IiPTmQiIHfbWUf2zcBI1c5TCJMZGONAB7szAmr+2hyZeQ1YrqCA=="
            }
          },
          {
            "validator_address": "E3B19738F7132F950668504D326C7660F159D170",
            "validator_index": "101",
            "height": "9316",
            "round": "1",
            "timestamp": "2018-07-30T21:25:10.852849051Z",
            "type": 2,
            "block_id": {
              "hash": "4953A13ACD5B1004EA8929DF6F182407CFCD9B7A",
              "parts": {
                "total": "1",
                "hash": "976C2E3FEC6BEB3ED6C726F5B931B21D6814E088"
              }
            },
            "signature": {
              "type": "tendermint/SignatureEd25519",
              "value": "9ydS+e6Raigweuc8crxW/WAEYAAHjCG/c8N4/WBXbyCo8mntNu4186TNzVaqZO3Dfm5f9JIwBhzBgRX/G3BODw=="
            }
          },
          {
            "validator_address": "E42F8AEABB685219F7027F54D2B0DBC7846F633A",
            "validator_index": "102",
            "height": "9316",
            "round": "1",
            "timestamp": "2018-07-30T21:25:10.148509474Z",
            "type": 2,
            "block_id": {
              "hash": "4953A13ACD5B1004EA8929DF6F182407CFCD9B7A",
              "parts": {
                "total": "1",
                "hash": "976C2E3FEC6BEB3ED6C726F5B931B21D6814E088"
              }
            },
            "signature": {
              "type": "tendermint/SignatureEd25519",
              "value": "k9j6V8rIQZFDav1cSbfrqkw51PcSHNfmRgiGQncL2UaiRXhJbGcUkObrk8p5p8dwholNdXxjcTupAHoTX+H+AQ=="
            }
          },
          {
            "validator_address": "E4E6C2E81269DFFA196C17F98240E491479A6008",
            "validator_index": "103",
            "height": "9316",
            "round": "1",
            "timestamp": "2018-07-30T21:25:10.885416942Z",
            "type": 2,
            "block_id": {
              "hash": "4953A13ACD5B1004EA8929DF6F182407CFCD9B7A",
              "parts": {
                "total": "1",
                "hash": "976C2E3FEC6BEB3ED6C726F5B931B21D6814E088"
              }
            },
            "signature": {
              "type": "tendermint/SignatureEd25519",
              "value": "vue7yv5b9htu2ly2fsNJmLU6/s0gQwW5w9iFnlf0vnUDCVHwOxhDIOsIVJvBfXMC3GwNnbv3DAYKTvhmcsBQBw=="
            }
          },
          {
            "validator_address": "E4FEB2846F4F3B0ECDCBE9C9DCB2248248A5AF0F",
            "validator_index": "104",
            "height": "9316",
            "round": "1",
            "timestamp": "2018-07-30T21:25:11.233421583Z",
            "type": 2,
            "block_id": {
              "hash": "4953A13ACD5B1004EA8929DF6F182407CFCD9B7A",
              "parts": {
                "total": "1",
                "hash": "976C2E3FEC6BEB3ED6C726F5B931B21D6814E088"
              }
            },
            "signature": {
              "type": "tendermint/SignatureEd25519",
              "value": "4ZGgYhBQT9iFDABq0jwXQCQ8d86SXcLe0bKc4Q/MzQFAloRs0FjqI2RXOhulVEdkMS3Br9EarOVUKLW/YU0LDQ=="
            }
          },
          null,
          {
            "validator_address": "EBC613967F66F4EC306852CDF58B4F151CF16738",
            "validator_index": "106",
            "height": "9316",
            "round": "1",
            "timestamp": "2018-07-30T21:25:10.83055725Z",
            "type": 2,
            "block_id": {
              "hash": "4953A13ACD5B1004EA8929DF6F182407CFCD9B7A",
              "parts": {
                "total": "1",
                "hash": "976C2E3FEC6BEB3ED6C726F5B931B21D6814E088"
              }
            },
            "signature": {
              "type": "tendermint/SignatureEd25519",
              "value": "RqZ8unM4ss2fe/5+TnTW8logzhjDQ5adJWf5Dsn+hZTwnS8x02MU43Trg2XWb1bTwgMZ9Ao9TbEErVerkqtFBg=="
            }
          },
          {
            "validator_address": "EC3401441726C40ECC7E51F744483B05BC6DE9BD",
            "validator_index": "107",
            "height": "9316",
            "round": "1",
            "timestamp": "2018-07-30T21:25:10.812158653Z",
            "type": 2,
            "block_id": {
              "hash": "4953A13ACD5B1004EA8929DF6F182407CFCD9B7A",
              "parts": {
                "total": "1",
                "hash": "976C2E3FEC6BEB3ED6C726F5B931B21D6814E088"
              }
            },
            "signature": {
              "type": "tendermint/SignatureEd25519",
              "value": "xstjYsj+Lw87EBmxO1jIVp9LMtdee9JzD1hK2Ngr0uEcz7XYjVCLN25hQ8S8bUS/V3xdZ+PIG+LMm+JIGI4wAg=="
            }
          },
          {
            "validator_address": "EC95B111D032181E1EC3B5E8875C5BB8E4AE7140",
            "validator_index": "108",
            "height": "9316",
            "round": "1",
            "timestamp": "2018-07-30T21:25:10.802847438Z",
            "type": 2,
            "block_id": {
              "hash": "4953A13ACD5B1004EA8929DF6F182407CFCD9B7A",
              "parts": {
                "total": "1",
                "hash": "976C2E3FEC6BEB3ED6C726F5B931B21D6814E088"
              }
            },
            "signature": {
              "type": "tendermint/SignatureEd25519",
              "value": "qLZ47XPO96OffLnhfA5HQDoqAy040eaARPruDD1e/64+zbyvX6c8/0o3m3jNxcA0GjOgvPQMFn6va3JNfekOBw=="
            }
          },
          {
            "validator_address": "F13C1805E8131C9B47E2A46818F57D8A2841E578",
            "validator_index": "109",
            "height": "9316",
            "round": "1",
            "timestamp": "2018-07-30T21:25:10.830735486Z",
            "type": 2,
            "block_id": {
              "hash": "4953A13ACD5B1004EA8929DF6F182407CFCD9B7A",
              "parts": {
                "total": "1",
                "hash": "976C2E3FEC6BEB3ED6C726F5B931B21D6814E088"
              }
            },
            "signature": {
              "type": "tendermint/SignatureEd25519",
              "value": "reWFpWdLM7SoIauVjbiF11Z4gn+TKQhTPbeBmWLXeV+6FIwfsxU+MBUYCwCT+/DAPgZV8D6YDRfSos6F01JoDQ=="
            }
          },
          {
            "validator_address": "F23FF36BD5B90C33CE3A03ED72DBDCF5EC07D6AF",
            "validator_index": "110",
            "height": "9316",
            "round": "1",
            "timestamp": "2018-07-30T21:25:10.837600508Z",
            "type": 2,
            "block_id": {
              "hash": "4953A13ACD5B1004EA8929DF6F182407CFCD9B7A",
              "parts": {
                "total": "1",
                "hash": "976C2E3FEC6BEB3ED6C726F5B931B21D6814E088"
              }
            },
            "signature": {
              "type": "tendermint/SignatureEd25519",
              "value": "Mw0U5FiuUsuRvBd9u5PoGGVaGUKMUb5QgolCdEE7XxOlrzMnQY83wNO9v1h+x88Z8FI6q92YdZlodnjLjYeECw=="
            }
          },
          {
            "validator_address": "F4268597DE93E3E2CED38845010F8AA34E2A879E",
            "validator_index": "111",
            "height": "9316",
            "round": "1",
            "timestamp": "2018-07-30T21:25:10.741271449Z",
            "type": 2,
            "block_id": {
              "hash": "4953A13ACD5B1004EA8929DF6F182407CFCD9B7A",
              "parts": {
                "total": "1",
                "hash": "976C2E3FEC6BEB3ED6C726F5B931B21D6814E088"
              }
            },
            "signature": {
              "type": "tendermint/SignatureEd25519",
              "value": "Ta789b6M/i9Cjo7DRCCXWeUFWSrtcFqsqcFt5H/TM5Ye4DsdIq+TzPgUN2yMjh4fY/wvjHUalwFmNX70U89WAg=="
            }
          },
          {
            "validator_address": "F4DEB417999B04BE2EFF9FFE03FA373D86011CC0",
            "validator_index": "112",
            "height": "9316",
            "round": "1",
            "timestamp": "2018-07-30T21:25:10.842269957Z",
            "type": 2,
            "block_id": {
              "hash": "4953A13ACD5B1004EA8929DF6F182407CFCD9B7A",
              "parts": {
                "total": "1",
                "hash": "976C2E3FEC6BEB3ED6C726F5B931B21D6814E088"
              }
            },
            "signature": {
              "type": "tendermint/SignatureEd25519",
              "value": "pRnpUzSmy73VzxvJMNQvaB3Gvk6d/nArWss/AApLOpYzAk4LQnMbNO4xqz98wl/Aah4iW/+AKxX9L+RmCqmCAw=="
            }
          },
          null,
          {
            "validator_address": "FB6AC8B89A1C585F26410FF259952A432A7A3FDB",
            "validator_index": "114",
            "height": "9316",
            "round": "1",
            "timestamp": "2018-07-30T21:25:11.567864927Z",
            "type": 2,
            "block_id": {
              "hash": "4953A13ACD5B1004EA8929DF6F182407CFCD9B7A",
              "parts": {
                "total": "1",
                "hash": "976C2E3FEC6BEB3ED6C726F5B931B21D6814E088"
              }
            },
            "signature": {
              "type": "tendermint/SignatureEd25519",
              "value": "kRKDX+lIDpEV+IUIPMusuqaKb568i7Y9dIAMQ3s9jO6c1hDDk1zIgU9l63d6uPCEzRu05+SUBns+rtUbSeBbCQ=="
            }
          },
          null,
          {
            "validator_address": "FF3F3FCBCE7E62D7AD5506FF846EC4518D980515",
            "validator_index": "116",
            "height": "9316",
            "round": "1",
            "timestamp": "2018-07-30T21:25:10.761302186Z",
            "type": 2,
            "block_id": {
              "hash": "4953A13ACD5B1004EA8929DF6F182407CFCD9B7A",
              "parts": {
                "total": "1",
                "hash": "976C2E3FEC6BEB3ED6C726F5B931B21D6814E088"
              }
            },
            "signature": {
              "type": "tendermint/SignatureEd25519",
              "value": "SC5OkznIw0jjvcDozhiVzktRxzsj1zHHRaJU8Q6PoIUfMb5JPsZxLIX6bJnDQev8nVmQFM4sO/0yHuXEgCoPDg=="
            }
          }
        ]
      }
    },
    "canonical": true
  }
}