{
  "jsonrpc": "2.0",
  "id": "",
  "result": {
    "SignedHeader": {
      "header": {
        "chain_id": "gaia-7004",
        "height": "9358",
        "time": "2018-07-30T21:29:56.469873293Z",
        "num_txs": "0",
        "last_block_id": {
          "hash": "A54EFD06271E639FAD325A50DA803EDBA6A08DC1",
          "parts": {
            "total": "1",
            "hash": "C505FEE32BD335911AE21A9E645B51342A075C8D"
          }
        },
        "total_txs": "415",
        "last_commit_hash": "C30FD9BA964A810E849C4FF9BEC31FFA9488A4A7",
        "data_hash": "",
        "validators_hash": "937B3DFA7CB6AE2751AC92241FB3560AE2FA16F1",
        "consensus_hash": "D6B74BB35BDFFD8392340F2A379173548AE188FE",
        "app_hash": "ECAB3AFFB4A9EB4CF690288C8F1B7E43711DEA81",
        "last_results_hash": "",
        "evidence_hash": ""
      },
      "commit": {
        "block_id": {
          "hash": "B0518BB727E5E5521358FE74119485BD4E430EC6",
          "parts": {
            "total": "1",
            "hash": "6CE90774051FD8A9C4C9F7D7614840FB00F1D0ED"
          }
        },
        "precommits": [
          {
            "validator_address": "029359C0C768096273A68ABC902A6B17AC8D1D70",
            "validator_index": "0",
            "height": "9358",
            "round": "1",
            "timestamp": "2018-07-30T21:29:57.358961589Z",
            "type": 2,
            "block_id": {
              "hash": "B0518BB727E5E5521358FE74119485BD4E430EC6",
              "parts": {
                "total": "1",
                "hash": "6CE90774051FD8A9C4C9F7D7614840FB00F1D0ED"
              }
            },
            "signature": {
              "type": "tendermint/SignatureEd25519",
              "value": "6l8hPsylGlbFdjrqczwHei6C/kTPK8H1eZi0eg8cZXz5kgqdKbIKUFCn7A/lkyvE1KNRK2GJIFQMlzFIgHCWDQ=="
            }
          },
          {
            "validator_address": "02FE4B97A8387F39D1AC19E0C1702B3CC614812F",
            "validator_index": "1",
            "height": "9358",
            "round": "1",
            "timestamp": "2018-07-30T21:29:57.365499963Z",
            "type": 2,
            "block_id": {
              "hash": "B0518BB727E5E5521358FE74119485BD4E430EC6",
              "parts": {
                "total": "1",
                "hash": "6CE90774051FD8A9C4C9F7D7614840FB00F1D0ED"
              }
            },
            "signature": {
              "type": "tendermint/SignatureEd25519",
              "value": "B+xzR0WbvTL2OfONCvqdHOqc5e4pLc1NlAPJ+bA0gCeUR+JkrYZueak40CZ9lxVtBsK8S1bOARy7/mpPoZCVBA=="
            }
          },
          {
            "validator_address": "0548261C50222FD710EB5EBDF03A0E6567B21D20",
            "validator_index": "2",
            "height": "9358",
            "round": "1",
            "timestamp": "2018-07-30T21:29:57.412738603Z",
            "type": 2,
            "block_id": {
              "hash": "B0518BB727E5E5521358FE74119485BD4E430EC6",
              "parts": {
                "total": "1",
                "hash": "6CE90774051FD8A9C4C9F7D7614840FB00F1D0ED"
              }
            },
            "signature": {
              "type": "tendermint/SignatureEd25519",
              "value": "d6Dhe67xYYf27ighEMAbArmfzMspOr2leEENSbj+t7F5GsqI70/dlVGCTjf0ffapKW3JbkLCmK9WwZaBWJrxCA=="
            }
          },
          {
            "validator_address": "0665ADBF9B120B7617BF955AA5653A1992C82B11",
            "validator_index": "3",
            "height": "9358",
            "round": "1",
            "timestamp": "2018-07-30T21:29:57.319598799Z",
            "type": 2,
            "block_id": {
              "hash": "B0518BB727E5E5521358FE74119485BD4E430EC6",
              "parts": {
                "total": "1",
                "hash": "6CE90774051FD8A9C4C9F7D7614840FB00F1D0ED"
              }
            },
            "signature": {
              "type": "tendermint/SignatureEd25519",
              "value": "cC9j/j4OJpr1pm55GkctcHCv+b016/nrpEbkRWo4LuUOj4S/ABkIU5GFL5fBVaHM9TEgOrQBdTb7MdKlHctzAg=="
            }
          },
          {
            "validator_address": "09145E611CC27EEB944FC5A956DDF710F943B9EF",
            "validator_index": "4",
            "height": "9358",
            "round": "1",
            "timestamp": "2018-07-30T21:29:57.329112492Z",
            "type": 2,
            "block_id": {
              "hash": "B0518BB727E5E5521358FE74119485BD4E430EC6",
              "parts": {
                "total": "1",
                "hash": "6CE90774051FD8A9C4C9F7D7614840FB00F1D0ED"
              }
            },
            "signature": {
              "type": "tendermint/SignatureEd25519",
              "value": "d9tyayT4zsukPXIInARdIGan5+4KVr8wvf36yJ7pPopF69RlW9dlQ6o7kmRQ8gfs3vcd+tCQMrJ5AtGkxu+RCw=="
            }
          },
          {
            "validator_address": "0989D0355A104B67AE0AE028C68FB610690E174B",
            "validator_index": "5",
            "height": "9358",
            "round": "1",
            "timestamp": "2018-07-30T21:29:57.379722917Z",
            "type": 2,
            "block_id": {
              "hash": "B0518BB727E5E5521358FE74119485BD4E430EC6",
              "parts": {
                "total": "1",
                "hash": "6CE90774051FD8A9C4C9F7D7614840FB00F1D0ED"
              }
            },
            "signature": {
              "type": "tendermint/SignatureEd25519",
              "value": "M9j48+OP7RikRpLOwjwDHekA4XJwLMZ+fBLcy9KRbPF1kfaatMq7rrZwGhkdOtvIQobabxCUgA6zlJJwdJuQBQ=="
            }
          },
          {
            "validator_address": "0A692DBFFE9E5DD28E7DECC33CED1AEB4C0D014E",
            "validator_index": "6",
            "height": "9358",
            "round": "1",
            "timestamp": "2018-07-30T21:29:57.461292704Z",
            "type": 2,
            "block_id": {
              "hash": "B0518BB727E5E5521358FE74119485BD4E430EC6",
              "parts": {
                "total": "1",
                "hash": "6CE90774051FD8A9C4C9F7D7614840FB00F1D0ED"
              }
            },
            "signature": {
              "type": "tendermint/SignatureEd25519",
              "value": "AE3Ro312OdkZwdvAcf8wl1179VaSVZKSz0PsCrY6TEu5o45/Xazvwcj5/97p9NYF8luPWC+3lj0NFp1w+j5jDQ=="
            }
          },
          {
            "validator_address": "0DDF97111D73DB825138EC15EC27DE5FE8536901",
            "validator_index": "7",
            "height": "9358",
            "round": "1",
            "timestamp": "2018-07-30T21:29:57.404900706Z",
            "type": 2,
            "block_id": {
              "hash": "B0518BB727E5E5521358FE74119485BD4E430EC6",
              "parts": {
                "total": "1",
                "hash": "6CE90774051FD8A9C4C9F7D7614840FB00F1D0ED"
              }
            },
            "signature": {
              "type": "tendermint/SignatureEd25519",
              "value": "niiNnZlkFygfNU68TNgHVPtjEdyiJE32lpP5FkHob/9QGRFKD8pZJvoDlBfVfDg9uoz41IwBn6mSQzn1zgNPAw=="
            }
          },
          {
            "validator_address": "0F3FB8F818BE494E8F5597D9A8ACA57C8C5E72B7",
            "validator_index": "8",
            "height": "9358",
            "round": "1",
            "timestamp": "2018-07-30T21:30:00.630088029Z",
            "type": 2,
            "block_id": {
              "hash": "B0518BB727E5E5521358FE74119485BD4E430EC6",
              "parts": {
                "total": "1",
                "hash": "6CE90774051FD8A9C4C9F7D7614840FB00F1D0ED"
              }
            },
            "signature": {
              "type": "tendermint/SignatureEd25519",
              "value": "R4da+mJvNWrmayC/JcZev2toS+Cl/ZcrqiFSeJTTzjN03+3ArP30sjPx7jGkAnIgkaRltBsQXfL68mWusjpLDQ=="
            }
          },
          {
            "validator_address": "1751786EFC085D5331C61168FFFC8202EA151B4E",
            "validator_index": "9",
            "height": "9358",
            "round": "1",
            "timestamp": "2018-07-30T21:29:56.640338612Z",
            "type": 2,
            "block_id": {
              "hash": "B0518BB727E5E5521358FE74119485BD4E430EC6",
              "parts": {
                "total": "1",
                "hash": "6CE90774051FD8A9C4C9F7D7614840FB00F1D0ED"
              }
            },
            "signature": {
              "type": "tendermint/SignatureEd25519",
              "value": "D3WXpM2wEb6hR4SM9XfuYJDxQ3oUBT4rqCuhQjZU+665WJUjB3NN9lDlkjKOFHlFtuSGlH9ZsLU7giCTOvu8DQ=="
            }
          },
          {
            "validator_address": "17BB5CD01E8940FAFB948A04D5FA5A0645E5822E",
            "validator_index": "10",
            "height": "9358",
            "round": "1",
            "timestamp": "2018-07-30T21:29:57.366771147Z",
            "type": 2,
            "block_id": {
              "hash": "B0518BB727E5E5521358FE74119485BD4E430EC6",
              "parts": {
                "total": "1",
                "hash": "6CE90774051FD8A9C4C9F7D7614840FB00F1D0ED"
              }
            },
            "signature": {
              "type": "tendermint/SignatureEd25519",
              "value": "1W37ZB6StMo/Buu7N45ZTSArS6k6+Nz3P2KJmcOZ95a40P52306wIh3l5TvraeB77SDmvAUEcmkZqp6ZlkmgDA=="
            }
          },
          {
            "validator_address": "1C683A87904BC38F05004FE83301A3A3E35447EB",
            "validator_index": "11",
            "height": "9358",
            "round": "1",
            "timestamp": "2018-07-30T21:29:57.350498879Z",
            "type": 2,
            "block_id": {
              "hash": "B0518BB727E5E5521358FE74119485BD4E430EC6",
              "parts": {
                "total": "1",
                "hash": "6CE90774051FD8A9C4C9F7D7614840FB00F1D0ED"
              }
            },
            "signature": {
              "type": "tendermint/SignatureEd25519",
              "value": "ybZdHwahEkfkZcFY4AAg09IKwxPAyvD0dNDg8GbjABP2iEYM34I3EIaOR4aCS6l/hMoktPLdLIw7WjIaBW7EDw=="
            }
          },
          {
            "validator_address": "1E9CE94FD0BA5CFEB901F90BC658D64D85B134D2",
            "validator_index": "12",
            "height": "9358",
            "round": "1",
            "timestamp": "2018-07-30T21:29:57.375262821Z",
            "type": 2,
            "block_id": {
              "hash": "B0518BB727E5E5521358FE74119485BD4E430EC6",
              "parts": {
                "total": "1",
                "hash": "6CE90774051FD8A9C4C9F7D7614840FB00F1D0ED"
              }
            },
            "signature": {
              "type": "tendermint/SignatureEd25519",
              "value": "OHt/ckhejt6jdaKBCb0s9oc2LcvC2X/0CpZLYctgYmR1Uy1KTe1+qF1z5NFyWMlIE8Us4cyjjkNFd3Lkz9fOBQ=="
            }
          },
          {
            "validator_address": "1ECD8C5FE1341D74CDC633A245DD56858DE2F9A2",
            "validator_index": "13",
            "height": "9358",
            "round": "1",
            "timestamp": "2018-07-30T21:29:57.465490013Z",
            "type": 2,
            "block_id": {
              "hash": "B0518BB727E5E5521358FE74119485BD4E430EC6",
              "parts": {
                "total": "1",
                "hash": "6CE90774051FD8A9C4C9F7D7614840FB00F1D0ED"
              }
            },
            "signature": {
              "type": "tendermint/SignatureEd25519",
              "value": "XbYCO8hUNmBXc0FUKz/r8afRBKDaNR2brLUhekqXeYRbfaxc3zYPcwj+UXbhUQXQeEsnWd/1/OrjHXol6srmDw=="
            }
          },
          {
            "validator_address": "1F3A68CAAD483768AA2BF667DEF10F7104C89928",
            "validator_index": "14",
            "height": "9358",
            "round": "1",
            "timestamp": "2018-07-30T21:29:57.369436849Z",
            "type": 2,
            "block_id": {
              "hash": "B0518BB727E5E5521358FE74119485BD4E430EC6",
              "parts": {
                "total": "1",
                "hash": "6CE90774051FD8A9C4C9F7D7614840FB00F1D0ED"
              }
            },
            "signature": {
              "type": "tendermint/SignatureEd25519",
              "value": "nX3P9MNE0aRweKlx2ZoUcuUcXvrYOYuHjhXxI2/xc6idl8Mjm8gsAA6lKgvHEFT6JenpSsdMH/iWKXYWaSCTAg=="
            }
          },
          null,
          {
            "validator_address": "23897586D68E2AC1C78E0EF5BB5DF5C8EAB18F50",
            "validator_index": "16",
            "height": "9358",
            "round": "1",
            "timestamp": "2018-07-30T21:29:57.378523381Z",
            "type": 2,
            "block_id": {
              "hash": "B0518BB727E5E5521358FE74119485BD4E430EC6",
              "parts": {
                "total": "1",
                "hash": "6CE90774051FD8A9C4C9F7D7614840FB00F1D0ED"
              }
            },
            "signature": {
              "type": "tendermint/SignatureEd25519",
              "value": "+kEkd0xqsFD6uww0ubuA73NzGTRidW8QxvRh6pAJ4NRW30nPAvDO8uaIyMJ2N154WOkpVTpFAdXv1ErEl8QiCw=="
            }
          },
          {
            "validator_address": "28770D17E8530825E7310A0659308654B7EC9682",
            "validator_index": "17",
            "height": "9358",
            "round": "1",
            "timestamp": "2018-07-30T21:29:57.353537319Z",
            "type": 2,
            "block_id": {
              "hash": "B0518BB727E5E5521358FE74119485BD4E430EC6",
              "parts": {
                "total": "1",
                "hash": "6CE90774051FD8A9C4C9F7D7614840FB00F1D0ED"
              }
            },
            "signature": {
              "type": "tendermint/SignatureEd25519",
              "value": "jVZ/uZCYsG8qSOeVM72EPwBvgjdfEWP8fBIkay9/szaJ1jhTtmZbbvYViy64hLJWdT9L13e2X+pdK8Bh7sPQCA=="
            }
          },
          null,
          {
            "validator_address": "2A92EC3C642140202298D0E245095E0ECFC25228",
            "validator_index": "19",
            "height": "9358",
            "round": "1",
            "timestamp": "2018-07-30T21:29:57.414988123Z",
            "type": 2,
            "block_id": {
              "hash": "B0518BB727E5E5521358FE74119485BD4E430EC6",
              "parts": {
                "total": "1",
                "hash": "6CE90774051FD8A9C4C9F7D7614840FB00F1D0ED"
              }
            },
            "signature": {
              "type": "tendermint/SignatureEd25519",
              "value": "VHBy0RhPTu5UFrN4QEkWnssoh0thgqRvQlajrfmpn7JUrBQNTjZF+AsxztkQpZhqg1psCwW+KykigQFHuARUDw=="
            }
          },
          null,
          null,
          {
            "validator_address": "33412C9A69C60CB0FAA24A5C5B3A906DE24B47C2",
            "validator_index": "22",
            "height": "9358",
            "round": "1",
            "timestamp": "2018-07-30T21:29:57.310526918Z",
            "type": 2,
            "block_id": {
              "hash": "B0518BB727E5E5521358FE74119485BD4E430EC6",
              "parts": {
                "total": "1",
                "hash": "6CE90774051FD8A9C4C9F7D7614840FB00F1D0ED"
              }
            },
            "signature": {
              "type": "tendermint/SignatureEd25519",
              "value": "/etK7ns0kYqCuuRbLlULoUeDV9sRAFKhhjqTefPVPPiL1pxXHzZcLgw9GktlOOgJdx+MMQ0tBcXRrHpuBtRqCw=="
            }
          },
          null,
          {
            "validator_address": "36E9B7FAEC964F97D84C028ED62493E373AD0B38",
            "validator_index": "24",
            "height": "9358",
            "round": "1",
            "timestamp": "2018-07-30T21:29:57.42738399Z",
            "type": 2,
            "block_id": {
              "hash": "B0518BB727E5E5521358FE74119485BD4E430EC6",
              "parts": {
                "total": "1",
                "hash": "6CE90774051FD8A9C4C9F7D7614840FB00F1D0ED"
              }
            },
            "signature": {
              "type": "tendermint/SignatureEd25519",
              "value": "8jG3rqUyTZzRjro6eQsN+5wwO/ncRU2xu4FAdHwYBK9+wjSc5DV4MwDG7bZMpN282Ux/hAZv4PvExK5+NPN5DQ=="
            }
          },
          {
            "validator_address": "38A8D85D36BEA2E5FCF8A1E778F53628E450EF13",
            "validator_index": "25",
            "height": "9358",
            "round": "1",
            "timestamp": "2018-07-30T21:29:57.460457053Z",
            "type": 2,
            "block_id": {
              "hash": "B0518BB727E5E5521358FE74119485BD4E430EC6",
              "parts": {
                "total": "1",
                "hash": "6CE90774051FD8A9C4C9F7D7614840FB00F1D0ED"
              }
            },
            "signature": {
              "type": "tendermint/SignatureEd25519",
              "value": "bS0rObamSYfMnk4Sj+Mk8f3mbmiKhdbwX2LM1++JPyGHiGnG6WaF/jJ0ROZTFjrxyIJ0RSsTtUZJcru5xBw/Ag=="
            }
          },
          {
            "validator_address": "39DFDA0C5DB84B269642188B23253508537798E6",
            "validator_index": "26",
            "height": "9358",
            "round": "1",
            "timestamp": "2018-07-30T21:29:57.359759023Z",
            "type": 2,
            "block_id": {
              "hash": "B0518BB727E5E5521358FE74119485BD4E430EC6",
              "parts": {
                "total": "1",
                "hash": "6CE90774051FD8A9C4C9F7D7614840FB00F1D0ED"
              }
            },
            "signature": {
              "type": "tendermint/SignatureEd25519",
              "value": "169DeANu70WKvgYASPdTfibdG82F7Na7ANZ/F1tFL57TEzYLYoY6wH+cVOCK1YbSWtaJmWOb7uV6ugTC4ALrCA=="
            }
          },
          {
            "validator_address": "3AC99B708404452366E0953A4BE849226DC86CBC",
            "validator_index": "27",
            "height": "9358",
            "round": "1",
            "timestamp": "2018-07-30T21:29:57.421129845Z",
            "type": 2,
            "block_id": {
              "hash": "B0518BB727E5E5521358FE74119485BD4E430EC6",
              "parts": {
                "total": "1",
                "hash": "6CE90774051FD8A9C4C9F7D7614840FB00F1D0ED"
              }
            },
            "signature": {
              "type": "tendermint/SignatureEd25519",
              "value": "cZO8Zv70ki/ypamT/0AihnPG/gSOeUfENqwwQln1ZgqlsUngTd/MfVZGt9ukHDN/ddH9grds6xlkDIU4YQFOCQ=="
            }
          },
          {
            "validator_address": "3DCB822A10ED319EC7C4393D8E3FD4A41B15AAF2",
            "validator_index": "28",
            "height": "9358",
            "round": "1",
            "timestamp": "2018-07-30T21:29:57.337693505Z",
            "type": 2,
            "block_id": {
              "hash": "B0518BB727E5E5521358FE74119485BD4E430EC6",
              "parts": {
                "total": "1",
                "hash": "6CE90774051FD8A9C4C9F7D7614840FB00F1D0ED"
              }
            },
            "signature": {
              "type": "tendermint/SignatureEd25519",
              "value": "ptm67OlnXAA3Qn1Hq+JOMD5eODgRm0W3fgZVBNir/SwPQrcK/9ZrsGO7uDcKMSI7SHsmj7bYoS70ttE3ayKvDw=="
            }
          },
          {
            "validator_address": "3E899BA36A93C7370347BD5FE85909F2ECD93F8C",
            "validator_index": "29",
            "height": "9358",
            "round": "1",
            "timestamp": "2018-07-30T21:29:57.392190459Z",
            "type": 2,
            "block_id": {
              "hash": "B0518BB727E5E5521358FE74119485BD4E430EC6",
              "parts": {
                "total": "1",
                "hash": "6CE90774051FD8A9C4C9F7D7614840FB00F1D0ED"
              }
            },
            "signature": {
              "type": "tendermint/SignatureEd25519",
              "value": "HYirAAZEmMkx8CL7G13N1DvlPjzjStaRH5Lzchmg9NMMqG24AMhPW5RoEIDowwjO8zjXQ2JutkaWkQFkdXzxCA=="
            }
          },
          {
            "validator_address": "41CAB2E29E7D0F2282E3275938F188FF9386B84C",
            "validator_index": "30",
            "height": "9358",
            "round": "1",
            "timestamp": "2018-07-30T21:29:57.390645684Z",
            "type": 2,
            "block_id": {
              "hash": "B0518BB727E5E5521358FE74119485BD4E430EC6",
              "parts": {
                "total": "1",
                "hash": "6CE90774051FD8A9C4C9F7D7614840FB00F1D0ED"
              }
            },
            "signature": {
              "type": "tendermint/SignatureEd25519",
              "value": "rGcpEaz+jV0aKQdXaErT6/mvCjzWHpgVPe78KQSde5qVKsXn0Tggjsi9JKaHit0vgLHmGuElb46380poBNtIBg=="
            }
          },
          {
            "validator_address": "462B656869DB02A8FD1077E255F8CC7401DC37C6",
            "validator_index": "31",
            "height": "9358",
            "round": "1",
            "timestamp": "2018-07-30T21:29:57.375500579Z",
            "type": 2,
            "block_id": {
              "hash": "B0518BB727E5E5521358FE74119485BD4E430EC6",
              "parts": {
                "total": "1",
                "hash": "6CE90774051FD8A9C4C9F7D7614840FB00F1D0ED"
              }
            },
            "signature": {
              "type": "tendermint/SignatureEd25519",
              "value": "Rp29QvxxRgLIWvf9Ope7SpW5nKSxKtGwJKoBfQoRknXYMQMzpuSqGqKjbrY3MPK1vgS5NVjKjrQpi19zpMSBCw=="
            }
          },
          {
            "validator_address": "48E5118163E5442068A1B5A42D2EEDBB75724935",
            "validator_index": "32",
            "height": "9358",
            "round": "1",
            "timestamp": "2018-07-30T21:29:57.50384789Z",
            "type": 2,
            "block_id": {
              "hash": "B0518BB727E5E5521358FE74119485BD4E430EC6",
              "parts": {
                "total": "1",
                "hash": "6CE90774051FD8A9C4C9F7D7614840FB00F1D0ED"
              }
            },
            "signature": {
              "type": "tendermint/SignatureEd25519",
              "value": "97SPNyi3y4tPpS6GyWk3v2ZVGqmqcd+9aB3wSNLJ70qDP0ROE2P1qIEWzGgTpMoUMElsHSDXL40RiFsnYSFABQ=="
            }
          },
          null,
          {
            "validator_address": "4944F8BBBB5303E17BC0607DF332320EDBC750EA",
            "validator_index": "34",
            "height": "9358",
            "round": "1",
            "timestamp": "2018-07-30T21:29:57.334204141Z",
            "type": 2,
            "block_id": {
              "hash": "B0518BB727E5E5521358FE74119485BD4E430EC6",
              "parts": {
                "total": "1",
                "hash": "6CE90774051FD8A9C4C9F7D7614840FB00F1D0ED"
              }
            },
            "signature": {
              "type": "tendermint/SignatureEd25519",
              "value": "MMAoHQ+knX0RoDtfMqzJNsgyl/d6OVIxQVjq1lO8ab4O9pLb/LMfsy+YluZUz9emkWWpSdkwlVSkG3QD3z4EDQ=="
            }
          },
          {
            "validator_address": "49841599DE675157CBE1E7D6B35BF8FFC23BD5CB",
            "validator_index": "35",
            "height": "9358",
            "round": "1",
            "timestamp": "2018-07-30T21:29:57.324112447Z",
            "type": 2,
            "block_id": {
              "hash": "B0518BB727E5E5521358FE74119485BD4E430EC6",
              "parts": {
                "total": "1",
                "hash": "6CE90774051FD8A9C4C9F7D7614840FB00F1D0ED"
              }
            },
            "signature": {
              "type": "tendermint/SignatureEd25519",
              "value": "p257LXVFXgRvfJRcGNwOZbg/NU9mW0SDmTV9dBtRCLjHjkNUxO4uAkyAOEaLiEn/LbqOL1tmHn6Rvwq9IaepBw=="
            }
          },
          {
            "validator_address": "5104F488EA6B1E2C33CBDA3C18389C88104DBC72",
            "validator_index": "36",
            "height": "9358",
            "round": "1",
            "timestamp": "2018-07-30T21:29:57.35376742Z",
            "type": 2,
            "block_id": {
              "hash": "B0518BB727E5E5521358FE74119485BD4E430EC6",
              "parts": {
                "total": "1",
                "hash": "6CE90774051FD8A9C4C9F7D7614840FB00F1D0ED"
              }
            },
            "signature": {
              "type": "tendermint/SignatureEd25519",
              "value": "n33t8YPAZgdTWkThAHV/zGctLu/gjr4ZVggx3eY7SJJ60TDW6i5KeKwPpJkDr8zUu7KqVu7TWX1zex9l3xSzBA=="
            }
          },
          {
            "validator_address": "51386C2CF9556821D114D7E4945806802BADB28D",
            "validator_index": "37",
            "height": "9358",
            "round": "1",
            "timestamp": "2018-07-30T21:29:57.372118261Z",
            "type": 2,
            "block_id": {
              "hash": "B0518BB727E5E5521358FE74119485BD4E430EC6",
              "parts": {
                "total": "1",
                "hash": "6CE90774051FD8A9C4C9F7D7614840FB00F1D0ED"
              }
            },
            "signature": {
              "type": "tendermint/SignatureEd25519",
              "value": "wZ6uLRrW5z3I+9plpYsmU41gA5ISDQDNpZoiBnhQWCGI/5mLokaQYt6Pk39qaL45F7disH8spYzn+J5wAJqODA=="
            }
          },
          {
            "validator_address": "543564ECA3AFEFADC73EE8591AAC3A96F079BC8A",
            "validator_index": "38",
            "height": "9358",
            "round": "1",
            "timestamp": "2018-07-30T21:29:57.267787166Z",
            "type": 2,
            "block_id": {
              "hash": "B0518BB727E5E5521358FE74119485BD4E430EC6",
              "parts": {
                "total": "1",
                "hash": "6CE90774051FD8A9C4C9F7D7614840FB00F1D0ED"
              }
            },
            "signature": {
              "type": "tendermint/SignatureEd25519",
              "value": "Mols09zdbOkxcCWcsflQL6mAO5bXCgHhak9y6T3b1tywSaUVmro37T+Nlg0R6ucaXSLYaiHgJwiz0W0qWeGYBA=="
            }
          },
          {
            "validator_address": "55D67B1A6DC13E96F8754A5A42EABC20F7F86664",
            "validator_index": "39",
            "height": "9358",
            "round": "1",
            "timestamp": "2018-07-30T21:29:57.339620317Z",
            "type": 2,
            "block_id": {
              "hash": "B0518BB727E5E5521358FE74119485BD4E430EC6",
              "parts": {
                "total": "1",
                "hash": "6CE90774051FD8A9C4C9F7D7614840FB00F1D0ED"
              }
            },
            "signature": {
              "type": "tendermint/SignatureEd25519",
              "value": "+DPMix+MmaSOn4JGXzIrWQyZpojJp77CazrONuGg94kKKpIopgxQxAiFU+nhgTXK+NYzyIGqB2L6/L7E7wnOAg=="
            }
          },
          {
            "validator_address": "570B6A755ED339EAC56BB3390A48069F6AC9449B",
            "validator_index": "40",
            "height": "9358",
            "round": "1",
            "timestamp": "2018-07-30T21:29:58.623552605Z",
            "type": 2,
            "block_id": {
              "hash": "B0518BB727E5E5521358FE74119485BD4E430EC6",
              "parts": {
                "total": "1",
                "hash": "6CE90774051FD8A9C4C9F7D7614840FB00F1D0ED"
              }
            },
            "signature": {
              "type": "tendermint/SignatureEd25519",
              "value": "cXB7AvtIrAbB/xr4hAuIdPES/aV8JW1z4Jv0uDjubWqLzC1OieV8JqvrN1+BdhwhA0yozLeLmiXZbRIjhOmWBA=="
            }
          },
          {
            "validator_address": "5BDF8EA41B1835FBAD865B181A2A4B23F511B5E4",
            "validator_index": "41",
            "height": "9358",
            "round": "1",
            "timestamp": "2018-07-30T21:29:57.293816335Z",
            "type": 2,
            "block_id": {
              "hash": "B0518BB727E5E5521358FE74119485BD4E430EC6",
              "parts": {
                "total": "1",
                "hash": "6CE90774051FD8A9C4C9F7D7614840FB00F1D0ED"
              }
            },
            "signature": {
              "type": "tendermint/SignatureEd25519",
              "value": "rXRc2ugz5Oia+Bk5GxwBkoqr7TM/tA9kX80wi/K7QCkz8lK1uBj8QFsI+FwlJ6xGZ2qFH1vA/vRV7XO5zHn0Bg=="
            }
          },
          null,
          null,
          {
            "validator_address": "60229E2E273297FE00219E46DFFB8F76844CDEF9",
            "validator_index": "44",
            "height": "9358",
            "round": "1",
            "timestamp": "2018-07-30T21:29:56.570701853Z",
            "type": 2,
            "block_id": {
              "hash": "B0518BB727E5E5521358FE74119485BD4E430EC6",
              "parts": {
                "total": "1",
                "hash": "6CE90774051FD8A9C4C9F7D7614840FB00F1D0ED"
              }
            },
            "signature": {
              "type": "tendermint/SignatureEd25519",
              "value": "RpGoj2Z+KMpoikRr8Ustf1b1fw9L8Pp145N7twGbo6+GU5/mrGTX2PkEmR85jn7OFDkAHElNxMG9viz6V05pDg=="
            }
          },
          {
            "validator_address": "62410D6D1CD98278136E4D0738AA0EA273CDFC54",
            "validator_index": "45",
            "height": "9358",
            "round": "1",
            "timestamp": "2018-07-30T21:29:57.315889391Z",
            "type": 2,
            "block_id": {
              "hash": "B0518BB727E5E5521358FE74119485BD4E430EC6",
              "parts": {
                "total": "1",
                "hash": "6CE90774051FD8A9C4C9F7D7614840FB00F1D0ED"
              }
            },
            "signature": {
              "type": "tendermint/SignatureEd25519",
              "value": "wdMIypAFDRtUIitcFMPizAypDKisM/J6DtN9c1FwrQp+aDQ1PtOKUF+p314PChN2PnB1EIIVi0vigHO3IzQVDA=="
            }
          },
          {
            "validator_address": "632F5C139A5A9DFBFE5111DEE29FCFB6157207DC",
            "validator_index": "46",
            "height": "9358",
            "round": "1",
            "timestamp": "2018-07-30T21:29:57.393713127Z",
            "type": 2,
            "block_id": {
              "hash": "B0518BB727E5E5521358FE74119485BD4E430EC6",
              "parts": {
                "total": "1",
                "hash": "6CE90774051FD8A9C4C9F7D7614840FB00F1D0ED"
              }
            },
            "signature": {
              "type": "tendermint/SignatureEd25519",
              "value": "8mX0uCxyL0Z/jFVr7HGO0TKtxlamEBqomkH3UqKsH2tRx7UkCgKPp7Oll7NoQ8ia2h4G802SS4oA3OWyoBZ9DA=="
            }
          },
          {
            "validator_address": "64F57F8E796A9B7B590C1EFA4123988C86631D39",
            "validator_index": "47",
            "height": "9358",
            "round": "1",
            "timestamp": "2018-07-30T21:29:57.345861106Z",
            "type": 2,
            "block_id": {
              "hash": "B0518BB727E5E5521358FE74119485BD4E430EC6",
              "parts": {
                "total": "1",
                "hash": "6CE90774051FD8A9C4C9F7D7614840FB00F1D0ED"
              }
            },
            "signature": {
              "type": "tendermint/SignatureEd25519",
              "value": "jY5NMh7yt2ikCg7yEGkrEt4yKKOcKvzaHSnn7Hhxopfzxoqc4trMW1Rpb441KWuGHLVDES8bAUeZZ41rOE2iAA=="
            }
          },
          {
            "validator_address": "69D99B2C66043ACBEAA8447525C356AFC6408E0C",
            "validator_index": "48",
            "height": "9358",
            "round": "1",
            "timestamp": "2018-07-30T21:29:57.397789721Z",
            "type": 2,
            "block_id": {
              "hash": "B0518BB727E5E5521358FE74119485BD4E430EC6",
              "parts": {
                "total": "1",
                "hash": "6CE90774051FD8A9C4C9F7D7614840FB00F1D0ED"
              }
            },
            "signature": {
              "type": "tendermint/SignatureEd25519",
              "value": "EHERaQbka2u8rjSYoCdOolYlG7vzfdvUcwumz3fEB07SKp/kIRHvsLSTMbFun/uTCdpuDNuFrQetC332QpYoCA=="
            }
          },
          {
            "validator_address": "69EDADFA4A803E9DBF548C900D4A465E7D154262",
            "validator_index": "49",
            "height": "9358",
            "round": "1",
            "timestamp": "2018-07-30T21:29:57.479375936Z",
            "type": 2,
            "block_id": {
              "hash": "B0518BB727E5E5521358FE74119485BD4E430EC6",
              "parts": {
                "total": "1",
                "hash": "6CE90774051FD8A9C4C9F7D7614840FB00F1D0ED"
              }
            },
            "signature": {
              "type": "tendermint/SignatureEd25519",
              "value": "nKjNE8gy0EYeYLdF2iUo5VEYJ244iDD5JY0C+IJi8oVUcw3a5YULFpzRuzuikE+GU62mXVsy8joRIvKVM0NBAQ=="
            }
          },
          {
            "validator_address": "6D3AD380E398D8592B03AA124BAFED5F125DF863",
            "validator_index": "50",
            "height": "9358",
            "round": "1",
            "timestamp": "2018-07-30T21:28:55.704876148Z",
            "type": 2,
            "block_id": {
              "hash": "B0518BB727E5E5521358FE74119485BD4E430EC6",
              "parts": {
                "total": "1",
                "hash": "6CE90774051FD8A9C4C9F7D7614840FB00F1D0ED"
              }
            },
            "signature": {
              "type": "tendermint/SignatureEd25519",
              "value": "kYf8lxbmVPjUBCIQoUzH+LgwFqHbdkDHe1y9BK5x/WDyZB77c4EgTJ5ZMfhEKk4NdockGLwZWRv0VNdXtALfCg=="
            }
          },
          {
            "validator_address": "6F6C93B8BF3495063FEC9B5C771158607F4AE9D6",
            "validator_index": "51",
            "height": "9358",
            "round": "1",
            "timestamp": "2018-07-30T21:29:57.368509371Z",
            "type": 2,
            "block_id": {
              "hash": "B0518BB727E5E5521358FE74119485BD4E430EC6",
              "parts": {
                "total": "1",
                "hash": "6CE90774051FD8A9C4C9F7D7614840FB00F1D0ED"
              }
            },
            "signature": {
              "type": "tendermint/SignatureEd25519",
              "value": "OkeHWyRzN83tV9Bi55C35A96DfF01Woc0Kn7hD5KPLFkKv0CPe3JkUyUKYWFXF/PVDK89yOmz9np8i2lgzzMBw=="
            }
          },
          {
            "validator_address": "732CEEF54C374DDC6ADECBFD707AEFD07FEDC143",
            "validator_index": "52",
            "height": "9358",
            "round": "1",
            "timestamp": "2018-07-30T21:29:57.429295602Z",
            "type": 2,
            "block_id": {
              "hash": "B0518BB727E5E5521358FE74119485BD4E430EC6",
              "parts": {
                "total": "1",
                "hash": "6CE90774051FD8A9C4C9F7D7614840FB00F1D0ED"
              }
            },
            "signature": {
              "type": "tendermint/SignatureEd25519",
              "value": "j7Ji/LVjQG8pwnX884Los4ueJWNqUD5I1kIzr5/lNwA3xRmvGMcbHE2sP/SQbKiw/TJLv/N4basmlKFRuoVKDw=="
            }
          },
          {
            "validator_address": "7393D691BFAE9661918C09932D4D9060AB40939B",
            "validator_index": "53",
            "height": "9358",
            "round": "1",
            "timestamp": "2018-07-30T21:29:57.508771796Z",
            "type": 2,
            "block_id": {
              "hash": "B0518BB727E5E5521358FE74119485BD4E430EC6",
              "parts": {
                "total": "1",
                "hash": "6CE90774051FD8A9C4C9F7D7614840FB00F1D0ED"
              }
            },
            "signature": {
              "type": "tendermint/SignatureEd25519",
              "value": "cg8RQ+XP9FVdYIdwGzwouXYFIY6e1UI24cmoJYRePibtIdtL1j5MAmwJQg/5eQIbd92N53fJU4AhEX0Qb1r2Bw=="
            }
          },
          {
            "validator_address": "751E43437224E8BB6D1569B3E2B2616B6E7F4397",
            "validator_index": "54",
            "height": "9358",
            "round": "1",
            "timestamp": "2018-07-30T21:29:57.346785088Z",
            "type": 2,
            "block_id": {
              "hash": "B0518BB727E5E5521358FE74119485BD4E430EC6",
              "parts": {
                "total": "1",
                "hash": "6CE90774051FD8A9C4C9F7D7614840FB00F1D0ED"
              }
            },
            "signature": {
              "type": "tendermint/SignatureEd25519",
              "value": "DdsqcKzHBpXP8P3XfhgWWd9z6uUbHEAygDuTF5eMpGwFET97FqIxKydGeFnDyBUB/ESRioAXm7Za7ygrjpIUCQ=="
            }
          },
          {
            "validator_address": "7EB7593F519F1180C7E872D0494611464EDF03AE",
            "validator_index": "55",
            "height": "9358",
            "round": "1",
            "timestamp": "2018-07-30T21:29:57.38331674Z",
            "type": 2,
            "block_id": {
              "hash": "B0518BB727E5E5521358FE74119485BD4E430EC6",
              "parts": {
                "total": "1",
                "hash": "6CE90774051FD8A9C4C9F7D7614840FB00F1D0ED"
              }
            },
            "signature": {
              "type": "tendermint/SignatureEd25519",
              "value": "KYZ/CAxqUSmD4gc4rgu069iuwCtDW5NLISBlw0YHnPd255yqRD9otvcwDpboV41afah0SXWetDfmIPaw7ap3AQ=="
            }
          },
          {
            "validator_address": "807CF675BA8479FC4FEC1047215DF07970040F1F",
            "validator_index": "56",
            "height": "9358",
            "round": "1",
            "timestamp": "2018-07-30T21:29:57.755828165Z",
            "type": 2,
            "block_id": {
              "hash": "B0518BB727E5E5521358FE74119485BD4E430EC6",
              "parts": {
                "total": "1",
                "hash": "6CE90774051FD8A9C4C9F7D7614840FB00F1D0ED"
              }
            },
            "signature": {
              "type": "tendermint/SignatureEd25519",
              "value": "wNl07TSVX3/dSVFaporzTrtAY7Ri6yZIuEIPKXmP4UHpOMqgKwwVhgn3BqlcCFngUxgBZh6xizHKBBpdo1weDw=="
            }
          },
          {
            "validator_address": "8126192EA66E8ADE6B36924534721366B987A4C1",
            "validator_index": "57",
            "height": "9358",
            "round": "1",
            "timestamp": "2018-07-30T21:29:57.354543744Z",
            "type": 2,
            "block_id": {
              "hash": "B0518BB727E5E5521358FE74119485BD4E430EC6",
              "parts": {
                "total": "1",
                "hash": "6CE90774051FD8A9C4C9F7D7614840FB00F1D0ED"
              }
            },
            "signature": {
              "type": "tendermint/SignatureEd25519",
              "value": "FYi6Phb54C5vyKXmGL3gP8CzZhMRCeylkuJ4xsRizAOqCR+Z3YaDGhBE1N5rSM2/s5VSbpHdtoeCTb9blPrnCQ=="
            }
          },
          null,
          {
            "validator_address": "83AB321E012C57746689FED3A6064DF331F81007",
            "validator_index": "59",
            "height": "9358",
            "round": "1",
            "timestamp": "2018-07-30T21:29:57.328538001Z",
            "type": 2,
            "block_id": {
              "hash": "B0518BB727E5E5521358FE74119485BD4E430EC6",
              "parts": {
                "total": "1",
                "hash": "6CE90774051FD8A9C4C9F7D7614840FB00F1D0ED"
              }
            },
            "signature": {
              "type": "tendermint/SignatureEd25519",
              "value": "4mYtO0cpRHq6f1n7cbgrDGQOrUQET7ZDJzgHVlIhkXT2Lb+gZPq6WsYUsssnU4I2eQJdKlf11oGLrPwZTdG6Cg=="
            }
          },
          {
            "validator_address": "83BB1B88D3DBB20AD845FECA07749EBD87D3754D",
            "validator_index": "60",
            "height": "9358",
            "round": "1",
            "timestamp": "2018-07-30T21:29:57.516449959Z",
            "type": 2,
            "block_id": {
              "hash": "B0518BB727E5E5521358FE74119485BD4E430EC6",
              "parts": {
                "total": "1",
                "hash": "6CE90774051FD8A9C4C9F7D7614840FB00F1D0ED"
              }
            },
            "signature": {
              "type": "tendermint/SignatureEd25519",
              "value": "pIK4GWJ3C+/dqbo3qIX/u9u6lGTVrmMQtTvb+bZJTKNsKL3/twoqLPbsossmzJy7IEU8T7v7Z2IG7fd64OWNBQ=="
            }
          },
          null,
          {
            "validator_address": "8F06FE1FD042683C426137FBC4BBAA4288924217",
            "validator_index": "62",
            "height": "9358",
            "round": "1",
            "timestamp": "2018-07-30T21:29:57.408559575Z",
            "type": 2,
            "block_id": {
              "hash": "B0518BB727E5E5521358FE74119485BD4E430EC6",
              "parts": {
                "total": "1",
                "hash": "6CE90774051FD8A9C4C9F7D7614840FB00F1D0ED"
              }
            },
            "signature": {
              "type": "tendermint/SignatureEd25519",
              "value": "R1aMdViqCC8GDKvIujTIweGxW0dl26O47plY6SkB/GSL7B0WWTU9vnh+1k1dfDOmrXnSJOz/3zLWp4g9kUaUBg=="
            }
          },
          {
            "validator_address": "8F45617BF45B10A3F8283DEBDB35E38C7CA43237",
            "validator_index": "63",
            "height": "9358",
            "round": "1",
            "timestamp": "2018-07-30T21:29:57.378204483Z",
            "type": 2,
            "block_id": {
              "hash": "B0518BB727E5E5521358FE74119485BD4E430EC6",
              "parts": {
                "total": "1",
                "hash": "6CE90774051FD8A9C4C9F7D7614840FB00F1D0ED"
              }
            },
            "signature": {
              "type": "tendermint/SignatureEd25519",
              "value": "FhpAryHcXZGQpdM4MNCEFxVW3iU5NSl8blRK3+9gBSIg8IuxMWbBeK/AfLOEZ9UfSSX3Ikd64AK1Dfh7Tc0YBQ=="
            }
          },
          null,
          {
            "validator_address": "95980831E186F2540F6E9FB6C8E74DE2401405AC",
            "validator_index": "65",
            "height": "9358",
            "round": "1",
            "timestamp": "2018-07-30T21:29:57.407084179Z",
            "type": 2,
            "block_id": {
              "hash": "B0518BB727E5E5521358FE74119485BD4E430EC6",
              "parts": {
                "total": "1",
                "hash": "6CE90774051FD8A9C4C9F7D7614840FB00F1D0ED"
              }
            },
            "signature": {
              "type": "tendermint/SignatureEd25519",
              "value": "lYS9uGbsiUU1efBCQkonoGBxktA3Z57zwWwY5xbrSugN1CNM0XPl7bWGKo35vQZygcD4q1AxWV/pmvBJN8+CAg=="
            }
          },
          {
            "validator_address": "95FAFBC1E0579C83D290A063020CE87C5334BD9B",
            "validator_index": "66",
            "height": "9358",
            "round": "1",
            "timestamp": "2018-07-30T21:29:57.412569653Z",
            "type": 2,
            "block_id": {
              "hash": "B0518BB727E5E5521358FE74119485BD4E430EC6",
              "parts": {
                "total": "1",
                "hash": "6CE90774051FD8A9C4C9F7D7614840FB00F1D0ED"
              }
            },
            "signature": {
              "type": "tendermint/SignatureEd25519",
              "value": "5lEnrckAcfpbkiLEY2BPZSQs+v1elyYdCSX1VV7OyD2+Gy6m2J4tu/PGVdoq6B1zhjJaEMT2sRGjUSBwsvSGBQ=="
            }
          },
          {
            "validator_address": "96BDE45EC52606CF5CB59853097871AD60680549",
            "validator_index": "67",
            "height": "9358",
            "round": "1",
            "timestamp": "2018-07-30T21:29:57.393752687Z",
            "type": 2,
            "block_id": {
              "hash": "B0518BB727E5E5521358FE74119485BD4E430EC6",
              "parts": {
                "total": "1",
                "hash": "6CE90774051FD8A9C4C9F7D7614840FB00F1D0ED"
              }
            },
            "signature": {
              "type": "tendermint/SignatureEd25519",
              "value": "9hNbQf+h4SSUioCSoLMObKzGwcFNMyq61a2lSvc2bDuBdpWykr5WLQ8vG1sYgOUysfa5PBgo/NH0kp2uw+tUCA=="
            }
          },
          {
            "validator_address": "970CD321881185BF83DB2923C321B0E75FDBB2B8",
            "validator_index": "68",
            "height": "9358",
            "round": "1",
            "timestamp": "2018-07-30T21:29:57.371762236Z",
            "type": 2,
            "block_id": {
              "hash": "B0518BB727E5E5521358FE74119485BD4E430EC6",
              "parts": {
                "total": "1",
                "hash": "6CE90774051FD8A9C4C9F7D7614840FB00F1D0ED"
              }
            },
            "signature": {
              "type": "tendermint/SignatureEd25519",
              "value": "FVFhP771IlNWAo702XwgCU+mYFRsmk5sLoV+8pXbvTFRwC17kurBrXJ/bGlre9wo3U+xDY2tcUVh70mpsNsaDA=="
            }
          },
          null,
          {
            "validator_address": "9C29C9B76D27586E4D9AD2AED0E943162645E55C",
            "validator_index": "70",
            "height": "9358",
            "round": "1",
            "timestamp": "2018-07-30T21:29:57.287385768Z",
            "type": 2,
            "block_id": {
              "hash": "B0518BB727E5E5521358FE74119485BD4E430EC6",
              "parts": {
                "total": "1",
                "hash": "6CE90774051FD8A9C4C9F7D7614840FB00F1D0ED"
              }
            },
            "signature": {
              "type": "tendermint/SignatureEd25519",
              "value": "uMSIbzesTPC2RBhOJzfZHCl5U7yn7hjZgLFbujT0RwIa0KXHMU+bqcS8XYQgaXC9cdtrqRnKpr0ndu3MaVd1Dg=="
            }
          },
          {
            "validator_address": "9D93AD02FE1BD7E76B9E58D7EB461088EAD011E5",
            "validator_index": "71",
            "height": "9358",
            "round": "1",
            "timestamp": "2018-07-30T21:29:57.255676199Z",
            "type": 2,
            "block_id": {
              "hash": "B0518BB727E5E5521358FE74119485BD4E430EC6",
              "parts": {
                "total": "1",
                "hash": "6CE90774051FD8A9C4C9F7D7614840FB00F1D0ED"
              }
            },
            "signature": {
              "type": "tendermint/SignatureEd25519",
              "value": "N92BcYYns6/1TM4OqrN/4Bv5Z+VtPSLmZKad1w56pXXqTwmaJm0kaH4CacnohQQmBcqXyQcAhVP/ro0rWRgMDQ=="
            }
          },
          null,
          {
            "validator_address": "A0A6466F4ABEA09C3B55E3709AFDE217A103209F",
            "validator_index": "73",
            "height": "9358",
            "round": "1",
            "timestamp": "2018-07-30T21:29:57.343487364Z",
            "type": 2,
            "block_id": {
              "hash": "B0518BB727E5E5521358FE74119485BD4E430EC6",
              "parts": {
                "total": "1",
                "hash": "6CE90774051FD8A9C4C9F7D7614840FB00F1D0ED"
              }
            },
            "signature": {
              "type": "tendermint/SignatureEd25519",
              "value": "vgu2wWnJecOgLnAF8DmBc9RiiXRzafO39uvOW9lZlvIAjwAhxYSn29PCttB1HhNMw4pAttMXPQEdRCQp8cVmDw=="
            }
          },
          {
            "validator_address": "A5868971300F155020634D7BB49C7634F7AACCD3",
            "validator_index": "74",
            "height": "9358",
            "round": "1",
            "timestamp": "2018-07-30T21:29:57.365703493Z",
            "type": 2,
            "block_id": {
              "hash": "B0518BB727E5E5521358FE74119485BD4E430EC6",
              "parts": {
                "total": "1",
                "hash": "6CE90774051FD8A9C4C9F7D7614840FB00F1D0ED"
              }
            },
            "signature": {
              "type": "tendermint/SignatureEd25519",
              "value": "OJMCloiG8cXciXf9oe9BS5W4H1ty4B9GUwTqgUQLIru0+Nxgu4yFb+euluZw5n9b16CmppIS53Ruet5wKkw1Dg=="
            }
          },
          {
            "validator_address": "A6B3A5B5D982CFD7B5FDFA15CF5A720E7AE25E7F",
            "validator_index": "75",
            "height": "9358",
            "round": "1",
            "timestamp": "2018-07-30T21:29:57.374396669Z",
            "type": 2,
            "block_id": {
              "hash": "B0518BB727E5E5521358FE74119485BD4E430EC6",
              "parts": {
                "total": "1",
                "hash": "6CE90774051FD8A9C4C9F7D7614840FB00F1D0ED"
              }
            },
            "signature": {
              "type": "tendermint/SignatureEd25519",
              "value": "kqfnLDUfAHtKD0QCVr2z4TQ9XfAiFdzrF+/pO3ddSC0ucbCUME5w2L5q8BhmDSlfNFkI7eemZP3oEeuSv5NcCA=="
            }
          },
          {
            "validator_address": "AC96444A9083890B7C7B430DB17BF1D3EA5EED04",
            "validator_index": "76",
            "height": "9358",
            "round": "1",
            "timestamp": "2018-07-30T21:29:57.427129762Z",
            "type": 2,
            "block_id": {
              "hash": "B0518BB727E5E5521358FE74119485BD4E430EC6",
              "parts": {
                "total": "1",
                "hash": "6CE90774051FD8A9C4C9F7D7614840FB00F1D0ED"
              }
            },
            "signature": {
              "type": "tendermint/SignatureEd25519",
              "value": "TWSGNAk+LsroB4W5mCS4PC92btyLkSa1Tjd1b4nUZJDiaLgsE+M8d850E5f+TWAKQvBbrK9nJT4iCXCoeqMTCA=="
            }
          },
          {
            "validator_address": "ACB97FDA2D940AF0709B73537C458EB988AD2893",
            "validator_index": "77",
            "height": "9358",
            "round": "1",
            "timestamp": "2018-07-30T21:29:57.384437259Z",
            "type": 2,
            "block_id": {
              "hash": "B0518BB727E5E5521358FE74119485BD4E430EC6",
              "parts": {
                "total": "1",
                "hash": "6CE90774051FD8A9C4C9F7D7614840FB00F1D0ED"
              }
            },
            "signature": {
              "type": "tendermint/SignatureEd25519",
              "value": "eKz6nFvZseeqIoi0GvN1qNpoxEvghV6v2UY7Mt3V2l8Tf2gNyqwxT4Ct6w2IBQ9jdUlW8DHA+g/wL7MgTBxDBg=="
            }
          },
          {
            "validator_address": "B197425B3210375F211661DE02EF2AE36580EB0F",
            "validator_index": "78",
            "height": "9358",
            "round": "1",
            "timestamp": "2018-07-30T21:29:57.362024162Z",
            "type": 2,
            "block_id": {
              "hash": "B0518BB727E5E5521358FE74119485BD4E430EC6",
              "parts": {
                "total": "1",
                "hash": "6CE90774051FD8A9C4C9F7D7614840FB00F1D0ED"
              }
            },
            "signature": {
              "type": "tendermint/SignatureEd25519",
              "value": "d6h8lUscHzqZ+AlAIUSPJj9PlU8Va6/orMoT5LwZ+nXUHaQxFX2CnLn+PcKDrj5+A3kMwXHufhzLOmtDmsJuCw=="
            }
          },
          {
            "validator_address": "B45E54D2D1CB5A4CCD1D49016608C18E7C56B270",
            "validator_index": "79",
            "height": "9358",
            "round": "1",
            "timestamp": "2018-07-30T21:29:57.450439879Z",
            "type": 2,
            "block_id": {
              "hash": "B0518BB727E5E5521358FE74119485BD4E430EC6",
              "parts": {
                "total": "1",
                "hash": "6CE90774051FD8A9C4C9F7D7614840FB00F1D0ED"
              }
            },
            "signature": {
              "type": "tendermint/SignatureEd25519",
              "value": "0Rhjjr//8PXY/UfWbZQNoDO44ipxJOqoX2q+IQyAD6JzdRg4Ok0Cz07HhW2jKT9+NNDO5xVtrfmi9HVFKIrwCw=="
            }
          },
          {
            "validator_address": "B59A34C0BE4EC73AF6A67D274F1695C9259C237C",
            "validator_index": "80",
            "height": "9358",
            "round": "1",
            "timestamp": "2018-07-30T21:29:57.477967247Z",
            "type": 2,
            "block_id": {
              "hash": "B0518BB727E5E5521358FE74119485BD4E430EC6",
              "parts": {
                "total": "1",
                "hash": "6CE90774051FD8A9C4C9F7D7614840FB00F1D0ED"
              }
            },
            "signature": {
              "type": "tendermint/SignatureEd25519",
              "value": "2cxZJ7C3sUic2WbejzRe+KAilXHAP9Egfm53Qswee08GFdSl9m51TMjThu6J3qkCQDLczuX/qP6OoGQWqKEeAQ=="
            }
          },
          {
            "validator_address": "BC36FEDD6EF6071118A3E51859DF3831A2EC4782",
            "validator_index": "81",
            "height": "9358",
            "round": "1",
            "timestamp": "2018-07-30T21:29:57.330763994Z",
            "type": 2,
            "block_id": {
              "hash": "B0518BB727E5E5521358FE74119485BD4E430EC6",
              "parts": {
                "total": "1",
                "hash": "6CE90774051FD8A9C4C9F7D7614840FB00F1D0ED"
              }
            },
            "signature": {
              "type": "tendermint/SignatureEd25519",
              "value": "kaV1h0qJ3IcWhddQkU4izm5Dy8p+Ru56RNpyJFjJ1jwNISlJ9Safx7e7Zlniott5JnI9jPolEzX7EI9hrJNgBw=="
            }
          },
          {
            "validator_address": "BD9D0DA513BF099DB4BB6E725A4E19832789882F",
            "validator_index": "82",
            "height": "9358",
            "round": "1",
            "timestamp": "2018-07-30T21:29:57.3876489Z",
            "type": 2,
            "block_id": {
              "hash": "B0518BB727E5E5521358FE74119485BD4E430EC6",
              "parts": {
                "total": "1",
                "hash": "6CE90774051FD8A9C4C9F7D7614840FB00F1D0ED"
              }
            },
            "signature": {
              "type": "tendermint/SignatureEd25519",
              "value": "N7V36E1uM0SDlTvZkbCttpV78fwYpRnMEICjQO3k9gLKgr9sC1CR/oE3SodjnZ32M23c3gRc45cZteTOhAK1BA=="
            }
          },
          {
            "validator_address": "C1134A2FF8F7338E7CDB3FE57DDD2A655DEB1E22",
            "validator_index": "83",
            "height": "9358",
            "round": "1",
            "timestamp": "2018-07-30T21:29:57.316702051Z",
            "type": 2,
            "block_id": {
              "hash": "B0518BB727E5E5521358FE74119485BD4E430EC6",
              "parts": {
                "total": "1",
                "hash": "6CE90774051FD8A9C4C9F7D7614840FB00F1D0ED"
              }
            },
            "signature": {
              "type": "tendermint/SignatureEd25519",
              "value": "zSjBzS+lZBKfI1QAJKBNah8IfXBdZoN/nFCHqYa6t924NUSiyi0hlJc7tBD3Nk88v/1x2cV3lz+KYuoqLRnEBA=="
            }
          },
          {
            "validator_address": "C39A8A2B85198DCB8F23AD1F6C198E2BA7AB5D60",
            "validator_index": "84",
            "height": "9358",
            "round": "1",
            "timestamp": "2018-07-30T21:29:57.347659018Z",
            "type": 2,
            "block_id": {
              "hash": "B0518BB727E5E5521358FE74119485BD4E430EC6",
              "parts": {
                "total": "1",
                "hash": "6CE90774051FD8A9C4C9F7D7614840FB00F1D0ED"
              }
            },
            "signature": {
              "type": "tendermint/SignatureEd25519",
              "value": "0vEivSJCdv2siKQKinFQtmh3TtFcpUEnr87uNIIeCasR5630JE0oMutyaC9Jd5x1rNFKApScXc8qdaqwJRZNAw=="
            }
          },
          {
            "validator_address": "C4335190C3B5BD4BA5568BC0F99C34162D940D08",
            "validator_index": "85",
            "height": "9358",
            "round": "1",
            "timestamp": "2018-07-30T21:29:57.463290241Z",
            "type": 2,
            "block_id": {
              "hash": "B0518BB727E5E5521358FE74119485BD4E430EC6",
              "parts": {
                "total": "1",
                "hash": "6CE90774051FD8A9C4C9F7D7614840FB00F1D0ED"
              }
            },
            "signature": {
              "type": "tendermint/SignatureEd25519",
              "value": "rhD4VQ87pFa3DxhsAIJwBBYBac+JYB+rbamoklL2d7TRx0c055c8G5uiPbS0kNp7tdwu30vTlRIPVMAXWT7TCw=="
            }
          },
          {
            "validator_address": "C561CFA081677046376396922E7576E5F7B316AD",
            "validator_index": "86",
            "height": "9358",
            "round": "1",
            "timestamp": "2018-07-30T21:29:57.471705453Z",
            "type": 2,
            "block_id": {
              "hash": "B0518BB727E5E5521358FE74119485BD4E430EC6",
              "parts": {
                "total": "1",
                "hash": "6CE90774051FD8A9C4C9F7D7614840FB00F1D0ED"
              }
            },
            "signature": {
              "type": "tendermint/SignatureEd25519",
              "value": "cKYmSsdzAlzSoR0ZdFzsF7wbRzm+WtpqSiygz7vW5stsiJfPg5vTXsoZZrzs4KcsgHgXs09CrhaASGY7C35kBQ=="
            }
          },
          {
            "validator_address": "CE589EA77B056D268D30D1DC1D68A70E0F885E95",
            "validator_index": "87",
            "height": "9358",
            "round": "1",
            "timestamp": "2018-07-30T21:29:57.451193311Z",
            "type": 2,
            "block_id": {
              "hash": "B0518BB727E5E5521358FE74119485BD4E430EC6",
              "parts": {
                "total": "1",
                "hash": "6CE90774051FD8A9C4C9F7D7614840FB00F1D0ED"
              }
            },
            "signature": {
              "type": "tendermint/SignatureEd25519",
              "value": "vNJSYXUaDeRUKrUat/gnhkNp0W/RDJcGH8r6WY2iSIragguRRcwnhosbCbO70ZceuOkXPxJTyYzWaXLk0+kWAA=="
            }
          },
          {
            "validator_address": "CEB97DB5CB18270247ABDE6CF2F84F9AEE8A2904",
            "validator_index": "88",
            "height": "9358",
            "round": "1",
            "timestamp": "2018-07-30T21:29:57.190075148Z",
            "type": 2,
            "block_id": {
              "hash": "B0518BB727E5E5521358FE74119485BD4E430EC6",
              "parts": {
                "total": "1",
                "hash": "6CE90774051FD8A9C4C9F7D7614840FB00F1D0ED"
              }
            },
            "signature": {
              "type": "tendermint/SignatureEd25519",
              "value": "QgKPQpcBIJAEijMc4SYPwEIa2yTu47a5QWN1UWQmtG24M4bJpV3ha/Hp1oxU0fc2+6b+PWtLVjIB6zoxp5m5Ag=="
            }
          },
          {
            "validator_address": "CF205769734F5758CC39F907EFB73D6BAF915FB1",
            "validator_index": "89",
            "height": "9358",
            "round": "1",
            "timestamp": "2018-07-30T21:29:57.447511192Z",
            "type": 2,
            "block_id": {
              "hash": "B0518BB727E5E5521358FE74119485BD4E430EC6",
              "parts": {
                "total": "1",
                "hash": "6CE90774051FD8A9C4C9F7D7614840FB00F1D0ED"
              }
            },
            "signature": {
              "type": "tendermint/SignatureEd25519",
              "value": "63uR8IA9k5scLEmBtPGUWT4w/9RCg6vIttx1V1MQdMVZFAxioewN/JWu/yRWPMiuO46LiLGPy4fAwS16DCMJBQ=="
            }
          },
          {
            "validator_address": "D2134B826A1E25A955905CB79A4D8731CAFA0CCE",
            "validator_index": "90",
            "height": "9358",
            "round": "1",
            "timestamp": "2018-07-30T21:29:57.489629294Z",
            "type": 2,
            "block_id": {
              "hash": "B0518BB727E5E5521358FE74119485BD4E430EC6",
              "parts": {
                "total": "1",
                "hash": "6CE90774051FD8A9C4C9F7D7614840FB00F1D0ED"
              }
            },
            "signature": {
              "type": "tendermint/SignatureEd25519",
              "value": "eDxQSiUdaz/GpqsNTOZVYrvm3YbouKpEWgzaeufS8uUGS+5FAScOEmt9VrU5DO7VhWHEhe+n0zF05csrgVw7Bw=="
            }
          },
          null,
          {
            "validator_address": "D6285C3422C8886445D53757CBE12D2B91B5A9D0",
            "validator_index": "92",
            "height": "9358",
            "round": "1",
            "timestamp": "2018-07-30T21:29:39.71581465Z",
            "type": 2,
            "block_id": {
              "hash": "B0518BB727E5E5521358FE74119485BD4E430EC6",
              "parts": {
                "total": "1",
                "hash": "6CE90774051FD8A9C4C9F7D7614840FB00F1D0ED"
              }
            },
            "signature": {
              "type": "tendermint/SignatureEd25519",
              "value": "KfmYTviTRL+wvU9/D/2qgUSj5bc3f2XJ793Fs11v0lmlS2RVKeFi0ItpCab6HAverI5AVOfMFyROZ+82zqlFDg=="
            }
          },
          {
            "validator_address": "D77FB84A729972CD3E757C9BEB61561855832B92",
            "validator_index": "93",
            "height": "9358",
            "round": "1",
            "timestamp": "2018-07-30T21:29:57.41798774Z",
            "type": 2,
            "block_id": {
              "hash": "B0518BB727E5E5521358FE74119485BD4E430EC6",
              "parts": {
                "total": "1",
                "hash": "6CE90774051FD8A9C4C9F7D7614840FB00F1D0ED"
              }
            },
            "signature": {
              "type": "tendermint/SignatureEd25519",
              "value": "wChnADdqeWG4Ojrs2mjntlCm04j2SG1+BTZ4lYJwTWq0N3KctEVTl1bC2m9YQQdKN15j+yKLh2n8952q8LZFAw=="
            }
          },
          null,
          {
            "validator_address": "DB7E6732471D3EA5C90C17A9974D9F88AB45F2FB",
            "validator_index": "95",
            "height": "9358",
            "round": "1",
            "timestamp": "2018-07-30T21:29:57.447953785Z",
            "type": 2,
            "block_id": {
              "hash": "B0518BB727E5E5521358FE74119485BD4E430EC6",
              "parts": {
                "total": "1",
                "hash": "6CE90774051FD8A9C4C9F7D7614840FB00F1D0ED"
              }
            },
            "signature": {
              "type": "tendermint/SignatureEd25519",
              "value": "Cdm8UYWu50tPVCEwioh6bYCTKUt/FXtlLh0JK1FMTSp0a1tSILZcnibQJndtA/ZQpJgVSZpmx1OBttiVkALQBQ=="
            }
          },
          {
            "validator_address": "DF54B862410BCD9B5C516FBB6C56BDC826ED6FA7",
            "validator_index": "96",
            "height": "9358",
            "round": "1",
            "timestamp": "2018-07-30T21:29:57.506308041Z",
            "type": 2,
            "block_id": {
              "hash": "B0518BB727E5E5521358FE74119485BD4E430EC6",
              "parts": {
                "total": "1",
                "hash": "6CE90774051FD8A9C4C9F7D7614840FB00F1D0ED"
              }
            },
            "signature": {
              "type": "tendermint/SignatureEd25519",
              "value": "ITNZ2PW+4OjHs7x4ETJsjIT6fIAsKByF3sjEfh/rvLQGFFCexrNWef5YAa1flteV38fhtDsqxltomu3fndmcBQ=="
            }
          },
          {
            "validator_address": "DFAF0C8B1B78D6D552B0189DE3ACA351439A1319",
            "validator_index": "97",
            "height": "9358",
            "round": "1",
            "timestamp": "2018-07-30T21:29:57.284431943Z",
            "type": 2,
            "block_id": {
              "hash": "B0518BB727E5E5521358FE74119485BD4E430EC6",
              "parts": {
                "total": "1",
                "hash": "6CE90774051FD8A9C4C9F7D7614840FB00F1D0ED"
              }
            },
            "signature": {
              "type": "tendermint/SignatureEd25519",
              "value": "ccoijOAMIcIa1yk+X4rLMEbLrKAxA9Xbzu/Kn9EyewTMRJVcmCpZaPIpgQoXayVW2yHB/07RfZdSrKD/q+6EAA=="
            }
          },
          {
            "validator_address": "E1DBC77881161A5A3A8536A57536EAE546A75D69",
            "validator_index": "98",
            "height": "9358",
            "round": "1",
            "timestamp": "2018-07-30T21:29:57.315154917Z",
            "type": 2,
            "block_id": {
              "hash": "B0518BB727E5E5521358FE74119485BD4E430EC6",
              "parts": {
                "total": "1",
                "hash": "6CE90774051FD8A9C4C9F7D7614840FB00F1D0ED"
              }
            },
            "signature": {
              "type": "tendermint/SignatureEd25519",
              "value": "8NkJFpQg5LOkI1PrygHMgLPMinoNYATcK060JxqrawT6c7UpyewLaZuwpLs5qXr3uYwXbve7EIpBiIH/e9HXCw=="
            }
          },
          {
            "validator_address": "E300E9D484374C1D3E97C1D93CAC3B160A056298",
            "validator_index": "99",
            "height": "9358",
            "round": "1",
            "timestamp": "2018-07-30T21:29:57.565812587Z",
            "type": 2,
            "block_id": {
              "hash": "B0518BB727E5E5521358FE74119485BD4E430EC6",
              "parts": {
                "total": "1",
                "hash": "6CE90774051FD8A9C4C9F7D7614840FB00F1D0ED"
              }
            },
            "signature": {
              "type": "tendermint/SignatureEd25519",
              "value": "c3Rp2a8ioweIezUYVZpSmEhVpg4hbMpFzRcOFmxyv3ZGb3a5UGLehDdND+d1js9U7emNDM4qjEuHJ68Aihw9Ag=="
            }
          },
          {
            "validator_address": "E39B5778E0D4297A46F45CF6940B0A163A430FF8",
            "validator_index": "100",
            "height": "9358",
            "round": "1",
            "timestamp": "2018-07-30T21:29:57.395813137Z",
            "type": 2,
            "block_id": {
              "hash": "B0518BB727E5E5521358FE74119485BD4E430EC6",
              "parts": {
                "total": "1",
                "hash": "6CE90774051FD8A9C4C9F7D7614840FB00F1D0ED"
              }
            },
            "signature": {
              "type": "tendermint/SignatureEd25519",
              "value": "7CXsVX6zpkjgoHdBoZS6YZ9ncSOij4cjiqz6PQ09+hZbjwHofEIbnvzM3n6/ng+SndQA389baH5qmrquB2esBA=="
            }
          },
          {
            "validator_address": "E3B19738F7132F950668504D326C7660F159D170",
            "validator_index": "101",
            "height": "9358",
            "round": "1",
            "timestamp": "2018-07-30T21:29:57.353839435Z",
            "type": 2,
            "block_id": {
              "hash": "B0518BB727E5E5521358FE74119485BD4E430EC6",
              "parts": {
                "total": "1",
                "hash": "6CE90774051FD8A9C4C9F7D7614840FB00F1D0ED"
              }
            },
            "signature": {
              "type": "tendermint/SignatureEd25519",
              "value": "3UX0XhNNw1KLzOrG52cHk0wySFslltbC1PmG/ECtkjMnjiwuZck5I6b++mY0moDfcF4Na79CMgcC+vDLh4YkDA=="
            }
          },
          {
            "validator_address": "E42F8AEABB685219F7027F54D2B0DBC7846F633A",
            "validator_index": "102",
            "height": "9358",
            "round": "1",
            "timestamp": "2018-07-30T21:29:56.679723678Z",
            "type": 2,
            "block_id": {
              "hash": "B0518BB727E5E5521358FE74119485BD4E430EC6",
              "parts": {
                "total": "1",
                "hash": "6CE90774051FD8A9C4C9F7D7614840FB00F1D0ED"
              }
            },
            "signature": {
              "type": "tendermint/SignatureEd25519",
              "value": "xgK29/2S94guTEDhJcwupg7KPdDhAOSmmytibbUjDlAkWb065T/nngSVyMZcH4xjUx6t5YU2z8Lxi9bS7/A8Bg=="
            }
          },
          {
            "validator_address": "E4E6C2E81269DFFA196C17F98240E491479A6008",
            "validator_index": "103",
            "height": "9358",
            "round": "1",
            "timestamp": "2018-07-30T21:29:57.437808731Z",
            "type": 2,
            "block_id": {
              "hash": "B0518BB727E5E5521358FE74119485BD4E430EC6",
              "parts": {
                "total": "1",
                "hash": "6CE90774051FD8A9C4C9F7D7614840FB00F1D0ED"
              }
            },
            "signature": {
              "type": "tendermint/SignatureEd25519",
              "value": "IwH/lv/0V6Bnvc39Re+uP8t1PJFhevvJNTyhMwXYQHyn1gFxXDmt887DFQEgPJB6nOFSYA5S280sF+PefEGWBA=="
            }
          },
          {
            "validator_address": "E4FEB2846F4F3B0ECDCBE9C9DCB2248248A5AF0F",
            "validator_index": "104",
            "height": "9358",
            "round": "1",
            "timestamp": "2018-07-30T21:29:57.62626844Z",
            "type": 2,
            "block_id": {
              "hash": "B0518BB727E5E5521358FE74119485BD4E430EC6",
              "parts": {
                "total": "1",
                "hash": "6CE90774051FD8A9C4C9F7D7614840FB00F1D0ED"
              }
            },
            "signature": {
              "type": "tendermint/SignatureEd25519",
              "value": "Fr/JcD89wFCHr1ZpsPgsEZXhDBTfQbVRuUjLN3eoaWKV3lRftySW7A7ZhTWC+JuukL5QZekXv1wUyT9fqUCqAQ=="
            }
          },
          null,
          {
            "validator_address": "EBC613967F66F4EC306852CDF58B4F151CF16738",
            "validator_index": "106",
            "height": "9358",
            "round": "1",
            "timestamp": "2018-07-30T21:29:57.474974154Z",
            "type": 2,
            "block_id": {
              "hash": "B0518BB727E5E5521358FE74119485BD4E430EC6",
              "parts": {
                "total": "1",
                "hash": "6CE90774051FD8A9C4C9F7D7614840FB00F1D0ED"
              }
            },
            "signature": {
              "type": "tendermint/SignatureEd25519",
              "value": "4JpeK1B13TmuCY9Xbf7/T+zB9IozZqYWEXOczUO2/Cn5Hj9j/LPUtAWTfCfWHlSN3xaxHMkGUrUohb63Fg2GAA=="
            }
          },
          {
            "validator_address": "EC3401441726C40ECC7E51F744483B05BC6DE9BD",
            "validator_index": "107",
            "height": "9358",
            "round": "1",
            "timestamp": "2018-07-30T21:29:57.338192406Z",
            "type": 2,
            "block_id": {
              "hash": "B0518BB727E5E5521358FE74119485BD4E430EC6",
              "parts": {
                "total": "1",
                "hash": "6CE90774051FD8A9C4C9F7D7614840FB00F1D0ED"
              }
            },
            "signature": {
              "type": "tendermint/SignatureEd25519",
              "value": "HnX6Kp8ea5HBJjDEdZ51XOJfJf6dZRsEh/qxn0Xz9LsEPQdHJ0Uja53wHpSYLKO/ibKkEmw5QnJvsrHb8L9mBg=="
            }
          },
          {
            "validator_address": "EC95B111D032181E1EC3B5E8875C5BB8E4AE7140",
            "validator_index": "108",
            "height": "9358",
            "round": "1",
            "timestamp": "2018-07-30T21:29:57.354158764Z",
            "type": 2,
            "block_id": {
              "hash": "B0518BB727E5E5521358FE74119485BD4E430EC6",
              "parts": {
                "total": "1",
                "hash": "6CE90774051FD8A9C4C9F7D7614840FB00F1D0ED"
              }
            },
            "signature": {
              "type": "tendermint/SignatureEd25519",
              "value": "w0vxKQmLAeTV/M2JFys0Km4LgxzwS0Ar5zFictft3FLGnxEYX4UsjD9XZToN8D7IkAKJyCUxIOIfIl2HE/HYBw=="
            }
          },
          {
            "validator_address": "F13C1805E8131C9B47E2A46818F57D8A2841E578",
            "validator_index": "109",
            "height": "9358",
            "round": "1",
            "timestamp": "2018-07-30T21:29:57.406011143Z",
            "type": 2,
            "block_id": {
              "hash": "B0518BB727E5E5521358FE74119485BD4E430EC6",
              "parts": {
                "total": "1",
                "hash": "6CE90774051FD8A9C4C9F7D7614840FB00F1D0ED"
              }
            },
            "signature": {
              "type": "tendermint/SignatureEd25519",
              "value": "hp7nEvp3OmNF+EpQfxuZbZEc3BXqZDuYjI7XNrLe8qh/KtCHCvzczjlAr0hk/gw7MJ9T4XlM6GzyIgO8rDmsAw=="
            }
          },
          {
            "validator_address": "F23FF36BD5B90C33CE3A03ED72DBDCF5EC07D6AF",
            "validator_index": "110",
            "height": "9358",
            "round": "1",
            "timestamp": "2018-07-30T21:29:57.409054818Z",
            "type": 2,
            "block_id": {
              "hash": "B0518BB727E5E5521358FE74119485BD4E430EC6",
              "parts": {
                "total": "1",
                "hash": "6CE90774051FD8A9C4C9F7D7614840FB00F1D0ED"
              }
            },
            "signature": {
              "type": "tendermint/SignatureEd25519",
              "value": "54x7EnfnNPmmipWJLZxnQyEzMYnv0RvcGig4kDuSgXOvbSWT8qXZGNyTYm8ZFYXY7kEgdhMqv2RPBpLJwzGpAA=="
            }
          },
          {
            "validator_address": "F4268597DE93E3E2CED38845010F8AA34E2A879E",
            "validator_index": "111",
            "height": "9358",
            "round": "1",
            "timestamp": "2018-07-30T21:29:57.431537515Z",
            "type": 2,
            "block_id": {
              "hash": "B0518BB727E5E5521358FE74119485BD4E430EC6",
              "parts": {
                "total": "1",
                "hash": "6CE90774051FD8A9C4C9F7D7614840FB00F1D0ED"
              }
            },
            "signature": {
              "type": "tendermint/SignatureEd25519",
              "value": "373pHJ/sm3bDtdwwpqARveIyIS35q/9yXiWa+oKgDlB4O5uFGQ8Xoly5SBH616SaAWgsYNdnftVLBBlQZqbdBw=="
            }
          },
          {
            "validator_address": "F4DEB417999B04BE2EFF9FFE03FA373D86011CC0",
            "validator_index": "112",
            "height": "9358",
            "round": "1",
            "timestamp": "2018-07-30T21:29:57.435457241Z",
            "type": 2,
            "block_id": {
              "hash": "B0518BB727E5E5521358FE74119485BD4E430EC6",
              "parts": {
                "total": "1",
                "hash": "6CE90774051FD8A9C4C9F7D7614840FB00F1D0ED"
              }
            },
            "signature": {
              "type": "tendermint/SignatureEd25519",
              "value": "sBX2VXDzMiSk6TCtALQq7ratuaaJm49j+AE2zWMbdhPkjHZDPUBZWBTwY+kf/yR5hKdpROErIcLj/1VRVOiDDg=="
            }
          },
          null,
          null,
          null,
          {
            "validator_address": "FF3F3FCBCE7E62D7AD5506FF846EC4518D980515",
            "validator_index": "116",
            "height": "9358",
            "round": "1",
            "timestamp": "2018-07-30T21:29:57.304617522Z",
            "type": 2,
            "block_id": {
              "hash": "B0518BB727E5E5521358FE74119485BD4E430EC6",
              "parts": {
                "total": "1",
                "hash": "6CE90774051FD8A9C4C9F7D7614840FB00F1D0ED"
              }
            },
            "signature": {
              "type": "tendermint/SignatureEd25519",
              "value": "xviRb/M32Ub+TH7q9Op7XCrgcnSkzHyVj67Q46/+iW48AVNmrls7Jwc2pUXmxF8r1Aoi+m/w2RX4h15PUoLyCw=="
            }
          }
        ]
      }
    },
    "canonical": true
  }
}